<?xml version="1.0" encoding="UTF-8" standalone="no"?>
<!-- Creator: CorelDRAW X6 -->

<svg
   xmlns:dc="http://purl.org/dc/elements/1.1/"
   xmlns:cc="http://creativecommons.org/ns#"
   xmlns:rdf="http://www.w3.org/1999/02/22-rdf-syntax-ns#"
   xmlns:svg="http://www.w3.org/2000/svg"
   xmlns="http://www.w3.org/2000/svg"
   xmlns:sodipodi="http://sodipodi.sourceforge.net/DTD/sodipodi-0.dtd"
   xmlns:inkscape="http://www.inkscape.org/namespaces/inkscape"
   xml:space="preserve"
   width="0.20999999in"
   height="0.28999999in"
   version="1.1"
   viewBox="0 0 62010 85632.027"
   id="svg32"
   sodipodi:docname="svg.breadboard.LED_IR-5mm_top-view-JLJ_breadboard.svg"
   inkscape:version="0.92.3 (2405546, 2018-03-11)"
   style="clip-rule:evenodd;fill-rule:evenodd;image-rendering:optimizeQuality;shape-rendering:geometricPrecision;text-rendering:geometricPrecision"><metadata
   id="metadata38"><rdf:RDF><cc:Work
       rdf:about=""><dc:format>image/svg+xml</dc:format><dc:type
         rdf:resource="http://purl.org/dc/dcmitype/StillImage" /><dc:title></dc:title></cc:Work></rdf:RDF></metadata><defs
   id="defs36">
  
  
  
  
  
  
  
  
  
  
  
  
  
  
  
  
  
 </defs><sodipodi:namedview
   pagecolor="#ffffff"
   bordercolor="#666666"
   borderopacity="1"
   objecttolerance="10"
   gridtolerance="10"
   guidetolerance="10"
   inkscape:pageopacity="0"
   inkscape:pageshadow="2"
   inkscape:window-width="1920"
   inkscape:window-height="1140"
   id="namedview34"
   showgrid="false"
   inkscape:document-units="in"
   inkscape:zoom="26.649807"
   inkscape:cx="5.5195192"
   inkscape:cy="14.284149"
   inkscape:window-x="0"
   inkscape:window-y="0"
   inkscape:window-maximized="1"
   inkscape:current-layer="svg32" />
 <g
   id="g913"
   transform="translate(0,-22222.519)"><rect
     id="connector0pin"
     x="12038"
     y="55294"
     width="8826"
     height="2953"
     gorn="0.0.0"
     style="fill:#808080;fill-opacity:0.78666663" /><rect
     id="connector1pin"
     x="41566"
     y="55294"
     width="8835"
     height="2953"
     gorn="0.0.1"
     style="fill:#808080;fill-opacity:0.78666663" /></g><g
   id="g903"
   transform="translate(118033.24,0.071045)"><path
     d="m -89707.839,589.90991 c 18720.611,0 33899.35,15205.00009 33899.35,33958.00009 0,18753 -15178.739,33958 -33899.35,33958 -11516.081,0 -21690.471,-5756 -27815.881,-14549 v -38817 c 6125.41,-8793.0001 16299.8,-14549.00009 27815.881,-14549.00009 z"
     id="path11"
     inkscape:connector-curvature="0"
     style="fill:#151515;fill-opacity:0.81960796;stroke-width:0.99913609" /><path
     d="m -89815.45,6495.9099 c 15465.243,0 28003.55,12560.0001 28003.55,28052.0001 0,15492 -12538.307,28052 -28003.55,28052 -15465.24,0 -28003.55,-12560 -28003.55,-28052 0,-15492 12538.31,-28052.0001 28003.55,-28052.0001 z"
     id="path13"
     inkscape:connector-curvature="0"
     style="fill:#fefefe;fill-opacity:0.63921599;stroke-width:0.99913609" /><rect
     x="-111913.29"
     y="33433.91"
     width="44216.5"
     height="2227"
     id="rect15"
     style="fill:#4b4b4d;stroke-width:0.99913609" /><path
     d="m -89815.45,6495.9099 c 15465.243,0 28003.55,12560.0001 28003.55,28052.0001 0,15492 -12538.307,28052 -28003.55,28052 -15465.24,0 -28003.55,-12560 -28003.55,-28052 0,-15492 12538.31,-28052.0001 28003.55,-28052.0001 z"
     id="path17"
     inkscape:connector-curvature="0"
     style="fill:#474747;fill-opacity:0.870588;stroke-width:0.99913609" /><path
     d="m -89847.312,16583.91 c 9902.867,0 17931.976,8044 17931.976,17963 0,9920 -8030.107,17963 -17931.976,17963 -9902.867,0 -17931.978,-8044 -17931.978,-17963 0,-9920 8030.109,-17963 17931.978,-17963 z"
     id="path19"
     inkscape:connector-curvature="0"
     style="fill:#474747;fill-opacity:0.56078384;stroke-width:0.99913609" /><ellipse
     ry="7361"
     rx="7348.2866"
     cx="-89800.711"
     cy="34547.91"
     id="circle21"
     style="fill:#474747;fill-opacity:1;stroke-width:0.99913609" /><path
     d="m -89815.45,6495.9099 c 15465.243,0 28003.55,12560.0001 28003.55,28052.0001 0,15492 -12538.307,28052 -28003.55,28052 -15465.24,0 -28003.55,-12560 -28003.55,-28052 0,-15492 12538.31,-28052.0001 28003.55,-28052.0001 z m 0,2932 c 13849.039,0 25076.614,11248.0001 25076.614,25120.0001 0,13873 -11228.573,25120 -25076.614,25120 -13849.04,0 -25076.61,-11248 -25076.61,-25120 0,-13873 11228.57,-25120.0001 25076.61,-25120.0001 z"
     id="path23"
     inkscape:connector-curvature="0"
     style="fill:#373737;fill-opacity:1;stroke-width:0.99913609" /><path
     d="m -89953.552,1117.9099 c 12410.528,0 23240.791,6793 28983.855,16868.0001 l -3640.701,2454 c -4950.436,-8902 -14439.019,-14923.0001 -25332.173,-14923.0001 -4960.418,0 -9629.34,1250 -13711.279,3450 l -2058.44,-3890 c 4692.88,-2526 10058.6,-3960 15758.738,-3960 z"
     id="path25"
     inkscape:connector-curvature="0"
     style="fill:#fefefe;fill-opacity:0.54901997;stroke-width:0.99913609" /><path
     d="m -89683.883,13087.91 c 8209.796,0 15339.461,4628 18936.238,11422 l -5411.637,3943 c -2321.983,-5164 -7504.017,-8759 -13524.601,-8759 -2708.314,0 -5247.92,729 -7433.14,2000 l -2984.837,-5900 c 3083.666,-1723 6635.521,-2706 10417.977,-2706 z"
     id="path27"
     inkscape:connector-curvature="0"
     style="fill:#fefefe;fill-opacity:0.54901997;stroke-width:0.99913609" /><path
     d="m -64094.154,55769.91 c -6944.984,8453 -14052.687,12736 -25613.685,12736 -11561.001,0 -21690.471,-5756 -27815.881,-14549 v -16163 c 1606.23,13962 13446.74,24806 27815.881,24806 14950.134,0 27164.003,-11737 27961.623,-26514 1094.107,6442 495.143,14987 -2347.938,19684 z"
     id="path29"
     inkscape:connector-curvature="0"
     style="fill:#151515;fill-opacity:0.87843101;stroke-width:0.99913609" /></g>
</svg>