<?xml version='1.0' encoding='UTF-8' standalone='no'?>
<svg
  xmlns:dc="http://purl.org/dc/elements/1.1/"
  xmlns:cc="http://creativecommons.org/ns#"
  xmlns:rdf="http://www.w3.org/1999/02/22-rdf-syntax-ns#"
  xmlns:svg="http://www.w3.org/2000/svg"
  xmlns="http://www.w3.org/2000/svg"
  width="128.01909mm"
  height="32mm"
  version="1.1"
  id="svg8"
  viewBox="0 0 5040.1236 1259.843"
  gorn="0">
  <desc
    id="desc2">
    <referenceFile>fc-16-4pos_1_breadboard.svg</referenceFile>
  </desc>
  <defs
    id="defs2"
  />
  <metadata
    id="metadata5">
    <rdf:RDF>
      <cc:Work
        rdf:about="">
        <dc:format>image/svg+xml</dc:format>
        <dc:type
          rdf:resource="http://purl.org/dc/dcmitype/StillImage"
        />
        <dc:title/>
      </cc:Work>
    </rdf:RDF>
  </metadata>
  <g
    id="breadboard">
    <rect
      id="rect83"
      width="1259.843"
      height="1259.843"
      x="0.7513566"
      y="0"
      fill="#999999"
      stroke="none"
      stroke-width="0"
    />
    <path
      gorn="0.2.0.0"
      id="0.2.0.0.0.0"
      d="M 78.244112,989.76519 V 1162.5226 H 260.06376 v -9.0966 h 181.81327 v 9.0966 h 372.72164 v -9.0966 H 996.4183 v 9.0966 h 172.7309 V 989.76519 h 9.0888 l 0.01,-181.84751 h -7.6007 l -1.4945,-372.77876 h 9.0951 v -181.8411 h -9.0951 V 71.450314 H 996.41824 V 62.360185 H 814.59861 v 9.090129 H 441.87697 V 62.360185 H 260.0637 v 9.090129 H 78.244051 V 253.29141 h 9.088739 v 181.84751 h -9.088739 v 372.77876 h 9.088739 v 181.84751 h -9.088739 z"
      stroke-width="11.1111"
    />
    <ellipse
      gorn="0.2.0.1"
      id="0.2.0.1.0.0"
      cx="1110.486"
      cy="1100.1426"
      ry="45.373672"
      rx="45.475758"
      fill="#ffffff"
      stroke-width="11.1111"
    />
    <ellipse
      gorn="0.2.0.2"
      id="0.2.0.1.0.1"
      cx="971.62128"
      cy="1100.1426"
      ry="45.373672"
      rx="45.462929"
      fill="#ffffff"
      stroke-width="11.1111"
    />
    <ellipse
      gorn="0.2.0.3"
      id="0.2.0.1.0.2"
      cx="832.75049"
      cy="1100.1426"
      ry="45.373672"
      rx="45.475758"
      fill="#ffffff"
      stroke-width="11.1111"
    />
    <ellipse
      gorn="0.2.0.4"
      id="0.2.0.1.0.3"
      cx="693.87946"
      cy="1100.1426"
      ry="45.373672"
      rx="45.462929"
      fill="#ffffff"
      stroke-width="11.1111"
    />
    <ellipse
      gorn="0.2.0.5"
      id="0.2.0.1.0.4"
      cx="555.00201"
      cy="1100.1426"
      ry="45.373672"
      rx="45.462929"
      fill="#ffffff"
      stroke-width="11.1111"
    />
    <ellipse
      gorn="0.2.0.6"
      id="0.2.0.1.0.5"
      cx="416.13739"
      cy="1100.1426"
      ry="45.373672"
      rx="45.456512"
      fill="#ffffff"
      stroke-width="11.1111"
    />
    <ellipse
      gorn="0.2.0.7"
      id="0.2.0.1.0.6"
      cx="277.2663"
      cy="1100.1426"
      ry="45.373672"
      rx="45.456512"
      fill="#ffffff"
      stroke-width="11.1111"
    />
    <ellipse
      gorn="0.2.0.8"
      id="0.2.0.1.0.7"
      cx="138.39528"
      cy="1100.1426"
      ry="45.373672"
      rx="45.462929"
      fill="#ffffff"
      stroke-width="11.1111"
    />
    <ellipse
      gorn="0.2.0.9"
      id="0.2.0.1.1.0"
      cx="1110.486"
      cy="961.87891"
      ry="45.373672"
      rx="45.475758"
      fill="#ffffff"
      stroke-width="11.1111"
    />
    <ellipse
      gorn="0.2.0.10"
      id="0.2.0.1.1.1"
      cx="971.62128"
      cy="961.87891"
      ry="45.373672"
      rx="45.462929"
      fill="#ffffff"
      stroke-width="11.1111"
    />
    <ellipse
      gorn="0.2.0.11"
      id="0.2.0.1.1.2"
      cx="832.75049"
      cy="961.87891"
      ry="45.373672"
      rx="45.475758"
      fill="#ffffff"
      stroke-width="11.1111"
    />
    <ellipse
      gorn="0.2.0.12"
      id="0.2.0.1.1.3"
      cx="693.87946"
      cy="961.87891"
      ry="45.373672"
      rx="45.462929"
      fill="#ffffff"
      stroke-width="11.1111"
    />
    <ellipse
      gorn="0.2.0.13"
      id="0.2.0.1.1.4"
      cx="555.00201"
      cy="961.87891"
      ry="45.373672"
      rx="45.462929"
      fill="#ffffff"
      stroke-width="11.1111"
    />
    <ellipse
      gorn="0.2.0.14"
      id="0.2.0.1.1.5"
      cx="416.13739"
      cy="961.87891"
      ry="45.373672"
      rx="45.456512"
      fill="#ffffff"
      stroke-width="11.1111"
    />
    <ellipse
      gorn="0.2.0.15"
      id="0.2.0.1.1.6"
      cx="277.2663"
      cy="961.87891"
      ry="45.373672"
      rx="45.456512"
      fill="#ffffff"
      stroke-width="11.1111"
    />
    <ellipse
      gorn="0.2.0.16"
      id="0.2.0.1.1.7"
      cx="138.39528"
      cy="961.87891"
      ry="45.373672"
      rx="45.462929"
      fill="#ffffff"
      stroke-width="11.1111"
    />
    <ellipse
      gorn="0.2.0.17"
      id="0.2.0.1.2.0"
      cx="1110.486"
      cy="823.6153"
      ry="45.373672"
      rx="45.475758"
      fill="#ffffff"
      stroke-width="11.1111"
    />
    <ellipse
      gorn="0.2.0.18"
      id="0.2.0.1.2.1"
      cx="971.62128"
      cy="823.6153"
      ry="45.373672"
      rx="45.462929"
      fill="#ffffff"
      stroke-width="11.1111"
    />
    <ellipse
      gorn="0.2.0.19"
      id="0.2.0.1.2.2"
      cx="832.75049"
      cy="823.6153"
      ry="45.373672"
      rx="45.475758"
      fill="#ffffff"
      stroke-width="11.1111"
    />
    <ellipse
      gorn="0.2.0.20"
      id="0.2.0.1.2.3"
      cx="693.87946"
      cy="823.6153"
      ry="45.373672"
      rx="45.462929"
      fill="#ffffff"
      stroke-width="11.1111"
    />
    <ellipse
      gorn="0.2.0.21"
      id="0.2.0.1.2.4"
      cx="555.00201"
      cy="823.6153"
      ry="45.373672"
      rx="45.462929"
      fill="#ffffff"
      stroke-width="11.1111"
    />
    <ellipse
      gorn="0.2.0.22"
      id="0.2.0.1.2.5"
      cx="416.13739"
      cy="823.6153"
      ry="45.373672"
      rx="45.456512"
      fill="#ffffff"
      stroke-width="11.1111"
    />
    <ellipse
      gorn="0.2.0.23"
      id="0.2.0.1.2.6"
      cx="277.2663"
      cy="823.6153"
      ry="45.373672"
      rx="45.456512"
      fill="#ffffff"
      stroke-width="11.1111"
    />
    <ellipse
      gorn="0.2.0.24"
      id="0.2.0.1.2.7"
      cx="138.39528"
      cy="823.6153"
      ry="45.373672"
      rx="45.462929"
      fill="#ffffff"
      stroke-width="11.1111"
    />
    <ellipse
      gorn="0.2.0.25"
      id="0.2.0.1.3.0"
      cx="1110.486"
      cy="685.36444"
      ry="45.373672"
      rx="45.475758"
      fill="#ffffff"
      stroke-width="11.1111"
    />
    <ellipse
      gorn="0.2.0.26"
      id="0.2.0.1.3.1"
      cx="971.62128"
      cy="685.36444"
      ry="45.373672"
      rx="45.462929"
      fill="#ffffff"
      stroke-width="11.1111"
    />
    <ellipse
      gorn="0.2.0.27"
      id="0.2.0.1.3.2"
      cx="832.75049"
      cy="685.36444"
      ry="45.373672"
      rx="45.475758"
      fill="#ffffff"
      stroke-width="11.1111"
    />
    <ellipse
      gorn="0.2.0.28"
      id="0.2.0.1.3.3"
      cx="693.87946"
      cy="685.36444"
      ry="45.373672"
      rx="45.462929"
      fill="#ffffff"
      stroke-width="11.1111"
    />
    <ellipse
      gorn="0.2.0.29"
      id="0.2.0.1.3.4"
      cx="555.00201"
      cy="685.36444"
      ry="45.373672"
      rx="45.462929"
      fill="#ffffff"
      stroke-width="11.1111"
    />
    <ellipse
      gorn="0.2.0.30"
      id="0.2.0.1.3.5"
      cx="416.13739"
      cy="685.36444"
      ry="45.373672"
      rx="45.456512"
      fill="#ffffff"
      stroke-width="11.1111"
    />
    <ellipse
      gorn="0.2.0.31"
      id="0.2.0.1.3.6"
      cx="277.2663"
      cy="685.36444"
      ry="45.373672"
      rx="45.456512"
      fill="#ffffff"
      stroke-width="11.1111"
    />
    <ellipse
      gorn="0.2.0.32"
      id="0.2.0.1.3.7"
      cx="138.39528"
      cy="685.36444"
      ry="45.373672"
      rx="45.462929"
      fill="#ffffff"
      stroke-width="11.1111"
    />
    <ellipse
      gorn="0.2.0.33"
      id="0.2.0.1.4.0"
      cx="1110.486"
      cy="547.11377"
      ry="45.373672"
      rx="45.475758"
      fill="#ffffff"
      stroke-width="11.1111"
    />
    <ellipse
      gorn="0.2.0.34"
      id="0.2.0.1.4.1"
      cx="971.62128"
      cy="547.11377"
      ry="45.373672"
      rx="45.462929"
      fill="#ffffff"
      stroke-width="11.1111"
    />
    <ellipse
      gorn="0.2.0.35"
      id="0.2.0.1.4.2"
      cx="832.75049"
      cy="547.11377"
      ry="45.373672"
      rx="45.475758"
      fill="#ffffff"
      stroke-width="11.1111"
    />
    <ellipse
      gorn="0.2.0.36"
      id="0.2.0.1.4.3"
      cx="693.87946"
      cy="547.11377"
      ry="45.373672"
      rx="45.462929"
      fill="#ffffff"
      stroke-width="11.1111"
    />
    <ellipse
      gorn="0.2.0.37"
      id="0.2.0.1.4.4"
      cx="555.00201"
      cy="547.11377"
      ry="45.373672"
      rx="45.462929"
      fill="#ffffff"
      stroke-width="11.1111"
    />
    <ellipse
      gorn="0.2.0.38"
      id="0.2.0.1.4.5"
      cx="416.13739"
      cy="547.11377"
      ry="45.373672"
      rx="45.456512"
      fill="#ffffff"
      stroke-width="11.1111"
    />
    <ellipse
      gorn="0.2.0.39"
      id="0.2.0.1.4.6"
      cx="277.2663"
      cy="547.11377"
      ry="45.373672"
      rx="45.456512"
      fill="#ffffff"
      stroke-width="11.1111"
    />
    <ellipse
      gorn="0.2.0.40"
      id="0.2.0.1.4.7"
      cx="138.39528"
      cy="547.11377"
      ry="45.373672"
      rx="45.462929"
      fill="#ffffff"
      stroke-width="11.1111"
    />
    <ellipse
      gorn="0.2.0.41"
      id="0.2.0.1.5.0"
      cx="1110.486"
      cy="408.86282"
      ry="45.373672"
      rx="45.475758"
      fill="#ffffff"
      stroke-width="11.1111"
    />
    <ellipse
      gorn="0.2.0.42"
      id="0.2.0.1.5.1"
      cx="971.62128"
      cy="408.86282"
      ry="45.373672"
      rx="45.462929"
      fill="#ffffff"
      stroke-width="11.1111"
    />
    <ellipse
      gorn="0.2.0.43"
      id="0.2.0.1.5.2"
      cx="832.75049"
      cy="408.86282"
      ry="45.373672"
      rx="45.475758"
      fill="#ffffff"
      stroke-width="11.1111"
    />
    <ellipse
      gorn="0.2.0.44"
      id="0.2.0.1.5.3"
      cx="693.87946"
      cy="408.86282"
      ry="45.373672"
      rx="45.462929"
      fill="#ffffff"
      stroke-width="11.1111"
    />
    <ellipse
      gorn="0.2.0.45"
      id="0.2.0.1.5.4"
      cx="555.00201"
      cy="408.86282"
      ry="45.373672"
      rx="45.462929"
      fill="#ffffff"
      stroke-width="11.1111"
    />
    <ellipse
      gorn="0.2.0.46"
      id="0.2.0.1.5.5"
      cx="416.13739"
      cy="408.86282"
      ry="45.373672"
      rx="45.456512"
      fill="#ffffff"
      stroke-width="11.1111"
    />
    <ellipse
      gorn="0.2.0.47"
      id="0.2.0.1.5.6"
      cx="277.2663"
      cy="408.86282"
      ry="45.373672"
      rx="45.456512"
      fill="#ffffff"
      stroke-width="11.1111"
    />
    <ellipse
      gorn="0.2.0.48"
      id="0.2.0.1.5.7"
      cx="138.39528"
      cy="408.86282"
      ry="45.373672"
      rx="45.462929"
      fill="#ffffff"
      stroke-width="11.1111"
    />
    <ellipse
      gorn="0.2.0.49"
      id="0.2.0.1.6.0"
      cx="1110.486"
      cy="270.59274"
      ry="45.373672"
      rx="45.475758"
      fill="#ffffff"
      stroke-width="11.1111"
    />
    <ellipse
      gorn="0.2.0.50"
      id="0.2.0.1.6.1"
      cx="971.62128"
      cy="270.59274"
      ry="45.373672"
      rx="45.462929"
      fill="#ffffff"
      stroke-width="11.1111"
    />
    <ellipse
      gorn="0.2.0.51"
      id="0.2.0.1.6.2"
      cx="832.75049"
      cy="270.59274"
      ry="45.373672"
      rx="45.475758"
      fill="#ffffff"
      stroke-width="11.1111"
    />
    <ellipse
      gorn="0.2.0.52"
      id="0.2.0.1.6.3"
      cx="693.87946"
      cy="270.59274"
      ry="45.373672"
      rx="45.462929"
      fill="#ffffff"
      stroke-width="11.1111"
    />
    <ellipse
      gorn="0.2.0.53"
      id="0.2.0.1.6.4"
      cx="555.00201"
      cy="270.59274"
      ry="45.373672"
      rx="45.462929"
      fill="#ffffff"
      stroke-width="11.1111"
    />
    <ellipse
      gorn="0.2.0.54"
      id="0.2.0.1.6.5"
      cx="416.13739"
      cy="270.59274"
      ry="45.373672"
      rx="45.456512"
      fill="#ffffff"
      stroke-width="11.1111"
    />
    <ellipse
      gorn="0.2.0.55"
      id="0.2.0.1.6.6"
      cx="277.2663"
      cy="270.59274"
      ry="45.373672"
      rx="45.456512"
      fill="#ffffff"
      stroke-width="11.1111"
    />
    <ellipse
      gorn="0.2.0.56"
      id="0.2.0.1.6.7"
      cx="138.39528"
      cy="270.59274"
      ry="45.373672"
      rx="45.462929"
      fill="#ffffff"
      stroke-width="11.1111"
    />
    <ellipse
      gorn="0.2.0.57"
      id="0.2.0.1.7.0"
      cx="1110.486"
      cy="132.34198"
      ry="45.367256"
      rx="45.462929"
      fill="#ffffff"
      stroke-width="11.1111"
    />
    <ellipse
      gorn="0.2.0.58"
      id="0.2.0.1.7.1"
      cx="971.62128"
      cy="132.34198"
      ry="45.367256"
      rx="45.456512"
      fill="#ffffff"
      stroke-width="11.1111"
    />
    <ellipse
      gorn="0.2.0.59"
      id="0.2.0.1.7.2"
      cx="832.75049"
      cy="132.34198"
      ry="45.367256"
      rx="45.462929"
      fill="#ffffff"
      stroke-width="11.1111"
    />
    <ellipse
      gorn="0.2.0.60"
      id="0.2.0.1.7.3"
      cx="693.87946"
      cy="132.34198"
      ry="45.367256"
      rx="45.462929"
      fill="#ffffff"
      stroke-width="11.1111"
    />
    <ellipse
      gorn="0.2.0.61"
      id="0.2.0.1.7.4"
      cx="555.00201"
      cy="132.34198"
      ry="45.367256"
      rx="45.456512"
      fill="#ffffff"
      stroke-width="11.1111"
    />
    <ellipse
      gorn="0.2.0.62"
      id="0.2.0.1.7.5"
      cx="416.13739"
      cy="132.34198"
      ry="45.367256"
      rx="45.450104"
      fill="#ffffff"
      stroke-width="11.1111"
    />
    <ellipse
      gorn="0.2.0.63"
      id="0.2.0.1.7.6"
      cx="277.2663"
      cy="132.34198"
      ry="45.367256"
      rx="45.450104"
      fill="#ffffff"
      stroke-width="11.1111"
    />
    <ellipse
      gorn="0.2.0.64"
      id="0.2.0.1.7.7"
      cx="138.39528"
      cy="132.34198"
      ry="45.367256"
      rx="45.456512"
      fill="#ffffff"
      stroke-width="11.1111"
    />
    <rect
      id="rect161"
      width="1259.843"
      height="1259.843"
      x="1260.5944"
      y="0"
      fill="#999999"
      stroke="none"
      stroke-width="0"
    />
    <path
      gorn="0.2.0.0"
      id="path163"
      d="m 1338.0871,989.76519 v 172.75741 h 181.8197 v -9.0966 H 1701.72 v 9.0966 h 372.7217 v -9.0966 h 181.8196 v 9.0966 h 172.7309 V 989.76519 h 9.0888 l 0.01,-181.84751 h -7.6007 l -1.4945,-372.77876 h 9.0951 v -181.8411 h -9.0951 V 71.450314 h -172.7346 v -9.090129 h -181.8196 v 9.090129 H 1701.72 v -9.090129 h -181.8133 v 9.090129 H 1338.087 V 253.29141 h 9.0888 v 181.84751 h -9.0888 v 372.77876 h 9.0888 v 181.84751 h -9.0888 z"
      stroke-width="11.1111"
    />
    <ellipse
      gorn="0.2.0.1"
      id="ellipse165"
      cx="2370.3289"
      cy="1100.1426"
      ry="45.373672"
      rx="45.475758"
      fill="#ffffff"
      stroke-width="11.1111"
    />
    <ellipse
      gorn="0.2.0.2"
      id="ellipse167"
      cx="2231.4644"
      cy="1100.1426"
      ry="45.373672"
      rx="45.462929"
      fill="#ffffff"
      stroke-width="11.1111"
    />
    <ellipse
      gorn="0.2.0.3"
      id="ellipse169"
      cx="2092.5935"
      cy="1100.1426"
      ry="45.373672"
      rx="45.475758"
      fill="#ffffff"
      stroke-width="11.1111"
    />
    <ellipse
      gorn="0.2.0.4"
      id="ellipse171"
      cx="1953.7224"
      cy="1100.1426"
      ry="45.373672"
      rx="45.462929"
      fill="#ffffff"
      stroke-width="11.1111"
    />
    <ellipse
      gorn="0.2.0.5"
      id="ellipse173"
      cx="1814.845"
      cy="1100.1426"
      ry="45.373672"
      rx="45.462929"
      fill="#ffffff"
      stroke-width="11.1111"
    />
    <ellipse
      gorn="0.2.0.6"
      id="ellipse175"
      cx="1675.9803"
      cy="1100.1426"
      ry="45.373672"
      rx="45.456512"
      fill="#ffffff"
      stroke-width="11.1111"
    />
    <ellipse
      gorn="0.2.0.7"
      id="ellipse177"
      cx="1537.1093"
      cy="1100.1426"
      ry="45.373672"
      rx="45.456512"
      fill="#ffffff"
      stroke-width="11.1111"
    />
    <ellipse
      gorn="0.2.0.8"
      id="ellipse179"
      cx="1398.2383"
      cy="1100.1426"
      ry="45.373672"
      rx="45.462929"
      fill="#ffffff"
      stroke-width="11.1111"
    />
    <ellipse
      gorn="0.2.0.9"
      id="ellipse181"
      cx="2370.3289"
      cy="961.87891"
      ry="45.373672"
      rx="45.475758"
      fill="#ffffff"
      stroke-width="11.1111"
    />
    <ellipse
      gorn="0.2.0.10"
      id="ellipse183"
      cx="2231.4644"
      cy="961.87891"
      ry="45.373672"
      rx="45.462929"
      fill="#ffffff"
      stroke-width="11.1111"
    />
    <ellipse
      gorn="0.2.0.11"
      id="ellipse185"
      cx="2092.5935"
      cy="961.87891"
      ry="45.373672"
      rx="45.475758"
      fill="#ffffff"
      stroke-width="11.1111"
    />
    <ellipse
      gorn="0.2.0.12"
      id="ellipse187"
      cx="1953.7224"
      cy="961.87891"
      ry="45.373672"
      rx="45.462929"
      fill="#ffffff"
      stroke-width="11.1111"
    />
    <ellipse
      gorn="0.2.0.13"
      id="ellipse189"
      cx="1814.845"
      cy="961.87891"
      ry="45.373672"
      rx="45.462929"
      fill="#ffffff"
      stroke-width="11.1111"
    />
    <ellipse
      gorn="0.2.0.14"
      id="ellipse191"
      cx="1675.9803"
      cy="961.87891"
      ry="45.373672"
      rx="45.456512"
      fill="#ffffff"
      stroke-width="11.1111"
    />
    <ellipse
      gorn="0.2.0.15"
      id="ellipse193"
      cx="1537.1093"
      cy="961.87891"
      ry="45.373672"
      rx="45.456512"
      fill="#ffffff"
      stroke-width="11.1111"
    />
    <ellipse
      gorn="0.2.0.16"
      id="ellipse195"
      cx="1398.2383"
      cy="961.87891"
      ry="45.373672"
      rx="45.462929"
      fill="#ffffff"
      stroke-width="11.1111"
    />
    <ellipse
      gorn="0.2.0.17"
      id="ellipse197"
      cx="2370.3289"
      cy="823.6153"
      ry="45.373672"
      rx="45.475758"
      fill="#ffffff"
      stroke-width="11.1111"
    />
    <ellipse
      gorn="0.2.0.18"
      id="ellipse199"
      cx="2231.4644"
      cy="823.6153"
      ry="45.373672"
      rx="45.462929"
      fill="#ffffff"
      stroke-width="11.1111"
    />
    <ellipse
      gorn="0.2.0.19"
      id="ellipse201"
      cx="2092.5935"
      cy="823.6153"
      ry="45.373672"
      rx="45.475758"
      fill="#ffffff"
      stroke-width="11.1111"
    />
    <ellipse
      gorn="0.2.0.20"
      id="ellipse203"
      cx="1953.7224"
      cy="823.6153"
      ry="45.373672"
      rx="45.462929"
      fill="#ffffff"
      stroke-width="11.1111"
    />
    <ellipse
      gorn="0.2.0.21"
      id="ellipse205"
      cx="1814.845"
      cy="823.6153"
      ry="45.373672"
      rx="45.462929"
      fill="#ffffff"
      stroke-width="11.1111"
    />
    <ellipse
      gorn="0.2.0.22"
      id="ellipse207"
      cx="1675.9803"
      cy="823.6153"
      ry="45.373672"
      rx="45.456512"
      fill="#ffffff"
      stroke-width="11.1111"
    />
    <ellipse
      gorn="0.2.0.23"
      id="ellipse209"
      cx="1537.1093"
      cy="823.6153"
      ry="45.373672"
      rx="45.456512"
      fill="#ffffff"
      stroke-width="11.1111"
    />
    <ellipse
      gorn="0.2.0.24"
      id="ellipse211"
      cx="1398.2383"
      cy="823.6153"
      ry="45.373672"
      rx="45.462929"
      fill="#ffffff"
      stroke-width="11.1111"
    />
    <ellipse
      gorn="0.2.0.25"
      id="ellipse213"
      cx="2370.3289"
      cy="685.36444"
      ry="45.373672"
      rx="45.475758"
      fill="#ffffff"
      stroke-width="11.1111"
    />
    <ellipse
      gorn="0.2.0.26"
      id="ellipse215"
      cx="2231.4644"
      cy="685.36444"
      ry="45.373672"
      rx="45.462929"
      fill="#ffffff"
      stroke-width="11.1111"
    />
    <ellipse
      gorn="0.2.0.27"
      id="ellipse217"
      cx="2092.5935"
      cy="685.36444"
      ry="45.373672"
      rx="45.475758"
      fill="#ffffff"
      stroke-width="11.1111"
    />
    <ellipse
      gorn="0.2.0.28"
      id="ellipse219"
      cx="1953.7224"
      cy="685.36444"
      ry="45.373672"
      rx="45.462929"
      fill="#ffffff"
      stroke-width="11.1111"
    />
    <ellipse
      gorn="0.2.0.29"
      id="ellipse221"
      cx="1814.845"
      cy="685.36444"
      ry="45.373672"
      rx="45.462929"
      fill="#ffffff"
      stroke-width="11.1111"
    />
    <ellipse
      gorn="0.2.0.30"
      id="ellipse223"
      cx="1675.9803"
      cy="685.36444"
      ry="45.373672"
      rx="45.456512"
      fill="#ffffff"
      stroke-width="11.1111"
    />
    <ellipse
      gorn="0.2.0.31"
      id="ellipse225"
      cx="1537.1093"
      cy="685.36444"
      ry="45.373672"
      rx="45.456512"
      fill="#ffffff"
      stroke-width="11.1111"
    />
    <ellipse
      gorn="0.2.0.32"
      id="ellipse227"
      cx="1398.2383"
      cy="685.36444"
      ry="45.373672"
      rx="45.462929"
      fill="#ffffff"
      stroke-width="11.1111"
    />
    <ellipse
      gorn="0.2.0.33"
      id="ellipse229"
      cx="2370.3289"
      cy="547.11377"
      ry="45.373672"
      rx="45.475758"
      fill="#ffffff"
      stroke-width="11.1111"
    />
    <ellipse
      gorn="0.2.0.34"
      id="ellipse231"
      cx="2231.4644"
      cy="547.11377"
      ry="45.373672"
      rx="45.462929"
      fill="#ffffff"
      stroke-width="11.1111"
    />
    <ellipse
      gorn="0.2.0.35"
      id="ellipse233"
      cx="2092.5935"
      cy="547.11377"
      ry="45.373672"
      rx="45.475758"
      fill="#ffffff"
      stroke-width="11.1111"
    />
    <ellipse
      gorn="0.2.0.36"
      id="ellipse235"
      cx="1953.7224"
      cy="547.11377"
      ry="45.373672"
      rx="45.462929"
      fill="#ffffff"
      stroke-width="11.1111"
    />
    <ellipse
      gorn="0.2.0.37"
      id="ellipse237"
      cx="1814.845"
      cy="547.11377"
      ry="45.373672"
      rx="45.462929"
      fill="#ffffff"
      stroke-width="11.1111"
    />
    <ellipse
      gorn="0.2.0.38"
      id="ellipse239"
      cx="1675.9803"
      cy="547.11377"
      ry="45.373672"
      rx="45.456512"
      fill="#ffffff"
      stroke-width="11.1111"
    />
    <ellipse
      gorn="0.2.0.39"
      id="ellipse241"
      cx="1537.1093"
      cy="547.11377"
      ry="45.373672"
      rx="45.456512"
      fill="#ffffff"
      stroke-width="11.1111"
    />
    <ellipse
      gorn="0.2.0.40"
      id="ellipse243"
      cx="1398.2383"
      cy="547.11377"
      ry="45.373672"
      rx="45.462929"
      fill="#ffffff"
      stroke-width="11.1111"
    />
    <ellipse
      gorn="0.2.0.41"
      id="ellipse245"
      cx="2370.3289"
      cy="408.86282"
      ry="45.373672"
      rx="45.475758"
      fill="#ffffff"
      stroke-width="11.1111"
    />
    <ellipse
      gorn="0.2.0.42"
      id="ellipse247"
      cx="2231.4644"
      cy="408.86282"
      ry="45.373672"
      rx="45.462929"
      fill="#ffffff"
      stroke-width="11.1111"
    />
    <ellipse
      gorn="0.2.0.43"
      id="ellipse249"
      cx="2092.5935"
      cy="408.86282"
      ry="45.373672"
      rx="45.475758"
      fill="#ffffff"
      stroke-width="11.1111"
    />
    <ellipse
      gorn="0.2.0.44"
      id="ellipse251"
      cx="1953.7224"
      cy="408.86282"
      ry="45.373672"
      rx="45.462929"
      fill="#ffffff"
      stroke-width="11.1111"
    />
    <ellipse
      gorn="0.2.0.45"
      id="ellipse253"
      cx="1814.845"
      cy="408.86282"
      ry="45.373672"
      rx="45.462929"
      fill="#ffffff"
      stroke-width="11.1111"
    />
    <ellipse
      gorn="0.2.0.46"
      id="ellipse255"
      cx="1675.9803"
      cy="408.86282"
      ry="45.373672"
      rx="45.456512"
      fill="#ffffff"
      stroke-width="11.1111"
    />
    <ellipse
      gorn="0.2.0.47"
      id="ellipse257"
      cx="1537.1093"
      cy="408.86282"
      ry="45.373672"
      rx="45.456512"
      fill="#ffffff"
      stroke-width="11.1111"
    />
    <ellipse
      gorn="0.2.0.48"
      id="ellipse259"
      cx="1398.2383"
      cy="408.86282"
      ry="45.373672"
      rx="45.462929"
      fill="#ffffff"
      stroke-width="11.1111"
    />
    <ellipse
      gorn="0.2.0.49"
      id="ellipse261"
      cx="2370.3289"
      cy="270.59274"
      ry="45.373672"
      rx="45.475758"
      fill="#ffffff"
      stroke-width="11.1111"
    />
    <ellipse
      gorn="0.2.0.50"
      id="ellipse263"
      cx="2231.4644"
      cy="270.59274"
      ry="45.373672"
      rx="45.462929"
      fill="#ffffff"
      stroke-width="11.1111"
    />
    <ellipse
      gorn="0.2.0.51"
      id="ellipse265"
      cx="2092.5935"
      cy="270.59274"
      ry="45.373672"
      rx="45.475758"
      fill="#ffffff"
      stroke-width="11.1111"
    />
    <ellipse
      gorn="0.2.0.52"
      id="ellipse267"
      cx="1953.7224"
      cy="270.59274"
      ry="45.373672"
      rx="45.462929"
      fill="#ffffff"
      stroke-width="11.1111"
    />
    <ellipse
      gorn="0.2.0.53"
      id="ellipse269"
      cx="1814.845"
      cy="270.59274"
      ry="45.373672"
      rx="45.462929"
      fill="#ffffff"
      stroke-width="11.1111"
    />
    <ellipse
      gorn="0.2.0.54"
      id="ellipse271"
      cx="1675.9803"
      cy="270.59274"
      ry="45.373672"
      rx="45.456512"
      fill="#ffffff"
      stroke-width="11.1111"
    />
    <ellipse
      gorn="0.2.0.55"
      id="ellipse273"
      cx="1537.1093"
      cy="270.59274"
      ry="45.373672"
      rx="45.456512"
      fill="#ffffff"
      stroke-width="11.1111"
    />
    <ellipse
      gorn="0.2.0.56"
      id="ellipse275"
      cx="1398.2383"
      cy="270.59274"
      ry="45.373672"
      rx="45.462929"
      fill="#ffffff"
      stroke-width="11.1111"
    />
    <ellipse
      gorn="0.2.0.57"
      id="ellipse277"
      cx="2370.3289"
      cy="132.34198"
      ry="45.367256"
      rx="45.462929"
      fill="#ffffff"
      stroke-width="11.1111"
    />
    <ellipse
      gorn="0.2.0.58"
      id="ellipse279"
      cx="2231.4644"
      cy="132.34198"
      ry="45.367256"
      rx="45.456512"
      fill="#ffffff"
      stroke-width="11.1111"
    />
    <ellipse
      gorn="0.2.0.59"
      id="ellipse281"
      cx="2092.5935"
      cy="132.34198"
      ry="45.367256"
      rx="45.462929"
      fill="#ffffff"
      stroke-width="11.1111"
    />
    <ellipse
      gorn="0.2.0.60"
      id="ellipse283"
      cx="1953.7224"
      cy="132.34198"
      ry="45.367256"
      rx="45.462929"
      fill="#ffffff"
      stroke-width="11.1111"
    />
    <ellipse
      gorn="0.2.0.61"
      id="ellipse285"
      cx="1814.845"
      cy="132.34198"
      ry="45.367256"
      rx="45.456512"
      fill="#ffffff"
      stroke-width="11.1111"
    />
    <ellipse
      gorn="0.2.0.62"
      id="ellipse287"
      cx="1675.9803"
      cy="132.34198"
      ry="45.367256"
      rx="45.450104"
      fill="#ffffff"
      stroke-width="11.1111"
    />
    <ellipse
      gorn="0.2.0.63"
      id="ellipse289"
      cx="1537.1093"
      cy="132.34198"
      ry="45.367256"
      rx="45.450104"
      fill="#ffffff"
      stroke-width="11.1111"
    />
    <ellipse
      gorn="0.2.0.64"
      id="ellipse291"
      cx="1398.2383"
      cy="132.34198"
      ry="45.367256"
      rx="45.456512"
      fill="#ffffff"
      stroke-width="11.1111"
    />
    <rect
      id="rect313"
      width="1259.843"
      height="1259.843"
      x="2520.4373"
      y="0"
      fill="#999999"
      stroke="none"
      stroke-width="0"
    />
    <path
      gorn="0.2.0.0"
      id="path315"
      d="m 2597.9301,989.76519 v 172.75741 h 181.8197 v -9.0966 h 181.8132 v 9.0966 h 372.7217 v -9.0966 h 181.8196 v 9.0966 h 172.7309 V 989.76519 h 9.0888 l 0.01,-181.84751 h -7.6007 l -1.4945,-372.77876 h 9.0951 v -181.8411 h -9.0951 V 71.450314 h -172.7346 v -9.090129 h -181.8196 v 9.090129 H 2961.563 v -9.090129 h -181.8133 v 9.090129 H 2597.93 V 253.29141 h 9.0888 v 181.84751 h -9.0888 v 372.77876 h 9.0888 v 181.84751 h -9.0888 z"
      stroke-width="11.1111"
    />
    <ellipse
      gorn="0.2.0.1"
      id="ellipse317"
      cx="3630.1719"
      cy="1100.1426"
      ry="45.373672"
      rx="45.475758"
      fill="#ffffff"
      stroke-width="11.1111"
    />
    <ellipse
      gorn="0.2.0.2"
      id="ellipse319"
      cx="3491.3074"
      cy="1100.1426"
      ry="45.373672"
      rx="45.462929"
      fill="#ffffff"
      stroke-width="11.1111"
    />
    <ellipse
      gorn="0.2.0.3"
      id="ellipse321"
      cx="3352.4365"
      cy="1100.1426"
      ry="45.373672"
      rx="45.475758"
      fill="#ffffff"
      stroke-width="11.1111"
    />
    <ellipse
      gorn="0.2.0.4"
      id="ellipse323"
      cx="3213.5654"
      cy="1100.1426"
      ry="45.373672"
      rx="45.462929"
      fill="#ffffff"
      stroke-width="11.1111"
    />
    <ellipse
      gorn="0.2.0.5"
      id="ellipse325"
      cx="3074.688"
      cy="1100.1426"
      ry="45.373672"
      rx="45.462929"
      fill="#ffffff"
      stroke-width="11.1111"
    />
    <ellipse
      gorn="0.2.0.6"
      id="ellipse327"
      cx="2935.8235"
      cy="1100.1426"
      ry="45.373672"
      rx="45.456512"
      fill="#ffffff"
      stroke-width="11.1111"
    />
    <ellipse
      gorn="0.2.0.7"
      id="ellipse329"
      cx="2796.9524"
      cy="1100.1426"
      ry="45.373672"
      rx="45.456512"
      fill="#ffffff"
      stroke-width="11.1111"
    />
    <ellipse
      gorn="0.2.0.8"
      id="ellipse331"
      cx="2658.0813"
      cy="1100.1426"
      ry="45.373672"
      rx="45.462929"
      fill="#ffffff"
      stroke-width="11.1111"
    />
    <ellipse
      gorn="0.2.0.9"
      id="ellipse333"
      cx="3630.1719"
      cy="961.87891"
      ry="45.373672"
      rx="45.475758"
      fill="#ffffff"
      stroke-width="11.1111"
    />
    <ellipse
      gorn="0.2.0.10"
      id="ellipse335"
      cx="3491.3074"
      cy="961.87891"
      ry="45.373672"
      rx="45.462929"
      fill="#ffffff"
      stroke-width="11.1111"
    />
    <ellipse
      gorn="0.2.0.11"
      id="ellipse337"
      cx="3352.4365"
      cy="961.87891"
      ry="45.373672"
      rx="45.475758"
      fill="#ffffff"
      stroke-width="11.1111"
    />
    <ellipse
      gorn="0.2.0.12"
      id="ellipse339"
      cx="3213.5654"
      cy="961.87891"
      ry="45.373672"
      rx="45.462929"
      fill="#ffffff"
      stroke-width="11.1111"
    />
    <ellipse
      gorn="0.2.0.13"
      id="ellipse341"
      cx="3074.688"
      cy="961.87891"
      ry="45.373672"
      rx="45.462929"
      fill="#ffffff"
      stroke-width="11.1111"
    />
    <ellipse
      gorn="0.2.0.14"
      id="ellipse343"
      cx="2935.8235"
      cy="961.87891"
      ry="45.373672"
      rx="45.456512"
      fill="#ffffff"
      stroke-width="11.1111"
    />
    <ellipse
      gorn="0.2.0.15"
      id="ellipse345"
      cx="2796.9524"
      cy="961.87891"
      ry="45.373672"
      rx="45.456512"
      fill="#ffffff"
      stroke-width="11.1111"
    />
    <ellipse
      gorn="0.2.0.16"
      id="ellipse347"
      cx="2658.0813"
      cy="961.87891"
      ry="45.373672"
      rx="45.462929"
      fill="#ffffff"
      stroke-width="11.1111"
    />
    <ellipse
      gorn="0.2.0.17"
      id="ellipse349"
      cx="3630.1719"
      cy="823.6153"
      ry="45.373672"
      rx="45.475758"
      fill="#ffffff"
      stroke-width="11.1111"
    />
    <ellipse
      gorn="0.2.0.18"
      id="ellipse351"
      cx="3491.3074"
      cy="823.6153"
      ry="45.373672"
      rx="45.462929"
      fill="#ffffff"
      stroke-width="11.1111"
    />
    <ellipse
      gorn="0.2.0.19"
      id="ellipse353"
      cx="3352.4365"
      cy="823.6153"
      ry="45.373672"
      rx="45.475758"
      fill="#ffffff"
      stroke-width="11.1111"
    />
    <ellipse
      gorn="0.2.0.20"
      id="ellipse355"
      cx="3213.5654"
      cy="823.6153"
      ry="45.373672"
      rx="45.462929"
      fill="#ffffff"
      stroke-width="11.1111"
    />
    <ellipse
      gorn="0.2.0.21"
      id="ellipse357"
      cx="3074.688"
      cy="823.6153"
      ry="45.373672"
      rx="45.462929"
      fill="#ffffff"
      stroke-width="11.1111"
    />
    <ellipse
      gorn="0.2.0.22"
      id="ellipse359"
      cx="2935.8235"
      cy="823.6153"
      ry="45.373672"
      rx="45.456512"
      fill="#ffffff"
      stroke-width="11.1111"
    />
    <ellipse
      gorn="0.2.0.23"
      id="ellipse361"
      cx="2796.9524"
      cy="823.6153"
      ry="45.373672"
      rx="45.456512"
      fill="#ffffff"
      stroke-width="11.1111"
    />
    <ellipse
      gorn="0.2.0.24"
      id="ellipse363"
      cx="2658.0813"
      cy="823.6153"
      ry="45.373672"
      rx="45.462929"
      fill="#ffffff"
      stroke-width="11.1111"
    />
    <ellipse
      gorn="0.2.0.25"
      id="ellipse365"
      cx="3630.1719"
      cy="685.36444"
      ry="45.373672"
      rx="45.475758"
      fill="#ffffff"
      stroke-width="11.1111"
    />
    <ellipse
      gorn="0.2.0.26"
      id="ellipse367"
      cx="3491.3074"
      cy="685.36444"
      ry="45.373672"
      rx="45.462929"
      fill="#ffffff"
      stroke-width="11.1111"
    />
    <ellipse
      gorn="0.2.0.27"
      id="ellipse369"
      cx="3352.4365"
      cy="685.36444"
      ry="45.373672"
      rx="45.475758"
      fill="#ffffff"
      stroke-width="11.1111"
    />
    <ellipse
      gorn="0.2.0.28"
      id="ellipse371"
      cx="3213.5654"
      cy="685.36444"
      ry="45.373672"
      rx="45.462929"
      fill="#ffffff"
      stroke-width="11.1111"
    />
    <ellipse
      gorn="0.2.0.29"
      id="ellipse373"
      cx="3074.688"
      cy="685.36444"
      ry="45.373672"
      rx="45.462929"
      fill="#ffffff"
      stroke-width="11.1111"
    />
    <ellipse
      gorn="0.2.0.30"
      id="ellipse375"
      cx="2935.8235"
      cy="685.36444"
      ry="45.373672"
      rx="45.456512"
      fill="#ffffff"
      stroke-width="11.1111"
    />
    <ellipse
      gorn="0.2.0.31"
      id="ellipse377"
      cx="2796.9524"
      cy="685.36444"
      ry="45.373672"
      rx="45.456512"
      fill="#ffffff"
      stroke-width="11.1111"
    />
    <ellipse
      gorn="0.2.0.32"
      id="ellipse379"
      cx="2658.0813"
      cy="685.36444"
      ry="45.373672"
      rx="45.462929"
      fill="#ffffff"
      stroke-width="11.1111"
    />
    <ellipse
      gorn="0.2.0.33"
      id="ellipse381"
      cx="3630.1719"
      cy="547.11377"
      ry="45.373672"
      rx="45.475758"
      fill="#ffffff"
      stroke-width="11.1111"
    />
    <ellipse
      gorn="0.2.0.34"
      id="ellipse383"
      cx="3491.3074"
      cy="547.11377"
      ry="45.373672"
      rx="45.462929"
      fill="#ffffff"
      stroke-width="11.1111"
    />
    <ellipse
      gorn="0.2.0.35"
      id="ellipse385"
      cx="3352.4365"
      cy="547.11377"
      ry="45.373672"
      rx="45.475758"
      fill="#ffffff"
      stroke-width="11.1111"
    />
    <ellipse
      gorn="0.2.0.36"
      id="ellipse387"
      cx="3213.5654"
      cy="547.11377"
      ry="45.373672"
      rx="45.462929"
      fill="#ffffff"
      stroke-width="11.1111"
    />
    <ellipse
      gorn="0.2.0.37"
      id="ellipse389"
      cx="3074.688"
      cy="547.11377"
      ry="45.373672"
      rx="45.462929"
      fill="#ffffff"
      stroke-width="11.1111"
    />
    <ellipse
      gorn="0.2.0.38"
      id="ellipse391"
      cx="2935.8235"
      cy="547.11377"
      ry="45.373672"
      rx="45.456512"
      fill="#ffffff"
      stroke-width="11.1111"
    />
    <ellipse
      gorn="0.2.0.39"
      id="ellipse393"
      cx="2796.9524"
      cy="547.11377"
      ry="45.373672"
      rx="45.456512"
      fill="#ffffff"
      stroke-width="11.1111"
    />
    <ellipse
      gorn="0.2.0.40"
      id="ellipse395"
      cx="2658.0813"
      cy="547.11377"
      ry="45.373672"
      rx="45.462929"
      fill="#ffffff"
      stroke-width="11.1111"
    />
    <ellipse
      gorn="0.2.0.41"
      id="ellipse397"
      cx="3630.1719"
      cy="408.86282"
      ry="45.373672"
      rx="45.475758"
      fill="#ffffff"
      stroke-width="11.1111"
    />
    <ellipse
      gorn="0.2.0.42"
      id="ellipse399"
      cx="3491.3074"
      cy="408.86282"
      ry="45.373672"
      rx="45.462929"
      fill="#ffffff"
      stroke-width="11.1111"
    />
    <ellipse
      gorn="0.2.0.43"
      id="ellipse401"
      cx="3352.4365"
      cy="408.86282"
      ry="45.373672"
      rx="45.475758"
      fill="#ffffff"
      stroke-width="11.1111"
    />
    <ellipse
      gorn="0.2.0.44"
      id="ellipse403"
      cx="3213.5654"
      cy="408.86282"
      ry="45.373672"
      rx="45.462929"
      fill="#ffffff"
      stroke-width="11.1111"
    />
    <ellipse
      gorn="0.2.0.45"
      id="ellipse405"
      cx="3074.688"
      cy="408.86282"
      ry="45.373672"
      rx="45.462929"
      fill="#ffffff"
      stroke-width="11.1111"
    />
    <ellipse
      gorn="0.2.0.46"
      id="ellipse407"
      cx="2935.8235"
      cy="408.86282"
      ry="45.373672"
      rx="45.456512"
      fill="#ffffff"
      stroke-width="11.1111"
    />
    <ellipse
      gorn="0.2.0.47"
      id="ellipse409"
      cx="2796.9524"
      cy="408.86282"
      ry="45.373672"
      rx="45.456512"
      fill="#ffffff"
      stroke-width="11.1111"
    />
    <ellipse
      gorn="0.2.0.48"
      id="ellipse411"
      cx="2658.0813"
      cy="408.86282"
      ry="45.373672"
      rx="45.462929"
      fill="#ffffff"
      stroke-width="11.1111"
    />
    <ellipse
      gorn="0.2.0.49"
      id="ellipse413"
      cx="3630.1719"
      cy="270.59274"
      ry="45.373672"
      rx="45.475758"
      fill="#ffffff"
      stroke-width="11.1111"
    />
    <ellipse
      gorn="0.2.0.50"
      id="ellipse415"
      cx="3491.3074"
      cy="270.59274"
      ry="45.373672"
      rx="45.462929"
      fill="#ffffff"
      stroke-width="11.1111"
    />
    <ellipse
      gorn="0.2.0.51"
      id="ellipse417"
      cx="3352.4365"
      cy="270.59274"
      ry="45.373672"
      rx="45.475758"
      fill="#ffffff"
      stroke-width="11.1111"
    />
    <ellipse
      gorn="0.2.0.52"
      id="ellipse419"
      cx="3213.5654"
      cy="270.59274"
      ry="45.373672"
      rx="45.462929"
      fill="#ffffff"
      stroke-width="11.1111"
    />
    <ellipse
      gorn="0.2.0.53"
      id="ellipse421"
      cx="3074.688"
      cy="270.59274"
      ry="45.373672"
      rx="45.462929"
      fill="#ffffff"
      stroke-width="11.1111"
    />
    <ellipse
      gorn="0.2.0.54"
      id="ellipse423"
      cx="2935.8235"
      cy="270.59274"
      ry="45.373672"
      rx="45.456512"
      fill="#ffffff"
      stroke-width="11.1111"
    />
    <ellipse
      gorn="0.2.0.55"
      id="ellipse425"
      cx="2796.9524"
      cy="270.59274"
      ry="45.373672"
      rx="45.456512"
      fill="#ffffff"
      stroke-width="11.1111"
    />
    <ellipse
      gorn="0.2.0.56"
      id="ellipse427"
      cx="2658.0813"
      cy="270.59274"
      ry="45.373672"
      rx="45.462929"
      fill="#ffffff"
      stroke-width="11.1111"
    />
    <ellipse
      gorn="0.2.0.57"
      id="ellipse429"
      cx="3630.1719"
      cy="132.34198"
      ry="45.367256"
      rx="45.462929"
      fill="#ffffff"
      stroke-width="11.1111"
    />
    <ellipse
      gorn="0.2.0.58"
      id="ellipse431"
      cx="3491.3074"
      cy="132.34198"
      ry="45.367256"
      rx="45.456512"
      fill="#ffffff"
      stroke-width="11.1111"
    />
    <ellipse
      gorn="0.2.0.59"
      id="ellipse433"
      cx="3352.4365"
      cy="132.34198"
      ry="45.367256"
      rx="45.462929"
      fill="#ffffff"
      stroke-width="11.1111"
    />
    <ellipse
      gorn="0.2.0.60"
      id="ellipse435"
      cx="3213.5654"
      cy="132.34198"
      ry="45.367256"
      rx="45.462929"
      fill="#ffffff"
      stroke-width="11.1111"
    />
    <ellipse
      gorn="0.2.0.61"
      id="ellipse437"
      cx="3074.688"
      cy="132.34198"
      ry="45.367256"
      rx="45.456512"
      fill="#ffffff"
      stroke-width="11.1111"
    />
    <ellipse
      gorn="0.2.0.62"
      id="ellipse439"
      cx="2935.8235"
      cy="132.34198"
      ry="45.367256"
      rx="45.450104"
      fill="#ffffff"
      stroke-width="11.1111"
    />
    <ellipse
      gorn="0.2.0.63"
      id="ellipse441"
      cx="2796.9524"
      cy="132.34198"
      ry="45.367256"
      rx="45.450104"
      fill="#ffffff"
      stroke-width="11.1111"
    />
    <ellipse
      gorn="0.2.0.64"
      id="ellipse443"
      cx="2658.0813"
      cy="132.34198"
      ry="45.367256"
      rx="45.456512"
      fill="#ffffff"
      stroke-width="11.1111"
    />
    <rect
      id="rect465"
      width="1259.843"
      height="1259.843"
      x="3780.2803"
      y="0"
      fill="#999999"
      stroke="none"
      stroke-width="0"
    />
    <path
      gorn="0.2.0.0"
      id="path467"
      d="m 3857.7731,989.76519 v 172.75741 h 181.8197 v -9.0966 h 181.8132 v 9.0966 h 372.7217 v -9.0966 h 181.8196 v 9.0966 h 172.7309 V 989.76519 h 9.0888 l 0.01,-181.84751 h -7.6007 l -1.4945,-372.77876 h 9.0951 v -181.8411 h -9.0951 V 71.450314 h -172.7346 v -9.090129 h -181.8196 v 9.090129 H 4221.406 v -9.090129 h -181.8133 v 9.090129 H 3857.773 V 253.29141 h 9.0888 v 181.84751 h -9.0888 v 372.77876 h 9.0888 v 181.84751 h -9.0888 z"
      stroke-width="11.1111"
    />
    <ellipse
      gorn="0.2.0.1"
      id="ellipse469"
      cx="4890.0146"
      cy="1100.1426"
      ry="45.373672"
      rx="45.475758"
      fill="#ffffff"
      stroke-width="11.1111"
    />
    <ellipse
      gorn="0.2.0.2"
      id="ellipse471"
      cx="4751.1504"
      cy="1100.1426"
      ry="45.373672"
      rx="45.462929"
      fill="#ffffff"
      stroke-width="11.1111"
    />
    <ellipse
      gorn="0.2.0.3"
      id="ellipse473"
      cx="4612.2793"
      cy="1100.1426"
      ry="45.373672"
      rx="45.475758"
      fill="#ffffff"
      stroke-width="11.1111"
    />
    <ellipse
      gorn="0.2.0.4"
      id="ellipse475"
      cx="4473.4082"
      cy="1100.1426"
      ry="45.373672"
      rx="45.462929"
      fill="#ffffff"
      stroke-width="11.1111"
    />
    <ellipse
      gorn="0.2.0.5"
      id="ellipse477"
      cx="4334.5308"
      cy="1100.1426"
      ry="45.373672"
      rx="45.462929"
      fill="#ffffff"
      stroke-width="11.1111"
    />
    <ellipse
      gorn="0.2.0.6"
      id="ellipse479"
      cx="4195.6665"
      cy="1100.1426"
      ry="45.373672"
      rx="45.456512"
      fill="#ffffff"
      stroke-width="11.1111"
    />
    <ellipse
      gorn="0.2.0.7"
      id="ellipse481"
      cx="4056.7952"
      cy="1100.1426"
      ry="45.373672"
      rx="45.456512"
      fill="#ffffff"
      stroke-width="11.1111"
    />
    <ellipse
      gorn="0.2.0.8"
      id="ellipse483"
      cx="3917.9243"
      cy="1100.1426"
      ry="45.373672"
      rx="45.462929"
      fill="#ffffff"
      stroke-width="11.1111"
    />
    <ellipse
      gorn="0.2.0.9"
      id="ellipse485"
      cx="4890.0146"
      cy="961.87891"
      ry="45.373672"
      rx="45.475758"
      fill="#ffffff"
      stroke-width="11.1111"
    />
    <ellipse
      gorn="0.2.0.10"
      id="ellipse487"
      cx="4751.1504"
      cy="961.87891"
      ry="45.373672"
      rx="45.462929"
      fill="#ffffff"
      stroke-width="11.1111"
    />
    <ellipse
      gorn="0.2.0.11"
      id="ellipse489"
      cx="4612.2793"
      cy="961.87891"
      ry="45.373672"
      rx="45.475758"
      fill="#ffffff"
      stroke-width="11.1111"
    />
    <ellipse
      gorn="0.2.0.12"
      id="ellipse491"
      cx="4473.4082"
      cy="961.87891"
      ry="45.373672"
      rx="45.462929"
      fill="#ffffff"
      stroke-width="11.1111"
    />
    <ellipse
      gorn="0.2.0.13"
      id="ellipse493"
      cx="4334.5308"
      cy="961.87891"
      ry="45.373672"
      rx="45.462929"
      fill="#ffffff"
      stroke-width="11.1111"
    />
    <ellipse
      gorn="0.2.0.14"
      id="ellipse495"
      cx="4195.6665"
      cy="961.87891"
      ry="45.373672"
      rx="45.456512"
      fill="#ffffff"
      stroke-width="11.1111"
    />
    <ellipse
      gorn="0.2.0.15"
      id="ellipse497"
      cx="4056.7952"
      cy="961.87891"
      ry="45.373672"
      rx="45.456512"
      fill="#ffffff"
      stroke-width="11.1111"
    />
    <ellipse
      gorn="0.2.0.16"
      id="ellipse499"
      cx="3917.9243"
      cy="961.87891"
      ry="45.373672"
      rx="45.462929"
      fill="#ffffff"
      stroke-width="11.1111"
    />
    <ellipse
      gorn="0.2.0.17"
      id="ellipse501"
      cx="4890.0146"
      cy="823.6153"
      ry="45.373672"
      rx="45.475758"
      fill="#ffffff"
      stroke-width="11.1111"
    />
    <ellipse
      gorn="0.2.0.18"
      id="ellipse503"
      cx="4751.1504"
      cy="823.6153"
      ry="45.373672"
      rx="45.462929"
      fill="#ffffff"
      stroke-width="11.1111"
    />
    <ellipse
      gorn="0.2.0.19"
      id="ellipse505"
      cx="4612.2793"
      cy="823.6153"
      ry="45.373672"
      rx="45.475758"
      fill="#ffffff"
      stroke-width="11.1111"
    />
    <ellipse
      gorn="0.2.0.20"
      id="ellipse507"
      cx="4473.4082"
      cy="823.6153"
      ry="45.373672"
      rx="45.462929"
      fill="#ffffff"
      stroke-width="11.1111"
    />
    <ellipse
      gorn="0.2.0.21"
      id="ellipse509"
      cx="4334.5308"
      cy="823.6153"
      ry="45.373672"
      rx="45.462929"
      fill="#ffffff"
      stroke-width="11.1111"
    />
    <ellipse
      gorn="0.2.0.22"
      id="ellipse511"
      cx="4195.6665"
      cy="823.6153"
      ry="45.373672"
      rx="45.456512"
      fill="#ffffff"
      stroke-width="11.1111"
    />
    <ellipse
      gorn="0.2.0.23"
      id="ellipse513"
      cx="4056.7952"
      cy="823.6153"
      ry="45.373672"
      rx="45.456512"
      fill="#ffffff"
      stroke-width="11.1111"
    />
    <ellipse
      gorn="0.2.0.24"
      id="ellipse515"
      cx="3917.9243"
      cy="823.6153"
      ry="45.373672"
      rx="45.462929"
      fill="#ffffff"
      stroke-width="11.1111"
    />
    <ellipse
      gorn="0.2.0.25"
      id="ellipse517"
      cx="4890.0146"
      cy="685.36444"
      ry="45.373672"
      rx="45.475758"
      fill="#ffffff"
      stroke-width="11.1111"
    />
    <ellipse
      gorn="0.2.0.26"
      id="ellipse519"
      cx="4751.1504"
      cy="685.36444"
      ry="45.373672"
      rx="45.462929"
      fill="#ffffff"
      stroke-width="11.1111"
    />
    <ellipse
      gorn="0.2.0.27"
      id="ellipse521"
      cx="4612.2793"
      cy="685.36444"
      ry="45.373672"
      rx="45.475758"
      fill="#ffffff"
      stroke-width="11.1111"
    />
    <ellipse
      gorn="0.2.0.28"
      id="ellipse523"
      cx="4473.4082"
      cy="685.36444"
      ry="45.373672"
      rx="45.462929"
      fill="#ffffff"
      stroke-width="11.1111"
    />
    <ellipse
      gorn="0.2.0.29"
      id="ellipse525"
      cx="4334.5308"
      cy="685.36444"
      ry="45.373672"
      rx="45.462929"
      fill="#ffffff"
      stroke-width="11.1111"
    />
    <ellipse
      gorn="0.2.0.30"
      id="ellipse527"
      cx="4195.6665"
      cy="685.36444"
      ry="45.373672"
      rx="45.456512"
      fill="#ffffff"
      stroke-width="11.1111"
    />
    <ellipse
      gorn="0.2.0.31"
      id="ellipse529"
      cx="4056.7952"
      cy="685.36444"
      ry="45.373672"
      rx="45.456512"
      fill="#ffffff"
      stroke-width="11.1111"
    />
    <ellipse
      gorn="0.2.0.32"
      id="ellipse531"
      cx="3917.9243"
      cy="685.36444"
      ry="45.373672"
      rx="45.462929"
      fill="#ffffff"
      stroke-width="11.1111"
    />
    <ellipse
      gorn="0.2.0.33"
      id="ellipse533"
      cx="4890.0146"
      cy="547.11377"
      ry="45.373672"
      rx="45.475758"
      fill="#ffffff"
      stroke-width="11.1111"
    />
    <ellipse
      gorn="0.2.0.34"
      id="ellipse535"
      cx="4751.1504"
      cy="547.11377"
      ry="45.373672"
      rx="45.462929"
      fill="#ffffff"
      stroke-width="11.1111"
    />
    <ellipse
      gorn="0.2.0.35"
      id="ellipse537"
      cx="4612.2793"
      cy="547.11377"
      ry="45.373672"
      rx="45.475758"
      fill="#ffffff"
      stroke-width="11.1111"
    />
    <ellipse
      gorn="0.2.0.36"
      id="ellipse539"
      cx="4473.4082"
      cy="547.11377"
      ry="45.373672"
      rx="45.462929"
      fill="#ffffff"
      stroke-width="11.1111"
    />
    <ellipse
      gorn="0.2.0.37"
      id="ellipse541"
      cx="4334.5308"
      cy="547.11377"
      ry="45.373672"
      rx="45.462929"
      fill="#ffffff"
      stroke-width="11.1111"
    />
    <ellipse
      gorn="0.2.0.38"
      id="ellipse543"
      cx="4195.6665"
      cy="547.11377"
      ry="45.373672"
      rx="45.456512"
      fill="#ffffff"
      stroke-width="11.1111"
    />
    <ellipse
      gorn="0.2.0.39"
      id="ellipse545"
      cx="4056.7952"
      cy="547.11377"
      ry="45.373672"
      rx="45.456512"
      fill="#ffffff"
      stroke-width="11.1111"
    />
    <ellipse
      gorn="0.2.0.40"
      id="ellipse547"
      cx="3917.9243"
      cy="547.11377"
      ry="45.373672"
      rx="45.462929"
      fill="#ffffff"
      stroke-width="11.1111"
    />
    <ellipse
      gorn="0.2.0.41"
      id="ellipse549"
      cx="4890.0146"
      cy="408.86282"
      ry="45.373672"
      rx="45.475758"
      fill="#ffffff"
      stroke-width="11.1111"
    />
    <ellipse
      gorn="0.2.0.42"
      id="ellipse551"
      cx="4751.1504"
      cy="408.86282"
      ry="45.373672"
      rx="45.462929"
      fill="#ffffff"
      stroke-width="11.1111"
    />
    <ellipse
      gorn="0.2.0.43"
      id="ellipse553"
      cx="4612.2793"
      cy="408.86282"
      ry="45.373672"
      rx="45.475758"
      fill="#ffffff"
      stroke-width="11.1111"
    />
    <ellipse
      gorn="0.2.0.44"
      id="ellipse555"
      cx="4473.4082"
      cy="408.86282"
      ry="45.373672"
      rx="45.462929"
      fill="#ffffff"
      stroke-width="11.1111"
    />
    <ellipse
      gorn="0.2.0.45"
      id="ellipse557"
      cx="4334.5308"
      cy="408.86282"
      ry="45.373672"
      rx="45.462929"
      fill="#ffffff"
      stroke-width="11.1111"
    />
    <ellipse
      gorn="0.2.0.46"
      id="ellipse559"
      cx="4195.6665"
      cy="408.86282"
      ry="45.373672"
      rx="45.456512"
      fill="#ffffff"
      stroke-width="11.1111"
    />
    <ellipse
      gorn="0.2.0.47"
      id="ellipse561"
      cx="4056.7952"
      cy="408.86282"
      ry="45.373672"
      rx="45.456512"
      fill="#ffffff"
      stroke-width="11.1111"
    />
    <ellipse
      gorn="0.2.0.48"
      id="ellipse563"
      cx="3917.9243"
      cy="408.86282"
      ry="45.373672"
      rx="45.462929"
      fill="#ffffff"
      stroke-width="11.1111"
    />
    <ellipse
      gorn="0.2.0.49"
      id="ellipse565"
      cx="4890.0146"
      cy="270.59274"
      ry="45.373672"
      rx="45.475758"
      fill="#ffffff"
      stroke-width="11.1111"
    />
    <ellipse
      gorn="0.2.0.50"
      id="ellipse567"
      cx="4751.1504"
      cy="270.59274"
      ry="45.373672"
      rx="45.462929"
      fill="#ffffff"
      stroke-width="11.1111"
    />
    <ellipse
      gorn="0.2.0.51"
      id="ellipse569"
      cx="4612.2793"
      cy="270.59274"
      ry="45.373672"
      rx="45.475758"
      fill="#ffffff"
      stroke-width="11.1111"
    />
    <ellipse
      gorn="0.2.0.52"
      id="ellipse571"
      cx="4473.4082"
      cy="270.59274"
      ry="45.373672"
      rx="45.462929"
      fill="#ffffff"
      stroke-width="11.1111"
    />
    <ellipse
      gorn="0.2.0.53"
      id="ellipse573"
      cx="4334.5308"
      cy="270.59274"
      ry="45.373672"
      rx="45.462929"
      fill="#ffffff"
      stroke-width="11.1111"
    />
    <ellipse
      gorn="0.2.0.54"
      id="ellipse575"
      cx="4195.6665"
      cy="270.59274"
      ry="45.373672"
      rx="45.456512"
      fill="#ffffff"
      stroke-width="11.1111"
    />
    <ellipse
      gorn="0.2.0.55"
      id="ellipse577"
      cx="4056.7952"
      cy="270.59274"
      ry="45.373672"
      rx="45.456512"
      fill="#ffffff"
      stroke-width="11.1111"
    />
    <ellipse
      gorn="0.2.0.56"
      id="ellipse579"
      cx="3917.9243"
      cy="270.59274"
      ry="45.373672"
      rx="45.462929"
      fill="#ffffff"
      stroke-width="11.1111"
    />
    <ellipse
      gorn="0.2.0.57"
      id="ellipse581"
      cx="4890.0146"
      cy="132.34198"
      ry="45.367256"
      rx="45.462929"
      fill="#ffffff"
      stroke-width="11.1111"
    />
    <ellipse
      gorn="0.2.0.58"
      id="ellipse583"
      cx="4751.1504"
      cy="132.34198"
      ry="45.367256"
      rx="45.456512"
      fill="#ffffff"
      stroke-width="11.1111"
    />
    <ellipse
      gorn="0.2.0.59"
      id="ellipse585"
      cx="4612.2793"
      cy="132.34198"
      ry="45.367256"
      rx="45.462929"
      fill="#ffffff"
      stroke-width="11.1111"
    />
    <ellipse
      gorn="0.2.0.60"
      id="ellipse587"
      cx="4473.4082"
      cy="132.34198"
      ry="45.367256"
      rx="45.462929"
      fill="#ffffff"
      stroke-width="11.1111"
    />
    <ellipse
      gorn="0.2.0.61"
      id="ellipse589"
      cx="4334.5308"
      cy="132.34198"
      ry="45.367256"
      rx="45.456512"
      fill="#ffffff"
      stroke-width="11.1111"
    />
    <ellipse
      gorn="0.2.0.62"
      id="ellipse591"
      cx="4195.6665"
      cy="132.34198"
      ry="45.367256"
      rx="45.450104"
      fill="#ffffff"
      stroke-width="11.1111"
    />
    <ellipse
      gorn="0.2.0.63"
      id="ellipse593"
      cx="4056.7952"
      cy="132.34198"
      ry="45.367256"
      rx="45.450104"
      fill="#ffffff"
      stroke-width="11.1111"
    />
    <ellipse
      gorn="0.2.0.64"
      id="ellipse595"
      cx="3917.9243"
      cy="132.34198"
      ry="45.367256"
      rx="45.456512"
      fill="#ffffff"
      stroke-width="11.1111"
    />
    <circle
      id="connector0pin"
      cx="39"
      cy="421.5369"
      r="29"
      fill="#ffffff"
      stroke="#f7bd13"
      stroke-width="20"
    />
    <circle
      id="connector1pin"
      cx="39"
      cy="521.14325"
      r="29"
      fill="#ffffff"
      stroke="#f7bd13"
      stroke-width="20"
    />
    <circle
      id="connector2pin"
      cx="39"
      cy="621.14331"
      r="29"
      fill="#ffffff"
      stroke="#f7bd13"
      stroke-width="20"
    />
    <circle
      id="connector3pin"
      cx="39"
      cy="721.14331"
      r="29"
      fill="#ffffff"
      stroke="#f7bd13"
      stroke-width="20"
    />
    <circle
      id="connector4pin"
      cx="39"
      cy="821.14337"
      r="29"
      fill="#ffffff"
      stroke="#f7bd13"
      stroke-width="20"
    />
    <circle
      id="connector5pin"
      cx="1214.087"
      cy="821.14337"
      r="29"
      fill="#ffffff"
      stroke="#f7bd13"
      stroke-width="20"
    />
    <circle
      id="connector6pin"
      cx="1214.087"
      cy="721.14331"
      r="29"
      fill="#ffffff"
      stroke="#f7bd13"
      stroke-width="20"
    />
    <circle
      id="connector7pin"
      cx="1214.087"
      cy="621.14331"
      r="29"
      fill="#ffffff"
      stroke="#f7bd13"
      stroke-width="20"
    />
    <circle
      id="connector8pin"
      cx="1214.087"
      cy="521.14325"
      r="29"
      fill="#ffffff"
      stroke="#f7bd13"
      stroke-width="20"
    />
    <circle
      id="connector9pin"
      cx="1214.087"
      cy="421.14319"
      r="29"
      fill="#ffffff"
      stroke="#f7bd13"
      stroke-width="20"
    />
    <circle
      id="connector10pin"
      cx="1298.843"
      cy="421.5369"
      r="29"
      fill="#ffffff"
      stroke="#f7bd13"
      stroke-width="20"
    />
    <circle
      id="connector11pin"
      cx="1298.843"
      cy="521.14325"
      r="29"
      fill="#ffffff"
      stroke="#f7bd13"
      stroke-width="20"
    />
    <circle
      id="connector12pin"
      cx="1298.843"
      cy="621.14331"
      r="29"
      fill="#ffffff"
      stroke="#f7bd13"
      stroke-width="20"
    />
    <circle
      id="connector13pin"
      cx="1298.843"
      cy="721.14331"
      r="29"
      fill="#ffffff"
      stroke="#f7bd13"
      stroke-width="20"
    />
    <circle
      id="connector14pin"
      cx="1298.843"
      cy="821.14337"
      r="29"
      fill="#ffffff"
      stroke="#f7bd13"
      stroke-width="20"
    />
    <circle
      id="connector15pin"
      cx="2473.9299"
      cy="821.14337"
      r="29"
      fill="#ffffff"
      stroke="#f7bd13"
      stroke-width="20"
    />
    <circle
      id="connector16pin"
      cx="2473.9299"
      cy="721.14331"
      r="29"
      fill="#ffffff"
      stroke="#f7bd13"
      stroke-width="20"
    />
    <circle
      id="connector17pin"
      cx="2473.9299"
      cy="621.14331"
      r="29"
      fill="#ffffff"
      stroke="#f7bd13"
      stroke-width="20"
    />
    <circle
      id="connector18pin"
      cx="2473.9299"
      cy="521.14325"
      r="29"
      fill="#ffffff"
      stroke="#f7bd13"
      stroke-width="20"
    />
    <circle
      id="connector19pin"
      cx="2473.9299"
      cy="421.14319"
      r="29"
      fill="#ffffff"
      stroke="#f7bd13"
      stroke-width="20"
    />
    <circle
      id="connector20pin"
      cx="2558.686"
      cy="421.5369"
      r="29"
      fill="#ffffff"
      stroke="#f7bd13"
      stroke-width="20"
    />
    <circle
      id="connector21pin"
      cx="2558.686"
      cy="521.14325"
      r="29"
      fill="#ffffff"
      stroke="#f7bd13"
      stroke-width="20"
    />
    <circle
      id="connector22pin"
      cx="2558.686"
      cy="621.14331"
      r="29"
      fill="#ffffff"
      stroke="#f7bd13"
      stroke-width="20"
    />
    <circle
      id="connector23pin"
      cx="2558.686"
      cy="721.14331"
      r="29"
      fill="#ffffff"
      stroke="#f7bd13"
      stroke-width="20"
    />
    <circle
      id="connector24pin"
      cx="2558.686"
      cy="821.14337"
      r="29"
      fill="#ffffff"
      stroke="#f7bd13"
      stroke-width="20"
    />
    <circle
      id="connector25pin"
      cx="3733.7729"
      cy="821.14337"
      r="29"
      fill="#ffffff"
      stroke="#f7bd13"
      stroke-width="20"
    />
    <circle
      id="connector26pin"
      cx="3733.7729"
      cy="721.14331"
      r="29"
      fill="#ffffff"
      stroke="#f7bd13"
      stroke-width="20"
    />
    <circle
      id="connector27pin"
      cx="3733.7729"
      cy="621.14331"
      r="29"
      fill="#ffffff"
      stroke="#f7bd13"
      stroke-width="20"
    />
    <circle
      id="connector28pin"
      cx="3733.7729"
      cy="521.14325"
      r="29"
      fill="#ffffff"
      stroke="#f7bd13"
      stroke-width="20"
    />
    <circle
      id="connector29pin"
      cx="3733.7729"
      cy="421.14319"
      r="29"
      fill="#ffffff"
      stroke="#f7bd13"
      stroke-width="20"
    />
    <circle
      id="connector30pin"
      cx="3818.5291"
      cy="421.5369"
      r="29"
      fill="#ffffff"
      stroke="#f7bd13"
      stroke-width="20"
    />
    <circle
      id="connector31pin"
      cx="3818.5291"
      cy="521.14325"
      r="29"
      fill="#ffffff"
      stroke="#f7bd13"
      stroke-width="20"
    />
    <circle
      id="connector32pin"
      cx="3818.5291"
      cy="621.14331"
      r="29"
      fill="#ffffff"
      stroke="#f7bd13"
      stroke-width="20"
    />
    <circle
      id="connector33pin"
      cx="3818.5291"
      cy="721.14331"
      r="29"
      fill="#ffffff"
      stroke="#f7bd13"
      stroke-width="20"
    />
    <circle
      id="connector34pin"
      cx="3818.5291"
      cy="821.14337"
      r="29"
      fill="#ffffff"
      stroke="#f7bd13"
      stroke-width="20"
    />
    <circle
      id="connector35pin"
      cx="4993.6157"
      cy="821.14337"
      r="29"
      fill="#ffffff"
      stroke="#f7bd13"
      stroke-width="20"
    />
    <circle
      id="connector36pin"
      cx="4993.6157"
      cy="721.14331"
      r="29"
      fill="#ffffff"
      stroke="#f7bd13"
      stroke-width="20"
    />
    <circle
      id="connector37pin"
      cx="4993.6157"
      cy="621.14331"
      r="29"
      fill="#ffffff"
      stroke="#f7bd13"
      stroke-width="20"
    />
    <circle
      id="connector38pin"
      cx="4993.6157"
      cy="521.14325"
      r="29"
      fill="#ffffff"
      stroke="#f7bd13"
      stroke-width="20"
    />
    <circle
      id="connector39pin"
      cx="4993.6157"
      cy="421.14319"
      r="29"
      fill="#ffffff"
      stroke="#f7bd13"
      stroke-width="20"
    />
  </g>
</svg>
