<?xml version='1.0' encoding='UTF-8' standalone='no'?>
<svg
  xmlns:dc="http://purl.org/dc/elements/1.1/"
  xmlns:cc="http://creativecommons.org/ns#"
  xmlns:rdf="http://www.w3.org/1999/02/22-rdf-syntax-ns#"
  xmlns:svg="http://www.w3.org/2000/svg"
  xmlns="http://www.w3.org/2000/svg"
  id="svg2"
  y="0in"
  version="1.2"
  height="0.29958332in"
  width="0.29958332in"
  x="0in"
  viewBox="0 0 299.5833 299.5833">
  <metadata
    id="metadata24">
    <rdf:RDF>
      <cc:Work
        rdf:about="">
        <dc:format>image/svg+xml</dc:format>
        <dc:type
          rdf:resource="http://purl.org/dc/dcmitype/StillImage"
        />
        <dc:title/>
      </cc:Work>
    </rdf:RDF>
  </metadata>
  <defs
    id="defs22"
  />
  <desc
    id="desc4">
    <referenceFile>top-view-banana-jack-red_1_breadboard.svg</referenceFile>
  </desc>
  <g
    id="breadboard">
    <circle
      id="path349"
      cx="149.79164"
      cy="149.79164"
      r="149.79164"
      fill="#ff0000"
      stroke="nonestroke-width"
    />
    <circle
      id="connector0pin"
      cx="149.79164"
      cy="149.79164"
      r="45"
      fill="#d4aa00"
      stroke="#ffcc00"
      stroke-width="10.4167"
    />
  </g>
</svg>
