<?xml version='1.0' encoding='utf-8'?>
<!DOCTYPE svg>
<!-- Generator: Adobe Illustrator 16.0.0, SVG Export Plug-In . SVG Version: 6.00 Build 0)  -->
<svg xmlns="http://www.w3.org/2000/svg" xmlns:xml="http://www.w3.org/XML/1998/namespace" xml:space="preserve"  y="0px" viewBox="0 0 43.2 144" height="2in" version="1.1" id="schematic" x="0px" width="0.6in" enable-background="new 0 0 43.2 144" gorn="0">
    <desc >
        <referenceFile >DG412_SCM-1.svg</referenceFile>
    </desc>
    <g  id="subpart5" gorn="0.1">
        <line stroke-miterlimit="10" stroke="#888888" y1="122.399" fill="none"  stroke-width="0.1" y2="122.4" x1="35.927" id="connector12terminal" x2="36" gorn="0.1.0"/>
        <line stroke-miterlimit="10" stroke="#888888" y1="122.399" fill="none"  stroke-width="0.1" y2="122.4" x1="7.2" id="connector11terminal" x2="7.271" gorn="0.1.1"/>
        <line stroke-miterlimit="10" stroke="#888888" y1="136.799" fill="none"  stroke-width="0.1" y2="136.8" x1="7.2" id="connector4terminal" x2="7.271" gorn="0.1.2"/>
        <line stroke-miterlimit="10" stroke="#888888" y1="136.799" fill="none"  stroke-width="0.1" y2="136.8" x1="35.927" id="connector3terminal" x2="36" gorn="0.1.3"/>
        <line stroke-miterlimit="10" stroke="#888888" y1="122.399" fill="none"  y2="122.4" stroke-width="1" x1="28.8" id="connector12pin" x2="36" gorn="0.1.4"/>
        <line stroke-miterlimit="10" stroke="#888888" y1="122.399" fill="none"  y2="122.4" stroke-width="1" x1="7.201" id="connector11pin" x2="14.4" gorn="0.1.5"/>
        <line stroke-miterlimit="10" stroke="#888888" y1="136.799" fill="none"  y2="136.8" stroke-width="1" x1="7.201" id="connector4pin" x2="14.4" gorn="0.1.6"/>
        <line stroke-miterlimit="10" stroke="#888888" y1="136.799" fill="none"  y2="136.8" stroke-width="1" x1="28.8" id="connector3pin" x2="36" gorn="0.1.7"/>
        <g >
            <g  transform="matrix(1 0 0 1 9.6919 121.4507)">
                <g >
                    <text font-size="2.8347"  font-family="Droid Sans">12</text>
                </g>
            </g>
        </g>
        <g >
            <g  transform="matrix(1 0 0 1 11.146 135.8506)">
                <g >
                    <text font-size="2.8347"  font-family="Droid Sans">5</text>
                </g>
            </g>
        </g>
        <g >
            <g  transform="matrix(1 0 0 1 23.728 123.2505)">
                <g >
                    <text font-size="2.8347"  font-family="Droid Sans">V+</text>
                </g>
            </g>
        </g>
        <g >
            <g  transform="matrix(1 0 0 1 24.5474 137.6504)">
                <g >
                    <text font-size="2.8347"  font-family="Droid Sans">V-</text>
                </g>
            </g>
        </g>
        <g >
            <g  transform="matrix(1 0 0 1 30.5991 121.4497)">
                <g >
                    <text font-size="2.8347"  font-family="Droid Sans">13</text>
                </g>
            </g>
        </g>
        <g >
            <g  transform="matrix(1 0 0 1 30.5991 135.8496)">
                <g >
                    <text font-size="2.8347"  font-family="Droid Sans">4</text>
                </g>
            </g>
        </g>
        <g >
            <g  transform="matrix(1 0 0 1 16.2007 123.2505)">
                <g >
                    <text font-size="2.8347"  font-family="Droid Sans">VL</text>
                </g>
            </g>
        </g>
        <g >
            <g  transform="matrix(1 0 0 1 16.2007 137.6504)">
                <g >
                    <text font-size="2.8347"  font-family="Droid Sans">GND</text>
                </g>
            </g>
        </g>
        <rect stroke-miterlimit="10" stroke="#000000" fill="none"  stroke-width="1" y="118.8" height="21.6" x="14.399" width="14.4"/>
        <g >
            <g  transform="matrix(1 0 0 1 17.5601 130.4507)">
                <g >
                    <text font-size="2.8347"  font-family="Droid Sans">DG412</text>
                </g>
            </g>
        </g>
    </g>
    <g  id="subpart4" gorn="0.2">
        <line stroke-miterlimit="10" stroke="#888888" y1="100.799" fill="none"  stroke-width="0.1" y2="100.8" x1="7.2" id="connector7terminal" x2="7.271" gorn="0.2.0"/>
        <line stroke-miterlimit="10" stroke="#888888" y1="107.999" fill="none"  stroke-width="0.1" y2="108" x1="35.927" id="connector6terminal" x2="36" gorn="0.2.1"/>
        <line stroke-miterlimit="10" stroke="#888888" y1="93.599" fill="none"  stroke-width="0.1" y2="93.6" x1="35.927" id="connector5terminal" x2="36" gorn="0.2.2"/>
        <line stroke-miterlimit="10" stroke="#888888" y1="100.799" fill="none"  y2="100.8" stroke-width="1" x1="7.2" id="connector7pin" x2="14.4" gorn="0.2.3"/>
        <line stroke-miterlimit="10" stroke="#888888" y1="107.999" fill="none"  y2="108" stroke-width="1" x1="28.8" id="connector6pin" x2="36" gorn="0.2.4"/>
        <line stroke-miterlimit="10" stroke="#888888" y1="93.599" fill="none"  y2="93.6" stroke-width="1" x1="28.8" id="connector5pin" x2="36" gorn="0.2.5"/>
        <g >
            <g  transform="matrix(1 0 0 1 11.146 99.8501)">
                <g >
                    <text font-size="2.8347"  font-family="Droid Sans">8</text>
                </g>
            </g>
        </g>
        <g >
            <g  transform="matrix(1 0 0 1 30.5991 92.6499)">
                <g >
                    <text font-size="2.8347"  font-family="Droid Sans">6</text>
                </g>
            </g>
        </g>
        <g >
            <g  transform="matrix(1 0 0 1 30.5991 107.0498)">
                <g >
                    <text font-size="2.8347"  font-family="Droid Sans">7</text>
                </g>
            </g>
        </g>
        <g >
            <line stroke-miterlimit="10" stroke="#898989" y1="108" fill="none"  y2="93.6" stroke-width="1" x1="25.2" x2="28.8"/>
            <polygon stroke-miterlimit="10" stroke="#000000" points="21.6,100.799 14.4,106.199 14.4,95.399 " fill="none"  stroke-width="1"/>
            <g >
                <g >
                    <line stroke-miterlimit="10" stroke="#000000" y1="100.799" fill="none"  y2="100.799" stroke-width="1" x1="27" stroke-linecap="round" x2="26.292"/>
                    <line stroke-miterlimit="10" stroke="#000000" stroke-dasharray="0.7966,1.5932" y1="100.799" fill="none"  y2="100.799" stroke-width="1" x1="24.699" stroke-linecap="round" x2="23.105"/>
                    <line stroke-miterlimit="10" stroke="#000000" y1="100.799" fill="none"  y2="100.799" stroke-width="1" x1="22.309" stroke-linecap="round" x2="21.6"/>
                </g>
            </g>
            <circle stroke-miterlimit="10" cy="93.6" stroke="#000000" cx="27" fill="none"  stroke-width="1" r="1.8"/>
            <circle stroke-miterlimit="10" cy="108" stroke="#000000" cx="27" fill="none"  stroke-width="1" r="1.8"/>
            <g >
                <g  transform="matrix(1 0 0 1 15.2554 101.6499)">
                    <g >
                        <text font-size="2.8347"  font-family="Droid Sans">D</text>
                    </g>
                </g>
            </g>
        </g>
    </g>
    <g  id="subpart3" gorn="0.3">
        <line stroke-miterlimit="10" stroke="#888888" y1="64.799" fill="none"  stroke-width="0.1" y2="64.8" x1="35.927" id="connector10terminal" x2="36" gorn="0.3.0"/>
        <line stroke-miterlimit="10" stroke="#888888" y1="79.199" fill="none"  stroke-width="0.1" y2="79.2" x1="35.927" id="connector9terminal" x2="36" gorn="0.3.1"/>
        <line stroke-miterlimit="10" stroke="#888888" y1="72" fill="none"  stroke-width="0.1" y2="72" x1="7.2" id="connector8terminal" x2="7.271" gorn="0.3.2"/>
        <line stroke-miterlimit="10" stroke="#888888" y1="64.799" fill="none"  y2="64.8" stroke-width="1" x1="28.8" id="connector10pin" x2="36" gorn="0.3.3"/>
        <line stroke-miterlimit="10" stroke="#888888" y1="79.199" fill="none"  y2="79.2" stroke-width="1" x1="28.8" id="connector9pin" x2="36" gorn="0.3.4"/>
        <line stroke-miterlimit="10" stroke="#888888" y1="72" fill="none"  y2="72" stroke-width="1" x1="7.2" id="connector8pin" x2="14.4" gorn="0.3.5"/>
        <g >
            <g  transform="matrix(1 0 0 1 11.146 71.0503)">
                <g >
                    <text font-size="2.8347"  font-family="Droid Sans">9</text>
                </g>
            </g>
        </g>
        <g >
            <g  transform="matrix(1 0 0 1 30.5991 63.8501)">
                <g >
                    <text font-size="2.8347"  font-family="Droid Sans">11</text>
                </g>
            </g>
        </g>
        <g >
            <g  transform="matrix(1 0 0 1 30.5991 78.25)">
                <g >
                    <text font-size="2.8347"  font-family="Droid Sans">10</text>
                </g>
            </g>
        </g>
        <g >
            <line stroke-miterlimit="10" stroke="#898989" y1="79.2" fill="none"  y2="64.8" stroke-width="1" x1="25.2" x2="28.8"/>
            <polygon stroke-miterlimit="10" stroke="#000000" points="21.6,72 14.4,77.399 14.4,66.6 " fill="none"  stroke-width="1"/>
            <g >
                <g >
                    <line stroke-miterlimit="10" stroke="#000000" y1="72" fill="none"  y2="72" stroke-width="1" x1="27" stroke-linecap="round" x2="26.292"/>
                    <line stroke-miterlimit="10" stroke="#000000" stroke-dasharray="0.7966,1.5932" y1="72" fill="none"  y2="72" stroke-width="1" x1="24.699" stroke-linecap="round" x2="23.105"/>
                    <line stroke-miterlimit="10" stroke="#000000" y1="72" fill="none"  y2="72" stroke-width="1" x1="22.309" stroke-linecap="round" x2="21.6"/>
                </g>
            </g>
            <circle stroke-miterlimit="10" cy="64.8" stroke="#000000" cx="27" fill="none"  stroke-width="1" r="1.8"/>
            <circle stroke-miterlimit="10" cy="79.2" stroke="#000000" cx="27" fill="none"  stroke-width="1" r="1.8"/>
            <g >
                <g  transform="matrix(1 0 0 1 15.3774 72.8501)">
                    <g >
                        <text font-size="2.8347"  font-family="Droid Sans">C</text>
                    </g>
                </g>
            </g>
        </g>
    </g>
    <g  id="subpart2" gorn="0.4">
        <line stroke-miterlimit="10" stroke="#888888" y1="43.2" fill="none"  stroke-width="0.1" y2="43.2" x1="7.2" id="connector15terminal" x2="7.271" gorn="0.4.0"/>
        <line stroke-miterlimit="10" stroke="#888888" y1="50.399" fill="none"  stroke-width="0.1" y2="50.4" x1="35.927" id="connector14terminal" x2="36" gorn="0.4.1"/>
        <line stroke-miterlimit="10" stroke="#888888" y1="36" fill="none"  stroke-width="0.1" y2="36" x1="35.927" id="connector13terminal" x2="36" gorn="0.4.2"/>
        <line stroke-miterlimit="10" stroke="#888888" y1="43.2" fill="none"  y2="43.2" stroke-width="1" x1="7.2" id="connector15pin" x2="14.4" gorn="0.4.3"/>
        <line stroke-miterlimit="10" stroke="#888888" y1="50.399" fill="none"  y2="50.4" stroke-width="1" x1="28.8" id="connector14pin" x2="36" gorn="0.4.4"/>
        <line stroke-miterlimit="10" stroke="#888888" y1="36" fill="none"  y2="36" stroke-width="1" x1="28.8" id="connector13pin" x2="36" gorn="0.4.5"/>
        <g >
            <g  transform="matrix(1 0 0 1 9.6919 42.2505)">
                <g >
                    <text font-size="2.8347"  font-family="Droid Sans">16</text>
                </g>
            </g>
        </g>
        <g >
            <g  transform="matrix(1 0 0 1 30.5991 35.0503)">
                <g >
                    <text font-size="2.8347"  font-family="Droid Sans">14</text>
                </g>
            </g>
        </g>
        <g >
            <g  transform="matrix(1 0 0 1 30.5991 49.4502)">
                <g >
                    <text font-size="2.8347"  font-family="Droid Sans">15</text>
                </g>
            </g>
        </g>
        <g >
            <line stroke-miterlimit="10" stroke="#898989" y1="50.4" fill="none"  y2="36" stroke-width="1" x1="25.2" x2="28.8"/>
            <polygon stroke-miterlimit="10" stroke="#000000" points="21.6,43.2 14.4,48.6 14.4,37.8 " fill="none"  stroke-width="1"/>
            <g >
                <g >
                    <line stroke-miterlimit="10" stroke="#000000" y1="43.2" fill="none"  y2="43.2" stroke-width="1" x1="27" stroke-linecap="round" x2="26.292"/>
                    <line stroke-miterlimit="10" stroke="#000000" stroke-dasharray="0.7966,1.5932" y1="43.2" fill="none"  y2="43.2" stroke-width="1" x1="24.699" stroke-linecap="round" x2="23.105"/>
                    <line stroke-miterlimit="10" stroke="#000000" y1="43.2" fill="none"  y2="43.2" stroke-width="1" x1="22.309" stroke-linecap="round" x2="21.6"/>
                </g>
            </g>
            <circle stroke-miterlimit="10" cy="36" stroke="#000000" cx="27" fill="none"  stroke-width="1" r="1.8"/>
            <circle stroke-miterlimit="10" cy="50.4" stroke="#000000" cx="27" fill="none"  stroke-width="1" r="1.8"/>
            <g >
                <g  transform="matrix(1 0 0 1 15.4312 44.0503)">
                    <g >
                        <text font-size="2.8347"  font-family="Droid Sans">B</text>
                    </g>
                </g>
            </g>
        </g>
    </g>
    <g  id="subpart1" gorn="0.5">
        <line stroke-miterlimit="10" stroke="#888888" y1="7.2" fill="none"  stroke-width="0.1" y2="7.2" x1="35.927" id="connector2terminal" x2="36" gorn="0.5.0"/>
        <line stroke-miterlimit="10" stroke="#888888" y1="21.6" fill="none"  stroke-width="0.1" y2="21.6" x1="35.927" id="connector1terminal" x2="36" gorn="0.5.1"/>
        <line stroke-miterlimit="10" stroke="#888888" y1="14.4" fill="none"  stroke-width="0.1" y2="14.4" x1="7.2" id="connector0terminal" x2="7.271" gorn="0.5.2"/>
        <line stroke-miterlimit="10" stroke="#888888" y1="7.2" fill="none"  y2="7.2" stroke-width="1" x1="28.8" id="connector2pin" x2="36" gorn="0.5.3"/>
        <line stroke-miterlimit="10" stroke="#888888" y1="21.6" fill="none"  y2="21.6" stroke-width="1" x1="28.8" id="connector1pin" x2="36" gorn="0.5.4"/>
        <line stroke-miterlimit="10" stroke="#888888" y1="14.4" fill="none"  y2="14.4" stroke-width="1" x1="7.2" id="connector0pin" x2="14.4" gorn="0.5.5"/>
        <g >
            <g  transform="matrix(1 0 0 1 11.146 13.4507)">
                <g >
                    <text font-size="2.8347"  font-family="Droid Sans">1</text>
                </g>
            </g>
        </g>
        <g >
            <g  transform="matrix(1 0 0 1 30.5991 6.2505)">
                <g >
                    <text font-size="2.8347"  font-family="Droid Sans">3</text>
                </g>
            </g>
        </g>
        <g >
            <g  transform="matrix(1 0 0 1 30.5991 20.6504)">
                <g >
                    <text font-size="2.8347"  font-family="Droid Sans">2</text>
                </g>
            </g>
        </g>
        <g >
            <line stroke-miterlimit="10" stroke="#898989" y1="21.601" fill="none"  y2="7.2" stroke-width="1" x1="25.2" x2="28.8"/>
            <polygon stroke-miterlimit="10" stroke="#000000" points="21.6,14.4 14.4,19.8 14.4,9 " fill="none"  stroke-width="1"/>
            <g >
                <g >
                    <line stroke-miterlimit="10" stroke="#000000" y1="14.4" fill="none"  y2="14.4" stroke-width="1" x1="27" stroke-linecap="round" x2="26.292"/>
                    <line stroke-miterlimit="10" stroke="#000000" stroke-dasharray="0.7966,1.5932" y1="14.4" fill="none"  y2="14.4" stroke-width="1" x1="24.699" stroke-linecap="round" x2="23.105"/>
                    <line stroke-miterlimit="10" stroke="#000000" y1="14.4" fill="none"  y2="14.4" stroke-width="1" x1="22.309" stroke-linecap="round" x2="21.6"/>
                </g>
            </g>
            <circle stroke-miterlimit="10" cy="7.2" stroke="#000000" cx="27" fill="none"  stroke-width="1" r="1.8"/>
            <circle stroke-miterlimit="10" cy="21.6" stroke="#000000" cx="27" fill="none"  stroke-width="1" r="1.8"/>
            <g >
                <g  transform="matrix(1 0 0 1 15.3325 15.2505)">
                    <g >
                        <text font-size="2.8347"  font-family="Droid Sans">A</text>
                    </g>
                </g>
            </g>
        </g>
    </g>
</svg>
