<?xml version='1.0' encoding='UTF-8' standalone='no'?>
<svg
  xmlns:dc="http://purl.org/dc/elements/1.1/"
  xmlns:cc="http://creativecommons.org/ns#"
  xmlns:rdf="http://www.w3.org/1999/02/22-rdf-syntax-ns#"
  xmlns:svg="http://www.w3.org/2000/svg"
  xmlns="http://www.w3.org/2000/svg"
  viewBox="0 0 3250 787.40157"
  x="0in"
  width="3.2500002in"
  height="0.78740162in"
  version="1.2"
  y="0in"
  id="svg2">
  <metadata
    id="metadata24">
    <rdf:RDF>
      <cc:Work
        rdf:about="">
        <dc:format>image/svg+xml</dc:format>
        <dc:type
          rdf:resource="http://purl.org/dc/dcmitype/StillImage"
        />
        <dc:title/>
      </cc:Work>
    </rdf:RDF>
  </metadata>
  <defs
    id="defs22"
  />
  <desc
    id="desc4">
    <referenceFile>ljc18a3-b-zby_1_breadboard.svg</referenceFile>
  </desc>
  <g
    id="breadboard">
    <line
      y1="292.09146"
      y2="191.99998"
      x2="3244.9998"
      x1="3089.5098"
      id="line85"
      fill="none"
      stroke="#0000ff"
      stroke-width="9.99999"
      stroke-linecap="round"
      stroke-linejoin="round"
    />
    <rect
      id="rect349"
      width="157.4803"
      height="413.3858"
      x="0"
      y="177.95032"
      fill="#ff9955"
      stroke="none"
      stroke-width="0"
    />
    <rect
      y="153.42558"
      x="157.49693"
      height="460.62988"
      width="1732.2833"
      id="rect351"
      fill="#999999"
      stroke="none"
      stroke-width="0"
    />
    <line
      y1="292.09146"
      y2="291.99997"
      x2="3244.9998"
      x1="3089.5098"
      id="line24"
      fill="none"
      stroke="#808000"
      stroke-width="10"
      stroke-linecap="round"
      stroke-linejoin="round"
    />
    <line
      id="line431"
      x1="3092.2629"
      x2="3244.9998"
      y2="392.45822"
      y1="298.3447"
      fill="#000000"
      stroke="#000000"
      stroke-width="10"
      stroke-linecap="round"
      stroke-linejoin="round"
    />
    <rect
      id="rect419"
      width="551.18134"
      height="52.083328"
      x="2544.1108"
      y="262.59879"
      fill="#cccccc"
      stroke="#999999"
      stroke-width="0"
    />
    <rect
      y="218.31595"
      x="2418.2776"
      height="144.28285"
      width="151.1812"
      id="rect417"
      fill="#808080"
      stroke="none"
      stroke-width="0"
    />
    <rect
      id="rect353"
      width="551.18109"
      height="460.62988"
      x="1889.7803"
      y="153.42558"
      fill="#b3b3b3"
      stroke="none"
      stroke-width="0"
    />
    <rect
      y="130.17496"
      x="134.00853"
      height="513.27563"
      width="19.685038"
      id="rect355"
      transform="matrix(1,0,0.07549058,0.99714651,0,0)"
      fill="#808080"
      stroke="none"
      stroke-width="0"
    />
    <rect
      transform="matrix(1,0,0.07549058,0.99714651,0,0)"
      id="rect357"
      width="19.685038"
      height="513.27563"
      x="212.74869"
      y="130.17496"
      fill="#808080"
      stroke="none"
      stroke-width="0"
    />
    <rect
      y="130.17497"
      x="291.48883"
      height="513.27563"
      width="19.685038"
      id="rect359"
      transform="matrix(1,0,0.07549058,0.99714651,0,0)"
      fill="#808080"
      stroke="none"
      stroke-width="0"
    />
    <rect
      transform="matrix(1,0,0.07549058,0.99714651,0,0)"
      id="rect361"
      width="19.685038"
      height="513.27563"
      x="370.22897"
      y="130.17497"
      fill="#808080"
      stroke="none"
      stroke-width="0"
    />
    <rect
      y="130.17497"
      x="448.96915"
      height="513.27563"
      width="19.685038"
      id="rect363"
      transform="matrix(1,0,0.07549058,0.99714651,0,0)"
      fill="#808080"
      stroke="none"
      stroke-width="0"
    />
    <rect
      transform="matrix(1,0,0.07549058,0.99714651,0,0)"
      id="rect365"
      width="19.685038"
      height="513.27563"
      x="527.70929"
      y="130.17497"
      fill="#808080"
      stroke="none"
      stroke-width="0"
    />
    <rect
      y="130.17497"
      x="606.4494"
      height="513.27563"
      width="19.685038"
      id="rect367"
      transform="matrix(1,0,0.07549058,0.99714651,0,0)"
      fill="#808080"
      stroke="none"
      stroke-width="0"
    />
    <rect
      transform="matrix(1,0,0.07549058,0.99714651,0,0)"
      id="rect369"
      width="19.685038"
      height="513.27563"
      x="685.18958"
      y="130.17497"
      fill="#808080"
      stroke="none"
      stroke-width="0"
    />
    <rect
      y="130.17497"
      x="763.92969"
      height="513.27563"
      width="19.685038"
      id="rect371"
      transform="matrix(1,0,0.07549058,0.99714651,0,0)"
      fill="#808080"
      stroke="none"
      stroke-width="0"
    />
    <rect
      transform="matrix(1,0,0.07549058,0.99714651,0,0)"
      id="rect373"
      width="19.685038"
      height="513.27563"
      x="842.66986"
      y="130.17497"
      fill="#808080"
      stroke="none"
      stroke-width="0"
    />
    <rect
      y="130.17497"
      x="921.41003"
      height="513.27563"
      width="19.685038"
      id="rect375"
      transform="matrix(1,0,0.07549058,0.99714651,0,0)"
      fill="#808080"
      stroke="none"
      stroke-width="0"
    />
    <rect
      transform="matrix(1,0,0.07549058,0.99714651,0,0)"
      id="rect377"
      width="19.685038"
      height="513.27563"
      x="1000.1501"
      y="130.17497"
      fill="#808080"
      stroke="none"
      stroke-width="0"
    />
    <rect
      y="130.17497"
      x="1078.8904"
      height="513.27563"
      width="19.685038"
      id="rect379"
      transform="matrix(1,0,0.07549058,0.99714651,0,0)"
      fill="#808080"
      stroke="none"
      stroke-width="0"
    />
    <rect
      transform="matrix(1,0,0.07549058,0.99714651,0,0)"
      id="rect381"
      width="19.685038"
      height="513.27563"
      x="1157.6305"
      y="130.17497"
      fill="#808080"
      stroke="none"
      stroke-width="0"
    />
    <rect
      y="130.17497"
      x="1236.3706"
      height="513.27563"
      width="19.685038"
      id="rect383"
      transform="matrix(1,0,0.07549058,0.99714651,0,0)"
      fill="#808080"
      stroke="none"
      stroke-width="0"
    />
    <rect
      transform="matrix(1,0,0.07549058,0.99714651,0,0)"
      id="rect385"
      width="19.685038"
      height="513.27563"
      x="1315.1108"
      y="130.17497"
      fill="#808080"
      stroke="none"
      stroke-width="0"
    />
    <rect
      y="130.17497"
      x="1393.851"
      height="513.27563"
      width="19.685038"
      id="rect387"
      transform="matrix(1,0,0.07549058,0.99714651,0,0)"
      fill="#808080"
      stroke="none"
      stroke-width="0"
    />
    <rect
      transform="matrix(1,0,0.07549058,0.99714651,0,0)"
      id="rect389"
      width="19.685038"
      height="513.27563"
      x="1472.5911"
      y="130.17497"
      fill="#808080"
      stroke="none"
      stroke-width="0"
    />
    <rect
      y="130.17497"
      x="1551.3313"
      height="513.27563"
      width="19.685038"
      id="rect391"
      transform="matrix(1,0,0.07549058,0.99714651,0,0)"
      fill="#808080"
      stroke="none"
      stroke-width="0"
    />
    <rect
      transform="matrix(1,0,0.07549058,0.99714651,0,0)"
      id="rect393"
      width="19.685038"
      height="513.27563"
      x="1630.0714"
      y="130.17497"
      fill="#808080"
      stroke="none"
      stroke-width="0"
    />
    <rect
      y="130.17497"
      x="1708.8115"
      height="513.27563"
      width="19.685038"
      id="rect399"
      transform="matrix(1,0,0.07549058,0.99714651,0,0)"
      fill="#808080"
      stroke="none"
      stroke-width="0"
    />
    <text
      y="415.54379"
      font-size="80"
      gorn="0.2.10"
      x="1053.0554"
      id="label"
      font-family="OCRA"
      text-anchor="start"
      fill="#000000"
      stroke="none"
      stroke-width="10">LJC18A3-B-Z/BY</text>
    <rect
      transform="matrix(1,0,0.07549058,0.99714651,0,0)"
      id="rect401"
      width="19.685038"
      height="513.27563"
      x="1787.5518"
      y="130.17497"
      fill="#808080"
      stroke="none"
      stroke-width="0"
    />
    <rect
      y="0"
      x="371.44165"
      height="787.40155"
      width="118.11023"
      id="rect403"
      fill="#b3b3b3"
      stroke="none"
      stroke-width="0"
    />
    <rect
      id="rect405"
      width="118.11023"
      height="787.40155"
      x="524.97717"
      y="0"
      fill="#b3b3b3"
      stroke="none"
      stroke-width="0"
    />
    <rect
      y="3.9374084"
      x="524.97717"
      height="236.22046"
      width="118.11023"
      id="rect407"
      fill="#cccccc"
      stroke="#e6e6e6"
      stroke-width="0"
    />
    <rect
      id="rect409"
      width="118.11023"
      height="236.22046"
      x="524.97717"
      y="547.24451"
      fill="#cccccc"
      stroke="none"
      stroke-width="0"
    />
    <rect
      id="rect411"
      width="118.11023"
      height="236.22046"
      x="371.43393"
      y="3.9374084"
      fill="#cccccc"
      stroke="#b3b3b3"
      stroke-width="0"
    />
    <rect
      y="547.24451"
      x="371.43393"
      height="236.22046"
      width="118.11023"
      id="rect413"
      fill="#cccccc"
      stroke="none"
      stroke-width="0"
    />
    <rect
      id="connector0pin"
      width="9.999999"
      height="9.999999"
      x="3240"
      y="186.99998"
      fill="none"
      stroke="none"
      stroke-width="0"
    />
    <rect
      id="connector1pin"
      width="9.999999"
      height="9.999999"
      x="3240"
      y="286.99997"
      fill="none"
      stroke="none"
      stroke-width="0"
    />
    <rect
      y="386.99997"
      x="3240"
      height="9.999999"
      width="9.999999"
      id="connector2pin"
      fill="none"
      stroke="none"
      stroke-width="0"
    />
  </g>
</svg>
