<?xml version='1.0' encoding='UTF-8' standalone='no'?>
<svg
  xmlns:dc="http://purl.org/dc/elements/1.1/"
  xmlns:cc="http://creativecommons.org/ns#"
  xmlns:rdf="http://www.w3.org/1999/02/22-rdf-syntax-ns#"
  xmlns:svg="http://www.w3.org/2000/svg"
  xmlns="http://www.w3.org/2000/svg"
  viewBox="0 0 510.07123 309.99997"
  x="0in"
  width="0.51007122in"
  height="0.30999997in"
  version="1.2"
  y="0in"
  id="svg2">
  <metadata
    id="metadata41">
    <rdf:RDF>
      <cc:Work
        rdf:about="">
        <dc:format>image/svg+xml</dc:format>
        <dc:type
          rdf:resource="http://purl.org/dc/dcmitype/StillImage"
        />
        <dc:title/>
      </cc:Work>
    </rdf:RDF>
  </metadata>
  <defs
    id="defs39"
  />
  <desc
    id="desc4">
    <referenceFile>WS2812-2020_1_schematic.svg</referenceFile>
  </desc>
  <g
    id="schematic">
    <rect
      x="105.14088"
      width="300"
      height="300"
      y="5"
      id="rect7"
      fill="none"
      stroke="#000000"
      stroke-width="10"
      stroke-linecap="round"
    />
    <text
      font-size="35"
      y="54.314445"
      x="255.29787"
      id="label1"
      font-family="'Droid Sans'"
      text-anchor="middle"
      fill="#000000">WS2812-2020</text>
    <text
      id="label0"
      x="135"
      y="122.84821"
      font-size="49"
      font-family="'Droid Sans'"
      text-anchor="start"
      fill="#555555">DO</text>
    <text
      x="62.583008"
      y="84.999992"
      font-size="35"
      id="text15"
      font-family="'Droid Sans'"
      text-anchor="start"
      fill="#555555">1</text>
    <text
      id="text42"
      x="130.65544"
      y="222.5"
      font-size="49"
      font-family="'Droid Sans'"
      text-anchor="start"
      fill="#555555">GND</text>
    <text
      x="57.755081"
      y="184.97668"
      font-size="35"
      id="text22"
      font-family="'Droid Sans'"
      text-anchor="start"
      fill="#555555">2</text>
    <text
      font-size="49"
      y="222.5"
      x="378.37027"
      id="text79"
      font-family="'Droid Sans'"
      text-anchor="end"
      fill="#555555">DI</text>
    <text
      id="text63"
      font-size="35"
      y="184.6582"
      x="433.17789"
      font-family="'Droid Sans'"
      text-anchor="start"
      fill="#555555">3</text>
    <text
      font-size="49"
      y="122.49999"
      x="376.64761"
      id="text81"
      font-family="'Droid Sans'"
      text-anchor="end"
      fill="#555555">VDD</text>
    <text
      id="text65"
      font-size="35"
      y="84.658195"
      x="433.4855"
      font-family="'Droid Sans'"
      text-anchor="start"
      fill="#555555">4</text>
    <line
      y1="105.13842"
      y2="105.13842"
      x2="100.26112"
      x1="5.0712123"
      id="connector0pin"
      fill="none"
      stroke="#555555"
      stroke-width="10"
      stroke-linecap="round"
    />
    <rect
      id="connector0terminal"
      x="0.14087832"
      width="10"
      height="10"
      y="100.27781"
      fill="none"
      stroke-width="0"
    />
    <line
      y1="205.13843"
      y2="205.13843"
      x2="100.26112"
      x1="5.0712128"
      id="connector1pin"
      fill="none"
      stroke="#555555"
      stroke-width="10"
      stroke-linecap="round"
    />
    <rect
      id="connector1terminal"
      x="0.14087832"
      width="10"
      height="10"
      y="200"
      fill="none"
      stroke-width="0"
    />
    <line
      id="connector2pin"
      x1="410"
      x2="505"
      y2="204.66769"
      y1="204.66769"
      fill="none"
      stroke="#555555"
      stroke-width="10"
      stroke-linecap="round"
    />
    <rect
      y="199.66769"
      height="10"
      width="10"
      x="500"
      id="connector2terminal"
      fill="none"
      stroke-width="0"
    />
    <line
      id="connector3pin"
      x1="410"
      x2="505"
      y2="104.6677"
      y1="104.6677"
      fill="none"
      stroke="#555555"
      stroke-width="10"
      stroke-linecap="round"
    />
    <rect
      y="100.6677"
      height="10"
      width="10"
      x="500"
      id="connector3terminal"
      fill="none"
      stroke-width="0"
    />
  </g>
</svg>
