<?xml version='1.0' encoding='UTF-8' standalone='no'?>
<svg
  xmlns:dc="http://purl.org/dc/elements/1.1/"
  xmlns:cc="http://creativecommons.org/ns#"
  xmlns:rdf="http://www.w3.org/1999/02/22-rdf-syntax-ns#"
  xmlns:svg="http://www.w3.org/2000/svg"
  xmlns="http://www.w3.org/2000/svg"
  gorn="0"
  id="svg73"
  height="0.41016147in"
  width="0.41028231in"
  y="0in"
  x="0in"
  version="1.2"
  viewBox="0 0 410.28245 410.16158">
  <metadata
    id="metadata79">
    <rdf:RDF>
      <cc:Work
        rdf:about="">
        <dc:format>image/svg+xml</dc:format>
        <dc:type
          rdf:resource="http://purl.org/dc/dcmitype/StillImage"
        />
        <dc:title/>
      </cc:Work>
    </rdf:RDF>
  </metadata>
  <defs
    id="defs77"
  />
  <desc
    id="desc2">
    <referenceFile>vc-10_1_12_1_schematic.svg</referenceFile>
  </desc>
  <g
    id="schematic">
    <line
      x1="180.07004"
      y2="404.92014"
      y1="5.0712123"
      id="line4"
      x2="180.07004"
      stroke="#000000"
      stroke-width="10"
      stroke-linecap="round"
    />
    <line
      x1="230.06956"
      y2="404.92014"
      y1="5.0712123"
      id="line6"
      x2="230.06956"
      stroke="#000000"
      stroke-width="10"
      stroke-linecap="round"
    />
    <path
      id="path8"
      d="m 100.07031,5.0907958 a 49.99952,49.999286 0 1 1 0,99.9985242"
      fill="none"
      stroke="#000000"
      stroke-width="10"
    />
    <path
      id="path10"
      d="m 100.07031,105.08932 a 49.999718,49.999483 0 1 1 0,99.99896"
      fill="none"
      stroke="#000000"
      stroke-width="10"
    />
    <path
      id="path12"
      d="m 100.07031,205.08828 a 50.000111,49.999879 0 1 1 0,99.99942"
      fill="none"
      stroke="#000000"
      stroke-width="10"
    />
    <path
      id="path14"
      d="m 100.07031,305.0877 a 49.99972,49.999485 0 1 1 0,99.99897"
      fill="none"
      stroke="#000000"
      stroke-width="10"
    />
    <path
      id="path16"
      d="m 305.06891,106.20584 a 49.99952,49.999286 0 1 0 0,99.99855"
      fill="none"
      stroke="#000000"
      stroke-width="10"
    />
    <path
      id="path18"
      d="m 305.06891,206.20439 a 49.999718,49.999483 0 1 0 0,99.99896"
      fill="none"
      stroke="#000000"
      stroke-width="10"
    />
    <text
      font-size="35"
      id="text26"
      y="60.161522"
      x="49.376286"
      font-family="'Droid Sans'"
      text-anchor="middle"
      fill="#555555">1</text>
    <text
      font-size="35"
      id="text50"
      y="380.16159"
      x="51.3382"
      font-family="'Droid Sans'"
      text-anchor="middle"
      fill="#555555">6</text>
    <text
      font-size="35"
      id="text38"
      y="291.20303"
      x="353.08487"
      font-family="'Droid Sans'"
      text-anchor="middle"
      fill="#555555">8</text>
    <text
      font-size="35"
      id="text893"
      y="150.86137"
      x="352.47421"
      font-family="'Droid Sans'"
      text-anchor="middle"
      fill="#555555">11</text>
    <text
      font-size="35"
      x="379.23898"
      y="295.23795"
      id="text1918"
      font-family="'Droid Sans'"
      text-anchor="middle"
      fill="#555555"
    />
    <line
      x1="105.07021"
      y2="5.0896754"
      y1="5.0896754"
      id="connector0pin"
      x2="5.0712504"
      stroke="#555555"
      stroke-width="10"
      stroke-linecap="round"
    />
    <rect
      x="0.14092332"
      y="0.1614987"
      width="10"
      height="10"
      id="connector0terminal"
      fill="none"
      stroke="none"
      stroke-width="0"
    />
    <line
      x1="105.07025"
      y2="405.08447"
      y1="405.08447"
      id="connector1pin"
      x2="5.0712123"
      stroke="#555555"
      stroke-width="10"
      stroke-linecap="round"
    />
    <rect
      x="0.14092332"
      y="400.16159"
      width="10"
      height="10"
      id="connector1terminal"
      fill="none"
      stroke="none"
      stroke-width="0"
    />
    <line
      x1="305.21222"
      y2="106.34867"
      y1="106.34867"
      id="connector2pin"
      x2="405.21124"
      stroke="#555555"
      stroke-width="10"
      stroke-linecap="round"
    />
    <rect
      x="399.8194"
      width="10"
      y="101.20324"
      height="10"
      id="connector2terminal"
      fill="none"
      stroke="none"
      stroke-width="0"
    />
    <line
      x1="305.21222"
      class="pin-"
      y2="306.20187"
      y1="306.20187"
      id="connector3pin"
      x2="405.21124"
      stroke="#555555"
      stroke-width="10"
      stroke-linecap="round"
    />
    <rect
      x="400.13712"
      y="301.203"
      width="10"
      height="10"
      id="connector3terminal"
      fill="none"
      stroke="none"
      stroke-width="0"
    />
  </g>
</svg>
