<?xml version='1.0' encoding='UTF-8' standalone='no'?>
<!-- Created with Fritzing (http://www.fritzing.org/) -->
<svg xmlns="http://www.w3.org/2000/svg"  version="1.2" x="0in" y="0in" viewBox="0 0 1496.06 1496.06" height="1.49606in" width="1.49606in" baseProfile="tiny">
    <desc >
        <referenceFile >PCB-LQFP64_pcb.svg</referenceFile>
    </desc>
    <g  id="copper0" gorn="0.1">
        <g  id="copper1" gorn="0.1.0">
            <circle  fill-opacity="1" r="17.7165" stroke="#f7db13" id="connector63pin" stroke-width="3.93701" gorn="0.1.0.0" fill="none" style="display:inline;opacity:1;stroke-linejoin:round;stroke-miterlimit:4;stroke-dasharray:none;" stroke-opacity="1" cy="1096.06" cx="200"/>
            <circle  fill-opacity="1" r="17.7165" stroke="#f7db13" id="connector62pin" stroke-width="3.93701" gorn="0.1.0.1" fill="none" style="display:inline;opacity:1;stroke-linejoin:round;stroke-miterlimit:4;stroke-dasharray:none;" stroke-opacity="1" cy="1096.06" cx="100"/>
            <circle  fill-opacity="1" r="17.7165" stroke="#f7db13" id="connector61pin" stroke-width="3.93701" gorn="0.1.0.2" fill="none" style="display:inline;opacity:1;stroke-linejoin:round;stroke-miterlimit:4;stroke-dasharray:none;" stroke-opacity="1" cy="996.063" cx="200"/>
            <circle  fill-opacity="1" r="17.7165" stroke="#f7db13" id="connector60pin" stroke-width="3.93701" gorn="0.1.0.3" fill="none" style="display:inline;opacity:1;stroke-linejoin:round;stroke-miterlimit:4;stroke-dasharray:none;" stroke-opacity="1" cy="996.063" cx="100"/>
            <circle  fill-opacity="1" r="17.7165" stroke="#f7db13" id="connector59pin" stroke-width="3.93701" gorn="0.1.0.4" fill="none" style="display:inline;opacity:1;stroke-linejoin:round;stroke-miterlimit:4;stroke-dasharray:none;" stroke-opacity="1" cy="896.063" cx="200"/>
            <circle  fill-opacity="1" r="17.7165" stroke="#f7db13" id="connector58pin" stroke-width="3.93701" gorn="0.1.0.5" fill="none" style="display:inline;opacity:1;stroke-linejoin:round;stroke-miterlimit:4;stroke-dasharray:none;" stroke-opacity="1" cy="896.063" cx="100"/>
            <circle  fill-opacity="1" r="17.7165" stroke="#f7db13" id="connector57pin" stroke-width="3.93701" gorn="0.1.0.6" fill="none" style="display:inline;opacity:1;stroke-linejoin:round;stroke-miterlimit:4;stroke-dasharray:none;" stroke-opacity="1" cy="796.063" cx="200"/>
            <circle  fill-opacity="1" r="17.7165" stroke="#f7db13" id="connector56pin" stroke-width="3.93701" gorn="0.1.0.7" fill="none" style="display:inline;opacity:1;stroke-linejoin:round;stroke-miterlimit:4;stroke-dasharray:none;" stroke-opacity="1" cy="796.063" cx="100"/>
            <circle  fill-opacity="1" r="17.7165" stroke="#f7db13" id="connector55pin" stroke-width="3.93701" gorn="0.1.0.8" fill="none" style="display:inline;opacity:1;stroke-linejoin:round;stroke-miterlimit:4;stroke-dasharray:none;" stroke-opacity="1" cy="696.063" cx="200"/>
            <circle  fill-opacity="1" r="17.7165" stroke="#f7db13" id="connector54pin" stroke-width="3.93701" gorn="0.1.0.9" fill="none" style="display:inline;opacity:1;stroke-linejoin:round;stroke-miterlimit:4;stroke-dasharray:none;" stroke-opacity="1" cy="696.063" cx="100"/>
            <circle  fill-opacity="1" r="17.7165" stroke="#f7db13" id="connector53pin" stroke-width="3.93701" gorn="0.1.0.10" fill="none" style="display:inline;opacity:1;stroke-linejoin:round;stroke-miterlimit:4;stroke-dasharray:none;" stroke-opacity="1" cy="596.063" cx="200"/>
            <circle  fill-opacity="1" r="17.7165" stroke="#f7db13" id="connector52pin" stroke-width="3.93701" gorn="0.1.0.11" fill="none" style="display:inline;opacity:1;stroke-linejoin:round;stroke-miterlimit:4;stroke-dasharray:none;" stroke-opacity="1" cy="596.063" cx="100"/>
            <circle  fill-opacity="1" r="17.7165" stroke="#f7db13" id="connector51pin" stroke-width="3.93701" gorn="0.1.0.12" fill="none" style="display:inline;opacity:1;stroke-linejoin:round;stroke-miterlimit:4;stroke-dasharray:none;" stroke-opacity="1" cy="496.063" cx="200"/>
            <circle  fill-opacity="1" r="17.7165" stroke="#f7db13" id="connector50pin" stroke-width="3.93701" gorn="0.1.0.13" fill="none" style="display:inline;opacity:1;stroke-linejoin:round;stroke-miterlimit:4;stroke-dasharray:none;" stroke-opacity="1" cy="496.063" cx="100"/>
            <circle  fill-opacity="1" r="17.7165" stroke="#f7db13" id="connector49pin" stroke-width="3.93701" gorn="0.1.0.14" fill="none" style="display:inline;opacity:1;stroke-linejoin:round;stroke-miterlimit:4;stroke-dasharray:none;" stroke-opacity="1" cy="396.063" cx="200"/>
            <circle  fill-opacity="1" r="17.7165" stroke="#f7db13" id="connector48pin" stroke-width="3.93701" gorn="0.1.0.15" fill="none" style="display:inline;opacity:1;stroke-linejoin:round;stroke-miterlimit:4;stroke-dasharray:none;" stroke-opacity="1" cy="396.063" cx="100"/>
            <ellipse  ry="17.7165" fill-opacity="1" stroke="#f7db13" id="connector47pin" rx="17.7165" stroke-width="3.93701" gorn="0.1.0.16" fill="none" style="display:inline;opacity:1;stroke-linejoin:round;stroke-miterlimit:4;stroke-dasharray:none;" stroke-opacity="1" cy="196.063" cx="400"/>
            <circle  fill-opacity="1" r="17.7165" stroke="#f7db13" id="connector46pin" stroke-width="3.93701" gorn="0.1.0.17" fill="none" style="display:inline;opacity:1;stroke-linejoin:round;stroke-miterlimit:4;stroke-dasharray:none;" stroke-opacity="1" cy="96.063" cx="400"/>
            <ellipse  ry="17.4997" fill-opacity="1" stroke="#f7db13" id="connector45pin" rx="17.4997" stroke-width="3.93701" gorn="0.1.0.18" fill="none" style="display:inline;opacity:1;stroke-linejoin:round;stroke-miterlimit:4;stroke-dasharray:none;" stroke-opacity="1" cy="195.846" cx="499.783"/>
            <circle  fill-opacity="1" r="17.7165" stroke="#f7db13" id="connector44pin" stroke-width="3.93701" gorn="0.1.0.19" fill="none" style="display:inline;opacity:1;stroke-linejoin:round;stroke-miterlimit:4;stroke-dasharray:none;" stroke-opacity="1" cy="96.063" cx="500"/>
            <ellipse  ry="17.4997" fill-opacity="1" stroke="#f7db13" id="connector43pin" rx="17.4997" stroke-width="3.93701" gorn="0.1.0.20" fill="none" style="display:inline;opacity:1;stroke-linejoin:round;stroke-miterlimit:4;stroke-dasharray:none;" stroke-opacity="1" cy="195.846" cx="599.783"/>
            <circle  fill-opacity="1" r="17.7165" stroke="#f7db13" id="connector42pin" stroke-width="3.93701" gorn="0.1.0.21" fill="none" style="display:inline;opacity:1;stroke-linejoin:round;stroke-miterlimit:4;stroke-dasharray:none;" stroke-opacity="1" cy="96.063" cx="600"/>
            <ellipse  ry="17.4997" fill-opacity="1" stroke="#f7db13" id="connector41pin" rx="17.4997" stroke-width="3.93701" gorn="0.1.0.22" fill="none" style="display:inline;opacity:1;stroke-linejoin:round;stroke-miterlimit:4;stroke-dasharray:none;" stroke-opacity="1" cy="195.846" cx="699.783"/>
            <circle  fill-opacity="1" r="17.7165" stroke="#f7db13" id="connector40pin" stroke-width="3.93701" gorn="0.1.0.23" fill="none" style="display:inline;opacity:1;stroke-linejoin:round;stroke-miterlimit:4;stroke-dasharray:none;" stroke-opacity="1" cy="96.063" cx="700"/>
            <ellipse  ry="17.4997" fill-opacity="1" stroke="#f7db13" id="connector39pin" rx="17.4997" stroke-width="3.93701" gorn="0.1.0.24" fill="none" style="display:inline;opacity:1;stroke-linejoin:round;stroke-miterlimit:4;stroke-dasharray:none;" stroke-opacity="1" cy="195.846" cx="799.783"/>
            <circle  fill-opacity="1" r="17.7165" stroke="#f7db13" id="connector38pin" stroke-width="3.93701" gorn="0.1.0.25" fill="none" style="display:inline;opacity:1;stroke-linejoin:round;stroke-miterlimit:4;stroke-dasharray:none;" stroke-opacity="1" cy="96.063" cx="800"/>
            <ellipse  ry="17.4997" fill-opacity="1" stroke="#f7db13" id="connector37pin" rx="17.4997" stroke-width="3.93701" gorn="0.1.0.26" fill="none" style="display:inline;opacity:1;stroke-linejoin:round;stroke-miterlimit:4;stroke-dasharray:none;" stroke-opacity="1" cy="195.846" cx="899.783"/>
            <circle  fill-opacity="1" r="17.7165" stroke="#f7db13" id="connector36pin" stroke-width="3.93701" gorn="0.1.0.27" fill="none" style="display:inline;opacity:1;stroke-linejoin:round;stroke-miterlimit:4;stroke-dasharray:none;" stroke-opacity="1" cy="96.063" cx="900"/>
            <ellipse  ry="17.4997" fill-opacity="1" stroke="#f7db13" id="connector35pin" rx="17.4997" stroke-width="3.93701" gorn="0.1.0.28" fill="none" style="display:inline;opacity:1;stroke-linejoin:round;stroke-miterlimit:4;stroke-dasharray:none;" stroke-opacity="1" cy="195.846" cx="999.783"/>
            <circle  fill-opacity="1" r="17.7165" stroke="#f7db13" id="connector34pin" stroke-width="3.93701" gorn="0.1.0.29" fill="none" style="display:inline;opacity:1;stroke-linejoin:round;stroke-miterlimit:4;stroke-dasharray:none;" stroke-opacity="1" cy="96.063" cx="1000"/>
            <ellipse  ry="17.4997" fill-opacity="1" stroke="#f7db13" id="connector33pin" rx="17.4997" stroke-width="3.93701" gorn="0.1.0.30" fill="none" style="display:inline;opacity:1;stroke-linejoin:round;stroke-miterlimit:4;stroke-dasharray:none;" stroke-opacity="1" cy="195.847" cx="1099.78"/>
            <circle  fill-opacity="1" r="17.7165" stroke="#f7db13" id="connector32pin" stroke-width="3.93701" gorn="0.1.0.31" fill="none" style="display:inline;opacity:1;stroke-linejoin:round;stroke-miterlimit:4;stroke-dasharray:none;" stroke-opacity="1" cy="96.063" cx="1100"/>
            <circle  fill-opacity="1" r="17.7165" stroke="#f7db13" id="connector31pin" stroke-width="3.93701" gorn="0.1.0.32" fill="none" style="display:inline;opacity:1;stroke-linejoin:round;stroke-miterlimit:4;stroke-dasharray:none;" stroke-opacity="1" cy="396.063" cx="1300"/>
            <circle  fill-opacity="1" r="17.7165" stroke="#f7db13" id="connector30pin" stroke-width="3.93701" gorn="0.1.0.33" fill="none" style="display:inline;opacity:1;stroke-linejoin:round;stroke-miterlimit:4;stroke-dasharray:none;" stroke-opacity="1" cy="396.063" cx="1400"/>
            <circle  fill-opacity="1" r="17.7165" stroke="#f7db13" id="connector29pin" stroke-width="3.93701" gorn="0.1.0.34" fill="none" style="display:inline;opacity:1;stroke-linejoin:round;stroke-miterlimit:4;stroke-dasharray:none;" stroke-opacity="1" cy="496.063" cx="1300"/>
            <circle  fill-opacity="1" r="17.7165" stroke="#f7db13" id="connector28pin" stroke-width="3.93701" gorn="0.1.0.35" fill="none" style="display:inline;opacity:1;stroke-linejoin:round;stroke-miterlimit:4;stroke-dasharray:none;" stroke-opacity="1" cy="496.063" cx="1400"/>
            <circle  fill-opacity="1" r="17.7165" stroke="#f7db13" id="connector27pin" stroke-width="3.93701" gorn="0.1.0.36" fill="none" style="display:inline;opacity:1;stroke-linejoin:round;stroke-miterlimit:4;stroke-dasharray:none;" stroke-opacity="1" cy="596.063" cx="1300"/>
            <circle  fill-opacity="1" r="17.7165" stroke="#f7db13" id="connector26pin" stroke-width="3.93701" gorn="0.1.0.37" fill="none" style="display:inline;opacity:1;stroke-linejoin:round;stroke-miterlimit:4;stroke-dasharray:none;" stroke-opacity="1" cy="596.063" cx="1400"/>
            <circle  fill-opacity="1" r="17.7165" stroke="#f7db13" id="connector25pin" stroke-width="3.93701" gorn="0.1.0.38" fill="none" style="display:inline;opacity:1;stroke-linejoin:round;stroke-miterlimit:4;stroke-dasharray:none;" stroke-opacity="1" cy="696.063" cx="1300"/>
            <circle  fill-opacity="1" r="17.7165" stroke="#f7db13" id="connector24pin" stroke-width="3.93701" gorn="0.1.0.39" fill="none" style="display:inline;opacity:1;stroke-linejoin:round;stroke-miterlimit:4;stroke-dasharray:none;" stroke-opacity="1" cy="696.063" cx="1400"/>
            <circle  fill-opacity="1" r="17.7165" stroke="#f7db13" id="connector23pin" stroke-width="3.93701" gorn="0.1.0.40" fill="none" style="display:inline;opacity:1;stroke-linejoin:round;stroke-miterlimit:4;stroke-dasharray:none;" stroke-opacity="1" cy="796.063" cx="1300"/>
            <circle  fill-opacity="1" r="17.7165" stroke="#f7db13" id="connector22pin" stroke-width="3.93701" gorn="0.1.0.41" fill="none" style="display:inline;opacity:1;stroke-linejoin:round;stroke-miterlimit:4;stroke-dasharray:none;" stroke-opacity="1" cy="796.063" cx="1400"/>
            <circle  fill-opacity="1" r="17.7165" stroke="#f7db13" id="connector21pin" stroke-width="3.93701" gorn="0.1.0.42" fill="none" style="display:inline;opacity:1;stroke-linejoin:round;stroke-miterlimit:4;stroke-dasharray:none;" stroke-opacity="1" cy="896.063" cx="1300"/>
            <circle  fill-opacity="1" r="17.7165" stroke="#f7db13" id="connector20pin" stroke-width="3.93701" gorn="0.1.0.43" fill="none" style="display:inline;opacity:1;stroke-linejoin:round;stroke-miterlimit:4;stroke-dasharray:none;" stroke-opacity="1" cy="896.063" cx="1400"/>
            <circle  fill-opacity="1" r="17.7165" stroke="#f7db13" id="connector19pin" stroke-width="3.93701" gorn="0.1.0.44" fill="none" style="display:inline;opacity:1;stroke-linejoin:round;stroke-miterlimit:4;stroke-dasharray:none;" stroke-opacity="1" cy="996.063" cx="1300"/>
            <circle  fill-opacity="1" r="17.7165" stroke="#f7db13" id="connector18pin" stroke-width="3.93701" gorn="0.1.0.45" fill="none" style="display:inline;opacity:1;stroke-linejoin:round;stroke-miterlimit:4;stroke-dasharray:none;" stroke-opacity="1" cy="996.063" cx="1400"/>
            <circle  fill-opacity="1" r="17.7165" stroke="#f7db13" id="connector17pin" stroke-width="3.93701" gorn="0.1.0.46" fill="none" style="display:inline;opacity:1;stroke-linejoin:round;stroke-miterlimit:4;stroke-dasharray:none;" stroke-opacity="1" cy="1096.06" cx="1300"/>
            <circle  fill-opacity="1" r="17.7165" stroke="#f7db13" id="connector16pin" stroke-width="3.93701" gorn="0.1.0.47" fill="none" style="display:inline;opacity:1;stroke-linejoin:round;stroke-miterlimit:4;stroke-dasharray:none;" stroke-opacity="1" cy="1096.06" cx="1400"/>
            <circle  fill-opacity="1" r="17.7165" stroke="#f7db13" id="connector15pin" stroke-width="3.93701" gorn="0.1.0.48" fill="none" style="display:inline;opacity:1;stroke-linejoin:round;stroke-miterlimit:4;stroke-dasharray:none;" stroke-opacity="1" cy="1296.06" cx="1100"/>
            <circle  fill-opacity="1" r="17.7165" stroke="#f7db13" id="connector14pin" stroke-width="3.93701" gorn="0.1.0.49" fill="none" style="display:inline;opacity:1;stroke-linejoin:round;stroke-miterlimit:4;stroke-dasharray:none;" stroke-opacity="1" cy="1396.06" cx="1100"/>
            <circle  fill-opacity="1" r="17.7165" stroke="#f7db13" id="connector13pin" stroke-width="3.93701" gorn="0.1.0.50" fill="none" style="display:inline;opacity:1;stroke-linejoin:round;stroke-miterlimit:4;stroke-dasharray:none;" stroke-opacity="1" cy="1296.06" cx="1000"/>
            <circle  fill-opacity="1" r="17.7165" stroke="#f7db13" id="connector12pin" stroke-width="3.93701" gorn="0.1.0.51" fill="none" style="display:inline;opacity:1;stroke-linejoin:round;stroke-miterlimit:4;stroke-dasharray:none;" stroke-opacity="1" cy="1396.06" cx="1000"/>
            <circle  fill-opacity="1" r="17.7165" stroke="#f7db13" id="connector11pin" stroke-width="3.93701" gorn="0.1.0.52" fill="none" style="display:inline;opacity:1;stroke-linejoin:round;stroke-miterlimit:4;stroke-dasharray:none;" stroke-opacity="1" cy="1296.06" cx="900"/>
            <circle  fill-opacity="1" r="17.7165" stroke="#f7db13" id="connector10pin" stroke-width="3.93701" gorn="0.1.0.53" fill="none" style="display:inline;opacity:1;stroke-linejoin:round;stroke-miterlimit:4;stroke-dasharray:none;" stroke-opacity="1" cy="1396.06" cx="900"/>
            <circle  fill-opacity="1" r="17.7165" stroke="#f7db13" id="connector9pin" stroke-width="3.93701" gorn="0.1.0.54" fill="none" style="display:inline;opacity:1;stroke-linejoin:round;stroke-miterlimit:4;stroke-dasharray:none;" stroke-opacity="1" cy="1296.06" cx="800"/>
            <circle  fill-opacity="1" r="17.7165" stroke="#f7db13" id="connector8pin" stroke-width="3.93701" gorn="0.1.0.55" fill="none" style="display:inline;opacity:1;stroke-linejoin:round;stroke-miterlimit:4;stroke-dasharray:none;" stroke-opacity="1" cy="1396.06" cx="800"/>
            <circle  fill-opacity="1" r="17.7165" stroke="#f7db13" id="connector7pin" stroke-width="3.93701" gorn="0.1.0.56" fill="none" style="display:inline;opacity:1;stroke-linejoin:round;stroke-miterlimit:4;stroke-dasharray:none;" stroke-opacity="1" cy="1296.06" cx="700"/>
            <circle  fill-opacity="1" r="17.7165" stroke="#f7db13" id="connector6pin" stroke-width="3.93701" gorn="0.1.0.57" fill="none" style="display:inline;opacity:1;stroke-linejoin:round;stroke-miterlimit:4;stroke-dasharray:none;" stroke-opacity="1" cy="1396.06" cx="700"/>
            <circle  fill-opacity="1" r="17.7165" stroke="#f7db13" id="connector5pin" stroke-width="3.93701" gorn="0.1.0.58" fill="none" style="display:inline;opacity:1;stroke-linejoin:round;stroke-miterlimit:4;stroke-dasharray:none;" stroke-opacity="1" cy="1296.06" cx="600"/>
            <circle  fill-opacity="1" r="17.7165" stroke="#f7db13" id="connector4pin" stroke-width="3.93701" gorn="0.1.0.59" fill="none" style="display:inline;opacity:1;stroke-linejoin:round;stroke-miterlimit:4;stroke-dasharray:none;" stroke-opacity="1" cy="1396.06" cx="600"/>
            <circle  fill-opacity="1" r="17.7165" stroke="#f7db13" id="connector3pin" stroke-width="3.93701" gorn="0.1.0.60" fill="none" style="display:inline;opacity:1;stroke-linejoin:round;stroke-miterlimit:4;stroke-dasharray:none;" stroke-opacity="1" cy="1296.06" cx="500"/>
            <circle  fill-opacity="1" r="17.7165" stroke="#f7db13" id="connector2pin" stroke-width="3.93701" gorn="0.1.0.61" fill="none" style="display:inline;opacity:1;stroke-linejoin:round;stroke-miterlimit:4;stroke-dasharray:none;" stroke-opacity="1" cy="1396.06" cx="500"/>
            <circle  fill-opacity="1" r="17.7165" stroke="#f7db13" id="connector1pin" stroke-width="3.93701" gorn="0.1.0.62" fill="none" style="display:inline;opacity:1;stroke-linejoin:round;stroke-miterlimit:4;stroke-dasharray:none;" stroke-opacity="1" cy="1296.06" cx="400"/>
            <circle  fill-opacity="1" r="17.7165" stroke="#f7db13" id="connector0pin" stroke-width="3.93701" gorn="0.1.0.63" fill="none" style="display:inline;opacity:1;stroke-linejoin:round;stroke-miterlimit:4;stroke-dasharray:none;" stroke-opacity="1" cy="1396.06" cx="400"/>
        </g>
    </g>
</svg>
