<?xml version='1.0' encoding='UTF-8' standalone='no'?>
<svg xmlns="http://www.w3.org/2000/svg" width="0.3in" baseProfile="tiny" x="0in"  height="0.33in" viewBox="0 0 300 330" y="0in" version="1.2">
    <desc>
        <referenceFile>PICAXE_40X2_icon.svg</referenceFile>
    </desc>
    <g id="icon" gorn="0.0" >
        <rect width="300" id="middle" stroke-width="0" x="0" gorn="0.0.0"  fill="#303030" height="270" y="30"/>
        <rect width="300" id="top" stroke-width="0" x="0" gorn="0.0.1"  fill="#3D3D3D" height="24.6" y="30"/>
        <rect width="300" id="bottom" stroke-width="0" x="0" gorn="0.0.2"  fill="#000000" height="24.6" y="275.4"/>
        <polygon id="right" points="300,30,292.5,54.6,292.5,275.4,300,300" stroke-width="0" gorn="0.0.3"  fill="#141414"/>
        <polygon id="left" points="0,30,7.5,54.6,7.5,275.4,0,300" stroke-width="0" gorn="0.0.4"  fill="#1F1F1F"/>
        <polygon id="left-upper-rect" points="50,115,7.5,114.6,5.6,135.8,5.6,165,50,165" stroke-width="0" gorn="0.0.5"  fill="#1C1C1C"/>
        <polygon id="left-lower-rect" points="7.5,215.5,50,215.5,50,165,5.6,165,5.6,194.2" stroke-width="0" gorn="0.0.6"  fill="#383838"/>
        <path id="slot" stroke-width="0" d="M5.6,135.8l0,58.3c14.7,-1.7,26.2,-14,26.2,-29.2C31.8,149.7,20.4,137.5,5.6,135.8z" gorn="0.0.7"  fill="#262626"/>
        <path id="cover" stroke-width="0" d="M7.5,54.6L7.5,114.5c23.8,4.5,41.9,25.3,41.9,50.4c0,25.1,-18,46,-41.9,50.5L7.5,215.5l50,0L57.5,54.6L7.5,54.6z" gorn="0.0.8"  fill="#303030"/>
        <circle cy="234.7" r="20.6" cx="65" stroke-width="0"  fill="#212121"/>
        <text stroke="none" id="label" text-anchor="start" stroke-width="0" x="65" font-family="OCRA" gorn="0.0.10"  fill="#dddddd" y="165" font-size="80">40X2</text>
        <rect width="30" id="connector0pin" stroke-width="0" x="35" gorn="0.0.11"  fill="#8C8C8C" height="43.4" y="286.6"/>
        <rect width="30" id="connector0terminal" stroke-width="0" x="35" gorn="0.0.12"  fill="#8C8C8C" height="30" y="300"/>
        <polygon points="35,286.6,35,306.6,65,306.6,85,297.4,85,286.6" stroke-width="0"  fill="#8C8C8C"/>
        <rect width="30" id="connector5pin" stroke-width="0" x="35" gorn="0.0.14"  fill="#8C8C8C" height="43.4" y="0"/>
        <rect width="30" id="connector5terminal" stroke-width="0" x="35" gorn="0.0.15"  fill="#8C8C8C" height="30" y="0"/>
        <polygon points="85,43.4,85,32.6,65,23.4,35,23.4,35,43.4" stroke-width="0"  fill="#8C8C8C"/>
        <rect width="30" id="connector2pin" stroke-width="0" x="235" gorn="0.0.17"  fill="#8C8C8C" height="43.4" y="286.6"/>
        <rect width="30" id="connector2terminal" stroke-width="0" x="235" gorn="0.0.18"  fill="#8C8C8C" height="30" y="300"/>
        <polygon points="215,286.6,215,297.4,235,306.6,265,306.6,265,286.6" stroke-width="0"  fill="#8C8C8C"/>
        <rect width="30" id="connector3pin" stroke-width="0" x="235" gorn="0.0.20"  fill="#8C8C8C" height="43.4" y="0"/>
        <rect width="30" id="connector3terminal" stroke-width="0" x="235" gorn="0.0.21"  fill="#8C8C8C" height="30" y="0"/>
        <polygon points="265,43.4,265,23.4,235,23.4,215,32.6,215,43.4" stroke-width="0"  fill="#8C8C8C"/>
        <rect width="30" id="connector1pin" stroke-width="0" x="135" gorn="0.0.23"  fill="#8C8C8C" height="43.4" y="286.6"/>
        <rect width="30" id="connector1terminal" stroke-width="0" x="135" gorn="0.0.24"  fill="#8C8C8C" height="30" y="300"/>
        <polygon points="115,286.6,115,297.4,135,306.6,165,306.6,185,297.4,185,286.6" stroke-width="0"  fill="#8C8C8C"/>
        <rect width="30" id="connector4pin" stroke-width="0" x="135" gorn="0.0.26"  fill="#8C8C8C" height="43.4" y="0"/>
        <rect width="30" id="connector4terminal" stroke-width="0" x="135" gorn="0.0.27"  fill="#8C8C8C" height="30" y="0"/>
        <polygon points="185,43.4,185,32.6,165,23.4,135,23.4,115,32.6,115,43.4" stroke-width="0"  fill="#8C8C8C"/>
    </g>
</svg>
