<?xml version="1.0" encoding="utf-8"?>
<!-- Generator: Adobe Illustrator 16.0.0, SVG Export Plug-In . SVG Version: 6.00 Build 0)  -->
<!DOCTYPE svg PUBLIC "-//W3C//DTD SVG 1.1//EN" "http://www.w3.org/Graphics/SVG/1.1/DTD/svg11.dtd">
<svg version="1.1" id="Layer_1" xmlns:xml="http://www.w3.org/XML/1998/namespace"
	 xmlns="http://www.w3.org/2000/svg" xmlns:xlink="http://www.w3.org/1999/xlink" x="0px" y="0px" width="44.182px"
	 height="44.182px" viewBox="0 0 44.182 44.182" enable-background="new 0 0 44.182 44.182" xml:space="preserve">
<g id="schematic">
	<g>
		
			<line fill="none" stroke="#CCCCCC" stroke-width="1.8793" stroke-linecap="round" x1="27.582" y1="13.858" x2="19.35" y2="13.858"/>
		
			<line fill="none" stroke="#CCCCCC" stroke-width="1.8793" stroke-linecap="round" x1="24.841" y1="30.323" x2="16.607" y2="30.323"/>
		
			<line fill="none" stroke="#CCCCCC" stroke-width="1.8793" stroke-linecap="round" x1="27.582" y1="30.323" x2="27.582" y2="30.323"/>
		
			<line fill="none" stroke="#CCCCCC" stroke-width="1.8793" stroke-linecap="round" x1="17.983" y1="22.098" x2="16.607" y2="30.323"/>
		
			<line fill="none" stroke="#CCCCCC" stroke-width="1.8793" stroke-linecap="round" x1="19.356" y1="13.858" x2="17.983" y2="22.098"/>
		
			<line fill="none" stroke="#CCCCCC" stroke-width="1.8793" stroke-linecap="round" x1="26.214" y1="22.098" x2="24.841" y2="30.323"/>
		
			<line fill="none" stroke="#CCCCCC" stroke-width="1.8793" stroke-linecap="round" x1="27.582" y1="13.858" x2="26.214" y2="22.098"/>
		
			<line fill="none" stroke="#CCCCCC" stroke-width="1.8793" stroke-linecap="round" x1="17.983" y1="22.098" x2="26.214" y2="22.098"/>
	</g>
	<g>
		<rect x="0.491" y="7.69" fill="none" stroke="#000000" stroke-width="0.7" width="43.199" height="28.801"/>
		
			<line id="connector5pin" fill="none" stroke="#787878" stroke-width="0.7" stroke-linecap="round" x1="29.292" y1="0.49" x2="29.292" y2="7.69"/>
		<rect id="connector5terminal" x="28.803" y="0" fill="none" width="0.979" height="0.979"/>
		
			<line id="connector8pin" fill="none" stroke="#787878" stroke-width="0.7" stroke-linecap="round" stroke-miterlimit="10" x1="22.091" y1="7.69" x2="22.091" y2="0.49"/>
		<rect id="connector8terminal" x="21.601" y="0" fill="none" width="0.981" height="0.979"/>
		
			<line id="connector3pin" fill="none" stroke="#787878" stroke-width="0.7" stroke-linecap="round" stroke-miterlimit="10" x1="14.891" y1="7.69" x2="14.891" y2="0.49"/>
		<rect id="connector3terminal" x="14.4" y="0" fill="none" width="0.981" height="0.979"/>
		
			<line id="connector7pin" fill="none" stroke="#787878" stroke-width="0.7" stroke-linecap="round" x1="43.692" y1="43.69" x2="43.692" y2="36.49"/>
		<rect id="connector7terminal" x="43.201" y="43.201" fill="none" width="0.98" height="0.98"/>
		
			<line id="connector6pin" fill="none" stroke="#787878" stroke-width="0.7" stroke-linecap="round" x1="36.495" y1="43.69" x2="36.495" y2="36.49"/>
		<rect id="connector6terminal" x="36.005" y="43.201" fill="none" width="0.98" height="0.979"/>
		
			<line id="connector4pin" fill="none" stroke="#787878" stroke-width="0.7" stroke-linecap="round" x1="29.294" y1="43.69" x2="29.294" y2="36.49"/>
		<rect id="connector4terminal" x="28.803" y="43.201" fill="none" width="0.981" height="0.979"/>
		
			<line id="connector2pin" fill="none" stroke="#787878" stroke-width="0.7" stroke-linecap="round" x1="22.091" y1="43.69" x2="22.091" y2="36.49"/>
		<rect id="connector2terminal" x="21.601" y="43.201" fill="none" width="0.98" height="0.979"/>
		
			<line id="connector1pin" fill="none" stroke="#787878" stroke-width="0.7" stroke-linecap="round" x1="14.891" y1="43.69" x2="14.891" y2="36.49"/>
		<rect id="connector1terminal" x="14.4" y="43.199" fill="none" width="0.981" height="0.98"/>
		
			<line id="connector9pin" fill="none" stroke="#787878" stroke-width="0.7" stroke-linecap="round" x1="7.684" y1="43.69" x2="7.684" y2="36.49"/>
		<rect id="connector9terminal" x="7.194" y="43.199" fill="none" width="0.979" height="0.98"/>
		
			<line id="connector10pin" fill="none" stroke="#787878" stroke-width="0.7" stroke-linecap="round" x1="0.491" y1="43.69" x2="0.491" y2="36.49"/>
		<rect id="connector10terminal" x="0.001" y="43.199" fill="none" width="0.979" height="0.98"/>
	</g>
	<g>
		<text transform="matrix(1 0 0 1 12.5266 10.7351)" fill="#787878" font-family="'DroidSans'" font-size="2">COM</text>
		<text transform="matrix(1 0 0 1 27.8704 10.7351)" fill="#787878" font-family="'DroidSans'" font-size="2">DP</text>
		<text transform="matrix(1 0 0 1 7.0754 34.72)" fill="#787878" font-family="'DroidSans'" font-size="2">F</text>
		<text transform="matrix(1 0 0 1 1.4426 34.72)" fill="#787878" font-family="'DroidSans'" font-size="2">G</text>
		<text transform="matrix(1 0 0 1 41.429 34.72)" fill="#787878" font-family="'DroidSans'" font-size="2">A</text>
		<text transform="matrix(1 0 0 1 14.1926 34.72)" fill="#787878" font-family="'DroidSans'" font-size="2">E</text>
		<text transform="matrix(1 0 0 1 21.3381 34.72)" fill="#787878" font-family="'DroidSans'" font-size="2">D</text>
		<text transform="matrix(1 0 0 1 28.5725 34.72)" fill="#787878" font-family="'DroidSans'" font-size="2">C</text>
		<text transform="matrix(1 0 0 1 35.8274 34.72)" fill="#787878" font-family="'DroidSans'" font-size="2">B</text>
		<text transform="matrix(1 0 0 1 19.7278 10.7351)" fill="#787878" font-family="'DroidSans'" font-size="2">COM</text>
	</g>
</g>
</svg>
