<?xml version='1.0' encoding='UTF-8' standalone='no'?>
<!-- Created with Fritzing (http://www.fritzing.org/) -->
<svg xmlns="http://www.w3.org/2000/svg"  gorn="0" height="0.15748031in" y="0in" id="svg237" width="0.15748031in" version="1.2" x="0in" viewBox="0 0 4.0000006 4">
    <defs  id="defs241"/>
    <desc  id="desc198">
        <referenceFile >if tx_pcb.svg</referenceFile>
    </desc>
    <g  transform="matrix(0.27847262,0,0,0.25793731,0.03175755,-0.67080994)">
        <g >
            <g >
                <g  gorn="0.2.0.0.0" id="silkscreen">
                    <line  y2="2.9775" gorn="0.2.0.0.0.0" stroke-linecap="round" x1="14.0635" id="line214" class="other" stroke-width="0.127" stroke="#f0f0f0" y1="2.9775" x2="0.063500002"/>
                    <line  y2="17.977501" gorn="0.2.0.0.0.1" stroke-linecap="round" x1="0.063500002" id="line216" class="other" stroke-width="0.127" stroke="#f0f0f0" y1="2.9775" x2="0.063500002"/>
                    <line  y2="17.977501" gorn="0.2.0.0.0.2" stroke-linecap="round" x1="0.063500002" id="line218" class="other" stroke-width="0.127" stroke="#f0f0f0" y1="17.977501" x2="14.0635"/>
                    <line  y2="2.9775" gorn="0.2.0.0.0.3" stroke-linecap="round" x1="14.0635" id="line220" class="other" stroke-width="0.127" stroke="#f0f0f0" y1="17.977501" x2="14.0635"/>
                </g>
            </g>
        </g>
    </g>
    <g  transform="matrix(0.64976944,0,0,0.64976944,-0.01134168,0.00602494)">
        <g >
            <g >
                <g  gorn="0.3.0.0.0" id="copper1">
                    <g  gorn="0.3.0.0.0.0" id="copper0">
                        <circle  connectorname="1" gorn="0.3.0.0.0.0.0" r="0.38661775" id="circle200" cx="1.0960004" fill="none" stroke-width="0.118744" cy="1.0750192" stroke="#f7bd13"/>
                        <circle  connectorname="1" gorn="0.3.0.0.0.0.1" r="0.38661775" cx="1.0959967" id="connector2pad" fill="none" stroke-width="0.118744" cy="1.0750183" stroke="#f7bd13"/>
                        <circle  connectorname="1" gorn="0.3.0.0.0.0.2" r="0.38661775" id="circle980" cx="1.0993649" fill="none" stroke-width="0.118744" cy="3.0780661" stroke="#f7bd13"/>
                        <circle  connectorname="4" gorn="0.3.0.0.0.0.3" r="0.38661775" id="connector1pad" cx="1.0998803" fill="none" stroke-width="0.118744" cy="3.0830164" stroke="#f7bd13"/>
                        <circle  connectorname="2" gorn="0.3.0.0.0.0.4" r="0.38661775" id="circle208" cx="1.098026" fill="none" stroke-width="0.118744" cy="5.0795503" stroke="#f7bd13"/>
                        <circle  connectorname="2" gorn="0.3.0.0.0.0.5" r="0.38661775" id="connector0pad" cx="1.0980221" fill="none" stroke-width="0.118744" cy="5.0795484" stroke="#f7bd13"/>
                        <circle  connectorname="3" gorn="0.3.0.0.0.0.6" r="0.38661775" id="circle210" cx="5.0956373" fill="none" stroke-width="0.118744" cy="5.0958123" stroke="#f7bd13"/>
                        <circle  connectorname="3" gorn="0.3.0.0.0.0.7" r="0.38661775" cx="5.0956378" id="connector5pin" fill="none" stroke-width="0.118744" cy="5.0958133" stroke="#f7bd13"/>
                        <circle  connectorname="4" gorn="0.3.0.0.0.0.8" r="0.38661775" id="circle982" cx="5.0939393" fill="none" stroke-width="0.118744" cy="1.0906417" stroke="#f7bd13"/>
                        <circle  connectorname="4" gorn="0.3.0.0.0.0.9" r="0.38661775" id="connector3pad" cx="5.1001492" fill="none" stroke-width="0.118744" cy="1.0906388" stroke="#f7bd13"/>
                    </g>
                </g>
            </g>
        </g>
    </g>
</svg>
