<?xml version='1.0' encoding='UTF-8' standalone='no'?>
<svg
  xmlns="http://www.w3.org/2000/svg"
  xmlns:svg="http://www.w3.org/2000/svg"
  xmlns:rdf="http://www.w3.org/1999/02/22-rdf-syntax-ns#"
  xmlns:cc="http://creativecommons.org/ns#"
  xmlns:dc="http://purl.org/dc/elements/1.1/"
  viewBox="0 0 1009.8779 509.87448"
  x="0in"
  width="1.0098779in"
  height="0.50987446in"
  version="1.2"
  y="0in"
  id="svg2">
  <metadata
    id="metadata41">
    <rdf:RDF>
      <cc:Work
        rdf:about="">
        <dc:format>image/svg+xml</dc:format>
        <dc:type
          rdf:resource="http://purl.org/dc/dcmitype/StillImage"
        />
      </cc:Work>
    </rdf:RDF>
  </metadata>
  <defs
    id="defs39"
  />
  <desc
    id="desc4">
    <referenceFile>Sparkfun-myroware-muscle-sensor-V1_1_schematic.svg</referenceFile>
  </desc>
  <g
    id="schematic">
    <rect
      fill="none"
      height="400"
      width="800.00006"
      stroke-width="9.99996"
      stroke="#000000"
      stroke-linejoin="round"
      stroke-linecap="round"
      id="symbol"
      x="105.00001"
      y="4.99998"
    />
    <text
      x="562.53174"
      y="304.58594"
      font-family="'Droid Sans'"
      font-size="60"
      fill="#000000"
      id="text256"
      text-anchor="middle">V1</text>
    <text
      x="562.53174"
      y="104.58594"
      font-family="'Droid Sans'"
      font-size="60"
      fill="#000000"
      id="text254"
      text-anchor="middle">Sparkfun</text>
    <text
      x="562.53174"
      y="204.58594"
      font-family="'Droid Sans'"
      font-size="60"
      fill="#000000"
      id="label"
      text-anchor="middle">muscle sensor</text>
    <text
      x="75"
      y="84.985329"
      text-anchor="end"
      font-family="'Droid Sans'"
      font-size="35"
      fill="#555555"
      id="pin0num">1</text>
    <text
      x="125"
      y="116.98533"
      text-anchor="start"
      font-family="'Droid Sans'"
      font-size="49"
      fill="#555555"
      id="pin0label">RAW</text>
    <text
      x="75"
      y="184.98534"
      text-anchor="end"
      font-family="'Droid Sans'"
      font-size="35"
      fill="#555555"
      id="pin1num">2</text>
    <text
      x="125"
      y="216.98534"
      text-anchor="start"
      font-family="'Droid Sans'"
      font-size="49"
      fill="#555555"
      id="pin1label">SHLD</text>
    <text
      x="75"
      y="284.98532"
      text-anchor="end"
      font-family="'Droid Sans'"
      font-size="35"
      fill="#555555"
      id="pin2num">3</text>
    <text
      x="125"
      y="316.98532"
      text-anchor="start"
      font-family="'Droid Sans'"
      font-size="49"
      fill="#555555"
      id="pin2label">GND</text>
    <text
      x="384.88428"
      y="454.87448"
      text-anchor="end"
      font-family="'Droid Sans'"
      font-size="35"
      fill="#555555"
      id="pin3num">4</text>
    <text
      x="389.23877"
      y="385.97949"
      text-anchor="start"
      font-family="'Droid Sans'"
      font-size="49"
      fill="#555555"
      id="pin3label">R</text>
    <text
      x="484.88428"
      y="454.87448"
      text-anchor="end"
      font-family="'Droid Sans'"
      font-size="35"
      fill="#555555"
      id="pin4num">5</text>
    <text
      x="491.23877"
      y="385.97949"
      text-anchor="start"
      font-family="'Droid Sans'"
      font-size="49"
      fill="#555555"
      id="pin4label">E</text>
    <text
      x="584.88428"
      y="454.87448"
      text-anchor="end"
      font-family="'Droid Sans'"
      font-size="35"
      fill="#555555"
      id="pin5num">6</text>
    <text
      x="585.23877"
      y="385.97949"
      text-anchor="start"
      font-family="'Droid Sans'"
      font-size="49"
      fill="#555555"
      id="pin5label">M</text>
    <text
      x="934.87793"
      y="285.34421"
      text-anchor="start"
      font-family="'Droid Sans'"
      font-size="35"
      fill="#555555"
      id="pin6num">7</text>
    <text
      x="884.87793"
      y="117.37598"
      text-anchor="end"
      font-family="'Droid Sans'"
      font-size="49"
      fill="#555555"
      id="pin6label">+</text>
    <text
      x="934.87793"
      y="185.34422"
      text-anchor="start"
      font-family="'Droid Sans'"
      font-size="35"
      fill="#555555"
      id="pin7num">8</text>
    <text
      x="884.87793"
      y="217.34422"
      text-anchor="end"
      font-family="'Droid Sans'"
      font-size="49"
      fill="#555555"
      id="pin7label">-</text>
    <text
      x="934.87793"
      y="85.344215"
      text-anchor="start"
      font-family="'Droid Sans'"
      font-size="35"
      fill="#555555"
      id="pin8num">9</text>
    <text
      x="884.87793"
      y="317.48193"
      text-anchor="end"
      font-family="'Droid Sans'"
      font-size="49"
      fill="#555555"
      id="pin8label">SIG</text>
    <line
      fill="none"
      id="connector0pin"
      stroke="#555555"
      stroke-linecap="round"
      stroke-width="10"
      x1="105"
      x2="5"
      y1="104.98533"
      y2="104.98533"
    />
    <rect
      fill="none"
      id="connector0terminal"
      height="10"
      width="10"
      x="0"
      y="99.985329"
      stroke="none"
      stroke-width="0"
    />
    <line
      fill="none"
      id="connector1pin"
      stroke="#555555"
      stroke-linecap="round"
      stroke-width="10"
      x1="105"
      x2="5"
      y1="204.98534"
      y2="204.98534"
    />
    <rect
      fill="none"
      id="connector1terminal"
      height="10"
      width="10"
      x="0"
      y="199.98534"
      stroke="none"
      stroke-width="0"
    />
    <line
      fill="none"
      id="connector2pin"
      stroke="#555555"
      stroke-linecap="round"
      stroke-width="10"
      x1="105"
      x2="5"
      y1="304.98532"
      y2="304.98532"
    />
    <rect
      fill="none"
      id="connector2terminal"
      height="10"
      width="10"
      x="0"
      y="299.98532"
      stroke="none"
      stroke-width="0"
    />
    <line
      fill="none"
      id="connector3pin"
      stroke="#555555"
      stroke-linecap="round"
      stroke-width="10"
      x1="404.88428"
      x2="404.88428"
      y1="404.87448"
      y2="504.87448"
    />
    <rect
      fill="none"
      id="connector3terminal"
      height="10"
      width="10"
      x="399.88428"
      y="499.87448"
      stroke="none"
      stroke-width="0"
    />
    <line
      fill="none"
      id="connector4pin"
      stroke="#555555"
      stroke-linecap="round"
      stroke-width="10"
      x1="504.88428"
      x2="504.88428"
      y1="404.87448"
      y2="504.87448"
    />
    <rect
      fill="none"
      id="connector4terminal"
      height="10"
      width="10"
      x="499.88428"
      y="499.87448"
      stroke="none"
      stroke-width="0"
    />
    <line
      fill="none"
      id="connector5pin"
      stroke="#555555"
      stroke-linecap="round"
      stroke-width="10"
      x1="604.88428"
      x2="604.88428"
      y1="404.87448"
      y2="504.87448"
    />
    <rect
      fill="none"
      id="connector5terminal"
      height="10"
      width="10"
      x="599.88428"
      y="499.87448"
      stroke="none"
      stroke-width="0"
    />
    <line
      fill="none"
      id="connector6pin"
      stroke="#555555"
      stroke-linecap="round"
      stroke-width="10"
      x1="904.87793"
      x2="1004.8779"
      y1="305.34421"
      y2="305.34421"
    />
    <rect
      fill="none"
      id="connector6terminal"
      height="10"
      width="10"
      x="999.87793"
      y="300.34421"
      stroke="none"
      stroke-width="0"
    />
    <line
      fill="none"
      id="connector7pin"
      stroke="#555555"
      stroke-linecap="round"
      stroke-width="10"
      x1="904.87793"
      x2="1004.8779"
      y1="205.34422"
      y2="205.34422"
    />
    <rect
      fill="none"
      id="connector7terminal"
      height="10"
      width="10"
      x="999.87793"
      y="200.34422"
      stroke="none"
      stroke-width="0"
    />
    <line
      fill="none"
      id="connector8pin"
      stroke="#555555"
      stroke-linecap="round"
      stroke-width="10"
      x1="904.87793"
      x2="1004.8779"
      y1="105.34422"
      y2="105.34422"
    />
    <rect
      fill="none"
      id="connector8terminal"
      height="10"
      width="10"
      x="999.87793"
      y="100.34422"
      stroke="none"
      stroke-width="0"
    />
  </g>
</svg>
