<?xml version='1.0' encoding='UTF-8' standalone='no'?>
<svg xmlns="http://www.w3.org/2000/svg" height="45.93465mm" gorn="0" id="svg8670" width="68.897408mm" viewBox="0 0 68.897407 45.93465"  version="1.1">
    <desc >
        <referenceFile >Gretsch Filtertron.svg</referenceFile>
    </desc>
    <defs id="defs8664" >
        <radialGradient fy="210.18185" id="radialGradient11120" gradientTransform="matrix(2.575929,0.00607747,0.00274624,-1.2172383,-1097.1351,6165.7353)" cx="347.97168" cy="210.18185"  gradientUnits="userSpaceOnUse" href="#Tornillos" r="150.71658" fx="347.97168"/>
        <linearGradient id="Tornillos" >
            <stop style="stop-color:#b3b3b3;stop-opacity:1;" id="stop4757" offset="0" />
            <stop style="stop-color:#b3b3b3;stop-opacity:0;" id="stop4759" offset="1" />
        </linearGradient>
        <radialGradient fy="248.75444" id="radialGradient11144" gradientTransform="matrix(2.5343992,1.1990078e-8,0,1.8422517,-364.35479,-209.51385)" cx="237.45763" cy="248.75444"  gradientUnits="userSpaceOnUse" href="#Tornillos" r="12.194915" fx="237.45763"/>
        <radialGradient fy="248.75444" id="radialGradient11138" gradientTransform="matrix(2.5330838,0.08164271,-0.09434643,2.9272357,-340.57336,-498.79513)" cx="237.45763" cy="248.75444"  gradientUnits="userSpaceOnUse" href="#Tornillos" r="12.194915" fx="237.45763"/>
        <radialGradient fy="248.75444" id="radialGradient11140" gradientTransform="matrix(2.5343992,1.1990078e-8,0,1.8422517,-364.35479,-209.51385)" cx="237.45763" cy="248.75444"  gradientUnits="userSpaceOnUse" href="#Tornillos" r="12.194915" fx="237.45763"/>
        <radialGradient fy="248.75444" id="radialGradient11142" gradientTransform="matrix(2.5342595,0.02661224,-0.0333565,3.1765118,-356.02403,-547.73625)" cx="237.45763" cy="248.75444"  gradientUnits="userSpaceOnUse" href="#Tornillos" r="12.194915" fx="237.45763"/>
        <radialGradient fy="248.75444" id="radialGradient11154" gradientTransform="matrix(1,0,0,0.97498267,0,6.2231723)" cx="367.45764" cy="248.75444"  gradientUnits="userSpaceOnUse" href="#Tornillos" r="12.194915" fx="367.45764"/>
        <radialGradient fy="248.75444" id="radialGradient11148" gradientTransform="matrix(1,0,0,0.97498267,0,6.2231723)" cx="367.45764" cy="248.75444"  gradientUnits="userSpaceOnUse" href="#Tornillos" r="12.194915" fx="367.45764"/>
        <radialGradient fy="248.75444" id="radialGradient11146" gradientTransform="matrix(2.5676955,0.02239428,-0.02654102,3.043154,-569.45948,-516.47256)" cx="367.45764" cy="248.75444"  gradientUnits="userSpaceOnUse" href="#Tornillos" r="12.194915" fx="367.45764"/>
        <radialGradient fy="248.75444" id="radialGradient11150" gradientTransform="matrix(2.366945,-0.08562594,0.11376384,3.1447571,-530.59362,-502.05397)" cx="367.45764" cy="248.75444"  gradientUnits="userSpaceOnUse" href="#Tornillos" r="12.194915" fx="367.45764"/>
        <radialGradient fy="248.75444" id="radialGradient11152" gradientTransform="matrix(1,0,0,0.97498267,0,6.2231723)" cx="367.45764" cy="248.75444"  gradientUnits="userSpaceOnUse" href="#Tornillos" r="12.194915" fx="367.45764"/>
        <radialGradient fy="248.75444" id="radialGradient11162" gradientTransform="matrix(2.9799388,0.10098771,-0.10977299,3.2391749,-870.5119,-602.79835)" cx="453.45764" cy="248.75444"  gradientUnits="userSpaceOnUse" href="#Tornillos" r="12.194915" fx="453.45764"/>
        <radialGradient fy="248.75444" id="radialGradient11156" gradientTransform="matrix(2.5008221,-0.01236073,0.01570371,3.1771737,-684.46559,-535.97654)" cx="453.45764" cy="248.75444"  gradientUnits="userSpaceOnUse" href="#Tornillos" r="12.194915" fx="453.45764"/>
        <radialGradient fy="248.75444" id="radialGradient11158" gradientTransform="matrix(2.9799388,0.10098771,-0.10977299,3.2391749,-870.5119,-602.79835)" cx="453.45764" cy="248.75444"  gradientUnits="userSpaceOnUse" href="#Tornillos" r="12.194915" fx="453.45764"/>
        <radialGradient fy="248.75444" id="radialGradient11160" gradientTransform="matrix(2.9799388,0.10098771,-0.10977299,3.2391749,-870.5119,-602.79835)" cx="453.45764" cy="248.75444"  gradientUnits="userSpaceOnUse" href="#Tornillos" r="12.194915" fx="453.45764"/>
        <radialGradient fy="248.75444" id="radialGradient11170" gradientTransform="matrix(2.3006831,-0.08771088,0.12103962,3.1749062,-396.19632,-516.33066)" cx="281.45764" cy="248.75444"  gradientUnits="userSpaceOnUse" href="#Tornillos" r="12.194915" fx="281.45764"/>
        <radialGradient fy="248.75444" id="radialGradient11164" gradientTransform="matrix(2.3006831,-0.08771088,0.12103962,3.1749062,-396.19632,-516.33066)" cx="281.45764" cy="248.75444"  gradientUnits="userSpaceOnUse" href="#Tornillos" r="12.194915" fx="281.45764"/>
        <radialGradient fy="248.75444" id="radialGradient11166" gradientTransform="matrix(2.3006831,-0.08771088,0.12103962,3.1749062,-396.19632,-516.33066)" cx="281.45764" cy="248.75444"  gradientUnits="userSpaceOnUse" href="#Tornillos" r="12.194915" fx="281.45764"/>
        <radialGradient fy="248.75444" id="radialGradient11168" gradientTransform="matrix(2.3006831,-0.08771088,0.12103962,3.1749062,-396.19632,-516.33066)" cx="281.45764" cy="248.75444"  gradientUnits="userSpaceOnUse" href="#Tornillos" r="12.194915" fx="281.45764"/>
        <radialGradient fy="248.75444" id="radialGradient11178" gradientTransform="matrix(1,0,0,0.97498267,0,6.2231723)" cx="323.45764" cy="248.75444"  gradientUnits="userSpaceOnUse" href="#Tornillos" r="12.194915" fx="323.45764"/>
        <radialGradient fy="248.75444" id="radialGradient11172" gradientTransform="matrix(2.5008023,0.02191758,-0.02667564,3.0437002,-478.81029,-515.4689)" cx="323.45764" cy="248.75444"  gradientUnits="userSpaceOnUse" href="#Tornillos" r="12.194915" fx="323.45764"/>
        <radialGradient fy="248.75444" id="radialGradient11174" gradientTransform="matrix(1,0,0,0.97498267,0,6.2231723)" cx="323.45764" cy="248.75444"  gradientUnits="userSpaceOnUse" href="#Tornillos" r="12.194915" fx="323.45764"/>
        <radialGradient fy="248.75444" id="radialGradient11176" gradientTransform="matrix(1,0,0,0.97498267,0,6.2231723)" cx="323.45764" cy="248.75444"  gradientUnits="userSpaceOnUse" href="#Tornillos" r="12.194915" fx="323.45764"/>
        <radialGradient fy="248.75444" id="radialGradient11186" gradientTransform="matrix(2.4151967,1.0025766e-6,-1.2859238e-6,3.0977773,-582.29316,-521.83184)" cx="411.45764" cy="248.75444"  gradientUnits="userSpaceOnUse" href="#Tornillos" r="12.194915" fx="411.45764"/>
        <radialGradient fy="248.75444" id="radialGradient11180" gradientTransform="matrix(2.3675614,0.11056991,-0.14819614,3.1732282,-525.82914,-586.09498)" cx="411.45764" cy="248.75444"  gradientUnits="userSpaceOnUse" href="#Tornillos" r="12.194915" fx="411.45764"/>
        <radialGradient fy="248.75444" id="radialGradient11182" gradientTransform="matrix(2.4151967,1.0025766e-6,-1.2859238e-6,3.0977773,-582.29316,-521.83184)" cx="411.45764" cy="248.75444"  gradientUnits="userSpaceOnUse" href="#Tornillos" r="12.194915" fx="411.45764"/>
        <radialGradient fy="248.75444" id="radialGradient11184" gradientTransform="matrix(2.4151967,1.0025766e-6,-1.2859238e-6,3.0977773,-582.29316,-521.83184)" cx="411.45764" cy="248.75444"  gradientUnits="userSpaceOnUse" href="#Tornillos" r="12.194915" fx="411.45764"/>
        <radialGradient fy="248.75444" id="radialGradient11420" gradientTransform="matrix(2.5343992,1.1990078e-8,0,1.8422517,-364.35479,-209.51385)" cx="237.45763" cy="248.75444"  gradientUnits="userSpaceOnUse" href="#Tornillos" r="12.194915" fx="237.45763"/>
        <radialGradient fy="248.75444" id="radialGradient11414" gradientTransform="matrix(2.5330838,0.08164271,-0.09434643,2.9272357,-340.57336,-498.79513)" cx="237.45763" cy="248.75444"  gradientUnits="userSpaceOnUse" href="#Tornillos" r="12.194915" fx="237.45763"/>
        <radialGradient fy="248.75444" id="radialGradient11416" gradientTransform="matrix(2.5343992,1.1990078e-8,0,1.8422517,-364.35479,-209.51385)" cx="237.45763" cy="248.75444"  gradientUnits="userSpaceOnUse" href="#Tornillos" r="12.194915" fx="237.45763"/>
        <radialGradient fy="248.75444" id="radialGradient11418" gradientTransform="matrix(2.5342595,0.02661224,-0.0333565,3.1765118,-356.02403,-547.73625)" cx="237.45763" cy="248.75444"  gradientUnits="userSpaceOnUse" href="#Tornillos" r="12.194915" fx="237.45763"/>
        <radialGradient fy="248.75444" id="radialGradient11430" gradientTransform="matrix(1,0,0,0.97498267,0,6.2231723)" cx="367.45764" cy="248.75444"  gradientUnits="userSpaceOnUse" href="#Tornillos" r="12.194915" fx="367.45764"/>
        <radialGradient fy="248.75444" id="radialGradient11424" gradientTransform="matrix(1,0,0,0.97498267,0,6.2231723)" cx="367.45764" cy="248.75444"  gradientUnits="userSpaceOnUse" href="#Tornillos" r="12.194915" fx="367.45764"/>
        <radialGradient fy="248.75444" id="radialGradient11422" gradientTransform="matrix(2.5676955,0.02239428,-0.02654102,3.043154,-569.45948,-516.47256)" cx="367.45764" cy="248.75444"  gradientUnits="userSpaceOnUse" href="#Tornillos" r="12.194915" fx="367.45764"/>
        <radialGradient fy="248.75444" id="radialGradient11426" gradientTransform="matrix(2.366945,-0.08562594,0.11376384,3.1447571,-530.59362,-502.05397)" cx="367.45764" cy="248.75444"  gradientUnits="userSpaceOnUse" href="#Tornillos" r="12.194915" fx="367.45764"/>
        <radialGradient fy="248.75444" id="radialGradient11428" gradientTransform="matrix(1,0,0,0.97498267,0,6.2231723)" cx="367.45764" cy="248.75444"  gradientUnits="userSpaceOnUse" href="#Tornillos" r="12.194915" fx="367.45764"/>
        <radialGradient fy="248.75444" id="radialGradient11438" gradientTransform="matrix(2.9799388,0.10098771,-0.10977299,3.2391749,-870.5119,-602.79835)" cx="453.45764" cy="248.75444"  gradientUnits="userSpaceOnUse" href="#Tornillos" r="12.194915" fx="453.45764"/>
        <radialGradient fy="248.75444" id="radialGradient11432" gradientTransform="matrix(2.5008221,-0.01236073,0.01570371,3.1771737,-684.46559,-535.97654)" cx="453.45764" cy="248.75444"  gradientUnits="userSpaceOnUse" href="#Tornillos" r="12.194915" fx="453.45764"/>
        <radialGradient fy="248.75444" id="radialGradient11434" gradientTransform="matrix(2.9799388,0.10098771,-0.10977299,3.2391749,-870.5119,-602.79835)" cx="453.45764" cy="248.75444"  gradientUnits="userSpaceOnUse" href="#Tornillos" r="12.194915" fx="453.45764"/>
        <radialGradient fy="248.75444" id="radialGradient11436" gradientTransform="matrix(2.9799388,0.10098771,-0.10977299,3.2391749,-870.5119,-602.79835)" cx="453.45764" cy="248.75444"  gradientUnits="userSpaceOnUse" href="#Tornillos" r="12.194915" fx="453.45764"/>
        <radialGradient fy="248.75444" id="radialGradient11446" gradientTransform="matrix(2.3006831,-0.08771088,0.12103962,3.1749062,-396.19632,-516.33066)" cx="281.45764" cy="248.75444"  gradientUnits="userSpaceOnUse" href="#Tornillos" r="12.194915" fx="281.45764"/>
        <radialGradient fy="248.75444" id="radialGradient11440" gradientTransform="matrix(2.3006831,-0.08771088,0.12103962,3.1749062,-396.19632,-516.33066)" cx="281.45764" cy="248.75444"  gradientUnits="userSpaceOnUse" href="#Tornillos" r="12.194915" fx="281.45764"/>
        <radialGradient fy="248.75444" id="radialGradient11442" gradientTransform="matrix(2.3006831,-0.08771088,0.12103962,3.1749062,-396.19632,-516.33066)" cx="281.45764" cy="248.75444"  gradientUnits="userSpaceOnUse" href="#Tornillos" r="12.194915" fx="281.45764"/>
        <radialGradient fy="248.75444" id="radialGradient11444" gradientTransform="matrix(2.3006831,-0.08771088,0.12103962,3.1749062,-396.19632,-516.33066)" cx="281.45764" cy="248.75444"  gradientUnits="userSpaceOnUse" href="#Tornillos" r="12.194915" fx="281.45764"/>
        <radialGradient fy="455.7247" id="radialGradient11648" gradientTransform="matrix(3.4781094,0.02266542,-0.0075384,1.1567967,2377.2403,5401.6017)" cx="-740.06085" cy="455.7247"  gradientUnits="userSpaceOnUse" href="#Tornillos" r="114.5618" fx="-740.06085"/>
        <radialGradient fy="248.75444" id="radialGradient11454" gradientTransform="matrix(1,0,0,0.97498267,0,6.2231723)" cx="323.45764" cy="248.75444"  gradientUnits="userSpaceOnUse" href="#Tornillos" r="12.194915" fx="323.45764"/>
        <radialGradient fy="248.75444" id="radialGradient11448" gradientTransform="matrix(2.5008023,0.02191758,-0.02667564,3.0437002,-478.81029,-515.4689)" cx="323.45764" cy="248.75444"  gradientUnits="userSpaceOnUse" href="#Tornillos" r="12.194915" fx="323.45764"/>
        <radialGradient fy="248.75444" id="radialGradient11450" gradientTransform="matrix(1,0,0,0.97498267,0,6.2231723)" cx="323.45764" cy="248.75444"  gradientUnits="userSpaceOnUse" href="#Tornillos" r="12.194915" fx="323.45764"/>
        <radialGradient fy="248.75444" id="radialGradient11452" gradientTransform="matrix(1,0,0,0.97498267,0,6.2231723)" cx="323.45764" cy="248.75444"  gradientUnits="userSpaceOnUse" href="#Tornillos" r="12.194915" fx="323.45764"/>
        <radialGradient fy="248.75444" id="radialGradient11462" gradientTransform="matrix(2.4151967,1.0025766e-6,-1.2859238e-6,3.0977773,-582.29316,-521.83184)" cx="411.45764" cy="248.75444"  gradientUnits="userSpaceOnUse" href="#Tornillos" r="12.194915" fx="411.45764"/>
        <radialGradient fy="248.75444" id="radialGradient11456" gradientTransform="matrix(2.3675614,0.11056991,-0.14819614,3.1732282,-525.82914,-586.09498)" cx="411.45764" cy="248.75444"  gradientUnits="userSpaceOnUse" href="#Tornillos" r="12.194915" fx="411.45764"/>
        <radialGradient fy="248.75444" id="radialGradient11458" gradientTransform="matrix(2.4151967,1.0025766e-6,-1.2859238e-6,3.0977773,-582.29316,-521.83184)" cx="411.45764" cy="248.75444"  gradientUnits="userSpaceOnUse" href="#Tornillos" r="12.194915" fx="411.45764"/>
        <radialGradient fy="248.75444" id="radialGradient11460" gradientTransform="matrix(2.4151967,1.0025766e-6,-1.2859238e-6,3.0977773,-582.29316,-521.83184)" cx="411.45764" cy="248.75444"  gradientUnits="userSpaceOnUse" href="#Tornillos" r="12.194915" fx="411.45764"/>
    </defs>
    <metadata id="metadata8667" >
        <rdf:RDF xmlns:rdf="http://www.w3.org/1999/02/22-rdf-syntax-ns#">
            <cc:Work rdf:about="" xmlns:cc="http://creativecommons.org/ns#" xmlns:rdf="http://www.w3.org/1999/02/22-rdf-syntax-ns#">
                <dc:format xmlns:dc="http://purl.org/dc/elements/1.1/">image/svg+xml</dc:format>
                <dc:type rdf:resource="http://purl.org/dc/dcmitype/StillImage" xmlns:dc="http://purl.org/dc/elements/1.1/" xmlns:rdf="http://www.w3.org/1999/02/22-rdf-syntax-ns#"/>
                <dc:title xmlns:dc="http://purl.org/dc/elements/1.1/"/>
            </cc:Work>
        </rdf:RDF>
    </metadata>
    <g  transform="translate(-66.487041,-89.49718)">
        <g >
            <g gorn="0.3.0.0" id="layer1" >
                <g  transform="matrix(0.26458333,0,0,0.26458333,149.76988,-1458.3856)">
                    <g >
                        <g gorn="0.3.0.0.0.0.0" id="g12179" >
                            <g  transform="rotate(-15.092063,21956.563,3017.753)">
                                <g >
                                    <g gorn="0.3.0.0.0.0.0.0.0.0" id="g11015" >
                                        <path d="m -118.327,165.36649 c 1.89753,-0.68228 5.23897,-0.0802 7.75196,0.54855 3.47136,0.86853 5.65039,1.63412 9.80347,4.37426 3.252974,2.14631 5.844705,5.51255 9.18324,7.71019 2.943623,1.93767 6.155843,3.48558 9.445576,4.74942 1.206826,0.46386 2.761772,0.1812 3.740597,1.0259 0.539046,0.46468 0.874166,1.15613 0.859859,1.95425 -0.01137,0.66058 -0.261531,1.08929 -0.65978,1.43241 -0.66083,0.5693 -1.71599,1.08672 -2.512515,0.73122 -8.671266,-3.87001 -15.417006,-7.33751 -18.133426,-10.31044 -1.679631,-1.64324 -5.077831,-5.60954 -10.075051,-7.57625 -2.42587,-0.95472 -4.62052,-1.37067 -8.34327,-0.95034 z" stroke-width="0.282222" stroke-opacity="1" gorn="0.3.0.0.0.0.0.0.0.0.0" style="stroke-linecap:round;stroke-linejoin:round;" id="path10953" fill-opacity="1" fill="#999999"  stroke="#666666"/>
                                        <g  transform="rotate(-88.75384)">
                                            <g >
                                                <ellipse stroke-width="1.0037" stroke-opacity="1" gorn="0.3.0.0.0.0.0.0.0.0.1.0.0" style="stroke-linecap:round;stroke-linejoin:round;stroke-miterlimit:4;stroke-dasharray:none;paint-order:markers stroke fill" id="ellipse10955" fill-opacity="1" fill="none" cx="-187.40039" cy="-75.999275"  rx="2.1710424" stroke="#666666" ry="1.8378786"/>
                                            </g>
                                        </g>
                                        <g  transform="rotate(-88.75384)">
                                            <g >
                                                <circle stroke-width="1.33333" gorn="0.3.0.0.0.0.0.0.0.0.2.0.0" id="circle10957" cx="-187.27879" cy="-75.84568"  r="1.8493334"/>
                                            </g>
                                        </g>
                                        <path d="m -117.78126,167.09765 2.59375,-1.75" stroke-width="0.75" stroke-opacity="1" gorn="0.3.0.0.0.0.0.0.0.0.3" style="stroke-linecap:round;stroke-linejoin:miter;stroke-miterlimit:4;stroke-dasharray:none;" id="path10959" fill="none"  stroke="#666666"/>
                                        <path d="m -116.78126,168.91015 4.5625,-3.125" stroke-width="0.75" stroke-opacity="1" gorn="0.3.0.0.0.0.0.0.0.0.4" style="stroke-linecap:round;stroke-linejoin:miter;stroke-miterlimit:4;stroke-dasharray:none;" id="path10961" fill="none"  stroke="#666666"/>
                                        <path d="m -112.53126,169.0039 3.87501,-2.375" stroke-width="0.75" stroke-opacity="1" gorn="0.3.0.0.0.0.0.0.0.0.5" style="stroke-linecap:round;stroke-linejoin:miter;stroke-miterlimit:4;stroke-dasharray:none;" id="path10963" fill="none"  stroke="#666666"/>
                                        <path d="m -109.34375,169.91015 3.875,-2" stroke-width="0.75" stroke-opacity="1" gorn="0.3.0.0.0.0.0.0.0.0.6" style="stroke-linecap:round;stroke-linejoin:miter;stroke-miterlimit:4;stroke-dasharray:none;" id="path10965" fill="none"  stroke="#666666"/>
                                        <path d="m -106.65625,170.9414 4.09375,-1.46875" stroke-width="0.75" stroke-opacity="1" gorn="0.3.0.0.0.0.0.0.0.0.7" style="stroke-linecap:round;stroke-linejoin:miter;stroke-miterlimit:4;stroke-dasharray:none;" id="path10967" fill="none"  stroke="#666666"/>
                                        <path d="m -103.78125,173.1289 4.124996,-1.71875" stroke-width="0.75" stroke-opacity="1" gorn="0.3.0.0.0.0.0.0.0.0.8" style="stroke-linecap:round;stroke-linejoin:miter;stroke-miterlimit:4;stroke-dasharray:none;" id="path10969" fill="none"  stroke="#666666"/>
                                        <path d="m -101.625,174.91015 3.968746,-1.8125" stroke-width="0.75" stroke-opacity="1" gorn="0.3.0.0.0.0.0.0.0.0.9" style="stroke-linecap:round;stroke-linejoin:miter;stroke-miterlimit:4;stroke-dasharray:none;" id="path10971" fill="none"  stroke="#666666"/>
                                        <path d="m -99.657866,176.59998 4.065864,-1.54679" stroke-width="0.75" stroke-opacity="1" gorn="0.3.0.0.0.0.0.0.0.0.10" style="stroke-linecap:round;stroke-linejoin:miter;stroke-miterlimit:4;stroke-dasharray:none;" id="path10973" fill="none"  stroke="#666666"/>
                                        <path d="m -97.801711,178.36775 4.286835,-1.63519" stroke-width="0.75" stroke-opacity="1" gorn="0.3.0.0.0.0.0.0.0.0.11" style="stroke-linecap:round;stroke-linejoin:miter;stroke-miterlimit:4;stroke-dasharray:none;" id="path10975" fill="none"  stroke="#666666"/>
                                        <path d="m -95.857167,179.91455 4.552,-1.5468" stroke-width="0.75" stroke-opacity="1" gorn="0.3.0.0.0.0.0.0.0.0.12" style="stroke-linecap:round;stroke-linejoin:miter;stroke-miterlimit:4;stroke-dasharray:none;" id="path10977" fill="none"  stroke="#666666"/>
                                        <path d="m -93.072934,181.54973 4.065864,-1.76777" stroke-width="0.75" stroke-opacity="1" gorn="0.3.0.0.0.0.0.0.0.0.13" style="stroke-linecap:round;stroke-linejoin:miter;stroke-miterlimit:4;stroke-dasharray:none;" id="path10979" fill="none"  stroke="#666666"/>
                                        <path d="m -90.288701,183.18491 4.375223,-1.90035" stroke-width="0.75" stroke-opacity="1" gorn="0.3.0.0.0.0.0.0.0.0.14" style="stroke-linecap:round;stroke-linejoin:miter;stroke-miterlimit:4;stroke-dasharray:none;" id="path10981" fill="none"  stroke="#666666"/>
                                        <path d="m -87.283497,184.59913 4.242641,-1.98874" stroke-width="0.75" stroke-opacity="1" gorn="0.3.0.0.0.0.0.0.0.0.15" style="stroke-linecap:round;stroke-linejoin:miter;stroke-miterlimit:4;stroke-dasharray:none;" id="path10983" fill="none"  stroke="#666666"/>
                                        <path d="m -84.742332,185.83656 4.242641,-2.56326" stroke-width="0.75" stroke-opacity="1" gorn="0.3.0.0.0.0.0.0.0.0.16" style="stroke-linecap:round;stroke-linejoin:miter;stroke-miterlimit:4;stroke-dasharray:none;" id="path10985" fill="none"  stroke="#666666"/>
                                        <path d="m -115.18751,165.34765 2.65625,3.65625" stroke-width="0.75" stroke-opacity="1" gorn="0.3.0.0.0.0.0.0.0.0.17" style="stroke-linecap:round;stroke-linejoin:miter;stroke-miterlimit:4;stroke-dasharray:none;" id="path10987" fill="none"  stroke="#666666"/>
                                        <path d="m -112.21876,165.78515 2.87501,4.125" stroke-width="0.75" stroke-opacity="1" gorn="0.3.0.0.0.0.0.0.0.0.18" style="stroke-linecap:round;stroke-linejoin:miter;stroke-miterlimit:4;stroke-dasharray:none;" id="path10989" fill="none"  stroke="#666666"/>
                                        <path d="m -108.65625,166.6289 2,4.3125" stroke-width="0.75" stroke-opacity="1" gorn="0.3.0.0.0.0.0.0.0.0.19" style="stroke-linecap:round;stroke-linejoin:miter;stroke-miterlimit:4;stroke-dasharray:none;" id="path10991" fill="none"  stroke="#666666"/>
                                        <path d="m -105.46875,167.91015 1.6875,5.21875" stroke-width="0.75" stroke-opacity="1" gorn="0.3.0.0.0.0.0.0.0.0.20" style="stroke-linecap:round;stroke-linejoin:miter;stroke-miterlimit:4;stroke-dasharray:none;" id="path10993" fill="none"  stroke="#666666"/>
                                        <path d="m -102.5625,169.47265 0.9375,5.4375" stroke-width="0.75" stroke-opacity="1" gorn="0.3.0.0.0.0.0.0.0.0.21" style="stroke-linecap:round;stroke-linejoin:miter;stroke-miterlimit:4;stroke-dasharray:none;" id="path10995" fill="none"  stroke="#666666"/>
                                        <path d="m -99.656254,171.41015 -0.0016,5.18983" stroke-width="0.75" stroke-opacity="1" gorn="0.3.0.0.0.0.0.0.0.0.22" style="stroke-linecap:round;stroke-linejoin:miter;stroke-miterlimit:4;stroke-dasharray:none;" id="path10997" fill="none"  stroke="#666666"/>
                                        <path d="m -97.656254,173.09765 -0.145457,5.2701" stroke-width="0.75" stroke-opacity="1" gorn="0.3.0.0.0.0.0.0.0.0.23" style="stroke-linecap:round;stroke-linejoin:miter;stroke-miterlimit:4;stroke-dasharray:none;" id="path10999" fill="none"  stroke="#666666"/>
                                        <path d="m -95.592002,175.05319 -0.265165,4.86136" stroke-width="0.75" stroke-opacity="1" gorn="0.3.0.0.0.0.0.0.0.0.24" style="stroke-linecap:round;stroke-linejoin:miter;stroke-miterlimit:4;stroke-dasharray:none;" id="path11001" fill="none"  stroke="#666666"/>
                                        <path d="m -93.514876,176.73256 0.441942,4.81717" stroke-width="0.75" stroke-opacity="1" gorn="0.3.0.0.0.0.0.0.0.0.25" style="stroke-linecap:round;stroke-linejoin:miter;stroke-miterlimit:4;stroke-dasharray:none;" id="path11003" fill="none"  stroke="#666666"/>
                                        <path d="m -91.305167,178.36775 1.016466,4.81716" stroke-width="0.75" stroke-opacity="1" gorn="0.3.0.0.0.0.0.0.0.0.26" style="stroke-linecap:round;stroke-linejoin:miter;stroke-miterlimit:4;stroke-dasharray:none;" id="path11005" fill="none"  stroke="#666666"/>
                                        <path d="m -89.00707,179.78196 1.723573,4.81717" stroke-width="0.75" stroke-opacity="1" gorn="0.3.0.0.0.0.0.0.0.0.27" style="stroke-linecap:round;stroke-linejoin:miter;stroke-miterlimit:4;stroke-dasharray:none;" id="path11007" fill="none"  stroke="#666666"/>
                                        <path d="m -85.913478,181.28456 1.171146,4.552" stroke-width="0.75" stroke-opacity="1" gorn="0.3.0.0.0.0.0.0.0.0.28" style="stroke-linecap:round;stroke-linejoin:miter;stroke-miterlimit:4;stroke-dasharray:none;" id="path11009" fill="none"  stroke="#666666"/>
                                        <path d="m -83.040856,182.61039 1.06066,3.53553" stroke-width="0.75" stroke-opacity="1" gorn="0.3.0.0.0.0.0.0.0.0.29" style="stroke-linecap:round;stroke-linejoin:miter;stroke-miterlimit:4;stroke-dasharray:none;" id="path11011" fill="none"  stroke="#666666"/>
                                        <path d="m -118.327,165.36649 2.89181,3.49951" stroke-width="0.75" stroke-opacity="1" gorn="0.3.0.0.0.0.0.0.0.0.30" style="stroke-linecap:round;stroke-linejoin:miter;stroke-miterlimit:4;stroke-dasharray:none;" id="path11013" fill="none"  stroke="#666666"/>
                                    </g>
                                </g>
                            </g>
                            <g  transform="translate(573.32323,5211.5966)">
                                <g >
                                    <g gorn="0.3.0.0.0.0.0.1.0.0" id="g11777" >
                                        <path d="m -669.00482,799.77105 c 3.1399,1.71636 7.60106,2.39833 12.57344,2.2196 3.89472,-0.14001 7.85961,-1.66588 11.85411,-1.80521 3.52198,-0.12283 7.07052,0.22693 10.53741,0.8596 1.27193,0.23191 2.45267,1.28245 3.72809,1.07049 0.70205,-0.11667 1.34812,-0.53234 1.75122,-1.22135 0.33404,-0.56999 0.3435,-1.06628 0.18198,-1.56653 -0.26806,-0.83002 -0.89983,-1.82094 -1.76501,-1.93187 -9.41857,-1.20762 -16.98341,-1.75695 -20.85011,-0.63183 -3.40079,0.78605 -6.11318,1.97951 -18.01113,-0.58249 z" stroke-width="0.282222" stroke-opacity="1" gorn="0.3.0.0.0.0.0.1.0.0.0" style="stroke-linecap:round;stroke-linejoin:round;" id="path11025" fill-opacity="1" fill="#404040"  stroke="#000000"/>
                                        <g  transform="matrix(-0.50168616,0.86504971,0.86504971,0.50168616,0,0)">
                                            <g >
                                                <ellipse stroke-width="1.0037" stroke-opacity="1" gorn="0.3.0.0.0.0.0.1.0.0.1.0.0" style="stroke-linecap:round;stroke-linejoin:round;stroke-miterlimit:4;stroke-dasharray:none;paint-order:markers stroke fill" id="ellipse11027" fill-opacity="1" fill="none" cx="1008.1245" cy="-144.45314"  rx="2.1710424" stroke="#000000" ry="1.8378786"/>
                                            </g>
                                        </g>
                                        <g  transform="matrix(-0.50168616,0.86504971,0.86504971,0.50168616,0,0)">
                                            <g >
                                                <circle stroke-width="1.33333" gorn="0.3.0.0.0.0.0.1.0.0.2.0.0" id="circle11029" cx="1008.2462" cy="-144.29956"  r="1.8493334"/>
                                            </g>
                                        </g>
                                    </g>
                                </g>
                            </g>
                            <g  transform="translate(573.32323,5211.5966)">
                                <g >
                                    <g gorn="0.3.0.0.0.0.0.2.0.0" id="g11782" >
                                        <path d="m -672.27089,797.3659 c 1.60721,1.2178 4.19101,2.12318 6.47666,2.39641 3.55307,0.42474 5.88055,0.1278 10.66241,-1.24709 3.7455,-1.07694 7.22421,-3.51561 11.06669,-4.61599 3.38795,-0.97019 6.91584,-1.48823 10.43288,-1.712 1.29028,-0.0823 2.68987,0.65183 3.87628,0.13798 0.65306,-0.28285 1.17954,-0.84232 1.40422,-1.6083 0.18641,-0.63382 0.0757,-1.11769 -0.20192,-1.56409 -0.46068,-0.74066 -1.31316,-1.54956 -2.1795,-1.44816 -9.4313,1.10395 -16.90472,2.39876 -20.38499,4.42483 -1.9031,0.96957 -7.14408,2.89929 -10.92665,3.1629 -2.88306,0.20092 -1.96052,0.33078 -8.58214,-1.23225 z" stroke-width="0.282222" stroke-opacity="1" gorn="0.3.0.0.0.0.0.2.0.0.0" style="stroke-linecap:round;stroke-linejoin:round;" id="path11033" fill-opacity="1" fill="#ffffff"  stroke="#999999"/>
                                        <g  transform="matrix(-0.27780199,0.96063836,0.96063836,0.27780199,0,0)">
                                            <g >
                                                <ellipse stroke-width="1.0037" stroke-opacity="1" gorn="0.3.0.0.0.0.0.2.0.0.1.0.0" style="stroke-linecap:round;stroke-linejoin:round;stroke-miterlimit:4;stroke-dasharray:none;paint-order:markers stroke fill" id="ellipse11035" fill-opacity="1" fill="none" cx="934.12146" cy="-386.47061"  rx="2.1710424" stroke="#999999" ry="1.8378786"/>
                                            </g>
                                        </g>
                                        <g  transform="matrix(-0.27780199,0.96063836,0.96063836,0.27780199,0,0)">
                                            <g >
                                                <circle stroke-width="1.33333" gorn="0.3.0.0.0.0.0.2.0.0.2.0.0" id="circle11037" cx="934.2431" cy="-386.31702"  r="1.8493334"/>
                                            </g>
                                        </g>
                                    </g>
                                </g>
                            </g>
                            <path d="m -197.54992,5971.9091 0.2683,28.4784 c 0,0 0.13002,0.9013 0.29866,1.5202 0.19216,0.7052 0.44765,1.1624 0.85039,1.5922 0.47555,0.5075 1.25476,1.1559 2.09762,1.4634 0.91363,0.3332 1.87497,0.3043 1.87497,0.3043 h 100.47837 v 9.6 h -105.6 c 0,0 -9.6,0 -9.6,-9.6 v -28.8 l 0.0672,-4.5047 z" stroke-width="0.282222" stroke-opacity="1" gorn="0.3.0.0.0.0.0.3" style="display:inline;stroke-linecap:round;stroke-linejoin:round;" id="path11041" fill-opacity="1" fill="#333333"  stroke="#1a1a1a"/>
                            <path d="m -306.95362,5973.2517 c -4.05338,0 -7.31576,-3.3203 -7.31576,-7.4455 v -107.595 c 0,-4.1253 3.26238,-7.4455 7.31576,-7.4455 h 213.49206 c 4.05338,0 7.31577,3.3202 7.31577,7.4455 v 107.595 c 0,4.1252 -3.26239,7.4455 -7.31577,7.4455 z" stroke-width="1" stroke-opacity="1" gorn="0.3.0.0.0.0.0.4" style="display:inline;stroke-linecap:round;stroke-linejoin:round;stroke-miterlimit:4;stroke-dasharray:none;paint-order:markers stroke fill" id="path11043" fill-opacity="1" fill="url(#radialGradient11120)"  stroke="#000000"/>
                            <g  transform="scale(1,-1)">
                                <g >
                                    <rect height="58.937572" stroke-width="1.5" stroke-opacity="1" gorn="0.3.0.0.0.0.0.5.0.0" style="stroke-linecap:round;stroke-linejoin:round;stroke-miterlimit:4;stroke-dasharray:none;paint-order:markers stroke fill" id="rect11053" x="-312.72662" fill-opacity="1" width="225.10863" y="-5971.5786" fill="#000000"  rx="24.052948" stroke="#000000" ry="28.577667"/>
                                </g>
                            </g>
                            <g  transform="scale(1,-1)">
                                <g >
                                    <rect height="58.937572" stroke-width="1.5" stroke-opacity="1" gorn="0.3.0.0.0.0.0.6.0.0" style="stroke-linecap:round;stroke-linejoin:round;stroke-miterlimit:4;stroke-dasharray:none;paint-order:markers stroke fill" x="-312.72662" id="rect11055" fill-opacity="1" y="-5911.4014" width="225.10863" fill="#000000"  rx="21.984882" stroke="#000000" ry="29.468786"/>
                                </g>
                            </g>
                            <g  transform="matrix(0.75930961,0,0,-0.77647749,-464.42589,6075.2102)">
                                <g >
                                    <g gorn="0.3.0.0.0.0.0.7.0.0" style="fill:url(#radialGradient11144);fill-opacity:1" id="g11075" >
                                        <ellipse stroke-width="1" stroke-opacity="1" gorn="0.3.0.0.0.0.0.7.0.0.0" style="stroke-linecap:round;stroke-linejoin:round;stroke-miterlimit:4;stroke-dasharray:none;paint-order:markers stroke fill" id="ellipse11069" fill-opacity="1" fill="url(#radialGradient11138)" cx="237.45763" cy="248.75444"  rx="11.694915" stroke="#000000" ry="11.389831"/>
                                        <path d="m 234.06433,238.02946 10.80435,19.45143" stroke-width="1" stroke-opacity="1" gorn="0.3.0.0.0.0.0.7.0.0.1" style="stroke-linecap:round;stroke-linejoin:miter;stroke-miterlimit:4;stroke-dasharray:none;" id="path11071" fill-opacity="1" fill="url(#radialGradient11140)"  stroke="#000000"/>
                                        <path d="m 230.02907,240.0727 10.86663,19.52951" stroke-width="1" stroke-opacity="1" gorn="0.3.0.0.0.0.0.7.0.0.2" style="stroke-linecap:round;stroke-linejoin:miter;stroke-miterlimit:4;stroke-dasharray:none;" id="path11073" fill-opacity="1" fill="url(#radialGradient11142)"  stroke="#000000"/>
                                    </g>
                                </g>
                            </g>
                            <g  transform="matrix(0.75930961,0,0,-0.77647749,-464.42589,6075.2102)">
                                <g >
                                    <g gorn="0.3.0.0.0.0.0.8.0.0" style="fill:url(#radialGradient11154);fill-opacity:1" id="g11085" >
                                        <g stroke-width="1" gorn="0.3.0.0.0.0.0.8.0.0.0" style="stroke-miterlimit:4;stroke-dasharray:none" id="g11079" fill-opacity="1" fill="url(#radialGradient11148)" >
                                            <ellipse stroke-width="1" stroke-opacity="1" gorn="0.3.0.0.0.0.0.8.0.0.0.0" style="stroke-linecap:round;stroke-linejoin:round;stroke-miterlimit:4;stroke-dasharray:none;paint-order:markers stroke fill" id="ellipse11077" fill-opacity="1" fill="url(#radialGradient11146)" cx="367.45764" cy="248.75444"  rx="11.694915" stroke="#000000" ry="11.389831"/>
                                        </g>
                                        <path d="m 364.06433,238.02946 10.8403,19.47839" stroke-width="0.282222" stroke-opacity="1" gorn="0.3.0.0.0.0.0.8.0.0.1" style="stroke-linecap:round;stroke-linejoin:miter;" id="path11081" fill-opacity="1" fill="url(#radialGradient11150)"  stroke="#000000"/>
                                        <path d="m 360.02907,240.0727 10.86663,19.52951" stroke-width="0.282222" stroke-opacity="1" gorn="0.3.0.0.0.0.0.8.0.0.2" style="stroke-linecap:round;stroke-linejoin:miter;" id="path11083" fill-opacity="1" fill="url(#radialGradient11152)"  stroke="#000000"/>
                                    </g>
                                </g>
                            </g>
                            <g  transform="matrix(0.75930961,0,0,-0.77647749,-464.42589,6075.2102)">
                                <g >
                                    <g gorn="0.3.0.0.0.0.0.9.0.0" style="fill:url(#radialGradient11162);fill-opacity:1" id="g11093" >
                                        <ellipse stroke-width="1" stroke-opacity="1" gorn="0.3.0.0.0.0.0.9.0.0.0" style="stroke-linecap:round;stroke-linejoin:round;stroke-miterlimit:4;stroke-dasharray:none;paint-order:markers stroke fill" id="ellipse11087" fill-opacity="1" fill="url(#radialGradient11156)" cx="453.45764" cy="248.75444"  rx="11.694915" stroke="#000000" ry="11.389831"/>
                                        <path d="m 456.79568,237.82902 -10.85392,19.47866" stroke-width="0.282222" stroke-opacity="1" gorn="0.3.0.0.0.0.0.9.0.0.1" style="stroke-linecap:round;stroke-linejoin:miter;" id="path11089" fill-opacity="1" fill="url(#radialGradient11158)"  stroke="#000000"/>
                                        <path d="m 460.84365,239.89769 -10.87934,19.50408" stroke-width="0.282222" stroke-opacity="1" gorn="0.3.0.0.0.0.0.9.0.0.2" style="stroke-linecap:round;stroke-linejoin:miter;" id="path11091" fill-opacity="1" fill="url(#radialGradient11160)"  stroke="#000000"/>
                                    </g>
                                </g>
                            </g>
                            <g  transform="matrix(0.75930961,0,0,-0.77647749,-464.42589,6075.2102)">
                                <g >
                                    <g gorn="0.3.0.0.0.0.0.10.0.0" style="fill:url(#radialGradient11170);fill-opacity:1" id="g11101" >
                                        <ellipse stroke-width="1" stroke-opacity="1" gorn="0.3.0.0.0.0.0.10.0.0.0" style="stroke-linecap:round;stroke-linejoin:round;stroke-miterlimit:4;stroke-dasharray:none;paint-order:markers stroke fill" id="ellipse11095" fill-opacity="1" fill="url(#radialGradient11164)" cx="281.45764" cy="248.75444"  rx="11.694915" stroke="#000000" ry="11.389831"/>
                                        <path d="m 280.11504,237.45895 -2.03992,22.14977" stroke-width="1" stroke-opacity="1" gorn="0.3.0.0.0.0.0.10.0.0.1" style="stroke-linecap:round;stroke-linejoin:miter;stroke-miterlimit:4;stroke-dasharray:none;" id="path11097" fill-opacity="1" fill="url(#radialGradient11166)"  stroke="#000000"/>
                                        <path d="m 284.63993,237.81083 -2.02195,22.0509" stroke-width="1" stroke-opacity="1" gorn="0.3.0.0.0.0.0.10.0.0.2" style="stroke-linecap:round;stroke-linejoin:miter;stroke-miterlimit:4;stroke-dasharray:none;" id="path11099" fill-opacity="1" fill="url(#radialGradient11168)"  stroke="#000000"/>
                                    </g>
                                </g>
                            </g>
                            <g  transform="matrix(0.75930961,0,0,-0.77647749,-464.42589,6075.2102)">
                                <g >
                                    <g gorn="0.3.0.0.0.0.0.11.0.0" style="fill:url(#radialGradient11178);fill-opacity:1" id="g11109" >
                                        <ellipse stroke-width="1" stroke-opacity="1" gorn="0.3.0.0.0.0.0.11.0.0.0" style="stroke-linecap:round;stroke-linejoin:round;stroke-miterlimit:4;stroke-dasharray:none;paint-order:markers stroke fill" id="ellipse11103" fill-opacity="1" fill="url(#radialGradient11172)" cx="323.45764" cy="248.75444"  rx="11.694915" stroke="#000000" ry="11.389831"/>
                                        <path d="m 320.92123,237.65443 0.40717,22.2044" stroke-width="0.282222" stroke-opacity="1" gorn="0.3.0.0.0.0.0.11.0.0.1" style="stroke-linecap:round;stroke-linejoin:miter;" id="path11105" fill-opacity="1" fill="url(#radialGradient11174)"  stroke="#000000"/>
                                        <path d="m 325.45066,237.54812 0.39709,22.10914" stroke-width="0.282222" stroke-opacity="1" gorn="0.3.0.0.0.0.0.11.0.0.2" style="stroke-linecap:round;stroke-linejoin:miter;" id="path11107" fill-opacity="1" fill="url(#radialGradient11176)"  stroke="#000000"/>
                                    </g>
                                </g>
                            </g>
                            <g  transform="matrix(0.75930961,0,0,-0.77647749,-464.42589,6075.2102)">
                                <g >
                                    <g gorn="0.3.0.0.0.0.0.12.0.0" style="fill:url(#radialGradient11186);fill-opacity:1" id="g11117" >
                                        <ellipse stroke-width="1" stroke-opacity="1" gorn="0.3.0.0.0.0.0.12.0.0.0" style="stroke-linecap:round;stroke-linejoin:round;stroke-miterlimit:4;stroke-dasharray:none;paint-order:markers stroke fill" id="ellipse11111" fill-opacity="1" fill="url(#radialGradient11180)" cx="411.45764" cy="248.75444"  rx="11.694915" stroke="#000000" ry="11.389831"/>
                                        <path d="m 419.43411,240.66909 -18.82753,12.26282" stroke-width="0.282222" stroke-opacity="1" gorn="0.3.0.0.0.0.0.12.0.0.1" style="stroke-linecap:round;stroke-linejoin:miter;" id="path11113" fill-opacity="1" fill="url(#radialGradient11182)"  stroke="#000000"/>
                                        <path d="M 422.15341,244.29888 403.32588,256.5617" stroke-width="0.282222" stroke-opacity="1" gorn="0.3.0.0.0.0.0.12.0.0.2" style="stroke-linecap:round;stroke-linejoin:miter;" id="path11115" fill-opacity="1" fill="url(#radialGradient11184)"  stroke="#000000"/>
                                    </g>
                                </g>
                            </g>
                            <g  transform="matrix(0.75930961,0,0,0.77647749,-464.42589,5748.9057)">
                                <g >
                                    <g gorn="0.3.0.0.0.0.0.13.0.0" style="fill:url(#radialGradient11420);fill-opacity:1" id="g11370" >
                                        <ellipse stroke-width="1" stroke-opacity="1" gorn="0.3.0.0.0.0.0.13.0.0.0" style="stroke-linecap:round;stroke-linejoin:round;stroke-miterlimit:4;stroke-dasharray:none;paint-order:markers stroke fill" id="ellipse11364" fill-opacity="1" fill="url(#radialGradient11414)" cx="237.45763" cy="248.75444"  rx="11.694915" stroke="#000000" ry="11.389831"/>
                                        <path d="m 234.06433,238.02946 10.80435,19.45143" stroke-width="1" stroke-opacity="1" gorn="0.3.0.0.0.0.0.13.0.0.1" style="stroke-linecap:round;stroke-linejoin:miter;stroke-miterlimit:4;stroke-dasharray:none;" id="path11366" fill-opacity="1" fill="url(#radialGradient11416)"  stroke="#000000"/>
                                        <path d="m 230.02907,240.0727 10.86663,19.52951" stroke-width="1" stroke-opacity="1" gorn="0.3.0.0.0.0.0.13.0.0.2" style="stroke-linecap:round;stroke-linejoin:miter;stroke-miterlimit:4;stroke-dasharray:none;" id="path11368" fill-opacity="1" fill="url(#radialGradient11418)"  stroke="#000000"/>
                                    </g>
                                </g>
                            </g>
                            <g  transform="matrix(0.75930961,0,0,0.77647749,-464.42589,5748.9057)">
                                <g >
                                    <g gorn="0.3.0.0.0.0.0.14.0.0" style="fill:url(#radialGradient11430);fill-opacity:1" id="g11380" >
                                        <g stroke-width="1" gorn="0.3.0.0.0.0.0.14.0.0.0" style="stroke-miterlimit:4;stroke-dasharray:none" id="g11374" fill-opacity="1" fill="url(#radialGradient11424)" >
                                            <ellipse stroke-width="1" stroke-opacity="1" gorn="0.3.0.0.0.0.0.14.0.0.0.0" style="stroke-linecap:round;stroke-linejoin:round;stroke-miterlimit:4;stroke-dasharray:none;paint-order:markers stroke fill" id="ellipse11372" fill-opacity="1" fill="url(#radialGradient11422)" cx="367.45764" cy="248.75444"  rx="11.694915" stroke="#000000" ry="11.389831"/>
                                        </g>
                                        <path d="m 364.06433,238.02946 10.8403,19.47839" stroke-width="0.282222" stroke-opacity="1" gorn="0.3.0.0.0.0.0.14.0.0.1" style="stroke-linecap:round;stroke-linejoin:miter;" id="path11376" fill-opacity="1" fill="url(#radialGradient11426)"  stroke="#000000"/>
                                        <path d="m 360.02907,240.0727 10.86663,19.52951" stroke-width="0.282222" stroke-opacity="1" gorn="0.3.0.0.0.0.0.14.0.0.2" style="stroke-linecap:round;stroke-linejoin:miter;" id="path11378" fill-opacity="1" fill="url(#radialGradient11428)"  stroke="#000000"/>
                                    </g>
                                </g>
                            </g>
                            <g  transform="matrix(0.75930961,0,0,0.77647749,-464.42589,5748.9057)">
                                <g >
                                    <g gorn="0.3.0.0.0.0.0.15.0.0" style="fill:url(#radialGradient11438);fill-opacity:1" id="g11388" >
                                        <ellipse stroke-width="1" stroke-opacity="1" gorn="0.3.0.0.0.0.0.15.0.0.0" style="stroke-linecap:round;stroke-linejoin:round;stroke-miterlimit:4;stroke-dasharray:none;paint-order:markers stroke fill" id="ellipse11382" fill-opacity="1" fill="url(#radialGradient11432)" cx="453.45764" cy="248.75444"  rx="11.694915" stroke="#000000" ry="11.389831"/>
                                        <path d="m 456.79568,237.82902 -10.85392,19.47866" stroke-width="0.282222" stroke-opacity="1" gorn="0.3.0.0.0.0.0.15.0.0.1" style="stroke-linecap:round;stroke-linejoin:miter;" id="path11384" fill-opacity="1" fill="url(#radialGradient11434)"  stroke="#000000"/>
                                        <path d="m 460.84365,239.89769 -10.87934,19.50408" stroke-width="0.282222" stroke-opacity="1" gorn="0.3.0.0.0.0.0.15.0.0.2" style="stroke-linecap:round;stroke-linejoin:miter;" id="path11386" fill-opacity="1" fill="url(#radialGradient11436)"  stroke="#000000"/>
                                    </g>
                                </g>
                            </g>
                            <g  transform="matrix(0.75930961,0,0,0.77647749,-464.42589,5748.9057)">
                                <g >
                                    <g gorn="0.3.0.0.0.0.0.16.0.0" style="fill:url(#radialGradient11446);fill-opacity:1" id="g11396" >
                                        <ellipse stroke-width="1" stroke-opacity="1" gorn="0.3.0.0.0.0.0.16.0.0.0" style="stroke-linecap:round;stroke-linejoin:round;stroke-miterlimit:4;stroke-dasharray:none;paint-order:markers stroke fill" id="ellipse11390" fill-opacity="1" fill="url(#radialGradient11440)" cx="281.45764" cy="248.75444"  rx="11.694915" stroke="#000000" ry="11.389831"/>
                                        <path d="m 280.11504,237.45895 -2.03992,22.14977" stroke-width="1" stroke-opacity="1" gorn="0.3.0.0.0.0.0.16.0.0.1" style="stroke-linecap:round;stroke-linejoin:miter;stroke-miterlimit:4;stroke-dasharray:none;" id="path11392" fill-opacity="1" fill="url(#radialGradient11442)"  stroke="#000000"/>
                                        <path d="m 284.63993,237.81083 -2.02195,22.0509" stroke-width="1" stroke-opacity="1" gorn="0.3.0.0.0.0.0.16.0.0.2" style="stroke-linecap:round;stroke-linejoin:miter;stroke-miterlimit:4;stroke-dasharray:none;" id="path11394" fill-opacity="1" fill="url(#radialGradient11444)"  stroke="#000000"/>
                                    </g>
                                </g>
                            </g>
                            <path d="m -306.95338,5850.7664 c -4.05338,0 -7.31641,3.3201 -7.31641,7.4453 v 107.5938 c 0,4.1252 3.26303,7.4453 7.31641,7.4453 h 213.49219 c 4.05338,0 7.31445,-3.3201 7.31445,-7.4453 v -107.5938 c 0,-4.1252 -3.26107,-7.4453 -7.31445,-7.4453 z m 187.33789,20.5117 c 0,0 2.0519,0.2007 3.03125,0.5 0.78899,0.2412 1.53508,0.6195 2.25,1.0313 0.64114,0.3692 1.24123,0.811 1.8125,1.2812 0.32564,0.268 0.6253,0.5695 0.91602,0.875 0.40841,0.4292 0.82621,0.8544 1.16015,1.3438 0.37173,0.5447 0.65921,1.1459 0.92383,1.75 0.20397,0.4656 0.38243,0.9453 0.50977,1.4375 0.12171,0.4703 0.18873,0.9544 0.24023,1.4375 0.0476,0.4458 0.0752,0.8955 0.0625,1.3437 -0.0158,0.561 -0.066,1.1251 -0.17383,1.6758 -0.11768,0.6007 -0.31295,1.1834 -0.51367,1.7617 -0.17315,0.4989 -0.35451,0.998 -0.59375,1.4688 -0.20559,0.4045 -0.44407,0.795 -0.71875,1.1562 -0.28426,0.3739 -0.62549,0.7026 -0.95508,1.0371 -0.39298,0.399 -0.77867,0.81 -1.21875,1.1563 -0.47777,0.3759 -0.99626,0.7014 -1.53125,0.9902 -0.51271,0.2768 -1.05607,0.4922 -1.59765,0.7071 -0.39325,0.156 -0.78721,0.3177 -1.19727,0.4218 -0.64404,0.1635 -1.96875,0.3125 -1.96875,0.3125 l -1.28125,0.062 c -23.59386,-0.1127 -47.18896,-0.024 -70.7832,-0.039 0,0 -2.87569,0.055 -4.1211,0.6778 -1.1809,0.5905 -2.19017,1.602 -2.85937,2.7402 -0.42249,0.7186 -0.63477,2.4199 -0.63477,2.4199 l -0.0156,13.1738 v 0.2754 l 0.0156,13.1739 c 0,0 0.21228,1.6993 0.63477,2.4179 0.6692,1.1382 1.67847,2.1516 2.85937,2.7422 1.24541,0.6228 4.1211,0.6778 4.1211,0.6778 24.05249,0.01 48.10574,0.01 72.1582,0.021 0,0 1.29231,0.1668 1.92188,0.3281 0.60315,0.1544 1.19422,0.3621 1.76562,0.6094 0.41052,0.1776 0.80706,0.3897 1.1875,0.625 0.69827,0.4318 1.38853,0.8896 2,1.4375 0.46969,0.4208 0.87229,0.9133 1.26562,1.4062 0.31004,0.3886 0.61605,0.7853 0.85938,1.2188 0.33344,0.5939 0.58763,1.232 0.8125,1.875 0.1318,0.3768 0.2359,0.7644 0.3125,1.1562 0.12289,0.6283 0.22187,1.2662 0.23438,1.9063 0.0129,0.659 -0.0577,1.3201 -0.16407,1.9707 -0.092,0.5628 -0.23618,1.1183 -0.4082,1.6621 -0.11388,0.3599 -0.2517,0.7129 -0.41211,1.0547 -0.22259,0.4742 -0.47837,0.9343 -0.76172,1.375 -0.25396,0.3949 -0.5269,0.781 -0.83789,1.1328 -0.38752,0.4384 -0.82536,0.8304 -1.27148,1.209 -0.45091,0.3826 -0.90869,0.7663 -1.41602,1.0703 -0.65756,0.3939 -1.36792,0.6998 -2.08789,0.9629 -0.5336,0.1949 -1.08521,0.3431 -1.64258,0.4531 -0.46754,0.092 -1.41992,0.1719 -1.41992,0.1719 h -165.1875 c 0,0 -1.26898,0.015 -1.89453,-0.072 -0.41848,-0.059 -0.82692,-0.1774 -1.23047,-0.3028 -0.58447,-0.1816 -1.16924,-0.3769 -1.7168,-0.6504 -0.67072,-0.3349 -1.29712,-0.7561 -1.90039,-1.2011 -0.68632,-0.5064 -1.37069,-1.0338 -1.94531,-1.6641 -0.39528,-0.4335 -0.73802,-0.9206 -1.01562,-1.4375 -0.5069,-0.9437 -0.9112,-1.9532 -1.16407,-2.9941 -0.16853,-0.6937 -0.22256,-1.417 -0.22656,-2.1309 -0.006,-0.9468 0.0654,-1.9027 0.26563,-2.8281 0.16197,-0.7486 0.42993,-1.4761 0.75,-2.1719 0.27997,-0.6087 0.60614,-1.2041 1.01562,-1.7344 0.55824,-0.7229 1.23383,-1.3552 1.9375,-1.9375 0.48525,-0.4015 1.00957,-0.7609 1.5625,-1.0625 0.78175,-0.4264 1.6098,-0.7749 2.45898,-1.0429 0.48054,-0.1518 0.97854,-0.2535 1.47852,-0.3164 0.77035,-0.097 0.67408,-0.086 2.32812,-0.094 23.5098,0.024 46.72179,-0.086 70.36329,-0.01 0,0 2.87568,-0.055 4.12109,-0.6778 1.1809,-0.5906 2.19017,-1.604 2.85938,-2.7422 0.42248,-0.7186 0.63476,-2.4179 0.63476,-2.4179 l 0.0156,-13.1739 v -0.2754 l -0.0156,-13.1738 c 0,0 -0.21227,-1.7013 -0.63476,-2.4199 -0.6692,-1.1382 -1.67848,-2.1497 -2.85938,-2.7402 -1.24541,-0.6229 -4.12109,-0.6778 -4.12109,-0.6778 -24.00617,-0.01 -48.45735,0.025 -71.86133,-0.039 0,0 -1.87888,-0.2137 -2.76758,-0.5156 -1.17334,-0.3986 -2.31949,-0.9462 -3.3125,-1.6875 -0.90928,-0.6788 -1.70399,-1.5316 -2.34375,-2.4688 -0.73303,-1.0737 -1.30777,-2.2787 -1.65625,-3.5312 -0.28111,-1.0102 -0.36737,-2.0811 -0.32617,-3.1289 0.0416,-1.0572 0.22113,-2.1244 0.57617,-3.1211 0.24717,-0.6939 0.64986,-1.3274 1.0625,-1.9375 0.51706,-0.7645 1.10291,-1.4883 1.75781,-2.1387 0.5113,-0.5077 1.07875,-0.9637 1.67969,-1.3613 0.62957,-0.4166 1.29527,-0.7919 2,-1.0625 0.80188,-0.3079 1.64877,-0.5099 2.5,-0.625 0.86736,-0.1173 2.625,-0.062 2.625,-0.062 z" stroke-width="1" stroke-opacity="1" gorn="0.3.0.0.0.0.0.17" style="display:inline;stroke-linecap:round;stroke-linejoin:round;stroke-miterlimit:4;stroke-dasharray:none;paint-order:markers stroke fill" id="path11464" fill-opacity="1" fill="url(#radialGradient11648)"  stroke="#000000"/>
                            <g  transform="scale(-1)">
                                <g >
                                    <ellipse stroke-width="1" stroke-opacity="1" gorn="0.3.0.0.0.0.0.18.0.0" style="stroke-linecap:round;stroke-linejoin:round;stroke-miterlimit:4;stroke-dasharray:none;paint-order:markers stroke fill" id="ellipse11051" fill-opacity="1" fill="#ffffff" cx="93.3489" cy="-5911.7656"  rx="3.8409691" stroke="#000000" ry="3.8719773"/>
                                </g>
                            </g>
                            <g  transform="scale(1,-1)">
                                <g >
                                    <ellipse stroke-width="1" stroke-opacity="1" gorn="0.3.0.0.0.0.0.19.0.0" style="stroke-linecap:round;stroke-linejoin:round;stroke-miterlimit:4;stroke-dasharray:none;paint-order:markers stroke fill" id="ellipse11047" fill-opacity="1" fill="#ffffff" cx="-306.93964" cy="-5912.4658"  rx="3.8409691" stroke="#000000" ry="3.8719773"/>
                                </g>
                            </g>
                            <g  transform="matrix(0.75930961,0,0,0.77647749,-464.42589,5748.9057)">
                                <g >
                                    <g gorn="0.3.0.0.0.0.0.20.0.0" style="fill:url(#radialGradient11454);fill-opacity:1" id="g11404" >
                                        <ellipse stroke-width="1" stroke-opacity="1" gorn="0.3.0.0.0.0.0.20.0.0.0" style="stroke-linecap:round;stroke-linejoin:round;stroke-miterlimit:4;stroke-dasharray:none;paint-order:markers stroke fill" id="ellipse11398" fill-opacity="1" fill="url(#radialGradient11448)" cx="323.45764" cy="248.75444"  rx="11.694915" stroke="#000000" ry="11.389831"/>
                                        <path d="m 320.92123,237.65443 0.40717,22.2044" stroke-width="0.282222" stroke-opacity="1" gorn="0.3.0.0.0.0.0.20.0.0.1" style="stroke-linecap:round;stroke-linejoin:miter;" id="path11400" fill-opacity="1" fill="url(#radialGradient11450)"  stroke="#000000"/>
                                        <path d="m 325.45066,237.54812 0.39709,22.10914" stroke-width="0.282222" stroke-opacity="1" gorn="0.3.0.0.0.0.0.20.0.0.2" style="stroke-linecap:round;stroke-linejoin:miter;" id="path11402" fill-opacity="1" fill="url(#radialGradient11452)"  stroke="#000000"/>
                                    </g>
                                </g>
                            </g>
                            <g  transform="matrix(0.75930961,0,0,0.77647749,-464.42589,5748.9057)">
                                <g >
                                    <g gorn="0.3.0.0.0.0.0.21.0.0" style="fill:url(#radialGradient11462);fill-opacity:1" id="g11412" >
                                        <ellipse stroke-width="1" stroke-opacity="1" gorn="0.3.0.0.0.0.0.21.0.0.0" style="stroke-linecap:round;stroke-linejoin:round;stroke-miterlimit:4;stroke-dasharray:none;paint-order:markers stroke fill" id="ellipse11406" fill-opacity="1" fill="url(#radialGradient11456)" cx="411.45764" cy="248.75444"  rx="11.694915" stroke="#000000" ry="11.389831"/>
                                        <path d="m 419.43411,240.66909 -18.82753,12.26282" stroke-width="0.282222" stroke-opacity="1" gorn="0.3.0.0.0.0.0.21.0.0.1" style="stroke-linecap:round;stroke-linejoin:miter;" id="path11408" fill-opacity="1" fill="url(#radialGradient11458)"  stroke="#000000"/>
                                        <path d="M 422.15341,244.29888 403.32588,256.5617" stroke-width="0.282222" stroke-opacity="1" gorn="0.3.0.0.0.0.0.21.0.0.2" style="stroke-linecap:round;stroke-linejoin:miter;" id="path11410" fill-opacity="1" fill="url(#radialGradient11460)"  stroke="#000000"/>
                                    </g>
                                </g>
                            </g>
                        </g>
                    </g>
                </g>
            </g>
        </g>
    </g>
</svg>
