<?xml version='1.0' encoding='UTF-8' standalone='no'?>
<svg
  xmlns:dc="http://purl.org/dc/elements/1.1/"
  xmlns:cc="http://creativecommons.org/ns#"
  xmlns:rdf="http://www.w3.org/1999/02/22-rdf-syntax-ns#"
  xmlns:svg="http://www.w3.org/2000/svg"
  xmlns="http://www.w3.org/2000/svg"
  id="svg30"
  height="0.10000001in"
  viewBox="0 0 597.99998 100.00001"
  version="1.2"
  width="0.59799999in">
  <metadata
    id="metadata36">
    <rdf:RDF>
      <cc:Work
        rdf:about="">
        <dc:format>image/svg+xml</dc:format>
        <dc:type
          rdf:resource="http://purl.org/dc/dcmitype/StillImage"
        />
        <dc:title/>
      </cc:Work>
    </rdf:RDF>
  </metadata>
  <defs
    id="defs34"
  />
  <desc
    id="desc2">
    <referenceFile>SR502-Schottky-Diode_1_pcb.svg</referenceFile>
  </desc>
  <desc
    id="desc4">Fritzing
    footprint
    SVG</desc>
  <g
    id="silkscreen">
    <line
      id="line6"
      x1="118.40845"
      x2="215.59285"
      y1="50.290775"
      y2="50.290775"
      stroke="#000000"
      stroke-width="8.69185448"
      stroke-linecap="butt"
    />
    <line
      id="line8"
      x1="382.43835"
      x2="473.10327"
      y1="50.29076"
      y2="50.29076"
      stroke="#000000"
      stroke-width="8.69185543"
      stroke-linecap="butt"
    />
    <line
      id="line10"
      x1="217.67111"
      x2="382.43839"
      y1="11.177412"
      y2="11.177412"
      stroke="#000000"
      stroke-width="8.69185543"
      stroke-linecap="butt"
    />
    <line
      id="line12"
      x1="382.43839"
      x2="382.43839"
      y1="11.177412"
      y2="89.404068"
      stroke="#000000"
      stroke-width="8.69185543"
      stroke-linecap="butt"
    />
    <line
      id="line14"
      x1="382.43839"
      x2="217.67111"
      y1="89.404068"
      y2="89.404068"
      stroke="#000000"
      stroke-width="8.69185543"
      stroke-linecap="butt"
    />
    <line
      id="line16"
      x1="217.67111"
      x2="217.67111"
      y1="89.404068"
      y2="11.177412"
      stroke="#000000"
      stroke-width="8.69185543"
      stroke-linecap="butt"
    />
    <line
      id="line18"
      x1="234.57039"
      x2="234.57039"
      y1="89.404068"
      y2="11.177412"
      stroke="#000000"
      stroke-width="17.38371086"
      stroke-linecap="butt"
    />
  </g>
  <g
    id="copper1">
    <g
      id="copper0">
      <rect
        id="rect21"
        y="10.000004"
        height="80"
        x="10.000002"
        width="80"
        fill="none"
        stroke="#ffbf00"
        stroke-width="20.00000381"
      />
      <circle
        gorn="0.2.0.1"
        cy="50"
        id="connector0pin"
        cx="50"
        r="40"
        fill="none"
        stroke="#ffbf00"
        stroke-width="20"
      />
      <circle
        gorn="0.2.0.2"
        cy="50"
        r="40"
        id="connector1pin"
        cx="548"
        fill="none"
        stroke="#ffbf00"
        stroke-width="20"
      />
    </g>
  </g>
</svg>
