<?xml version='1.0' encoding='UTF-8' standalone='no'?>
<svg
  xmlns="http://www.w3.org/2000/svg"
  xmlns:svg="http://www.w3.org/2000/svg"
  xmlns:rdf="http://www.w3.org/1999/02/22-rdf-syntax-ns#"
  xmlns:cc="http://creativecommons.org/ns#"
  xmlns:dc="http://purl.org/dc/elements/1.1/"
  id="svg2"
  y="0in"
  version="1.2"
  height="4.2716537in"
  width="4.8271265in"
  x="0in"
  viewBox="0 0 4827.1262 4271.6533">
  <metadata
    id="metadata24">
    <rdf:RDF>
      <cc:Work
        rdf:about="">
        <dc:format>image/svg+xml</dc:format>
        <dc:type
          rdf:resource="http://purl.org/dc/dcmitype/StillImage"
        />
      </cc:Work>
    </rdf:RDF>
  </metadata>
  <defs
    id="defs22">
    <clipPath
      clipPathUnits="userSpaceOnUse"
      id="clipPath445">
      <path
        d="M 0,841.89 H 595.276 V 0 H 0 Z"
        id="path443"
      />
    </clipPath>
    <clipPath
      clipPathUnits="userSpaceOnUse"
      id="clipPath479">
      <path
        d="M 0,841.89 H 595.276 V 0 H 0 Z"
        id="path477"
      />
    </clipPath>
    <clipPath
      clipPathUnits="userSpaceOnUse"
      id="clipPath529">
      <path
        d="M 31.181,535.234 H 360 V 712.187 H 31.181 Z"
        id="path527"
      />
    </clipPath>
    <clipPath
      clipPathUnits="userSpaceOnUse"
      id="clipPath1757">
      <path
        d="M 31.681,279.469 H 152.508 V 407.493 H 31.681 Z"
        id="path1755"
      />
    </clipPath>
    <clipPath
      clipPathUnits="userSpaceOnUse"
      id="clipPath3393">
      <path
        d="M 0,0 H 595.276 V 841.89 H 0 Z"
        id="path3391"
      />
    </clipPath>
  </defs>
  <desc
    id="desc4">
    <referenceFile>festo-ehps-16-gripper_1_breadboard.svg</referenceFile>
  </desc>
  <g
    id="breadboard">
    <path
      d="m 190.6684,828.43278 -7.6096,7.6414 m 7.6096,-7.6414 h 2025.8553 m -2028.7054,5.7311 -0.969,-1.9104 M 2522.8489,3147.2585 h 288.1703 m 29.5835,210.0532 h -317.7538 m 2296.8397,87.8192 v -385.6916 m -83.963,-7.6414 v 400.9744 m -290.0797,66.8053 v -533.644 m -114.5441,-11.4623 v 556.5684 m -95.4202,-16.2236 v -524.0925 m -41.9814,59.1924 v 405.7076 m 618.3503,-403.8257 7.6381,7.6414 m -83.963,-7.6414 -28.6431,-27.6858 M 2235.5907,15.07887 2227.9526,7.4375 m 2217.6933,2978.4961 -19.0953,-19.1036 m -1045.8602,478.3009 v -385.6916 m -114.5158,69.6852 v 247.2622 m 969.507,138.4294 7.6381,8.5822 m -2400.867,-2733.14402 -7.6096,-7.613 m 2977.2074,2670.13102 7.6381,-7.6414 m -83.963,7.6414 -28.6431,28.6269 M 583.835,15.07887 576.1683,7.4375 m 1651.7843,0 h -385.4999 m -1266.2844,0 H 190.6684 m 4235.8822,3531.2152 19.0953,-19.0751 m -202.3262,-537.4647 -7.6381,8.6107 m -1712.8327,136.519 v 251.0546 m -111.6655,446.7659 v 305.4852 M 602.902,828.43278 580.0159,805.50848 m 2705.2543,2603.32582 76.3247,43.938 M 2227.9526,790.25428 H 1842.4527 M 576.1683,809.35768 H 190.6684 m 2220.515,3321.19062 -19.0955,19.1036 M 2235.5907,3786.8844 V 15.07887 M 2021.8642,1706.7102 V 3805.988 M 1834.8431,809.35768 V 15.07887 m -38.1909,4134.57283 v 95.4606 m 595.4357,-439.1243 19.0955,19.0749 m 1728.1375,-800.9508 38.1624,6.7005 M 2235.5907,1426.0309 H 183.0588 m 2052.5319,198.5912 H 183.0588 m 2052.5319,82.0881 H 183.0588 m 0,210.0248 h -1.9382 m 3104.1496,1179.9419 76.3247,-44.879 m 461.8531,396.1843 140.2802,32.4476 m -187.0213,-34.3578 -106.8774,-24.8063 M 2486.596,3013.6194 2235.5907,3005.037 m 6.6977,-257.7549 h 0.9405 m -1.9095,91.6399 v 0 M 621.0283,4149.6517 v 95.4606 M 583.835,809.35768 V 15.07887 M 396.7851,1706.7102 V 3805.988 M 183.0588,3786.8844 V 15.07887 M 181.1206,1916.735 V 3137.7352 M 7.4375,3825.0629 v 305.4854 l 19.1241,19.1034 M 4338.7685,2966.83 h 87.7821 m -95.4488,15.2829 h -87.7821 m 202.3262,41.9992 h 261.4366 m -574.4592,0 H 3972.307 m 763.4186,27.6858 h 76.3249 m -1438.9984,0 h -11.4572 m 423.6908,5.7597 h 29.5837 m -153.6185,26.6879 h -272.9224 m 805.3717,7.6413 h 41.9814 m -4052.6228,45.8484 h -1.9382 m 2785.4266,9.5233 h 299.6274 m 0,210.0532 h -267.1651 m 1194.6907,55.3718 h 41.9814 m -574.4307,7.6129 h -272.9224 m 396.9572,26.7449 h 29.5837 m 920.8562,5.731 h 76.3249 m -1438.9984,0 h -11.4572 m 1084.051,28.6269 h 261.4366 m -574.4592,0 H 3972.307 m 271.0127,41.9991 h 87.7821 m 7.6667,15.2544 h 87.7821 m -1939.9546,-46.7324 -251.0053,8.5539 M 26.5616,3805.988 7.4375,3825.0629 M 2392.0879,3805.988 H 26.5616 m 0,343.6637 h 2365.5263 m -612.6216,114.5642 H 638.2142 m 3501.1067,-782.8167 38.1624,-6.672 m -400.7764,-415.2879 -106.8774,23.8651 m 153.6185,-26.7164 140.2802,-31.5065 M 2227.9526,790.25428 l 7.6381,-7.613 m -400.7476,26.7164 -19.0956,19.0751 m 19.0956,-813.35391 7.6096,-7.64137 m -1262.4368,798.07098 -3.8476,3.8492 M 183.0588,15.07887 190.6684,7.4375 m 0,801.92018 -7.6096,2.8513 m 437.9695,3432.90332 18.1264,19.1036 m 3691.9471,-733.1762 1.9097,4.7903 4.788,2.8227 h 0.969 m 0,-572.7636 -4.7881,1.9102 -2.8786,4.7903 v 0.9123 m -942.7733,446.7945 -4.7882,1.9387 -2.8499,4.7618 v 0.9408 m 0,-368.4984 -1.8811,-4.7901 -5.7572,-2.8513 m 0,400.9744 4.7882,-1.9103 2.8501,-5.7311 m 0,-368.4985 1.9094,4.7618 4.7881,2.8513 h 0.9406 m 789.1548,389.5123 7.6096,-2.8513 6.6977,-7.6414 1.9096,-8.5824 m 0,-405.7361 -1.9096,-7.6414 -5.7285,-7.6413 -7.6384,-3.8207 h -0.9404 m -37.2219,-5.7311 -6.6692,-0.9409 m 0,458.228 6.6692,-0.9694 m -175.5925,0 8.6071,0.9694 m 0,-458.228 -8.6071,0.9409 m -148.8305,33.4455 8.5788,-0.9696"
      id="path1109"
      fill="none"
      stroke="#000000"
      stroke-width="14.875"
      stroke-linecap="round"
      stroke-linejoin="miter"
      stroke-miterlimit="4"
      stroke-dasharray="none"
      stroke-opacity="1"
    />
    <line
      fill="none"
      id="line1"
      stroke="#000000"
      stroke-linecap="round"
      stroke-width="15"
      x1="3046.0308"
      x2="2745.9521"
      y1="3146.3457"
      y2="3146.3457"
    />
    <line
      fill="none"
      id="line11951"
      stroke="#000000"
      stroke-linecap="round"
      stroke-width="15"
      x1="3025.2993"
      x2="2828.1021"
      y1="3357.804"
      y2="3357.804"
    />
    <line
      fill="none"
      id="line11953"
      stroke="#000000"
      stroke-linecap="round"
      stroke-width="15"
      x1="3285.27"
      x2="3266.1748"
      y1="3408.8345"
      y2="3376.3867"
    />
    <line
      fill="none"
      id="line11955"
      stroke="#000000"
      stroke-linecap="round"
      stroke-width="15"
      x1="3281.9878"
      x2="3266.1748"
      y1="3102.2014"
      y2="3129.1248"
    />
    <line
      fill="none"
      id="line11957"
      stroke="#000000"
      stroke-linecap="round"
      stroke-width="15"
      x1="2522.8491"
      x2="2491.9912"
      y1="3127.2429"
      y2="3013.8406"
    />
    <line
      fill="none"
      id="line11959"
      stroke="#000000"
      stroke-linecap="round"
      stroke-width="15"
      x1="2486.5962"
      x2="2521.7363"
      y1="3491.9204"
      y2="3378.5181"
    />
    <rect
      id="connector0pin"
      width="39.999996"
      height="39.999996"
      x="4765.9395"
      y="3029.9998"
      fill="none"
      stroke="none"
      stroke-width="0"
    />
    <rect
      id="connector1pin"
      width="39.999996"
      height="39.999996"
      x="4765.9395"
      y="3129.7371"
      fill="none"
      stroke="none"
      stroke-width="0"
    />
    <rect
      id="connector2pin"
      width="39.999996"
      height="39.999996"
      x="4765.9395"
      y="3229.7371"
      fill="none"
      stroke="none"
      stroke-width="0"
    />
    <rect
      id="connector3pin"
      width="39.999996"
      height="39.999996"
      x="4765.9395"
      y="3329.7371"
      fill="none"
      stroke="none"
      stroke-width="0"
    />
    <rect
      id="connector4pin"
      width="39.999996"
      height="39.999996"
      x="4765.9395"
      y="3429.7371"
      fill="none"
      stroke="none"
      stroke-width="0"
    />
  </g>
</svg>
