<?xml version='1.0' encoding='UTF-8' standalone='no'?>
<svg
  xmlns:dc="http://purl.org/dc/elements/1.1/"
  xmlns:cc="http://creativecommons.org/ns#"
  xmlns:rdf="http://www.w3.org/1999/02/22-rdf-syntax-ns#"
  xmlns:svg="http://www.w3.org/2000/svg"
  xmlns="http://www.w3.org/2000/svg"
  id="svg982"
  y="0in"
  width="0.394in"
  version="1.2"
  viewBox="0 0 394 244"
  height="0.244in"
  gorn="0"
  x="0in">
  <metadata
    id="metadata988">
    <rdf:RDF>
      <cc:Work
        rdf:about="">
        <dc:format>image/svg+xml</dc:format>
        <dc:type
          rdf:resource="http://purl.org/dc/dcmitype/StillImage"
        />
        <dc:title/>
      </cc:Work>
    </rdf:RDF>
  </metadata>
  <defs
    id="defs986"
  />
  <desc
    id="desc903">
    <referenceFile>CD4060BM_soic16_breadboard.svg</referenceFile>
  </desc>
  <g
    id="breadboard"
    gorn="0.3">
    <rect
      id="middle"
      y="44"
      width="394"
      height="156"
      gorn="0.3.0"
      x="0"
      fill="#303030"
    />
    <rect
      id="top"
      y="44"
      width="394"
      height="7.5"
      gorn="0.3.1"
      x="0"
      fill="#3d3d3d"
    />
    <rect
      id="bottom"
      y="180"
      width="394"
      height="20"
      gorn="0.3.2"
      x="0"
      fill="#000000"
    />
    <polygon
      id="right"
      points="394,200 394,44 386.5,51.5 386.5,180 "
      gorn="0.3.3"
      fill="#141414"
    />
    <polygon
      id="left"
      points="0,200 0,44 7.5,51.5 7.5,180 "
      gorn="0.3.4"
      fill="#1f1f1f"
    />
    <circle
      id="dot"
      cy="155"
      stroke-miterlimit="4"
      cx="32.5"
      r="10"
      gorn="0.3.9"
      fill="#1c1c1c"
      fill-opacity="1"
      stroke="#1c1c1c"
      stroke-width="0"
      stroke-dasharray="none"
      stroke-opacity="1"
    />
    <text
      id="label"
      y="122.5"
      font-size="59.0277786255"
      gorn="0.3.10"
      x="26"
      font-family="OCRA"
      text-anchor="start"
      fill="#e6e6e6"
      stroke="none">CD4060BM</text>
    <rect
      id="connector0pin"
      y="200"
      width="20"
      height="44"
      gorn="0.3.11"
      x="12"
      fill="#8c8c8c"
    />
    <rect
      id="connector0terminal"
      y="222"
      width="20"
      height="22"
      gorn="0.3.12"
      x="12"
      fill="#8c8c8c"
    />
    <rect
      y="200"
      x="12"
      height="22"
      width="20"
      id="rect0"
      opacity="1"
      vector-effect="none"
      fill="#b4b4b4"
      fill-opacity="1"
      fill-rule="nonzero"
      stroke="none"
      stroke-width="20"
      stroke-linecap="butt"
      stroke-linejoin="miter"
      stroke-miterlimit="4"
      stroke-dasharray="none"
      stroke-dashoffset="0"
      stroke-opacity="1"
    />
    <rect
      id="connector1pin"
      y="200"
      width="20"
      height="44"
      gorn="0.3.41"
      x="62"
      fill="#8c8c8c"
    />
    <rect
      id="connector1terminal"
      y="222"
      width="20"
      height="22"
      gorn="0.3.42"
      x="62"
      fill="#8c8c8c"
    />
    <rect
      y="200"
      x="62"
      height="22"
      width="20"
      id="rect1"
      opacity="1"
      vector-effect="none"
      fill="#b4b4b4"
      fill-opacity="1"
      fill-rule="nonzero"
      stroke="none"
      stroke-width="20"
      stroke-linecap="butt"
      stroke-linejoin="miter"
      stroke-miterlimit="4"
      stroke-dasharray="none"
      stroke-dashoffset="0"
      stroke-opacity="1"
    />
    <rect
      id="connector2pin"
      y="200"
      width="20"
      height="44"
      gorn="0.3.44"
      x="112"
      fill="#8c8c8c"
    />
    <rect
      id="connector2terminal"
      y="222"
      width="20"
      height="22"
      gorn="0.3.45"
      x="112"
      fill="#8c8c8c"
    />
    <rect
      y="200"
      x="112"
      height="22"
      width="20"
      id="rect2"
      opacity="1"
      vector-effect="none"
      fill="#b4b4b4"
      fill-opacity="1"
      fill-rule="nonzero"
      stroke="none"
      stroke-width="20"
      stroke-linecap="butt"
      stroke-linejoin="miter"
      stroke-miterlimit="4"
      stroke-dasharray="none"
      stroke-dashoffset="0"
      stroke-opacity="1"
    />
    <rect
      id="connector3pin"
      y="200"
      width="20"
      height="44"
      gorn="0.3.47"
      x="162"
      fill="#8c8c8c"
    />
    <rect
      id="connector3terminal"
      y="222"
      width="20"
      height="22"
      gorn="0.3.48"
      x="162"
      fill="#8c8c8c"
    />
    <rect
      y="200"
      x="162"
      height="22"
      width="20"
      id="rect3"
      opacity="1"
      vector-effect="none"
      fill="#b4b4b4"
      fill-opacity="1"
      fill-rule="nonzero"
      stroke="none"
      stroke-width="20"
      stroke-linecap="butt"
      stroke-linejoin="miter"
      stroke-miterlimit="4"
      stroke-dasharray="none"
      stroke-dashoffset="0"
      stroke-opacity="1"
    />
    <rect
      id="connector4pin"
      y="200"
      width="20"
      height="44"
      gorn="0.3.50"
      x="212"
      fill="#8c8c8c"
    />
    <rect
      id="connector4terminal"
      y="222"
      width="20"
      height="22"
      gorn="0.3.51"
      x="212"
      fill="#8c8c8c"
    />
    <rect
      y="200"
      x="212"
      height="22"
      width="20"
      id="rect4"
      opacity="1"
      vector-effect="none"
      fill="#b4b4b4"
      fill-opacity="1"
      fill-rule="nonzero"
      stroke="none"
      stroke-width="20"
      stroke-linecap="butt"
      stroke-linejoin="miter"
      stroke-miterlimit="4"
      stroke-dasharray="none"
      stroke-dashoffset="0"
      stroke-opacity="1"
    />
    <rect
      id="connector5pin"
      y="200"
      width="20"
      height="44"
      gorn="0.3.53"
      x="262"
      fill="#8c8c8c"
    />
    <rect
      id="connector5terminal"
      y="222"
      width="20"
      height="22"
      gorn="0.3.54"
      x="262"
      fill="#8c8c8c"
    />
    <rect
      y="200"
      x="262"
      height="22"
      width="20"
      id="rect5"
      opacity="1"
      vector-effect="none"
      fill="#b4b4b4"
      fill-opacity="1"
      fill-rule="nonzero"
      stroke="none"
      stroke-width="20"
      stroke-linecap="butt"
      stroke-linejoin="miter"
      stroke-miterlimit="4"
      stroke-dasharray="none"
      stroke-dashoffset="0"
      stroke-opacity="1"
    />
    <rect
      id="connector6pin"
      y="200"
      width="20"
      height="44"
      gorn="0.3.56"
      x="312"
      fill="#8c8c8c"
    />
    <rect
      id="connector6terminal"
      y="222"
      width="20"
      height="22"
      gorn="0.3.57"
      x="312"
      fill="#8c8c8c"
    />
    <rect
      y="200"
      x="312"
      height="22"
      width="20"
      id="rect6"
      opacity="1"
      vector-effect="none"
      fill="#b4b4b4"
      fill-opacity="1"
      fill-rule="nonzero"
      stroke="none"
      stroke-width="20"
      stroke-linecap="butt"
      stroke-linejoin="miter"
      stroke-miterlimit="4"
      stroke-dasharray="none"
      stroke-dashoffset="0"
      stroke-opacity="1"
    />
    <rect
      id="connector7pin"
      y="200"
      width="20"
      height="44"
      gorn="0.3.17"
      x="362"
      fill="#8c8c8c"
    />
    <rect
      id="connector7terminal"
      y="222"
      width="20"
      height="22"
      gorn="0.3.18"
      x="362"
      fill="#8c8c8c"
    />
    <rect
      y="200"
      x="362"
      height="22"
      width="20"
      id="rect7"
      opacity="1"
      vector-effect="none"
      fill="#b4b4b4"
      fill-opacity="1"
      fill-rule="nonzero"
      stroke="none"
      stroke-width="20"
      stroke-linecap="butt"
      stroke-linejoin="miter"
      stroke-miterlimit="4"
      stroke-dasharray="none"
      stroke-dashoffset="0"
      stroke-opacity="1"
    />
    <rect
      id="connector8pin"
      y="0"
      width="20"
      height="44"
      gorn="0.3.20"
      x="362"
      fill="#8c8c8c"
    />
    <rect
      id="connector8terminal"
      y="0"
      width="20"
      height="22"
      gorn="0.3.21"
      x="362"
      fill="#8c8c8c"
    />
    <rect
      y="22"
      x="362"
      height="22"
      width="20"
      id="rect8"
      opacity="1"
      vector-effect="none"
      fill="#b4b4b4"
      fill-opacity="1"
      fill-rule="nonzero"
      stroke="none"
      stroke-width="20"
      stroke-linecap="butt"
      stroke-linejoin="miter"
      stroke-miterlimit="4"
      stroke-dasharray="none"
      stroke-dashoffset="0"
      stroke-opacity="1"
    />
    <rect
      id="connector9pin"
      y="0"
      width="20"
      height="44"
      gorn="0.3.38"
      x="312"
      fill="#8c8c8c"
    />
    <rect
      y="0"
      id="connector9terminal"
      width="20"
      height="22"
      gorn="0.3.39"
      x="312"
      fill="#8c8c8c"
    />
    <rect
      y="22"
      x="312"
      height="22"
      width="20"
      id="rect9"
      opacity="1"
      vector-effect="none"
      fill="#b4b4b4"
      fill-opacity="1"
      fill-rule="nonzero"
      stroke="none"
      stroke-width="20"
      stroke-linecap="butt"
      stroke-linejoin="miter"
      stroke-miterlimit="4"
      stroke-dasharray="none"
      stroke-dashoffset="0"
      stroke-opacity="1"
    />
    <rect
      id="connector10pin"
      y="0"
      width="20"
      height="44"
      gorn="0.3.35"
      x="262"
      fill="#8c8c8c"
    />
    <rect
      y="0"
      id="connector10terminal"
      width="20"
      height="22"
      gorn="0.3.36"
      x="262"
      fill="#8c8c8c"
    />
    <rect
      y="22"
      x="262"
      height="22"
      width="20"
      id="rect10"
      opacity="1"
      vector-effect="none"
      fill="#b4b4b4"
      fill-opacity="1"
      fill-rule="nonzero"
      stroke="none"
      stroke-width="20"
      stroke-linecap="butt"
      stroke-linejoin="miter"
      stroke-miterlimit="4"
      stroke-dasharray="none"
      stroke-dashoffset="0"
      stroke-opacity="1"
    />
    <rect
      id="connector11pin"
      y="0"
      width="20"
      height="44"
      gorn="0.3.32"
      x="212"
      fill="#8c8c8c"
    />
    <rect
      y="0"
      id="connector11terminal"
      width="20"
      height="22"
      gorn="0.3.33"
      x="212"
      fill="#8c8c8c"
    />
    <rect
      y="22"
      x="212"
      height="22"
      width="20"
      id="rect11"
      opacity="1"
      vector-effect="none"
      fill="#b4b4b4"
      fill-opacity="1"
      fill-rule="nonzero"
      stroke="none"
      stroke-width="20"
      stroke-linecap="butt"
      stroke-linejoin="miter"
      stroke-miterlimit="4"
      stroke-dasharray="none"
      stroke-dashoffset="0"
      stroke-opacity="1"
    />
    <rect
      id="connector12pin"
      y="0"
      width="20"
      height="44"
      gorn="0.3.29"
      x="162"
      fill="#8c8c8c"
    />
    <rect
      y="0"
      id="connector12terminal"
      width="20"
      height="22"
      gorn="0.3.20"
      x="162"
      fill="#8c8c8c"
    />
    <rect
      y="22"
      x="162"
      height="22"
      width="20"
      id="rect12"
      opacity="1"
      vector-effect="none"
      fill="#b4b4b4"
      fill-opacity="1"
      fill-rule="nonzero"
      stroke="none"
      stroke-width="20"
      stroke-linecap="butt"
      stroke-linejoin="miter"
      stroke-miterlimit="4"
      stroke-dasharray="none"
      stroke-dashoffset="0"
      stroke-opacity="1"
    />
    <rect
      id="connector13pin"
      y="0"
      width="20"
      height="44"
      gorn="0.3.26"
      x="112"
      fill="#8c8c8c"
    />
    <rect
      y="0"
      id="connector13terminal"
      width="20"
      height="22"
      gorn="0.3.27"
      x="112"
      fill="#8c8c8c"
    />
    <rect
      y="22"
      x="112"
      height="22"
      width="20"
      id="rect13"
      opacity="1"
      vector-effect="none"
      fill="#b4b4b4"
      fill-opacity="1"
      fill-rule="nonzero"
      stroke="none"
      stroke-width="20"
      stroke-linecap="butt"
      stroke-linejoin="miter"
      stroke-miterlimit="4"
      stroke-dasharray="none"
      stroke-dashoffset="0"
      stroke-opacity="1"
    />
    <rect
      id="connector14pin"
      y="0"
      width="20"
      height="44"
      gorn="0.3.23"
      x="62"
      fill="#8c8c8c"
    />
    <rect
      y="0"
      id="connector14terminal"
      width="20"
      height="22"
      gorn="0.3.24"
      x="62"
      fill="#8c8c8c"
    />
    <rect
      y="22"
      x="62"
      height="22"
      width="20"
      id="rect14"
      opacity="1"
      vector-effect="none"
      fill="#b4b4b4"
      fill-opacity="1"
      fill-rule="nonzero"
      stroke="none"
      stroke-width="20"
      stroke-linecap="butt"
      stroke-linejoin="miter"
      stroke-miterlimit="4"
      stroke-dasharray="none"
      stroke-dashoffset="0"
      stroke-opacity="1"
    />
    <rect
      y="0"
      id="connector15pin"
      width="20"
      height="44"
      gorn="0.3.14"
      x="12"
      fill="#8c8c8c"
    />
    <rect
      y="0"
      id="connector15terminal"
      width="20"
      height="22"
      gorn="0.3.15"
      x="12"
      fill="#8c8c8c"
    />
    <rect
      y="22"
      x="12"
      height="22"
      width="20"
      id="rect15"
      opacity="1"
      vector-effect="none"
      fill="#b4b4b4"
      fill-opacity="1"
      fill-rule="nonzero"
      stroke="none"
      stroke-width="20"
      stroke-linecap="butt"
      stroke-linejoin="miter"
      stroke-miterlimit="4"
      stroke-dasharray="none"
      stroke-dashoffset="0"
      stroke-opacity="1"
    />
  </g>
</svg>
