<?xml version='1.0' encoding='UTF-8' standalone='no'?>
<svg xmlns="http://www.w3.org/2000/svg" viewBox="0 0 235 280"  width="82.9mm" y="0" version="1.2" height="98.7mm" baseProfile="tiny" x="0">
    <desc >
        <referenceFile >CNMB6-icon.svg</referenceFile>
    </desc>
    <g >
        <g  gorn="0.1.0" id="icon">
            <rect  width="233" stroke-width="0.5" fill="#1F7A34" y="1" height="278" stroke="#1F7A34" x="1"/>
            <g  transform="matrix(1, 0, 0, 1, 70, 149)">
                <g >
                    <g >
                        <g >
                            <g >
                                <text  font-size="20" gorn="0.1.0.1.0.0.0.0.0" fill="#FFFFFF" font-family="OCRA" id="text_2_">CNMB/6</text>
                            </g>
                        </g>
                    </g>
                </g>
            </g>
            <!--	<rect fill="none"
					  fill-opacity="1.0"
					  height="280"
					  id="boardoutline"
					  stroke="#111111"
					  stroke-width="0.5"
					  width="235"
					  x="0"
					  y="0"/>
			-->
            <circle  cx="0" gorn="0.1.0.1" stroke-width="0" fill="none" cy="0" r="0" stroke="#f9a435" id="connector0pin"/>

            <circle  cx="47" gorn="0.1.0.2" stroke-width="0" fill="black" cy="19" r="6" stroke="#f9a435" id="nonconn0"/>
            <circle  cx="189" gorn="0.1.0.3" stroke-width="0" fill="black" cy="261" r="6" stroke="#f9a435" id="nonconn0"/>
            <circle  cx="9" gorn="0.1.0.4" stroke-width="2" fill="none" cy="9" r="3" stroke="#f9a435" id="connector11pin"/>
            <circle  cx="9" gorn="0.1.0.5" stroke-width="2" fill="none" cy="23" r="3" stroke="#f9a435" id="connector12pin"/>
            <circle  cx="9" gorn="0.1.0.6" stroke-width="2" fill="none" cy="37" r="3" stroke="#f9a435" id="connector13pin"/>
            <circle  cx="9" gorn="0.1.0.7" stroke-width="2" fill="none" cy="51" r="3" stroke="#f9a435" id="connector14pin"/>
            <circle  cx="9" gorn="0.1.0.8" stroke-width="2" fill="none" cy="65" r="3" stroke="#f9a435" id="connector15pin"/>
            <circle  cx="9" gorn="0.1.0.9" stroke-width="2" fill="none" cy="79" r="3" stroke="#f9a435" id="connector16pin"/>
            <circle  cx="9" gorn="0.1.0.10" stroke-width="2" fill="none" cy="93" r="3" stroke="#f9a435" id="connector17pin"/>
            <circle  cx="9" gorn="0.1.0.11" stroke-width="2" fill="none" cy="107" r="3" stroke="#f9a435" id="connector18pin"/>
            <circle  cx="9" gorn="0.1.0.12" stroke-width="2" fill="none" cy="121" r="3" stroke="#f9a435" id="connector19pin"/>
            <circle  cx="9" gorn="0.1.0.13" stroke-width="2" fill="none" cy="159" r="3" stroke="#f9a435" id="connector21pin"/>
            <circle  cx="9" gorn="0.1.0.14" stroke-width="2" fill="none" cy="173" r="3" stroke="#f9a435" id="connector22pin"/>
            <circle  cx="9" gorn="0.1.0.15" stroke-width="2" fill="none" cy="187" r="3" stroke="#f9a435" id="connector23pin"/>
            <circle  cx="9" gorn="0.1.0.16" stroke-width="2" fill="none" cy="201" r="3" stroke="#f9a435" id="connector24pin"/>
            <circle  cx="9" gorn="0.1.0.17" stroke-width="2" fill="none" cy="215" r="3" stroke="#f9a435" id="connector25pin"/>
            <circle  cx="9" gorn="0.1.0.18" stroke-width="2" fill="none" cy="229" r="3" stroke="#f9a435" id="connector26pin"/>
            <circle  cx="9" gorn="0.1.0.19" stroke-width="2" fill="none" cy="243" r="3" stroke="#f9a435" id="connector27pin"/>
            <circle  cx="9" gorn="0.1.0.20" stroke-width="2" fill="none" cy="257" r="3" stroke="#f9a435" id="connector28pin"/>
            <circle  cx="9" gorn="0.1.0.21" stroke-width="2" fill="none" cy="271" r="3" stroke="#f9a435" id="connector29pin"/>
            <circle  cx="226" gorn="0.1.0.22" stroke-width="2" fill="none" cy="9" r="3" stroke="#f9a435" id="connector31pin"/>
            <circle  cx="226" gorn="0.1.0.23" stroke-width="2" fill="none" cy="23" r="3" stroke="#f9a435" id="connector32pin"/>
            <circle  cx="226" gorn="0.1.0.24" stroke-width="2" fill="none" cy="37" r="3" stroke="#f9a435" id="connector33pin"/>
            <circle  cx="226" gorn="0.1.0.25" stroke-width="2" fill="none" cy="51" r="3" stroke="#f9a435" id="connector34pin"/>
            <circle  cx="226" gorn="0.1.0.26" stroke-width="2" fill="none" cy="65" r="3" stroke="#f9a435" id="connector35pin"/>
            <circle  cx="226" gorn="0.1.0.27" stroke-width="2" fill="none" cy="79" r="3" stroke="#f9a435" id="connector36pin"/>
            <circle  cx="226" gorn="0.1.0.28" stroke-width="2" fill="none" cy="93" r="3" stroke="#f9a435" id="connector37pin"/>
            <circle  cx="226" gorn="0.1.0.29" stroke-width="2" fill="none" cy="107" r="3" stroke="#f9a435" id="connector38pin"/>
            <circle  cx="226" gorn="0.1.0.30" stroke-width="2" fill="none" cy="121" r="3" stroke="#f9a435" id="connector39pin"/>
            <circle  cx="226" gorn="0.1.0.31" stroke-width="2" fill="none" cy="159" r="3" stroke="#f9a435" id="connector41pin"/>
            <circle  cx="226" gorn="0.1.0.32" stroke-width="2" fill="none" cy="173" r="3" stroke="#f9a435" id="connector42pin"/>
            <circle  cx="226" gorn="0.1.0.33" stroke-width="2" fill="none" cy="187" r="3" stroke="#f9a435" id="connector43pin"/>
            <circle  cx="226" gorn="0.1.0.34" stroke-width="2" fill="none" cy="201" r="3" stroke="#f9a435" id="connector44pin"/>
            <circle  cx="226" gorn="0.1.0.35" stroke-width="2" fill="none" cy="215" r="3" stroke="#f9a435" id="connector45pin"/>
            <circle  cx="226" gorn="0.1.0.36" stroke-width="2" fill="none" cy="229" r="3" stroke="#f9a435" id="connector46pin"/>
            <circle  cx="226" gorn="0.1.0.37" stroke-width="2" fill="none" cy="243" r="3" stroke="#f9a435" id="connector47pin"/>
            <circle  cx="226" gorn="0.1.0.38" stroke-width="2" fill="none" cy="257" r="3" stroke="#f9a435" id="connector48pin"/>
            <circle  cx="226" gorn="0.1.0.39" stroke-width="2" fill="none" cy="271" r="3" stroke="#f9a435" id="connector49pin"/>
        </g>
    </g>
</svg>
