<?xml version='1.0' encoding='UTF-8' standalone='no'?>
<svg
  xmlns="http://www.w3.org/2000/svg"
  xmlns:svg="http://www.w3.org/2000/svg"
  version="1.2"
  height="0.87166899in"
  width="0.20462438in"
  viewBox="0 0 204.62439 871.66902"
  gorn="0"
  x="0in"
  id="svg2"
  y="0in">
  <defs
    id="defs71"
  />
  <desc
    id="desc2">
    <referenceFile>Generic-male-header-8pins-2-row-1.27mm_601694f240f9d84de5c03f4856c53748_1_schematic.svg</referenceFile>
  </desc>
  <g
    id="schematic">
    <polyline
      points="9.898,1.643 14.1,3.6 9.898,5.556"
      stroke-linejoin="round"
      fill="none"
      stroke-width="0.7"
      stroke-linecap="round"
      stroke="#000000"
      id="polyline6"
      transform="matrix(13.888847,0,0,13.888847,3.7916552,-10.847873)"
    />
    <line
      y1="39.151974"
      stroke-linejoin="round"
      fill="none"
      stroke-width="10"
      x1="199.62439"
      y2="39.151974"
      gorn="0.0.3"
      stroke-linecap="round"
      x2="70.194237"
      id="line"
      stroke="#000000"
    />
    <text
      fill="#555555"
      font-size="35"
      class="text"
      stroke-width="0"
      x="73.930336"
      text-anchor="middle"
      stroke="none"
      font-family="'Droid Sans'"
      y="24.985352"
      id="text9">1</text>
    <polyline
      points="9.898,8.843 14.1,10.8 9.898,12.756"
      stroke-linejoin="round"
      fill="none"
      stroke-width="0.7"
      stroke-linecap="round"
      stroke="#000000"
      id="polyline13"
      transform="matrix(13.888847,0,0,13.888847,3.7916552,-10.847873)"
    />
    <line
      y1="139.15167"
      stroke-linejoin="round"
      fill="none"
      stroke-width="10"
      x1="199.62439"
      y2="139.15167"
      gorn="0.0.8"
      stroke-linecap="round"
      x2="70.194237"
      id="line15"
      stroke="#000000"
    />
    <text
      fill="#555555"
      font-size="35"
      class="text"
      stroke-width="0"
      x="73.930336"
      text-anchor="middle"
      stroke="none"
      font-family="'Droid Sans'"
      y="124.98505"
      id="text17">3</text>
    <polyline
      points="9.898,16.043 14.1,18 9.898,19.956"
      stroke-linejoin="round"
      fill="none"
      stroke-width="0.7"
      stroke-linecap="round"
      stroke="#000000"
      id="polyline21"
      transform="matrix(13.888847,0,0,13.888847,3.7916552,-10.847873)"
    />
    <line
      y1="239.15137"
      stroke-linejoin="round"
      fill="none"
      stroke-width="10"
      x1="199.62439"
      y2="239.15137"
      gorn="0.0.13"
      stroke-linecap="round"
      x2="70.194237"
      id="line23"
      stroke="#000000"
    />
    <text
      fill="#555555"
      font-size="35"
      class="text"
      stroke-width="0"
      x="73.930336"
      text-anchor="middle"
      stroke="none"
      font-family="'Droid Sans'"
      y="224.98473"
      id="text25">5</text>
    <polyline
      points="9.898,23.243 14.1,25.2 9.898,27.156"
      stroke-linejoin="round"
      fill="none"
      stroke-width="0.7"
      stroke-linecap="round"
      stroke="#000000"
      id="polyline29"
      transform="matrix(13.888847,0,0,13.888847,3.7916552,-10.847873)"
    />
    <line
      y1="339.15109"
      stroke-linejoin="round"
      fill="none"
      stroke-width="10"
      x1="199.62439"
      y2="339.15109"
      gorn="0.0.18"
      stroke-linecap="round"
      x2="70.194237"
      id="line31"
      stroke="#000000"
    />
    <text
      fill="#555555"
      font-size="35"
      class="text"
      stroke-width="0"
      x="73.930336"
      text-anchor="middle"
      stroke="none"
      font-family="'Droid Sans'"
      y="324.98447"
      id="text33">7</text>
    <polyline
      points="9.898,1.643 14.1,3.6 9.898,5.556"
      stroke-linejoin="round"
      fill="none"
      stroke-width="0.700853"
      stroke-linecap="round"
      stroke="#000000"
      id="polyline6-1"
      transform="matrix(13.85507,0,0,13.888847,4.0554321,489.6365)"
    />
    <line
      y1="539.63635"
      stroke-linejoin="round"
      fill="none"
      stroke-width="10"
      x1="199.4119"
      y2="539.63635"
      gorn="0.0.3"
      stroke-linecap="round"
      x2="70.296516"
      id="line-1"
      stroke="#000000"
    />
    <text
      fill="#555555"
      font-size="35"
      class="text"
      stroke-width="0"
      x="74.113708"
      text-anchor="middle"
      stroke="none"
      font-family="'Droid Sans'"
      y="524.34424"
      id="text9-3">2</text>
    <polyline
      points="9.898,8.843 14.1,10.8 9.898,12.756"
      stroke-linejoin="round"
      fill="none"
      stroke-width="0.700853"
      stroke-linecap="round"
      stroke="#000000"
      id="polyline13-0"
      transform="matrix(13.85507,0,0,13.888847,4.0554321,489.6365)"
    />
    <line
      y1="639.63599"
      stroke-linejoin="round"
      fill="none"
      stroke-width="10"
      x1="199.4119"
      y2="639.63599"
      gorn="0.0.8"
      stroke-linecap="round"
      x2="70.296516"
      id="line15-7"
      stroke="#000000"
    />
    <text
      fill="#555555"
      font-size="35"
      class="text"
      stroke-width="0"
      x="74.113708"
      text-anchor="middle"
      stroke="none"
      font-family="'Droid Sans'"
      y="624.22229"
      id="text17-5">5</text>
    <polyline
      points="9.898,16.043 14.1,18 9.898,19.956"
      stroke-linejoin="round"
      fill="none"
      stroke-width="0.700853"
      stroke-linecap="round"
      stroke="#000000"
      id="polyline21-8"
      transform="matrix(13.85507,0,0,13.888847,4.0554321,489.6365)"
    />
    <line
      y1="739.63568"
      stroke-linejoin="round"
      fill="none"
      stroke-width="10"
      x1="199.4119"
      y2="739.63568"
      gorn="0.0.13"
      stroke-linecap="round"
      x2="70.296516"
      id="line23-4"
      stroke="#000000"
    />
    <text
      fill="#555555"
      font-size="35"
      class="text"
      stroke-width="0"
      x="74.113708"
      text-anchor="middle"
      stroke="none"
      font-family="'Droid Sans'"
      y="724.10016"
      id="text25-7">6</text>
    <polyline
      points="9.898,23.243 14.1,25.2 9.898,27.156"
      stroke-linejoin="round"
      fill="none"
      stroke-width="0.700853"
      stroke-linecap="round"
      stroke="#000000"
      id="polyline29-7"
      transform="matrix(13.85507,0,0,13.888847,4.0554321,489.6365)"
    />
    <line
      y1="839.63531"
      stroke-linejoin="round"
      fill="none"
      stroke-width="10"
      x1="199.4119"
      y2="839.63531"
      gorn="0.0.18"
      stroke-linecap="round"
      x2="70.296516"
      id="line31-9"
      stroke="#000000"
    />
    <text
      fill="#555555"
      font-size="35"
      class="text"
      stroke-width="0"
      x="74.113708"
      text-anchor="middle"
      stroke="none"
      font-family="'Droid Sans'"
      y="823.97803"
      id="text33-1">8</text>
    <text
      fill="#555555"
      font-size="35"
      class="text"
      stroke-width="0"
      x="74.113708"
      text-anchor="middle"
      stroke="none"
      font-family="'Droid Sans'"
      y="1523.3326"
      id="text57-6"
    />
    <line
      y1="39.151974"
      stroke-linejoin="round"
      fill="none"
      stroke-width="10"
      x1="8.652751"
      y2="39.151974"
      gorn="0.0.0"
      stroke-linecap="round"
      x2="107.55523"
      id="connector0pin"
      stroke="#555555"
    />
    <rect
      fill="none"
      height="10"
      width="10"
      gorn="0.0.1"
      x="0"
      id="connector0terminal"
      y="37.818645"
      stroke-width="0"
    />
    <line
      y1="539.63635"
      stroke-linejoin="round"
      fill="none"
      stroke-width="10"
      x1="8.9046965"
      y2="539.63635"
      gorn="0.0.0"
      stroke-linecap="round"
      x2="107.56664"
      id="connector1pin"
      stroke="#555555"
    />
    <rect
      fill="none"
      height="10"
      width="10"
      gorn="0.0.1"
      x="0.273"
      id="connector1terminal"
      y="538.30304"
      stroke-width="0"
    />
    <line
      y1="139.15167"
      stroke-linejoin="round"
      fill="none"
      stroke-width="10"
      x1="8.652751"
      y2="139.15167"
      gorn="0.0.5"
      stroke-linecap="round"
      x2="107.55523"
      id="connector2pin"
      stroke="#555555"
    />
    <rect
      fill="none"
      height="10"
      width="10"
      gorn="0.0.6"
      x="0"
      id="connector2terminal"
      y="137.81834"
      stroke-width="0"
    />
    <line
      y1="639.63599"
      stroke-linejoin="round"
      fill="none"
      stroke-width="10"
      x1="8.9046965"
      y2="639.63599"
      gorn="0.0.5"
      stroke-linecap="round"
      x2="107.56664"
      id="connector3pin"
      stroke="#555555"
    />
    <rect
      fill="none"
      height="10"
      width="10"
      gorn="0.0.6"
      x="0.273"
      id="connector3terminal"
      y="638.30273"
      stroke-width="0"
    />
    <line
      y1="239.15137"
      stroke-linejoin="round"
      fill="none"
      stroke-width="10"
      x1="8.652751"
      y2="239.15137"
      gorn="0.0.10"
      stroke-linecap="round"
      x2="107.55523"
      id="connector4pin"
      stroke="#555555"
    />
    <rect
      fill="none"
      height="10"
      width="10"
      gorn="0.0.11"
      x="0"
      id="connector4terminal"
      y="237.81802"
      stroke-width="0"
    />
    <line
      y1="739.63568"
      stroke-linejoin="round"
      fill="none"
      stroke-width="10"
      x1="8.9046965"
      y2="739.63568"
      gorn="0.0.10"
      stroke-linecap="round"
      x2="107.56664"
      id="connector5pin"
      stroke="#555555"
    />
    <rect
      fill="none"
      height="10"
      width="10"
      gorn="0.0.11"
      x="0.273"
      id="connector5terminal"
      y="738.30231"
      stroke-width="0"
    />
    <line
      y1="339.15109"
      stroke-linejoin="round"
      fill="none"
      stroke-width="10"
      x1="8.652751"
      y2="339.15109"
      gorn="0.0.15"
      stroke-linecap="round"
      x2="107.55523"
      id="connector6pin"
      stroke="#555555"
    />
    <rect
      fill="none"
      height="10"
      width="10"
      gorn="0.0.16"
      x="0"
      id="connector6terminal"
      y="337.81775"
      stroke-width="0"
    />
    <line
      y1="839.63531"
      stroke-linejoin="round"
      fill="none"
      stroke-width="10"
      x1="8.9046965"
      y2="839.63531"
      gorn="0.0.15"
      stroke-linecap="round"
      x2="107.56664"
      id="connector7pin"
      stroke="#555555"
    />
    <rect
      fill="none"
      height="10"
      width="10"
      gorn="0.0.16"
      x="0.273"
      id="connector7terminal"
      y="838.30206"
      stroke-width="0"
    />
  </g>
</svg>
