<?xml version='1.0' encoding='UTF-8' standalone='no'?>
<svg
  xmlns="http://www.w3.org/2000/svg"
  width="1.6685in"
  height="0.77389in"
  viewBox="0 0 120.132 55.721"
  id="svg5802"
  x="0px"
  y="0px"
  version="1.2"
  gorn="0">
  <metadata
    id="metadata5808">
    <rdf:RDF
      xmlns:rdf="http://www.w3.org/1999/02/22-rdf-syntax-ns#">
      <cc:Work
        xmlns:rdf="http://www.w3.org/1999/02/22-rdf-syntax-ns#"
        xmlns:cc="http://creativecommons.org/ns#"
        rdf:about="">
        <dc:format
          xmlns:dc="http://purl.org/dc/elements/1.1/">image/svg+xml</dc:format>
        <dc:type
          xmlns:rdf="http://www.w3.org/1999/02/22-rdf-syntax-ns#"
          xmlns:dc="http://purl.org/dc/elements/1.1/"
          rdf:resource="http://purl.org/dc/dcmitype/StillImage"
        />
        <dc:title
          xmlns:dc="http://purl.org/dc/elements/1.1/"
        />
      </cc:Work>
    </rdf:RDF>
  </metadata>
  <defs
    id="defs5806"
  />
  <desc
    id="desc5728">
    <referenceFile>4pinPCFan_06d809b5b90b85c467e438e111c7467a_2_breadboard.svg</referenceFile>
  </desc>
  <g
    id="breadboard"
    gorn="0.3">
    <rect
      width="1"
      height="1"
      id="connector0pin"
      x="19.221001"
      y="43.257"
      gorn="0.3.0"
      fill="#8c8c8c"
    />
    <rect
      width="1"
      height="1"
      id="connector1pin"
      x="19.320999"
      y="12.551"
      gorn="0.3.1"
      fill="#8c8c8c"
    />
    <rect
      stroke="none"
      stroke-width="0.34999281"
      width="28.800474"
      height="2.1600356"
      fill="#808080"
      fill-opacity="1"
      id="connector3pin"
      stroke-opacity="1"
      x="-0.00098840019"
      y="4.191401"
      gorn="0.3.2"
      stroke-miterlimit="4"
      stroke-dasharray="none"
    />
    <rect
      stroke="none"
      stroke-width="0"
      width="0.0576009"
      height="0.00432007"
      fill="none"
      id="connector3terminal"
      x="-0.0297889"
      y="5.26926"
      gorn="0.3.3"
    />
    <rect
      stroke="none"
      stroke-width="0.34999281"
      width="28.800474"
      height="2.1600356"
      fill="#808080"
      fill-opacity="1"
      id="connector4pin"
      stroke-opacity="1"
      x="-0.00098812801"
      y="47.504616"
      gorn="0.3.4"
      stroke-miterlimit="4"
      stroke-dasharray="none"
    />
    <rect
      stroke="none"
      stroke-width="0"
      width="0.0576009"
      height="0.00432007"
      fill="none"
      id="connector4terminal"
      x="-0.0297886"
      y="48.5825"
      gorn="0.3.5"
    />
    <g
      id="g5740"
      gorn="0.3.6">
      <rect
        width="12.975"
        height="4.562"
        fill="#878787"
        id="rect5732"
        x="107.157"
        y="25.221"
        gorn="0.3.6.0"
      />
      <rect
        width="0.451"
        height="4.562"
        fill="#2D2D2D"
        id="rect5734"
        x="107.157"
        y="25.221"
        gorn="0.3.6.1"
      />
      <rect
        width="12.975"
        height="0.522"
        id="rect5736"
        opacity="0.35"
        x="107.157"
        y="29.258"
        gorn="0.3.6.2"
      />
      <path
        fill="#FFFFFF"
        id="path5738"
        d="M119.835,26.478c0,0.255-0.275,0.461-0.617,0.461H106.78c-0.34,0-0.617-0.188-0.617-0.443    v-0.369c0-0.256,0.277-0.479,0.617-0.479h12.438c0.342,0,0.617,0.207,0.617,0.461V26.478z"
        opacity="0.35"
        gorn="0.3.6.3"
      />
    </g>
    <g
      id="g5744"
      gorn="0.3.7">
      <path
        stroke="#6D6D6D"
        stroke-width="1"
        fill="#6D6D6D"
        id="path5742"
        d="M106.687,7.465c0-1.561-1.275-2.834-2.834-2.834h-0.031c-1.561,0-2.836-0.93-2.836-2.062    c0-1.132-1.273-2.061-2.834-2.061H28.507v54.701h69.645c1.561,0,2.834-0.93,2.834-2.062s1.275-2.061,2.836-2.061h0.031    c1.559,0,2.834-1.275,2.834-2.836V7.465L106.687,7.465z"
        gorn="0.3.7.0"
      />
    </g>
    <path
      id="path5746"
      d="M104.28,47.815h-0.029c-1.551,0-3.102,0.606-3.102,1.346c0,0.738-0.982,1.346-2.531,1.346H34.22v4.453   h63.833c1.547,0,2.812-0.926,2.812-2.055c0-1.129,1.27-2.055,2.816-2.055h0.031c1.549,0,2.814-1.271,2.814-2.824v-2.061   C106.53,46.983,105.829,47.815,104.28,47.815z"
      opacity="0.35"
      gorn="0.3.8"
    />
    <rect
      width="0.94"
      height="3.041"
      fill="#878787"
      id="rect5748"
      x="23.905"
      y="26.34"
      gorn="0.3.9"
    />
    <rect
      width="10.242"
      height="5.584"
      fill="#E5E500"
      id="rect5750"
      x="27.642"
      y="25.069"
      gorn="0.3.10"
    />
    <g
      id="g5756"
      gorn="0.3.11">
      <rect
        width="2.795"
        height="17.988"
        fill="#E5E500"
        id="rect5752"
        x="24.847"
        y="18.866"
        gorn="0.3.11.0"
      />
      <polygon
        points="35.158,25.069 35.158,0 27.642,0 27.642,26 37.884,26 37.884,29.719 27.642,29.719 27.642,55.721     35.158,55.721 35.158,30.653 37.884,30.653 37.884,25.069   "
        fill="#F3FF00"
        id="polygon5754"
        gorn="0.3.11.1"
      />
    </g>
    <path
      fill="#686868"
      id="path5758"
      d="M101.724,28.065c0,13.27-0.758,24.021-0.758,24.021V4.047   C100.966,4.047,101.724,14.803,101.724,28.065z"
      opacity="0.5"
      gorn="0.3.12"
    />
    <path
      fill="#FFFFFF"
      id="path5760"
      d="M99.819,17.839c0,1.417-1.425,2.564-3.181,2.564H41.119c-1.757,0-3.181-1.049-3.181-2.467   V5.144c0-1.418,1.424-2.668,3.181-2.668h55.519c1.756,0,3.181,1.15,3.181,2.568V17.839z"
      opacity="0.16"
      gorn="0.3.13"
    />
    <g
      id="g5764"
      opacity="0.16"
      gorn="0.3.14">
      <path
        fill="#FFFFFF"
        id="path5762"
        d="M105.595,18.178c0,0.78-0.639,1.417-1.417,1.417h-0.352c-0.777,0-1.417-0.638-1.417-1.417V7.685    c0-0.78,0.64-1.417,1.417-1.417h0.352c0.778,0,1.417,0.638,1.417,1.417V18.178z"
        gorn="0.3.14.0"
      />
    </g>
    <g
      id="g5770"
      gorn="0.3.15">
      <path
        id="path5766"
        d="M92.049,24.66c-1.034,0-1.876-0.841-1.876-1.875v-8.422c0-1.035,0.842-1.877,1.876-1.877s1.876,0.842,1.876,1.877v8.422    C93.925,23.818,93.083,24.66,92.049,24.66L92.049,24.66z"
        gorn="0.3.15.0"
      />
      <path
        fill="#6B6B6B"
        id="path5768"
        d="M92.049,12.986c0.759,0,1.376,0.618,1.376,1.377v8.422c0,0.76-0.617,1.375-1.376,1.375    s-1.376-0.615-1.376-1.375v-8.422C90.673,13.603,91.29,12.986,92.049,12.986 M92.049,11.986c-1.312,0-2.376,1.064-2.376,2.377    v8.422c0,1.312,1.062,2.375,2.376,2.375c1.312,0,2.376-1.062,2.376-2.375v-8.422C94.425,13.05,93.361,11.986,92.049,11.986    L92.049,11.986z"
        gorn="0.3.15.1"
      />
    </g>
    <g
      id="g5776"
      gorn="0.3.16">
      <path
        id="path5772"
        d="M92.049,43.234c-1.034,0-1.876-0.842-1.876-1.876v-8.421c0-1.035,0.842-1.877,1.876-1.877s1.876,0.842,1.876,1.877v8.421    C93.925,42.392,93.083,43.234,92.049,43.234L92.049,43.234z"
        gorn="0.3.16.0"
      />
      <path
        fill="#6B6B6B"
        id="path5774"
        d="M92.049,31.56c0.759,0,1.376,0.618,1.376,1.377v8.421c0,0.759-0.617,1.376-1.376,1.376    s-1.376-0.617-1.376-1.376v-8.421C90.673,32.178,91.29,31.56,92.049,31.56 M92.049,30.56c-1.312,0-2.376,1.064-2.376,2.377v8.421    c0,1.312,1.062,2.376,2.376,2.376c1.312,0,2.376-1.062,2.376-2.376v-8.421C94.425,31.625,93.361,30.56,92.049,30.56L92.049,30.56z    "
        gorn="0.3.16.1"
      />
    </g>
    <g
      id="g5782"
      gorn="0.3.17">
      <path
        id="path5778"
        d="M92.049,6.086c-1.034,0-1.876-0.843-1.876-1.875V0.5h3.752v3.711C93.925,5.245,93.083,6.086,92.049,6.086L92.049,6.086z"
        gorn="0.3.17.0"
      />
      <path
        fill="#6B6B6B"
        id="path5780"
        d="M93.425,1v3.211c0,0.758-0.617,1.375-1.376,1.375s-1.376-0.617-1.376-1.375V1H93.425 M94.425,0h-4.752    v4.211c0,1.312,1.062,2.375,2.376,2.375c1.312,0,2.376-1.063,2.376-2.375V0L94.425,0z"
        gorn="0.3.17.1"
      />
    </g>
    <g
      id="g5788"
      gorn="0.3.18">
      <path
        id="path5784"
        d="M90.173,55.221V51.51c0-1.035,0.842-1.877,1.876-1.877s1.876,0.842,1.876,1.877v3.711H90.173z"
        gorn="0.3.18.0"
      />
      <path
        fill="#6B6B6B"
        id="path5786"
        d="M92.049,50.133c0.759,0,1.376,0.618,1.376,1.377v3.211h-2.752V51.51    C90.673,50.751,91.29,50.133,92.049,50.133 M92.049,49.133c-1.312,0-2.376,1.062-2.376,2.377v4.211h4.752V51.51    C94.425,50.198,93.361,49.133,92.049,49.133L92.049,49.133z"
        gorn="0.3.18.1"
      />
    </g>
    <g
      id="wires"
      gorn="0.3.19">
      <path
        fill="#ED8F66"
        id="path5790"
        d="M19.884,10.438l-0.5,0.548v3l0.559,0.548h7.699v-4.097L19.884,10.438L19.884,10.438z M21.443,13.836    c-0.746,0-1.35-0.604-1.35-1.35c0-0.746,0.604-1.35,1.35-1.35s1.35,0.604,1.35,1.35C22.793,13.232,22.189,13.836,21.443,13.836z"
        gorn="0.3.19.0"
      />
      <path
        fill="#ED8F66"
        id="path5792"
        d="M19.884,41.208l-0.5,0.549v3l0.559,0.548h7.699v-4.097H19.884z M21.443,44.607    c-0.746,0-1.35-0.604-1.35-1.35s0.604-1.35,1.35-1.35s1.35,0.604,1.35,1.35S22.189,44.607,21.443,44.607z"
        gorn="0.3.19.1"
      />
      <line
        stroke="#ffd500"
        stroke-width="3"
        fill="none"
        id="connector0leg"
        y1="33.056999"
        y2="33.056999"
        x1="0"
        x2="2"
        gorn="0.3.19.2"
        stroke-linecap="round"
      />
      <line
        stroke="#32bf4f"
        stroke-width="3"
        fill="none"
        id="connector1leg"
        y1="25.573"
        y2="24.573"
        x1="0"
        x2="2"
        gorn="0.3.19.3"
        stroke-linecap="round"
      />
      <path
        stroke="#32BF4F"
        stroke-width="3"
        fill="none"
        id="path5796"
        d="M2,24.573 C7.5,21.227, 9.094,12.551, 19.321,12.551"
        gorn="0.3.19.4"
      />
      <path
        stroke="#FFD500"
        stroke-width="3"
        fill="none"
        id="path5798"
        d="M2,33.057 C9.512,33.397, 13.557,43.257, 19.221,43.257"
        gorn="0.3.19.5"
      />
    </g>
    <g
      stroke="none"
      stroke-width="0.72001183"
      fill="#808080"
      fill-opacity="1"
      id="text6949"
      stroke-opacity="1"
      font-size="4.00007"
      xml:space="preserve"
      gorn="0.3.20"
      font-style="normal"
      font-variant="normal"
      font-weight="normal"
      font-stretch="normal"
      line-height="1.25"
      font-family="OCRA"
      font-variant-ligatures="normal"
      font-variant-caps="normal"
      font-variant-numeric="normal"
      font-feature-settings="normal"
      text-align="start"
      writing-mode="lr"
      text-anchor="start"
      stroke-miterlimit="4"
      stroke-dasharray="none">
      <text
        id="tspan6978"
        x="2.9053094"
        y="3.5951402"
        gorn="0.3.20.0">TACH</text>
    </g>
    <g
      stroke="none"
      stroke-width="0.72001183"
      fill="#808080"
      fill-opacity="1"
      id="text6953"
      stroke-opacity="1"
      font-size="4.00007"
      xml:space="preserve"
      gorn="0.3.21"
      font-style="normal"
      font-variant="normal"
      font-weight="normal"
      font-stretch="normal"
      line-height="1.25"
      font-family="OCRA"
      font-variant-ligatures="normal"
      font-variant-caps="normal"
      font-variant-numeric="normal"
      font-feature-settings="normal"
      text-align="start"
      writing-mode="lr-tb"
      text-anchor="start"
      stroke-miterlimit="4"
      stroke-dasharray="none">
      <text
        id="tspan6980"
        x="4.2178316"
        y="54.595982"
        gorn="0.3.21.0">PWM</text>
    </g>
    <g
      stroke="none"
      stroke-width="0.72001183"
      fill="#808080"
      fill-opacity="1"
      id="text6984"
      stroke-opacity="1"
      font-size="4.00007"
      xml:space="preserve"
      gorn="0.3.22"
      font-style="normal"
      font-variant="normal"
      font-weight="normal"
      font-stretch="normal"
      line-height="1.25"
      font-family="OCRA"
      font-variant-ligatures="normal"
      font-variant-caps="normal"
      font-variant-numeric="normal"
      font-feature-settings="normal"
      text-align="start"
      writing-mode="lr-tb"
      text-anchor="start"
      stroke-miterlimit="4"
      stroke-dasharray="none">
      <text
        id="tspan6986"
        x="11.342949"
        y="21.501686"
        gorn="0.3.22.0">12V</text>
    </g>
    <g
      stroke="none"
      stroke-width="0.72001183"
      fill="#808080"
      fill-opacity="1"
      id="text6990"
      stroke-opacity="1"
      font-size="4.00007"
      xml:space="preserve"
      gorn="0.3.23"
      font-style="normal"
      font-variant="normal"
      font-weight="normal"
      font-stretch="normal"
      line-height="1.25"
      font-family="OCRA"
      font-variant-ligatures="normal"
      font-variant-caps="normal"
      font-variant-numeric="normal"
      font-feature-settings="normal"
      text-align="start"
      writing-mode="lr-tb"
      text-anchor="start"
      stroke-miterlimit="4"
      stroke-dasharray="none">
      <text
        id="tspan6992"
        x="11.905457"
        y="36.31443"
        gorn="0.3.23.0">GND</text>
    </g>
  </g>
</svg>
