<?xml version='1.0' encoding='UTF-8' standalone='no'?>
<!-- Created with Inkscape (http://www.inkscape.org/) -->
<svg xmlns="http://www.w3.org/2000/svg" viewBox="0 0 10.16 10.16" gorn="0" width="0.40000001in" version="1.1" id="svg5" height="0.40000001in" >
    <desc >
        <referenceFile >if tx_bread.svg</referenceFile>
    </desc>
    <defs id="defs2" />
    <g gorn="0.2" id="layer1" >
        <rect x="-4.7460244e-07" stroke-width="0.27326" gorn="0.2.0" y="1.4028042e-06" ry="1.3871781" fill="#000000" style="opacity:0.6;fill-rule:evenodd;" width="10.403839" rx="1.3004794" id="rect1516" height="10.403839" />
        <path fill-opacity="1" stroke-width="0.0516342" gorn="0.2.1" fill="#8c8c8c" style="opacity:1;fill-rule:evenodd;" d="M 1.61991,1.95072 V 1.6409147 H 1.9297151 2.2395205 V 1.95072 2.2605251 H 1.9297151 1.61991 Z" id="path864" />
        <path stroke-width="0.0516342" gorn="0.2.2" fill="#f2f2f2" style="opacity:1;fill-rule:evenodd;" d="M 4.8711099,1.9717246 V 1.6619193 H 5.180915 5.4907204 V 1.9717246 2.2815297 H 5.180915 4.8711099 Z" id="path1085" />
        <path stroke-width="0.0516342" gorn="0.2.3" fill="#f2f2f2" style="opacity:1;fill-rule:evenodd;" d="M 8.1433145,1.9200904 V 1.6102851 H 8.4531196 8.762925 V 1.9200904 2.2298955 H 8.4531196 8.1433145 Z" id="path1087" />
        <path stroke-width="0.0516342" gorn="0.2.4" fill="#f2f2f2" style="opacity:1;fill-rule:evenodd;" d="M 1.7135535,8.5047539 V 8.1949486 H 2.0233586 2.333164 V 8.5047539 8.8145593 H 2.0233586 1.7135535 Z" id="path1089" />
        <path stroke-width="0.0516342" gorn="0.2.5" fill="#f2f2f2" style="opacity:1;fill-rule:evenodd;" d="M 8.1223097,8.504754 V 8.1949487 H 8.4321148 8.7419202 V 8.504754 8.8145591 H 8.4321148 8.1223097 Z" id="path1091" />
        <circle cy="5.186605" stroke-width="0.264583" gorn="0.2.6" fill="#1a1a1a" style="opacity:1;fill-rule:evenodd;" id="path1705" r="1.6256" cx="5.2172346" />
        <rect x="4.5516796" stroke-width="0.264583" gorn="0.2.7" y="4.9131198" fill="#808080" style="opacity:0.6;fill-rule:evenodd;" width="1.30048" id="rect1853" height="0.65024" />
        <g  transform="scale(0.26458332)">
            <g >
                <g >
                    <path fill-opacity="1" stroke-width="0.195153" gorn="0.2.8.0.0.0" fill="#8c8c8c" style="opacity:0.6;fill-rule:evenodd;" d="M 18.441952,7.4158116 V 6.3424704 h 1.073342 1.073341 v 1.0733412 1.0733411 h -1.073341 -1.073342 z" id="path3597" />
                </g>
            </g>
        </g>
        <g  transform="scale(0.26458332)">
            <g >
                <g >
                    <path fill-opacity="1" stroke-width="0.195153" gorn="0.2.9.0.0.0" fill="#8c8c8c" style="opacity:0.6;fill-rule:evenodd;" d="M 30.93174,7.2206586 V 6.1473175 h 1.073341 1.073342 V 7.2206586 8.2939998 H 32.005081 30.93174 Z" id="path3636" />
                </g>
            </g>
        </g>
        <g  transform="scale(0.26458332)">
            <g >
                <g >
                    <path fill-opacity="1" stroke-width="0.195153" gorn="0.2.10.0.0.0" fill="#8c8c8c" style="opacity:0.6;fill-rule:evenodd;" d="m 30.736587,32.200234 v -1.073341 h 1.073342 1.073341 v 1.073341 1.073342 h -1.073341 -1.073342 z" id="path3675" />
                </g>
            </g>
        </g>
        <g  transform="scale(0.26458332)">
            <g >
                <g >
                    <path fill-opacity="1" stroke-width="0.195153" gorn="0.2.11.0.0.0" fill="#8c8c8c" style="opacity:1;fill-rule:evenodd;" d="m 6.5376233,32.200234 v -1.073341 h 1.0733412 1.0733411 v 1.073341 1.073342 H 7.6109645 6.5376233 Z" id="path3714" />
                </g>
            </g>
        </g>
        <g  transform="scale(0.26458332)">
            <g >
                <g >
                    <path fill-opacity="1" stroke-width="0.195153" gorn="0.2.12.0.0.0" fill="#8c8c8c" style="opacity:1;fill-rule:evenodd;" d="M 6.1473175,7.4158116 V 6.3424704 H 7.2206586 8.2939998 V 7.4158116 8.4891527 H 7.2206586 6.1473175 Z" id="connector0pin" />
                </g>
            </g>
        </g>
        <g  transform="scale(0.26458332)">
            <g >
                <g >
                    <path fill-opacity="1" stroke-width="0.195153" gorn="0.2.13.0.0.0" fill="#8c8c8c" style="opacity:1;fill-rule:evenodd;" d="M 18.441952,7.4158116 V 6.3424704 h 1.073342 1.073341 v 1.0733412 1.0733411 h -1.073341 -1.073342 z" id="connector1pin" />
                </g>
            </g>
        </g>
        <g  transform="scale(0.26458332)">
            <g >
                <g >
                    <path fill-opacity="1" stroke-width="0.195153" gorn="0.2.14.0.0.0" fill="#8c8c8c" style="opacity:1;fill-rule:evenodd;" d="M 30.93174,7.2206586 V 6.1473175 h 1.073341 1.073342 V 7.2206586 8.2939998 H 32.005081 30.93174 Z" id="connector2pin" />
                </g>
            </g>
        </g>
        <g  transform="scale(0.26458332)">
            <g >
                <g >
                    <path fill-opacity="1" stroke-width="0.195153" gorn="0.2.15.0.0.0" fill="#8c8c8c" style="opacity:1;fill-rule:evenodd;" d="m 30.736587,32.200234 v -1.073341 h 1.073342 1.073341 v 1.073341 1.073342 h -1.073341 -1.073342 z" id="connector3pin" />
                </g>
            </g>
        </g>
        <g  transform="scale(0.26458332)">
            <g >
                <g >
                    <path fill-opacity="1" stroke-width="0.195153" gorn="0.2.16.0.0.0" fill="#8c8c8c" style="opacity:1;fill-rule:evenodd;" d="m 6.5376233,32.200234 v -1.073341 h 1.0733412 1.0733411 v 1.073341 1.073342 H 7.6109645 6.5376233 Z" id="connector5pin" />
                </g>
            </g>
        </g>
    </g>
</svg>
