<?xml version='1.0' encoding='UTF-8'?>
<svg xmlns="http://www.w3.org/2000/svg" version="1.1" x="0in" y="0in" width="1.3in" height="1.1in" viewBox="0 0 33.02 27.94" >
    <desc >
        <referenceFile >Gizwits-WiFi-Witty-ESP-12F_schematic.svg</referenceFile>
    </desc>
    <g gorn="0.1"  id="schematic">
        <rect fill="#FFFFFF" x="5.23875" stroke="#000000" y="0.15875" width="22.5425" height="27.6225" class="interior rect" stroke-width="0.3175"  stroke-linecap="round"/>
        <g font-family="'Droid Sans'" stroke="none" stroke-width="0"  stroke-linecap="round">
            <g fill="none" font-size="1.23472" gorn="0.1.1.0"  id="pins">
                <g text-anchor="start" gorn="0.1.1.0.0"  id="pins-left">
                    <line y2="5.08" x1="0.123472" x2="5.20347" stroke="#787878" gorn="0.1.1.0.0.0" stroke-width="0.246944"  id="connector0pin" y1="5.08"/>
                    <text fill="#8c8c8c" x="5.69736" y="5.3269" >REST</text>
                    <rect x="-0.123472" y="4.9565" width="0.246944" height="0.246944" gorn="0.1.1.0.0.2"  id="connector0terminal"/>
                    <line y2="7.62" x1="0.123472" x2="5.20347" stroke="#787878" gorn="0.1.1.0.0.3" stroke-width="0.246944"  id="connector1pin" y1="7.62"/>
                    <text fill="#8c8c8c" x="5.69736" y="7.8669" >ADC</text>
                    <rect x="-0.123472" y="7.4965" width="0.246944" height="0.246944" gorn="0.1.1.0.0.5"  id="connector1terminal"/>
                    <line y2="10.16" x1="0.123472" x2="5.20347" stroke="#787878" gorn="0.1.1.0.0.6" stroke-width="0.246944"  id="connector2pin" y1="10.16"/>
                    <text fill="#8c8c8c" x="5.69736" y="10.4069" >CH_PD</text>
                    <rect x="-0.123472" y="10.0365" width="0.246944" height="0.246944" gorn="0.1.1.0.0.8"  id="connector2terminal"/>
                    <line y2="12.7" x1="0.123472" x2="5.20347" stroke="#787878" gorn="0.1.1.0.0.9" stroke-width="0.246944"  id="connector3pin" y1="12.7"/>
                    <text fill="#8c8c8c" x="5.69736" y="12.9469" >GPIO16</text>
                    <rect x="-0.123472" y="12.5765" width="0.246944" height="0.246944" gorn="0.1.1.0.0.11"  id="connector3terminal"/>
                    <line y2="15.24" x1="0.123472" x2="5.20347" stroke="#787878" gorn="0.1.1.0.0.12" stroke-width="0.246944"  id="connector4pin" y1="15.24"/>
                    <text fill="#8c8c8c" x="5.69736" y="15.4869" >GPIO14</text>
                    <rect x="-0.123472" y="15.1165" width="0.246944" height="0.246944" gorn="0.1.1.0.0.14"  id="connector4terminal"/>
                    <line y2="17.78" x1="0.123472" x2="5.20347" stroke="#787878" gorn="0.1.1.0.0.15" stroke-width="0.246944"  id="connector5pin" y1="17.78"/>
                    <text fill="#8c8c8c" x="5.69736" y="18.0269" >GPIO12</text>
                    <rect x="-0.123472" y="17.6565" width="0.246944" height="0.246944" gorn="0.1.1.0.0.17"  id="connector5terminal"/>
                    <line y2="20.32" x1="0.123472" x2="5.20347" stroke="#787878" gorn="0.1.1.0.0.18" stroke-width="0.246944"  id="connector6pin" y1="20.32"/>
                    <text fill="#8c8c8c" x="5.69736" y="20.5669" >GPIO13</text>
                    <rect x="-0.123472" y="20.1965" width="0.246944" height="0.246944" gorn="0.1.1.0.0.20"  id="connector6terminal"/>
                    <line y2="22.86" x1="0.123472" x2="5.20347" stroke="#787878" gorn="0.1.1.0.0.21" stroke-width="0.246944"  id="connector7pin" y1="22.86"/>
                    <text fill="#8c8c8c" x="5.69736" y="23.1069" >VCC</text>
                    <rect x="-0.123472" y="22.7365" width="0.246944" height="0.246944" gorn="0.1.1.0.0.23"  id="connector7terminal"/>
                </g>
                <g text-anchor="end" gorn="0.1.1.0.1"  id="right">
                    <line y2="5.08" x1="27.8165" x2="32.8965" stroke="#787878" gorn="0.1.1.0.1.0" stroke-width="0.246944"  id="connector15pin" y1="5.08"/>
                    <text fill="#8c8c8c" x="27.3226" y="5.3269" >TXD</text>
                    <rect x="32.8965" y="4.9565" width="0.246944" height="0.246944" gorn="0.1.1.0.1.2"  id="connector15terminal"/>
                    <line y2="7.62" x1="27.8165" x2="32.8965" stroke="#787878" gorn="0.1.1.0.1.3" stroke-width="0.246944"  id="connector14pin" y1="7.62"/>
                    <text fill="#8c8c8c" x="27.3226" y="7.8669" >RXD</text>
                    <rect x="32.8965" y="7.4965" width="0.246944" height="0.246944" gorn="0.1.1.0.1.5"  id="connector14terminal"/>
                    <line y2="10.16" x1="27.8165" x2="32.8965" stroke="#787878" gorn="0.1.1.0.1.6" stroke-width="0.246944"  id="connector13pin" y1="10.16"/>
                    <text fill="#8c8c8c" x="27.3226" y="10.4069" >GPIO5</text>
                    <rect x="32.8965" y="10.0365" width="0.246944" height="0.246944" gorn="0.1.1.0.1.8"  id="connector13terminal"/>
                    <line y2="12.7" x1="27.8165" x2="32.8965" stroke="#787878" gorn="0.1.1.0.1.9" stroke-width="0.246944"  id="connector12pin" y1="12.7"/>
                    <text fill="#8c8c8c" x="27.3226" y="12.9469" >GPIO4</text>
                    <rect x="32.8965" y="12.5765" width="0.246944" height="0.246944" gorn="0.1.1.0.1.11"  id="connector12terminal"/>
                    <line y2="15.24" x1="27.8165" x2="32.8965" stroke="#787878" gorn="0.1.1.0.1.12" stroke-width="0.246944"  id="connector11pin" y1="15.24"/>
                    <text fill="#8c8c8c" x="27.3226" y="15.4869" >GPIO0</text>
                    <rect x="32.8965" y="15.1165" width="0.246944" height="0.246944" gorn="0.1.1.0.1.14"  id="connector11terminal"/>
                    <line y2="17.78" x1="27.8165" x2="32.8965" stroke="#787878" gorn="0.1.1.0.1.15" stroke-width="0.246944"  id="connector10pin" y1="17.78"/>
                    <text fill="#8c8c8c" x="27.3226" y="18.0269" >GPIO2</text>
                    <rect x="32.8965" y="17.6565" width="0.246944" height="0.246944" gorn="0.1.1.0.1.17"  id="connector10terminal"/>
                    <line y2="20.32" x1="27.8165" x2="32.8965" stroke="#787878" gorn="0.1.1.0.1.18" stroke-width="0.246944"  id="connector9pin" y1="20.32"/>
                    <text fill="#8c8c8c" x="27.3226" y="20.5669" >GPIO15</text>
                    <rect x="32.8965" y="20.1965" width="0.246944" height="0.246944" gorn="0.1.1.0.1.20"  id="connector9terminal"/>
                    <line y2="22.86" x1="27.8165" x2="32.8965" stroke="#787878" gorn="0.1.1.0.1.21" stroke-width="0.246944"  id="connector8pin" y1="22.86"/>
                    <text fill="#8c8c8c" x="27.3226" y="23.1069" >GND</text>
                    <rect x="32.8965" y="22.7365" width="0.246944" height="0.246944" gorn="0.1.1.0.1.23"  id="connector8terminal"/>
                </g>
            </g>
            <g fill="#000000" font-size="1.49931" class="label" text-anchor="middle" >
                <text x="16.52" y="12" >Gizwits</text>
                <text x="16.52" y="14" >WiFi Witty</text>
                <text x="16.52" y="16" >ESP-12F</text>
            </g>
        </g>
    </g>
</svg>
