<?xml version='1.0' encoding='utf-8'?>
<!DOCTYPE svg>
<!-- Generator: Adobe Illustrator 16.0.0, SVG Export Plug-In . SVG Version: 6.00 Build 0)  -->
<svg xmlns="http://www.w3.org/2000/svg" id="svg4364"  width="0.408014in" viewBox="0 0 29.377 16.211" gorn="0" x="0px" y="0px" xmlns:xml="http://www.w3.org/XML/1998/namespace" xml:space="preserve" version="1.1" height="0.225153in" enable-background="new 0 0 29.377 16.211">
    <desc>
        <referenceFile>DS18B20_Probe_Cable__6924c6075e35b6f972a__pcb__bccde8b971aacc9e15e80641bad9cbb9.svg</referenceFile>
    </desc>
    <g id="pcb"  gorn="0.0">
        <g id="copper1"  gorn="0.0.0">
            <g id="copper0"  gorn="0.0.0.0">
                <path id="connector1pad"  gorn="0.0.0.0.0" stroke-linecap="round" stroke="#F6CA34" stroke-linejoin="round" fill="none" stroke-width="1.35" d="M8.717,7.928c0,1.174-0.952,2.126-2.126,2.126c-1.175,0-2.126-0.952-2.126-2.126s0.952-2.126,2.126-2.126C7.765,5.802,8.717,6.754,8.717,7.928z"/>
                <path id="connector2pad"  gorn="0.0.0.0.1" stroke-linecap="round" stroke="#F6CA34" stroke-linejoin="round" fill="none" stroke-width="1.35" d="M15.914,7.928c0,1.174-0.952,2.126-2.126,2.126c-1.175,0-2.126-0.952-2.126-2.126s0.952-2.126,2.126-2.126C14.962,5.802,15.914,6.754,15.914,7.928z"/>
                <path id="connector3pad"  gorn="0.0.0.0.2" stroke-linecap="round" stroke="#F6CA34" stroke-linejoin="round" fill="none" stroke-width="1.35" d="M23.113,7.928c0,1.174-0.953,2.126-2.126,2.126c-1.174,0-2.127-0.952-2.127-2.126s0.953-2.126,2.127-2.126C22.16,5.802,23.113,6.754,23.113,7.928z"/>
            </g>
        </g>
        <g id="silkscreen"  gorn="0.0.1">
            <g id="text213772"  gorn="0.0.1.0">
                <g  transform="matrix(1 0 0 1 20.2773 15.1274)">
                    <text id="tspan213774"  gorn="0.0.1.0.0.0" font-size="4" font-family="'DroidSans'">VCC</text>
                </g>
            </g>
            <g id="text213776"  gorn="0.0.1.1">
                <g  transform="matrix(1 0 0 1 12.2061 15.1274)">
                    <text id="tspan213778"  gorn="0.0.1.1.0.0" font-size="4" font-family="'DroidSans'">DQ</text>
                </g>
            </g>
            <g id="text213780"  gorn="0.0.1.2">
                <g  transform="matrix(1 0 0 1 2.1641 15.1274)">
                    <text id="tspan213782"  gorn="0.0.1.2.0.0" font-size="4" font-family="'DroidSans'">GND</text>
                </g>
            </g>
            <g id="text212393"  gorn="0.0.1.3">
                <g  transform="matrix(1 0 0 1 0 3.4277)">
                    <text id="tspan212395"  gorn="0.0.1.3.0.0" font-size="4" font-family="'DroidSans'">DS18B20 PROBE</text>
                </g>
            </g>
        </g>
    </g>
</svg>
