<?xml version='1.0' encoding='UTF-8' standalone='no'?>
<svg xmlns="http://www.w3.org/2000/svg" y="0in" gorn="0"  id="svg46" width="0.36998in" viewBox="0 0 26.6386 53.1482" version="1.2" x="0in" height="0.73817in">
    <desc >
        <referenceFile >SCR TO220 BB.svg</referenceFile>
    </desc>
    <metadata  id="metadata52">
        <rdf:RDF xmlns:rdf="http://www.w3.org/1999/02/22-rdf-syntax-ns#">
            <cc:Work xmlns:rdf="http://www.w3.org/1999/02/22-rdf-syntax-ns#" xmlns:cc="http://creativecommons.org/ns#" rdf:about="">
                <dc:format xmlns:dc="http://purl.org/dc/elements/1.1/">image/svg+xml</dc:format>
                <dc:type rdf:resource="http://purl.org/dc/dcmitype/StillImage" xmlns:dc="http://purl.org/dc/elements/1.1/" xmlns:rdf="http://www.w3.org/1999/02/22-rdf-syntax-ns#"/>
                <dc:title xmlns:dc="http://purl.org/dc/elements/1.1/"/>
            </cc:Work>
        </rdf:RDF>
    </metadata>
    <defs  id="defs50"/>
    <path stroke-width="2.16" gorn="0.3"  id="path2" stroke-linecap="round" fill="none" d="M6.48072,44.8682L6.48072,52.0682" stroke="#8c8c8c" stroke-linejoin="round"/>
    <path stroke-width="2.16" gorn="0.4"  id="path4" stroke-linecap="round" fill="none" d="M13.6793,44.8682L13.6793,52.0682" stroke="#8c8c8c" stroke-linejoin="round"/>
    <path stroke-width="2.16" gorn="0.5"  id="path6" stroke-linecap="round" fill="none" d="M20.8778,44.8682L20.8778,52.0682" stroke="#8c8c8c" stroke-linejoin="round"/>
    <g gorn="0.6"  id="g44" partID="880203760">
        <g gorn="0.6.0"  id="breadboard">
            <rect y="43.2" gorn="0.6.0.0"  id="connector0pin" width="2.16" x="5.40072" fill="none" height="0.72"/>
            <rect y="43.2" gorn="0.6.0.1"  id="connector1pin" width="2.16" x="12.5993" fill="none" height="0.72"/>
            <rect y="43.2" gorn="0.6.0.2"  id="connector2pin" width="2.16" x="19.7978" fill="none" height="0.72"/>
            <g stroke-width="2.16" gorn="0.6.0.3"  id="connector0leg" y2="72.317" y1="62.317" stroke-linecap="round" fill="none" stroke="#8C8C8C" x1="9.001" x2="9.001"/>
            <g stroke-width="2.16" gorn="0.6.0.4"  id="connector1leg" y2="72.317" y1="62.317" stroke-linecap="round" fill="none" stroke="#8C8C8C" x1="18.999" x2="18.999"/>
            <g stroke-width="2.16" gorn="0.6.0.5"  id="connector2leg" y2="72.317" y1="62.317" stroke-linecap="round" fill="none" stroke="#8C8C8C" x1="28.997" x2="28.997"/>
            <path gorn="0.6.0.6"  id="path14" fill="#BFBCBC" d="M24.4778,0.36L13.6793,0.36l0,1.80144c3.13488,0,5.67,1.77912,5.67,3.97224c-0.00144,2.19168,-2.53656,3.96936,-5.67,3.96936l0,5.82264l10.7986,0L24.4778,0.36z"/>
            <path gorn="0.6.0.7"  id="path16" fill="#808080" d="M8.01072,6.13008C8.01072,3.93624,10.5473,2.16,13.6793,2.16L13.6793,0.35928L2.88072,0.35928L2.88072,15.9192l10.7986,0l0,-5.82192C10.5473,10.0987,8.01072,8.32248,8.01072,6.13008z"/>
            <rect y="33.5016" gorn="0.6.0.8"  id="rect4" width="2.16" x="5.40072" fill="#8C8C8C" height="11.3666"/>
            <rect y="33.5016" gorn="0.6.0.9"  id="rect6" width="2.16" x="12.5993" fill="#8C8C8C" height="11.3666"/>
            <rect y="33.5016" gorn="0.6.0.10"  id="rect8" width="2.16" x="19.7978" fill="#8C8C8C" height="11.3666"/>
            <polygon gorn="0.6.0.11"  id="polygon10" points="0.36072,3.258,0.36072,12.8628,2.88072,12.8628,2.88072,0.36" fill="#CCCCCC"/>
            <polygon gorn="0.6.0.12"  id="polygon12" points="26.9978,3.258,24.4778,0.36,24.4778,12.8628,26.9978,12.8628" fill="#999999"/>
            <polygon gorn="0.6.0.13"  id="polygon21" points="9.00072,40.806,7.38792,41.526,5.57352,41.526,3.96072,40.806,3.96072,32.0364,9.00072,32.0364" fill="#8C8C8C"/>
            <polygon gorn="0.6.0.14"  id="polygon23" points="16.1993,40.806,14.5865,41.526,12.7728,41.526,11.1593,40.806,11.1593,32.0364,16.1993,32.0364" fill="#8C8C8C"/>
            <polygon gorn="0.6.0.15"  id="polygon25" points="23.3978,40.806,21.785,41.526,19.9721,41.526,18.3593,40.806,18.3593,32.0364,23.3978,32.0364" fill="#8C8C8C"/>
            <rect y="22.6958" gorn="0.6.0.16"  id="rect26" width="8.64" x="18.3593" fill="#141414" height="15.9998"/>
            <rect y="22.6958" gorn="0.6.0.17"  id="rect28" width="8.64" x="0.36072" fill="#333333" height="15.9998"/>
            <path gorn="0.6.0.18"  id="path40_1_" fill="#262626" d="M0.36072,28.5545l0,5.16672c2.0376,0,3.69,-1.15488,3.69,-2.58336C4.05072,29.7115,2.39832,28.5545,0.36072,28.5545z"/>
            <path gorn="0.6.0.19"  id="path47" d="M26.9978,28.5545c-2.0376,0,-3.69,1.15488,-3.69,2.58336c0,1.42488,1.6524,2.58336,3.69,2.58336L26.9978,28.5545z"/>
            <path gorn="0.6.0.20"  id="path32" fill="#1A1A1A" d="M0.36072,22.6958l0,7.11936c2.0376,0,3.69,1.15632,3.69,2.58336c0,1.42704,-1.6524,2.58336,-3.69,2.58336l0,3.71376l26.6386,0L26.9993,22.6958L0.36072,22.6958zM26.9978,34.9812c-2.0376,0,-3.69,-1.15488,-3.69,-2.58336c0,-1.42488,1.6524,-2.58336,3.69,-2.58336L26.9978,34.9812z"/>
            <rect y="19.3478" gorn="0.6.0.21"  id="rect49" width="26.6386" x="0.36072" height="3.34728"/>
            <rect y="15.2093" gorn="0.6.0.22"  id="rect51" width="26.6386" x="0.36072" fill="#333333" height="4.13856"/>
            <rect y="0.36" gorn="0.6.0.23"  id="rect53" width="21.5986" x="2.88072" fill="#B2B2B2" height="3.06"/>
            <path gorn="0.6.0.24"  id="path55" fill="#8C8C8C" d="M24.4778,2.70648L2.88072,2.70648l-2.52,2.89728l0,9.6048l26.6371,0L26.9978,5.60376L24.4778,2.70648zM13.6793,12.4459c-3.132,0,-5.66856,-1.77696,-5.66856,-3.96936c0,-2.19168,2.53656,-3.96792,5.66856,-3.96792c3.13488,0,5.67,1.77696,5.67,3.96792C19.3478,10.6682,16.8127,12.4459,13.6793,12.4459z"/>
            <g gorn="0.6.0.25"  id="g47"/>
            <g fill-opacity="1" font-size="7.50001097" stroke-width="0.75000107" gorn="0.6.0.26"  id="text864" aria-label="SCR" stroke-opacity="1" style="font-style:normal;font-variant:normal;font-weight:normal;font-stretch:normal;line-height:18.7500267;font-family:OCRA;-inkscape-font-specification:OCRA;font-variant-ligatures:normal;font-variant-caps:normal;font-variant-numeric:normal;text-align:start;letter-spacing:0px;word-spacing:0;writing-mode:lr-tb;text-anchor:start;stroke-linecap:butt;stroke-linejoin:miter;" fill="#ff6600" stroke="none">
                <path font-size="6.00002" stroke-width="0.600002" gorn="0.6.0.26.0"  id="path870" fill="#ff6600" d="m 6.4932937,27.995132 q 0,-0.157501 0.1050002,-0.270001 0.1125001,-0.1125 0.2700004,-0.1125 0.1575002,0 0.2700004,0.1125 0.1125001,0.1125 0.1125001,0.270001 0,0.105 0.075,0.18 0.075,0.075 0.1800003,0.075 h 1.8675027 q 0.0975,0 0.0975,-0.0975 L 6.665794,24.537627 Q 6.4932937,24.297626 6.4932937,24.012626 v -0.0225 q 0,-0.337501 0.2475004,-0.585001 0.2550004,-0.2475 0.6000009,-0.2475 h 1.8675027 q 0.4125006,0 0.712501,0.3 0.3075003,0.300001 0.3075003,0.712501 0,0.1575 -0.1125,0.270001 -0.1125,0.1125 -0.2700004,0.1125 -0.1575002,0 -0.2700004,-0.1125 -0.1050001,-0.112501 -0.1050001,-0.270001 0,-0.0975 -0.0825,-0.1725 -0.075,-0.0825 -0.1800003,-0.0825 H 7.340795 q -0.09,0 -0.09,0.075 v 0.0225 0.03 l 2.7900042,3.585005 q 0.1875,0.225001 0.1875,0.525001 -0.015,0.3525 -0.2625002,0.607501 -0.2400003,0.2475 -0.5925009,0.2475 H 7.5057952 q -0.4125006,0 -0.712501,-0.3 -0.3000005,-0.300001 -0.3000005,-0.712501 z"/>
                <path font-size="6.00002" stroke-width="0.600002" gorn="0.6.0.26.1"  id="path872" fill="#ff6600" d="m 11.913224,26.082629 q 0,-0.397501 0.18,-0.772501 l 0.757501,-1.530002 q 0.12,-0.270001 0.397501,-0.442501 0.285,-0.18 0.622501,-0.18 h 1.395002 q 0.1575,0 0.27,0.1125 0.1125,0.1125 0.1125,0.2625 0,0.1575 -0.1125,0.270001 -0.1125,0.1125 -0.27,0.1125 h -1.395002 q -0.232501,0 -0.330001,0.21 l -0.772501,1.522502 q -0.0975,0.210001 -0.0975,0.435001 0,0.225 0.0975,0.435001 l 0.772501,1.522502 q 0.0975,0.21 0.330001,0.21 h 1.395002 q 0.1575,0 0.27,0.1125 0.1125,0.1125 0.1125,0.262501 0,0.1575 -0.1125,0.27 -0.1125,0.1125 -0.27,0.1125 h -1.395002 q -0.330001,0 -0.607501,-0.18 -0.270001,-0.18 -0.405001,-0.450001 -0.555001,-1.057501 -0.765001,-1.522502 -0.18,-0.3825 -0.18,-0.772501 z"/>
                <path font-size="6.00002" stroke-width="0.600002" gorn="0.6.0.26.2"  id="path874" fill="#ff6600" d="m 17.333154,28.625133 v -5.467508 h 2.595003 q 0.465001,0 0.802502,0.3375 0.3375,0.337501 0.3375,0.802501 v 0.390001 q 0,0.465001 -0.345,0.802501 -0.337501,0.337501 -0.795002,0.337501 h -0.435 l 1.522502,2.610003 q 0.0525,0.105001 0.0525,0.187501 0,0.1575 -0.1125,0.27 -0.1125,0.1125 -0.27,0.1125 -0.217501,0 -0.330001,-0.1875 l -1.747502,-2.992504 h -0.517501 v 2.797504 q 0,0.1575 -0.1125,0.27 -0.112501,0.1125 -0.270001,0.1125 -0.1575,0 -0.27,-0.1125 -0.105,-0.1125 -0.105,-0.27 z m 0.757501,-3.555006 h 1.837502 q 0.150001,0 0.262501,-0.1125 0.12,-0.12 0.12,-0.27 v -0.390001 q 0,-0.1575 -0.12,-0.27 -0.1125,-0.1125 -0.262501,-0.1125 h -1.837502 z"/>
            </g>
        </g>
    </g>
</svg>
