<?xml version='1.0' encoding='UTF-8' standalone='no'?>
<!-- Created with Fritzing (http://www.fritzing.org/) -->
<svg xmlns="http://www.w3.org/2000/svg" height="0.897676in" x="0in" baseProfile="tiny" viewBox="0 0 2135.42 897.676"  y="0in" width="2.13542in" version="1.2">
    <desc >
        <referenceFile >dip_28_300mil_pcb.svg</referenceFile>
    </desc>
    <g id="copper1"  gorn="0.1">
        <g id="copper0"  gorn="0.1.0">
            <g  transform="rotate(-90)">
                <g >
                    <g >
                        <g >
                            <g >
                                <circle r="27.5" id="connector16pin"  fill="none" gorn="0.1.0.0.0.0.0.0.0" stroke="#ffbf00" stroke-width="20" cx="-710.162" cy="1677.8"/>
                            </g>
                        </g>
                    </g>
                </g>
            </g>
            <g  transform="rotate(-90)">
                <g >
                    <g >
                        <g >
                            <g >
                                <circle r="27.5" id="connector17pin"  fill="none" gorn="0.1.0.1.0.0.0.0.0" stroke="#ffbf00" stroke-width="20" cx="-710.162" cy="1777.8"/>
                            </g>
                        </g>
                    </g>
                </g>
            </g>
            <g  transform="rotate(-90)">
                <g >
                    <g >
                        <g >
                            <g >
                                <circle r="27.5" id="connector19pin"  fill="none" gorn="0.1.0.2.0.0.0.0.0" stroke="#ffbf00" stroke-width="20" cx="-183.311" cy="1677.78"/>
                            </g>
                        </g>
                    </g>
                </g>
            </g>
            <g  transform="rotate(-90)">
                <g >
                    <g >
                        <g >
                            <g >
                                <circle r="27.5" id="connector18pin"  fill="none" gorn="0.1.0.3.0.0.0.0.0" stroke="#ffbf00" stroke-width="20" cx="-183.311" cy="1777.78"/>
                            </g>
                        </g>
                    </g>
                </g>
            </g>
            <g  transform="rotate(-90)">
                <g >
                    <g >
                        <g >
                            <g >
                                <rect height="55" x="-837.662" id="square"  fill="none" y="250.312" gorn="0.1.0.4.0.0.0.0.0" stroke="#ffbf00" width="55" stroke-width="20"/>
                            </g>
                        </g>
                    </g>
                </g>
            </g>
            <g  transform="rotate(-90)">
                <g >
                    <g >
                        <g >
                            <g >
                                <circle r="27.5" id="connector0pin"  fill="none" gorn="0.1.0.5.0.0.0.0.0" stroke="#ffbf00" stroke-width="20" cx="-810.162" cy="277.812"/>
                            </g>
                        </g>
                    </g>
                </g>
            </g>
            <g  transform="rotate(-90)">
                <g >
                    <g >
                        <g >
                            <g >
                                <circle r="27.5" id="connector1pin"  fill="none" gorn="0.1.0.6.0.0.0.0.0" stroke="#ffbf00" stroke-width="20" cx="-810.162" cy="377.812"/>
                            </g>
                        </g>
                    </g>
                </g>
            </g>
            <g  transform="rotate(-90)">
                <g >
                    <g >
                        <g >
                            <g >
                                <circle r="27.5" id="connector2pin"  fill="none" gorn="0.1.0.7.0.0.0.0.0" stroke="#ffbf00" stroke-width="20" cx="-810.162" cy="477.812"/>
                            </g>
                        </g>
                    </g>
                </g>
            </g>
            <g  transform="rotate(-90)">
                <g >
                    <g >
                        <g >
                            <g >
                                <circle r="27.5" id="connector3pin"  fill="none" gorn="0.1.0.8.0.0.0.0.0" stroke="#ffbf00" stroke-width="20" cx="-810.162" cy="577.812"/>
                            </g>
                        </g>
                    </g>
                </g>
            </g>
            <g  transform="rotate(-90)">
                <g >
                    <g >
                        <g >
                            <g >
                                <circle r="27.5" id="connector4pin"  fill="none" gorn="0.1.0.9.0.0.0.0.0" stroke="#ffbf00" stroke-width="20" cx="-810.162" cy="677.812"/>
                            </g>
                        </g>
                    </g>
                </g>
            </g>
            <g  transform="rotate(-90)">
                <g >
                    <g >
                        <g >
                            <g >
                                <circle r="27.5" id="connector5pin"  fill="none" gorn="0.1.0.10.0.0.0.0.0" stroke="#ffbf00" stroke-width="20" cx="-810.162" cy="777.812"/>
                            </g>
                        </g>
                    </g>
                </g>
            </g>
            <g  transform="rotate(-90)">
                <g >
                    <g >
                        <g >
                            <g >
                                <circle r="27.5" id="connector6pin"  fill="none" gorn="0.1.0.11.0.0.0.0.0" stroke="#ffbf00" stroke-width="20" cx="-810.162" cy="877.812"/>
                            </g>
                        </g>
                    </g>
                </g>
            </g>
            <g  transform="rotate(-90)">
                <g >
                    <g >
                        <g >
                            <g >
                                <circle r="27.5" id="connector7pin"  fill="none" gorn="0.1.0.12.0.0.0.0.0" stroke="#ffbf00" stroke-width="20" cx="-810.162" cy="977.812"/>
                            </g>
                        </g>
                    </g>
                </g>
            </g>
            <g  transform="rotate(-90)">
                <g >
                    <g >
                        <g >
                            <g >
                                <circle r="27.5" id="connector8pin"  fill="none" gorn="0.1.0.13.0.0.0.0.0" stroke="#ffbf00" stroke-width="20" cx="-810.162" cy="1077.81"/>
                            </g>
                        </g>
                    </g>
                </g>
            </g>
            <g  transform="rotate(-90)">
                <g >
                    <g >
                        <g >
                            <g >
                                <circle r="27.5" id="connector9pin"  fill="none" gorn="0.1.0.14.0.0.0.0.0" stroke="#ffbf00" stroke-width="20" cx="-810.162" cy="1177.81"/>
                            </g>
                        </g>
                    </g>
                </g>
            </g>
            <g  transform="rotate(-90)">
                <g >
                    <g >
                        <g >
                            <g >
                                <circle r="27.5" id="connector10pin"  fill="none" gorn="0.1.0.15.0.0.0.0.0" stroke="#ffbf00" stroke-width="20" cx="-810.162" cy="1277.81"/>
                            </g>
                        </g>
                    </g>
                </g>
            </g>
            <g  transform="rotate(-90)">
                <g >
                    <g >
                        <g >
                            <g >
                                <circle r="27.5" id="connector11pin"  fill="none" gorn="0.1.0.16.0.0.0.0.0" stroke="#ffbf00" stroke-width="20" cx="-810.162" cy="1377.81"/>
                            </g>
                        </g>
                    </g>
                </g>
            </g>
            <g  transform="rotate(-90)">
                <g >
                    <g >
                        <g >
                            <g >
                                <circle r="27.5" id="connector12pin"  fill="none" gorn="0.1.0.17.0.0.0.0.0" stroke="#ffbf00" stroke-width="20" cx="-810.162" cy="1477.81"/>
                            </g>
                        </g>
                    </g>
                </g>
            </g>
            <g  transform="rotate(-90)">
                <g >
                    <g >
                        <g >
                            <g >
                                <circle r="27.5" id="connector14pin"  fill="none" gorn="0.1.0.18.0.0.0.0.0" stroke="#ffbf00" stroke-width="20" cx="-810.162" cy="1677.8"/>
                            </g>
                        </g>
                    </g>
                </g>
            </g>
            <g  transform="rotate(-90)">
                <g >
                    <g >
                        <g >
                            <g >
                                <circle r="27.5" id="connector13pin"  fill="none" gorn="0.1.0.19.0.0.0.0.0" stroke="#ffbf00" stroke-width="20" cx="-810.162" cy="1577.81"/>
                            </g>
                        </g>
                    </g>
                </g>
            </g>
            <g  transform="rotate(-90)">
                <g >
                    <g >
                        <g >
                            <g >
                                <circle r="27.5" id="connector15pin"  fill="none" gorn="0.1.0.20.0.0.0.0.0" stroke="#ffbf00" stroke-width="20" cx="-810.162" cy="1777.8"/>
                            </g>
                        </g>
                    </g>
                </g>
            </g>
            <g  transform="rotate(-90)">
                <g >
                    <g >
                        <g >
                            <g >
                                <rect height="55" x="-110.811" id="square-9"  fill="none" y="250.297" gorn="0.1.0.21.0.0.0.0.0" stroke="#ffbf00" width="55" stroke-width="20"/>
                            </g>
                        </g>
                    </g>
                </g>
            </g>
            <g  transform="rotate(-90)">
                <g >
                    <g >
                        <g >
                            <g >
                                <circle r="27.5" id="connector54pin"  fill="none" gorn="0.1.0.22.0.0.0.0.0" stroke="#ffbf00" stroke-width="20" cx="-83.3114" cy="277.797"/>
                            </g>
                        </g>
                    </g>
                </g>
            </g>
            <g  transform="rotate(-90)">
                <g >
                    <g >
                        <g >
                            <g >
                                <circle r="27.5" id="connector53pin"  fill="none" gorn="0.1.0.23.0.0.0.0.0" stroke="#ffbf00" stroke-width="20" cx="-83.3114" cy="377.797"/>
                            </g>
                        </g>
                    </g>
                </g>
            </g>
            <g  transform="rotate(-90)">
                <g >
                    <g >
                        <g >
                            <g >
                                <circle r="27.5" id="connector52pin"  fill="none" gorn="0.1.0.24.0.0.0.0.0" stroke="#ffbf00" stroke-width="20" cx="-83.3114" cy="477.797"/>
                            </g>
                        </g>
                    </g>
                </g>
            </g>
            <g  transform="rotate(-90)">
                <g >
                    <g >
                        <g >
                            <g >
                                <circle r="27.5" id="connector51pin"  fill="none" gorn="0.1.0.25.0.0.0.0.0" stroke="#ffbf00" stroke-width="20" cx="-83.3114" cy="577.797"/>
                            </g>
                        </g>
                    </g>
                </g>
            </g>
            <g  transform="rotate(-90)">
                <g >
                    <g >
                        <g >
                            <g >
                                <circle r="27.5" id="connector50pin"  fill="none" gorn="0.1.0.26.0.0.0.0.0" stroke="#ffbf00" stroke-width="20" cx="-83.3114" cy="677.797"/>
                            </g>
                        </g>
                    </g>
                </g>
            </g>
            <g  transform="rotate(-90)">
                <g >
                    <g >
                        <g >
                            <g >
                                <circle r="27.5" id="connector49pin"  fill="none" gorn="0.1.0.27.0.0.0.0.0" stroke="#ffbf00" stroke-width="20" cx="-83.3114" cy="777.797"/>
                            </g>
                        </g>
                    </g>
                </g>
            </g>
            <g  transform="rotate(-90)">
                <g >
                    <g >
                        <g >
                            <g >
                                <circle r="27.5" id="connector48pin"  fill="none" gorn="0.1.0.28.0.0.0.0.0" stroke="#ffbf00" stroke-width="20" cx="-83.3114" cy="877.797"/>
                            </g>
                        </g>
                    </g>
                </g>
            </g>
            <g  transform="rotate(-90)">
                <g >
                    <g >
                        <g >
                            <g >
                                <circle r="27.5" id="connector47pin"  fill="none" gorn="0.1.0.29.0.0.0.0.0" stroke="#ffbf00" stroke-width="20" cx="-83.3114" cy="977.797"/>
                            </g>
                        </g>
                    </g>
                </g>
            </g>
            <g  transform="rotate(-90)">
                <g >
                    <g >
                        <g >
                            <g >
                                <circle r="27.5" id="connector27pin"  fill="none" gorn="0.1.0.30.0.0.0.0.0" stroke="#ffbf00" stroke-width="20" cx="-83.3114" cy="1077.8"/>
                            </g>
                        </g>
                    </g>
                </g>
            </g>
            <g  transform="rotate(-90)">
                <g >
                    <g >
                        <g >
                            <g >
                                <circle r="27.5" id="connector26pin"  fill="none" gorn="0.1.0.31.0.0.0.0.0" stroke="#ffbf00" stroke-width="20" cx="-83.3114" cy="1177.8"/>
                            </g>
                        </g>
                    </g>
                </g>
            </g>
            <g  transform="rotate(-90)">
                <g >
                    <g >
                        <g >
                            <g >
                                <circle r="27.5" id="connector25pin"  fill="none" gorn="0.1.0.32.0.0.0.0.0" stroke="#ffbf00" stroke-width="20" cx="-83.3114" cy="1277.8"/>
                            </g>
                        </g>
                    </g>
                </g>
            </g>
            <g  transform="rotate(-90)">
                <g >
                    <g >
                        <g >
                            <g >
                                <circle r="27.5" id="connector24pin"  fill="none" gorn="0.1.0.33.0.0.0.0.0" stroke="#ffbf00" stroke-width="20" cx="-83.3114" cy="1377.8"/>
                            </g>
                        </g>
                    </g>
                </g>
            </g>
            <g  transform="rotate(-90)">
                <g >
                    <g >
                        <g >
                            <g >
                                <circle r="27.5" id="connector23pin"  fill="none" gorn="0.1.0.34.0.0.0.0.0" stroke="#ffbf00" stroke-width="20" cx="-83.3114" cy="1477.8"/>
                            </g>
                        </g>
                    </g>
                </g>
            </g>
            <g  transform="rotate(-90)">
                <g >
                    <g >
                        <g >
                            <g >
                                <circle r="27.5" id="connector21pin"  fill="none" gorn="0.1.0.35.0.0.0.0.0" stroke="#ffbf00" stroke-width="20" cx="-83.3115" cy="1677.78"/>
                            </g>
                        </g>
                    </g>
                </g>
            </g>
            <g  transform="rotate(-90)">
                <g >
                    <g >
                        <g >
                            <g >
                                <circle r="27.5" id="connector22pin"  fill="none" gorn="0.1.0.36.0.0.0.0.0" stroke="#ffbf00" stroke-width="20" cx="-83.3114" cy="1577.8"/>
                            </g>
                        </g>
                    </g>
                </g>
            </g>
            <g  transform="rotate(-90)">
                <g >
                    <g >
                        <g >
                            <g >
                                <circle r="27.5" id="connector20pin"  fill="none" gorn="0.1.0.37.0.0.0.0.0" stroke="#ffbf00" stroke-width="20" cx="-83.3115" cy="1777.78"/>
                            </g>
                        </g>
                    </g>
                </g>
            </g>
        </g>
    </g>
    <g id="silkscreen"  gorn="0.2">
        <rect height="843.204" x="30.3762" id="rect921"  fill="none" style="stroke-miterlimit:4;stroke-dasharray:none;" y="26.7806" gorn="0.2.0" stroke="#000000" fill-opacity="1" width="1815.65" stroke-opacity="1" stroke-width="3.9375"/>
        <g  transform="matrix(1, 0, 0, 1, 28.4077, -0.715634)">
            <g >
                <g >
                    <g >
                        <g >
                            <g id="g1187"  fill="#ffcc00" gorn="0.2.1.0.0.0.0.0">
                                <path id="path1364"  fill="#ffcc00" gorn="0.2.1.0.0.0.0.0.0" stroke="#000000" d="M1818.09,284.622L1818.09,575.753" stroke-width="2.91253"/>
                                <path id="path1366"  fill="#ffcc00" gorn="0.2.1.0.0.0.0.0.1" stroke="#000000" d="m1818.09,575.753l39.3941,0" stroke-width="2.91253"/>
                                <path id="path1368"  fill="#ffcc00" gorn="0.2.1.0.0.0.0.0.2" stroke="#000000" d="M1857.48,575.753L1857.48,284.622" stroke-width="2.91253"/>
                                <path id="path1370"  fill="#ffcc00" gorn="0.2.1.0.0.0.0.0.3" stroke="#000000" d="m1857.48,284.622l-39.3941,0" stroke-width="2.91253"/>
                                <path id="path1372"  fill="#ffcc00" gorn="0.2.1.0.0.0.0.0.4" stroke="#000000" d="m1857.48,516.77l39.3937,0" stroke-width="2.91253"/>
                                <path id="path1374"  fill="#ffcc00" gorn="0.2.1.0.0.0.0.0.5" stroke="#000000" d="m1857.48,343.664l39.3937,0" stroke-width="2.91253"/>
                                <path id="path1376"  fill="#ffcc00" gorn="0.2.1.0.0.0.0.0.6" stroke="#000000" d="M1896.87,325.963L1896.87,534.471" stroke-width="2.91253"/>
                                <path id="path1378"  fill="#ffcc00" gorn="0.2.1.0.0.0.0.0.7" stroke="#000000" d="m1896.87,325.963l208.683,0" stroke-width="2.91253"/>
                                <path id="path1380"  fill="#ffcc00" gorn="0.2.1.0.0.0.0.0.8" stroke="#000000" d="M2105.56,325.963L2105.56,534.471" stroke-width="2.91253"/>
                                <path id="path1382"  fill="#ffcc00" gorn="0.2.1.0.0.0.0.0.9" stroke="#000000" d="M2105.56,534.471L1896.87,534.471" stroke-width="2.91253"/>
                                <path id="path1384"  fill="#ffcc00" gorn="0.2.1.0.0.0.0.0.10" stroke="#000000" d="M1912.61,310.242L1912.61,550.192" stroke-width="2.91253"/>
                                <path id="path1386"  fill="#ffcc00" gorn="0.2.1.0.0.0.0.0.11" stroke="#000000" d="M2089.77,310.242L2089.77,550.192" stroke-width="2.91253"/>
                                <path id="path1388"  fill="#ffcc00" gorn="0.2.1.0.0.0.0.0.12" stroke="#000000" d="m1912.61,310.242l177.156,0" stroke-width="2.91253"/>
                                <path id="path1390"  fill="#ffcc00" gorn="0.2.1.0.0.0.0.0.13" stroke="#000000" d="m1912.61,550.192l177.156,0" stroke-width="2.91253"/>
                                <path id="path1392"  fill="#ffcc00" gorn="0.2.1.0.0.0.0.0.14" stroke="#000000" d="m1896.87,325.963,15.7343,-15.7209" stroke-width="2.91253"/>
                                <path id="path1394"  fill="#ffcc00" gorn="0.2.1.0.0.0.0.0.15" stroke="#000000" d="m2089.77,310.242,15.7921,15.7209" stroke-width="2.91253"/>
                                <path id="path1396"  fill="#ffcc00" gorn="0.2.1.0.0.0.0.0.16" stroke="#000000" d="m1896.87,534.471,15.7343,15.7213" stroke-width="2.91253"/>
                                <path id="path1398"  fill="#ffcc00" gorn="0.2.1.0.0.0.0.0.17" stroke="#000000" d="m2105.56,534.471,-15.7921,15.7213" stroke-width="2.91253"/>
                            </g>
                        </g>
                    </g>
                </g>
            </g>
        </g>
        <g  transform="matrix(1, 0, 0, 1, 35.8533, 24.8121)">
            <g >
                <g >
                    <g >
                        <g >
                            <g id="g1087"  gorn="0.2.2.0.0.0.0.0">
                                <path id="path242"  fill="none" gorn="0.2.2.0.0.0.0.0.0" stroke="#000000" d="M66.0668,0.22563L66.0668,-23.3559" stroke-width="2.91253"/>
                                <path id="path244"  fill="none" gorn="0.2.2.0.0.0.0.0.1" stroke="#000000" d="M66.0668,-23.3559L121.137,-23.3559" stroke-width="2.91253"/>
                                <path id="path246"  fill="none" gorn="0.2.2.0.0.0.0.0.2" stroke="#000000" d="M121.137,-23.3559L121.137,0.22563" stroke-width="2.91253"/>
                            </g>
                        </g>
                    </g>
                </g>
            </g>
        </g>
        <g  transform="matrix(1, 0, 0, 1, 20.9621, 24.8121)">
            <g >
                <g >
                    <g >
                        <g >
                            <g id="g1092"  gorn="0.2.3.0.0.0.0.0">
                                <path id="path242-2"  fill="none" gorn="0.2.3.0.0.0.0.0.0" stroke="#000000" d="M80.958,871.407L80.958,847.826" stroke-width="2.91253"/>
                                <path id="path244-5"  fill="none" gorn="0.2.3.0.0.0.0.0.1" stroke="#000000" d="M136.028,871.407L80.958,871.407" stroke-width="2.91253"/>
                                <path id="path246-8"  fill="none" gorn="0.2.3.0.0.0.0.0.2" stroke="#000000" d="m136.028,847.826l0,23.5815" stroke-width="2.91253"/>
                            </g>
                        </g>
                    </g>
                </g>
            </g>
        </g>
        <g  transform="matrix(1, 0, 0, 1, 28.4077, 24.8121)">
            <g >
                <g >
                    <g >
                        <g >
                            <g id="g1402"  gorn="0.2.4.0.0.0.0.0">
                                <path id="path48"  fill="none" gorn="0.2.4.0.0.0.0.0.0" stroke="#000000" d="M-26.9514,512.815L-26.9514,296.446" stroke-width="2.91253"/>
                                <path id="path50"  fill="none" gorn="0.2.4.0.0.0.0.0.1" stroke="#000000" d="m-26.9514,296.446l6.93472,0" stroke-width="2.91253"/>
                                <path id="path52"  fill="none" gorn="0.2.4.0.0.0.0.0.2" stroke="#000000" d="M-20.0167,296.446L-20.0167,404.631" stroke-width="2.91253"/>
                                <path id="path56"  fill="none" gorn="0.2.4.0.0.0.0.0.3" stroke="#000000" d="m-26.9514,296.446l6.93472,0" stroke-width="2.91253"/>
                                <path id="path58"  fill="none" gorn="0.2.4.0.0.0.0.0.4" stroke="#000000" d="m10.4029,279.387l-28.6713,0" stroke-width="2.91253"/>
                                <path id="path60"  fill="none" gorn="0.2.4.0.0.0.0.0.5" stroke="#000000" d="m-18.2684,279.387,-3.90472,3.14567m0,0,-2.91339,4.13425m0,0,-1.63149,4.7748m0,0,-0.23229,5.00709" stroke-width="2.91253"/>
                                <path id="path62"  fill="none" gorn="0.2.4.0.0.0.0.0.6" stroke="#000000" d="m-13.1402,279.387,-3.55472,5.12362m0,0,-2.33111,5.82244m0,0,-0.99055,6.11378" stroke-width="2.91253"/>
                                <path id="path126"  fill="none" gorn="0.2.4.0.0.0.0.0.7" stroke="#000000" d="M10.4029,276.067L3.8761,276.067" stroke-width="2.91253"/>
                                <path id="path128"  fill="none" gorn="0.2.4.0.0.0.0.0.8" stroke="#000000" d="M3.8761,275.893L3.8761,256.969" stroke-width="2.91253"/>
                                <path id="path130"  fill="none" gorn="0.2.4.0.0.0.0.0.9" stroke="#000000" d="m3.8761,256.969l6.52677,0" stroke-width="2.91253"/>
                                <path id="path132"  fill="none" gorn="0.2.4.0.0.0.0.0.10" stroke="#000000" d="m-14.1892,262.326,2.56418,5.41496m0,0,4.19579,4.36732m0,0,5.30307,2.79528m0,0,6.00232,0.98818" stroke-width="2.91253"/>
                                <path id="path134"  fill="none" gorn="0.2.4.0.0.0.0.0.11" stroke="#000000" d="m-1.95142,254.931,5.82752,2.03937" stroke-width="2.91253"/>
                                <path id="path136"  fill="none" gorn="0.2.4.0.0.0.0.0.12" stroke="#000000" d="m-1.95142,254.931,-12.2378,7.39449" stroke-width="2.91253"/>
                                <path id="path154"  fill="none" gorn="0.2.4.0.0.0.0.0.13" stroke="#000000" d="M10.4029,404.631L10.4029,256.969" stroke-width="2.91253"/>
                                <path id="path156"  fill="none" gorn="0.2.4.0.0.0.0.0.14" stroke="#000000" d="m-1.95142,254.931,-12.2378,7.39449" stroke-width="2.91253"/>
                                <path id="path158"  fill="none" gorn="0.2.4.0.0.0.0.0.15" stroke="#000000" d="M-14.1892,262.326,-1.95142,254.931" stroke-width="2.91253"/>
                                <path id="path160"  fill="none" gorn="0.2.4.0.0.0.0.0.16" stroke="#000000" d="M-1.95142,254.931,-9.2941,243.286" stroke-width="2.91253"/>
                                <path id="path162"  fill="none" gorn="0.2.4.0.0.0.0.0.17" stroke="#000000" d="m-14.1892,262.326,-7.16779,-12.402" stroke-width="2.91253"/>
                                <path id="path164"  fill="none" gorn="0.2.4.0.0.0.0.0.18" stroke="#000000" d="m-21.357,249.924,12.0629,-6.6378" stroke-width="2.91253"/>
                                <path id="path170"  fill="none" gorn="0.2.4.0.0.0.0.0.19" stroke="#000000" d="M-20.0167,512.815L-20.0167,404.631" stroke-width="2.91253"/>
                                <path id="path176"  fill="none" gorn="0.2.4.0.0.0.0.0.20" stroke="#000000" d="m10.4029,529.933l-28.6713,0" stroke-width="2.91253"/>
                                <path id="path178"  fill="none" gorn="0.2.4.0.0.0.0.0.21" stroke="#000000" d="m-26.9514,512.815,0.23228,5.06575m0,0,1.63189,4.7748m0,0,2.91339,4.13386m0,0,3.90472,3.14567" stroke-width="2.91253"/>
                                <path id="path180"  fill="none" gorn="0.2.4.0.0.0.0.0.22" stroke="#000000" d="m-20.0167,512.815,1.10709,6.11378m0,0,2.3311,5.82244m0,0,3.43819,5.18228" stroke-width="2.91253"/>
                                <path id="path196"  fill="none" gorn="0.2.4.0.0.0.0.0.23" stroke="#000000" d="M10.4029,533.252L3.8761,533.252" stroke-width="2.91253"/>
                                <path id="path198"  fill="none" gorn="0.2.4.0.0.0.0.0.24" stroke="#000000" d="m3.8761,533.427l0,18.9232" stroke-width="2.91253"/>
                                <path id="path200"  fill="none" gorn="0.2.4.0.0.0.0.0.25" stroke="#000000" d="m3.8761,552.35l6.52677,0" stroke-width="2.91253"/>
                                <path id="path202"  fill="none" gorn="0.2.4.0.0.0.0.0.26" stroke="#000000" d="m3.8761,533.427,-6.00232,0.98823m0,0,-5.30307,2.79527m0,0,-4.19579,4.30867m0,0,-2.56417,5.47323" stroke-width="2.91253"/>
                                <path id="path204"  fill="none" gorn="0.2.4.0.0.0.0.0.27" stroke="#000000" d="M-1.95142,554.389,3.8761,552.349" stroke-width="2.91253"/>
                                <path id="path206"  fill="none" gorn="0.2.4.0.0.0.0.0.28" stroke="#000000" d="M-1.95142,554.389,-14.1892,546.994" stroke-width="2.91253"/>
                                <path id="path224"  fill="none" gorn="0.2.4.0.0.0.0.0.29" stroke="#000000" d="M10.4029,404.631L10.4029,552.35" stroke-width="2.91253"/>
                                <path id="path226"  fill="none" gorn="0.2.4.0.0.0.0.0.30" stroke="#000000" d="M-1.95142,554.389,-14.1892,546.994" stroke-width="2.91253"/>
                                <path id="path228"  fill="none" gorn="0.2.4.0.0.0.0.0.31" stroke="#000000" d="m-14.1892,546.994,12.2378,7.39489" stroke-width="2.91253"/>
                                <path id="path230"  fill="none" gorn="0.2.4.0.0.0.0.0.32" stroke="#000000" d="M-1.95142,554.389,-9.2941,566.034" stroke-width="2.91253"/>
                                <path id="path232"  fill="none" gorn="0.2.4.0.0.0.0.0.33" stroke="#000000" d="m-14.1892,546.994,-7.16779,12.4024" stroke-width="2.91253"/>
                                <path id="path234"  fill="none" gorn="0.2.4.0.0.0.0.0.34" stroke="#000000" d="m-21.357,559.396,12.0629,6.63779" stroke-width="2.91253"/>
                            </g>
                        </g>
                    </g>
                </g>
            </g>
        </g>
    </g>
</svg>
