<?xml version='1.0' encoding='UTF-8' standalone='no'?>
<svg
  xmlns:dc="http://purl.org/dc/elements/1.1/"
  xmlns:cc="http://creativecommons.org/ns#"
  xmlns:rdf="http://www.w3.org/1999/02/22-rdf-syntax-ns#"
  xmlns:svg="http://www.w3.org/2000/svg"
  xmlns="http://www.w3.org/2000/svg"
  id="svg2"
  y="0in"
  version="1.2"
  height="0.9525727in"
  width="4.1505365in"
  x="0in"
  viewBox="0 0 4150.5363 952.57265">
  <metadata
    id="metadata24">
    <rdf:RDF>
      <cc:Work
        rdf:about="">
        <dc:format>image/svg+xml</dc:format>
        <dc:type
          rdf:resource="http://purl.org/dc/dcmitype/StillImage"
        />
        <dc:title/>
      </cc:Work>
    </rdf:RDF>
  </metadata>
  <defs
    id="defs22"
  />
  <desc
    id="desc4">
    <referenceFile>pt100_1_breadboard.svg</referenceFile>
  </desc>
  <g
    id="breadboard">
    <rect
      id="rect363"
      width="1958.0872"
      height="225.80376"
      x="82.516022"
      y="346.33359"
      fill="#b3b3b3"
      stroke="#808080"
      stroke-width="10.4167"
    />
    <ellipse
      id="path365"
      cx="66.539459"
      cy="459.49863"
      rx="66.539459"
      ry="112.90188"
      fill="#b3b3b3"
      stroke="none"
      stroke-width="0"
    />
    <rect
      id="rect367"
      width="549.42761"
      height="665.38824"
      x="2046.1381"
      y="132.52182"
      fill="#b3b3b3"
      stroke="#808080"
      stroke-width="10.4167"
    />
    <rect
      id="rect369"
      width="222.84175"
      height="942.15594"
      x="2594.1382"
      y="5.2083502"
      fill="#b3b3b3"
      stroke="#808080"
      stroke-width="10.4167"
    />
    <rect
      id="rect371"
      width="222.84175"
      height="820.37817"
      x="2815.5522"
      y="66.097267"
      fill="#b3b3b3"
      stroke="#808080"
      stroke-width="10.4167"
    />
    <rect
      id="rect373"
      width="222.84175"
      height="266.84283"
      x="2815.5522"
      y="619.63269"
      fill="#cccccc"
      stroke="#808080"
      stroke-width="10.4167"
    />
    <rect
      id="rect375"
      width="222.84175"
      height="571.28729"
      x="3047.8311"
      y="165.73349"
      fill="#b3b3b3"
      stroke="#808080"
      stroke-width="10.4167"
    />
    <rect
      id="rect377"
      width="123.20538"
      height="825.91357"
      x="3201.374"
      y="66.097023"
      fill="#b3b3b3"
      stroke="#808080"
      stroke-width="10.4167"
    />
    <rect
      id="rect379"
      width="123.20538"
      height="329.75885"
      x="3201.374"
      y="562.25183"
      fill="#999999"
      stroke="#808080"
      stroke-width="10.4167"
    />
    <rect
      id="rect381"
      width="23.569019"
      height="825.91357"
      x="3335.2324"
      y="66.097023"
      fill="#c83737"
      stroke="#808080"
      stroke-width="10.4167"
    />
    <rect
      id="rect383"
      width="123.20538"
      height="825.91357"
      x="3366.7285"
      y="66.097023"
      fill="#b3b3b3"
      stroke="#808080"
      stroke-width="10.4167"
    />
    <rect
      id="rect385"
      width="123.20538"
      height="329.75885"
      x="3366.7285"
      y="562.25183"
      fill="#999999"
      stroke="#808080"
      stroke-width="10.4167"
    />
    <rect
      id="rect387"
      width="222.84175"
      height="482.72165"
      x="3487.5312"
      y="221.08725"
      fill="#b3b3b3"
      stroke="#808080"
      stroke-width="10.4167"
    />
    <rect
      id="rect389"
      width="222.84175"
      height="183.81253"
      x="2815.5522"
      y="60.592628"
      fill="#999999"
      stroke="#808080"
      stroke-width="10.4167"
    />
    <ellipse
      id="ellipse391"
      cx="3728.1763"
      cy="456.73129"
      rx="47.165722"
      ry="242.98268"
      fill="#999999"
      stroke="none"
      stroke-width="0"
    />
    <line
      fill="none"
      id="line412"
      stroke="#ffff00"
      stroke-linecap="round"
      stroke-width="9.99999"
      x1="3745.5366"
      x2="4145.5361"
      y1="460.38437"
      y2="460.38437"
    />
    <line
      fill="#800080"
      id="line404"
      stroke="#800000"
      stroke-linecap="round"
      stroke-width="9.99999"
      x1="3745.5366"
      x2="4145.5361"
      y1="424.96786"
      y2="360.38437"
    />
    <line
      fill="#ff0000"
      id="line406"
      stroke="#ff0000"
      stroke-linecap="round"
      stroke-width="9.99999"
      x1="3745.5366"
      x2="4145.5361"
      y1="489.55234"
      y2="560.3844"
    />
    <rect
      id="connector0pin"
      width="9.999999"
      height="9.999999"
      x="4140.5361"
      y="355.80112"
      fill="none"
      stroke="none"
      stroke-width="0"
    />
    <rect
      id="connector1pin"
      width="9.999999"
      height="9.999999"
      x="4140.5361"
      y="455.38437"
      fill="none"
      stroke="none"
      stroke-width="0"
    />
    <rect
      id="connector2pin"
      width="9.999999"
      height="9.999999"
      x="4140.5361"
      y="555.3844"
      fill="none"
      stroke="none"
      stroke-width="0"
    />
  </g>
</svg>
