<?xml version='1.0' encoding='UTF-8' standalone='no'?>
<svg
  xmlns="http://www.w3.org/2000/svg"
  version="1.2"
  baseProfile="tiny"
  viewBox="0 0 475 86"
  height="0.086in"
  width="0.475in">
  <desc>
    <referenceFile>ThisIsATest_03ddd293a250f61fdc6df934ce4de187_2_pcb.svg</referenceFile>
  </desc>
  <desc>Fritzing
    footprint
    SVG</desc>
  <g
    gorn="0.2"
    id="silkscreen">
    <line
      y2="43"
      y1="43"
      x2="147"
      stroke-width="10"
      stroke="#000000"
      x1="75"
    />
    <line
      y2="43"
      y1="43"
      x2="400"
      stroke-width="10"
      stroke="#000000"
      x1="347"
    />
    <line
      y2="10"
      y1="10"
      x2="347"
      stroke-width="10"
      stroke="#000000"
      x1="147"
    />
    <line
      y2="76"
      y1="10"
      x2="347"
      stroke-width="10"
      stroke="#000000"
      x1="347"
    />
    <line
      y2="76"
      y1="76"
      x2="147"
      stroke-width="10"
      stroke="#000000"
      x1="347"
    />
    <line
      y2="10"
      y1="76"
      x2="147"
      stroke-width="10"
      stroke="#000000"
      x1="147"
    />
  </g>
  <g
    gorn="0.3"
    id="copper0">
    <g
      gorn="0.3.0"
      id="copper1">
      <!-- <rect width="55" x="10" y="15.5" fill="none" height="55" stroke="rgb(255, 191, 0)" stroke-width="20" />  -->
      <circle
        fill="none"
        cx="37.5"
        gorn="0.3.0.0"
        stroke-width="20"
        id="connector0pin"
        r="27.5"
        stroke="rgb(255, 191, 0)"
        cy="43"
      />
      <circle
        fill="none"
        cx="437.5"
        gorn="0.3.0.1"
        stroke-width="20"
        id="connector1pin"
        r="27.5"
        stroke="rgb(255, 191, 0)"
        cy="43"
      />
    </g>
  </g>
  <g
    gorn="0.4"
    id="keepout"
  />
  <g
    gorn="0.5"
    id="soldermask"
  />
  <g
    gorn="0.6"
    id="outline"
  />
</svg>
