<?xml version='1.0' encoding='UTF-8' standalone='no'?>
<!-- Created with Inkscape (http://www.inkscape.org/) -->
<svg xmlns="http://www.w3.org/2000/svg" version="1.1" height="7.9642859mm" viewBox="0 0 20.880514 7.9642859" width="20.880514mm" id="svg4673"  gorn="0">
    <desc >
        <referenceFile >894x-2C_icon.svg</referenceFile>
    </desc>
    <defs id="defs4667" />
    <metadata id="metadata4670" >
        <rdf:RDF xmlns:rdf="http://www.w3.org/1999/02/22-rdf-syntax-ns#">
            <cc:Work xmlns:cc="http://creativecommons.org/ns#" rdf:about="" xmlns:rdf="http://www.w3.org/1999/02/22-rdf-syntax-ns#">
                <dc:format xmlns:dc="http://purl.org/dc/elements/1.1/">image/svg+xml</dc:format>
                <dc:type rdf:resource="http://purl.org/dc/dcmitype/StillImage" xmlns:dc="http://purl.org/dc/elements/1.1/" xmlns:rdf="http://www.w3.org/1999/02/22-rdf-syntax-ns#"/>
                <dc:title xmlns:dc="http://purl.org/dc/elements/1.1/"/>
            </cc:Work>
        </rdf:RDF>
    </metadata>
    <g transform="translate(-117.27378,-91.188755)" >
        <g >
            <g >
                <g >
                    <g >
                        <g >
                            <g id="layer1"  gorn="0.3.0.0.0.0.0.0">
                                <rect height="7.8303981" fill-opacity="1" fill="#323232" style="stroke-linecap:butt;stroke-linejoin:bevel;stroke-miterlimit:4;stroke-dasharray:none;" width="20.746626" stroke-opacity="1" stroke="#000000" x="117.34072" y="91.255699" id="rect815"  gorn="0.3.0.0.0.0.0.0.0" stroke-width="0.13388799"/>
                                <g transform="translate(67.020468,-18.229519)" >
                                    <g >
                                        <g >
                                            <g >
                                                <g >
                                                    <g >
                                                        <g fill-opacity="1" font-size="0.542735" fill="#000000" style="font-style:normal;font-weight:normal;line-height:1.25;font-family:Droid Sans;letter-spacing:0px;word-spacing:0px;" aria-label="12V DC" stroke="none" id="text823"  gorn="0.3.0.0.0.0.0.0.1.0.0.0.0.0.0" stroke-width="0.04807692">
                                                            <path fill-opacity="1" fill="#ffffff" style="font-style:normal;font-variant:normal;font-weight:normal;font-stretch:normal;font-family:OCRA;-inkscape-font-specification:OCRA;" d="m 66.904869,114.5276 q 0,-0.0385 0.02692,-0.0673 0.02885,-0.0288 0.06923,-0.0288 h 0.284615 v -1.11154 h -0.284615 q -0.04039,0 -0.06923,-0.0288 -0.02692,-0.0288 -0.02692,-0.0692 0,-0.0385 0.02692,-0.0673 0.02885,-0.0288 0.06923,-0.0288 h 0.478846 v 1.30577 h 0.188461 v -0.39231 q 0,-0.0404 0.02692,-0.0692 0.02885,-0.0289 0.06923,-0.0289 0.04039,0 0.06923,0.0289 0.02885,0.0289 0.02885,0.0692 v 0.48846 q 0,0.0404 -0.02885,0.0692 -0.02885,0.0289 -0.06923,0.0289 h -0.763461 q -0.04039,0 -0.06923,-0.0289 -0.02692,-0.0288 -0.02692,-0.0692 z" id="path1166"  gorn="0.3.0.0.0.0.0.0.1.0.0.0.0.0.0.0" stroke-width="0.04807692"/>
                                                            <path fill-opacity="1" fill="#ffffff" style="font-style:normal;font-variant:normal;font-weight:normal;font-stretch:normal;font-family:OCRA;-inkscape-font-specification:OCRA;" d="m 68.294592,114.62568 v -0.65385 q 0,-0.0788 0.05769,-0.13461 0.05769,-0.0577 0.136538,-0.0577 h 0.569231 v -0.45962 h -0.667308 q -0.04038,0 -0.06923,-0.0288 -0.02692,-0.0288 -0.02692,-0.0692 0,-0.0385 0.02692,-0.0673 0.02885,-0.0288 0.06923,-0.0288 h 0.667308 q 0.07692,0 0.134615,0.0577 0.05962,0.0577 0.05962,0.13654 v 0.45962 q 0,0.0769 -0.05769,0.13461 -0.05769,0.0577 -0.136538,0.0577 h -0.569231 v 0.45962 h 0.665385 q 0.04038,0 0.06923,0.0288 0.02885,0.0289 0.02885,0.0673 0,0.0404 -0.02885,0.0692 -0.02885,0.0289 -0.06923,0.0289 z" id="path1168"  gorn="0.3.0.0.0.0.0.0.1.0.0.0.0.0.0.1" stroke-width="0.04807692"/>
                                                            <path fill-opacity="1" fill="#ffffff" style="font-style:normal;font-variant:normal;font-weight:normal;font-stretch:normal;font-family:OCRA;-inkscape-font-specification:OCRA;" d="m 69.684316,113.56991 v -0.34808 q 0,-0.0385 0.02692,-0.0673 0.02885,-0.0288 0.06923,-0.0288 0.04038,0 0.06923,0.0288 0.02885,0.0288 0.02885,0.0673 v 0.30962 l 0.284615,0.72692 0.284615,-0.72692 v -0.30962 q 0,-0.0385 0.02692,-0.0673 0.02885,-0.0288 0.06923,-0.0288 0.04039,0 0.06923,0.0288 0.02885,0.0288 0.02885,0.0673 v 0.34616 l -0.388461,0.99615 q -0.025,0.0615 -0.09038,0.0615 -0.06731,0 -0.09231,-0.0615 z" id="path1170"  gorn="0.3.0.0.0.0.0.0.1.0.0.0.0.0.0.2" stroke-width="0.04807692"/>
                                                            <path fill-opacity="1" fill="#ffffff" style="font-style:normal;font-variant:normal;font-weight:normal;font-stretch:normal;font-family:OCRA;-inkscape-font-specification:OCRA;" d="m 72.463763,114.5276 q 0,-0.0385 0.02692,-0.0673 0.02885,-0.0288 0.06923,-0.0288 h 0.09423 v -1.11154 h -0.09423 q -0.04039,0 -0.06923,-0.0288 -0.02692,-0.0288 -0.02692,-0.0692 0,-0.0385 0.02692,-0.0673 0.02885,-0.0288 0.06923,-0.0288 h 0.357692 q 0.08461,0 0.153846,0.0461 0.07115,0.0462 0.105769,0.11539 l 0.196154,0.39038 q 0.04808,0.1 0.04808,0.19808 0,0.0981 -0.04808,0.19808 l -0.194231,0.3923 q -0.03077,0.0692 -0.103846,0.11539 -0.07115,0.0442 -0.157692,0.0442 h -0.357692 q -0.04039,0 -0.06923,-0.0289 -0.02692,-0.0288 -0.02692,-0.0692 z m 0.384615,-0.0962 h 0.06923 q 0.05962,0 0.08461,-0.0538 l 0.198077,-0.39038 q 0.02692,-0.0654 0.02692,-0.11154 0,-0.0577 -0.02692,-0.11154 l -0.198077,-0.39038 q -0.025,-0.0539 -0.08461,-0.0539 h -0.06923 z" id="path1172"  gorn="0.3.0.0.0.0.0.0.1.0.0.0.0.0.0.3" stroke-width="0.04807692"/>
                                                            <path fill-opacity="1" fill="#ffffff" style="font-style:normal;font-variant:normal;font-weight:normal;font-stretch:normal;font-family:OCRA;-inkscape-font-specification:OCRA;" d="m 73.853487,113.87568 q 0,-0.10192 0.04615,-0.19808 l 0.19423,-0.39231 q 0.03077,-0.0692 0.101923,-0.11346 0.07308,-0.0461 0.159616,-0.0461 h 0.357692 q 0.04039,0 0.06923,0.0288 0.02885,0.0288 0.02885,0.0673 0,0.0404 -0.02885,0.0692 -0.02885,0.0288 -0.06923,0.0288 H 74.35541 q -0.05962,0 -0.08462,0.0539 l -0.198077,0.39038 q -0.025,0.0538 -0.025,0.11154 0,0.0577 0.025,0.11154 l 0.198077,0.39038 q 0.025,0.0538 0.08462,0.0538 h 0.357692 q 0.04039,0 0.06923,0.0288 0.02885,0.0289 0.02885,0.0673 0,0.0404 -0.02885,0.0692 -0.02885,0.0289 -0.06923,0.0289 H 74.35541 q -0.08462,0 -0.15577,-0.0461 -0.06923,-0.0462 -0.103846,-0.11539 -0.142307,-0.27115 -0.196153,-0.39038 -0.04615,-0.0981 -0.04615,-0.19808 z" id="path1174"  gorn="0.3.0.0.0.0.0.0.1.0.0.0.0.0.0.4" stroke-width="0.04807692"/>
                                                        </g>
                                                    </g>
                                                </g>
                                            </g>
                                        </g>
                                    </g>
                                </g>
                                <g transform="translate(67.048466,-18.453505)" >
                                    <g >
                                        <g >
                                            <g >
                                                <g >
                                                    <g >
                                                        <g fill-opacity="1" font-size="0.542735" fill="#000000" style="font-style:normal;font-weight:normal;line-height:1.25;font-family:Droid Sans;letter-spacing:0px;word-spacing:0px;" aria-label="8A 250V AC" stroke="none" id="text827"  gorn="0.3.0.0.0.0.0.0.2.0.0.0.0.0.0" stroke-width="0.04807692">
                                                            <path fill-opacity="1" fill="#ffffff" style="font-style:normal;font-variant:normal;font-weight:normal;font-stretch:normal;font-family:OCRA;-inkscape-font-specification:OCRA;" d="m 61.345974,116.60775 v -0.45962 q 0,-0.0788 0.05577,-0.13654 0.05769,-0.0577 0.136538,-0.0577 v -0.55577 q 0,-0.0404 0.02692,-0.0673 0.02692,-0.0289 0.06731,-0.0289 h 0.382692 q 0.04039,0 0.06731,0.0289 0.02692,0.0269 0.02692,0.0673 v 0.55577 q 0.07692,0 0.134616,0.0596 0.05962,0.0577 0.05962,0.13461 v 0.45962 q 0,0.0788 -0.05962,0.13654 -0.05769,0.0577 -0.134616,0.0577 H 61.53828 q -0.07885,0 -0.136538,-0.0577 -0.05577,-0.0577 -0.05577,-0.13654 z m 0.192307,0 h 0.571154 v -0.45962 h -0.571154 z m 0.192308,-0.65385 h 0.186538 v -0.45769 h -0.186538 z" id="path1177"  gorn="0.3.0.0.0.0.0.0.2.0.0.0.0.0.0.0" stroke-width="0.04807692"/>
                                                            <path fill-opacity="1" fill="#ffffff" style="font-style:normal;font-variant:normal;font-weight:normal;font-stretch:normal;font-family:OCRA;-inkscape-font-specification:OCRA;" d="m 62.729928,116.7039 0.390385,-1.33269 q 0.0096,-0.0308 0.03461,-0.05 0.025,-0.0192 0.05769,-0.0192 0.03269,0 0.05962,0.0192 0.02692,0.0192 0.03462,0.05 l 0.388462,1.33269 q 0,0.0404 -0.03077,0.0692 -0.02885,0.0289 -0.06923,0.0289 -0.03269,0 -0.05769,-0.0192 -0.025,-0.0192 -0.03461,-0.05 l -0.075,-0.25769 h -0.428846 l -0.075,0.25769 q -0.0096,0.0308 -0.03654,0.05 -0.025,0.0192 -0.05769,0.0192 -0.04039,0 -0.07115,-0.0289 -0.02885,-0.0288 -0.02885,-0.0692 z m 0.326923,-0.42307 h 0.313462 l -0.157693,-0.53462 z" id="path1179"  gorn="0.3.0.0.0.0.0.0.2.0.0.0.0.0.0.1" stroke-width="0.04807692"/>
                                                            <path fill-opacity="1" fill="#ffffff" style="font-style:normal;font-variant:normal;font-weight:normal;font-stretch:normal;font-family:OCRA;-inkscape-font-specification:OCRA;" d="m 65.515144,116.80198 v -0.65385 q 0,-0.0788 0.05769,-0.13461 0.05769,-0.0577 0.136539,-0.0577 h 0.569231 v -0.45962 h -0.667308 q -0.04039,0 -0.06923,-0.0289 -0.02692,-0.0288 -0.02692,-0.0692 0,-0.0385 0.02692,-0.0673 0.02885,-0.0289 0.06923,-0.0289 h 0.667308 q 0.07692,0 0.134615,0.0577 0.05962,0.0577 0.05962,0.13654 v 0.45962 q 0,0.0769 -0.05769,0.13461 -0.05769,0.0577 -0.136538,0.0577 H 65.70938 v 0.45962 h 0.665384 q 0.04039,0 0.06923,0.0288 0.02885,0.0289 0.02885,0.0673 0,0.0404 -0.02885,0.0692 -0.02885,0.0289 -0.06923,0.0289 z" id="path1181"  gorn="0.3.0.0.0.0.0.0.2.0.0.0.0.0.0.2" stroke-width="0.04807692"/>
                                                            <path fill-opacity="1" fill="#ffffff" style="font-style:normal;font-variant:normal;font-weight:normal;font-stretch:normal;font-family:OCRA;-inkscape-font-specification:OCRA;" d="m 66.904868,116.62313 q 0,-0.0404 0.02692,-0.0673 0.02885,-0.0289 0.06923,-0.0289 0.02308,0 0.03846,0.008 l 0.173077,0.0731 h 0.455769 v -0.45962 h -0.573077 v -0.84615 h 0.669231 q 0.04039,0 0.06923,0.0289 0.02885,0.0288 0.02885,0.0673 0,0.0404 -0.02885,0.0692 -0.02885,0.0289 -0.06923,0.0289 h -0.475 v 0.45769 h 0.378846 q 0.07692,0 0.134616,0.0596 0.05962,0.0577 0.05962,0.13461 v 0.45962 q 0,0.0788 -0.05962,0.13654 -0.05769,0.0577 -0.134616,0.0577 h -0.436538 q -0.03846,0 -0.07885,-0.01 -0.03846,-0.01 -0.06346,-0.0192 -0.025,-0.0115 -0.06731,-0.0308 -0.04231,-0.0212 -0.05962,-0.0288 -0.05769,-0.025 -0.05769,-0.0904 z" id="path1183"  gorn="0.3.0.0.0.0.0.0.2.0.0.0.0.0.0.3" stroke-width="0.04807692"/>
                                                            <path fill-opacity="1" fill="#ffffff" style="font-style:normal;font-variant:normal;font-weight:normal;font-stretch:normal;font-family:OCRA;-inkscape-font-specification:OCRA;" d="m 68.294592,116.60775 v -1.11154 q 0,-0.0789 0.05769,-0.13654 0.05769,-0.0577 0.136538,-0.0577 h 0.569231 q 0.07692,0 0.134615,0.0577 0.05962,0.0577 0.05962,0.13654 v 1.11154 q 0,0.0788 -0.05962,0.13654 -0.05769,0.0577 -0.134615,0.0577 H 68.48882 q -0.07885,0 -0.136538,-0.0577 -0.05769,-0.0577 -0.05769,-0.13654 z m 0.19423,0 h 0.569231 v -1.11154 h -0.569231 z" id="path1185"  gorn="0.3.0.0.0.0.0.0.2.0.0.0.0.0.0.4" stroke-width="0.04807692"/>
                                                            <path fill-opacity="1" fill="#ffffff" style="font-style:normal;font-variant:normal;font-weight:normal;font-stretch:normal;font-family:OCRA;-inkscape-font-specification:OCRA;" d="m 69.684314,115.74621 v -0.34808 q 0,-0.0385 0.02692,-0.0673 0.02885,-0.0289 0.06923,-0.0289 0.04039,0 0.06923,0.0289 0.02885,0.0288 0.02885,0.0673 v 0.30962 l 0.284616,0.72692 0.284615,-0.72692 v -0.30962 q 0,-0.0385 0.02692,-0.0673 0.02885,-0.0289 0.06923,-0.0289 0.04038,0 0.06923,0.0289 0.02885,0.0288 0.02885,0.0673 v 0.34616 l -0.388462,0.99615 q -0.025,0.0615 -0.09038,0.0615 -0.06731,0 -0.09231,-0.0615 z" id="path1187"  gorn="0.3.0.0.0.0.0.0.2.0.0.0.0.0.0.5" stroke-width="0.04807692"/>
                                                            <path fill-opacity="1" fill="#ffffff" style="font-style:normal;font-variant:normal;font-weight:normal;font-stretch:normal;font-family:OCRA;-inkscape-font-specification:OCRA;" d="m 72.457993,116.7039 0.390384,-1.33269 q 0.0096,-0.0308 0.03462,-0.05 0.025,-0.0192 0.05769,-0.0192 0.03269,0 0.05961,0.0192 0.02692,0.0192 0.03462,0.05 l 0.388461,1.33269 q 0,0.0404 -0.03077,0.0692 -0.02885,0.0289 -0.06923,0.0289 -0.03269,0 -0.05769,-0.0192 -0.025,-0.0192 -0.03462,-0.05 l -0.075,-0.25769 h -0.428847 l -0.075,0.25769 q -0.0096,0.0308 -0.03654,0.05 -0.025,0.0192 -0.05769,0.0192 -0.04039,0 -0.07115,-0.0289 -0.02885,-0.0288 -0.02885,-0.0692 z m 0.326923,-0.42307 h 0.313461 l -0.157692,-0.53462 z" id="path1189"  gorn="0.3.0.0.0.0.0.0.2.0.0.0.0.0.0.6" stroke-width="0.04807692"/>
                                                            <path fill-opacity="1" fill="#ffffff" style="font-style:normal;font-variant:normal;font-weight:normal;font-stretch:normal;font-family:OCRA;-inkscape-font-specification:OCRA;" d="m 73.853486,116.05198 q 0,-0.10192 0.04615,-0.19808 l 0.19423,-0.39231 q 0.03077,-0.0692 0.101923,-0.11346 0.07308,-0.0461 0.159616,-0.0461 h 0.357692 q 0.04039,0 0.06923,0.0289 0.02885,0.0288 0.02885,0.0673 0,0.0404 -0.02885,0.0692 -0.02885,0.0289 -0.06923,0.0289 h -0.357692 q -0.05962,0 -0.08462,0.0538 l -0.198077,0.39038 q -0.025,0.0539 -0.025,0.11154 0,0.0577 0.025,0.11154 l 0.198077,0.39038 q 0.025,0.0538 0.08462,0.0538 h 0.357692 q 0.04039,0 0.06923,0.0288 0.02885,0.0289 0.02885,0.0673 0,0.0404 -0.02885,0.0692 -0.02885,0.0289 -0.06923,0.0289 h -0.357692 q -0.08462,0 -0.155769,-0.0461 -0.06923,-0.0462 -0.103847,-0.11539 -0.142307,-0.27115 -0.196153,-0.39038 -0.04615,-0.0981 -0.04615,-0.19808 z" id="path1191"  gorn="0.3.0.0.0.0.0.0.2.0.0.0.0.0.0.7" stroke-width="0.04807692"/>
                                                        </g>
                                                    </g>
                                                </g>
                                            </g>
                                        </g>
                                    </g>
                                </g>
                                <g transform="translate(69.428316,-15.877667)" >
                                    <g >
                                        <g >
                                            <g >
                                                <g >
                                                    <g >
                                                        <g id="g1701"  gorn="0.3.0.0.0.0.0.0.3.0.0.0.0.0.0">
                                                            <path fill-opacity="1" font-size="0.723647" fill="#ffffff" style="font-style:normal;font-variant:normal;font-weight:normal;font-stretch:normal;line-height:1.25;font-family:OCRA;-inkscape-font-specification:OCRA;letter-spacing:0px;word-spacing:0px;stroke-miterlimit:4;stroke-dasharray:none;" stroke-opacity="0.97241378" d="m 48.444601,109.85118 v -0.61282 q 0,-0.10513 0.07436,-0.18205 0.07692,-0.0769 0.182051,-0.0769 v -0.74102 q 0,-0.0538 0.0359,-0.0897 0.0359,-0.0385 0.08974,-0.0385 h 0.510256 q 0.05385,0 0.08974,0.0385 0.0359,0.0359 0.0359,0.0897 v 0.74102 q 0.102564,0 0.179487,0.0795 0.07949,0.0769 0.07949,0.17949 v 0.61282 q 0,0.10513 -0.07949,0.18205 -0.07692,0.0769 -0.179487,0.0769 h -0.761539 q -0.105128,0 -0.182051,-0.0769 -0.07436,-0.0769 -0.07436,-0.18205 z m 0.25641,0 h 0.761539 v -0.61282 h -0.761539 z m 0.256411,-0.8718 h 0.248718 v -0.61025 h -0.248718 z" stroke="none" id="path1143"  gorn="0.3.0.0.0.0.0.0.3.0.0.0.0.0.0.0" stroke-width="0"/>
                                                            <path fill-opacity="1" font-size="0.723647" fill="#ffffff" style="font-style:normal;font-variant:normal;font-weight:normal;font-stretch:normal;line-height:1.25;font-family:OCRA;-inkscape-font-specification:OCRA;letter-spacing:0px;word-spacing:0px;stroke-miterlimit:4;stroke-dasharray:none;" stroke-opacity="0.97241378" d="m 50.297566,108.8922 v -0.65384 q 0,-0.0513 0.0359,-0.0897 0.03846,-0.0385 0.09231,-0.0385 h 1.017949 q 0.05385,0 0.09231,0.0385 0.03846,0.0385 0.03846,0.0897 v 1.74102 q 0,0.0538 -0.03846,0.0923 -0.03846,0.0385 -0.09231,0.0385 H 51.31552 q -0.05385,0 -0.09231,-0.0385 -0.0359,-0.0385 -0.0359,-0.0923 0,-0.0513 0.0359,-0.0897 0.03846,-0.0385 0.09231,-0.0385 v -0.82821 h -0.889744 q -0.05385,0 -0.09231,-0.0385 -0.0359,-0.0385 -0.0359,-0.0923 z m 0.25641,-0.1282 h 0.761539 v -0.39487 h -0.761539 z" stroke="none" id="path1145"  gorn="0.3.0.0.0.0.0.0.3.0.0.0.0.0.0.1" stroke-width="0"/>
                                                            <path fill-opacity="1" font-size="0.723647" fill="#ffffff" style="font-style:normal;font-variant:normal;font-weight:normal;font-stretch:normal;line-height:1.25;font-family:OCRA;-inkscape-font-specification:OCRA;letter-spacing:0px;word-spacing:0px;stroke-miterlimit:4;stroke-dasharray:none;" stroke-opacity="0.97241378" d="m 52.212069,109.45631 v -1.21795 q 0,-0.0513 0.03846,-0.0897 0.03846,-0.0385 0.09231,-0.0385 0.05385,0 0.08974,0.0385 0.03846,0.0385 0.03846,0.0897 v 0.95897 h 0.505128 v -0.74102 q 0,-0.0538 0.03846,-0.0897 0.03846,-0.0385 0.09231,-0.0385 0.05128,0 0.08974,0.0385 0.03846,0.0359 0.03846,0.0897 v 0.74102 q 0.05385,0 0.08974,0.0385 0.03846,0.0385 0.03846,0.0923 0,0.0538 -0.03846,0.0923 -0.0359,0.0359 -0.08974,0.0359 v 0.52307 q 0,0.0538 -0.03846,0.0923 -0.03846,0.0385 -0.08974,0.0385 -0.05385,0 -0.09231,-0.0385 -0.03846,-0.0385 -0.03846,-0.0923 v -0.52307 z" stroke="none" id="path1147"  gorn="0.3.0.0.0.0.0.0.3.0.0.0.0.0.0.2" stroke-width="0"/>
                                                            <path fill-opacity="1" font-size="0.723647" fill="#ffffff" style="font-style:normal;font-variant:normal;font-weight:normal;font-stretch:normal;line-height:1.25;font-family:OCRA;-inkscape-font-specification:OCRA;letter-spacing:0px;word-spacing:0px;stroke-miterlimit:4;stroke-dasharray:none;" stroke-opacity="0.97241378" d="m 54.003495,109.97938 q 0,-0.0487 0.02564,-0.0821 l 0.44359,-0.53333 -0.41282,-0.49744 q -0.03077,-0.0385 -0.03077,-0.0821 0,-0.0538 0.03846,-0.0923 0.03846,-0.0385 0.09231,-0.0385 0.05897,0 0.1,0.0487 l 0.382051,0.45898 0.379487,-0.45898 q 0.04103,-0.0487 0.1,-0.0487 0.05385,0 0.09231,0.0385 0.03846,0.0385 0.03846,0.0923 0,0.0436 -0.03077,0.0821 l -0.41282,0.49744 0.443589,0.53333 q 0.02821,0.0359 0.02821,0.0821 0,0.0538 -0.03846,0.0923 -0.03846,0.0385 -0.09231,0.0385 -0.06154,0 -0.1,-0.0462 l -0.407692,-0.49487 -0.410256,0.49487 q -0.03846,0.0462 -0.1,0.0462 -0.05385,0 -0.09231,-0.0385 -0.0359,-0.0385 -0.0359,-0.0923 z" stroke="none" id="path1149"  gorn="0.3.0.0.0.0.0.0.3.0.0.0.0.0.0.3" stroke-width="0"/>
                                                            <path fill-opacity="1" font-size="0.723647" fill="#ffffff" style="font-style:normal;font-variant:normal;font-weight:normal;font-stretch:normal;line-height:1.25;font-family:OCRA;-inkscape-font-specification:OCRA;letter-spacing:0px;word-spacing:0px;stroke-miterlimit:4;stroke-dasharray:none;" stroke-opacity="0.97241378" d="m 55.85646,109.21785 v -0.1077 q 0,-0.0538 0.0359,-0.0923 0.03846,-0.0385 0.09231,-0.0385 h 1.017949 q 0.05385,0 0.09231,0.0385 0.03846,0.0385 0.03846,0.0923 v 0.1077 q 0,0.0538 -0.03846,0.0923 -0.03846,0.0385 -0.09231,0.0385 H 55.98467 q -0.05385,0 -0.09231,-0.0385 -0.0359,-0.0385 -0.0359,-0.0923 z" stroke="none" id="path1151"  gorn="0.3.0.0.0.0.0.0.3.0.0.0.0.0.0.4" stroke-width="0"/>
                                                            <path fill-opacity="1" font-size="0.723647" fill="#ffffff" style="font-style:normal;font-variant:normal;font-weight:normal;font-stretch:normal;line-height:1.25;font-family:OCRA;-inkscape-font-specification:OCRA;letter-spacing:0px;word-spacing:0px;stroke-miterlimit:4;stroke-dasharray:none;" stroke-opacity="0.97241378" d="m 57.709425,110.11015 v -0.87179 q 0,-0.10513 0.07692,-0.17949 0.07692,-0.0769 0.182052,-0.0769 h 0.758974 v -0.61282 H 57.83763 q -0.05385,0 -0.09231,-0.0385 -0.0359,-0.0385 -0.0359,-0.0923 0,-0.0513 0.0359,-0.0897 0.03846,-0.0385 0.09231,-0.0385 h 0.889744 q 0.102564,0 0.179487,0.0769 0.07949,0.0769 0.07949,0.18205 v 0.61282 q 0,0.10256 -0.07692,0.17949 -0.07692,0.0769 -0.182051,0.0769 H 57.9684 v 0.61282 h 0.887179 q 0.05385,0 0.09231,0.0385 0.03846,0.0385 0.03846,0.0897 0,0.0538 -0.03846,0.0923 -0.03846,0.0385 -0.09231,0.0385 z" stroke="none" id="path1153"  gorn="0.3.0.0.0.0.0.0.3.0.0.0.0.0.0.5" stroke-width="0"/>
                                                            <path fill-opacity="1" font-size="0.723647" fill="#ffffff" style="font-style:normal;font-variant:normal;font-weight:normal;font-stretch:normal;line-height:1.25;font-family:OCRA;-inkscape-font-specification:OCRA;letter-spacing:0px;word-spacing:0px;stroke-miterlimit:4;stroke-dasharray:none;" stroke-opacity="0.97241378" d="m 61.415355,109.21785 v -0.1077 q 0,-0.0538 0.0359,-0.0923 0.03846,-0.0385 0.09231,-0.0385 h 1.017949 q 0.05385,0 0.09231,0.0385 0.03846,0.0385 0.03846,0.0923 v 0.1077 q 0,0.0538 -0.03846,0.0923 -0.03846,0.0385 -0.09231,0.0385 H 61.54356 q -0.05385,0 -0.09231,-0.0385 -0.0359,-0.0385 -0.0359,-0.0923 z" stroke="none" id="path1157"  gorn="0.3.0.0.0.0.0.0.3.0.0.0.0.0.0.6" stroke-width="0"/>
                                                            <path fill-opacity="1" font-size="0.723647" fill="#ffffff" style="font-style:normal;font-variant:normal;font-weight:normal;font-stretch:normal;line-height:1.25;font-family:OCRA;-inkscape-font-specification:OCRA;letter-spacing:0px;word-spacing:0px;stroke-miterlimit:4;stroke-dasharray:none;" stroke-opacity="0.97241378" d="m 63.268319,109.97938 q 0,-0.0487 0.02564,-0.0821 l 0.44359,-0.53333 -0.41282,-0.49744 q -0.03077,-0.0385 -0.03077,-0.0821 0,-0.0538 0.03846,-0.0923 0.03846,-0.0385 0.09231,-0.0385 0.05897,0 0.1,0.0487 l 0.382051,0.45898 0.379487,-0.45898 q 0.04103,-0.0487 0.1,-0.0487 0.05385,0 0.09231,0.0385 0.03846,0.0385 0.03846,0.0923 0,0.0436 -0.03077,0.0821 l -0.41282,0.49744 0.443589,0.53333 q 0.0282,0.0359 0.0282,0.0821 0,0.0538 -0.03846,0.0923 -0.03846,0.0385 -0.09231,0.0385 -0.06154,0 -0.1,-0.0462 l -0.407692,-0.49487 -0.410257,0.49487 q -0.03846,0.0462 -0.1,0.0462 -0.05385,0 -0.09231,-0.0385 -0.0359,-0.0385 -0.0359,-0.0923 z" stroke="none" id="path1159"  gorn="0.3.0.0.0.0.0.0.3.0.0.0.0.0.0.7" stroke-width="0"/>
                                                            <path fill-opacity="1" font-size="0.723647" fill="#ffffff" style="font-style:normal;font-variant:normal;font-weight:normal;font-stretch:normal;line-height:1.25;font-family:OCRA;-inkscape-font-specification:OCRA;letter-spacing:0px;word-spacing:0px;stroke-miterlimit:4;stroke-dasharray:none;" stroke-opacity="0.97241378" d="m 65.121285,109.21785 v -0.1077 q 0,-0.0538 0.0359,-0.0923 0.03846,-0.0385 0.09231,-0.0385 h 1.017949 q 0.05385,0 0.09231,0.0385 0.03846,0.0385 0.03846,0.0923 v 0.1077 q 0,0.0538 -0.03846,0.0923 -0.03846,0.0385 -0.09231,0.0385 H 65.24949 q -0.05385,0 -0.09231,-0.0385 -0.0359,-0.0385 -0.0359,-0.0923 z" stroke="none" id="path1161"  gorn="0.3.0.0.0.0.0.0.3.0.0.0.0.0.0.8" stroke-width="0"/>
                                                            <path fill-opacity="1" font-size="0.723647" fill="#ffffff" style="font-style:normal;font-variant:normal;font-weight:normal;font-stretch:normal;line-height:1.25;font-family:OCRA;-inkscape-font-specification:OCRA;letter-spacing:0px;word-spacing:0px;stroke-miterlimit:4;stroke-dasharray:none;" stroke-opacity="0.97241378" d="m 66.974249,109.97938 q 0,-0.0487 0.02564,-0.0821 l 0.44359,-0.53333 -0.412821,-0.49744 q -0.03077,-0.0385 -0.03077,-0.0821 0,-0.0538 0.03846,-0.0923 0.03846,-0.0385 0.09231,-0.0385 0.05898,0 0.1,0.0487 l 0.382052,0.45898 0.379487,-0.45898 q 0.04103,-0.0487 0.1,-0.0487 0.05385,0 0.09231,0.0385 0.03846,0.0385 0.03846,0.0923 0,0.0436 -0.03077,0.0821 l -0.412821,0.49744 0.44359,0.53333 q 0.0282,0.0359 0.0282,0.0821 0,0.0538 -0.03846,0.0923 -0.03846,0.0385 -0.09231,0.0385 -0.06154,0 -0.1,-0.0462 l -0.407692,-0.49487 -0.410257,0.49487 q -0.03846,0.0462 -0.1,0.0462 -0.05385,0 -0.09231,-0.0385 -0.0359,-0.0385 -0.0359,-0.0923 z" stroke="none" id="path1163"  gorn="0.3.0.0.0.0.0.0.3.0.0.0.0.0.0.9" stroke-width="0"/>
                                                            <g transform="matrix(0.24227741,0,0,0.24227741,45.513046,82.625011)" >
                                                                <g >
                                                                    <g >
                                                                        <g >
                                                                            <g >
                                                                                <g >
                                                                                    <g fill-opacity="1" font-size="2.98685" fill="#000000" style="font-style:normal;font-weight:normal;line-height:1.25;font-family:Droid Sans;letter-spacing:0px;word-spacing:0px;" aria-label="C" stroke="none" id="text1684"  gorn="0.3.0.0.0.0.0.0.3.0.0.0.0.0.0.10.0.0.0.0.0.0" stroke-width="0.26458332">
                                                                                        <path fill="#ffffff" style="font-style:normal;font-variant:normal;font-weight:normal;font-stretch:normal;font-family:OCRA;-inkscape-font-specification:OCRA;" d="m 57.413591,109.3516 q 0,-0.56091 0.254,-1.09008 l 1.068917,-2.159 q 0.169333,-0.381 0.560916,-0.62442 0.402167,-0.254 0.878417,-0.254 h 1.9685 q 0.22225,0 0.381,0.15875 0.15875,0.15875 0.15875,0.37042 0,0.22225 -0.15875,0.381 -0.15875,0.15875 -0.381,0.15875 h -1.9685 q -0.328084,0 -0.465667,0.29633 l -1.090083,2.14842 q -0.137583,0.29633 -0.137583,0.61383 0,0.3175 0.137583,0.61384 l 1.090083,2.14841 q 0.137583,0.29634 0.465667,0.29634 h 1.9685 q 0.22225,0 0.381,0.15875 0.15875,0.15875 0.15875,0.37041 0,0.22225 -0.15875,0.381 -0.15875,0.15875 -0.381,0.15875 h -1.9685 q -0.465667,0 -0.85725,-0.254 -0.381,-0.254 -0.5715,-0.635 -0.783167,-1.49225 -1.0795,-2.14841 -0.254,-0.53975 -0.254,-1.09009 z" id="path1686"  gorn="0.3.0.0.0.0.0.0.3.0.0.0.0.0.0.10.0.0.0.0.0.0.0" stroke-width="0.26458332"/>
                                                                                    </g>
                                                                                </g>
                                                                            </g>
                                                                        </g>
                                                                    </g>
                                                                </g>
                                                            </g>
                                                        </g>
                                                    </g>
                                                </g>
                                            </g>
                                        </g>
                                    </g>
                                </g>
                            </g>
                        </g>
                    </g>
                </g>
            </g>
        </g>
    </g>
</svg>
