<?xml version='1.0' encoding='UTF-8' standalone='no'?>
<!-- Created with Fritzing (http://www.fritzing.org/) -->
<svg xmlns="http://www.w3.org/2000/svg" height="0.64in" x="0in" width="0.14in" y="0in" version="1.2"  baseProfile="tiny" viewBox="0 0 140 640">
    <desc >
        <referenceFile >jumper_6_100mil_pcb.svg</referenceFile>
    </desc>
    <g id="copper1" gorn="0.1" >
        <g id="copper0" gorn="0.1.0" >
            <rect height="58" x="41" width="58" id="square" y="41" gorn="0.1.0.0"  fill="none" stroke="rgb(255, 191, 0)" stroke-width="20"/>
            <circle id="connector0pin" gorn="0.1.0.1" cx="70" cy="70"  fill="none" stroke="rgb(255, 191, 0)" stroke-width="20" r="29"/>
            <circle id="connector1pin" gorn="0.1.0.2" cx="70" cy="170"  fill="none" stroke="rgb(255, 191, 0)" stroke-width="20" r="29"/>
            <circle id="connector2pin" gorn="0.1.0.3" cx="70" cy="270"  fill="none" stroke="rgb(255, 191, 0)" stroke-width="20" r="29"/>
            <circle id="connector3pin" gorn="0.1.0.4" cx="70" cy="370"  fill="none" stroke="rgb(255, 191, 0)" stroke-width="20" r="29"/>
            <circle id="connector4pin" gorn="0.1.0.5" cx="70" cy="470"  fill="none" stroke="rgb(255, 191, 0)" stroke-width="20" r="29"/>
            <circle id="connector5pin" gorn="0.1.0.6" cx="70" cy="570"  fill="none" stroke="rgb(255, 191, 0)" stroke-width="20" r="29"/>
        </g>
    </g>
    <g id="silkscreen" gorn="0.2" >
        <line y1="20" y2="620"  x1="20" x2="20" stroke="white" stroke-width="10"/>
        <line y1="620" y2="620"  x1="20" x2="120" stroke="white" stroke-width="10"/>
        <line y1="620" y2="20"  x1="120" x2="120" stroke="white" stroke-width="10"/>
        <line y1="20" y2="20"  x1="120" x2="20" stroke="white" stroke-width="10"/>
        <line y1="55" y2="20"  x1="20" x2="55" stroke="white" stroke-width="5"/>
        <!-- 120 -->
    </g>
</svg>
