<?xml version='1.0' encoding='UTF-8' standalone='no'?>
<!-- Created with Fritzing (http://www.fritzing.org/) -->
<svg xmlns="http://www.w3.org/2000/svg"  width="0.411in" height="0.221189in" x="0in" version="1.2" y="0in" viewBox="0 0 10.3732 5.6182" baseProfile="tiny">
    <desc >
        <referenceFile >ESP8266_module_pcb.svg</referenceFile>
    </desc>
    <g  id="silkscreen" gorn="0.1">
        <polygon  stroke-linecap="round" class="other" points="0.1016,0.7366 0.7366,0.1016 0.1016,0.1016" stroke-width="0.2032" stroke="#f0f0f0"/>
        <line  stroke-linecap="round" class="other" y2="5.1816" y1="4.5466" x1="0.1016" x2="0.7366" stroke-width="0.2032" stroke="#f0f0f0"/>
        <line  stroke-linecap="round" class="other" y2="4.5466" y1="5.1816" x1="2.0066" x2="2.6416" stroke-width="0.2032" stroke="#f0f0f0"/>
        <line  stroke-linecap="round" class="other" y2="5.1816" y1="4.5466" x1="2.6416" x2="3.2766" stroke-width="0.2032" stroke="#f0f0f0"/>
        <line  stroke-linecap="round" class="other" y2="4.5466" y1="5.1816" x1="4.5466" x2="5.1816" stroke-width="0.2032" stroke="#f0f0f0"/>
        <line  stroke-linecap="round" class="other" y2="5.1816" y1="4.5466" x1="5.1816" x2="5.8166" stroke-width="0.2032" stroke="#f0f0f0"/>
        <line  stroke-linecap="round" class="other" y2="4.5466" y1="5.1816" x1="7.0866" x2="7.7216" stroke-width="0.2032" stroke="#f0f0f0"/>
        <line  stroke-linecap="round" class="other" y2="0.7366" y1="4.5466" x1="0.1016" x2="0.1016" stroke-width="0.2032" stroke="#f0f0f0"/>
        <line  stroke-linecap="round" class="other" y2="0.1016" y1="0.7366" x1="0.1016" x2="0.7366" stroke-width="0.2032" stroke="#f0f0f0"/>
        <line  stroke-linecap="round" class="other" y2="0.1016" y1="0.1016" x1="0.7366" x2="2.0066" stroke-width="0.2032" stroke="#f0f0f0"/>
        <line  stroke-linecap="round" class="other" y2="0.7366" y1="0.1016" x1="2.0066" x2="2.6416" stroke-width="0.2032" stroke="#f0f0f0"/>
        <line  stroke-linecap="round" class="other" y2="0.1016" y1="0.7366" x1="2.6416" x2="3.2766" stroke-width="0.2032" stroke="#f0f0f0"/>
        <line  stroke-linecap="round" class="other" y2="0.1016" y1="0.1016" x1="3.2766" x2="4.5466" stroke-width="0.2032" stroke="#f0f0f0"/>
        <line  stroke-linecap="round" class="other" y2="0.7366" y1="0.1016" x1="4.5466" x2="5.1816" stroke-width="0.2032" stroke="#f0f0f0"/>
        <line  stroke-linecap="round" class="other" y2="0.1016" y1="0.7366" x1="5.1816" x2="5.8166" stroke-width="0.2032" stroke="#f0f0f0"/>
        <line  stroke-linecap="round" class="other" y2="0.1016" y1="0.1016" x1="5.8166" x2="7.0866" stroke-width="0.2032" stroke="#f0f0f0"/>
        <line  stroke-linecap="round" class="other" y2="0.7366" y1="0.1016" x1="7.0866" x2="7.7216" stroke-width="0.2032" stroke="#f0f0f0"/>
        <line  stroke-linecap="round" class="other" y2="5.1816" y1="5.1816" x1="5.8166" x2="7.0866" stroke-width="0.2032" stroke="#f0f0f0"/>
        <line  stroke-linecap="round" class="other" y2="5.1816" y1="5.1816" x1="3.2766" x2="4.5466" stroke-width="0.2032" stroke="#f0f0f0"/>
        <line  stroke-linecap="round" class="other" y2="5.1816" y1="5.1816" x1="0.7366" x2="2.0066" stroke-width="0.2032" stroke="#f0f0f0"/>
        <line  stroke-linecap="round" class="other" y2="4.5466" y1="5.1816" x1="9.6266" x2="10.2616" stroke-width="0.2032" stroke="#f0f0f0"/>
        <line  stroke-linecap="round" class="other" y2="0.1016" y1="0.1016" x1="8.3566" x2="9.6266" stroke-width="0.2032" stroke="#f0f0f0"/>
        <line  stroke-linecap="round" class="other" y2="0.7366" y1="0.1016" x1="9.6266" x2="10.2616" stroke-width="0.2032" stroke="#f0f0f0"/>
        <line  stroke-linecap="round" class="other" y2="4.5466" y1="0.7366" x1="10.2616" x2="10.2616" stroke-width="0.2032" stroke="#f0f0f0"/>
        <line  stroke-linecap="round" class="other" y2="5.1816" y1="5.1816" x1="8.3566" x2="9.6266" stroke-width="0.2032" stroke="#f0f0f0"/>
        <line  stroke-linecap="round" class="other" y2="0.1016" y1="0.7366" x1="7.7216" x2="8.3566" stroke-width="0.2032" stroke="#f0f0f0"/>
        <line  stroke-linecap="round" class="other" y2="5.1816" y1="4.5466" x1="7.7216" x2="8.3566" stroke-width="0.2032" stroke="#f0f0f0"/>
    </g>
    <g  id="copper1" gorn="0.2">
        <rect  width="1.4478" height="1.4478" x="0.6477" y="0.6477" fill="none" stroke-width="0.4318" stroke="#F7BD13"/>
        <circle  connectorname="1" id="connector0pad" cy="1.3716" fill="none" cx="1.3716" gorn="0.2.1" r="0.7239" stroke-width="0.4318" stroke="#F7BD13"/>
        <circle  connectorname="2" id="connector1pad" cy="3.9116" fill="none" cx="1.3716" gorn="0.2.2" r="0.7239" stroke-width="0.4318" stroke="#F7BD13"/>
        <circle  connectorname="3" id="connector2pad" cy="1.3716" fill="none" cx="3.9116" gorn="0.2.3" r="0.7239" stroke-width="0.4318" stroke="#F7BD13"/>
        <circle  connectorname="4" id="connector3pad" cy="3.9116" fill="none" cx="3.9116" gorn="0.2.4" r="0.7239" stroke-width="0.4318" stroke="#F7BD13"/>
        <circle  connectorname="5" id="connector4pad" cy="1.3716" fill="none" cx="6.4516" gorn="0.2.5" r="0.7239" stroke-width="0.4318" stroke="#F7BD13"/>
        <circle  connectorname="6" id="connector5pad" cy="3.9116" fill="none" cx="6.4516" gorn="0.2.6" r="0.7239" stroke-width="0.4318" stroke="#F7BD13"/>
        <circle  connectorname="7" id="connector6pad" cy="1.3716" fill="none" cx="8.9916" gorn="0.2.7" r="0.7239" stroke-width="0.4318" stroke="#F7BD13"/>
        <circle  connectorname="8" id="connector7pad" cy="3.9116" fill="none" cx="8.9916" gorn="0.2.8" r="0.7239" stroke-width="0.4318" stroke="#F7BD13"/>
        <g  id="copper0" gorn="0.2.9">
            <rect  width="1.4478" height="1.4478" x="0.6477" y="0.6477" fill="none" stroke-width="0.4318" stroke="#F7BD13"/>
            <circle  connectorname="1" id="connector6pin" cy="1.3716" fill="none" cx="1.3716" gorn="0.2.9.1" r="0.7239" stroke-width="0.4318" stroke="#F7BD13"/>
            <circle  connectorname="2" id="connector7pin" cy="3.9116" fill="none" cx="1.3716" gorn="0.2.9.2" r="0.7239" stroke-width="0.4318" stroke="#F7BD13"/>
            <circle  connectorname="3" id="connector4pin" cy="1.3716" fill="none" cx="3.9116" gorn="0.2.9.3" r="0.7239" stroke-width="0.4318" stroke="#F7BD13"/>
            <circle  connectorname="4" id="connector5pin" cy="3.9116" fill="none" cx="3.9116" gorn="0.2.9.4" r="0.7239" stroke-width="0.4318" stroke="#F7BD13"/>
            <circle  connectorname="5" id="connector2pin" cy="1.3716" fill="none" cx="6.4516" gorn="0.2.9.5" r="0.7239" stroke-width="0.4318" stroke="#F7BD13"/>
            <circle  connectorname="6" id="connector3pin" cy="3.9116" fill="none" cx="6.4516" gorn="0.2.9.6" r="0.7239" stroke-width="0.4318" stroke="#F7BD13"/>
            <rect  width="1.4478" height="1.4478" x="8.2677" y="0.6477" fill="none" stroke-width="0.4318" stroke="#F7BD13"/>
            <circle  connectorname="7" id="connector0pin" cy="1.3716" fill="none" cx="8.9916" gorn="0.2.9.8" r="0.7239" stroke-width="0.4318" stroke="#F7BD13"/>
            <circle  connectorname="8" id="connector1pin" cy="3.9116" fill="none" cx="8.9916" gorn="0.2.9.9" r="0.7239" stroke-width="0.4318" stroke="#F7BD13"/>
        </g>
    </g>
</svg>
