<?xml version='1.0' encoding='UTF-8' standalone='no'?>
<!-- Created with Fritzing (http://www.fritzing.org/) -->
<svg xmlns="http://www.w3.org/2000/svg"  width="90" height="108" id="svg3698" x="0in" version="1.2" y="0in" gorn="0" viewBox="0 0 25.4 30.479999">
    <metadata  id="metadata3790">
        <rdf:RDF xmlns:rdf="http://www.w3.org/1999/02/22-rdf-syntax-ns#">
            <cc:Work xmlns:cc="http://creativecommons.org/ns#" xmlns:rdf="http://www.w3.org/1999/02/22-rdf-syntax-ns#" rdf:about="">
                <dc:format xmlns:dc="http://purl.org/dc/elements/1.1/">image/svg+xml</dc:format>
                <dc:type xmlns:dc="http://purl.org/dc/elements/1.1/" rdf:resource="http://purl.org/dc/dcmitype/StillImage" xmlns:rdf="http://www.w3.org/1999/02/22-rdf-syntax-ns#"/>
                <dc:title xmlns:dc="http://purl.org/dc/elements/1.1/"/>
            </cc:Work>
        </rdf:RDF>
    </metadata>
    <defs  id="defs3788"/>
    <desc  id="desc3700">
        <referenceFile  id="referenceFile3702">Barometric_Pressure_Sensor__2eaec138e035.svg</referenceFile>
    </desc>
    <rect  width="15.260229" height="20.334379" class="interior rect" style="stroke-linecap:round;stroke-miterlimit:4;stroke-dasharray:none" id="rect3705" x="5.0856647" y="5.0584459" fill="#ffffff" gorn="0.3" stroke-width="0.3556" stroke="#000000"/>
    <line  class="pin" style="stroke-linecap:round" id="connector2pin" y2="15.249142" y1="15.249142" x1="20.447992" x2="25.290142" fill="none" gorn="0.4" stroke-width="0.24109367" stroke="#787878"/>
    <rect  width="0.01016648734" height="0.0004821873399999994" id="connector2terminal" x="25.40560559133" y="15.24890090633" fill="none" gorn="0.5" stroke-width="0" stroke="none"/>
    <g  class="text" style="text-anchor:middle;font-family:Droid Sans" id="text3708" font-size="0.248904" fill="#8c8c8c" gorn="0.6" stroke="none">
        <text  style="font-size:0.93980002px" id="tspan5370" x="22.867815" y="14.896358" gorn="0.6.0">3</text>
    </g>
    <g  class="text" style="text-anchor:end;font-family:Droid Sans" id="text3710" font-size="0.348465" fill="#8c8c8c" gorn="0.7" stroke="none">
        <text  style="font-size:1.31797779px" id="tspan5362" x="19.692816" y="15.601925" gorn="0.7.0">GPIO_0</text>
    </g>
    <line  class="pin" style="stroke-linecap:round" id="connector4pin" y2="17.780878" y1="17.780878" x1="20.443693" x2="25.324463" fill="none" gorn="0.8" stroke-width="0.24205315" stroke="#787878"/>
    <rect  width="0.0102456463" height="0.0004841062999999934" id="connector4terminal" x="25.44036675185" y="17.78063594685" fill="none" gorn="0.9" stroke-width="0" stroke="none"/>
    <g  class="text" style="text-anchor:middle;font-family:Droid Sans" id="text3714" font-size="0.248904" fill="#8c8c8c" gorn="0.10" stroke="none">
        <text  style="font-size:0.93980002px" id="tspan5372" x="22.867815" y="17.428095" gorn="0.10.0">5</text>
    </g>
    <g  class="text" style="text-anchor:end;font-family:Droid Sans" id="text3716" font-size="0.348465" fill="#8c8c8c" gorn="0.11" stroke="none">
        <text  style="font-size:1.31797779px" id="tspan5364" x="19.692816" y="18.133661" gorn="0.11.0">GPIO_2</text>
    </g>
    <line  class="pin" style="stroke-linecap:round" id="connector3pin" y2="20.324093" y1="20.324093" x1="20.445478" x2="25.358931" fill="none" gorn="0.12" stroke-width="0.24286222" stroke="#787878"/>
    <rect  width="0.01031263043999999" height="0.0004857244399999985" id="connector3terminal" x="25.47520579478" y="20.32385013778" fill="none" gorn="0.13" stroke-width="0" stroke="none"/>
    <g  class="text" style="text-anchor:middle;font-family:Droid Sans" id="text3720" font-size="0.248904" fill="#8c8c8c" gorn="0.14" stroke="none">
        <text  style="font-size:0.93980002px" id="tspan3276" x="22.867815" y="19.953732" gorn="0.14.0">4</text>
    </g>
    <g  class="text" style="text-anchor:end;font-family:Droid Sans" id="text3722" font-size="0.348465" fill="#8c8c8c" gorn="0.15" stroke="none">
        <text  style="font-size:1.31797779px" id="tspan5366" x="19.692816" y="20.659298" gorn="0.15.0">RSTn</text>
    </g>
    <rect  width="0.246944" height="0.246944" class="terminal" x="25.284315" y="19.830196" fill="none" stroke="none"/>
    <line  class="pin" style="stroke-linecap:round" id="connector7pin" y2="10.173214" y1="10.173214" x1="0.1141418" x2="5.1731138" fill="none" gorn="0.17" stroke-width="0.24643241" stroke="#787878"/>
    <rect  width="0.01061080882" height="0.0004928648200000013" id="connector7terminal" x="-0.01437980941000037" y="10.17296756759" fill="none" gorn="0.18" stroke-width="0" stroke="none"/>
    <g  class="text" style="text-anchor:middle;font-family:Droid Sans" id="text3726" font-size="0.248904" fill="#8c8c8c" gorn="0.19" stroke="none">
        <text  style="font-size:0.93980002px" id="tspan5451" x="2.6105542" y="9.7408409" gorn="0.19.0">8</text>
    </g>
    <g  class="text" style="text-anchor:start;font-family:Droid Sans" id="text3728" font-size="0.348465" fill="#8c8c8c" gorn="0.20" stroke="none">
        <text  style="font-size:1.31797779px" id="tspan5352" x="5.644444" y="10.534786" gorn="0.20.0">TXD</text>
    </g>
    <rect  width="0.246944" height="0.246944" class="terminal" x="-0.12347247" y="11.462521" fill="none" stroke="none"/>
    <line  class="pin" style="stroke-linecap:round" id="connector0pin" y2="12.703976" y1="12.703976" x1="0.11352853" x2="5.1472688" fill="none" gorn="0.22" stroke-width="0.2458171" stroke="#787878"/>
    <rect  width="0.01055911474" height="0.0004916342" id="connector0terminal" x="-0.01465957737000004" y="12.7037301829" fill="none" gorn="0.23" stroke-width="0" stroke="none"/>
    <g  class="text" style="text-anchor:middle;font-family:Droid Sans" id="text3732" font-size="0.248904" fill="#8c8c8c" gorn="0.24" stroke="none">
        <text  style="font-size:0.93980002px" id="tspan5449" x="2.6105542" y="12.274044" gorn="0.24.0">1</text>
    </g>
    <g  class="text" style="text-anchor:start;font-family:Droid Sans" id="text3734" font-size="0.348465" fill="#8c8c8c" gorn="0.25" stroke="none">
        <text  style="font-size:1.31797779px" id="tspan5354" x="5.644444" y="13.067745" gorn="0.25.0">RXD</text>
    </g>
    <rect  width="0.246944" height="0.246944" class="terminal" x="-0.12347247" y="8.3431349" fill="none" stroke="none"/>
    <line  class="pin" style="stroke-linecap:round" id="connector6pin" y2="30.350124" y1="25.519073" x1="12.722004" x2="12.722004" fill="none" gorn="0.27" stroke-width="0.24081822" stroke="#787878"/>
    <rect  width="0.0004816364400000026" height="0.01014373844000001" class="terminal" id="connector6terminal" x="12.72176318178" y="30.46546124078" fill="none" gorn="0.28" stroke-width="0" stroke="none"/>
    <g  transform="translate(12.341808,27.804)">
        <g >
            <g >
                <g >
                    <g >
                        <g >
                            <g  id="g3738" gorn="0.29.0.0.0.0.0.0">
                                <g  id="g3740" gorn="0.29.0.0.0.0.0.0.0">
                                    <g  transform="matrix(0,-1,1,0,0,0)">
                                        <g >
                                            <g >
                                                <g >
                                                    <g >
                                                        <g >
                                                            <g  id="g3742" gorn="0.29.0.0.0.0.0.0.0.0.0.0.0.0.0.0">
                                                                <g  id="g3744" gorn="0.29.0.0.0.0.0.0.0.0.0.0.0.0.0.0.0">
                                                                    <g  class="text" style="text-anchor:middle;font-family:Droid Sans" id="text3746" font-size="0.248904" fill="#8c8c8c" gorn="0.29.0.0.0.0.0.0.0.0.0.0.0.0.0.0.0.0" stroke="none">
                                                                        <text  style="font-size:0.93980002px" id="tspan5447" x="0" y="0" gorn="0.29.0.0.0.0.0.0.0.0.0.0.0.0.0.0.0.0.0">7</text>
                                                                    </g>
                                                                </g>
                                                            </g>
                                                        </g>
                                                    </g>
                                                </g>
                                            </g>
                                        </g>
                                    </g>
                                </g>
                            </g>
                        </g>
                    </g>
                </g>
            </g>
        </g>
    </g>
    <g  transform="translate(13.192754,24.7701)">
        <g >
            <g >
                <g >
                    <g >
                        <g >
                            <g  id="g3748" gorn="0.30.0.0.0.0.0.0">
                                <g  id="g3750" gorn="0.30.0.0.0.0.0.0.0">
                                    <g  transform="matrix(0,-1,1,0,0,0)">
                                        <g >
                                            <g >
                                                <g >
                                                    <g >
                                                        <g >
                                                            <g  id="g3752" gorn="0.30.0.0.0.0.0.0.0.0.0.0.0.0.0.0">
                                                                <g  id="g3754" gorn="0.30.0.0.0.0.0.0.0.0.0.0.0.0.0.0.0">
                                                                    <g  class="text" style="text-anchor:start;font-family:Droid Sans" id="text3756" font-size="0.348465" fill="#8c8c8c" gorn="0.30.0.0.0.0.0.0.0.0.0.0.0.0.0.0.0.0" stroke="none">
                                                                        <text  style="font-size:1.31797779px" id="tspan5358" x="0" y="0" gorn="0.30.0.0.0.0.0.0.0.0.0.0.0.0.0.0.0.0.0">GND</text>
                                                                    </g>
                                                                </g>
                                                            </g>
                                                        </g>
                                                    </g>
                                                </g>
                                            </g>
                                        </g>
                                    </g>
                                </g>
                            </g>
                        </g>
                    </g>
                </g>
            </g>
        </g>
    </g>
    <line  class="pin" style="stroke-linecap:round" id="connector1pin" y2="4.9859514" y1="0.11827557" x1="12.702216" x2="12.702216" fill="none" gorn="0.31" stroke-width="0.24172944" stroke="#787878"/>
    <rect  width="0.0004834588800000006" height="0.01021881054" id="connector1terminal" x="12.70197427056" y="-0.007698555270000221" fill="none" gorn="0.32" stroke-width="0" stroke="none"/>
    <g  transform="translate(12.326361,2.5929162)">
        <g >
            <g >
                <g >
                    <g >
                        <g >
                            <g  id="g3760" gorn="0.33.0.0.0.0.0.0">
                                <g  id="g3762" gorn="0.33.0.0.0.0.0.0.0">
                                    <g  transform="matrix(0,-1,1,0,0,0)">
                                        <g >
                                            <g >
                                                <g >
                                                    <g >
                                                        <g >
                                                            <g  id="g3764" gorn="0.33.0.0.0.0.0.0.0.0.0.0.0.0.0.0">
                                                                <g  id="g3766" gorn="0.33.0.0.0.0.0.0.0.0.0.0.0.0.0.0.0">
                                                                    <g  class="text" style="text-anchor:middle;font-family:Droid Sans" id="text3768" font-size="0.248904" fill="#8c8c8c" gorn="0.33.0.0.0.0.0.0.0.0.0.0.0.0.0.0.0.0" stroke="none">
                                                                        <text  style="font-size:0.93980002px" id="tspan5453" x="0" y="0" gorn="0.33.0.0.0.0.0.0.0.0.0.0.0.0.0.0.0.0.0">2</text>
                                                                    </g>
                                                                </g>
                                                            </g>
                                                        </g>
                                                    </g>
                                                </g>
                                            </g>
                                        </g>
                                    </g>
                                </g>
                            </g>
                        </g>
                    </g>
                </g>
            </g>
        </g>
    </g>
    <g  transform="translate(13.172967,5.6974162)">
        <g >
            <g >
                <g >
                    <g >
                        <g >
                            <g  id="g3770" gorn="0.34.0.0.0.0.0.0">
                                <g  id="g3772" gorn="0.34.0.0.0.0.0.0.0">
                                    <g  transform="matrix(0,-1,1,0,0,0)">
                                        <g >
                                            <g >
                                                <g >
                                                    <g >
                                                        <g >
                                                            <g  id="g3774" gorn="0.34.0.0.0.0.0.0.0.0.0.0.0.0.0.0">
                                                                <g  id="g3776" gorn="0.34.0.0.0.0.0.0.0.0.0.0.0.0.0.0.0">
                                                                    <g  class="text" style="text-anchor:end;font-family:Droid Sans" id="text3778" font-size="0.348465" fill="#8c8c8c" gorn="0.34.0.0.0.0.0.0.0.0.0.0.0.0.0.0.0.0" stroke="none">
                                                                        <text  style="font-size:1.31797779px" id="tspan5356" x="0" y="0" gorn="0.34.0.0.0.0.0.0.0.0.0.0.0.0.0.0.0.0.0">VCC</text>
                                                                    </g>
                                                                </g>
                                                            </g>
                                                        </g>
                                                    </g>
                                                </g>
                                            </g>
                                        </g>
                                    </g>
                                </g>
                            </g>
                        </g>
                    </g>
                </g>
            </g>
        </g>
    </g>
    <rect  width="0.246944" height="0.246944" class="terminal" x="11.301057" y="-0.54432213" fill="none" stroke="none"/>
    <g  class="text" style="text-anchor:middle;font-family:Droid Sans" id="label" font-size="0.423139" fill="#000000" gorn="0.36" stroke="none">
        <text  style="font-size:1.60020006px" id="tspan5374" x="12.7" y="11.100634" gorn="0.36.0">ESP8266</text>
    </g>
    <g  class="text" style="text-anchor:middle;font-family:Droid Sans" id="text3782" font-size="0.423139" fill="#000000" gorn="0.37" stroke="none">
        <text  style="font-size:1.60020006px" id="tspan5376" x="12.7" y="12.7" gorn="0.37.0">WiFi</text>
    </g>
    <g  class="text" style="text-anchor:middle;font-family:Droid Sans" id="text3784" font-size="0.423139" fill="#000000" gorn="0.38" stroke="none">
        <text  style="font-size:1.60020006px" id="tspan5378" x="12.7" y="14.29912" gorn="0.38.0">Module</text>
    </g>
    <line  class="pin" style="stroke-linecap:round" id="connector5pin" y2="10.166134" y1="10.166134" x1="25.28339" x2="20.441315" fill="none" gorn="0.39" stroke-width="0.24109206" stroke="#787878"/>
    <rect  width="0.01016633412" height="0.0004821841199999994" id="connector5terminal" x="25.39885286294" y="10.16589290794" fill="none" gorn="0.40" stroke-width="0" stroke="none"/>
    <g  class="text" style="text-anchor:middle;font-family:Droid Sans" id="text3726-8" font-size="0.248904" fill="#8c8c8c" gorn="0.41" stroke="none">
        <text  style="font-size:0.93980002px" id="tspan5368" x="22.790646" y="9.8126183" gorn="0.41.0">6</text>
    </g>
    <g  class="text" style="font-style:normal;font-variant:normal;font-weight:normal;font-stretch:normal;text-align:end;line-height:125%;writing-mode:lr-tb;text-anchor:end;font-family:Droid Sans;-inkscape-font-specification:Droid Sans" id="text3728-7" font-size="0.348465" fill="#8c8c8c" gorn="0.42" stroke="none">
        <text  style="font-size:1.23471987px;font-style:normal;font-variant:normal;font-weight:normal;font-stretch:normal;text-align:end;line-height:125%;writing-mode:lr-tb;text-anchor:end;font-family:Droid Sans;-inkscape-font-specification:Droid Sans" id="tspan5360" x="19.615646" y="10.518185" gorn="0.42.0">CH_PD</text>
    </g>
</svg>
