<?xml version='1.0' encoding='UTF-8' standalone='no'?>
<svg
  xmlns:dc="http://purl.org/dc/elements/1.1/"
  xmlns:cc="http://creativecommons.org/ns#"
  xmlns:rdf="http://www.w3.org/1999/02/22-rdf-syntax-ns#"
  xmlns:svg="http://www.w3.org/2000/svg"
  xmlns="http://www.w3.org/2000/svg"
  viewBox="0 0 610.14088 409.99999"
  x="0in"
  width="0.61014086in"
  height="0.41in"
  version="1.2"
  y="0in"
  id="svg2">
  <metadata
    id="metadata41">
    <rdf:RDF>
      <cc:Work
        rdf:about="">
        <dc:format>image/svg+xml</dc:format>
        <dc:type
          rdf:resource="http://purl.org/dc/dcmitype/StillImage"
        />
        <dc:title/>
      </cc:Work>
    </rdf:RDF>
  </metadata>
  <defs
    id="defs39"
  />
  <desc
    id="desc4">
    <referenceFile>laser-receiver_1_schematic.svg</referenceFile>
  </desc>
  <g
    id="schematic">
    <rect
      x="105.14088"
      width="500"
      height="400"
      y="5"
      id="rect7"
      fill="none"
      stroke="#000000"
      stroke-width="10"
      stroke-linecap="round"
    />
    <line
      y1="105.13841"
      y2="105.13841"
      x2="100.26112"
      x1="5.0712123"
      id="connector0pin"
      fill="none"
      stroke="#555555"
      stroke-width="10"
      stroke-linecap="round"
    />
    <rect
      id="connector0terminal"
      x="0.14087817"
      width="10"
      height="10"
      y="100.2778"
      fill="none"
      stroke-width="0"
    />
    <text
      id="label0"
      x="135.21381"
      y="222.52148"
      font-size="49"
      font-family="'Droid Sans'"
      text-anchor="start"
      fill="#555555">OUT</text>
    <text
      x="77.219048"
      y="93.337708"
      font-size="34.72219849"
      id="text15"
      font-family="'Droid Sans'"
      text-anchor="middle"
      fill="#555555">1</text>
    <line
      y1="205.13843"
      y2="205.13843"
      x2="100.26112"
      x1="5.0712123"
      id="connector1pin"
      fill="none"
      stroke="#555555"
      stroke-width="10"
      stroke-linecap="round"
    />
    <rect
      id="connector1terminal"
      x="0.14087817"
      width="10"
      height="10"
      y="200"
      fill="none"
      stroke-width="0"
    />
    <text
      id="label1"
      x="135.21381"
      y="122.52148"
      font-size="49"
      font-family="'Droid Sans'"
      text-anchor="start"
      fill="#555555">GND</text>
    <text
      x="77.219048"
      y="193.33803"
      font-size="34.72219849"
      id="text22"
      font-family="'Droid Sans'"
      text-anchor="middle"
      fill="#555555">2</text>
    <line
      y1="305.13843"
      y2="305.13843"
      x2="100.26112"
      x1="5.0712123"
      id="connector2pin"
      fill="none"
      stroke="#555555"
      stroke-width="10"
      stroke-linecap="round"
    />
    <rect
      id="connector2terminal"
      x="0.14087817"
      width="10"
      height="10"
      y="300"
      fill="none"
      stroke-width="0"
    />
    <text
      id="label2"
      x="135.21381"
      y="322.84821"
      font-size="49"
      font-family="'Droid Sans'"
      text-anchor="start"
      fill="#555555">VCC</text>
    <text
      x="77.219048"
      y="293.33801"
      font-size="34.72219849"
      id="text29"
      font-family="'Droid Sans'"
      text-anchor="middle"
      fill="#555555">3</text>
    <text
      font-size="60"
      y="176.05989"
      x="403.34308"
      id="text3369"
      font-family="'Droid Sans'"
      text-anchor="middle"
      fill="#000000">Laser</text>
    <text
      font-size="60"
      y="226.48697"
      x="402.55923"
      id="text3371"
      font-family="'Droid Sans'"
      text-anchor="middle"
      fill="#000000">Receiver</text>
    <text
      id="text3373"
      x="404.99088"
      y="278.04947"
      font-size="60"
      font-family="'Droid Sans'"
      text-anchor="middle"
      fill="#000000">module</text>
  </g>
</svg>
