<?xml version='1.0' encoding='UTF-8' standalone='no'?>
<svg
  xmlns:dc="http://purl.org/dc/elements/1.1/"
  xmlns:cc="http://creativecommons.org/ns#"
  xmlns:rdf="http://www.w3.org/1999/02/22-rdf-syntax-ns#"
  xmlns:svg="http://www.w3.org/2000/svg"
  xmlns="http://www.w3.org/2000/svg"
  height="4.7149997in"
  version="1.2"
  y="0"
  viewBox="0 0 1415.1565 4715.0012"
  x="0"
  width="1.415156in"
  id="Layer_1">
  <metadata
    id="metadata642">
    <rdf:RDF>
      <cc:Work
        rdf:about="">
        <dc:format>image/svg+xml</dc:format>
        <dc:type
          rdf:resource="http://purl.org/dc/dcmitype/StillImage"
        />
        <dc:title/>
      </cc:Work>
    </rdf:RDF>
  </metadata>
  <defs
    id="defs640"
  />
  <desc
    id="desc2">
    <referenceFile>Mega2560 R3 Pro Mini_c5f54d6196a626ba07a2a014414650a5_3_schematic.svg</referenceFile>
  </desc>
  <g
    id="schematic">
    <rect
      stroke-linecap="round"
      stroke-width="10"
      stroke="#000000"
      fill="#ffffff"
      height="4300.001"
      y="210.00058"
      x="205.12448"
      width="1000.0003"
      id="rect94"
    />
    <text
      fill="#8c8c8c"
      text-anchor="end"
      font-family="'Droid Sans'"
      font-size="49"
      id="text97"
      x="1169.5616"
      y="426.96304">D13 PWM</text>
    <text
      fill="#8c8c8c"
      text-anchor="end"
      font-family="'Droid Sans'"
      font-size="49"
      id="text103"
      x="1169.5082"
      y="528.24933">D12 PWM</text>
    <text
      fill="#8c8c8c"
      text-anchor="end"
      font-family="'Droid Sans'"
      font-size="49"
      id="text109"
      x="1169.6582"
      y="627.38446">D11 PWM</text>
    <text
      fill="#8c8c8c"
      text-anchor="end"
      font-family="'Droid Sans'"
      font-size="49"
      id="text115"
      x="1169.5841"
      y="727.17633">D10 PWM</text>
    <text
      fill="#8c8c8c"
      text-anchor="end"
      font-family="'Droid Sans'"
      font-size="49"
      id="text121"
      x="1169.6373"
      y="927.60956">D8 PWM</text>
    <text
      fill="#8c8c8c"
      text-anchor="end"
      font-family="'Droid Sans'"
      font-size="49"
      id="text127"
      x="1169.2666"
      y="827.40051">D9 PWM</text>
    <text
      fill="#8c8c8c"
      text-anchor="end"
      font-family="'Droid Sans'"
      font-size="49"
      id="text133"
      x="1169.9683"
      y="1027.3898">D7 PWM</text>
    <text
      fill="#8c8c8c"
      text-anchor="end"
      font-family="'Droid Sans'"
      font-size="49"
      id="text139"
      x="1169.4181"
      y="1127.7021">D6 PWM</text>
    <text
      fill="#8c8c8c"
      font-family="'Droid Sans'"
      font-size="49"
      id="text145"
      x="982.03625"
      y="1226.8739">D5 PWM</text>
    <text
      fill="#8c8c8c"
      text-anchor="end"
      font-family="'Droid Sans'"
      font-size="49"
      id="text151"
      x="1169.1185"
      y="1327.5441">D4 PWM</text>
    <text
      fill="#8c8c8c"
      font-family="'Droid Sans'"
      font-size="49"
      id="text157"
      x="982.03937"
      y="1527.5083">D2 PWM</text>
    <text
      fill="#8c8c8c"
      text-anchor="end"
      font-family="'Droid Sans'"
      font-size="49"
      id="text163"
      x="1170.1512"
      y="1427.3718">D3 PWM</text>
    <text
      fill="#8c8c8c"
      text-anchor="end"
      font-family="'Droid Sans'"
      font-size="49"
      id="text169"
      x="1167.0387"
      y="1627.3973">D1 TX0</text>
    <text
      fill="#8c8c8c"
      text-anchor="end"
      font-family="'Droid Sans'"
      font-size="49"
      id="text175"
      x="1167.2065"
      y="1727.8521">D0 RX0</text>
    <text
      fill="#8c8c8c"
      text-anchor="end"
      font-family="'Droid Sans'"
      font-size="49"
      id="text181"
      x="1168.2028"
      y="1927.699">D14/TX3</text>
    <text
      fill="#8c8c8c"
      text-anchor="end"
      font-family="'Droid Sans'"
      font-size="49"
      id="text187"
      x="1167.9944"
      y="2027.5013">D15/RX3</text>
    <text
      fill="#8c8c8c"
      text-anchor="end"
      font-family="'Droid Sans'"
      font-size="49"
      id="text193"
      x="1168.1644"
      y="2127.4443">D16 PWM/TX2</text>
    <text
      fill="#8c8c8c"
      text-anchor="end"
      font-family="'Droid Sans'"
      font-size="49"
      id="text199"
      x="1168.1019"
      y="2227.3843">D17 PWM/RX2</text>
    <text
      fill="#8c8c8c"
      text-anchor="end"
      font-family="'Droid Sans'"
      font-size="49"
      id="text205"
      x="1174.7811"
      y="2327.616">D18/TX1</text>
    <text
      fill="#8c8c8c"
      text-anchor="end"
      font-family="'Droid Sans'"
      font-size="49"
      id="text211"
      x="1174.7823"
      y="2427.3643">D19/RX1</text>
    <text
      fill="#8c8c8c"
      text-anchor="end"
      font-family="'Droid Sans'"
      font-size="49"
      id="text235"
      y="2627.8384"
      x="1166.1702">D21/SCL</text>
    <text
      fill="#8c8c8c"
      text-anchor="end"
      font-family="'Droid Sans'"
      font-size="49"
      id="text241"
      x="1168.1765"
      y="2827.6089">D22</text>
    <text
      fill="#8c8c8c"
      text-anchor="end"
      font-family="'Droid Sans'"
      font-size="49"
      id="text247"
      x="1167.8357"
      y="2927.8423">D23</text>
    <text
      fill="#8c8c8c"
      text-anchor="end"
      font-family="'Droid Sans'"
      font-size="49"
      id="text253"
      x="1164.8225"
      y="3028.042">D24</text>
    <text
      fill="#8c8c8c"
      text-anchor="end"
      font-family="'Droid Sans'"
      font-size="49"
      id="text259"
      x="1167.9823"
      y="3127.2974">D25</text>
    <text
      fill="#8c8c8c"
      text-anchor="end"
      font-family="'Droid Sans'"
      font-size="49"
      id="text265"
      x="1167.2653"
      y="3227.5229">D26</text>
    <text
      fill="#8c8c8c"
      font-family="'Droid Sans'"
      font-size="49"
      id="text271"
      x="1080.1256"
      y="3327.7966">D27</text>
    <text
      fill="#8c8c8c"
      text-anchor="end"
      font-family="'Droid Sans'"
      font-size="49"
      id="text277"
      x="1167.3926"
      y="3427.5103">D28</text>
    <text
      fill="#8c8c8c"
      text-anchor="end"
      font-family="'Droid Sans'"
      font-size="49"
      id="text283"
      x="1167.1123"
      y="3527.2236">D29</text>
    <text
      fill="#8c8c8c"
      text-anchor="end"
      font-family="'Droid Sans'"
      font-size="49"
      id="text289"
      x="1167.2751"
      y="3627.3535">D30</text>
    <text
      fill="#8c8c8c"
      text-anchor="end"
      font-family="'Droid Sans'"
      font-size="49"
      id="text295"
      x="1174.8291"
      y="3727.1819">D31</text>
    <text
      fill="#8c8c8c"
      text-anchor="end"
      font-family="'Droid Sans'"
      font-size="49"
      id="text301"
      x="1168.1663"
      y="3827.5525">D32</text>
    <text
      fill="#8c8c8c"
      text-anchor="end"
      font-family="'Droid Sans'"
      font-size="49"
      id="text307"
      x="1167.8732"
      y="3927.7585">D33</text>
    <text
      fill="#8c8c8c"
      text-anchor="end"
      font-family="'Droid Sans'"
      font-size="49"
      id="text313"
      x="1166.3293"
      y="4027.7007">D34</text>
    <text
      fill="#8c8c8c"
      text-anchor="end"
      font-family="'Droid Sans'"
      font-size="49"
      id="text319"
      x="1168.084"
      y="4127.6729">D35</text>
    <text
      fill="#8c8c8c"
      text-anchor="end"
      font-family="'Droid Sans'"
      font-size="49"
      id="text325"
      x="1166.9819"
      y="4227.2061">D36</text>
    <text
      fill="#8c8c8c"
      text-anchor="end"
      font-family="'Droid Sans'"
      font-size="49"
      id="text331"
      x="1168.1548"
      y="4327.3711">D37</text>
    <text
      fill="#8c8c8c"
      text-anchor="start"
      font-family="'Droid Sans'"
      font-size="49"
      id="text337"
      x="230.60344"
      y="426.65417">RESET</text>
    <text
      fill="#8c8c8c"
      text-anchor="start"
      font-family="'Droid Sans'"
      font-size="49"
      id="text343"
      x="235.36467"
      y="527.18353">AREF</text>
    <text
      fill="#8c8c8c"
      text-anchor="end"
      font-family="'Droid Sans'"
      font-size="49"
      id="text377"
      x="-250.54997"
      y="622.32495"
      transform="rotate(-90)">5V</text>
    <text
      fill="#8c8c8c"
      text-anchor="start"
      font-family="'Droid Sans'"
      font-size="49"
      id="text383"
      x="235.36467"
      y="926.87085">A0</text>
    <text
      fill="#8c8c8c"
      text-anchor="start"
      font-family="'Droid Sans'"
      font-size="49"
      id="text389"
      x="235.36467"
      y="1026.7743">A1</text>
    <text
      fill="#8c8c8c"
      text-anchor="start"
      font-family="'Droid Sans'"
      font-size="49"
      id="text395"
      x="235.36467"
      y="1127.3367">A2</text>
    <text
      fill="#8c8c8c"
      text-anchor="start"
      font-family="'Droid Sans'"
      font-size="49"
      id="text401"
      x="235.36467"
      y="1227.2399">A3</text>
    <text
      fill="#8c8c8c"
      text-anchor="start"
      font-family="'Droid Sans'"
      font-size="49"
      id="text407"
      x="235.36467"
      y="1327.4912">A4</text>
    <text
      fill="#8c8c8c"
      text-anchor="start"
      font-family="'Droid Sans'"
      font-size="49"
      id="text413"
      x="235.36467"
      y="1427.0836">A5</text>
    <text
      fill="#8c8c8c"
      text-anchor="start"
      font-family="'Droid Sans'"
      font-size="49"
      id="text419"
      x="235.36467"
      y="1527.6167">A6</text>
    <text
      fill="#8c8c8c"
      text-anchor="start"
      font-family="'Droid Sans'"
      font-size="49"
      id="text425"
      x="235.36467"
      y="1626.9275">A7</text>
    <text
      fill="#8c8c8c"
      text-anchor="start"
      font-family="'Droid Sans'"
      font-size="49"
      id="text431"
      x="235.36467"
      y="1728.075">A8</text>
    <text
      fill="#8c8c8c"
      text-anchor="start"
      font-family="'Droid Sans'"
      font-size="49"
      id="text437"
      x="235.36467"
      y="1828.0153">A9</text>
    <text
      fill="#8c8c8c"
      text-anchor="start"
      font-family="'Droid Sans'"
      font-size="49"
      id="text443"
      x="235.36467"
      y="1927.6298">A10</text>
    <text
      fill="#8c8c8c"
      text-anchor="start"
      font-family="'Droid Sans'"
      font-size="49"
      id="text449"
      x="235.36467"
      y="2027.5186">A11</text>
    <text
      fill="#8c8c8c"
      text-anchor="start"
      font-family="'Droid Sans'"
      font-size="49"
      id="text455"
      x="235.36467"
      y="2127.0337">A12</text>
    <text
      fill="#8c8c8c"
      text-anchor="start"
      font-family="'Droid Sans'"
      font-size="49"
      id="text461"
      x="235.36467"
      y="2227.8242">A13</text>
    <text
      fill="#8c8c8c"
      text-anchor="start"
      font-family="'Droid Sans'"
      font-size="49"
      id="text467"
      x="235.36467"
      y="2326.9836">A14</text>
    <text
      fill="#8c8c8c"
      text-anchor="start"
      font-family="'Droid Sans'"
      font-size="49"
      id="text473"
      x="235.36467"
      y="2427.1985">A15</text>
    <text
      fill="#8c8c8c"
      text-anchor="start"
      font-family="'Droid Sans'"
      font-size="49"
      id="text479"
      x="230.60344"
      y="2726.6418">D38</text>
    <text
      fill="#8c8c8c"
      text-anchor="start"
      font-family="'Droid Sans'"
      font-size="49"
      id="text485"
      x="230.60344"
      y="2827.8188">D39</text>
    <text
      fill="#8c8c8c"
      text-anchor="start"
      font-family="'Droid Sans'"
      font-size="49"
      id="text491"
      x="230.60344"
      y="2928.3521">D40</text>
    <text
      fill="#8c8c8c"
      text-anchor="start"
      font-family="'Droid Sans'"
      font-size="49"
      id="text497"
      x="230.60344"
      y="3027.1621">D41</text>
    <text
      fill="#8c8c8c"
      text-anchor="start"
      font-family="'Droid Sans'"
      font-size="49"
      id="text503"
      x="230.60344"
      y="3127.5664">D42</text>
    <text
      fill="#8c8c8c"
      text-anchor="start"
      font-family="'Droid Sans'"
      font-size="49"
      id="text509"
      x="230.60344"
      y="3227.4771">D43</text>
    <text
      fill="#8c8c8c"
      text-anchor="start"
      font-family="'Droid Sans'"
      font-size="49"
      id="text515"
      x="230.60344"
      y="3328.0176">D44</text>
    <text
      fill="#8c8c8c"
      text-anchor="start"
      font-family="'Droid Sans'"
      font-size="49"
      id="text521"
      x="230.60344"
      y="3426.7134">D45</text>
    <text
      fill="#8c8c8c"
      text-anchor="start"
      font-family="'Droid Sans'"
      font-size="49"
      id="text527"
      x="230.60344"
      y="3526.6167">D46</text>
    <text
      fill="#8c8c8c"
      text-anchor="start"
      font-family="'Droid Sans'"
      font-size="49"
      id="text533"
      x="230.60344"
      y="3627.772">D47</text>
    <text
      fill="#8c8c8c"
      text-anchor="start"
      font-family="'Droid Sans'"
      font-size="49"
      id="text539"
      x="230.60689"
      y="3727.7046">D48</text>
    <text
      fill="#8c8c8c"
      text-anchor="start"
      font-family="'Droid Sans'"
      font-size="49"
      id="text545"
      x="230.6069"
      y="3828.2373">D49</text>
    <text
      fill="#8c8c8c"
      text-anchor="start"
      font-family="'Droid Sans'"
      font-size="49"
      id="text551"
      x="230.60344"
      y="3928.1704">D50 / MISO</text>
    <text
      fill="#8c8c8c"
      text-anchor="start"
      font-family="'Droid Sans'"
      font-size="49"
      id="text557"
      x="230.60344"
      y="4027.1907">D51 / MOSI</text>
    <text
      fill="#8c8c8c"
      text-anchor="start"
      font-family="'Droid Sans'"
      font-size="49"
      id="text563"
      x="230.60344"
      y="4127.9849">D52 / SCK</text>
    <text
      fill="#8c8c8c"
      text-anchor="start"
      font-family="'Droid Sans'"
      font-size="49"
      id="text569"
      x="230.6069"
      y="4227.2954">D53</text>
    <text
      fill="#8c8c8c"
      text-anchor="start"
      font-family="'Droid Sans'"
      font-size="49"
      id="text583"
      y="722.16504"
      x="-4472.7915"
      transform="rotate(-90)">GND</text>
    <text
      fill="#8c8c8c"
      text-anchor="end"
      font-family="'Droid Sans'"
      font-size="49"
      id="text597"
      x="-247.18292"
      y="522.60162"
      transform="rotate(-90)">3V3</text>
    <text
      fill="#8c8c8c"
      text-anchor="end"
      font-family="'Droid Sans'"
      font-size="49"
      id="text611"
      x="-245.47919"
      y="822.28156"
      transform="rotate(-90)">VIN</text>
    <text
      stroke-width="10"
      text-anchor="middle"
      font-family="'Droid Sans'"
      id="label"
      font-size="60"
      x="598.63373"
      y="2209.3052">Arduino</text>
    <text
      stroke-width="10"
      text-anchor="middle"
      font-family="'Droid Sans'"
      id="label_1_"
      font-size="60"
      x="633.86823"
      y="2294.6062">Mega</text>
    <text
      stroke-width="10"
      text-anchor="middle"
      font-family="'Droid Sans'"
      id="label_2_"
      font-size="60"
      x="640.02344"
      y="2407.2866">2560</text>
    <text
      stroke-width="10"
      text-anchor="middle"
      font-family="'Droid Sans'"
      id="label_3_"
      font-size="60"
      x="623.70654"
      y="2502.571">(Rev3)</text>
    <text
      fill="#8c8c8c"
      text-anchor="end"
      font-family="'Droid Sans'"
      font-size="49"
      id="text235-4"
      y="2527.7314"
      x="1164.6499">D20/SDA</text>
    <line
      stroke-linecap="round"
      stroke-width="10"
      stroke="#555555"
      fill="none"
      y2="1010.0001"
      x2="200.17735"
      y1="1010.0001"
      x1="5.0715456"
      id="connector0pin"
    />
    <rect
      stroke-width="0"
      fill="none"
      height="10"
      y="1005"
      x="-8.8817842e-16"
      width="10"
      id="connector0terminal"
    />
    <line
      stroke-linecap="round"
      stroke-width="10"
      stroke="#555555"
      fill="none"
      y2="1210.0001"
      x2="200.17735"
      y1="1210.0001"
      x1="5.0715456"
      id="connector1pin"
    />
    <rect
      stroke-width="0"
      fill="none"
      height="10"
      y="1205.0001"
      x="-8.8817842e-16"
      width="10"
      id="connector1terminal"
    />
    <line
      stroke-linecap="round"
      stroke-width="10"
      stroke="#555555"
      fill="none"
      y2="1410.0001"
      x2="200.17735"
      y1="1410.0001"
      x1="5.0715456"
      id="connector2pin"
    />
    <rect
      stroke-width="0"
      fill="none"
      height="10"
      y="1405.0001"
      x="-8.8817842e-16"
      width="10"
      id="connector2terminal"
    />
    <line
      stroke-linecap="round"
      stroke-width="10"
      stroke="#555555"
      fill="none"
      y2="1610.0002"
      x2="200.17735"
      y1="1610.0002"
      x1="5.0715456"
      id="connector3pin"
    />
    <rect
      stroke-width="0"
      fill="none"
      height="10"
      y="1605.0002"
      x="0"
      width="10.000004"
      id="connector3terminal"
    />
    <line
      stroke-linecap="round"
      stroke-width="10"
      stroke="#555555"
      fill="none"
      y2="1810.0002"
      x2="200.17735"
      y1="1810.0002"
      x1="5.0715456"
      id="connector4pin"
    />
    <rect
      stroke-width="0"
      fill="none"
      height="10"
      y="1805.0002"
      x="0"
      width="10.000004"
      id="connector4terminal"
    />
    <line
      stroke-linecap="round"
      stroke-width="10"
      stroke="#555555"
      fill="none"
      y2="2010.0004"
      x2="200.17735"
      y1="2010.0004"
      x1="5.0715456"
      id="connector5pin"
    />
    <rect
      stroke-width="0"
      fill="none"
      height="10"
      y="2005.0004"
      x="0"
      width="10.000004"
      id="connector5terminal"
    />
    <line
      stroke-linecap="round"
      stroke-width="10"
      stroke="#555555"
      fill="none"
      y2="2210.0005"
      x2="200.17735"
      y1="2210.0005"
      x1="5.0715456"
      id="connector6pin"
    />
    <rect
      stroke-width="0"
      fill="none"
      height="10"
      y="2205.0005"
      x="0"
      width="10.000004"
      id="connector6terminal"
    />
    <line
      stroke-linecap="round"
      stroke-width="10"
      stroke="#555555"
      fill="none"
      y2="2410.0005"
      x2="200.17735"
      y1="2410.0005"
      x1="5.0715456"
      id="connector7pin"
    />
    <rect
      stroke-width="0"
      fill="none"
      height="10"
      y="2405.0005"
      x="0"
      width="10.000004"
      id="connector7terminal"
    />
    <line
      stroke-width="1"
      stroke="none"
      fill="none"
      x2="205.12448"
      y2="410.00034"
      y1="410.00034"
      id="connector8pin"
      x1="0.1244192"
    />
    <rect
      stroke-width="0"
      fill="none"
      height="10"
      y="405.00034"
      x="0.1244192"
      width="10"
      id="connector8terminal"
    />
    <line
      stroke-linecap="round"
      stroke-width="10"
      stroke="#555555"
      fill="none"
      y2="3910.0012"
      x2="1405.0537"
      y1="3910.0012"
      x1="1209.9473"
      id="connector9pin"
    />
    <rect
      stroke-width="0"
      fill="none"
      height="10.000004"
      y="3905.0017"
      x="1400.0005"
      width="10"
      id="connector9terminal"
    />
    <line
      stroke-linecap="round"
      stroke-width="10"
      stroke="#555555"
      fill="none"
      y2="4110.001"
      x2="1405.0537"
      y1="4110.001"
      x1="1209.9473"
      id="connector10pin"
    />
    <rect
      stroke-width="0"
      fill="none"
      height="10.000004"
      y="4105.0015"
      x="1400.0005"
      width="10"
      id="connector10terminal"
    />
    <line
      stroke-linecap="round"
      stroke-width="10"
      stroke="#555555"
      fill="none"
      y2="4310.001"
      x2="1405.0537"
      y1="4310.001"
      x1="1209.9473"
      id="connector11pin"
    />
    <rect
      stroke-width="0"
      fill="none"
      height="10"
      y="4305.4224"
      x="1400.0005"
      width="10"
      id="connector11terminal"
    />
    <line
      stroke-linecap="round"
      stroke-width="10"
      stroke="#555555"
      fill="none"
      y2="2810.0007"
      x2="200.17735"
      y1="2810.0007"
      x1="5.0715456"
      id="connector12pin"
    />
    <rect
      stroke-width="0"
      fill="none"
      height="10"
      y="2805.0012"
      x="0.1244192"
      width="10"
      id="connector12terminal"
    />
    <line
      stroke-linecap="round"
      stroke-width="10"
      stroke="#555555"
      fill="none"
      y2="3010.0007"
      x2="200.17735"
      y1="3010.0007"
      x1="5.0715456"
      id="connector13pin"
    />
    <rect
      stroke-width="0"
      fill="none"
      height="10"
      y="3005.0012"
      x="0.1244192"
      width="10"
      id="connector13terminal"
    />
    <line
      stroke-linecap="round"
      stroke-width="10"
      stroke="#555555"
      fill="none"
      y2="3210.0007"
      x2="200.17735"
      y1="3210.0007"
      x1="5.0715456"
      id="connector14pin"
    />
    <rect
      stroke-width="0"
      fill="none"
      height="10"
      y="3205.0012"
      x="0.1244192"
      width="10"
      id="connector14terminal"
    />
    <line
      stroke-linecap="round"
      stroke-width="10"
      stroke="#555555"
      fill="none"
      y2="3410.0007"
      x2="200.17735"
      y1="3410.0007"
      x1="5.0715456"
      id="connector15pin"
    />
    <rect
      stroke-width="0"
      fill="none"
      height="10.000003"
      y="3405.0015"
      x="0.1244192"
      width="10"
      id="connector15terminal"
    />
    <line
      stroke-linecap="round"
      stroke-width="10"
      stroke="#555555"
      fill="none"
      y2="3610.001"
      x2="200.17735"
      y1="3610.001"
      x1="5.0715456"
      id="connector46pin"
    />
    <rect
      stroke-width="0"
      fill="none"
      height="10"
      y="3605.0015"
      x="0.1244192"
      width="10"
      id="connector46terminal"
    />
    <line
      stroke-linecap="round"
      stroke-width="10"
      stroke="#555555"
      fill="none"
      y2="3510.001"
      x2="200.17735"
      y1="3510.001"
      x1="5.0715456"
      id="connector47pin"
    />
    <rect
      stroke-width="0"
      fill="none"
      height="10"
      y="3505.0015"
      x="0.1244192"
      width="10"
      id="connector47terminal"
    />
    <line
      stroke-linecap="round"
      stroke-width="10"
      stroke="#555555"
      fill="none"
      y2="3310.0007"
      x2="200.17735"
      y1="3310.0007"
      x1="5.0715456"
      id="connector48pin"
    />
    <rect
      stroke-width="0"
      fill="none"
      height="10"
      y="3305.0012"
      x="0.1244192"
      width="10"
      id="connector48terminal"
    />
    <line
      stroke-linecap="round"
      stroke-width="10"
      stroke="#555555"
      fill="none"
      y2="3110.0007"
      x2="200.17735"
      y1="3110.0007"
      x1="5.0715456"
      id="connector49pin"
    />
    <rect
      stroke-width="0"
      fill="none"
      height="10"
      y="3105.0012"
      x="0.1244192"
      width="10"
      id="connector49terminal"
    />
    <line
      stroke-linecap="round"
      stroke-width="10"
      stroke="#555555"
      fill="none"
      y2="2910.0007"
      x2="200.17735"
      y1="2910.0007"
      x1="5.0715456"
      id="connector50pin"
    />
    <rect
      stroke-width="0"
      fill="none"
      height="10"
      y="2905.0012"
      x="0.1244192"
      width="10"
      id="connector50terminal"
    />
    <line
      stroke-linecap="round"
      stroke-width="10"
      stroke="#555555"
      fill="none"
      y2="2710.0007"
      x2="200.17735"
      y1="2710.0007"
      x1="5.0715456"
      id="connector51pin"
    />
    <rect
      stroke-width="0"
      fill="none"
      height="10"
      y="2705.0005"
      x="-8.8817842e-16"
      width="10"
      id="connector51terminal"
    />
    <line
      stroke-linecap="round"
      stroke-width="10"
      stroke="#555555"
      fill="none"
      y2="4210.4121"
      x2="1405.1781"
      y1="4210.4121"
      x1="1210.0717"
      id="connector52pin"
    />
    <rect
      stroke-width="0"
      fill="none"
      height="10"
      y="4205.0015"
      x="1400.0005"
      width="10"
      id="connector52terminal"
    />
    <line
      stroke-linecap="round"
      stroke-width="10"
      stroke="#555555"
      fill="none"
      y2="4010.0012"
      x2="1405.0537"
      y1="4010.0012"
      x1="1209.9473"
      id="connector53pin"
    />
    <rect
      stroke-width="0"
      fill="none"
      height="10"
      y="4005.0017"
      x="1400.0005"
      width="10"
      id="connector53terminal"
    />
    <line
      stroke-linecap="round"
      stroke-width="10"
      stroke="#555555"
      fill="none"
      id="connector234pin"
      x1="1209.9473"
      y1="3810.0012"
      x2="1405.0537"
      y2="3810.0012"
    />
    <rect
      stroke-width="0"
      fill="none"
      id="connector234terminal"
      width="10"
      x="1400.0005"
      y="3805.0017"
      height="10"
    />
    <line
      stroke-linecap="round"
      stroke-width="10"
      stroke="#555555"
      fill="none"
      y2="509.99988"
      x2="200.17735"
      y1="509.99988"
      x1="5.0715456"
      id="connector235pin"
    />
    <rect
      stroke-width="0"
      fill="none"
      height="10"
      y="504.99985"
      x="-8.8817842e-16"
      width="10"
      id="connector235terminal"
    />
    <line
      stroke-linecap="round"
      stroke-width="10"
      stroke="#555555"
      fill="none"
      y2="2310.0005"
      x2="200.17735"
      y1="2310.0005"
      x1="5.0715456"
      id="connector236pin"
    />
    <rect
      stroke-width="0"
      fill="none"
      height="10"
      y="2305.001"
      x="0"
      width="10.000004"
      id="connector236terminal"
    />
    <line
      stroke-linecap="round"
      stroke-width="10"
      stroke="#555555"
      fill="none"
      y2="2110.0005"
      x2="200.17735"
      y1="2110.0005"
      x1="5.0715456"
      id="connector237pin"
    />
    <rect
      stroke-width="0"
      fill="none"
      height="10"
      y="2105.0005"
      x="-8.8817842e-16"
      width="10"
      id="connector237terminal"
    />
    <line
      stroke-linecap="round"
      stroke-width="10"
      stroke="#555555"
      fill="none"
      y2="1910.0002"
      x2="200.17735"
      y1="1910.0002"
      x1="5.0715456"
      id="connector238pin"
    />
    <rect
      stroke-width="0"
      fill="none"
      height="10"
      y="1905.0004"
      x="0"
      width="10.000004"
      id="connector238terminal"
    />
    <line
      stroke-linecap="round"
      stroke-width="10"
      stroke="#555555"
      fill="none"
      id="connector239pin"
      x1="5.0712123"
      y1="1710.0002"
      x2="200.17769"
      y2="1710.0002"
    />
    <rect
      stroke-width="0"
      fill="none"
      id="connector239terminal"
      width="10"
      x="0"
      y="1705.0002"
      height="10"
    />
    <line
      stroke-linecap="round"
      stroke-width="10"
      stroke="#555555"
      fill="none"
      y2="1510.0001"
      x2="200.17735"
      y1="1510.0001"
      x1="5.0715456"
      id="connector240pin"
    />
    <rect
      stroke-width="0"
      fill="none"
      height="10"
      y="1505.0002"
      x="0"
      width="10.000004"
      id="connector240terminal"
    />
    <line
      stroke-linecap="round"
      stroke-width="10"
      stroke="#555555"
      fill="none"
      y2="1310.0001"
      x2="200.17735"
      y1="1310.0001"
      x1="5.0715456"
      id="connector241pin"
    />
    <rect
      stroke-width="0"
      fill="none"
      height="10"
      y="1305.0001"
      x="-8.8817842e-16"
      width="10"
      id="connector241terminal"
    />
    <line
      stroke-linecap="round"
      stroke-width="10"
      stroke="#555555"
      fill="none"
      y2="1110"
      x2="200.17735"
      y1="1110"
      x1="5.0715456"
      id="connector242pin"
    />
    <rect
      stroke-width="0"
      fill="none"
      height="10"
      y="1105"
      x="-8.8817842e-16"
      width="10"
      id="connector242terminal"
    />
    <line
      stroke-linecap="round"
      stroke-width="10"
      stroke="#555555"
      fill="none"
      y2="910.00006"
      x2="200.17735"
      y1="910.00006"
      x1="5.0715456"
      id="connector243pin"
    />
    <rect
      stroke-width="0"
      fill="none"
      height="10"
      y="905"
      x="-8.8817842e-16"
      width="10"
      id="connector243terminal"
    />
    <line
      stroke-linecap="round"
      stroke-width="10"
      stroke="#555555"
      fill="none"
      y2="1610.0005"
      x2="1405.0537"
      y1="1610.0005"
      x1="1209.9473"
      id="connector254pin"
    />
    <rect
      stroke-width="0"
      fill="none"
      height="10"
      y="1605.001"
      x="1400.0005"
      width="10.000004"
      id="connector254terminal"
    />
    <line
      stroke-linecap="round"
      stroke-width="10"
      stroke="#555555"
      fill="none"
      y2="1410.0004"
      x2="1405.0537"
      y1="1410.0004"
      x1="1209.9473"
      id="connector255pin"
    />
    <rect
      stroke-width="0"
      fill="none"
      height="10"
      y="1405.0009"
      x="1400.0005"
      width="10"
      id="connector255terminal"
    />
    <line
      stroke-linecap="round"
      stroke-width="10"
      stroke="#555555"
      fill="none"
      y2="1210.0004"
      x2="1405.0537"
      y1="1210.0004"
      x1="1209.9473"
      id="connector256pin"
    />
    <rect
      stroke-width="0"
      fill="none"
      height="10"
      y="1205.0009"
      x="1400.0005"
      width="10.000004"
      id="connector256terminal"
    />
    <line
      stroke-linecap="round"
      stroke-width="10"
      stroke="#555555"
      fill="none"
      x2="1405.0537"
      y2="1010.0002"
      y1="1010.0002"
      id="connector257pin"
      x1="1209.9473"
    />
    <rect
      stroke-width="0"
      fill="none"
      height="10"
      y="1005.0007"
      x="1400.0005"
      width="10"
      id="connector257terminal"
    />
    <line
      stroke-linecap="round"
      stroke-width="10"
      stroke="#555555"
      fill="none"
      y2="810.00018"
      x2="1405.0537"
      y1="810.00018"
      x1="1209.9473"
      id="connector258pin"
    />
    <rect
      stroke-width="0"
      fill="none"
      height="10"
      y="804.99994"
      x="1400.0005"
      width="10"
      id="connector258terminal"
    />
    <line
      stroke-linecap="round"
      stroke-width="10"
      stroke="#555555"
      fill="none"
      y2="609.99994"
      x2="1405.1707"
      y1="609.99994"
      x1="1210.0712"
      id="connector259pin"
    />
    <rect
      stroke-width="0"
      fill="none"
      height="10"
      y="605.00043"
      x="1400.1248"
      width="10"
      id="connector259terminal"
    />
    <line
      stroke-linecap="round"
      stroke-width="9.99999905"
      stroke="#555555"
      fill="none"
      y2="409.99985"
      x2="1405.1687"
      y1="409.99985"
      x1="1210.0807"
      id="connector260pin"
    />
    <rect
      stroke-width="0"
      fill="none"
      height="10"
      y="405.00034"
      x="1400.1248"
      width="10"
      id="connector260terminal"
    />
    <line
      stroke-linecap="round"
      stroke-width="10"
      stroke="#555555"
      fill="none"
      y2="2010.0006"
      x2="1209.9475"
      y1="2010.0006"
      x1="1405.0535"
      id="connector261pin"
    />
    <rect
      stroke-width="0"
      fill="none"
      height="10"
      y="2005.0011"
      x="1400.0005"
      width="10"
      id="connector261terminal"
    />
    <line
      stroke-linecap="round"
      stroke-width="10"
      stroke="#555555"
      fill="none"
      y2="2210.0007"
      x2="1405.1781"
      y1="2210.0007"
      x1="1210.0717"
      id="connector262pin"
    />
    <rect
      stroke-width="0"
      fill="none"
      height="10"
      y="2205.0012"
      x="1400.0005"
      width="10"
      id="connector262terminal"
    />
    <line
      stroke-linecap="round"
      stroke-width="10"
      stroke="#555555"
      fill="none"
      y2="2410.0007"
      x2="1405.0537"
      y1="2410.0007"
      x1="1209.9473"
      id="connector263pin"
    />
    <rect
      stroke-width="0"
      fill="none"
      height="10"
      y="2405.0012"
      x="1400.0005"
      width="10"
      id="connector263terminal"
    />
    <line
      stroke-linecap="round"
      stroke-width="10"
      stroke="#555555"
      fill="none"
      id="connector264pin"
      x1="1209.9473"
      y1="2610.0007"
      x2="1405.0537"
      y2="2610.0007"
    />
    <rect
      stroke-width="0"
      fill="none"
      id="connector264terminal"
      width="10"
      x="1400.0005"
      y="2605.0012"
      height="10"
    />
    <line
      stroke-linecap="round"
      stroke-width="10"
      stroke="#555555"
      fill="none"
      y2="2910.001"
      x2="1405.0537"
      y1="2910.001"
      x1="1209.9473"
      id="connector265pin"
    />
    <rect
      stroke-width="0"
      fill="none"
      height="10"
      y="2905.0015"
      x="1400.0005"
      width="10"
      id="connector265terminal"
    />
    <line
      stroke-linecap="round"
      stroke-width="10"
      stroke="#555555"
      fill="none"
      y2="3110.001"
      x2="1405.0537"
      y1="3110.001"
      x1="1209.9473"
      id="connector266pin"
    />
    <rect
      stroke-width="0"
      fill="none"
      height="10.000004"
      y="3105.0015"
      x="1400.0005"
      width="10"
      id="connector266terminal"
    />
    <line
      stroke-linecap="round"
      stroke-width="10"
      stroke="#555555"
      fill="none"
      y2="3310.001"
      x2="1405.0537"
      y1="3310.001"
      x1="1209.9473"
      id="connector267pin"
    />
    <rect
      stroke-width="0"
      fill="none"
      height="10.000004"
      y="3305.0015"
      x="1400.0005"
      width="10"
      id="connector267terminal"
    />
    <line
      stroke-linecap="round"
      stroke-width="10"
      stroke="#555555"
      fill="none"
      id="connector268pin"
      x1="1209.9469"
      y1="3510.0012"
      x2="1405.0464"
      y2="3510.0012"
    />
    <rect
      stroke-width="0"
      fill="none"
      id="connector268terminal"
      width="10"
      x="1400.0005"
      y="3505.0017"
      height="10"
    />
    <line
      stroke-linecap="round"
      stroke-width="10"
      stroke="#555555"
      fill="none"
      y2="3710.0012"
      x2="1405.0537"
      y1="3710.0012"
      x1="1209.9473"
      id="connector269pin"
    />
    <rect
      stroke-width="0"
      fill="none"
      height="10"
      y="3705.001"
      x="1400.0005"
      width="10"
      id="connector269terminal"
    />
    <line
      stroke-linecap="round"
      stroke-width="10"
      stroke="#555555"
      fill="none"
      y2="3610.0012"
      x2="1405.0537"
      y1="3610.0012"
      x1="1209.9473"
      id="connector343pin"
    />
    <rect
      stroke-width="0"
      fill="none"
      height="10"
      y="3605.001"
      x="1400.0005"
      width="10.000004"
      id="connector343terminal"
    />
    <line
      stroke-linecap="round"
      stroke-width="10"
      stroke="#555555"
      fill="none"
      y2="3410.0012"
      x2="1209.9475"
      y1="3410.0012"
      x1="1405.0535"
      id="connector344pin"
    />
    <rect
      stroke-width="0"
      fill="none"
      height="10"
      y="3405.0017"
      x="1400.0005"
      width="10"
      id="connector344terminal"
    />
    <line
      stroke-linecap="round"
      stroke-width="10"
      stroke="#555555"
      fill="none"
      y2="3210.001"
      x2="1405.0537"
      y1="3210.001"
      x1="1209.9473"
      id="connector345pin"
    />
    <rect
      stroke-width="0"
      fill="none"
      height="10.000004"
      y="3205.0015"
      x="1400.0005"
      width="10"
      id="connector345terminal"
    />
    <line
      stroke-linecap="round"
      stroke-width="10"
      stroke="#555555"
      fill="none"
      y2="3010.001"
      x2="1405.0537"
      y1="3010.001"
      x1="1209.9473"
      id="connector346pin"
    />
    <rect
      stroke-width="0"
      fill="none"
      height="10"
      y="3005.0015"
      x="1400.0005"
      width="10"
      id="connector346terminal"
    />
    <line
      stroke-linecap="round"
      stroke-width="10"
      stroke="#555555"
      fill="none"
      y2="2810.001"
      x2="1405.0537"
      y1="2810.001"
      x1="1209.9473"
      id="connector347pin"
    />
    <rect
      stroke-width="0"
      fill="none"
      height="10"
      y="2805.0015"
      x="1400.0005"
      width="10"
      id="connector347terminal"
    />
    <line
      stroke-linecap="round"
      stroke-width="10"
      stroke="#555555"
      fill="none"
      y2="2510.0007"
      x2="1405.0537"
      y1="2510.0007"
      x1="1209.9473"
      id="connector348pin"
    />
    <rect
      stroke-width="0"
      fill="none"
      height="10"
      y="2505.0012"
      x="1400.0005"
      width="10"
      id="connector348terminal"
    />
    <line
      stroke-linecap="round"
      stroke-width="10"
      stroke="#555555"
      fill="none"
      y2="2310.0007"
      x2="1405.0537"
      y1="2310.0007"
      x1="1209.9473"
      id="connector349pin"
    />
    <rect
      stroke-width="0"
      fill="none"
      height="10"
      y="2305.0012"
      x="1400.0005"
      width="10"
      id="connector349terminal"
    />
    <line
      stroke-linecap="round"
      stroke-width="10"
      stroke="#555555"
      fill="none"
      y2="2110.0007"
      x2="1405.0537"
      y1="2110.0007"
      x1="1209.9473"
      id="connector350pin"
    />
    <rect
      stroke-width="0"
      fill="none"
      height="10"
      y="2105.0012"
      x="1400.0005"
      width="10"
      id="connector350terminal"
    />
    <line
      stroke-linecap="round"
      stroke-width="10"
      stroke="#555555"
      fill="none"
      y2="1910.0006"
      x2="1405.0537"
      y1="1910.0006"
      x1="1209.9473"
      id="connector351pin"
    />
    <rect
      stroke-width="0"
      fill="none"
      height="10"
      y="1905.0011"
      x="1400.0005"
      width="10"
      id="connector351terminal"
    />
    <line
      stroke-linecap="round"
      stroke-width="10"
      stroke="#555555"
      fill="none"
      id="connector352pin"
      x1="1210.0715"
      y1="509.99988"
      x2="1405.178"
      y2="509.99988"
    />
    <rect
      stroke-width="0"
      fill="none"
      id="connector352terminal"
      width="10"
      x="1400.1248"
      y="505.00037"
      height="10"
    />
    <line
      stroke-linecap="round"
      stroke-width="10"
      stroke="#555555"
      fill="none"
      y2="710"
      x2="1405.178"
      y1="710"
      x1="1210.0715"
      id="connector353pin"
    />
    <rect
      stroke-width="0"
      fill="none"
      height="10"
      y="705.00049"
      x="1400.1248"
      width="10"
      id="connector353terminal"
    />
    <line
      stroke-linecap="round"
      stroke-width="10"
      stroke="#555555"
      fill="none"
      y2="910.00024"
      x2="1405.0537"
      y1="910.00024"
      x1="1209.9473"
      id="connector354pin"
    />
    <rect
      stroke-width="0"
      fill="none"
      height="10"
      y="905.00073"
      x="1400.0005"
      width="10"
      id="connector354terminal"
    />
    <line
      stroke-linecap="round"
      stroke-width="10"
      stroke="#555555"
      fill="none"
      id="connector355pin"
      x1="1209.9473"
      y1="1110.0002"
      x2="1405.0537"
      y2="1110.0002"
    />
    <rect
      stroke-width="0"
      fill="none"
      id="connector355terminal"
      width="10"
      x="1400.0005"
      y="1105.0007"
      height="10"
    />
    <line
      stroke-linecap="round"
      stroke-width="10"
      stroke="#555555"
      fill="none"
      y2="1310.0004"
      x2="1410.0853"
      y1="1310.0004"
      x1="1210.0717"
      id="connector356pin"
    />
    <rect
      stroke-width="0"
      fill="none"
      height="10"
      y="1305.0009"
      x="1400.0005"
      width="10.000004"
      id="connector356terminal"
    />
    <line
      stroke-linecap="round"
      stroke-width="10"
      stroke="#555555"
      fill="none"
      id="connector357pin"
      x1="1210.0717"
      y1="1514.714"
      x2="1410.0853"
      y2="1514.714"
    />
    <rect
      stroke-width="0"
      fill="none"
      id="connector357terminal"
      width="10"
      x="1400.0005"
      y="1505.0002"
      height="10"
    />
    <line
      stroke-linecap="round"
      stroke-width="10"
      stroke="#555555"
      fill="none"
      y2="1710.0005"
      x2="1405.0537"
      y1="1710.0005"
      x1="1209.9473"
      id="connector358pin"
    />
    <rect
      stroke-width="0"
      fill="none"
      height="10.000004"
      y="1705.001"
      x="1400.0005"
      width="10"
      id="connector358terminal"
    />
    <line
      stroke-width="1"
      stroke="none"
      fill="none"
      y2="215.00029"
      x2="805.12463"
      y1="5.0002213"
      x1="805.12463"
      id="connector359pin"
    />
    <rect
      stroke-width="0"
      fill="none"
      height="10"
      y="4.999681"
      x="800.00024"
      width="10.000004"
      id="connector359terminal"
    />
    <line
      stroke-width="1"
      stroke="none"
      fill="none"
      x2="700.2973"
      y2="4715.0015"
      y1="4510.0015"
      id="connector360pin"
      x1="700.2973"
    />
    <rect
      stroke-width="0"
      fill="none"
      height="10"
      y="4705.0015"
      x="700.2973"
      width="10"
      id="connector360terminal"
    />
    <line
      stroke-width="0.99999994"
      stroke="none"
      fill="none"
      x1="605.12463"
      id="connector361pin"
      y1="5.0002213"
      y2="215.00027"
      x2="605.12463"
    />
    <rect
      stroke-width="0"
      fill="none"
      height="10"
      y="5.000226"
      x="600.12457"
      width="10"
      id="connector361terminal"
    />
    <line
      stroke-width="0.99999994"
      stroke="none"
      fill="none"
      x1="505.12457"
      id="connector362pin"
      y1="10.000223"
      y2="215.00026"
      x2="505.12457"
    />
    <rect
      stroke-width="0"
      fill="none"
      height="10"
      y="5.000226"
      x="500.12457"
      width="10"
      id="connector362terminal"
    />
    <line
      stroke-linecap="round"
      stroke-width="10"
      stroke="#555555"
      fill="none"
      id="connector363pin"
      x1="505.12357"
      y1="9.9562521"
      x2="505.12357"
      y2="205.04425"
    />
    <rect
      stroke-width="0"
      fill="none"
      height="10"
      y="5.000226"
      x="500.12457"
      width="10"
      id="connector363terminal"
    />
    <line
      stroke="none"
      fill="none"
      id="connector364pin"
      x1="605.12463"
      y1="0.00022106057"
      x2="605.12463"
      y2="210.00027"
    />
    <rect
      stroke-width="0"
      fill="none"
      height="10"
      y="5.000226"
      x="600.12457"
      width="10"
      id="connector364terminal"
    />
    <line
      stroke-width="1"
      stroke="none"
      fill="none"
      y2="4714.6938"
      x2="700.2973"
      y1="4509.6938"
      x1="700.2973"
      id="connector365pin"
    />
    <rect
      stroke-width="0"
      fill="none"
      height="10"
      y="4705.0015"
      x="700.2973"
      width="10"
      id="connector365terminal"
    />
    <line
      stroke-linecap="round"
      stroke-width="10"
      stroke="#555555"
      fill="none"
      x2="805.12512"
      y2="205.04568"
      y1="9.9548092"
      id="connector366pin"
      x1="805.12512"
    />
    <rect
      stroke-width="0"
      fill="none"
      id="connector366terminal"
      width="10"
      x="800.12463"
      y="5.000226"
      height="10"
    />
    <line
      stroke-width="1"
      stroke="none"
      fill="none"
      y2="4714.6938"
      x2="705.00024"
      y1="4509.6938"
      x1="705.00024"
      id="connector367pin"
    />
    <rect
      stroke-width="0"
      fill="none"
      height="10"
      y="4705.0015"
      x="700.2973"
      width="10"
      id="connector367terminal"
    />
    <line
      stroke-linecap="round"
      stroke-width="10"
      stroke="#555555"
      fill="none"
      y2="3810.001"
      x2="200.17735"
      y1="3810.001"
      x1="5.0715456"
      id="connector368pin"
    />
    <rect
      stroke-width="0"
      fill="none"
      height="10"
      y="3805.0015"
      x="0.1244192"
      width="10"
      id="connector368terminal"
    />
    <line
      stroke-linecap="round"
      stroke-width="10"
      stroke="#555555"
      fill="none"
      y2="4010.001"
      x2="200.17735"
      y1="4010.001"
      x1="5.0715456"
      id="connector369pin"
    />
    <rect
      stroke-width="0"
      fill="none"
      height="10"
      y="4005.0015"
      x="0.1244192"
      width="10"
      id="connector369terminal"
    />
    <line
      stroke-linecap="round"
      stroke-width="10"
      stroke="#555555"
      fill="none"
      y2="4209.6934"
      x2="200.30144"
      y1="4209.6934"
      x1="5.195631"
      id="connector370pin"
    />
    <rect
      stroke-width="0"
      fill="none"
      height="10"
      y="4205.0151"
      x="0.12441935"
      width="10"
      id="connector370terminal"
    />
    <line
      stroke-linecap="round"
      stroke-width="10"
      stroke="#555555"
      fill="none"
      x2="200.17735"
      y2="4110.0005"
      y1="4110.0005"
      id="connector371pin"
      x1="5.0715456"
    />
    <rect
      stroke-width="0"
      fill="none"
      height="10"
      y="4105.001"
      x="0.1244192"
      width="10"
      id="connector371terminal"
    />
    <line
      stroke-linecap="round"
      stroke-width="10"
      stroke="#555555"
      fill="none"
      y2="3910.001"
      x2="200.17735"
      y1="3910.001"
      x1="5.0715456"
      id="connector372pin"
    />
    <rect
      stroke-width="0"
      fill="none"
      height="10"
      y="3905.0015"
      x="0.1244192"
      width="10"
      id="connector372terminal"
    />
    <line
      stroke-linecap="round"
      stroke-width="10"
      stroke="#555555"
      fill="none"
      y2="3710.001"
      x2="200.17735"
      y1="3710.001"
      x1="5.0715456"
      id="connector373pin"
    />
    <rect
      stroke-width="0"
      fill="none"
      height="10"
      y="3705.0015"
      x="0.1244192"
      width="10"
      id="connector373terminal"
    />
    <line
      stroke="none"
      fill="none"
      x2="705.00024"
      y2="4714.6938"
      y1="4509.6934"
      id="connector374pin"
      x1="705.00024"
    />
    <rect
      stroke-width="0"
      fill="none"
      height="10"
      y="4705.0015"
      x="700.2973"
      width="10"
      id="connector374terminal"
    />
    <line
      stroke-linecap="round"
      stroke-width="10"
      stroke="#555555"
      fill="none"
      x2="200.17735"
      y2="3910.001"
      y1="3910.001"
      id="connector375pin"
      x1="5.0715456"
    />
    <rect
      stroke-width="0"
      fill="none"
      height="10"
      y="3905.0015"
      x="0.1244192"
      width="10"
      id="connector375terminal"
    />
    <line
      stroke-linecap="round"
      stroke-width="10"
      stroke="#555555"
      fill="none"
      id="connector376pin"
      x1="605.12506"
      y1="9.9551296"
      x2="605.12506"
      y2="205.04536"
    />
    <rect
      stroke-width="0"
      fill="none"
      height="10"
      y="5.000226"
      x="600.12457"
      width="10"
      id="connector376terminal"
    />
    <line
      stroke-linecap="round"
      stroke-width="10"
      stroke="#555555"
      fill="none"
      y2="4110.0005"
      x2="200.17735"
      y1="4110.0005"
      x1="5.0715456"
      id="connector377pin"
    />
    <rect
      stroke-width="0"
      fill="none"
      height="10"
      y="4105.001"
      x="0.1244192"
      width="10"
      id="connector377terminal"
    />
    <line
      stroke-linecap="round"
      stroke-width="10"
      stroke="#555555"
      fill="none"
      x2="200.17735"
      y2="4010.001"
      y1="4010.001"
      id="connector378pin"
      x1="5.0715456"
    />
    <rect
      stroke-width="0"
      fill="none"
      height="10"
      y="4005.0015"
      x="0.1244192"
      width="10"
      id="connector378terminal"
    />
    <line
      stroke-linecap="round"
      stroke-width="10"
      stroke="#555555"
      fill="none"
      y2="409.99985"
      x2="200.17735"
      y1="409.99985"
      x1="5.0715456"
      id="connector379pin"
    />
    <rect
      stroke-width="0"
      fill="none"
      height="10"
      y="405.00034"
      x="0.1244192"
      width="10"
      id="connector379terminal"
    />
    <line
      stroke-width="1"
      stroke="none"
      fill="none"
      y2="4704.54"
      x2="705.00024"
      y1="4499.54"
      x1="705.00024"
      id="connector380pin"
    />
    <rect
      stroke-width="0"
      fill="none"
      height="10"
      y="4705.0015"
      x="700.2973"
      width="10"
      id="connector380terminal"
    />
    <line
      stroke-width="1"
      stroke="none"
      fill="none"
      x2="705.00024"
      y2="4714.6938"
      y1="4509.6938"
      id="connector381pin"
      x1="705.00024"
    />
    <rect
      stroke-width="0"
      fill="none"
      height="10"
      y="4705.0015"
      x="700.2973"
      width="10"
      id="connector381terminal"
    />
    <line
      stroke-width="0.99999994"
      stroke="none"
      fill="none"
      y2="4714.6938"
      x2="705.00024"
      y1="4509.6934"
      x1="705.00024"
      id="connector382pin"
    />
    <rect
      stroke-width="0"
      fill="none"
      height="10"
      y="4705.0015"
      x="700.2973"
      width="10"
      id="connector382terminal"
    />
    <line
      stroke="none"
      fill="none"
      x2="705.00024"
      y2="4714.6938"
      y1="4509.6934"
      id="connector383pin"
      x1="705.00024"
    />
    <rect
      stroke-width="0"
      fill="none"
      height="10"
      y="4705.0015"
      x="700.2973"
      width="10"
      id="connector383terminal"
    />
    <line
      stroke-width="1"
      stroke="none"
      fill="none"
      y2="4715.0015"
      x2="705.00024"
      y1="4510.0015"
      x1="705.00024"
      id="connector384pin"
    />
    <rect
      stroke-width="0"
      fill="none"
      height="10"
      y="4705.0015"
      x="700.2973"
      width="10"
      id="connector384terminal"
    />
    <line
      stroke-width="1"
      stroke="none"
      fill="none"
      x2="705.00024"
      y2="4714.6938"
      y1="4509.6938"
      id="connector385pin"
      x1="705.00024"
    />
    <rect
      stroke-width="0"
      fill="none"
      height="10"
      y="4705.0015"
      x="700.2973"
      width="10"
      id="connector385terminal"
    />
    <line
      stroke-linecap="round"
      stroke-width="10"
      stroke="#555555"
      fill="none"
      y2="4709.7393"
      x2="705.29779"
      y1="4514.6479"
      x1="705.29779"
      id="connector386pin"
    />
    <rect
      stroke-width="0"
      fill="none"
      height="10"
      y="4705.0015"
      x="700.2973"
      width="10"
      id="connector386terminal"
    />
    <text
      stroke-width="10"
      text-anchor="middle"
      font-family="'Droid Sans'"
      y="2609.5735"
      x="651.07928"
      font-size="60"
      id="text279">PRO</text>
    <text
      stroke-width="10"
      text-anchor="middle"
      font-family="'Droid Sans'"
      id="text281"
      font-size="60"
      x="632.41602"
      y="2710.355">MINI</text>
  </g>
</svg>
