<?xml version='1.0' encoding='UTF-8' standalone='no'?>
<svg
  xmlns:dc="http://purl.org/dc/elements/1.1/"
  xmlns:cc="http://creativecommons.org/ns#"
  xmlns:rdf="http://www.w3.org/1999/02/22-rdf-syntax-ns#"
  xmlns:svg="http://www.w3.org/2000/svg"
  xmlns="http://www.w3.org/2000/svg"
  height="0.87525761in"
  viewBox="0 0 1790.196 875.25789"
  version="1.1"
  width="1.7901955in"
  y="0px"
  gorn="0"
  xml:space="preserve"
  id="svg"
  x="0px"
  enable-background="new 0 0 54 59.04">
  <metadata
    id="metadata171">
    <rdf:RDF>
      <cc:Work
        rdf:about="">
        <dc:format>image/svg+xml</dc:format>
        <dc:type
          rdf:resource="http://purl.org/dc/dcmitype/StillImage"
        />
        <dc:title/>
      </cc:Work>
    </rdf:RDF>
  </metadata>
  <defs
    id="defs169">
                                                </defs>
  <desc
    id="desc3">
    <referenceFile
      id="referenceFile5">esp8266-01-adapter_1_breadboard.svg</referenceFile>
  </desc>
  <g
    id="breadboard">
    <path
      id="rect1055"
      d="m 1547.8215,859.96276 c -11.4443,10.71294 -32.0283,14.11418 -55.3876,15.29511 H 105.07741 C 85.577516,875.18247 66.077617,874.3451 46.577717,855.4642 30.564112,839.77002 32.953518,821.44683 33.082032,803.44663 V 75.579318 C 35.879115,56.612504 36.611605,37.35075 55.574841,20.69338 67.530634,12.50937 76.520754,3.58394 106.87684,0 H 1490.6345 c 21.3522,5.18589 41.3616,11.44599 50.889,26.09166 15.5759,16.49862 16.2555,35.125277 15.2951,53.98622 v 723.36875 c 4.5471,20.34795 -1.7504,38.52696 -8.9971,56.51613 z"
      fill="#214478"
      stroke-width="21.101"
    />
    <rect
      height="572.43018"
      width="990.74835"
      y="-704.75824"
      gorn="0.10"
      id="rect15"
      x="-990.74835"
      transform="scale(-1)"
      fill="#162d50"
      stroke-width="13.7601"
    />
    <ellipse
      ry="19.085592"
      rx="19.085667"
      cy="-644.19904"
      cx="-925.55151"
      id="circle1177"
      transform="scale(-1)"
      fill="none"
      stroke-width="13.7601"
    />
    <ellipse
      ry="19.085592"
      rx="19.085667"
      cy="-543.69342"
      cx="-925.55151"
      id="circle1201"
      transform="scale(-1)"
      fill="none"
      stroke-width="13.7601"
    />
    <ellipse
      ry="19.085592"
      rx="19.085667"
      cy="-443.21558"
      cx="-925.55151"
      id="circle1225"
      transform="scale(-1)"
      fill="none"
      stroke-width="13.7601"
    />
    <ellipse
      ry="19.099363"
      rx="19.099428"
      cy="-342.72372"
      cx="-925.55151"
      id="circle1249"
      transform="scale(-1)"
      fill="none"
      stroke-width="13.7601"
    />
    <ellipse
      ry="19.099363"
      rx="19.099428"
      cy="-243.59422"
      cx="-925.55151"
      id="ellipse104"
      transform="scale(-1)"
      fill="none"
      stroke-width="13.7601"
    />
    <rect
      stroke-miterlimit="10"
      height="396.97836"
      stroke="#ffffff"
      fill="none"
      width="200.20679"
      y="-621.09711"
      gorn="0.11"
      id="rect23"
      x="-975.45721"
      stroke-width="0.654249"
      transform="scale(-1)"
      stroke-linecap="round"
      stroke-linejoin="round"
    />
    <path
      d="m 926.16011,606.08291 c 18.31509,0 33.14884,-14.83364 33.14884,-33.16242 0,-18.30126 -14.83375,-33.16243 -33.14884,-33.16243 -18.30132,0 -33.16256,14.86117 -33.16256,33.16243 0,18.31502 14.86124,33.16242 33.16256,33.16242 z m 0,-52.27555 c 10.54048,0 19.08567,8.55894 19.08567,19.11313 0,10.54043 -8.54519,19.08559 -19.08567,19.08559 -10.55422,0 -19.09942,-8.54516 -19.09942,-19.08559 0.0134,-10.55419 8.57272,-19.11313 19.09942,-19.11313 z"
      gorn="0.12.0.0.0.0.0.0.0.0.0.0.0.0"
      id="path42"
      fill="#9a916c"
      stroke-width="13.7601"
    />
    <ellipse
      ry="19.085592"
      rx="19.085667"
      cx="-926.16016"
      gorn="0.12.0.0.0.0.0.0.0.0.0.0.0.1"
      id="ellipse106"
      cy="-572.97552"
      transform="scale(-1)"
      fill="#cccccc"
      stroke-width="13.7601"
    />
    <path
      d="m 926.16011,505.5636 c 18.31509,0 33.14884,-14.83365 33.14884,-33.16243 0,-18.27374 -14.83375,-33.13491 -33.14884,-33.13491 -18.30132,0 -33.16256,14.86117 -33.16256,33.13491 0,18.32878 14.86124,33.16243 33.16256,33.16243 z m 0,-52.23426 c 10.54048,0 19.08567,8.54517 19.08567,19.08559 0,10.58171 -8.54519,19.12689 -19.08567,19.12689 -10.55422,0 -19.09942,-8.54518 -19.09942,-19.12689 0.0134,-10.54042 8.57272,-19.08559 19.09942,-19.08559 z"
      gorn="0.13.0.0.0.0.0.0.0.0.0.0.0.0"
      id="path47"
      fill="#9a916c"
      stroke-width="13.7601"
    />
    <ellipse
      ry="19.085592"
      rx="19.085667"
      cx="-926.16016"
      gorn="0.13.0.0.0.0.0.0.0.0.0.0.0.1"
      id="ellipse108"
      cy="-472.49753"
      transform="scale(-1)"
      fill="#cccccc"
      stroke-width="13.7601"
    />
    <path
      d="m 926.16011,405.08557 c 18.31509,0 33.14884,-14.83365 33.14884,-33.16242 0,-18.30129 -14.83375,-33.16242 -33.14884,-33.16242 -18.30132,0 -33.16256,14.86113 -33.16256,33.16242 0,18.32877 14.86124,33.16242 33.16256,33.16242 z m 0,-52.26178 c 10.54048,0 19.08567,8.54519 19.08567,19.09936 0,10.5817 -8.54519,19.12687 -19.08567,19.12687 -10.55422,0 -19.09942,-8.54517 -19.09942,-19.12687 0,-10.55417 8.57272,-19.09936 19.09942,-19.09936 z"
      gorn="0.14.0.0.0.0.0.0.0.0.0.0.0.0"
      id="path52"
      fill="#9a916c"
      stroke-width="13.7601"
    />
    <ellipse
      ry="19.099363"
      rx="19.099428"
      cx="-926.16016"
      gorn="0.14.0.0.0.0.0.0.0.0.0.0.0.1"
      id="circle1273"
      cy="-372.00565"
      transform="scale(-1)"
      fill="#cccccc"
      stroke-width="13.7601"
    />
    <path
      d="m 926.16011,305.98359 c 18.31509,0 33.14884,-14.8337 33.14884,-33.16244 0,-18.30126 -14.83375,-33.16244 -33.14884,-33.16244 -18.30132,0 -33.16256,14.86118 -33.16256,33.16244 0,18.32874 14.86124,33.16244 33.16256,33.16244 z m 0,-52.2343 c 10.54048,0 19.08567,8.5452 19.08567,19.08559 0,10.58171 -8.54519,19.12691 -19.08567,19.12691 -10.55422,0 -19.09942,-8.5452 -19.09942,-19.12691 0.0134,-10.54039 8.57272,-19.08559 19.09942,-19.08559 z"
      gorn="0.15.0.0.0.0.0.0.0.0.0.0.0.0"
      id="path57"
      fill="#9a916c"
      stroke-width="13.7601"
    />
    <ellipse
      ry="19.099363"
      rx="19.099428"
      cx="-926.16016"
      gorn="0.15.0.0.0.0.0.0.0.0.0.0.0.1"
      id="ellipse110"
      cy="-272.8761"
      transform="scale(-1)"
      fill="#cccccc"
      stroke-width="13.7601"
    />
    <rect
      height="66.324875"
      width="66.325127"
      y="-305.98355"
      gorn="0.16"
      id="rect4064-0"
      x="-858.64856"
      transform="scale(-1)"
      fill="#9a916c"
      fill-opacity="1"
      stroke-width="13.7601"
    />
    <path
      d="m 825.49973,606.08291 c 18.31508,0 33.14881,-14.83364 33.14881,-33.16242 0,-18.30126 -14.83373,-33.16243 -33.14881,-33.16243 -18.30132,0 -33.16256,14.86117 -33.16256,33.16243 0,18.31502 14.86124,33.16242 33.16256,33.16242 z m 0,-52.27555 c 10.54046,0 19.08567,8.55894 19.08567,19.11313 0,10.54043 -8.54521,19.08559 -19.08567,19.08559 -10.55423,0 -19.09943,-8.54516 -19.09943,-19.08559 0.0136,-10.55419 8.57271,-19.11313 19.09943,-19.11313 z"
      gorn="0.17"
      id="path42-9"
      fill="#9a916c"
      fill-opacity="1"
      stroke-width="13.7601"
    />
    <rect
      height="66.324875"
      width="66.325127"
      y="-605.95911"
      gorn="0.18"
      id="rect4064"
      x="-858.64856"
      transform="scale(-1)"
      fill="#9a916c"
      fill-opacity="1"
      stroke-width="13.7601"
    />
    <ellipse
      ry="19.085592"
      rx="19.085667"
      cy="-572.97552"
      id="ellipse112"
      cx="-825.49969"
      gorn="0.19.0.0.0.0.0.0.0.0.0.0.0"
      transform="scale(-1)"
      fill="#b3b3b3"
      stroke-width="13.7601"
    />
    <path
      d="m 825.49973,505.5636 c 18.31508,0 33.14881,-14.83365 33.14881,-33.16243 0,-18.27374 -14.83373,-33.13491 -33.14881,-33.13491 -18.30132,0 -33.16256,14.86117 -33.16256,33.13491 0,18.32878 14.86124,33.16243 33.16256,33.16243 z m 0,-52.23426 c 10.54046,0 19.08567,8.54517 19.08567,19.08559 0,10.58171 -8.54521,19.12689 -19.08567,19.12689 -10.55423,0 -19.09943,-8.54518 -19.09943,-19.12689 0.0136,-10.54042 8.57271,-19.08559 19.09943,-19.08559 z"
      gorn="0.20.0.0.0.0.0.0.0.0.0.0.0.0"
      id="path47-2"
      fill="#9a916c"
      stroke-width="13.7601"
    />
    <ellipse
      ry="19.085592"
      rx="19.085667"
      cx="-825.49969"
      gorn="0.20.0.0.0.0.0.0.0.0.0.0.0.1"
      id="ellipse114"
      cy="-472.49753"
      transform="scale(-1)"
      fill="#b3b3b3"
      stroke-width="13.7601"
    />
    <path
      d="m 825.49973,405.08557 c 18.31508,0 33.14881,-14.83365 33.14881,-33.16242 0,-18.30129 -14.83373,-33.16242 -33.14881,-33.16242 -18.30132,0 -33.16256,14.86113 -33.16256,33.16242 0,18.32877 14.86124,33.16242 33.16256,33.16242 z m 0,-52.26178 c 10.54046,0 19.08567,8.54519 19.08567,19.09936 0,10.5817 -8.54521,19.12687 -19.08567,19.12687 -10.55423,0 -19.09943,-8.54517 -19.09943,-19.12687 0,-10.55417 8.57271,-19.09936 19.09943,-19.09936 z"
      gorn="0.21.0.0.0.0.0.0.0.0.0.0.0.0"
      id="path52-7"
      fill="#9a916c"
      stroke-width="13.7601"
    />
    <ellipse
      ry="19.099363"
      rx="19.099428"
      cx="-825.49969"
      gorn="0.21.0.0.0.0.0.0.0.0.0.0.0.1"
      id="ellipse116"
      cy="-372.00565"
      transform="scale(-1)"
      fill="#cccccc"
      stroke-width="13.7601"
    />
    <path
      d="m 825.49973,305.98359 c 18.31508,0 33.14881,-14.8337 33.14881,-33.16244 0,-18.30126 -14.83373,-33.16244 -33.14881,-33.16244 -18.30132,0 -33.16256,14.86118 -33.16256,33.16244 0,18.32874 14.86124,33.16244 33.16256,33.16244 z m 0,-52.2343 c 10.54046,0 19.08567,8.5452 19.08567,19.08559 0,10.58171 -8.54521,19.12691 -19.08567,19.12691 -10.55423,0 -19.09943,-8.5452 -19.09943,-19.12691 0.0136,-10.54039 8.57271,-19.08559 19.09943,-19.08559 z"
      gorn="0.22.0.0.0.0.0.0.0.0.0.0.0.0"
      id="path57-8"
      fill="#9a916c"
      stroke-width="13.7601"
    />
    <ellipse
      ry="19.099363"
      rx="19.099428"
      cx="-825.49969"
      gorn="0.22.0.0.0.0.0.0.0.0.0.0.0.1"
      id="ellipse118"
      cy="-272.8761"
      transform="scale(-1)"
      fill="#cccccc"
      stroke-width="13.7601"
    />
    <path
      fill-opacity="1"
      stroke-width="0"
      id="path4088"
      stroke-opacity="1"
      gorn="0.23.0.0.0.0.0.0.0.0.0.0.0"
      fill="#9a916c"
      stroke="none"
      d="M 366.38458,638.63278 H 57.853988 c -10.104394,-1.1515 -18.640154,-5.17874 -21.907496,-18.86476 v -34.0782 c 1.503029,-13.56212 8.739309,-16.53984 17.647704,-16.43055 H 186.25627 V 546.13478 H 52.985649 C 43.352628,545.96677 37.235967,541.0226 37.772107,527.8786 v -31.64407 c 1.108681,-15.45732 7.90206,-18.12424 15.822089,-18.25616 H 188.08188 V 458.50511 H 54.202742 c -9.989585,-0.57657 -14.143838,-4.14429 -15.213549,-16.43057 v -36.51235 c 0.430698,-9.71587 5.07224,-15.92256 15.822085,-17.03911 H 186.25627 V 364.79004 H 56.636898 c -9.581365,-0.52233 -15.382774,-6.42875 -15.21354,-20.69035 V 211.16272 c 1.120925,-11.92257 6.039304,-21.06029 24.246288,-20.45309 V 338.62285 H 202.07834 c 8.05929,0.14488 11.83881,4.26381 11.86657,11.86651 v 52.03014 c -0.75407,5.74501 -3.45367,9.89827 -10.49735,10.49727 H 66.373557 v 22.97239 H 199.64421 c 8.60453,-1.22895 12.94099,1.24105 12.93946,7.47059 v 46.6894 c -0.47306,6.77382 -0.51157,13.74682 -14.38079,14.38074 H 59.67961 v 17.87185 h 142.39873 c 8.58652,1.32992 9.29833,5.2849 9.43242,9.43235 v 50.20452 c 0.26914,8.19262 -3.98658,12.1621 -12.32298,12.32292 H 59.071074 v 22.97235 H 273.88628 V 359.3132 c -0.17765,-21.08535 5.94739,-18.85075 11.28198,-19.54093 12.22344,-1.55641 12.66892,9.73587 12.51694,21.6799 v 255.27318 h 69.30794 z"
      stroke-linecap="butt"
      stroke-linejoin="miter"
      stroke-miterlimit="4"
      stroke-dasharray="none"
    />
    <rect
      fill-opacity="1"
      stroke-width="0"
      x="-640.29871"
      id="rect4111-1-9-9"
      gorn="0.24.0"
      y="-609.67438"
      width="11.888979"
      fill="#8c8c8c"
      height="27.520693"
      transform="scale(-1)"
      stroke-miterlimit="4"
      stroke-dasharray="none"
    />
    <rect
      fill-opacity="1"
      stroke-width="0"
      x="-619.62213"
      id="rect4111-1-9-9-7"
      gorn="0.24.1"
      y="-609.67438"
      width="11.888979"
      fill="#8c8c8c"
      height="27.520693"
      transform="scale(-1)"
      stroke-miterlimit="4"
      stroke-dasharray="none"
    />
    <rect
      fill-opacity="1"
      stroke-width="0"
      x="-600.92224"
      id="rect4111-1-9-9-8"
      gorn="0.24.2"
      y="-609.67438"
      width="11.888979"
      fill="#8c8c8c"
      height="27.520693"
      transform="scale(-1)"
      stroke-miterlimit="4"
      stroke-dasharray="none"
    />
    <rect
      fill-opacity="1"
      stroke-width="0"
      x="-581.46222"
      id="rect4111-1-9-9-1"
      gorn="0.24.3"
      y="-609.67438"
      width="11.888979"
      fill="#8c8c8c"
      height="27.520693"
      transform="scale(-1)"
      stroke-miterlimit="4"
      stroke-dasharray="none"
    />
    <rect
      fill-opacity="1"
      stroke-width="0"
      x="-560.29919"
      id="rect4111-1-9-9-4"
      gorn="0.24.4"
      y="-609.67438"
      width="11.888979"
      fill="#8c8c8c"
      height="27.520693"
      transform="scale(-1)"
      stroke-miterlimit="4"
      stroke-dasharray="none"
    />
    <rect
      fill-opacity="1"
      stroke-width="0"
      x="-541.81219"
      id="rect4111-1-9-9-89"
      gorn="0.24.5"
      y="-609.67438"
      width="11.888979"
      fill="#8c8c8c"
      height="27.520693"
      transform="scale(-1)"
      stroke-miterlimit="4"
      stroke-dasharray="none"
    />
    <rect
      fill-opacity="1"
      stroke-width="0"
      x="-523.08179"
      id="rect4111-1-9-9-45"
      gorn="0.24.6"
      y="-609.67438"
      width="11.888979"
      fill="#8c8c8c"
      height="27.520693"
      transform="scale(-1)"
      stroke-miterlimit="4"
      stroke-dasharray="none"
    />
    <rect
      fill-opacity="1"
      stroke-width="0"
      x="-500.70258"
      id="rect4111-1-9-9-5"
      gorn="0.24.7"
      y="-609.67438"
      width="11.888979"
      fill="#8c8c8c"
      height="27.520693"
      transform="scale(-1)"
      stroke-miterlimit="4"
      stroke-dasharray="none"
    />
    <rect
      fill-opacity="1"
      stroke-width="0"
      x="-639.91852"
      id="rect4111-1-9-9-9"
      gorn="0.24.8"
      y="-432.30362"
      width="11.888979"
      fill="#8c8c8c"
      height="27.520693"
      transform="scale(-1)"
      stroke-miterlimit="4"
      stroke-dasharray="none"
    />
    <rect
      fill-opacity="1"
      stroke-width="0"
      x="-619.24237"
      id="rect4111-1-9-9-7-9"
      gorn="0.24.9"
      y="-432.30362"
      width="11.888979"
      fill="#8c8c8c"
      height="27.520693"
      transform="scale(-1)"
      stroke-miterlimit="4"
      stroke-dasharray="none"
    />
    <rect
      fill-opacity="1"
      stroke-width="0"
      x="-600.54224"
      id="rect4111-1-9-9-8-8"
      gorn="0.24.10"
      y="-432.30362"
      width="11.888979"
      fill="#8c8c8c"
      height="27.520693"
      transform="scale(-1)"
      stroke-miterlimit="4"
      stroke-dasharray="none"
    />
    <rect
      fill-opacity="1"
      stroke-width="0"
      x="-581.08209"
      id="rect4111-1-9-9-1-6"
      gorn="0.24.11"
      y="-432.30362"
      width="11.888979"
      fill="#8c8c8c"
      height="27.520693"
      transform="scale(-1)"
      stroke-miterlimit="4"
      stroke-dasharray="none"
    />
    <rect
      fill-opacity="1"
      stroke-width="0"
      x="-559.91925"
      id="rect4111-1-9-9-4-5"
      gorn="0.24.12"
      y="-432.30362"
      width="11.888979"
      fill="#8c8c8c"
      height="27.520693"
      transform="scale(-1)"
      stroke-miterlimit="4"
      stroke-dasharray="none"
    />
    <rect
      fill-opacity="1"
      stroke-width="0"
      x="-541.43213"
      id="rect4111-1-9-9-89-4"
      gorn="0.24.13"
      y="-432.30362"
      width="11.888979"
      fill="#8c8c8c"
      height="27.520693"
      transform="scale(-1)"
      stroke-miterlimit="4"
      stroke-dasharray="none"
    />
    <rect
      fill-opacity="1"
      stroke-width="0"
      x="-522.70172"
      id="rect4111-1-9-9-45-5"
      gorn="0.24.14"
      y="-432.30362"
      width="11.888979"
      fill="#8c8c8c"
      height="27.520693"
      transform="scale(-1)"
      stroke-miterlimit="4"
      stroke-dasharray="none"
    />
    <rect
      fill-opacity="1"
      stroke-width="0"
      x="-500.32257"
      id="rect4111-1-9-9-5-9"
      gorn="0.24.15"
      y="-432.30362"
      width="11.888979"
      fill="#8c8c8c"
      height="27.520693"
      transform="scale(-1)"
      stroke-miterlimit="4"
      stroke-dasharray="none"
    />
    <rect
      transform="rotate(-90)"
      height="27.520794"
      fill="#8c8c8c"
      width="11.888937"
      y="637.89484"
      gorn="0.24.16.0.0.0.0.0.0.0.0.0.0.0"
      id="rect4111-1-9-9-48"
      x="-585.10907"
      stroke-width="0"
      fill-opacity="1"
      stroke-miterlimit="4"
      stroke-dasharray="none"
    />
    <rect
      transform="rotate(-90)"
      height="27.520794"
      fill="#8c8c8c"
      width="11.888937"
      y="637.89484"
      gorn="0.24.17.0.0.0.0.0.0.0.0.0.0.0"
      id="rect4111-1-9-9-7-4"
      x="-564.43268"
      stroke-width="0"
      fill-opacity="1"
      stroke-miterlimit="4"
      stroke-dasharray="none"
    />
    <rect
      transform="rotate(-90)"
      height="27.520794"
      fill="#8c8c8c"
      width="11.888937"
      y="637.89484"
      gorn="0.24.18.0.0.0.0.0.0.0.0.0.0.0"
      id="rect4111-1-9-9-8-4"
      x="-545.73291"
      stroke-width="0"
      fill-opacity="1"
      stroke-miterlimit="4"
      stroke-dasharray="none"
    />
    <rect
      transform="rotate(-90)"
      height="27.520794"
      fill="#8c8c8c"
      width="11.888937"
      y="637.89484"
      gorn="0.24.19.0.0.0.0.0.0.0.0.0.0.0"
      id="rect4111-1-9-9-1-67"
      x="-526.27283"
      stroke-width="0"
      fill-opacity="1"
      stroke-miterlimit="4"
      stroke-dasharray="none"
    />
    <rect
      transform="rotate(-90)"
      height="27.520794"
      fill="#8c8c8c"
      width="11.888937"
      y="638.23907"
      gorn="0.24.20.0.0.0.0.0.0.0.0.0.0.0"
      id="rect4111-1-9-9-4-0"
      x="-506.82996"
      stroke-width="0"
      fill-opacity="1"
      stroke-miterlimit="4"
      stroke-dasharray="none"
    />
    <rect
      transform="rotate(-90)"
      height="27.520794"
      fill="#8c8c8c"
      width="11.888937"
      y="637.89484"
      gorn="0.24.21.0.0.0.0.0.0.0.0.0.0.0"
      id="rect4111-1-9-9-89-1"
      x="-486.62302"
      stroke-width="0"
      fill-opacity="1"
      stroke-miterlimit="4"
      stroke-dasharray="none"
    />
    <rect
      transform="rotate(-90)"
      height="27.520794"
      fill="#8c8c8c"
      width="11.888937"
      y="637.89484"
      gorn="0.24.22.0.0.0.0.0.0.0.0.0.0.0"
      id="rect4111-1-9-9-45-55"
      x="-467.20453"
      stroke-width="0"
      fill-opacity="1"
      stroke-miterlimit="4"
      stroke-dasharray="none"
    />
    <rect
      transform="rotate(-90)"
      height="27.520794"
      fill="#8c8c8c"
      width="11.888937"
      y="637.89484"
      gorn="0.24.23.0.0.0.0.0.0.0.0.0.0.0"
      id="rect4111-1-9-9-5-3"
      x="-445.51355"
      stroke-width="0"
      fill-opacity="1"
      stroke-miterlimit="4"
      stroke-dasharray="none"
    />
    <rect
      transform="rotate(-90)"
      height="27.520794"
      fill="#8c8c8c"
      width="11.888937"
      y="463.24036"
      gorn="0.24.24.0.0.0.0.0.0.0.0.0.0.0"
      id="rect4111-1-9-9-48-9"
      x="-583.16302"
      stroke-width="0"
      fill-opacity="1"
      stroke-miterlimit="4"
      stroke-dasharray="none"
    />
    <rect
      transform="rotate(-90)"
      height="27.520794"
      fill="#8c8c8c"
      width="11.888937"
      y="463.24036"
      gorn="0.24.25.0.0.0.0.0.0.0.0.0.0.0"
      id="rect4111-1-9-9-7-4-6"
      x="-562.48663"
      stroke-width="0"
      fill-opacity="1"
      stroke-miterlimit="4"
      stroke-dasharray="none"
    />
    <rect
      transform="rotate(-90)"
      height="27.520794"
      fill="#8c8c8c"
      width="11.888937"
      y="463.24036"
      gorn="0.24.26.0.0.0.0.0.0.0.0.0.0.0"
      id="rect4111-1-9-9-8-4-2"
      x="-543.7868"
      stroke-width="0"
      fill-opacity="1"
      stroke-miterlimit="4"
      stroke-dasharray="none"
    />
    <rect
      transform="rotate(-90)"
      height="27.520794"
      fill="#8c8c8c"
      width="11.888937"
      y="463.24036"
      gorn="0.24.27.0.0.0.0.0.0.0.0.0.0.0"
      id="rect4111-1-9-9-1-67-9"
      x="-524.32678"
      stroke-width="0"
      fill-opacity="1"
      stroke-miterlimit="4"
      stroke-dasharray="none"
    />
    <rect
      transform="rotate(-90)"
      height="27.520794"
      fill="#8c8c8c"
      width="11.888937"
      y="463.24036"
      gorn="0.24.28.0.0.0.0.0.0.0.0.0.0.0"
      id="rect4111-1-9-9-4-0-4"
      x="-503.164"
      stroke-width="0"
      fill-opacity="1"
      stroke-miterlimit="4"
      stroke-dasharray="none"
    />
    <rect
      transform="rotate(-90)"
      height="27.520794"
      fill="#8c8c8c"
      width="11.888937"
      y="463.24036"
      gorn="0.24.29.0.0.0.0.0.0.0.0.0.0.0"
      id="rect4111-1-9-9-89-1-5"
      x="-484.67688"
      stroke-width="0"
      fill-opacity="1"
      stroke-miterlimit="4"
      stroke-dasharray="none"
    />
    <rect
      transform="rotate(-90)"
      height="27.520794"
      fill="#8c8c8c"
      width="11.888937"
      y="463.24036"
      gorn="0.24.30.0.0.0.0.0.0.0.0.0.0.0"
      id="rect4111-1-9-9-45-55-3"
      x="-465.94656"
      stroke-width="0"
      fill-opacity="1"
      stroke-miterlimit="4"
      stroke-dasharray="none"
    />
    <rect
      transform="rotate(-90)"
      height="27.520794"
      fill="#8c8c8c"
      width="11.888937"
      y="463.24036"
      gorn="0.24.31.0.0.0.0.0.0.0.0.0.0.0"
      id="rect4111-1-9-9-5-3-3"
      x="-443.5675"
      stroke-width="0"
      fill-opacity="1"
      stroke-miterlimit="4"
      stroke-dasharray="none"
    />
    <rect
      fill-opacity="1"
      stroke-width="0"
      x="-650.68256"
      id="rect4504"
      gorn="0.24.32"
      y="-594.99109"
      width="174.16824"
      fill="#1a1a1a"
      height="176.60007"
      transform="scale(-1)"
      stroke-miterlimit="4"
      stroke-dasharray="none"
    />
    <rect
      fill-opacity="1"
      stroke-width="0"
      x="-509.59647"
      id="rect4506"
      gorn="0.24.33"
      y="-491.36624"
      width="0.97300714"
      fill="#8c8c8c"
      height="8.7570267"
      transform="scale(-1)"
      stroke-miterlimit="4"
      stroke-dasharray="none"
    />
    <rect
      transform="rotate(-90)"
      height="50.872963"
      fill="#8c8c8c"
      width="16.949749"
      y="630.24323"
      gorn="0.25.0.0.0.0.0.0.0.0.0.0.0.0"
      id="rect4111-1-9-9-5-3-0"
      x="-196.46564"
      stroke-width="0"
      fill-opacity="1"
      stroke-miterlimit="4"
      stroke-dasharray="none"
    />
    <rect
      transform="rotate(-90)"
      height="50.872963"
      fill="#8c8c8c"
      width="16.949749"
      y="630.24323"
      gorn="0.25.1.0.0.0.0.0.0.0.0.0.0.0"
      id="rect4111-1-9-9-5-3-0-0"
      x="-245.60223"
      stroke-width="0"
      fill-opacity="1"
      stroke-miterlimit="4"
      stroke-dasharray="none"
    />
    <rect
      transform="rotate(-90)"
      height="50.872963"
      fill="#8c8c8c"
      width="16.949749"
      y="630.24323"
      gorn="0.25.2.0.0.0.0.0.0.0.0.0.0.0"
      id="rect4111-1-9-9-5-3-0-2"
      x="-298.14438"
      stroke-width="0"
      fill-opacity="1"
      stroke-miterlimit="4"
      stroke-dasharray="none"
    />
    <rect
      transform="rotate(-90)"
      height="50.872963"
      fill="#8c8c8c"
      width="16.949749"
      y="630.24323"
      gorn="0.25.3.0.0.0.0.0.0.0.0.0.0.0"
      id="rect4111-1-9-9-5-3-0-1"
      x="-345.82156"
      stroke-width="0"
      fill-opacity="1"
      stroke-miterlimit="4"
      stroke-dasharray="none"
    />
    <rect
      transform="rotate(-90)"
      height="50.872963"
      fill="#8c8c8c"
      width="16.949749"
      y="458.02106"
      gorn="0.25.4.0.0.0.0.0.0.0.0.0.0.0"
      id="rect4111-1-9-9-5-3-0-9"
      x="-196.22241"
      stroke-width="0"
      fill-opacity="1"
      stroke-miterlimit="4"
      stroke-dasharray="none"
    />
    <rect
      transform="rotate(-90)"
      height="50.872963"
      fill="#8c8c8c"
      width="16.949749"
      y="458.02106"
      gorn="0.25.5.0.0.0.0.0.0.0.0.0.0.0"
      id="rect4111-1-9-9-5-3-0-0-1"
      x="-245.35899"
      stroke-width="0"
      fill-opacity="1"
      stroke-miterlimit="4"
      stroke-dasharray="none"
    />
    <rect
      transform="rotate(-90)"
      height="50.872963"
      fill="#8c8c8c"
      width="16.949749"
      y="458.02106"
      gorn="0.25.6.0.0.0.0.0.0.0.0.0.0.0"
      id="rect4111-1-9-9-5-3-0-2-7"
      x="-297.90118"
      stroke-width="0"
      fill-opacity="1"
      stroke-miterlimit="4"
      stroke-dasharray="none"
    />
    <rect
      transform="rotate(-90)"
      height="50.872963"
      fill="#8c8c8c"
      width="16.949749"
      y="458.02106"
      gorn="0.25.7.0.0.0.0.0.0.0.0.0.0.0"
      id="rect4111-1-9-9-5-3-0-1-6"
      x="-345.57837"
      stroke-width="0"
      fill-opacity="1"
      stroke-miterlimit="4"
      stroke-dasharray="none"
    />
    <rect
      fill-opacity="1"
      stroke-width="0"
      x="-647.76349"
      id="rect4504-5"
      gorn="0.25.8"
      y="-361.59549"
      width="153.73512"
      fill="#1a1a1a"
      height="197.03316"
      transform="scale(-1)"
      stroke-miterlimit="4"
      stroke-dasharray="none"
    />
    <rect
      height="41.476616"
      fill="#8c8c8c"
      width="29.981953"
      y="-373.45157"
      gorn="0.26"
      id="rect4111-7-1-7-7"
      x="-402.4751"
      stroke-width="0"
      fill-opacity="1"
      transform="scale(-1)"
      stroke-miterlimit="4"
      stroke-dasharray="none"
    />
    <rect
      height="41.476616"
      fill="#8c8c8c"
      width="29.981953"
      y="-443.0213"
      gorn="0.27"
      id="rect4111-7-1-7-7-3"
      x="-402.4751"
      stroke-width="0"
      fill-opacity="1"
      transform="scale(-1)"
      stroke-miterlimit="4"
      stroke-dasharray="none"
    />
    <rect
      height="41.476616"
      fill="#8c8c8c"
      width="29.981953"
      y="-373.45157"
      gorn="0.28"
      id="rect4111-7-1-7-7-7"
      x="-348.83807"
      stroke-width="0"
      fill-opacity="1"
      transform="scale(-1)"
      stroke-miterlimit="4"
      stroke-dasharray="none"
    />
    <rect
      height="41.476616"
      fill="#8c8c8c"
      width="29.981953"
      y="-443.0213"
      gorn="0.29"
      id="rect4111-7-1-7-7-3-1"
      x="-348.83807"
      stroke-width="0"
      fill-opacity="1"
      transform="scale(-1)"
      stroke-miterlimit="4"
      stroke-dasharray="none"
    />
    <rect
      height="96.327301"
      fill="#e9ddaf"
      width="67.62397"
      y="-435.41858"
      gorn="0.30"
      id="rect4661"
      x="-393.32211"
      stroke-width="0"
      fill-opacity="1"
      transform="scale(-1)"
      stroke-miterlimit="4"
      stroke-dasharray="none"
    />
    <rect
      fill-opacity="1"
      stroke-width="0"
      x="-381.49643"
      id="rect3872"
      gorn="0.31.0"
      y="-480.12531"
      width="32.357197"
      fill="#1a1a1a"
      height="16.178535"
      transform="scale(-1)"
      stroke-miterlimit="4"
      stroke-dasharray="none"
    />
    <rect
      fill-opacity="1"
      stroke-width="0"
      x="-381.49643"
      id="rect3874"
      gorn="0.31.1"
      y="-480.12531"
      width="8.0892992"
      fill="#8c8c8c"
      height="16.178535"
      transform="scale(-1)"
      stroke-miterlimit="4"
      stroke-dasharray="none"
    />
    <rect
      fill-opacity="1"
      stroke-width="0"
      x="-357.05569"
      id="rect3876"
      gorn="0.31.2"
      y="-480.12531"
      width="8.0892992"
      fill="#8c8c8c"
      height="16.178535"
      transform="scale(-1)"
      stroke-miterlimit="4"
      stroke-dasharray="none"
    />
    <rect
      height="16.178535"
      fill="#1a1a1a"
      width="32.357197"
      y="-309.36316"
      gorn="0.32.0.0.0.0.0.0.0.0.0.0.0.0"
      id="rect3906"
      x="-376.63129"
      stroke-width="0"
      fill-opacity="1"
      transform="scale(-1)"
      stroke-miterlimit="4"
      stroke-dasharray="none"
    />
    <rect
      height="16.178535"
      fill="#8c8c8c"
      width="8.0892992"
      y="-309.36316"
      gorn="0.32.0.0.0.0.0.0.0.0.0.0.0.1"
      id="rect3908"
      x="-376.63129"
      stroke-width="0"
      fill-opacity="1"
      transform="scale(-1)"
      stroke-miterlimit="4"
      stroke-dasharray="none"
    />
    <rect
      height="16.178535"
      fill="#8c8c8c"
      width="8.0892992"
      y="-309.36316"
      gorn="0.32.0.0.0.0.0.0.0.0.0.0.0.2"
      id="rect3910"
      x="-352.19061"
      stroke-width="0"
      fill-opacity="1"
      transform="scale(-1)"
      stroke-miterlimit="4"
      stroke-dasharray="none"
    />
    <rect
      transform="rotate(90)"
      height="16.178598"
      fill="#1a1a1a"
      width="32.357071"
      y="-399.10535"
      gorn="0.33.0.0.0.0.0.0.0.0.0.0.0.0"
      id="rect3914"
      x="512.69171"
      stroke-width="0"
      fill-opacity="1"
      stroke-miterlimit="4"
      stroke-dasharray="none"
    />
    <rect
      transform="rotate(90)"
      height="16.178598"
      fill="#8c8c8c"
      width="8.0892677"
      y="-399.10535"
      gorn="0.33.0.0.0.0.0.0.0.0.0.0.0.1"
      id="rect3916"
      x="512.69171"
      stroke-width="0"
      fill-opacity="1"
      stroke-miterlimit="4"
      stroke-dasharray="none"
    />
    <rect
      transform="rotate(90)"
      height="16.178598"
      fill="#8c8c8c"
      width="8.0892677"
      y="-399.10535"
      gorn="0.33.0.0.0.0.0.0.0.0.0.0.0.2"
      id="rect3918"
      x="537.13239"
      stroke-width="0"
      fill-opacity="1"
      stroke-miterlimit="4"
      stroke-dasharray="none"
    />
    <rect
      height="16.178535"
      fill="#1a1a1a"
      width="32.357197"
      y="-676.18561"
      gorn="0.34.0.0.0.0.0.0.0.0.0.0.0.0"
      id="rect3922"
      x="-595.07141"
      stroke-width="0"
      fill-opacity="1"
      transform="scale(-1)"
      stroke-miterlimit="4"
      stroke-dasharray="none"
    />
    <rect
      height="16.178535"
      fill="#8c8c8c"
      width="8.0892992"
      y="-676.18561"
      gorn="0.34.0.0.0.0.0.0.0.0.0.0.0.1"
      id="rect3924"
      x="-595.07141"
      stroke-width="0"
      fill-opacity="1"
      transform="scale(-1)"
      stroke-miterlimit="4"
      stroke-dasharray="none"
    />
    <rect
      height="16.178535"
      fill="#8c8c8c"
      width="8.0892992"
      y="-676.18561"
      gorn="0.34.0.0.0.0.0.0.0.0.0.0.0.2"
      id="rect3926"
      x="-570.63062"
      stroke-width="0"
      fill-opacity="1"
      transform="scale(-1)"
      stroke-miterlimit="4"
      stroke-dasharray="none"
    />
    <rect
      height="22.989557"
      fill="#1a1a1a"
      width="44.455177"
      y="-679.10468"
      gorn="0.35.0.0.0.0.0.0.0.0.0.0.0.0"
      id="rect3930"
      x="-416.52454"
      stroke-width="0"
      fill-opacity="1"
      transform="scale(-1)"
      stroke-miterlimit="4"
      stroke-dasharray="none"
    />
    <rect
      height="22.989557"
      fill="#8c8c8c"
      width="11.113792"
      y="-679.10468"
      gorn="0.35.0.0.0.0.0.0.0.0.0.0.0.1"
      id="rect3932"
      x="-416.52454"
      stroke-width="0"
      fill-opacity="1"
      transform="scale(-1)"
      stroke-miterlimit="4"
      stroke-dasharray="none"
    />
    <rect
      height="22.989557"
      fill="#8c8c8c"
      width="11.113792"
      y="-679.10468"
      gorn="0.35.0.0.0.0.0.0.0.0.0.0.0.2"
      id="rect3934"
      x="-382.94586"
      stroke-width="0"
      fill-opacity="1"
      transform="scale(-1)"
      stroke-miterlimit="4"
      stroke-dasharray="none"
    />
    <path
      fill-opacity="1"
      id="path3901"
      gorn="0.36.0"
      fill="#696969"
      stroke="none"
      d="m 562.38204,472.39266 c 17.35279,16.45668 17.99147,46.17873 0.48643,62.51546 -22.12806,21.59631 -46.2115,14.97141 -63.00224,0.48658 l 3.16229,-3.89205 c 22.45944,22.33145 48.14329,9.39665 56.92091,2e-5 11.80642,-13.78389 18.35832,-35.33679 -0.24329,-55.70444 z"
      stroke-width="13.7601"
    />
    <path
      d="m 547.54365,527.97548 a 6.8110493,6.6893981 0 1 1 13.62208,0 6.8110493,6.6893981 0 1 1 -13.62208,0 z"
      stroke="none"
      fill="#696969"
      gorn="0.36.1.0.0.0.0.0.0.0.0.0.0.0"
      id="path4671"
      fill-opacity="1"
      stroke-width="11.0089"
    />
    <path
      fill-opacity="1"
      id="path4673"
      gorn="0.36.2"
      fill="#696969"
      stroke="none"
      d="m 563.84155,518.12383 c -15.34251,-4.17975 -23.83415,1.14802 -18.97366,18.24378 -8.02691,8.05581 -18.49343,7.1663 -30.40646,0.97301 -2.76782,-16.36057 1.9406,-28.24564 10.70306,-37.70385 10.74751,-10.62618 23.81411,-14.32091 38.92029,-11.91931 4.02816,4.35459 3.65354,8.58315 0.973,12.16255 -12.3513,-2.6205 -22.43116,0.43757 -30.89297,7.54077 -7.73887,9.11011 -9.44452,19.35143 -6.81107,30.40635 1.5931,0.23984 3.35647,0.46993 5.59482,-0.24327 -4.3174,-9.82698 -1.52987,-18.13149 3.16223,-26.02785 8.33141,-8.95397 19.48683,-9.83924 32.35251,-5.83802 -0.37563,6.46527 -2.31834,9.79625 -4.62179,12.40581 z"
      stroke-width="13.7601"
    />
    <path
      fill-opacity="1"
      id="path4675"
      gorn="0.36.3"
      fill="#696969"
      stroke="none"
      d="m 509.5964,528.5836 c -7.18943,2.69678 -10.30252,-0.9474 -11.67608,-7.29751 6.61247,-36.23968 27.5229,-45.02742 50.10987,-50.59617 7.16928,2.276 9.53014,6.40142 8.27054,11.91927 -37.53987,6.13665 -44.36822,25.11627 -46.70433,45.97441 z"
      stroke-width="13.7601"
    />
    <path
      fill-opacity="1"
      id="path4677"
      gorn="0.36.4"
      fill="#696969"
      stroke="none"
      d="m 535.13784,469.2304 c -18.13498,7.30755 -33.23084,17.79365 -38.43378,38.67689 -0.64537,1.25852 -2.94367,1.23513 -2.91902,-1.94602 1.33354,-26.85377 15.45572,-39.14273 40.13651,-39.40662 2.24086,0.64165 1.33986,1.7117 1.21629,2.67575 z"
      stroke-width="13.7601"
    />
    <rect
      height="33.856621"
      x="-638.23334"
      width="49.21619"
      y="1088.7401"
      id="rect8"
      transform="rotate(-90)"
      fill="#8c8c8c"
      stroke="none"
      stroke-width="0"
      stroke-linecap="round"
    />
    <rect
      height="39.065331"
      x="-568.0849"
      width="25.823669"
      y="1226.7478"
      id="rect10"
      transform="rotate(-90)"
      fill="#8c8c8c"
      stroke="none"
      stroke-width="0"
      stroke-linecap="round"
    />
    <rect
      height="39.065331"
      x="-684.98859"
      width="28.522806"
      y="1226.7478"
      id="rect12"
      transform="rotate(-90)"
      fill="#8c8c8c"
      stroke="none"
      stroke-width="0"
      stroke-linecap="round"
    />
    <rect
      height="127.50925"
      x="-687.38043"
      width="147.5107"
      y="1113.4694"
      id="rect14"
      transform="rotate(-90)"
      fill="#4d4d4d"
      stroke="none"
      stroke-width="0"
    />
    <circle
      cx="-649.87726"
      r="12.500907"
      cy="1203.4757"
      id="circle24"
      transform="rotate(-90)"
      fill="#1f1f1f"
      stroke="none"
      stroke-width="0"
    />
    <rect
      transform="matrix(0,-1,0.72408491,-0.68971084,0,0)"
      y="1538.3195"
      x="-1748.7457"
      height="17.264421"
      width="135.57962"
      id="rect25"
      fill="#333333"
      stroke-width="30.606"
    />
    <rect
      height="39.065331"
      x="-628.73407"
      width="28.522806"
      y="1226.7478"
      id="rect511"
      transform="rotate(-90)"
      fill="#8c8c8c"
      stroke="none"
      stroke-width="0"
      stroke-linecap="round"
    />
    <rect
      transform="matrix(0,-1,0.70772848,0.70648454,0,0)"
      y="1735.5333"
      x="551.13477"
      height="17.663424"
      width="135.03175"
      id="rect31"
      fill="#333333"
      stroke-width="30.9576"
    />
    <rect
      transform="matrix(-0.66458552,-0.74721221,1,0,0,0)"
      y="634.00391"
      x="-739.16449"
      height="115.55833"
      width="16.730062"
      id="rect29"
      fill="#000000"
      stroke-width="30.1286"
    />
    <rect
      transform="matrix(0.71207892,-0.70209943,1,0,0,0)"
      y="1810.4491"
      x="-979.18073"
      height="114.68954"
      width="17.805037"
      id="rect27"
      fill="#000000"
      stroke-width="31.0814"
    />
    <rect
      height="18.321493"
      x="395.34326"
      width="26.633316"
      y="-1213.608"
      id="rect385"
      transform="rotate(90)"
      fill="#8c8c8c"
      stroke="none"
      stroke-width="0"
      stroke-linecap="round"
    />
    <rect
      height="21.140184"
      x="420.64523"
      width="26.633316"
      y="-1138.9253"
      id="rect387"
      transform="rotate(90)"
      fill="#8c8c8c"
      stroke="none"
      stroke-width="0"
      stroke-linecap="round"
    />
    <rect
      height="21.140184"
      x="370.04172"
      width="26.633316"
      y="-1138.9253"
      id="rect389"
      transform="rotate(90)"
      fill="#8c8c8c"
      stroke="none"
      stroke-width="0"
      stroke-linecap="round"
    />
    <rect
      height="69.001564"
      x="368.74734"
      width="79.825333"
      y="-1200.2258"
      id="rect391"
      transform="rotate(90)"
      fill="#4d4d4d"
      stroke="none"
      stroke-width="0"
    />
    <circle
      cx="389.04214"
      r="6.7648592"
      cy="-1151.519"
      id="circle393"
      transform="rotate(90)"
      fill="#1f1f1f"
      stroke="none"
      stroke-width="0"
    />
    <rect
      transform="matrix(0,1,-0.72408491,0.68971084,0,0)"
      y="-1657.2737"
      x="1511.587"
      height="9.3426332"
      width="73.368843"
      id="rect395"
      fill="#333333"
      stroke-width="16.5624"
    />
    <rect
      transform="matrix(0,1,-0.70772847,-0.70648454,0,0)"
      y="-1608.0923"
      x="-760.64142"
      height="9.5585527"
      width="73.072365"
      id="rect397"
      fill="#333333"
      stroke-width="16.7527"
    />
    <rect
      transform="matrix(0.66458552,0.74721221,-1,0,0,0)"
      y="-800.87451"
      x="591.31683"
      height="62.534328"
      width="9.0534639"
      id="rect399"
      fill="#000000"
      stroke-width="16.3041"
    />
    <rect
      transform="matrix(-0.71207892,0.70209944,-1,0,0,0)"
      y="-1574.3071"
      x="525.1283"
      height="62.064186"
      width="9.6351852"
      id="rect401"
      fill="#000000"
      stroke-width="16.8197"
    />
    <rect
      height="18.321493"
      x="260.4704"
      width="26.633316"
      y="-1209.7909"
      id="rect405"
      transform="rotate(90)"
      fill="#8c8c8c"
      stroke="none"
      stroke-width="0"
      stroke-linecap="round"
    />
    <rect
      height="21.140184"
      x="285.77237"
      width="26.633316"
      y="-1135.1082"
      id="rect407"
      transform="rotate(90)"
      fill="#8c8c8c"
      stroke="none"
      stroke-width="0"
      stroke-linecap="round"
    />
    <rect
      height="21.140184"
      x="235.16885"
      width="26.633316"
      y="-1135.1082"
      id="rect409"
      transform="rotate(90)"
      fill="#8c8c8c"
      stroke="none"
      stroke-width="0"
      stroke-linecap="round"
    />
    <rect
      height="69.001564"
      x="233.8745"
      width="79.825333"
      y="-1196.4087"
      id="rect411"
      transform="rotate(90)"
      fill="#4d4d4d"
      stroke="none"
      stroke-width="0"
    />
    <circle
      cx="254.16931"
      r="6.7648592"
      cy="-1147.7018"
      id="circle413"
      transform="rotate(90)"
      fill="#1f1f1f"
      stroke="none"
      stroke-width="0"
    />
    <rect
      transform="matrix(0,1,-0.72408491,0.68971084,0,0)"
      y="-1652.002"
      x="1373.0781"
      height="9.3426332"
      width="73.368843"
      id="rect415"
      fill="#333333"
      stroke-width="16.5624"
    />
    <rect
      transform="matrix(0,1,-0.70772847,-0.70648454,0,0)"
      y="-1602.6987"
      x="-891.7038"
      height="9.5585527"
      width="73.072365"
      id="rect417"
      fill="#333333"
      stroke-width="16.7527"
    />
    <rect
      transform="matrix(0.66458552,0.74721221,-1,0,0,0)"
      y="-917.01593"
      x="410.81546"
      height="62.534328"
      width="9.0534639"
      id="rect419"
      fill="#000000"
      stroke-width="16.3041"
    />
    <rect
      transform="matrix(-0.71207892,0.70209944,-1,0,0,0)"
      y="-1433.7001"
      x="333.02893"
      height="62.064186"
      width="9.6351852"
      id="rect421"
      fill="#000000"
      stroke-width="16.8197"
    />
    <rect
      height="37.236099"
      width="110.639"
      x="982.52283"
      id="rect3806"
      y="524.40759"
      fill="#4d4d4d"
    />
    <rect
      height="0.63888901"
      width="110.639"
      enable-background="new    "
      x="982.52283"
      id="rect3808"
      y="524.40759"
      opacity="0.2"
      fill="#ffffff"
    />
    <rect
      height="11.0972"
      width="110.639"
      y="552.60199"
      x="982.52283"
      id="rect3810"
      fill="#333333"
    />
    <rect
      height="0.444444"
      width="110.639"
      y="563.32428"
      enable-background="new    "
      x="982.52283"
      id="rect3812"
      opacity="0.2"
    />
    <path
      d="m 1077.0924,524.40761 v 0 0 h -1.2917 v 0 c -1.1111,3.48611 -1.875,11.0556 -1.875,14.9306 0,4.04167 0.6666,9.625 1.875,13.2639 v 0 0 l 16.9861,-1e-4 v -28.1944 z"
      id="path3814"
      fill="#dcdcdc"
    />
    <path
      d="m 999.81452,525.85205 v -1.44444 h -16.97223 v 28.1944 h 16.9861 c 1.22221,-3.6527 2.68051,-9.1527 2.68051,-13.25 0,-4.8055 -1.0416,-9.3194 -2.69438,-13.49996 z"
      id="path3816"
      fill="#dcdcdc"
    />
    <path
      d="m 1092.8838,554.07431 h -16.9859 l -0.097,-1.4723 h 16.9861 z"
      id="path3818"
      fill="#999999"
    />
    <path
      d="m 982.92562,554.10201 h 16.98609 l -0.0972,-1.5 h -16.97224 l 0.0833,1.5 z"
      id="path3820"
      fill="#999999"
    />
    <rect
      height="0.63888901"
      width="16.986099"
      y="563.12982"
      enable-background="new    "
      x="982.84229"
      id="rect3822"
      opacity="0.15"
    />
    <rect
      height="0.63888901"
      width="16.986099"
      enable-background="new    "
      x="982.84229"
      id="rect3824"
      y="524.40759"
      opacity="0.5"
      fill="#ffffff"
    />
    <rect
      height="0.63888901"
      width="17"
      y="563.12982"
      enable-background="new    "
      x="1075.8146"
      id="rect3826"
      opacity="0.15"
    />
    <rect
      height="0.63888901"
      width="17"
      enable-background="new    "
      x="1075.8146"
      id="rect3828"
      y="524.40759"
      opacity="0.5"
      fill="#ffffff"
    />
    <line
      x1="993.10614"
      y2="563.76868"
      y1="563.76868"
      x2="993.10614"
      id="line3830"
      fill="none"
    />
    <rect
      height="9.6111097"
      width="1.63889"
      y="554.07428"
      x="1091.5088"
      id="rect3832"
      fill="#999999"
    />
    <rect
      height="9.6111097"
      width="1.6527801"
      y="554.07428"
      x="982.84229"
      id="rect3834"
      fill="#999999"
    />
    <rect
      height="37.236099"
      width="110.639"
      x="1301.8916"
      id="rect479"
      y="544.76575"
      fill="#4d4d4d"
    />
    <rect
      height="0.63888901"
      width="110.639"
      enable-background="new    "
      x="1301.8916"
      id="rect481"
      y="544.76575"
      opacity="0.2"
      fill="#ffffff"
    />
    <rect
      height="11.0972"
      width="110.639"
      y="572.96014"
      x="1301.8916"
      id="rect483"
      fill="#333333"
    />
    <rect
      height="0.444444"
      width="110.639"
      y="583.6825"
      enable-background="new    "
      x="1301.8916"
      id="rect485"
      opacity="0.2"
    />
    <path
      d="m 1396.4611,544.76578 v 0 0 h -1.2917 v 0 c -1.1111,3.48611 -1.875,11.0556 -1.875,14.9306 0,4.04167 0.6667,9.625 1.875,13.2639 v 0 0 l 16.9861,-10e-5 v -28.1944 z"
      id="path487"
      fill="#dcdcdc"
    />
    <path
      d="m 1319.1833,546.21022 v -1.44444 h -16.9723 v 28.1944 h 16.9861 c 1.2223,-3.6527 2.6806,-9.1527 2.6806,-13.25 0,-4.8055 -1.0416,-9.3194 -2.6944,-13.49996 z"
      id="path489"
      fill="#dcdcdc"
    />
    <path
      d="m 1412.2525,574.43248 h -16.9859 l -0.097,-1.4723 h 16.9861 z"
      id="path491"
      fill="#999999"
    />
    <path
      d="m 1302.2944,574.46018 h 16.9861 l -0.097,-1.5 h -16.9723 l 0.083,1.5 z"
      id="path493"
      fill="#999999"
    />
    <rect
      height="0.63888901"
      width="16.986099"
      y="583.48798"
      enable-background="new    "
      x="1302.2111"
      id="rect495"
      opacity="0.15"
    />
    <rect
      height="0.63888901"
      width="16.986099"
      enable-background="new    "
      x="1302.2111"
      id="rect497"
      y="544.76575"
      opacity="0.5"
      fill="#ffffff"
    />
    <rect
      height="0.63888901"
      width="17"
      y="583.48798"
      enable-background="new    "
      x="1395.1832"
      id="rect499"
      opacity="0.15"
    />
    <rect
      height="0.63888901"
      width="17"
      enable-background="new    "
      x="1395.1832"
      id="rect501"
      y="544.76575"
      opacity="0.5"
      fill="#ffffff"
    />
    <line
      x1="1312.4749"
      y2="584.12689"
      y1="584.12689"
      x2="1312.4749"
      id="line503"
      fill="none"
    />
    <rect
      height="9.6111097"
      width="1.63889"
      y="574.4325"
      x="1410.8774"
      id="rect505"
      fill="#999999"
    />
    <rect
      height="9.6111097"
      width="1.6527801"
      y="574.4325"
      x="1302.2111"
      id="rect507"
      fill="#999999"
    />
    <rect
      id="rect515"
      width="73.776413"
      height="17.09453"
      x="1281.0015"
      y="227.63071"
      fill="#b3b3b3"
      stroke="none"
      stroke-width="0"
    />
    <rect
      id="rect521"
      width="73.776413"
      height="17.09453"
      x="1281.0015"
      y="319.29449"
      fill="#b3b3b3"
      stroke="none"
      stroke-width="0"
    />
    <rect
      id="rect519"
      width="73.776413"
      height="17.09453"
      x="1281.0015"
      y="287.00281"
      fill="#b3b3b3"
      stroke="none"
      stroke-width="0"
    />
    <rect
      id="rect517"
      width="73.776413"
      height="17.09453"
      x="1281.0015"
      y="258.87781"
      fill="#b3b3b3"
      stroke="none"
      stroke-width="0"
    />
    <rect
      id="rect513"
      width="35.988495"
      height="121.46117"
      x="1298.0959"
      y="223.13214"
      fill="#1a1a1a"
      stroke="none"
      stroke-width="0"
    />
    <text
      fill="#ffffff"
      font-family="OCRA"
      x="1440.5212"
      y="243.576"
      font-size="48.611"
      id="text3683">TX</text>
    <text
      fill="#ffffff"
      font-family="OCRA"
      id="text3685"
      font-size="48.611"
      y="185.99442"
      x="1443.6602">RX</text>
    <text
      fill="#ffffff"
      font-family="OCRA"
      id="text3687"
      font-size="48.611"
      y="686.07678"
      x="1431.9841">VCC</text>
    <text
      fill="#ffffff"
      font-family="OCRA"
      id="text801"
      font-size="48.611"
      y="744.40912"
      x="1431.9841">GND</text>
    <polygon
      id="polygon7"
      points="1000,217.113 782.747,0 217.113,0 0,217.113 0,782.747 217.113,1000 782.747,1000 1000,782.747 "
      transform="matrix(0,0.1,-0.1,0,1527.5557,248.2186)"
      fill="#404040"
    />
    <polygon
      id="polygon23"
      points="2000,217.113 1782.75,0 1217.11,0 1000,217.113 1000,782.747 1217.11,1000 1782.75,1000 2000,782.747 "
      transform="matrix(0,0.1,-0.1,0,1527.5557,248.2186)"
      fill="#404040"
    />
    <polygon
      id="polygon39-2"
      points="3000,217.113 2782.75,0 2217.11,0 2000,217.113 2000,782.747 2217.11,1000 2782.75,1000 3000,782.747 "
      transform="matrix(0,0.1,-0.1,0,1527.5557,248.2186)"
      fill="#404040"
    />
    <polygon
      transform="matrix(-0.02924925,-0.19251476,0.05099884,-0.05130482,1789.4653,836.0697)"
      points="1582.03,417.974 1659.67,340.463 1659.67,659.674 1582.03,582.025 "
      id="polygon33"
      fill="#aa8800"
    />
    <rect
      transform="matrix(-0.57978493,0.81476956,-0.74660643,-0.66526599,0,0)"
      y="-1734.6665"
      x="-810.61224"
      height="8.5491524"
      width="8.8936434"
      id="rect3422"
      fill-opacity="1"
      fill="#d4aa00"
      stroke-width="0.0999992"
    />
    <rect
      width="16.4189"
      y="501.01538"
      height="9.4534826"
      x="1756.799"
      id="rect29-1"
      fill="#ffffff"
      stroke-width="0.0999993"
    />
    <polygon
      transform="matrix(0,0.09999851,-0.1239789,-0.0521716,1846.6273,361.7966)"
      points="1582.03,582.025 1659.67,659.674 1340.46,659.674 1417.97,582.025 "
      id="polygon35"
      fill="#d4aa00"
    />
    <rect
      width="31.920624"
      y="-1495.2733"
      height="31.921101"
      x="460.38663"
      id="rect43"
      fill="#8d8c8c"
      transform="rotate(90)"
      stroke-width="0.0999993"
    />
    <rect
      width="16.418655"
      y="-1487.5222"
      height="16.4189"
      x="468.13748"
      id="rect45"
      fill="#8c8663"
      transform="rotate(90)"
      stroke-width="0.0999993"
    />
    <polygon
      transform="matrix(0,0.09999851,-0.1,0,1529.3196,226.3441)"
      points="2659.67,340.463 2340.46,340.463 2417.97,417.974 2582.03,417.974 "
      id="polygon47"
      fill="#b8af82"
    />
    <polygon
      transform="matrix(0,0.09999851,-0.1,0,1529.3196,226.3441)"
      points="2659.67,659.674 2582.03,582.025 2582.03,417.974 2659.67,340.463 "
      id="polygon49"
      fill="#80795b"
    />
    <polygon
      transform="matrix(0,0.09999851,-0.1,0,1529.3196,226.3441)"
      points="2340.46,659.674 2417.97,582.025 2582.03,582.025 2659.67,659.674 "
      id="polygon51"
      fill="#5e5b43"
    />
    <polygon
      transform="matrix(0,0.09999851,-0.1,0,1529.3196,226.3441)"
      points="2340.46,659.674 2340.46,340.463 2417.97,417.974 2417.97,582.025 "
      id="polygon53-8"
      fill="#9a916c"
    />
    <rect
      id="rect3420"
      width="8.0207138"
      height="295.05212"
      x="493.13699"
      y="-1759.8665"
      fill-opacity="1"
      fill="#d4aa00"
      transform="rotate(90)"
      stroke-width="0.0999993"
    />
    <rect
      y="-1494.1741"
      x="499.90775"
      height="28.838837"
      width="19.999704"
      id="rect3424"
      fill-opacity="1"
      fill="#d4aa00"
      transform="rotate(90)"
      stroke-width="0.0999993"
    />
    <rect
      transform="matrix(-0.7001356,0.7140099,-0.84648917,-0.53240594,0,0)"
      width="28.766558"
      y="-1662.6052"
      height="17.44429"
      x="-546.77795"
      id="rect27-5"
      fill="#ffffff"
      stroke-width="0.0999994"
    />
    <rect
      fill="#ffcc00"
      fill-opacity="1"
      id="rect3681"
      width="31.999523"
      height="300.00003"
      x="461.23648"
      y="-1764.9446"
      transform="rotate(90)"
      stroke-width="0.0999993"
    />
    <polygon
      id="polygon3444"
      points="1659.67,340.463 1659.67,659.674 1582.03,582.025 1582.03,417.974 "
      transform="matrix(-0.02924925,-0.19251476,0.05099884,-0.05130482,1789.4653,735.9002)"
      fill="#aa8800"
    />
    <rect
      id="rect3446"
      width="8.8936434"
      height="8.5491524"
      x="-885.84906"
      y="-1676.2405"
      transform="matrix(-0.57978493,0.81476956,-0.74660643,-0.66526599,0,0)"
      fill-opacity="1"
      fill="#d4aa00"
      stroke-width="0.0999992"
    />
    <rect
      id="rect3448"
      x="1756.799"
      height="9.4534826"
      y="400.84583"
      width="16.4189"
      fill="#ffffff"
      stroke-width="0.0999993"
    />
    <polygon
      id="polygon3450"
      points="1659.67,659.674 1340.46,659.674 1417.97,582.025 1582.03,582.025 "
      transform="matrix(0,0.09999851,-0.1239789,-0.0521716,1846.6273,261.6271)"
      fill="#d4aa00"
    />
    <rect
      id="rect3452"
      x="360.21719"
      height="31.921101"
      y="-1495.2733"
      width="31.920624"
      fill="#8d8c8c"
      transform="rotate(90)"
      stroke-width="0.0999993"
    />
    <rect
      id="rect3454"
      x="367.96817"
      height="16.4189"
      y="-1487.5222"
      width="16.418655"
      fill="#8c8663"
      transform="rotate(90)"
      stroke-width="0.0999993"
    />
    <polygon
      id="polygon3456"
      points="2340.46,340.463 2417.97,417.974 2582.03,417.974 2659.67,340.463 "
      transform="matrix(0,0.09999851,-0.1,0,1529.3196,126.1746)"
      fill="#b8af82"
    />
    <polygon
      id="polygon3458"
      points="2582.03,582.025 2582.03,417.974 2659.67,340.463 2659.67,659.674 "
      transform="matrix(0,0.09999851,-0.1,0,1529.3196,126.1746)"
      fill="#80795b"
    />
    <polygon
      id="polygon3460"
      points="2417.97,582.025 2582.03,582.025 2659.67,659.674 2340.46,659.674 "
      transform="matrix(0,0.09999851,-0.1,0,1529.3196,126.1746)"
      fill="#5e5b43"
    />
    <polygon
      id="polygon3462"
      points="2340.46,340.463 2417.97,417.974 2417.97,582.025 2340.46,659.674 "
      transform="matrix(0,0.09999851,-0.1,0,1529.3196,126.1746)"
      fill="#9a916c"
    />
    <rect
      y="-1759.8665"
      x="392.96756"
      height="295.05212"
      width="8.0207138"
      id="rect3466"
      fill-opacity="1"
      fill="#d4aa00"
      transform="rotate(90)"
      stroke-width="0.0999993"
    />
    <rect
      id="rect3468"
      width="19.999704"
      height="28.833332"
      x="399.73819"
      y="-1494.1686"
      fill-opacity="1"
      fill="#d4aa00"
      transform="rotate(90)"
      stroke-width="0.0999993"
    />
    <rect
      id="rect3470"
      x="-633.55237"
      height="17.44429"
      y="-1590.8336"
      width="28.766558"
      transform="matrix(-0.7001356,0.7140099,-0.84648917,-0.53240594,0,0)"
      fill="#ffffff"
      stroke-width="0.0999994"
    />
    <rect
      fill="#ffcc00"
      fill-opacity="1"
      y="-1764.9446"
      x="361.06705"
      height="300.00003"
      width="31.999523"
      id="rect3679"
      transform="rotate(90)"
      stroke-width="0.0999993"
    />
    <polygon
      transform="matrix(-0.02924925,-0.19251476,0.05099884,-0.05130482,1789.2244,635.9017)"
      points="1659.67,340.463 1659.67,659.674 1582.03,582.025 1582.03,417.974 "
      id="polygon3474"
      fill="#aa8800"
    />
    <rect
      transform="matrix(-0.57978493,0.81476956,-0.74660643,-0.66526599,0,0)"
      y="-1617.7168"
      x="-960.79626"
      height="8.5491524"
      width="8.8936434"
      id="rect3476"
      fill-opacity="1"
      fill="#d4aa00"
      stroke-width="0.0999992"
    />
    <rect
      width="16.4189"
      y="300.84729"
      height="9.4534826"
      x="1756.5581"
      id="rect3478"
      fill="#ffffff"
      stroke-width="0.0999993"
    />
    <polygon
      transform="matrix(0,0.09999851,-0.1239789,-0.0521716,1846.3864,161.6286)"
      points="1659.67,659.674 1340.46,659.674 1417.97,582.025 1582.03,582.025 "
      id="polygon3480"
      fill="#d4aa00"
    />
    <rect
      width="31.920624"
      y="-1495.0325"
      height="31.921101"
      x="260.21866"
      id="rect3482"
      fill="#8d8c8c"
      transform="rotate(90)"
      stroke-width="0.0999993"
    />
    <rect
      width="16.418655"
      y="-1487.2814"
      height="16.4189"
      x="267.96964"
      id="rect3484"
      fill="#8c8663"
      transform="rotate(90)"
      stroke-width="0.0999993"
    />
    <polygon
      transform="matrix(0,0.09999851,-0.1,0,1529.0787,26.1761)"
      points="2340.46,340.463 2417.97,417.974 2582.03,417.974 2659.67,340.463 "
      id="polygon3486"
      fill="#b8af82"
    />
    <polygon
      transform="matrix(0,0.09999851,-0.1,0,1529.0787,26.1761)"
      points="2582.03,582.025 2582.03,417.974 2659.67,340.463 2659.67,659.674 "
      id="polygon3488"
      fill="#80795b"
    />
    <polygon
      transform="matrix(0,0.09999851,-0.1,0,1529.0787,26.1761)"
      points="2417.97,582.025 2582.03,582.025 2659.67,659.674 2340.46,659.674 "
      id="polygon3490"
      fill="#5e5b43"
    />
    <polygon
      transform="matrix(0,0.09999851,-0.1,0,1529.0787,26.1761)"
      points="2340.46,340.463 2417.97,417.974 2417.97,582.025 2340.46,659.674 "
      id="polygon3492"
      fill="#9a916c"
    />
    <rect
      id="rect3496"
      width="8.0207138"
      height="295.05212"
      x="292.96915"
      y="-1759.6256"
      fill-opacity="1"
      fill="#d4aa00"
      transform="rotate(90)"
      stroke-width="0.0999993"
    />
    <rect
      y="-1493.9276"
      x="299.7399"
      height="28.833332"
      width="19.999704"
      id="rect3498"
      fill-opacity="1"
      fill="#d4aa00"
      transform="rotate(90)"
      stroke-width="0.0999993"
    />
    <rect
      transform="matrix(-0.7001356,0.7140099,-0.84648917,-0.53240594,0,0)"
      width="28.766558"
      y="-1519.0084"
      height="17.44429"
      x="-720.04749"
      id="rect3500"
      fill="#ffffff"
      stroke-width="0.0999994"
    />
    <rect
      fill="#ffcc00"
      fill-opacity="1"
      id="rect3677"
      width="31.999523"
      height="300.00003"
      x="261.06851"
      y="-1764.7037"
      transform="rotate(90)"
      stroke-width="0.0999993"
    />
    <polygon
      id="polygon805"
      points="217.113,1000 782.747,1000 1000,782.747 1000,217.113 782.747,0 217.113,0 0,217.113 0,782.747 "
      transform="matrix(0,0.1,-0.1,0,1527.5557,548.7127)"
      fill="#404040"
    />
    <polygon
      transform="matrix(-0.02924925,-0.19251476,0.05099884,-0.05130482,1789.2244,936.3958)"
      points="1659.67,659.674 1582.03,582.025 1582.03,417.974 1659.67,340.463 "
      id="polygon807"
      fill="#aa8800"
    />
    <rect
      transform="matrix(-0.57978493,0.81476956,-0.74660643,-0.66526599,0,0)"
      y="-1792.9863"
      x="-735.09637"
      height="8.5491524"
      width="8.8936434"
      id="rect809"
      fill-opacity="1"
      fill="#d4aa00"
      stroke-width="0.0999992"
    />
    <rect
      width="16.4189"
      y="601.34131"
      height="9.4534826"
      x="1756.5581"
      id="rect811"
      fill="#ffffff"
      stroke-width="0.0999993"
    />
    <polygon
      transform="matrix(0,0.09999851,-0.1239789,-0.0521716,1846.3864,462.1227)"
      points="1340.46,659.674 1417.97,582.025 1582.03,582.025 1659.67,659.674 "
      id="polygon813"
      fill="#d4aa00"
    />
    <rect
      width="31.920624"
      y="-1495.0325"
      height="31.921101"
      x="560.71252"
      id="rect815"
      fill="#8d8c8c"
      transform="rotate(90)"
      stroke-width="0.0999993"
    />
    <rect
      width="16.418655"
      y="-1487.2814"
      height="16.4189"
      x="568.4635"
      id="rect817"
      fill="#8c8663"
      transform="rotate(90)"
      stroke-width="0.0999993"
    />
    <polygon
      transform="matrix(0,0.09999851,-0.1,0,1529.0787,326.6702)"
      points="2417.97,417.974 2582.03,417.974 2659.67,340.463 2340.46,340.463 "
      id="polygon819"
      fill="#b8af82"
    />
    <polygon
      transform="matrix(0,0.09999851,-0.1,0,1529.0787,326.6702)"
      points="2582.03,417.974 2659.67,340.463 2659.67,659.674 2582.03,582.025 "
      id="polygon821"
      fill="#80795b"
    />
    <polygon
      transform="matrix(0,0.09999851,-0.1,0,1529.0787,326.6702)"
      points="2582.03,582.025 2659.67,659.674 2340.46,659.674 2417.97,582.025 "
      id="polygon823"
      fill="#5e5b43"
    />
    <polygon
      transform="matrix(0,0.09999851,-0.1,0,1529.0787,326.6702)"
      points="2417.97,417.974 2417.97,582.025 2340.46,659.674 2340.46,340.463 "
      id="polygon825"
      fill="#9a916c"
    />
    <rect
      id="rect829"
      width="8.0207138"
      height="295.05212"
      x="593.46313"
      y="-1759.6256"
      fill-opacity="1"
      fill="#d4aa00"
      transform="rotate(90)"
      stroke-width="0.0999993"
    />
    <rect
      y="-1493.9276"
      x="600.23389"
      height="28.833332"
      width="19.999704"
      id="rect831"
      fill-opacity="1"
      fill="#d4aa00"
      transform="rotate(90)"
      stroke-width="0.0999993"
    />
    <rect
      transform="matrix(-0.7001356,0.7140099,-0.84648917,-0.53240594,0,0)"
      width="28.766558"
      y="-1734.3131"
      height="17.44429"
      x="-459.73645"
      id="rect833"
      fill="#ffffff"
      stroke-width="0.0999994"
    />
    <rect
      fill="#ffcc00"
      fill-opacity="1"
      id="rect835"
      width="31.999523"
      height="300.00003"
      x="561.56238"
      y="-1764.7037"
      transform="rotate(90)"
      stroke-width="0.0999993"
    />
    <text
      fill="#ffffff"
      font-family="OCRA"
      id="text1043"
      font-size="48.611"
      y="839.25159"
      x="195.50806">OPEN-SMART</text>
    <text
      fill="#ffffff"
      font-family="OCRA"
      id="text1045"
      font-size="48.611"
      y="838.97168"
      x="738.40417">ESP-01 Adapter</text>
    <circle
      cx="-112.82017"
      gorn="0.15.0.0.0.0.0.0.0.0.0.0.0.1"
      id="ellipse1047"
      cy="-78.538239"
      transform="scale(-1)"
      r="42"
      fill="#ffffff"
    />
    <circle
      cx="-108.88911"
      gorn="0.15.0.0.0.0.0.0.0.0.0.0.0.1"
      id="ellipse1049"
      cy="-805.59052"
      transform="scale(-1)"
      r="42"
      fill="#ffffff"
    />
    <circle
      cx="-1494.7163"
      gorn="0.15.0.0.0.0.0.0.0.0.0.0.0.1"
      id="ellipse1051"
      cy="-78.538239"
      transform="scale(-1)"
      r="42"
      fill="#ffffff"
    />
    <circle
      cx="-1494.7163"
      gorn="0.15.0.0.0.0.0.0.0.0.0.0.0.1"
      id="circle1053"
      cy="-805.59052"
      transform="scale(-1)"
      r="42"
      fill="#ffffff"
    />
    <rect
      y="-1764.7037"
      x="261.06851"
      height="100.00002"
      width="31.999523"
      id="connector0pin"
      fill="#ffcc00"
      fill-opacity="1"
      transform="rotate(90)"
      stroke-width="0.0999993"
    />
    <rect
      y="1754.6987"
      height="10"
      width="10"
      x="-283.42984"
      gorn="0.1.9"
      id="connector0terminal"
      stroke-width="0"
      stroke="none"
      fill="#ffcc00"
      transform="rotate(-90)"
    />
    <rect
      id="connector1pin"
      width="32"
      height="100.00002"
      x="361.06656"
      y="-1764.9446"
      fill="#ffcc00"
      fill-opacity="1"
      transform="rotate(90)"
      stroke-width="0.0999993"
    />
    <rect
      y="1754.6987"
      height="10"
      width="10"
      x="-383.42972"
      gorn="0.1.7"
      id="connector1terminal"
      stroke-width="0"
      stroke="none"
      fill="#ffcc00"
      transform="rotate(-90)"
    />
    <rect
      y="-1764.9446"
      x="461.23648"
      height="100.00002"
      width="31.999523"
      id="connector2pin"
      fill="#ffcc00"
      fill-opacity="1"
      transform="rotate(90)"
      stroke-width="0.0999993"
    />
    <rect
      y="1754.6986"
      height="10"
      width="10"
      x="-483.42984"
      gorn="0.1.5"
      id="connector2terminal"
      stroke-width="0"
      stroke="none"
      fill="#ffcc00"
      transform="rotate(-90)"
    />
    <rect
      y="-1764.7037"
      x="561.56238"
      height="100.00002"
      width="31.999523"
      id="connector3pin"
      fill="#ffcc00"
      fill-opacity="1"
      transform="rotate(90)"
      stroke-width="0.0999993"
    />
    <rect
      y="1754.6987"
      height="10"
      width="10"
      x="-583.92383"
      gorn="0.1.9"
      id="connector3terminal"
      stroke-width="0"
      stroke="none"
      fill="#ffcc00"
      transform="rotate(-90)"
    />
  </g>
</svg>
