<?xml version='1.0' encoding='UTF-8' standalone='no'?>
<!-- Created with Fritzing (http://www.fritzing.org/) -->
<svg xmlns="http://www.w3.org/2000/svg" height="0.6in" x="0in" y="0in" width="1.5in" version="1.2"  baseProfile="tiny" viewBox="0 0 1500 600">
    <desc>
        <referenceFile>sparkfun-poweric_htssop28_breadboard.svg</referenceFile>
    </desc>
    <desc >Fritzing breadboard generated by brd2svg</desc>
    <g gorn="0.1" id="breadboard" >
        <g gorn="0.1.0" id="icon" >
            <path d="M0,0L0,270A30,30 0 0 1 0,330L0,600L1500,600L1500,0L0,0z"  fill="#1F7A34" stroke="none" stroke-width="0"/>
            <g transform="translate(550.65,159.646)" >
                <g >
                    <g transform="matrix(0.5, 0, 0, 0.5, 99.6752, 70.1772)" >
                        <g >
                            <rect connectorname="1" height="46.8505" x="25.9252" y="233.859" stroke-linecap="round" width="14.1732"  fill="#8c8c8c" stroke="none" stroke-width="0"/>
                            <rect connectorname="2" height="46.8505" x="51.5158" y="233.859" stroke-linecap="round" width="14.1732"  fill="#8c8c8c" stroke="none" stroke-width="0"/>
                            <rect connectorname="3" height="46.8505" x="77.1063" y="233.859" stroke-linecap="round" width="14.1732"  fill="#8c8c8c" stroke="none" stroke-width="0"/>
                            <rect connectorname="4" height="46.8505" x="102.697" y="233.859" stroke-linecap="round" width="14.1732"  fill="#8c8c8c" stroke="none" stroke-width="0"/>
                            <rect connectorname="5" height="46.8505" x="128.287" y="233.859" stroke-linecap="round" width="14.1732"  fill="#8c8c8c" stroke="none" stroke-width="0"/>
                            <rect connectorname="6" height="46.8505" x="153.878" y="233.859" stroke-linecap="round" width="14.1732"  fill="#8c8c8c" stroke="none" stroke-width="0"/>
                            <rect connectorname="7" height="46.8505" x="179.469" y="233.859" stroke-linecap="round" width="14.1732"  fill="#8c8c8c" stroke="none" stroke-width="0"/>
                            <rect connectorname="8" height="46.8505" x="205.059" y="233.859" stroke-linecap="round" width="14.1732"  fill="#8c8c8c" stroke="none" stroke-width="0"/>
                            <rect connectorname="9" height="46.8505" x="230.65" y="233.859" stroke-linecap="round" width="14.1732"  fill="#8c8c8c" stroke="none" stroke-width="0"/>
                            <rect connectorname="10" height="46.8505" x="256.24" y="233.859" stroke-linecap="round" width="14.1732"  fill="#8c8c8c" stroke="none" stroke-width="0"/>
                            <rect connectorname="11" height="46.8505" x="281.831" y="233.859" stroke-linecap="round" width="14.1732"  fill="#8c8c8c" stroke="none" stroke-width="0"/>
                            <rect connectorname="12" height="46.8505" x="307.421" y="233.859" stroke-linecap="round" width="14.1732"  fill="#8c8c8c" stroke="none" stroke-width="0"/>
                            <rect connectorname="13" height="46.8505" x="333.012" y="233.859" stroke-linecap="round" width="14.1732"  fill="#8c8c8c" stroke="none" stroke-width="0"/>
                            <rect connectorname="14" height="46.8505" x="358.603" y="233.859" stroke-linecap="round" width="14.1732"  fill="#8c8c8c" stroke="none" stroke-width="0"/>
                            <rect connectorname="28" height="46.8505" x="25.9252" y="0" stroke-linecap="round" width="14.1732"  fill="#8c8c8c" stroke="none" stroke-width="0"/>
                            <rect connectorname="27" height="46.8505" x="51.5158" y="0" stroke-linecap="round" width="14.1732"  fill="#8c8c8c" stroke="none" stroke-width="0"/>
                            <rect connectorname="26" height="46.8505" x="77.1063" y="0" stroke-linecap="round" width="14.1732"  fill="#8c8c8c" stroke="none" stroke-width="0"/>
                            <rect connectorname="25" height="46.8505" x="102.697" y="0" stroke-linecap="round" width="14.1732"  fill="#8c8c8c" stroke="none" stroke-width="0"/>
                            <rect connectorname="24" height="46.8505" x="128.287" y="0" stroke-linecap="round" width="14.1732"  fill="#8c8c8c" stroke="none" stroke-width="0"/>
                            <rect connectorname="23" height="46.8505" x="153.878" y="0" stroke-linecap="round" width="14.1732"  fill="#8c8c8c" stroke="none" stroke-width="0"/>
                            <rect connectorname="22" height="46.8505" x="179.469" y="0" stroke-linecap="round" width="14.1732"  fill="#8c8c8c" stroke="none" stroke-width="0"/>
                            <rect connectorname="21" height="46.8505" x="205.059" y="0" stroke-linecap="round" width="14.1732"  fill="#8c8c8c" stroke="none" stroke-width="0"/>
                            <rect connectorname="20" height="46.8505" x="230.65" y="0" stroke-linecap="round" width="14.1732"  fill="#8c8c8c" stroke="none" stroke-width="0"/>
                            <rect connectorname="19" height="46.8505" x="256.24" y="0" stroke-linecap="round" width="14.1732"  fill="#8c8c8c" stroke="none" stroke-width="0"/>
                            <rect connectorname="18" height="46.8505" x="281.831" y="0" stroke-linecap="round" width="14.1732"  fill="#8c8c8c" stroke="none" stroke-width="0"/>
                            <rect connectorname="17" height="46.8505" x="307.421" y="0" stroke-linecap="round" width="14.1732"  fill="#8c8c8c" stroke="none" stroke-width="0"/>
                            <rect connectorname="16" height="46.8505" x="333.012" y="0" stroke-linecap="round" width="14.1732"  fill="#8c8c8c" stroke="none" stroke-width="0"/>
                            <rect connectorname="15" height="46.8505" x="358.603" y="0" stroke-linecap="round" width="14.1732"  fill="#8c8c8c" stroke="none" stroke-width="0"/>
                            <rect connectorname="29" height="110.236" x="91.0827" y="85.2363" stroke-linecap="round" width="216.536"  fill="#8c8c8c" stroke="none" stroke-width="0"/>
                            <rect height="162.48" x="0" y="59.1142" width="398.701"  fill="#303030" stroke="none" stroke-width="0"/>
                            <polygon  fill="#1f1f1f" points="0,59.1142 398.701,59.1142 388.701,69.1142 10,69.1142"/>
                            <polygon  fill="#1f1f1f" points="0,221.594 398.701,221.594 388.701,211.594 10,211.594"/>
                            <polygon  fill="#000000" points="0,59.1142 0,221.594 10,211.594 10,69.1142"/>
                            <polygon  fill="#3d3d3d" points="398.701,59.1142 398.701,221.594 388.701,211.594 388.701,69.1142"/>
                            <circle  cx="30" fill="#1f1f1f" cy="191.594" stroke="none" r="10" stroke-width="0"/>
                        </g>
                    </g>
                </g>
            </g>
            <text font-family="OCRA" x="50" y="324.375" font-size="65" text-anchor="start" gorn="0.1.0.2" id="label"  fill="white" stroke="none" stroke-width="0">HTSSOP28</text>
            <g transform="translate(63.5,526.05)" >
                <g >
                    <g transform="rotate(-90)" >
                        <g >
                            <text font-family="OCRA" x="0" y="0" font-size="45" text-anchor="start"  fill="white" stroke="none" stroke-width="0">1</text>
                        </g>
                    </g>
                </g>
            </g>
            <g transform="translate(163.5,526.05)" >
                <g >
                    <g transform="rotate(-90)" >
                        <g >
                            <text font-family="OCRA" x="0" y="0" font-size="45" text-anchor="start"  fill="white" stroke="none" stroke-width="0">2</text>
                        </g>
                    </g>
                </g>
            </g>
            <g transform="translate(163.5,73.95)" >
                <g >
                    <g transform="rotate(-90)" >
                        <g >
                            <text font-family="OCRA" x="0" y="0" font-size="45" text-anchor="end"  fill="white" stroke="none" stroke-width="0">29</text>
                        </g>
                    </g>
                </g>
            </g>
            <g transform="translate(263.5,526.05)" >
                <g >
                    <g transform="rotate(-90)" >
                        <g >
                            <text font-family="OCRA" x="0" y="0" font-size="45" text-anchor="start"  fill="white" stroke="none" stroke-width="0">3</text>
                        </g>
                    </g>
                </g>
            </g>
            <g transform="translate(263.5,73.95)" >
                <g >
                    <g transform="rotate(-90)" >
                        <g >
                            <text font-family="OCRA" x="0" y="0" font-size="45" text-anchor="end"  fill="white" stroke="none" stroke-width="0">28</text>
                        </g>
                    </g>
                </g>
            </g>
            <g transform="translate(363.5,526.05)" >
                <g >
                    <g transform="rotate(-90)" >
                        <g >
                            <text font-family="OCRA" x="0" y="0" font-size="45" text-anchor="start"  fill="white" stroke="none" stroke-width="0">4</text>
                        </g>
                    </g>
                </g>
            </g>
            <g transform="translate(363.5,73.95)" >
                <g >
                    <g transform="rotate(-90)" >
                        <g >
                            <text font-family="OCRA" x="0" y="0" font-size="45" text-anchor="end"  fill="white" stroke="none" stroke-width="0">27</text>
                        </g>
                    </g>
                </g>
            </g>
            <g transform="translate(463.5,526.05)" >
                <g >
                    <g transform="rotate(-90)" >
                        <g >
                            <text font-family="OCRA" x="0" y="0" font-size="45" text-anchor="start"  fill="white" stroke="none" stroke-width="0">5</text>
                        </g>
                    </g>
                </g>
            </g>
            <g transform="translate(463.5,73.95)" >
                <g >
                    <g transform="rotate(-90)" >
                        <g >
                            <text font-family="OCRA" x="0" y="0" font-size="45" text-anchor="end"  fill="white" stroke="none" stroke-width="0">26</text>
                        </g>
                    </g>
                </g>
            </g>
            <g transform="translate(563.5,526.05)" >
                <g >
                    <g transform="rotate(-90)" >
                        <g >
                            <text font-family="OCRA" x="0" y="0" font-size="45" text-anchor="start"  fill="white" stroke="none" stroke-width="0">6</text>
                        </g>
                    </g>
                </g>
            </g>
            <g transform="translate(563.5,73.95)" >
                <g >
                    <g transform="rotate(-90)" >
                        <g >
                            <text font-family="OCRA" x="0" y="0" font-size="45" text-anchor="end"  fill="white" stroke="none" stroke-width="0">25</text>
                        </g>
                    </g>
                </g>
            </g>
            <g transform="translate(663.5,526.05)" >
                <g >
                    <g transform="rotate(-90)" >
                        <g >
                            <text font-family="OCRA" x="0" y="0" font-size="45" text-anchor="start"  fill="white" stroke="none" stroke-width="0">7</text>
                        </g>
                    </g>
                </g>
            </g>
            <g transform="translate(663.5,73.95)" >
                <g >
                    <g transform="rotate(-90)" >
                        <g >
                            <text font-family="OCRA" x="0" y="0" font-size="45" text-anchor="end"  fill="white" stroke="none" stroke-width="0">24</text>
                        </g>
                    </g>
                </g>
            </g>
            <g transform="translate(763.5,526.05)" >
                <g >
                    <g transform="rotate(-90)" >
                        <g >
                            <text font-family="OCRA" x="0" y="0" font-size="45" text-anchor="start"  fill="white" stroke="none" stroke-width="0">8</text>
                        </g>
                    </g>
                </g>
            </g>
            <g transform="translate(763.5,73.95)" >
                <g >
                    <g transform="rotate(-90)" >
                        <g >
                            <text font-family="OCRA" x="0" y="0" font-size="45" text-anchor="end"  fill="white" stroke="none" stroke-width="0">23</text>
                        </g>
                    </g>
                </g>
            </g>
            <g transform="translate(863.5,526.05)" >
                <g >
                    <g transform="rotate(-90)" >
                        <g >
                            <text font-family="OCRA" x="0" y="0" font-size="45" text-anchor="start"  fill="white" stroke="none" stroke-width="0">9</text>
                        </g>
                    </g>
                </g>
            </g>
            <g transform="translate(863.5,73.95)" >
                <g >
                    <g transform="rotate(-90)" >
                        <g >
                            <text font-family="OCRA" x="0" y="0" font-size="45" text-anchor="end"  fill="white" stroke="none" stroke-width="0">22</text>
                        </g>
                    </g>
                </g>
            </g>
            <g transform="translate(963.5,526.05)" >
                <g >
                    <g transform="rotate(-90)" >
                        <g >
                            <text font-family="OCRA" x="0" y="0" font-size="45" text-anchor="start"  fill="white" stroke="none" stroke-width="0">10</text>
                        </g>
                    </g>
                </g>
            </g>
            <g transform="translate(963.5,73.95)" >
                <g >
                    <g transform="rotate(-90)" >
                        <g >
                            <text font-family="OCRA" x="0" y="0" font-size="45" text-anchor="end"  fill="white" stroke="none" stroke-width="0">21</text>
                        </g>
                    </g>
                </g>
            </g>
            <g transform="translate(1063.5,526.05)" >
                <g >
                    <g transform="rotate(-90)" >
                        <g >
                            <text font-family="OCRA" x="0" y="0" font-size="45" text-anchor="start"  fill="white" stroke="none" stroke-width="0">11</text>
                        </g>
                    </g>
                </g>
            </g>
            <g transform="translate(1063.5,73.95)" >
                <g >
                    <g transform="rotate(-90)" >
                        <g >
                            <text font-family="OCRA" x="0" y="0" font-size="45" text-anchor="end"  fill="white" stroke="none" stroke-width="0">20</text>
                        </g>
                    </g>
                </g>
            </g>
            <g transform="translate(1163.5,526.05)" >
                <g >
                    <g transform="rotate(-90)" >
                        <g >
                            <text font-family="OCRA" x="0" y="0" font-size="45" text-anchor="start"  fill="white" stroke="none" stroke-width="0">12</text>
                        </g>
                    </g>
                </g>
            </g>
            <g transform="translate(1163.5,73.95)" >
                <g >
                    <g transform="rotate(-90)" >
                        <g >
                            <text font-family="OCRA" x="0" y="0" font-size="45" text-anchor="end"  fill="white" stroke="none" stroke-width="0">19</text>
                        </g>
                    </g>
                </g>
            </g>
            <g transform="translate(1263.5,526.05)" >
                <g >
                    <g transform="rotate(-90)" >
                        <g >
                            <text font-family="OCRA" x="0" y="0" font-size="45" text-anchor="start"  fill="white" stroke="none" stroke-width="0">13</text>
                        </g>
                    </g>
                </g>
            </g>
            <g transform="translate(1263.5,73.95)" >
                <g >
                    <g transform="rotate(-90)" >
                        <g >
                            <text font-family="OCRA" x="0" y="0" font-size="45" text-anchor="end"  fill="white" stroke="none" stroke-width="0">18</text>
                        </g>
                    </g>
                </g>
            </g>
            <g transform="translate(1363.5,526.05)" >
                <g >
                    <g transform="rotate(-90)" >
                        <g >
                            <text font-family="OCRA" x="0" y="0" font-size="45" text-anchor="start"  fill="white" stroke="none" stroke-width="0">14</text>
                        </g>
                    </g>
                </g>
            </g>
            <g transform="translate(1363.5,73.95)" >
                <g >
                    <g transform="rotate(-90)" >
                        <g >
                            <text font-family="OCRA" x="0" y="0" font-size="45" text-anchor="end"  fill="white" stroke="none" stroke-width="0">17</text>
                        </g>
                    </g>
                </g>
            </g>
            <g transform="translate(1463.5,526.05)" >
                <g >
                    <g transform="rotate(-90)" >
                        <g >
                            <text font-family="OCRA" x="0" y="0" font-size="45" text-anchor="start"  fill="white" stroke="none" stroke-width="0">15</text>
                        </g>
                    </g>
                </g>
            </g>
            <g transform="translate(1463.5,73.95)" >
                <g >
                    <g transform="rotate(-90)" >
                        <g >
                            <text font-family="OCRA" x="0" y="0" font-size="45" text-anchor="end"  fill="white" stroke="none" stroke-width="0">16</text>
                        </g>
                    </g>
                </g>
            </g>
        </g>
        <g transform="translate(34.035,534.05)" >
            <g >
                <rect height="31.9" x="0" y="0" width="31.93" gorn="0.1.1.0.0" id="connector0pin"  fill="#8D8C8C"/>
                <rect height="16.4152" x="7.79153" y="7.73544" width="16.4442"  fill="#8C8663"/>
                <polygon  fill="#B8AF82" points="0,31.9,7.79153,24.1368,7.79153,6.97162,0,0"/>
                <polygon  fill="#80795B" points="24.2079,7.76321,7.90264,7.76321,0,0,31.93,0"/>
                <polygon  fill="#5E5B43" points="24.2079,24.1368,24.2079,7.76321,31.93,0,31.93,31.9"/>
                <polygon  fill="#9A916C" points="0,31.9,7.87486,24.1368,24.2079,24.1368,31.93,31.9"/>
            </g>
        </g>
        <g transform="translate(134.035,534.05)" >
            <g >
                <rect height="31.9" x="0" y="0" width="31.93" gorn="0.1.2.0.0" id="connector1pin"  fill="#8D8C8C"/>
                <rect height="16.4152" x="7.79153" y="7.73544" width="16.4442"  fill="#8C8663"/>
                <polygon  fill="#B8AF82" points="0,31.9,7.79153,24.1368,7.79153,6.97162,0,0"/>
                <polygon  fill="#80795B" points="24.2079,7.76321,7.90264,7.76321,0,0,31.93,0"/>
                <polygon  fill="#5E5B43" points="24.2079,24.1368,24.2079,7.76321,31.93,0,31.93,31.9"/>
                <polygon  fill="#9A916C" points="0,31.9,7.87486,24.1368,24.2079,24.1368,31.93,31.9"/>
            </g>
        </g>
        <g transform="translate(134.035,34.05)" >
            <g >
                <rect height="31.9" x="0" y="0" width="31.93" gorn="0.1.3.0.0" id="connector28pin"  fill="#8D8C8C"/>
                <rect height="16.4152" x="7.79153" y="7.73544" width="16.4442"  fill="#8C8663"/>
                <polygon  fill="#B8AF82" points="0,31.9,7.79153,24.1368,7.79153,6.97162,0,0"/>
                <polygon  fill="#80795B" points="24.2079,7.76321,7.90264,7.76321,0,0,31.93,0"/>
                <polygon  fill="#5E5B43" points="24.2079,24.1368,24.2079,7.76321,31.93,0,31.93,31.9"/>
                <polygon  fill="#9A916C" points="0,31.9,7.87486,24.1368,24.2079,24.1368,31.93,31.9"/>
            </g>
        </g>
        <g transform="translate(234.035,534.05)" >
            <g >
                <rect height="31.9" x="0" y="0" width="31.93" gorn="0.1.4.0.0" id="connector2pin"  fill="#8D8C8C"/>
                <rect height="16.4152" x="7.79153" y="7.73544" width="16.4442"  fill="#8C8663"/>
                <polygon  fill="#B8AF82" points="0,31.9,7.79153,24.1368,7.79153,6.97162,0,0"/>
                <polygon  fill="#80795B" points="24.2079,7.76321,7.90264,7.76321,0,0,31.93,0"/>
                <polygon  fill="#5E5B43" points="24.2079,24.1368,24.2079,7.76321,31.93,0,31.93,31.9"/>
                <polygon  fill="#9A916C" points="0,31.9,7.87486,24.1368,24.2079,24.1368,31.93,31.9"/>
            </g>
        </g>
        <g transform="translate(234.035,34.05)" >
            <g >
                <rect height="31.9" x="0" y="0" width="31.93" gorn="0.1.5.0.0" id="connector27pin"  fill="#8D8C8C"/>
                <rect height="16.4152" x="7.79153" y="7.73544" width="16.4442"  fill="#8C8663"/>
                <polygon  fill="#B8AF82" points="0,31.9,7.79153,24.1368,7.79153,6.97162,0,0"/>
                <polygon  fill="#80795B" points="24.2079,7.76321,7.90264,7.76321,0,0,31.93,0"/>
                <polygon  fill="#5E5B43" points="24.2079,24.1368,24.2079,7.76321,31.93,0,31.93,31.9"/>
                <polygon  fill="#9A916C" points="0,31.9,7.87486,24.1368,24.2079,24.1368,31.93,31.9"/>
            </g>
        </g>
        <g transform="translate(334.035,534.05)" >
            <g >
                <rect height="31.9" x="0" y="0" width="31.93" gorn="0.1.6.0.0" id="connector3pin"  fill="#8D8C8C"/>
                <rect height="16.4152" x="7.79153" y="7.73544" width="16.4442"  fill="#8C8663"/>
                <polygon  fill="#B8AF82" points="0,31.9,7.79153,24.1368,7.79153,6.97162,0,0"/>
                <polygon  fill="#80795B" points="24.2079,7.76321,7.90264,7.76321,0,0,31.93,0"/>
                <polygon  fill="#5E5B43" points="24.2079,24.1368,24.2079,7.76321,31.93,0,31.93,31.9"/>
                <polygon  fill="#9A916C" points="0,31.9,7.87486,24.1368,24.2079,24.1368,31.93,31.9"/>
            </g>
        </g>
        <g transform="translate(334.035,34.05)" >
            <g >
                <rect height="31.9" x="0" y="0" width="31.93" gorn="0.1.7.0.0" id="connector26pin"  fill="#8D8C8C"/>
                <rect height="16.4152" x="7.79153" y="7.73544" width="16.4442"  fill="#8C8663"/>
                <polygon  fill="#B8AF82" points="0,31.9,7.79153,24.1368,7.79153,6.97162,0,0"/>
                <polygon  fill="#80795B" points="24.2079,7.76321,7.90264,7.76321,0,0,31.93,0"/>
                <polygon  fill="#5E5B43" points="24.2079,24.1368,24.2079,7.76321,31.93,0,31.93,31.9"/>
                <polygon  fill="#9A916C" points="0,31.9,7.87486,24.1368,24.2079,24.1368,31.93,31.9"/>
            </g>
        </g>
        <g transform="translate(434.035,534.05)" >
            <g >
                <rect height="31.9" x="0" y="0" width="31.93" gorn="0.1.8.0.0" id="connector4pin"  fill="#8D8C8C"/>
                <rect height="16.4152" x="7.79153" y="7.73544" width="16.4442"  fill="#8C8663"/>
                <polygon  fill="#B8AF82" points="0,31.9,7.79153,24.1368,7.79153,6.97162,0,0"/>
                <polygon  fill="#80795B" points="24.2079,7.76321,7.90264,7.76321,0,0,31.93,0"/>
                <polygon  fill="#5E5B43" points="24.2079,24.1368,24.2079,7.76321,31.93,0,31.93,31.9"/>
                <polygon  fill="#9A916C" points="0,31.9,7.87486,24.1368,24.2079,24.1368,31.93,31.9"/>
            </g>
        </g>
        <g transform="translate(434.035,34.05)" >
            <g >
                <rect height="31.9" x="0" y="0" width="31.93" gorn="0.1.9.0.0" id="connector25pin"  fill="#8D8C8C"/>
                <rect height="16.4152" x="7.79153" y="7.73544" width="16.4442"  fill="#8C8663"/>
                <polygon  fill="#B8AF82" points="0,31.9,7.79153,24.1368,7.79153,6.97162,0,0"/>
                <polygon  fill="#80795B" points="24.2079,7.76321,7.90264,7.76321,0,0,31.93,0"/>
                <polygon  fill="#5E5B43" points="24.2079,24.1368,24.2079,7.76321,31.93,0,31.93,31.9"/>
                <polygon  fill="#9A916C" points="0,31.9,7.87486,24.1368,24.2079,24.1368,31.93,31.9"/>
            </g>
        </g>
        <g transform="translate(534.035,534.05)" >
            <g >
                <rect height="31.9" x="0" y="0" width="31.93" gorn="0.1.10.0.0" id="connector5pin"  fill="#8D8C8C"/>
                <rect height="16.4152" x="7.79153" y="7.73544" width="16.4442"  fill="#8C8663"/>
                <polygon  fill="#B8AF82" points="0,31.9,7.79153,24.1368,7.79153,6.97162,0,0"/>
                <polygon  fill="#80795B" points="24.2079,7.76321,7.90264,7.76321,0,0,31.93,0"/>
                <polygon  fill="#5E5B43" points="24.2079,24.1368,24.2079,7.76321,31.93,0,31.93,31.9"/>
                <polygon  fill="#9A916C" points="0,31.9,7.87486,24.1368,24.2079,24.1368,31.93,31.9"/>
            </g>
        </g>
        <g transform="translate(534.035,34.05)" >
            <g >
                <rect height="31.9" x="0" y="0" width="31.93" gorn="0.1.11.0.0" id="connector24pin"  fill="#8D8C8C"/>
                <rect height="16.4152" x="7.79153" y="7.73544" width="16.4442"  fill="#8C8663"/>
                <polygon  fill="#B8AF82" points="0,31.9,7.79153,24.1368,7.79153,6.97162,0,0"/>
                <polygon  fill="#80795B" points="24.2079,7.76321,7.90264,7.76321,0,0,31.93,0"/>
                <polygon  fill="#5E5B43" points="24.2079,24.1368,24.2079,7.76321,31.93,0,31.93,31.9"/>
                <polygon  fill="#9A916C" points="0,31.9,7.87486,24.1368,24.2079,24.1368,31.93,31.9"/>
            </g>
        </g>
        <g transform="translate(634.035,534.05)" >
            <g >
                <rect height="31.9" x="0" y="0" width="31.93" gorn="0.1.12.0.0" id="connector6pin"  fill="#8D8C8C"/>
                <rect height="16.4152" x="7.79153" y="7.73544" width="16.4442"  fill="#8C8663"/>
                <polygon  fill="#B8AF82" points="0,31.9,7.79153,24.1368,7.79153,6.97162,0,0"/>
                <polygon  fill="#80795B" points="24.2079,7.76321,7.90264,7.76321,0,0,31.93,0"/>
                <polygon  fill="#5E5B43" points="24.2079,24.1368,24.2079,7.76321,31.93,0,31.93,31.9"/>
                <polygon  fill="#9A916C" points="0,31.9,7.87486,24.1368,24.2079,24.1368,31.93,31.9"/>
            </g>
        </g>
        <g transform="translate(634.035,34.05)" >
            <g >
                <rect height="31.9" x="0" y="0" width="31.93" gorn="0.1.13.0.0" id="connector23pin"  fill="#8D8C8C"/>
                <rect height="16.4152" x="7.79153" y="7.73544" width="16.4442"  fill="#8C8663"/>
                <polygon  fill="#B8AF82" points="0,31.9,7.79153,24.1368,7.79153,6.97162,0,0"/>
                <polygon  fill="#80795B" points="24.2079,7.76321,7.90264,7.76321,0,0,31.93,0"/>
                <polygon  fill="#5E5B43" points="24.2079,24.1368,24.2079,7.76321,31.93,0,31.93,31.9"/>
                <polygon  fill="#9A916C" points="0,31.9,7.87486,24.1368,24.2079,24.1368,31.93,31.9"/>
            </g>
        </g>
        <g transform="translate(734.035,534.05)" >
            <g >
                <rect height="31.9" x="0" y="0" width="31.93" gorn="0.1.14.0.0" id="connector7pin"  fill="#8D8C8C"/>
                <rect height="16.4152" x="7.79153" y="7.73544" width="16.4442"  fill="#8C8663"/>
                <polygon  fill="#B8AF82" points="0,31.9,7.79153,24.1368,7.79153,6.97162,0,0"/>
                <polygon  fill="#80795B" points="24.2079,7.76321,7.90264,7.76321,0,0,31.93,0"/>
                <polygon  fill="#5E5B43" points="24.2079,24.1368,24.2079,7.76321,31.93,0,31.93,31.9"/>
                <polygon  fill="#9A916C" points="0,31.9,7.87486,24.1368,24.2079,24.1368,31.93,31.9"/>
            </g>
        </g>
        <g transform="translate(734.035,34.05)" >
            <g >
                <rect height="31.9" x="0" y="0" width="31.93" gorn="0.1.15.0.0" id="connector22pin"  fill="#8D8C8C"/>
                <rect height="16.4152" x="7.79153" y="7.73544" width="16.4442"  fill="#8C8663"/>
                <polygon  fill="#B8AF82" points="0,31.9,7.79153,24.1368,7.79153,6.97162,0,0"/>
                <polygon  fill="#80795B" points="24.2079,7.76321,7.90264,7.76321,0,0,31.93,0"/>
                <polygon  fill="#5E5B43" points="24.2079,24.1368,24.2079,7.76321,31.93,0,31.93,31.9"/>
                <polygon  fill="#9A916C" points="0,31.9,7.87486,24.1368,24.2079,24.1368,31.93,31.9"/>
            </g>
        </g>
        <g transform="translate(834.035,534.05)" >
            <g >
                <rect height="31.9" x="0" y="0" width="31.93" gorn="0.1.16.0.0" id="connector8pin"  fill="#8D8C8C"/>
                <rect height="16.4152" x="7.79153" y="7.73544" width="16.4442"  fill="#8C8663"/>
                <polygon  fill="#B8AF82" points="0,31.9,7.79153,24.1368,7.79153,6.97162,0,0"/>
                <polygon  fill="#80795B" points="24.2079,7.76321,7.90264,7.76321,0,0,31.93,0"/>
                <polygon  fill="#5E5B43" points="24.2079,24.1368,24.2079,7.76321,31.93,0,31.93,31.9"/>
                <polygon  fill="#9A916C" points="0,31.9,7.87486,24.1368,24.2079,24.1368,31.93,31.9"/>
            </g>
        </g>
        <g transform="translate(834.035,34.05)" >
            <g >
                <rect height="31.9" x="0" y="0" width="31.93" gorn="0.1.17.0.0" id="connector21pin"  fill="#8D8C8C"/>
                <rect height="16.4152" x="7.79153" y="7.73544" width="16.4442"  fill="#8C8663"/>
                <polygon  fill="#B8AF82" points="0,31.9,7.79153,24.1368,7.79153,6.97162,0,0"/>
                <polygon  fill="#80795B" points="24.2079,7.76321,7.90264,7.76321,0,0,31.93,0"/>
                <polygon  fill="#5E5B43" points="24.2079,24.1368,24.2079,7.76321,31.93,0,31.93,31.9"/>
                <polygon  fill="#9A916C" points="0,31.9,7.87486,24.1368,24.2079,24.1368,31.93,31.9"/>
            </g>
        </g>
        <g transform="translate(934.035,534.05)" >
            <g >
                <rect height="31.9" x="0" y="0" width="31.93" gorn="0.1.18.0.0" id="connector9pin"  fill="#8D8C8C"/>
                <rect height="16.4152" x="7.79153" y="7.73544" width="16.4442"  fill="#8C8663"/>
                <polygon  fill="#B8AF82" points="0,31.9,7.79153,24.1368,7.79153,6.97162,0,0"/>
                <polygon  fill="#80795B" points="24.2079,7.76321,7.90264,7.76321,0,0,31.93,0"/>
                <polygon  fill="#5E5B43" points="24.2079,24.1368,24.2079,7.76321,31.93,0,31.93,31.9"/>
                <polygon  fill="#9A916C" points="0,31.9,7.87486,24.1368,24.2079,24.1368,31.93,31.9"/>
            </g>
        </g>
        <g transform="translate(934.035,34.05)" >
            <g >
                <rect height="31.9" x="0" y="0" width="31.93" gorn="0.1.19.0.0" id="connector20pin"  fill="#8D8C8C"/>
                <rect height="16.4152" x="7.79153" y="7.73544" width="16.4442"  fill="#8C8663"/>
                <polygon  fill="#B8AF82" points="0,31.9,7.79153,24.1368,7.79153,6.97162,0,0"/>
                <polygon  fill="#80795B" points="24.2079,7.76321,7.90264,7.76321,0,0,31.93,0"/>
                <polygon  fill="#5E5B43" points="24.2079,24.1368,24.2079,7.76321,31.93,0,31.93,31.9"/>
                <polygon  fill="#9A916C" points="0,31.9,7.87486,24.1368,24.2079,24.1368,31.93,31.9"/>
            </g>
        </g>
        <g transform="translate(1034.04,534.05)" >
            <g >
                <rect height="31.9" x="0" y="0" width="31.93" gorn="0.1.20.0.0" id="connector10pin"  fill="#8D8C8C"/>
                <rect height="16.4152" x="7.79153" y="7.73544" width="16.4442"  fill="#8C8663"/>
                <polygon  fill="#B8AF82" points="0,31.9,7.79153,24.1368,7.79153,6.97162,0,0"/>
                <polygon  fill="#80795B" points="24.2079,7.76321,7.90264,7.76321,0,0,31.93,0"/>
                <polygon  fill="#5E5B43" points="24.2079,24.1368,24.2079,7.76321,31.93,0,31.93,31.9"/>
                <polygon  fill="#9A916C" points="0,31.9,7.87486,24.1368,24.2079,24.1368,31.93,31.9"/>
            </g>
        </g>
        <g transform="translate(1034.04,34.05)" >
            <g >
                <rect height="31.9" x="0" y="0" width="31.93" gorn="0.1.21.0.0" id="connector19pin"  fill="#8D8C8C"/>
                <rect height="16.4152" x="7.79153" y="7.73544" width="16.4442"  fill="#8C8663"/>
                <polygon  fill="#B8AF82" points="0,31.9,7.79153,24.1368,7.79153,6.97162,0,0"/>
                <polygon  fill="#80795B" points="24.2079,7.76321,7.90264,7.76321,0,0,31.93,0"/>
                <polygon  fill="#5E5B43" points="24.2079,24.1368,24.2079,7.76321,31.93,0,31.93,31.9"/>
                <polygon  fill="#9A916C" points="0,31.9,7.87486,24.1368,24.2079,24.1368,31.93,31.9"/>
            </g>
        </g>
        <g transform="translate(1134.04,534.05)" >
            <g >
                <rect height="31.9" x="0" y="0" width="31.93" gorn="0.1.22.0.0" id="connector11pin"  fill="#8D8C8C"/>
                <rect height="16.4152" x="7.79153" y="7.73544" width="16.4442"  fill="#8C8663"/>
                <polygon  fill="#B8AF82" points="0,31.9,7.79153,24.1368,7.79153,6.97162,0,0"/>
                <polygon  fill="#80795B" points="24.2079,7.76321,7.90264,7.76321,0,0,31.93,0"/>
                <polygon  fill="#5E5B43" points="24.2079,24.1368,24.2079,7.76321,31.93,0,31.93,31.9"/>
                <polygon  fill="#9A916C" points="0,31.9,7.87486,24.1368,24.2079,24.1368,31.93,31.9"/>
            </g>
        </g>
        <g transform="translate(1134.04,34.05)" >
            <g >
                <rect height="31.9" x="0" y="0" width="31.93" gorn="0.1.23.0.0" id="connector18pin"  fill="#8D8C8C"/>
                <rect height="16.4152" x="7.79153" y="7.73544" width="16.4442"  fill="#8C8663"/>
                <polygon  fill="#B8AF82" points="0,31.9,7.79153,24.1368,7.79153,6.97162,0,0"/>
                <polygon  fill="#80795B" points="24.2079,7.76321,7.90264,7.76321,0,0,31.93,0"/>
                <polygon  fill="#5E5B43" points="24.2079,24.1368,24.2079,7.76321,31.93,0,31.93,31.9"/>
                <polygon  fill="#9A916C" points="0,31.9,7.87486,24.1368,24.2079,24.1368,31.93,31.9"/>
            </g>
        </g>
        <g transform="translate(1234.04,534.05)" >
            <g >
                <rect height="31.9" x="0" y="0" width="31.93" gorn="0.1.24.0.0" id="connector12pin"  fill="#8D8C8C"/>
                <rect height="16.4152" x="7.79153" y="7.73544" width="16.4442"  fill="#8C8663"/>
                <polygon  fill="#B8AF82" points="0,31.9,7.79153,24.1368,7.79153,6.97162,0,0"/>
                <polygon  fill="#80795B" points="24.2079,7.76321,7.90264,7.76321,0,0,31.93,0"/>
                <polygon  fill="#5E5B43" points="24.2079,24.1368,24.2079,7.76321,31.93,0,31.93,31.9"/>
                <polygon  fill="#9A916C" points="0,31.9,7.87486,24.1368,24.2079,24.1368,31.93,31.9"/>
            </g>
        </g>
        <g transform="translate(1234.04,34.05)" >
            <g >
                <rect height="31.9" x="0" y="0" width="31.93" gorn="0.1.25.0.0" id="connector17pin"  fill="#8D8C8C"/>
                <rect height="16.4152" x="7.79153" y="7.73544" width="16.4442"  fill="#8C8663"/>
                <polygon  fill="#B8AF82" points="0,31.9,7.79153,24.1368,7.79153,6.97162,0,0"/>
                <polygon  fill="#80795B" points="24.2079,7.76321,7.90264,7.76321,0,0,31.93,0"/>
                <polygon  fill="#5E5B43" points="24.2079,24.1368,24.2079,7.76321,31.93,0,31.93,31.9"/>
                <polygon  fill="#9A916C" points="0,31.9,7.87486,24.1368,24.2079,24.1368,31.93,31.9"/>
            </g>
        </g>
        <g transform="translate(1334.04,534.05)" >
            <g >
                <rect height="31.9" x="0" y="0" width="31.93" gorn="0.1.26.0.0" id="connector13pin"  fill="#8D8C8C"/>
                <rect height="16.4152" x="7.79153" y="7.73544" width="16.4442"  fill="#8C8663"/>
                <polygon  fill="#B8AF82" points="0,31.9,7.79153,24.1368,7.79153,6.97162,0,0"/>
                <polygon  fill="#80795B" points="24.2079,7.76321,7.90264,7.76321,0,0,31.93,0"/>
                <polygon  fill="#5E5B43" points="24.2079,24.1368,24.2079,7.76321,31.93,0,31.93,31.9"/>
                <polygon  fill="#9A916C" points="0,31.9,7.87486,24.1368,24.2079,24.1368,31.93,31.9"/>
            </g>
        </g>
        <g transform="translate(1334.04,34.05)" >
            <g >
                <rect height="31.9" x="0" y="0" width="31.93" gorn="0.1.27.0.0" id="connector16pin"  fill="#8D8C8C"/>
                <rect height="16.4152" x="7.79153" y="7.73544" width="16.4442"  fill="#8C8663"/>
                <polygon  fill="#B8AF82" points="0,31.9,7.79153,24.1368,7.79153,6.97162,0,0"/>
                <polygon  fill="#80795B" points="24.2079,7.76321,7.90264,7.76321,0,0,31.93,0"/>
                <polygon  fill="#5E5B43" points="24.2079,24.1368,24.2079,7.76321,31.93,0,31.93,31.9"/>
                <polygon  fill="#9A916C" points="0,31.9,7.87486,24.1368,24.2079,24.1368,31.93,31.9"/>
            </g>
        </g>
        <g transform="translate(1434.04,534.05)" >
            <g >
                <rect height="31.9" x="0" y="0" width="31.93" gorn="0.1.28.0.0" id="connector14pin"  fill="#8D8C8C"/>
                <rect height="16.4152" x="7.79153" y="7.73544" width="16.4442"  fill="#8C8663"/>
                <polygon  fill="#B8AF82" points="0,31.9,7.79153,24.1368,7.79153,6.97162,0,0"/>
                <polygon  fill="#80795B" points="24.2079,7.76321,7.90264,7.76321,0,0,31.93,0"/>
                <polygon  fill="#5E5B43" points="24.2079,24.1368,24.2079,7.76321,31.93,0,31.93,31.9"/>
                <polygon  fill="#9A916C" points="0,31.9,7.87486,24.1368,24.2079,24.1368,31.93,31.9"/>
            </g>
        </g>
        <g transform="translate(1434.04,34.05)" >
            <g >
                <rect height="31.9" x="0" y="0" width="31.93" gorn="0.1.29.0.0" id="connector15pin"  fill="#8D8C8C"/>
                <rect height="16.4152" x="7.79153" y="7.73544" width="16.4442"  fill="#8C8663"/>
                <polygon  fill="#B8AF82" points="0,31.9,7.79153,24.1368,7.79153,6.97162,0,0"/>
                <polygon  fill="#80795B" points="24.2079,7.76321,7.90264,7.76321,0,0,31.93,0"/>
                <polygon  fill="#5E5B43" points="24.2079,24.1368,24.2079,7.76321,31.93,0,31.93,31.9"/>
                <polygon  fill="#9A916C" points="0,31.9,7.87486,24.1368,24.2079,24.1368,31.93,31.9"/>
            </g>
        </g>
    </g>
</svg>
