<?xml version="1.0" encoding="utf-8"?>
<!-- Generator: Adobe Illustrator 16.0.0, SVG Export Plug-In . SVG Version: 6.00 Build 0)  -->
<!DOCTYPE svg PUBLIC "-//W3C//DTD SVG 1.1//EN" "http://www.w3.org/Graphics/SVG/1.1/DTD/svg11.dtd">
<svg version="1.1" id="Layer_1" xmlns="http://www.w3.org/2000/svg" xmlns:xlink="http://www.w3.org/1999/xlink" x="0px" y="0px"
	 width="9.836px" height="31.436px" viewBox="30.994 7.201 9.836 31.436" enable-background="new 30.994 7.201 9.836 31.436"
	 xml:space="preserve">
<g id="silkscreen">
	<text transform="matrix(-4.371139e-008 -1 1 -4.371139e-008 37.4063 21.6545)" font-family="'OCRAStd'" font-size="5">L</text>
	<text transform="matrix(-4.371139e-008 -1 1 -4.371139e-008 37.4063 27.5667)" font-family="'OCRAStd'" font-size="5">N</text>
</g>
<g id="copper1">
	<g id="copper0">
		
			<circle id="connector0pin" fill="none" stroke="#FFBF00" stroke-width="2.75" stroke-miterlimit="10" cx="35.912" cy="33.719" r="3.543"/>
		
			<circle id="connector1pin" fill="none" stroke="#FFBF00" stroke-width="2.75" stroke-miterlimit="10" cx="35.912" cy="12.119" r="3.543"/>
	</g>
</g>
</svg>
