<?xml version='1.0' encoding='UTF-8' standalone='no'?>
<svg
  xmlns:dc="http://purl.org/dc/elements/1.1/"
  xmlns:cc="http://creativecommons.org/ns#"
  xmlns:rdf="http://www.w3.org/1999/02/22-rdf-syntax-ns#"
  xmlns:svg="http://www.w3.org/2000/svg"
  xmlns="http://www.w3.org/2000/svg"
  viewBox="0 0 1545.0398 1237.1657"
  version="1.1"
  y="0px"
  x="0px"
  width="1.5450393in"
  id="Layer_1"
  height="1.2371653in">
  <metadata
    id="metadata1090">
    <rdf:RDF>
      <cc:Work
        rdf:about="">
        <dc:format>image/svg+xml</dc:format>
        <dc:type
          rdf:resource="http://purl.org/dc/dcmitype/StillImage"
        />
        <dc:title/>
      </cc:Work>
    </rdf:RDF>
  </metadata>
  <defs
    id="defs1088"
  />
  <desc
    id="desc2">
    <referenceFile>TTGO-T7-ESP32_1_pcb.svg</referenceFile>
  </desc>
  <g
    id="silkscreen">
    <path
      id="path4"
      d="M 1483.8388,5 H 61.167387 C 30.142875,5 5,43.6221 5,91.2948 V 1145.888 C 5,1193.5265 30.142875,1232.1657 61.167387,1232.1657 H 1483.8388 C 1514.8745,1232.1657 1540.0398,1193.5095 1540.0398,1145.888 V 91.2777 C 1540.0398,43.6221 1514.8745,5 1483.8388,5 Z"
      fill="none"
      stroke="#000000"
      stroke-width="10"
    />
    <circle
      cy="110.16231"
      cx="1396.9779"
      id="circle4249"
      r="39.530457"
      fill="#000000"
      stroke-width="0"
    />
    <circle
      r="39.530457"
      id="circle3987"
      cx="116.85934"
      cy="1139.6902"
      fill="#000000"
      stroke-width="0"
    />
    <line
      id="line11"
      x1="1574.3815"
      x2="1574.3815"
      y2="331.66241"
      y1="521.23883"
      stroke="#000000"
      stroke-width="10.00000286"
    />
    <line
      y1="331.66241"
      y2="331.66241"
      x2="1384.8051"
      x1="1574.3815"
      id="line61"
      stroke="#000000"
      stroke-width="10.00000286"
    />
    <line
      id="line63"
      x1="1574.3815"
      x2="1384.8051"
      y2="521.23883"
      y1="521.23883"
      stroke="#000000"
      stroke-width="10.00000286"
    />
    <line
      y1="521.23883"
      y2="331.66241"
      x2="1384.8051"
      x1="1384.8051"
      id="line65"
      stroke="#000000"
      stroke-width="10.00000286"
    />
  </g>
  <g
    id="copper1">
    <g
      id="copper0">
      <circle
        cy="1166.9691"
        cx="316.89459"
        id="connector0pin"
        r="29"
        fill="none"
        stroke="#ffbf00"
        stroke-width="20"
      />
      <circle
        r="29"
        id="connector1pin"
        cx="316.89459"
        cy="1066.7943"
        fill="none"
        stroke="#ffbf00"
        stroke-width="20"
      />
      <circle
        r="29"
        cy="1167.1061"
        cx="417.01401"
        id="connector2pin"
        fill="none"
        stroke="#ffbf00"
        stroke-width="20"
      />
      <circle
        r="29"
        id="connector3pin"
        cx="417.01401"
        cy="1066.9313"
        fill="none"
        stroke="#ffbf00"
        stroke-width="20"
      />
      <circle
        r="29"
        cy="1167.1061"
        cx="516.99866"
        id="connector4pin"
        fill="none"
        stroke="#ffbf00"
        stroke-width="20"
      />
      <circle
        r="29"
        id="connector5pin"
        cx="516.99866"
        cy="1066.9313"
        fill="none"
        stroke="#ffbf00"
        stroke-width="20"
      />
      <circle
        r="29"
        cy="1167.1061"
        cx="616.98389"
        id="connector6pin"
        fill="none"
        stroke="#ffbf00"
        stroke-width="20"
      />
      <circle
        r="29"
        id="connector7pin"
        cx="616.98389"
        cy="1066.9313"
        fill="none"
        stroke="#ffbf00"
        stroke-width="20"
      />
      <circle
        r="29"
        cy="1167.1061"
        cx="716.96844"
        id="connector8pin"
        fill="none"
        stroke="#ffbf00"
        stroke-width="20"
      />
      <circle
        r="29"
        id="connector9pin"
        cx="716.96844"
        cy="1066.9313"
        fill="none"
        stroke="#ffbf00"
        stroke-width="20"
      />
      <circle
        r="29"
        cy="1167.1061"
        cx="816.95319"
        id="connector10pin"
        fill="none"
        stroke="#ffbf00"
        stroke-width="20"
      />
      <circle
        r="29"
        id="connector11pin"
        cx="816.95319"
        cy="1066.9313"
        fill="none"
        stroke="#ffbf00"
        stroke-width="20"
      />
      <circle
        r="29"
        cy="1167.1061"
        cx="916.93774"
        id="connector12pin"
        fill="none"
        stroke="#ffbf00"
        stroke-width="20"
      />
      <circle
        r="29"
        id="connector13pin"
        cx="916.93774"
        cy="1066.9313"
        fill="none"
        stroke="#ffbf00"
        stroke-width="20"
      />
      <circle
        r="29"
        cy="1167.1061"
        cx="1016.602"
        id="connector14pin"
        fill="none"
        stroke="#ffbf00"
        stroke-width="20"
      />
      <circle
        r="29"
        id="connector15pin"
        cx="1016.602"
        cy="1066.9313"
        fill="none"
        stroke="#ffbf00"
        stroke-width="20"
      />
      <circle
        r="29"
        id="connector16pin"
        cx="1116.7853"
        cy="1167.1061"
        fill="none"
        stroke="#ffbf00"
        stroke-width="20"
      />
      <circle
        r="29"
        cy="1066.9313"
        cx="1116.7853"
        id="connector17pin"
        fill="none"
        stroke="#ffbf00"
        stroke-width="20"
      />
      <circle
        r="29"
        id="connector18pin"
        cx="1217.0004"
        cy="1167.1061"
        fill="none"
        stroke="#ffbf00"
        stroke-width="20"
      />
      <circle
        r="29"
        cy="1067.1656"
        cx="1217.0004"
        id="connector19pin"
        fill="none"
        stroke="#ffbf00"
        stroke-width="20"
      />
      <circle
        r="29"
        cy="166.88747"
        cx="1217.0004"
        id="connector20pin"
        fill="none"
        stroke="#ffbf00"
        stroke-width="20"
      />
      <circle
        r="29"
        id="connector21pin"
        cx="1217.0004"
        cy="67.165375"
        fill="none"
        stroke="#ffbf00"
        stroke-width="20"
      />
      <circle
        r="29"
        cy="166.88747"
        cx="1116.786"
        id="connector22pin"
        fill="none"
        stroke="#ffbf00"
        stroke-width="20"
      />
      <circle
        r="29"
        id="connector23pin"
        cx="1116.786"
        cy="66.712502"
        fill="none"
        stroke="#ffbf00"
        stroke-width="20"
      />
      <circle
        r="29"
        id="connector24pin"
        cx="1016.6013"
        cy="166.88747"
        fill="none"
        stroke="#ffbf00"
        stroke-width="20"
      />
      <circle
        r="29"
        cy="66.712502"
        cx="1016.6013"
        id="connector25pin"
        fill="none"
        stroke="#ffbf00"
        stroke-width="20"
      />
      <circle
        r="29"
        id="connector26pin"
        cx="916.93726"
        cy="166.88747"
        fill="none"
        stroke="#ffbf00"
        stroke-width="20"
      />
      <circle
        r="29"
        cy="66.712502"
        cx="916.93726"
        id="connector27pin"
        fill="none"
        stroke="#ffbf00"
        stroke-width="20"
      />
      <circle
        r="29"
        id="connector28pin"
        cx="816.9527"
        cy="166.88747"
        fill="none"
        stroke="#ffbf00"
        stroke-width="20"
      />
      <circle
        r="29"
        cy="66.712502"
        cx="816.9527"
        id="connector29pin"
        fill="none"
        stroke="#ffbf00"
        stroke-width="20"
      />
      <circle
        r="29"
        id="connector30pin"
        cx="716.96796"
        cy="166.88747"
        fill="none"
        stroke="#ffbf00"
        stroke-width="20"
      />
      <circle
        r="29"
        cy="67.165375"
        cx="716.96796"
        id="connector31pin"
        fill="none"
        stroke="#ffbf00"
        stroke-width="20"
      />
      <circle
        stroke-width="20"
        stroke="#ffbf00"
        fill="none"
        id="connector32pin"
        cx="616.98334"
        cy="167.16541"
        r="29"
      />
      <circle
        r="29"
        cy="67.165375"
        cx="616.98334"
        id="connector33pin"
        fill="none"
        stroke="#ffbf00"
        stroke-width="20"
      />
      <circle
        stroke-width="20"
        stroke="#ffbf00"
        fill="none"
        id="connector34pin"
        cx="516.99878"
        cy="167.16541"
        r="29"
      />
      <circle
        r="29"
        cy="67.165375"
        cx="516.99878"
        id="connector35pin"
        fill="none"
        stroke="#ffbf00"
        stroke-width="20"
      />
      <circle
        stroke-width="20"
        stroke="#ffbf00"
        fill="none"
        id="connector36pin"
        cx="417.0141"
        cy="167.16541"
        r="29"
      />
      <circle
        r="29"
        cy="67.165375"
        cx="417.0141"
        id="connector37pin"
        fill="none"
        stroke="#ffbf00"
        stroke-width="20"
      />
      <circle
        stroke-width="20"
        stroke="#ffbf00"
        fill="none"
        id="connector38pin"
        cx="316.89459"
        cy="167.16541"
        r="29"
      />
      <circle
        r="29"
        cy="67.165375"
        cx="316.89459"
        id="connector39pin"
        fill="none"
        stroke="#ffbf00"
        stroke-width="20"
      />
    </g>
  </g>
</svg>
