<?xml version="1.0" encoding="utf-8"?>
<!-- Generator: Adobe Illustrator 16.0.0, SVG Export Plug-In . SVG Version: 6.00 Build 0)  -->
<!DOCTYPE svg PUBLIC "-//W3C//DTD SVG 1.1//EN" "http://www.w3.org/Graphics/SVG/1.1/DTD/svg11.dtd">
<svg version="1.1"
	 id="svg7292" xmlns:dc="http://purl.org/dc/elements/1.1/" xmlns:cc="http://creativecommons.org/ns#" xmlns:rdf="http://www.w3.org/1999/02/22-rdf-syntax-ns#" xmlns:svg="http://www.w3.org/2000/svg" xmlns:sodipodi="http://sodipodi.sourceforge.net/DTD/sodipodi-0.dtd" xmlns:inkscape="http://www.inkscape.org/namespaces/inkscape"
	 xmlns="http://www.w3.org/2000/svg" xmlns:xlink="http://www.w3.org/1999/xlink" x="0px" y="0px" width="17.256px"
	 height="190.352px" viewBox="0 0 17.256 190.352" enable-background="new 0 0 17.256 190.352" xml:space="preserve">
<sodipodi:namedview  units="in" showguides="false" objecttolerance="10000" showgrid="true" borderopacity="1.0" bordercolor="#666666" pagecolor="#ffffff" id="base">
	
		<inkscape:grid  type="xygrid" units="in" spacingy="0.005in" spacingx="0.005in" enabled="true" visible="true" empspacing="20" id="grid7300" snapvisiblegridlinesonly="true">
		</inkscape:grid>
	<sodipodi:guide  position="18,31.5" orientation="0,1" id="guide7843"></sodipodi:guide>
	<sodipodi:guide  position="4.5,18" orientation="1,0" id="guide7845"></sodipodi:guide>
	<sodipodi:guide  position="31.5,18" orientation="1,0" id="guide7847"></sodipodi:guide>
	<sodipodi:guide  position="18,4.5" orientation="0,1" id="guide7849"></sodipodi:guide>
</sodipodi:namedview>
<g id="layer1" transform="translate(0,-845.35973)">
	<g>
		
			<linearGradient id="rect213112_1_" gradientUnits="userSpaceOnUse" x1="809.5908" y1="1314.0294" x2="822.9845" y2="1314.0294" gradientTransform="matrix(1 0 0 1 -807.6602 -441.6699)">
			<stop  offset="0" style="stop-color:#5C5C5C"/>
			<stop  offset="0.1319" style="stop-color:#6F6F6F"/>
			<stop  offset="0.3412" style="stop-color:#D3D3D3"/>
			<stop  offset="0.6181" style="stop-color:#757171"/>
			<stop  offset="1" style="stop-color:#696969"/>
		</linearGradient>
		<path id="rect213112" fill="url(#rect213112_1_)" stroke="#8E8E8E" stroke-width="0.9" d="M5.439,845.359h6.377
			c1.762,0,3.188,2.016,3.188,4.5v45c0,2.485-1.428,4.5-3.188,4.5H5.439c-1.762,0-3.189-2.015-3.189-4.5v-45
			C2.25,847.374,3.678,845.359,5.439,845.359z"/>
		<rect id="rect213144" x="3.845" y="881.359" fill="#434343" width="9.567" height="126"/>
		
			<linearGradient id="rect213146_1_" gradientUnits="userSpaceOnUse" x1="811.1113" y1="1118.2853" x2="815.8945" y2="1118.2853" gradientTransform="matrix(1 0 0 2.2222 -806.3105 -1522.691)">
			<stop  offset="0" style="stop-color:#434343;stop-opacity:0"/>
			<stop  offset="0.375" style="stop-color:#C0B9B9;stop-opacity:0.2471"/>
			<stop  offset="1" style="stop-color:#7B7777;stop-opacity:0"/>
		</linearGradient>
		<rect id="rect213146" x="4.801" y="917.359" fill="url(#rect213146_1_)" width="4.783" height="90"/>
		
			<rect id="rect213128" x="2.25" y="881.359" fill="#323232" stroke="#323232" stroke-width="4.5" stroke-linejoin="round" width="12.756" height="36"/>
		
			<linearGradient id="rect213130_1_" gradientUnits="userSpaceOnUse" x1="811.5049" y1="1319.6984" x2="816.2881" y2="1319.6984" gradientTransform="matrix(1 0 0 1.0556 -807.6602 -494.838)">
			<stop  offset="0" style="stop-color:#434343;stop-opacity:0"/>
			<stop  offset="0.375" style="stop-color:#C0B9B9;stop-opacity:0.2471"/>
			<stop  offset="1" style="stop-color:#7B7777;stop-opacity:0"/>
		</linearGradient>
		<rect id="rect213130" x="3.845" y="876.859" fill="url(#rect213130_1_)" width="4.783" height="42.75"/>
	</g>
	<g>
		<path id="path213180_1_" fill="none" stroke="#E3E1DB" stroke-width="2.1815" stroke-linejoin="round" d="M8.628,1007.359v22.949"
			/>
		<path id="path213182" fill="none" stroke="#C52929" stroke-width="2.1815" stroke-linejoin="round" d="M11.327,1007.359v9
			l4.501,5.423v8.526"/>
		<path id="path213182_2_" fill="none" stroke="#262626" stroke-width="2.16" stroke-linejoin="round" d="M1.428,1030.309v-9
			l4.501-5.422v-8.527"/>
	</g>
	<g>
		<rect id="rect213168" x="0.979" y="1030.309" fill="#B3B3B3" width="0.899" height="4.05"/>
		<rect id="rect213170" x="8.178" y="1030.31" fill="#B3B3B3" width="0.9" height="4.051"/>
		<rect id="rect213172" x="15.378" y="1030.309" fill="#B3B3B3" width="0.899" height="4.05"/>
		<rect id="connector1pin" x="0.527" y="1033.458" fill="none" width="1.801" height="1.801"/>
		<rect id="connector2pin" x="7.729" y="1033.459" fill="none" width="1.801" height="1.801"/>
		<rect id="connector3pin" x="14.928" y="1033.458" fill="none" width="1.801" height="1.801"/>
	</g>
</g>
</svg>
