<?xml version='1.0' encoding='UTF-8' standalone='no'?>
<svg xmlns="http://www.w3.org/2000/svg" id="svg2"  viewBox="0 0 90.000002 72.000003" height="0.80000001in" gorn="0" width="1in" version="1.1">
    <desc >
        <referenceFile >HC-05-male_schematic.svg</referenceFile>
    </desc>
    <defs id="defs4" />
    <metadata id="metadata7" >
        <rdf:RDF xmlns:rdf="http://www.w3.org/1999/02/22-rdf-syntax-ns#">
            <cc:Work xmlns:cc="http://creativecommons.org/ns#" rdf:about="" xmlns:rdf="http://www.w3.org/1999/02/22-rdf-syntax-ns#">
                <dc:format xmlns:dc="http://purl.org/dc/elements/1.1/">image/svg+xml</dc:format>
                <dc:type rdf:resource="http://purl.org/dc/dcmitype/StillImage" xmlns:rdf="http://www.w3.org/1999/02/22-rdf-syntax-ns#" xmlns:dc="http://purl.org/dc/elements/1.1/"/>
                <dc:title xmlns:dc="http://purl.org/dc/elements/1.1/"/>
            </cc:Work>
        </rdf:RDF>
    </metadata>
    <g  transform="matrix(0.98887173,0,0,0.98601107,-322.90629,-482.63818)">
        <g >
            <g >
                <g >
                    <g >
                        <g id="schematic"  gorn="0.3.0.0.0.0.0">
                            <rect id="rect4141"  stroke="#000000" height="53.769547" gorn="0.3.0.0.0.0.0.0" x="336.13968" y="499.11154" stroke-width="0.9965719" stroke_linecap="round" width="71.813675" fill="none" stroke_width="10"/>
                            <line id="connector0pin"  stroke="#555555" y1="526.18109" y2="526.18109" gorn="0.3.0.0.0.0.0.1" x1="336.04724" x2="327.04724" stroke-width="1" style="stroke-linecap:round" fill="none"/>
                            <rect id="connector0terminal"  stroke="none" height="0.002" gorn="0.3.0.0.0.0.0.2" x="326.537" y="526.18" stroke-width="0" width="0.02" fill="none"/>
                            <line id="connector1pin"  stroke="#555555" y1="499" y2="490" gorn="0.3.0.0.0.0.0.3" x1="372" x2="372" stroke-width="1" style="stroke-linecap:round" fill="none"/>
                            <rect id="connector1terminal"  stroke="none" height="0.02" gorn="0.3.0.0.0.0.0.4" x="371.999" y="489.49" stroke-width="0" width="0.002" fill="none"/>
                            <line id="connector2pin"  stroke="#555555" y1="553" y2="562" gorn="0.3.0.0.0.0.0.5" x1="372" x2="372" stroke-width="1" style="stroke-linecap:round" fill="none"/>
                            <rect id="connector2terminal"  stroke="none" height="0.02" gorn="0.3.0.0.0.0.0.6" x="371.999" y="562.49" stroke-width="0" width="0.002" fill="none"/>
                            <line id="connector3pin"  stroke="#555555" y1="535.18109" y2="535.18109" gorn="0.3.0.0.0.0.0.7" x1="408.04724" x2="417.04724" stroke-width="1" style="stroke-linecap:round" fill="none"/>
                            <rect id="connector3terminal"  stroke="none" height="0.002" gorn="0.3.0.0.0.0.0.8" x="417.537" y="535.18" stroke-width="0" width="0.02" fill="none"/>
                            <line id="connector4pin"  stroke="#555555" y1="526.18109" y2="526.18109" gorn="0.3.0.0.0.0.0.9" x1="408.04724" x2="417.04724" stroke-width="1" style="stroke-linecap:round" fill="none"/>
                            <rect id="connector4terminal"  stroke="none" height="0.002" gorn="0.3.0.0.0.0.0.10" x="417.537" y="526.18" stroke-width="0" width="0.02" fill="none"/>
                            <line id="connector5pin"  stroke="#555555" y1="517.18109" y2="517.18109" gorn="0.3.0.0.0.0.0.11" x1="408.04724" x2="417.04724" stroke-width="1" style="stroke-linecap:round" fill="none"/>
                            <rect id="connector5terminal"  stroke="none" height="0.002" gorn="0.3.0.0.0.0.0.12" x="417.537" y="517.18" stroke-width="0" width="0.02" fill="none"/>
                            <text id="text4150"  gorn="0.3.0.0.0.0.0.13" x="367" y="560.16656" style="font-size:6;font-family:DroidSans;fill:#555555">3</text>
                            <text id="text5564"  gorn="0.3.0.0.0.0.0.14" x="374.04059" y="496.27274" style="font-size:6;font-family:DroidSans;fill:#555555">2</text>
                            <text id="text5566"  gorn="0.3.0.0.0.0.0.15" x="367" y="507.74094" style="font-size:6;font-family:DroidSans;fill:#555555">VCC</text>
                            <text id="text5568"  gorn="0.3.0.0.0.0.0.16" x="367" y="548.84351" style="font-size:6;font-family:DroidSans;fill:#555555">GND</text>
                            <text id="text5570"  gorn="0.3.0.0.0.0.0.17" x="330.62747" y="523.62311" style="font-size:6;font-family:DroidSans;fill:#555555">1</text>
                            <text id="text5572"  gorn="0.3.0.0.0.0.0.18" x="339.93625" y="528.22748" style="font-size:6;font-family:DroidSans;fill:#555555">Key</text>
                            <text id="text5574"  gorn="0.3.0.0.0.0.0.19" x="392.21973" y="519.07831" style="font-size:6;font-family:DroidSans;fill:#555555">State</text>
                            <text id="text5576"  gorn="0.3.0.0.0.0.0.20" x="395.12686" y="528.2196" style="font-size:6;font-family:DroidSans;fill:#555555">RXD</text>
                            <text id="text5578"  gorn="0.3.0.0.0.0.0.21" x="395.12686" y="537.31464" style="font-size:6;font-family:DroidSans;fill:#555555">TXD</text>
                            <text id="text5580"  gorn="0.3.0.0.0.0.0.22" x="411.11465" y="541.91119" style="font-size:6;font-family:DroidSans;fill:#555555">4</text>
                            <text id="text5582"  gorn="0.3.0.0.0.0.0.23" x="411.11465" y="532.75079" style="font-size:6;font-family:DroidSans;fill:#555555">5</text>
                            <text id="text5584"  gorn="0.3.0.0.0.0.0.24" x="411.11465" y="523.65576" style="font-size:6;font-family:DroidSans;fill:#555555">6</text>
                            <text id="text4758"  gorn="0.3.0.0.0.0.0.25" x="360.96646" y="521.35431" style="font-size:8;font-family:DroidSans;fill:#000000">HC-05</text>
                            <text id="text4760"  gorn="0.3.0.0.0.0.0.26" x="358.84537" y="530.48199" style="font-size:6;font-family:DroidSans;fill:#000000">Bluetooth</text>
                        </g>
                    </g>
                </g>
            </g>
        </g>
    </g>
</svg>
