<?xml version='1.0' encoding='UTF-8' standalone='no'?>
<svg
  xmlns:dc="http://purl.org/dc/elements/1.1/"
  xmlns:cc="http://creativecommons.org/ns#"
  xmlns:rdf="http://www.w3.org/1999/02/22-rdf-syntax-ns#"
  xmlns:svg="http://www.w3.org/2000/svg"
  xmlns="http://www.w3.org/2000/svg"
  id="svg3990"
  version="1.1"
  viewBox="0 0 1055.4338 2183.2471"
  xml:space="preserve"
  y="0px"
  x="0px"
  width="1.0554335in"
  height="2.1832464in"
  gorn="0">
  <desc
    id="desc2">
    <referenceFile>uPesy Wroom DevKit_2ce0a03cfb5d17a3c221ad4c6d483c20_1_pcb.svg</referenceFile>
  </desc>
  <metadata
    id="metadata4202">
    <rdf:RDF>
      <cc:Work
        rdf:about="">
        <dc:format>image/svg+xml</dc:format>
        <dc:type
          rdf:resource="http://purl.org/dc/dcmitype/StillImage"
        />
        <dc:title/>
      </cc:Work>
    </rdf:RDF>
  </metadata>
  <defs
    id="defs4200">
    </defs>
  <g
    id="silkscreen">
    <rect
      id="rect46"
      width="1045.4338"
      height="1868.9402"
      x="5"
      y="250.29364"
      fill="none"
      stroke="#000000"
      stroke-width="9.99999"
    />
    <rect
      id="rect48"
      width="711.50171"
      height="240.37901"
      x="175.62927"
      y="5.1553507"
      fill="none"
      stroke="#000000"
      stroke-width="9.99997"
    />
    <rect
      id="rect50"
      width="398.11926"
      height="56.716354"
      x="322.84189"
      y="2121.686"
      fill="none"
      stroke="#000000"
      stroke-width="9.99995"
    />
  </g>
  <g
    id="copper1">
    <g
      id="copper0">
      <circle
        id="connector0pin"
        stroke-width="20"
        stroke="#f7bd13"
        class="pad-rst"
        cy="316.87769"
        fill="none"
        gorn="0.4.0.0.0.0.0.0.0.0.0.0.0"
        cx="76.944008"
        r="29"
      />
      <circle
        id="connector1pin"
        stroke-width="20"
        stroke="#f7bd13"
        class="pad-a0"
        cy="416.92651"
        fill="none"
        gorn="0.4.0.0.0.0.0.0.0.0.0.0.1"
        cx="76.944008"
        r="29"
      />
      <circle
        id="connector2pin"
        stroke-width="20"
        stroke="#f7bd13"
        class="pad-d0"
        cy="516.39551"
        fill="none"
        gorn="0.4.0.0.0.0.0.0.0.0.0.0.2"
        cx="76.944008"
        r="29"
      />
      <circle
        id="connector3pin"
        stroke-width="20"
        stroke="#f7bd13"
        class="pad-d5"
        cy="616.39557"
        fill="none"
        gorn="0.4.0.0.0.0.0.0.0.0.0.0.3"
        cx="76.944008"
        r="29"
      />
      <circle
        id="connector4pin"
        stroke-width="20"
        stroke="#f7bd13"
        class="pad-d6"
        cy="716.39557"
        fill="none"
        gorn="0.4.0.0.0.0.0.0.0.0.0.0.4"
        cx="76.944008"
        r="29"
      />
      <circle
        id="connector5pin"
        stroke-width="20"
        stroke="#f7bd13"
        class="pad-d7"
        cy="816.39563"
        fill="none"
        gorn="0.4.0.0.0.0.0.0.0.0.0.0.5"
        cx="76.944008"
        r="29"
      />
      <circle
        id="connector6pin"
        stroke-width="20"
        stroke="#f7bd13"
        class="pad-d8"
        cy="916.39563"
        fill="none"
        gorn="0.4.0.0.0.0.0.0.0.0.0.0.6"
        cx="76.944008"
        r="29"
      />
      <circle
        id="connector7pin"
        stroke-width="20"
        stroke="#f7bd13"
        class="pad-3v3"
        cy="1016.3957"
        fill="none"
        gorn="0.4.0.0.0.0.0.0.0.0.0.0.7"
        cx="76.944008"
        r="29"
      />
      <circle
        id="connector8pin"
        stroke-width="20"
        stroke="#f7bd13"
        class="pad-tx"
        cy="1116.5535"
        fill="none"
        gorn="0.4.0.0.0.0.0.0.0.3.0.0.7"
        cx="77.042076"
        r="29"
      />
      <circle
        id="connector9pin"
        stroke-width="20"
        stroke="#f7bd13"
        class="pad-rx"
        cy="1216.6021"
        fill="none"
        gorn="0.4.0.0.0.0.0.0.0.3.0.0.6"
        cx="77.042076"
        r="29"
      />
      <circle
        id="connector10pin"
        stroke-width="20"
        stroke="#f7bd13"
        class="pad-d1"
        cy="1316.6511"
        fill="none"
        gorn="0.4.0.0.0.0.0.0.0.3.0.0.5"
        cx="77.042076"
        r="29"
      />
      <circle
        id="connector11pin"
        stroke-width="20"
        stroke="#f7bd13"
        class="pad-d2"
        cy="1416.6997"
        fill="none"
        gorn="0.4.0.0.0.0.0.0.0.3.0.0.4"
        cx="77.042076"
        r="29"
      />
      <circle
        id="connector12pin"
        stroke-width="20"
        stroke="#f7bd13"
        class="pad-d3"
        cy="1516.7484"
        fill="none"
        gorn="0.4.0.0.0.0.0.0.0.3.0.0.3"
        cx="77.042076"
        r="29"
      />
      <circle
        id="connector13pin"
        stroke-width="20"
        stroke="#f7bd13"
        class="pad-d4"
        cy="1616.7971"
        fill="none"
        gorn="0.4.0.0.0.0.0.0.0.3.0.0.2"
        cx="77.042076"
        r="29"
      />
      <circle
        id="connector14pin"
        stroke-width="20"
        stroke="#f7bd13"
        class="pad-g"
        cy="1716.8462"
        fill="none"
        gorn="0.4.0.0.0.0.0.0.0.3.0.0.1"
        cx="77.042076"
        r="29"
      />
      <circle
        id="connector15pin"
        stroke-width="20"
        stroke="#f7bd13"
        class="pad-5v"
        cy="1816.8949"
        fill="none"
        gorn="0.4.0.0.0.0.0.0.0.3.0.0.0"
        cx="77.042076"
        r="29"
      />
      <circle
        id="connector16pin"
        stroke-width="20"
        stroke="#f7bd13"
        class="pad-5v"
        cy="1816.6396"
        fill="none"
        gorn="0.4.0.0.0.0.0.0.0.2.0.0.0"
        cx="976.86401"
        r="29"
      />
      <circle
        id="connector17pin"
        stroke-width="20"
        stroke="#f7bd13"
        class="pad-g"
        cy="1716.5909"
        fill="none"
        gorn="0.4.0.0.0.0.0.0.0.2.0.0.1"
        cx="976.86401"
        r="29"
      />
      <circle
        id="connector18pin"
        stroke-width="20"
        stroke="#f7bd13"
        class="pad-d4"
        cy="1616.5421"
        fill="none"
        gorn="0.4.0.0.0.0.0.0.0.2.0.0.2"
        cx="976.86401"
        r="29"
      />
      <circle
        id="connector19pin"
        stroke-width="20"
        stroke="#f7bd13"
        class="pad-d3"
        cy="1516.4935"
        fill="none"
        gorn="0.4.0.0.0.0.0.0.0.2.0.0.3"
        cx="976.86401"
        r="29"
      />
      <circle
        id="connector20pin"
        stroke-width="20"
        stroke="#f7bd13"
        class="pad-d2"
        cy="1416.4443"
        fill="none"
        gorn="0.4.0.0.0.0.0.0.0.2.0.0.4"
        cx="976.86401"
        r="29"
      />
      <circle
        id="connector21pin"
        stroke-width="20"
        stroke="#f7bd13"
        class="pad-d1"
        cy="1316.3958"
        fill="none"
        gorn="0.4.0.0.0.0.0.0.0.2.0.0.5"
        cx="976.86401"
        r="29"
      />
      <circle
        id="connector22pin"
        stroke-width="20"
        stroke="#f7bd13"
        class="pad-rx"
        cy="1216.3958"
        fill="none"
        gorn="0.4.0.0.0.0.0.0.0.2.0.0.6"
        cx="976.86401"
        r="29"
      />
      <circle
        id="connector23pin"
        stroke-width="20"
        stroke="#f7bd13"
        class="pad-tx"
        cy="1116.3958"
        fill="none"
        gorn="0.4.0.0.0.0.0.0.0.2.0.0.7"
        cx="976.86401"
        r="29"
      />
      <circle
        id="connector24pin"
        stroke-width="20"
        stroke="#f7bd13"
        class="pad-5v"
        cy="1016.6808"
        fill="none"
        gorn="0.4.0.0.0.0.0.0.0.1.0.0.0"
        cx="976.86401"
        r="29"
      />
      <circle
        id="connector25pin"
        stroke-width="20"
        stroke="#f7bd13"
        class="pad-g"
        cy="916.63196"
        fill="none"
        gorn="0.4.0.0.0.0.0.0.0.1.0.0.1"
        cx="976.86401"
        r="29"
      />
      <circle
        id="connector26pin"
        stroke-width="20"
        stroke="#f7bd13"
        class="pad-d4"
        cy="816.58319"
        fill="none"
        gorn="0.4.0.0.0.0.0.0.0.1.0.0.2"
        cx="976.86401"
        r="29"
      />
      <circle
        id="connector27pin"
        stroke-width="20"
        stroke="#f7bd13"
        class="pad-d3"
        cy="716.53448"
        fill="none"
        gorn="0.4.0.0.0.0.0.0.0.1.0.0.3"
        cx="976.86401"
        r="29"
      />
      <circle
        id="connector28pin"
        stroke-width="20"
        stroke="#f7bd13"
        class="pad-d2"
        cy="616.48578"
        fill="none"
        gorn="0.4.0.0.0.0.0.0.0.1.0.0.4"
        cx="976.86401"
        r="29"
      />
      <circle
        id="connector29pin"
        stroke-width="20"
        stroke="#f7bd13"
        class="pad-d1"
        cy="516.43689"
        fill="none"
        gorn="0.4.0.0.0.0.0.0.0.1.0.0.5"
        cx="976.86401"
        r="29"
      />
      <circle
        id="connector30pin"
        stroke-width="20"
        stroke="#f7bd13"
        class="pad-rx"
        cy="416.38821"
        fill="none"
        gorn="0.4.0.0.0.0.0.0.0.1.0.0.6"
        cx="976.86401"
        r="29"
      />
      <circle
        id="connector31pin"
        stroke-width="20"
        stroke="#f7bd13"
        class="pad-tx"
        cy="316.33942"
        fill="none"
        gorn="0.4.0.0.0.0.0.0.0.1.0.0.7"
        cx="976.86401"
        r="29"
      />
    </g>
  </g>
</svg>
