<?xml version='1.0' encoding='UTF-8' standalone='no'?>
<svg
  xmlns="http://www.w3.org/2000/svg"
  xmlns:svg="http://www.w3.org/2000/svg"
  width="0.20999998in"
  xml:space="preserve"
  y="0px"
  viewBox="0 0 209.99998 229.99997"
  x="0px"
  version="1.1"
  height="0.22999999in"
  gorn="0"
  id="svg2">
  <defs
    id="defs24">
  </defs>
  <desc
    id="desc2">
    <referenceFile>Screw-terminal-2-pins_1_schematic.svg</referenceFile>
  </desc>
  <g
    id="schematic">
    <rect
      id="rect60"
      width="120"
      height="220.00003"
      x="84.999992"
      y="4.99998"
      fill="none"
      stroke="#000000"
      stroke-width="9.99996"
    />
    <line
      stroke-linejoin="round"
      stroke-linecap="round"
      y1="171.29169"
      x2="166.02859"
      y2="158"
      stroke-width="10"
      stroke="#000000"
      fill="none"
      x1="129.50999"
      gorn="0.0.0"
      id="line144"
    />
    <line
      stroke-linejoin="round"
      stroke-linecap="round"
      y1="71.645851"
      x2="166.02859"
      y2="58.35416"
      stroke-width="10"
      stroke="#000000"
      fill="none"
      x1="129.50999"
      gorn="0.0.0"
      id="line142"
    />
    <circle
      stroke-width="10"
      cy="65.363785"
      cx="145.35609"
      stroke="#000000"
      r="40.277782"
      fill="none"
      id="circle6"
    />
    <circle
      stroke-width="10"
      cy="165.36378"
      cx="145.35609"
      stroke="#000000"
      r="40.277782"
      fill="none"
      id="circle10"
    />
    <line
      stroke-linejoin="round"
      stroke-linecap="round"
      y1="65.224899"
      x2="100.43443"
      y2="65.224899"
      stroke-width="10"
      stroke="#555555"
      fill="none"
      x1="5"
      gorn="0.0.0"
      id="connector0pin"
    />
    <rect
      width="10"
      y="60.502682"
      x="0.21722263"
      height="10"
      id="connector0terminal"
      fill="none"
      stroke="none"
      stroke-width="0"
    />
    <line
      stroke-linecap="round"
      y1="165.08598"
      x2="100.09612"
      y2="165.08598"
      stroke-width="10"
      stroke="#555555"
      fill="none"
      x1="5.0783162"
      gorn="0.0.3"
      id="connector1pin"
    />
    <rect
      width="10"
      y="160.50267"
      x="0.21722263"
      height="10"
      id="connector1terminal"
      fill="none"
      stroke="none"
      stroke-width="0"
    />
  </g>
</svg>
