<?xml version='1.0' encoding='UTF-8' standalone='no'?>
<svg
  xmlns:dc="http://purl.org/dc/elements/1.1/"
  xmlns:cc="http://creativecommons.org/ns#"
  xmlns:rdf="http://www.w3.org/1999/02/22-rdf-syntax-ns#"
  xmlns:svg="http://www.w3.org/2000/svg"
  xmlns="http://www.w3.org/2000/svg"
  gorn="0"
  xml:space="preserve"
  id="svg3518"
  version="1.1"
  height="24.000002mm"
  viewBox="0 0 1456.6933 944.88237"
  width="37mm"
  clip-rule="evenodd"
  fill-rule="evenodd"
  stroke-linejoin="round"
  stroke-miterlimit="1.41421">
  <desc
    id="desc2">
    <referenceFile>ac-05-03_1_breadboard.svg</referenceFile>
  </desc>
  <metadata
    id="metadata3589">
    <rdf:RDF>
      <cc:Work
        rdf:about="">
        <dc:format>image/svg+xml</dc:format>
        <dc:type
          rdf:resource="http://purl.org/dc/dcmitype/StillImage"
        />
        <dc:title/>
      </cc:Work>
    </rdf:RDF>
  </metadata>
  <defs
    id="defs3587">
  </defs>
  <g
    id="breadboard">
    <rect
      y="0"
      gorn="0.3.0.0.0.0.0.0"
      x="0"
      id="rect3521"
      height="944.88226"
      width="1456.6935"
      fill="#070000"
      stroke-width="13.9404"
    />
    <text
      y="803.15137"
      gorn="0.3.0.0.0.0.0.1"
      x="274.56702"
      id="text3523"
      font-size="49"
      font-family="'Droid Sans'"
      fill="#ffffff"
      stroke-width="13.9403">AC/N</text>
    <text
      y="528.46906"
      gorn="0.3.0.0.0.0.0.2.0.0.0.0.0.2"
      x="1226.2737"
      id="text3531"
      font-size="74.9051"
      font-family="'Droid Sans'"
      fill="#ffffff"
      stroke-width="12.4841"
    />
    <text
      y="187.28195"
      gorn="0.3.0.0.0.0.0.3.1"
      x="1138.8986"
      id="tspan3541"
      font-size="49"
      font-family="'Droid Sans'"
      fill="#ffffff"
      stroke-width="13.9403">+V</text>
    <text
      y="187.26302"
      gorn="0.3.0.0.0.0.0.4.1"
      x="1344.4952"
      id="tspan3545"
      font-size="49"
      font-family="'Droid Sans'"
      fill="#ffffff"
      stroke-width="13.9403">-V</text>
    <text
      y="803.15936"
      gorn="0.3.0.0.0.0.0.5"
      x="78.307114"
      id="text3547"
      font-size="49"
      font-family="'Droid Sans'"
      fill="#ffffff"
      stroke-width="13.9403">AC/L</text>
    <text
      y="121.90598"
      gorn="0.3.0.0.0.0.0.5"
      x="87.965454"
      id="text69"
      font-size="80"
      font-family="'Droid Sans'"
      fill="#ffffff"
      stroke-width="13.9403">A</text>
    <text
      y="157.34563"
      gorn="0.3.0.0.0.0.0.5"
      x="139.13391"
      id="text71"
      font-size="80"
      font-family="'Droid Sans'"
      fill="#ffffff"
      stroke-width="13.9403">Z</text>
    <text
      y="121.90598"
      gorn="0.3.0.0.0.0.0.5"
      x="194.2379"
      id="text73"
      font-size="80"
      font-family="'Droid Sans'"
      fill="#ffffff"
      stroke-width="13.9403">-Delivery</text>
    <text
      y="387.54532"
      gorn="0.3.0.0.0.0.0.5"
      x="389.70837"
      id="text75"
      font-size="160"
      font-family="'Droid Sans'"
      fill="#ffffff"
      stroke-width="13.9403">AC-05-03</text>
    <text
      y="527.435"
      gorn="0.3.0.0.0.0.0.5"
      x="76.127594"
      id="text77"
      font-size="80"
      font-family="'Droid Sans'"
      fill="#ffffff"
      stroke-width="13.9403">INPUT: 100-240VAC 40mA 50/60HZ</text>
    <text
      y="633.71655"
      gorn="0.3.0.0.0.0.0.5"
      x="76.127762"
      id="text79"
      font-size="79.9998"
      font-family="'Droid Sans'"
      fill="#ffffff"
      stroke-width="13.9403">OUTPUT: 5V  600mA</text>
    <text
      y="803.15936"
      gorn="0.3.0.0.0.0.0.4.1"
      x="1333.8219"
      id="text81"
      font-size="49"
      font-family="'Droid Sans'"
      fill="#ffffff"
      stroke-width="13.9403">NC</text>
    <rect
      y="811.02393"
      gorn="0.3.0.0.0.0.0.9.2"
      x="116.92918"
      id="connector0pin"
      height="23.184759"
      width="23.678324"
      fill="#b68b2d"
      stroke-width="13.9403"
    />
    <rect
      y="811.02393"
      gorn="0.3.0.0.0.0.0.9.3"
      x="317.008"
      id="connector1pin"
      height="23.191345"
      width="23.661427"
      fill="#b68b2d"
      stroke-width="13.9403"
    />
    <rect
      y="111.1024"
      gorn="0.3.0.0.0.0.0.9.0"
      x="1156.3784"
      id="connector2pin"
      height="23.191345"
      width="23.661427"
      fill="#b68b2d"
      stroke-width="13.9403"
    />
    <rect
      y="111.1024"
      gorn="0.3.0.0.0.0.0.9.1"
      x="1356.2997"
      id="connector3pin"
      height="23.191345"
      width="23.661427"
      fill="#b68b2d"
      stroke-width="13.9403"
    />
    <rect
      y="811.02393"
      gorn="0.3.0.0.0.0.0.9.1"
      x="1356.2997"
      id="connector4pin"
      height="23.191345"
      width="23.661427"
      fill="#b68b2d"
      stroke-width="13.9403"
    />
  </g>
</svg>
