<?xml version='1.0' encoding='UTF-8' standalone='no'?>
<svg
  xmlns:dc="http://purl.org/dc/elements/1.1/"
  xmlns:cc="http://creativecommons.org/ns#"
  xmlns:rdf="http://www.w3.org/1999/02/22-rdf-syntax-ns#"
  xmlns:svg="http://www.w3.org/2000/svg"
  xmlns="http://www.w3.org/2000/svg"
  gorn="0"
  width="17.347153mm"
  id="svg2"
  viewBox="0 0 682.95898 505.79285"
  height="12.847135mm"
  version="1.1">
  <desc
    id="desc13922">
    <referenceFile>NKK_M2032SS1W03_3PDT_Toggle_Switch_1_pcb.svg</referenceFile>
  </desc>
  <title
    id="title24370">Taiway
    100-SP-X-T1-X-X-B1-M1
    SPDT
    switch
    -
    pcb</title>
  <defs
    id="defs4"
  />
  <metadata
    id="metadata7">
    <rdf:RDF>
      <cc:Work
        rdf:about="">
        <dc:format>image/svg+xml</dc:format>
        <dc:type
          rdf:resource="http://purl.org/dc/dcmitype/StillImage"
        />
        <dc:title>Taiway
          100-SP-X-T1-X-X-B1-M1
          SPDT
          switch
          -
          pcb</dc:title>
      </cc:Work>
    </rdf:RDF>
  </metadata>
  <g
    id="silkscreen">
    <path
      stroke="#000000"
      gorn="0.4.0.0.0.0.0"
      id="case"
      fill="none"
      stroke-opacity="1"
      d="M 173.23974,500.79288 H 5 V 5 H 677.95898 V 500.79288 H 509.71926"
      fill-opacity="1"
      stroke-width="10"
      display="inline"
      stroke-miterlimit="4"
      stroke-dasharray="none"
    />
    <path
      stroke="#000000"
      gorn="0.4.1"
      id="path4172"
      fill="none"
      stroke-opacity="1"
      d="m 471.56732,68.095291 a 226.00098,226.00098 0 0 1 95.90903,184.804029 v 0 a 226.00098,226.00098 0 0 1 -95.83466,184.75164"
      fill-opacity="1"
      stroke-width="10"
      display="inline"
      stroke-miterlimit="4"
      stroke-dasharray="none"
    />
    <path
      stroke="#000000"
      gorn="0.4.2"
      id="path4168"
      fill="none"
      stroke-opacity="1"
      d="M 211.39754,437.71329 A 226.00098,226.00098 0 0 1 115.47439,252.89932 226.00098,226.00098 0 0 1 211.32171,68.138748"
      fill-opacity="1"
      stroke-width="10"
      display="inline"
      stroke-miterlimit="4"
      stroke-dasharray="none"
    />
  </g>
  <g
    id="copper1">
    <g
      id="copper0">
      <circle
        id="connector0pin"
        cx="151.95984"
        cy="252.94916"
        r="46.500019"
        fill="none"
        stroke="#f7bd13"
        stroke-width="20"
      />
      <circle
        id="connector1pin"
        cx="151.95984"
        cy="437.48996"
        r="46.500019"
        fill="none"
        stroke="#f7bd13"
        stroke-width="20"
      />
      <circle
        id="connector2pin"
        cx="151.95984"
        cy="67.489822"
        r="46.500019"
        fill="none"
        stroke="#f7bd13"
        stroke-width="20"
      />
      <circle
        id="connector3pin"
        cx="340.48993"
        cy="437.48996"
        r="46.500019"
        fill="none"
        stroke="#f7bd13"
        stroke-width="20"
      />
      <circle
        id="connector4pin"
        cx="340.48993"
        cy="252.94916"
        r="46.500019"
        fill="none"
        stroke="#f7bd13"
        stroke-width="20"
      />
      <circle
        id="connector5pin"
        cx="340.48993"
        cy="67.489822"
        r="46.500019"
        fill="none"
        stroke="#f7bd13"
        stroke-width="20"
      />
      <circle
        id="connector6pin"
        cx="529.48999"
        cy="437.48996"
        r="46.500019"
        fill="none"
        stroke="#f7bd13"
        stroke-width="20"
      />
      <circle
        id="connector7pin"
        cx="529.48999"
        cy="252.94916"
        r="46.500019"
        fill="none"
        stroke="#f7bd13"
        stroke-width="20"
      />
      <circle
        id="connector8pin"
        cx="529.48999"
        cy="67.489822"
        r="46.500019"
        fill="none"
        stroke="#f7bd13"
        stroke-width="20"
      />
    </g>
  </g>
</svg>
