<?xml version='1.0' encoding='UTF-8' standalone='no'?>
<svg
  xmlns="http://www.w3.org/2000/svg"
  xmlns:svg="http://www.w3.org/2000/svg"
  width="0.40000001in"
  viewBox="0 0 400 267.71652"
  version="1.2"
  height="0.26771653in"
  id="svg244">
  <defs
    id="defs248"
  />
  <desc
    id="desc2">
    <referenceFile>Screw-terminal-4-pins_1_breadboard.svg</referenceFile>
  </desc>
  <g
    id="breadboard">
    <polygon
      fill="#254e89"
      gorn="0.0.0"
      points="400,39.9487 396.012,39.9487 396.012,0 0,0 0,39.9487 3.98829,39.9487 3.98829,72.4061 0,72.4061 0,157.607 396.012,157.607 396.012,72.4061 400,72.4061 "
      id="background"
      transform="scale(1,1.6986335)"
      stroke-width="0.767273"
    />
    <rect
      width="392.745"
      y="69.310822"
      x="1.75594"
      stroke-width="0"
      fill="#456dab"
      height="5.7603598"
      gorn="0.0.1"
      id="upperstripe"
    />
    <rect
      width="396.01199"
      y="153.04384"
      x="0"
      stroke-width="0"
      fill="#123c66"
      height="114.67268"
      gorn="0.0.2"
      id="lowerrect"
    />
    <path
      d="m 49.0302,148.91743 c 19.0567,0 34.5743,-15.7579 34.5743,-35.1715 H 14.4423 c -0.0137,19.4274 15.4903,35.1715 34.5879,35.1715 z"
      fill="#3a5c8e"
      id="path7"
    />
    <path
      d="m 49.0302,78.588333 c -19.0839,0 -34.5879,15.7718 -34.5879,35.157597 H 83.6045 C 83.6044,94.332433 68.1141,78.588333 49.0302,78.588333 Z"
      fill="#123c66"
      id="path9"
    />
    <path
      d="m 49.0302,142.27083 c -15.4904,0 -28.0678,-12.7947 -28.0678,-28.5526 0,-15.730197 12.5774,-28.538697 28.0678,-28.538697 15.4768,0 28.0542,12.7947 28.0542,28.538697 -0.0137,15.7579 -12.5911,28.5526 -28.0542,28.5526 z"
      fill="#8b8b8b"
      id="path13"
    />
    <path
      d="m 49.0302,85.733433 c 15.2045,0 27.5097,12.5454 27.5097,27.984797 0,15.4533 -12.3052,27.9987 -27.5097,27.9987 -15.2045,0 -27.537,-12.5454 -27.537,-27.9987 C 21.4796,98.278833 33.812,85.733433 49.0302,85.733433 m 0,-1.0247 c -15.749,0 -28.585,13.0301 -28.585,29.051097 0,16.021 12.8088,29.0788 28.585,29.0788 15.7218,0 28.5578,-13.0162 28.5578,-29.0788 C 77.5744,97.738733 64.7655,84.708733 49.0302,84.708733 Z"
      id="path15"
    />
    <path
      d="m 22.3236,107.16863 c -0.5037,2.1186 -0.844,4.3341 -0.844,6.5912 0,2.28476 0.340298,4.45874 0.843939,6.63273 h 53.386 c 0.503641,-2.1186 0.843939,-4.32027 0.843939,-6.63273 0,-2.25707 -0.313074,-4.43105 -0.843939,-6.59119 z"
      fill="#707070"
      id="path19"
    />
    <rect
      width="12.9586"
      y="90.012131"
      x="42.5373"
      stroke-width="0"
      fill="#545252"
      height="47.467602"
      id="rect23"
    />
    <rect
      width="40.822201"
      y="107.16863"
      x="28.612301"
      stroke-width="0"
      fill="#545252"
      height="13.1685"
      id="rect25"
    />
    <path
      d="m 49.0302,88.045833 c 13.8978,0 25.2365,11.5346 25.2365,25.672397 0,14.1655 -11.3387,25.6862 -25.2365,25.6862 -13.925,0 -25.2637,-11.5346 -25.2637,-25.6862 -0.0137,-14.137797 11.325,-25.672397 25.2637,-25.672397 m 0,-2.3124 c -15.2045,0 -27.5369,12.5454 -27.5369,27.984797 0,15.4533 12.3324,27.9987 27.5369,27.9987 15.2045,0 27.5097,-12.5454 27.5097,-27.9987 C 76.5671,98.278833 64.2347,85.733433 49.0302,85.733433 Z"
      id="path29"
      opacity="0.5"
    />
    <rect
      width="69.175797"
      y="160.89514"
      x="14.4286"
      stroke-width="0"
      fill="#103656"
      height="28.150999"
      id="rect38"
    />
    <rect
      width="69.175797"
      y="189.06013"
      x="14.4286"
      stroke-width="0"
      fill="#254e89"
      height="29.2034"
      id="rect40"
    />
    <rect
      width="33.866501"
      y="189.42014"
      x="32.083302"
      stroke-width="0"
      fill="#254e89"
      height="35.074501"
      id="rect42"
    />
    <rect
      width="63.540501"
      y="163.35983"
      x="17.259899"
      stroke-width="0"
      fill="#8d8c8c"
      height="52.868"
      id="rect44"
    />
    <path
      d="m 49.0302,213.12613 c 15.0684,0 27.3327,-9.08365 27.3327,-20.3551 H 21.643 c 0.0272,11.2711 12.2779,20.3551 27.3872,20.3551 z"
      fill="#a0a0a0"
      id="path46"
    />
    <path
      d="m 49.0302,172.51313 c -15.0956,0 -27.3872,9.08365 -27.3872,20.3136 h 54.7199 c -0.0136,-11.2306 -12.2371,-20.3136 -27.3327,-20.3136 z"
      fill="#565656"
      id="path48"
    />
    <ellipse
      cy="192.82614"
      ry="15.7579"
      stroke-width="0"
      cx="49.016499"
      fill="#383838"
      rx="21.207399"
      id="ellipse50"
    />
    <polygon
      fill="#919291"
      points="17.2599,103.271 18.1175,96.0569 80.8004,96.9431 79.9292,104.157 76.989,103.271 67.0115,116.467 30.8446,116.467 21.8335,103.631 "
      id="polygon52"
      transform="translate(0,66.929133)"
    />
    <path
      d="m 79.0581,164.75843 v 4.55567 l -2.0554,3e-5 h -0.8848 l -0.5037,0.72 -9.0247,12.476 H 31.7158 l -9.1745,-12.49 -0.5308,-0.706 h -0.8576 -2.137 v -4.5557 h 60.0422 m 1.7423,-1.7724 H 17.2599 v 8.10051 h 3.8794 l 9.7053,13.1962 h 36.5889 l 9.54196,-13.1962 h 3.79773 z"
      fill="#57585a"
      id="path54"
    />
    <rect
      width="28.503401"
      y="216.03413"
      x="34.7785"
      stroke-width="0"
      fill="#8c8c8c"
      height="20.8398"
      id="rect60"
    />
    <path
      d="m 149.0302,148.91743 c 19.0567,0 34.5743,-15.7579 34.5743,-35.1715 h -69.1622 c -0.0137,19.4274 15.4903,35.1715 34.5879,35.1715 z"
      fill="#3a5c8e"
      id="path66"
    />
    <path
      d="m 149.0302,78.588333 c -19.0839,0 -34.5879,15.7718 -34.5879,35.157597 h 69.1622 c -1e-4,-19.413497 -15.4904,-35.157597 -34.5743,-35.157597 z"
      fill="#123c66"
      id="path68"
    />
    <path
      d="m 149.0302,142.27083 c -15.4904,0 -28.0678,-12.7947 -28.0678,-28.5526 0,-15.730197 12.5774,-28.538697 28.0678,-28.538697 15.4768,0 28.0542,12.7947 28.0542,28.538697 -0.0137,15.7579 -12.5911,28.5526 -28.0542,28.5526 z"
      fill="#8b8b8b"
      id="path72"
    />
    <path
      d="m 149.0302,85.733433 c 15.2045,0 27.5097,12.5454 27.5097,27.984797 0,15.4533 -12.3052,27.9987 -27.5097,27.9987 -15.2045,0 -27.537,-12.5454 -27.537,-27.9987 -0.0136,-15.439397 12.3188,-27.984797 27.537,-27.984797 m 0,-1.0247 c -15.749,0 -28.585,13.0301 -28.585,29.051097 0,16.021 12.8088,29.0788 28.585,29.0788 15.7218,0 28.5578,-13.0162 28.5578,-29.0788 -0.0136,-16.021097 -12.8225,-29.051097 -28.5578,-29.051097 z"
      id="path74"
    />
    <path
      d="m 122.3236,107.16863 c -0.5037,2.1186 -0.844,4.3341 -0.844,6.5912 0,2.28476 0.3403,4.45874 0.84394,6.63273 h 53.386 c 0.50364,-2.1186 0.84394,-4.32027 0.84394,-6.63273 0,-2.25707 -0.31308,-4.43105 -0.84394,-6.59119 z"
      fill="#707070"
      id="path78"
    />
    <rect
      width="12.9586"
      y="90.012131"
      x="142.53729"
      stroke-width="0"
      fill="#545252"
      height="47.467602"
      id="rect82"
    />
    <rect
      width="40.822201"
      y="107.16863"
      x="128.6123"
      stroke-width="0"
      fill="#545252"
      height="13.1685"
      id="rect84"
    />
    <path
      d="m 149.0302,88.045833 c 13.8978,0 25.2365,11.5346 25.2365,25.672397 0,14.1655 -11.3387,25.6862 -25.2365,25.6862 -13.925,0 -25.2637,-11.5346 -25.2637,-25.6862 -0.0137,-14.137797 11.325,-25.672397 25.2637,-25.672397 m 0,-2.3124 c -15.2045,0 -27.5369,12.5454 -27.5369,27.984797 0,15.4533 12.3324,27.9987 27.5369,27.9987 15.2045,0 27.5097,-12.5454 27.5097,-27.9987 0.0272,-15.439397 -12.3052,-27.984797 -27.5097,-27.984797 z"
      id="path88"
      opacity="0.5"
    />
    <rect
      width="69.175797"
      y="160.89514"
      x="114.4286"
      stroke-width="0"
      fill="#103656"
      height="28.150999"
      id="rect97"
    />
    <rect
      width="69.175797"
      y="189.06013"
      x="114.4286"
      stroke-width="0"
      fill="#254e89"
      height="29.2034"
      id="rect99"
    />
    <rect
      width="33.866501"
      y="189.42014"
      x="132.0833"
      stroke-width="0"
      fill="#254e89"
      height="35.074501"
      id="rect101"
    />
    <rect
      width="63.540501"
      y="163.35983"
      x="117.2599"
      stroke-width="0"
      fill="#8d8c8c"
      height="52.868"
      id="rect103"
    />
    <path
      d="m 149.0302,213.12613 c 15.0684,0 27.3327,-9.08365 27.3327,-20.3551 H 121.643 c 0.0272,11.2711 12.2779,20.3551 27.3872,20.3551 z"
      fill="#a0a0a0"
      id="path105"
    />
    <path
      d="m 149.0302,172.51313 c -15.0956,0 -27.3872,9.08365 -27.3872,20.3136 h 54.7199 c -0.0136,-11.2306 -12.2371,-20.3136 -27.3327,-20.3136 z"
      fill="#565656"
      id="path107"
    />
    <ellipse
      cy="192.82614"
      ry="15.7579"
      stroke-width="0"
      cx="149.01649"
      fill="#383838"
      rx="21.207399"
      id="ellipse109"
    />
    <polygon
      fill="#919291"
      points="17.2599,103.271 18.1175,96.0569 80.8004,96.9431 79.9292,104.157 76.989,103.271 67.0115,116.467 30.8446,116.467 21.8335,103.631 "
      id="polygon111"
      transform="translate(100,66.929133)"
    />
    <path
      d="m 179.0581,164.75843 v 4.55567 l -2.0554,3e-5 h -0.8848 l -0.5037,0.72 -9.0247,12.476 h -34.8737 l -9.1745,-12.49 -0.5308,-0.706 h -0.8576 -2.137 v -4.5557 h 60.0422 m 1.7423,-1.7724 h -63.5405 v 8.10051 h 3.8794 l 9.7053,13.1962 h 36.5889 l 9.54196,-13.1962 h 3.79773 z"
      fill="#57585a"
      id="path113"
    />
    <rect
      width="28.503401"
      y="216.03413"
      x="134.7785"
      stroke-width="0"
      fill="#8c8c8c"
      height="20.8398"
      id="rect119"
    />
    <path
      d="m 249.0302,148.91743 c 19.0567,0 34.5743,-15.7579 34.5743,-35.1715 h -69.1622 c -0.0137,19.4274 15.4903,35.1715 34.5879,35.1715 z"
      fill="#3a5c8e"
      id="path125"
    />
    <path
      d="m 249.0302,78.588333 c -19.0839,0 -34.5879,15.7718 -34.5879,35.157597 h 69.1622 C 283.6044,94.332433 268.1141,78.588333 249.0302,78.588333 Z"
      fill="#123c66"
      id="path127"
    />
    <path
      d="m 249.0302,142.27083 c -15.4904,0 -28.0678,-12.7947 -28.0678,-28.5526 0,-15.730197 12.5774,-28.538697 28.0678,-28.538697 15.4768,0 28.0542,12.7947 28.0542,28.538697 -0.0137,15.7579 -12.5911,28.5526 -28.0542,28.5526 z"
      fill="#8b8b8b"
      id="path131"
    />
    <path
      d="m 249.0302,85.733433 c 15.2045,0 27.5097,12.5454 27.5097,27.984797 0,15.4533 -12.3052,27.9987 -27.5097,27.9987 -15.2045,0 -27.537,-12.5454 -27.537,-27.9987 -0.0136,-15.439397 12.3188,-27.984797 27.537,-27.984797 m 0,-1.0247 c -15.749,0 -28.585,13.0301 -28.585,29.051097 0,16.021 12.8088,29.0788 28.585,29.0788 15.7218,0 28.5578,-13.0162 28.5578,-29.0788 -0.0136,-16.021097 -12.8225,-29.051097 -28.5578,-29.051097 z"
      id="path133"
    />
    <path
      d="m 222.3236,107.16863 c -0.5037,2.1186 -0.844,4.3341 -0.844,6.5912 0,2.28476 0.3403,4.45874 0.84394,6.63273 h 53.386 c 0.50364,-2.1186 0.84394,-4.32027 0.84394,-6.63273 0,-2.25707 -0.31308,-4.43105 -0.84394,-6.59119 z"
      fill="#707070"
      id="path137"
    />
    <rect
      width="12.9586"
      y="90.012131"
      x="242.53729"
      stroke-width="0"
      fill="#545252"
      height="47.467602"
      id="rect141"
    />
    <rect
      width="40.822201"
      y="107.16863"
      x="228.6123"
      stroke-width="0"
      fill="#545252"
      height="13.1685"
      id="rect143"
    />
    <path
      d="m 249.0302,88.045833 c 13.8978,0 25.2365,11.5346 25.2365,25.672397 0,14.1655 -11.3387,25.6862 -25.2365,25.6862 -13.925,0 -25.2637,-11.5346 -25.2637,-25.6862 -0.0137,-14.137797 11.325,-25.672397 25.2637,-25.672397 m 0,-2.3124 c -15.2045,0 -27.5369,12.5454 -27.5369,27.984797 0,15.4533 12.3324,27.9987 27.5369,27.9987 15.2045,0 27.5097,-12.5454 27.5097,-27.9987 0.0272,-15.439397 -12.3052,-27.984797 -27.5097,-27.984797 z"
      id="path147"
      opacity="0.5"
    />
    <rect
      width="69.175797"
      y="160.89514"
      x="214.4286"
      stroke-width="0"
      fill="#103656"
      height="28.150999"
      id="rect156"
    />
    <rect
      width="69.175797"
      y="189.06013"
      x="214.4286"
      stroke-width="0"
      fill="#254e89"
      height="29.2034"
      id="rect158"
    />
    <rect
      width="33.866501"
      y="189.42014"
      x="232.0833"
      stroke-width="0"
      fill="#254e89"
      height="35.074501"
      id="rect160"
    />
    <rect
      width="63.540501"
      y="163.35983"
      x="217.2599"
      stroke-width="0"
      fill="#8d8c8c"
      height="52.868"
      id="rect162"
    />
    <path
      d="m 249.0302,213.12613 c 15.0684,0 27.3327,-9.08365 27.3327,-20.3551 H 221.643 c 0.0272,11.2711 12.2779,20.3551 27.3872,20.3551 z"
      fill="#a0a0a0"
      id="path164"
    />
    <path
      d="m 249.0302,172.51313 c -15.0956,0 -27.3872,9.08365 -27.3872,20.3136 h 54.7199 c -0.0136,-11.2306 -12.2371,-20.3136 -27.3327,-20.3136 z"
      fill="#565656"
      id="path166"
    />
    <ellipse
      cy="192.82614"
      ry="15.7579"
      stroke-width="0"
      cx="249.01649"
      fill="#383838"
      rx="21.207399"
      id="ellipse168"
    />
    <polygon
      fill="#919291"
      points="17.2599,103.271 18.1175,96.0569 80.8004,96.9431 79.9292,104.157 76.989,103.271 67.0115,116.467 30.8446,116.467 21.8335,103.631 "
      id="polygon170"
      transform="translate(200,66.929133)"
    />
    <path
      d="m 279.0581,164.75843 v 4.55567 l -2.0554,3e-5 h -0.8848 l -0.5037,0.72 -9.0247,12.476 h -34.8737 l -9.1745,-12.49 -0.5308,-0.706 h -0.8576 -2.137 v -4.5557 h 60.0422 m 1.7423,-1.7724 h -63.5405 v 8.10051 h 3.8794 l 9.7053,13.1962 h 36.5889 l 9.54196,-13.1962 h 3.79773 z"
      fill="#57585a"
      id="path172"
    />
    <rect
      width="28.503401"
      y="216.03413"
      x="234.7785"
      stroke-width="0"
      fill="#8c8c8c"
      height="20.8398"
      id="rect178"
    />
    <path
      d="m 349.0302,148.91743 c 19.0567,0 34.5743,-15.7579 34.5743,-35.1715 h -69.1622 c -0.0137,19.4274 15.4903,35.1715 34.5879,35.1715 z"
      fill="#3a5c8e"
      id="path184"
    />
    <path
      d="m 349.0302,78.588333 c -19.0839,0 -34.5879,15.7718 -34.5879,35.157597 h 69.1622 C 383.6044,94.332433 368.1141,78.588333 349.0302,78.588333 Z"
      fill="#123c66"
      id="path186"
    />
    <path
      d="m 349.0302,142.27083 c -15.4904,0 -28.0678,-12.7947 -28.0678,-28.5526 0,-15.730197 12.5774,-28.538697 28.0678,-28.538697 15.4768,0 28.0542,12.7947 28.0542,28.538697 -0.0137,15.7579 -12.5911,28.5526 -28.0542,28.5526 z"
      fill="#8b8b8b"
      id="path190"
    />
    <path
      d="m 349.0302,85.733433 c 15.2045,0 27.5097,12.5454 27.5097,27.984797 0,15.4533 -12.3052,27.9987 -27.5097,27.9987 -15.2045,0 -27.537,-12.5454 -27.537,-27.9987 -0.0136,-15.439397 12.3188,-27.984797 27.537,-27.984797 m 0,-1.0247 c -15.749,0 -28.585,13.0301 -28.585,29.051097 0,16.021 12.8088,29.0788 28.585,29.0788 15.7218,0 28.5578,-13.0162 28.5578,-29.0788 -0.0136,-16.021097 -12.8225,-29.051097 -28.5578,-29.051097 z"
      id="path192"
    />
    <path
      d="m 322.3236,107.16863 c -0.5037,2.1186 -0.844,4.3341 -0.844,6.5912 0,2.28476 0.3403,4.45874 0.84394,6.63273 h 53.386 c 0.50364,-2.1186 0.84394,-4.32027 0.84394,-6.63273 0,-2.25707 -0.31308,-4.43105 -0.84394,-6.59119 z"
      fill="#707070"
      id="path196"
    />
    <rect
      width="12.9586"
      y="90.012131"
      x="342.53729"
      stroke-width="0"
      fill="#545252"
      height="47.467602"
      id="rect200"
    />
    <rect
      width="40.822201"
      y="107.16863"
      x="328.6123"
      stroke-width="0"
      fill="#545252"
      height="13.1685"
      id="rect202"
    />
    <path
      d="m 349.0302,88.045833 c 13.8978,0 25.2365,11.5346 25.2365,25.672397 0,14.1655 -11.3387,25.6862 -25.2365,25.6862 -13.925,0 -25.2637,-11.5346 -25.2637,-25.6862 -0.0137,-14.137797 11.325,-25.672397 25.2637,-25.672397 m 0,-2.3124 c -15.2045,0 -27.5369,12.5454 -27.5369,27.984797 0,15.4533 12.3324,27.9987 27.5369,27.9987 15.2045,0 27.5097,-12.5454 27.5097,-27.9987 0.0272,-15.439397 -12.3052,-27.984797 -27.5097,-27.984797 z"
      id="path206"
      opacity="0.5"
    />
    <rect
      width="69.175797"
      y="160.89514"
      x="314.42859"
      stroke-width="0"
      fill="#103656"
      height="28.150999"
      id="rect215"
    />
    <rect
      width="69.175797"
      y="189.06013"
      x="314.42859"
      stroke-width="0"
      fill="#254e89"
      height="29.2034"
      id="rect217"
    />
    <rect
      width="33.866501"
      y="189.42014"
      x="332.08331"
      stroke-width="0"
      fill="#254e89"
      height="35.074501"
      id="rect219"
    />
    <rect
      width="63.540501"
      y="163.35983"
      x="317.25989"
      stroke-width="0"
      fill="#8d8c8c"
      height="52.868"
      id="rect221"
    />
    <path
      d="m 349.0302,213.12613 c 15.0684,0 27.3327,-9.08365 27.3327,-20.3551 H 321.643 c 0.0272,11.2711 12.2779,20.3551 27.3872,20.3551 z"
      fill="#a0a0a0"
      id="path223"
    />
    <path
      d="m 349.0302,172.51313 c -15.0956,0 -27.3872,9.08365 -27.3872,20.3136 h 54.7199 c -0.0136,-11.2306 -12.2371,-20.3136 -27.3327,-20.3136 z"
      fill="#565656"
      id="path225"
    />
    <ellipse
      cy="192.82614"
      ry="15.7579"
      stroke-width="0"
      cx="349.01651"
      fill="#383838"
      rx="21.207399"
      id="ellipse227"
    />
    <polygon
      fill="#919291"
      points="17.2599,103.271 18.1175,96.0569 80.8004,96.9431 79.9292,104.157 76.989,103.271 67.0115,116.467 30.8446,116.467 21.8335,103.631 "
      id="polygon229"
      transform="translate(300,66.929133)"
    />
    <path
      d="m 379.0581,164.75843 v 4.55567 l -2.0554,3e-5 h -0.8848 l -0.5037,0.72 -9.0247,12.476 h -34.8737 l -9.1745,-12.49 -0.5308,-0.706 h -0.8576 -2.137 v -4.5557 h 60.0422 m 1.7423,-1.7724 h -63.5405 v 8.10051 h 3.8794 l 9.7053,13.1962 h 36.5889 l 9.54196,-13.1962 h 3.79773 z"
      fill="#57585a"
      id="path231"
    />
    <rect
      width="28.503401"
      y="216.03413"
      x="334.7785"
      stroke-width="0"
      fill="#8c8c8c"
      height="20.8398"
      id="rect237"
    />
    <rect
      width="31.5235"
      y="176.80313"
      x="34.288399"
      stroke-width="0"
      fill="none"
      height="60.0844"
      gorn="0.0.5"
      id="connector0pin"
    />
    <rect
      width="31.5235"
      y="176.80313"
      x="134.28799"
      stroke-width="0"
      fill="none"
      height="60.0844"
      gorn="0.0.8"
      id="connector1pin"
    />
    <rect
      width="31.5235"
      y="176.80313"
      x="234.28799"
      stroke-width="0"
      fill="none"
      height="60.0844"
      gorn="0.0.11"
      id="connector2pin"
    />
    <rect
      width="31.5235"
      y="176.80313"
      x="334.28799"
      stroke-width="0"
      fill="none"
      height="60.0844"
      gorn="0.0.14"
      id="connector3pin"
    />
  </g>
</svg>
