<?xml version='1.0' encoding='UTF-8' standalone='no'?>
<svg
  xmlns:dc="http://purl.org/dc/elements/1.1/"
  xmlns:cc="http://creativecommons.org/ns#"
  xmlns:rdf="http://www.w3.org/1999/02/22-rdf-syntax-ns#"
  xmlns:svg="http://www.w3.org/2000/svg"
  xmlns="http://www.w3.org/2000/svg"
  viewBox="0 0 810.33232 309.99997"
  x="0in"
  width="0.8103323in"
  height="0.30999997in"
  version="1.2"
  y="0in"
  id="svg2">
  <metadata
    id="metadata41">
    <rdf:RDF>
      <cc:Work
        rdf:about="">
        <dc:format>image/svg+xml</dc:format>
        <dc:type
          rdf:resource="http://purl.org/dc/dcmitype/StillImage"
        />
        <dc:title/>
      </cc:Work>
    </rdf:RDF>
  </metadata>
  <defs
    id="defs39"
  />
  <desc
    id="desc4">
    <referenceFile>generic-ac-power-supply-3_1_schematic.svg</referenceFile>
  </desc>
  <g
    id="schematic">
    <rect
      x="105"
      width="600"
      height="299.99997"
      y="5"
      id="rect7"
      fill="none"
      stroke="#000000"
      stroke-width="10"
      stroke-linecap="round"
    />
    <text
      id="label0"
      x="135.21381"
      y="122.84821"
      font-size="49"
      font-family="'Droid Sans'"
      text-anchor="start"
      fill="#555555">AC-in</text>
    <text
      x="77.219048"
      y="93.337708"
      font-size="34.72219849"
      id="text15"
      font-family="'Droid Sans'"
      text-anchor="middle"
      fill="#555555">1</text>
    <text
      id="label1"
      x="135.21381"
      y="222.84822"
      font-size="49"
      font-family="'Droid Sans'"
      text-anchor="start"
      fill="#555555">AC-in</text>
    <text
      x="77.219048"
      y="193.33803"
      font-size="34.72219849"
      id="text22"
      font-family="'Droid Sans'"
      text-anchor="middle"
      fill="#555555">2</text>
    <line
      y1="104.9995"
      y2="104.9995"
      x2="805.26111"
      x1="710.07123"
      id="connector3pin"
      fill="none"
      stroke="#555555"
      stroke-width="10"
      stroke-linecap="round"
    />
    <rect
      id="connector3terminal"
      x="800"
      width="10"
      height="10"
      y="99.999992"
      fill="none"
      stroke-width="0"
    />
    <text
      id="label2"
      x="591.46655"
      y="224.05331"
      font-size="49"
      font-family="'Droid Sans'"
      text-anchor="start"
      fill="#555555">DC-</text>
    <text
      x="738.2467"
      y="187.35803"
      font-size="34.72219849"
      id="text29"
      font-family="'Droid Sans'"
      text-anchor="middle"
      fill="#555555">3</text>
    <text
      font-size="49"
      y="133.34929"
      x="312.38046"
      id="text3369"
      font-family="'Droid Sans'"
      text-anchor="start"
      fill="#000000">AC/DC</text>
    <text
      font-size="35"
      y="198.36674"
      x="303.2659"
      id="text3371"
      font-family="'Droid Sans'"
      text-anchor="start"
      fill="#555555">power supply</text>
    <line
      id="connector2pin"
      x1="710.07123"
      x2="805.26111"
      y2="204.9995"
      y1="204.9995"
      fill="none"
      stroke="#555555"
      stroke-width="10"
      stroke-linecap="round"
    />
    <rect
      y="199.99998"
      height="10"
      width="10"
      x="800"
      id="connector2terminal"
      fill="none"
      stroke-width="0"
    />
    <text
      font-size="49"
      y="124.52148"
      x="591.46655"
      id="text49"
      font-family="'Droid Sans'"
      text-anchor="start"
      fill="#555555">DC+</text>
    <text
      id="text51"
      font-size="34.72219849"
      y="87.660912"
      x="738.2467"
      font-family="'Droid Sans'"
      text-anchor="middle"
      fill="#555555">4</text>
    <line
      y1="105.13841"
      y2="105.13841"
      x2="100.26112"
      x1="5.0712123"
      id="connector0pin"
      fill="none"
      stroke="#555555"
      stroke-width="10"
      stroke-linecap="round"
    />
    <rect
      id="connector0terminal"
      x="0.14087817"
      width="10"
      height="10"
      y="100.2778"
      fill="none"
      stroke-width="0"
    />
    <line
      y1="205.13843"
      y2="205.13843"
      x2="100.26112"
      x1="5.0712123"
      id="connector1pin"
      fill="none"
      stroke="#555555"
      stroke-width="10"
      stroke-linecap="round"
    />
    <rect
      id="connector1terminal"
      x="0.14087817"
      width="10"
      height="10"
      y="200"
      fill="none"
      stroke-width="0"
    />
  </g>
</svg>
