<?xml version='1.0' encoding='UTF-8' standalone='no'?>
<svg
  xmlns="http://www.w3.org/2000/svg"
  xmlns:svg="http://www.w3.org/2000/svg"
  data-name="Ebene 2"
  gorn="0"
  width="0.70999998in"
  height="0.8101899in"
  id="b2fe6e3f-bee3-4403-8794-7b898cbc34df"
  viewBox="0 0 709.99999 810.18994"
  version="1.1">
  <desc
    id="desc2">
    <referenceFile>TB6560_V2-DF_1_schematic.svg</referenceFile>
  </desc>
  <defs
    id="defs15">
    <g
      transform="translate(0,-0.002)"
      id="g6">
      <g
        id="g4"
      />
    </g>
    <g
      transform="translate(0,-0.002)"
      id="g13">
      <g
        id="g11">
        <clipPath
          id="bbf68e36-5235-4033-b3f3-636a9d4995d1">
          <rect
            y="47.587002"
            width="27.166"
            x="2.694"
            height="5.1420002"
            fill="none"
            id="rect8"
          />
        </clipPath>
      </g>
    </g>
  </defs>
  <g
    id="schematic">
    <rect
      stroke-miterlimit="10"
      y="104.99997"
      x="4.9999652"
      stroke-width="9.99993"
      height="600.00006"
      fill="#ffffff"
      stroke="#000000"
      id="rect17"
      width="700.00006"
    />
    <text
      font-size="60"
      y="335.99332"
      x="332.06442"
      id="label"
      font-family="'Droid Sans'"
      text-anchor="middle"
      fill="#000000">TB6560 V2</text>
    <text
      fill="#555555"
      text-anchor="start"
      font-family="'Droid Sans'"
      id="label0"
      x="80.949959"
      y="170.10452"
      font-size="49">B-</text>
    <text
      fill="#555555"
      text-anchor="start"
      font-family="'Droid Sans'"
      id="text1336"
      x="175.26947"
      y="169.18381"
      font-size="49">B+</text>
    <text
      fill="#555555"
      text-anchor="start"
      font-family="'Droid Sans'"
      id="text1342"
      x="281.23874"
      y="170.10452"
      font-size="49">A-</text>
    <text
      fill="#555555"
      text-anchor="start"
      font-family="'Droid Sans'"
      id="text1348"
      x="380.99997"
      y="170.10452"
      font-size="49">A+</text>
    <text
      fill="#555555"
      text-anchor="start"
      font-family="'Droid Sans'"
      id="text1360"
      x="456.14075"
      y="170.10452"
      font-size="49">GND</text>
    <text
      fill="#555555"
      text-anchor="start"
      font-family="'Droid Sans'"
      id="text1370"
      x="577.55957"
      y="170.48193"
      font-size="49">+24V</text>
    <text
      font-size="60"
      y="405.58594"
      x="332.39157"
      id="text1460"
      font-family="'Droid Sans'"
      text-anchor="middle"
      fill="#000000">driver</text>
    <text
      font-size="60.0941"
      y="476.33212"
      x="331.78021"
      id="text1462"
      font-family="'Droid Sans'"
      text-anchor="middle"
      fill="#000000"
      transform="scale(1.001569,0.99843345)"
      stroke-width="1">board</text>
    <text
      fill="#555555"
      text-anchor="start"
      font-family="'Droid Sans'"
      id="text1732"
      x="57.011448"
      y="668.13806"
      font-size="49">EN-</text>
    <text
      fill="#555555"
      text-anchor="start"
      font-family="'Droid Sans'"
      id="text1740"
      x="157.23872"
      y="668.13806"
      font-size="49">EN+</text>
    <text
      fill="#555555"
      text-anchor="start"
      font-family="'Droid Sans'"
      id="text1748"
      x="257.23874"
      y="668.13806"
      font-size="49">CW-</text>
    <text
      fill="#555555"
      text-anchor="start"
      font-family="'Droid Sans'"
      id="text1750"
      x="357.00925"
      y="668.13806"
      font-size="49">CW+</text>
    <text
      fill="#555555"
      text-anchor="start"
      font-family="'Droid Sans'"
      id="text1764"
      x="477.00925"
      y="668.13806"
      font-size="49">CLK-</text>
    <text
      fill="#555555"
      text-anchor="start"
      font-family="'Droid Sans'"
      id="text1770"
      x="587.00928"
      y="668.13806"
      font-size="49">CLK+</text>
    <line
      stroke-linecap="round"
      stroke-width="10"
      stroke="#555555"
      fill="none"
      y1="5"
      y2="100.18991"
      x2="104.99995"
      x1="104.99995"
      id="connector1pin"
    />
    <rect
      id="connector1terminal"
      width="10"
      height="10"
      x="99.999954"
      y="0"
      fill="none"
      stroke="none"
      stroke-width="0"
    />
    <line
      stroke-linecap="round"
      stroke-width="10"
      stroke="#555555"
      fill="none"
      y1="5"
      y2="100.18991"
      x2="204.99995"
      x1="204.99995"
      id="connector2pin"
    />
    <rect
      id="connector2terminal"
      width="10"
      height="10"
      x="199.99995"
      y="0"
      fill="none"
      stroke="none"
      stroke-width="0"
    />
    <line
      stroke-linecap="round"
      stroke-width="10"
      stroke="#555555"
      fill="none"
      y1="5"
      y2="100.18991"
      x2="304.99997"
      x1="304.99997"
      id="connector3pin"
    />
    <rect
      id="connector3terminal"
      width="10"
      height="10"
      x="299.99997"
      y="0"
      fill="none"
      stroke="none"
      stroke-width="0"
    />
    <line
      stroke-linecap="round"
      stroke-width="10"
      stroke="#555555"
      fill="none"
      y1="5"
      y2="100.18991"
      x2="404.99997"
      x1="404.99997"
      id="connector4pin"
    />
    <rect
      id="connector4terminal"
      width="10"
      height="10"
      x="399.99997"
      y="0"
      fill="none"
      stroke="none"
      stroke-width="0"
    />
    <line
      stroke-linecap="round"
      stroke-width="10"
      stroke="#555555"
      fill="none"
      y1="5"
      y2="100.18991"
      x2="504.99997"
      x1="504.99997"
      id="connector5pin"
    />
    <rect
      id="connector5terminal"
      width="10"
      height="10"
      x="499.99997"
      y="0"
      fill="none"
      stroke="none"
      stroke-width="0"
    />
    <line
      stroke-linecap="round"
      stroke-width="10"
      stroke="#555555"
      fill="none"
      y1="5"
      y2="100.18991"
      x2="605"
      x1="605"
      id="connector6pin"
    />
    <rect
      id="connector6terminal"
      width="10"
      height="10"
      x="600"
      y="0"
      fill="none"
      stroke="none"
      stroke-width="0"
    />
    <line
      stroke-linecap="round"
      stroke-width="10"
      stroke="#555555"
      fill="none"
      y1="710"
      y2="805.18994"
      x2="104.99995"
      x1="104.99995"
      id="connector7pin"
    />
    <rect
      id="connector7terminal"
      width="10"
      height="10"
      x="99.999954"
      y="800"
      fill="none"
      stroke="none"
      stroke-width="0"
    />
    <line
      stroke-linecap="round"
      stroke-width="10"
      stroke="#555555"
      fill="none"
      y1="709.81006"
      y2="805"
      x2="204.99995"
      x1="204.99995"
      id="connector8pin"
    />
    <rect
      id="connector8terminal"
      width="10"
      height="10"
      x="199.99995"
      y="800"
      fill="none"
      stroke="none"
      stroke-width="0"
    />
    <line
      stroke-linecap="round"
      stroke-width="10"
      stroke="#555555"
      fill="none"
      y1="709.81006"
      y2="805"
      x2="304.99997"
      x1="304.99997"
      id="connector9pin"
    />
    <rect
      id="connector9terminal"
      width="10"
      height="10"
      x="299.99997"
      y="800"
      fill="none"
      stroke="none"
      stroke-width="0"
    />
    <line
      stroke-linecap="round"
      stroke-width="10"
      stroke="#555555"
      fill="none"
      y1="709.81006"
      y2="805"
      x2="404.99997"
      x1="404.99997"
      id="connector10pin"
    />
    <rect
      id="connector10terminal"
      width="10"
      height="10"
      x="399.99997"
      y="800"
      fill="none"
      stroke="none"
      stroke-width="0"
    />
    <line
      stroke-linecap="round"
      stroke-width="10"
      stroke="#555555"
      fill="none"
      y1="709.81006"
      y2="805"
      x2="504.99997"
      x1="504.99997"
      id="connector11pin"
    />
    <rect
      id="connector11terminal"
      width="10"
      height="10"
      x="499.99997"
      y="800"
      fill="none"
      stroke="none"
      stroke-width="0"
    />
    <line
      stroke-linecap="round"
      stroke-width="10"
      stroke="#555555"
      fill="none"
      y1="709.81006"
      y2="805"
      x2="605"
      x1="605"
      id="connector12pin"
    />
    <rect
      id="connector12terminal"
      width="10"
      height="10"
      x="600"
      y="800"
      fill="none"
      stroke="none"
      stroke-width="0"
    />
  </g>
</svg>
