<!-- Created with Fritzing (http://www.fritzing.org/) -->
<svg xmlns="http://www.w3.org/2000/svg" y="0in" version="1.2" id="svg0" height="10.16mm" x="0in" viewBox="0 0 25.4 10.16"  width="25.4mm" gorn="0">
    <desc >
        <referenceFile >part _ breadboard.svg</referenceFile>
    </desc>
    <metadata id="metadata0" >
        <rdf:RDF xmlns:rdf="http://www.w3.org/1999/02/22-rdf-syntax-ns#">
            <cc:Work xmlns:rdf="http://www.w3.org/1999/02/22-rdf-syntax-ns#" xmlns:cc="http://creativecommons.org/ns#" rdf:about="">
                <dc:format xmlns:dc="http://purl.org/dc/elements/1.1/">image/svg+xml</dc:format>
                <dc:type xmlns:dc="http://purl.org/dc/elements/1.1/" rdf:resource="http://purl.org/dc/dcmitype/StillImage" xmlns:rdf="http://www.w3.org/1999/02/22-rdf-syntax-ns#"/>
                <dc:title xmlns:dc="http://purl.org/dc/elements/1.1/"/>
            </cc:Work>
        </rdf:RDF>
    </metadata>
    <defs id="defs0" >
        <linearGradient paint="solid" id="Schematic_pin" gradientTransform="matrix(0,0,0,0,52.651326,19.706649)" >
            <stop id="stop1056"  style="stop-color:#555555;stop-opacity:1;" offset="0"/>
        </linearGradient>
        <linearGradient paint="solid" id="Breadboard_font_color" gradientTransform="translate(-13.728802,-7.7368969)" >
            <stop id="stop882"  style="stop-color:#e6e6e6;stop-opacity:1;" offset="0"/>
        </linearGradient>
        <linearGradient paint="solid" id="board_green" gradientTransform="matrix(0.29934191,0,0,0.38833538,47.731132,15.946772)" >
            <stop id="stop975"  style="stop-color:#30ac5f;stop-opacity:1;" offset="0"/>
        </linearGradient>
        <linearGradient paint="solid" id="board_red" gradientTransform="matrix(0,0,0,0,44.487142,20.109385)" >
            <stop id="stop922"  style="stop-color:#e91b1b;stop-opacity:1;" offset="0"/>
        </linearGradient>
        <linearGradient paint="solid" id="board_blue" gradientTransform="matrix(0,0,0,0,0,10.617214)" >
            <stop id="stop878"  style="stop-color:#15478b;stop-opacity:1;" offset="0"/>
        </linearGradient>
        <linearGradient paint="solid" id="Breadboard_copper" gradientTransform="matrix(0,0,0,0,63.921381,22.346634)" >
            <stop id="stop853"  style="stop-color:#9a916c;stop-opacity:1;" offset="0"/>
        </linearGradient>
        <linearGradient paint="solid" id="PCB_copper" gradientTransform="translate(0,0)" >
            <stop id="stop847"  style="stop-color:#f7bd13;stop-opacity:1;" offset="0"/>
        </linearGradient>
    </defs>
    <g transform="translate(0,-10.617201)" >
        <g >
            <g >
                <svg:g xmlns:svg="http://www.w3.org/2000/svg" id="g-layer-part-B" partID="" style="display:inline" gorn="0.3.0.0.0">
                    <svg:g xmlns:svg="http://www.w3.org/2000/svg" id="breadboard" style="display:inline" gorn="0.3.0.0.0.0">
                        <svg:g xmlns:svg="http://www.w3.org/2000/svg" id="icon" style="display:inline" gorn="0.3.0.0.0.0.0">
                            <svg:g xmlns:svg="http://www.w3.org/2000/svg" id="g-layer-board" style="display:inline" gorn="0.3.0.0.0.0.0.0">
                                <g transform="matrix(0.26458333,0,0,0.26458333,0,10.617201)" >
                                    <g >
                                        <g >
                                            <svg:path stroke="none" xmlns:svg="http://www.w3.org/2000/svg" mask="none" stroke-opacity="1" id="rect_board_layout" d="M 0,0 V 38.400391 H 96 V 0 Z m 9.5996094,11.617188 a 2.7836224,2.7836224 0 0 1 2.7832026,2.783203 2.7836224,2.7836224 0 0 1 -2.7832026,2.783203 2.7836224,2.7836224 0 0 1 -2.7832032,-2.783203 2.7836224,2.7836224 0 0 1 2.7832032,-2.783203 z m 76.8007816,0 a 2.7836226,2.7836226 0 0 1 2.783203,2.783203 2.7836226,2.7836226 0 0 1 -2.783203,2.783203 2.7836226,2.7836226 0 0 1 -2.783203,-2.783203 2.7836226,2.7836226 0 0 1 2.783203,-2.783203 z M 9.5996094,21.216797 A 2.7836226,2.7836226 0 0 1 12.382812,24 2.7836226,2.7836226 0 0 1 9.5996094,26.783203 2.7836226,2.7836226 0 0 1 6.8164062,24 2.7836226,2.7836226 0 0 1 9.5996094,21.216797 Z m 76.8007816,0 A 2.7836226,2.7836226 0 0 1 89.183594,24 2.7836226,2.7836226 0 0 1 86.400391,26.783203 2.7836226,2.7836226 0 0 1 83.617188,24 2.7836226,2.7836226 0 0 1 86.400391,21.216797 Z" fill-opacity="1" stroke-width="0.52174652" style="display:inline;opacity:1;vector-effect:none;fill-rule:evenodd;stroke-linecap:round;stroke-linejoin:bevel;stroke-miterlimit:4;stroke-dasharray:none;stroke-dashoffset:0;paint-order:normal" fill="url(#board_blue)" gorn="0.3.0.0.0.0.0.0.0.0.0.0"/>
                                        </g>
                                    </g>
                                </g>
                            </svg:g>
                            <svg:g xmlns:svg="http://www.w3.org/2000/svg" id="g-layer-text-0" gorn="0.3.0.0.0.0.0.1">
                                <svg:text xmlns:svg="http://www.w3.org/2000/svg" y="12.287201" id="text_pin_1" xml:space="preserve" xmlns:xml="http://www.w3.org/XML/1998/namespace" x="0.33050001" style="font-size:1.5px;font-family:OCRA;fill:url(#Breadboard_font_color)" gorn="0.3.0.0.0.0.0.1.0">VIN+</svg:text>
                                <svg:text xmlns:svg="http://www.w3.org/2000/svg" y="20.277201" id="text_pin_2" xml:space="preserve" xmlns:xml="http://www.w3.org/XML/1998/namespace" x="0.33050001" style="font-size:1.5px;font-family:OCRA;fill:url(#Breadboard_font_color)" gorn="0.3.0.0.0.0.0.1.1">GND-</svg:text>
                                <svg:text xmlns:svg="http://www.w3.org/2000/svg" y="12.287201" id="text_pin_3" xml:space="preserve" xmlns:xml="http://www.w3.org/XML/1998/namespace" x="19.647499" style="font-size:1.5px;font-family:OCRA;fill:url(#Breadboard_font_color)" gorn="0.3.0.0.0.0.0.1.2">VOUT+</svg:text>
                                <svg:text xmlns:svg="http://www.w3.org/2000/svg" y="20.277201" id="text_pin_4" xml:space="preserve" xmlns:xml="http://www.w3.org/XML/1998/namespace" x="20.731501" style="font-size:1.5px;font-family:OCRA;fill:url(#Breadboard_font_color)" gorn="0.3.0.0.0.0.0.1.3">GND-</svg:text>
                            </svg:g>
                            <svg:g xmlns:svg="http://www.w3.org/2000/svg" id="layer1" gorn="0.3.0.0.0.0.0.2">
                                <g transform="translate(-2.8442707,-3.2940621)" >
                                    <g >
                                        <g >
                                            <svg:g xmlns:svg="http://www.w3.org/2000/svg" id="g_AMS1777" gorn="0.3.0.0.0.0.0.2.0.0.0.0">
                                                <svg:path stroke="none" xmlns:svg="http://www.w3.org/2000/svg" id="path1152" d="m 13.903866,21.520661 h 3.280809 v 1.164158 h -3.280809 z" fill-opacity="1" stroke-width="0.26458332" style="fill-rule:evenodd;" fill="#d1d3d4" gorn="0.3.0.0.0.0.0.2.0.0.0.0.0"/>
                                                <svg:path stroke="none" xmlns:svg="http://www.w3.org/2000/svg" id="path1154" d="m 17.332841,15.297707 h 0.994826 v 1.142992 h -0.994826 z" fill-opacity="1" stroke-width="0.26458332" style="fill-rule:evenodd;" fill="#d1d3d4" gorn="0.3.0.0.0.0.0.2.0.0.0.0.1"/>
                                                <svg:path stroke="none" xmlns:svg="http://www.w3.org/2000/svg" id="path1156" d="m 12.760875,15.297707 h 0.994826 v 1.142992 h -0.994826 z" fill-opacity="1" stroke-width="0.26458332" style="fill-rule:evenodd;" fill="#d1d3d4" gorn="0.3.0.0.0.0.0.2.0.0.0.0.2"/>
                                                <svg:path stroke="none" xmlns:svg="http://www.w3.org/2000/svg" id="path1158" d="m 15.046858,15.297707 h 0.994826 v 1.142992 h -0.994826 z" fill-opacity="1" stroke-width="0.26458332" style="fill-rule:evenodd;" fill="#d1d3d4" gorn="0.3.0.0.0.0.0.2.0.0.0.0.3"/>
                                                <svg:path stroke="none" xmlns:svg="http://www.w3.org/2000/svg" id="path1160" d="m 18.200668,17.245026 h -0.698495 v -1.75682 h 0.698495 z" fill-opacity="1" stroke-width="0.26458332" style="fill-rule:nonzero;" fill="#999999" gorn="0.3.0.0.0.0.0.2.0.0.0.0.4"/>
                                                <svg:path stroke="none" xmlns:svg="http://www.w3.org/2000/svg" id="path1162" d="m 15.893518,17.245026 h -0.698495 v -1.75682 h 0.698495 z" fill-opacity="1" stroke-width="0.26458332" style="fill-rule:nonzero;" fill="#999999" gorn="0.3.0.0.0.0.0.2.0.0.0.0.5"/>
                                                <svg:path stroke="none" xmlns:svg="http://www.w3.org/2000/svg" id="path1164" d="m 13.586369,17.245026 h -0.698495 v -1.75682 h 0.698495 z" fill-opacity="1" stroke-width="0.26458332" style="fill-rule:nonzero;" fill="#999999" gorn="0.3.0.0.0.0.0.2.0.0.0.0.6"/>
                                                <svg:path stroke="none" xmlns:svg="http://www.w3.org/2000/svg" id="path1166" d="M 17.03651,22.49432 H 14.052032 V 20.7375 h 2.984478 z" fill-opacity="1" stroke-width="0.26458332" style="fill-rule:nonzero;" fill="#999999" gorn="0.3.0.0.0.0.0.2.0.0.0.0.7"/>
                                                <svg:path stroke="none" xmlns:svg="http://www.w3.org/2000/svg" id="path1168" d="M 18.79333,20.7375 H 12.295211 V 17.245026 H 18.79333 Z" fill-opacity="1" stroke-width="0.26458332" style="fill-rule:nonzero;" fill="#231f20" gorn="0.3.0.0.0.0.0.2.0.0.0.0.8"/>
                                                <svg:path stroke="none" xmlns:svg="http://www.w3.org/2000/svg" id="path1170" d="M 18.79333,20.7375 H 12.295211 V 17.245026 H 18.79333 Z" fill-opacity="1" stroke-width="0.26458332" style="fill-rule:nonzero;" fill="#333333" gorn="0.3.0.0.0.0.0.2.0.0.0.0.9"/>
                                                <svg:path stroke="none" xmlns:svg="http://www.w3.org/2000/svg" id="path1172" d="m 18.79333,20.7375 h -6.498119 v -3.492474 l 6.349953,3.344309 z" fill-opacity="1" stroke-width="0.26458332" style="fill-rule:nonzero;" fill="#666666" gorn="0.3.0.0.0.0.0.2.0.0.0.0.10"/>
                                                <svg:path stroke="none" xmlns:svg="http://www.w3.org/2000/svg" id="path1174" d="M 12.443377,20.589335 12.295211,20.7375 v -3.492474 h 6.498119 l -0.148166,0.148165 z" fill-opacity="1" stroke-width="0.26458332" style="fill-rule:nonzero;" fill="#000000" gorn="0.3.0.0.0.0.0.2.0.0.0.0.11"/>
                                                <svg:path stroke="none" xmlns:svg="http://www.w3.org/2000/svg" id="path1176" d="m 18.645164,20.589335 h -6.201787 v -3.196144 h 6.201787 z" fill-opacity="1" stroke-width="0.26458332" style="fill-rule:nonzero;" fill="#231f20" gorn="0.3.0.0.0.0.0.2.0.0.0.0.12"/>
                                                <svg:path stroke="none" xmlns:svg="http://www.w3.org/2000/svg" id="path1178" d="m 18.200668,16.610031 h -0.698495 v -0.48683 h 0.698495 z" fill-opacity="1" stroke-width="0.26458332" style="fill-rule:nonzero;" fill="#7c7c7c" gorn="0.3.0.0.0.0.0.2.0.0.0.0.13"/>
                                                <svg:path stroke="none" xmlns:svg="http://www.w3.org/2000/svg" id="path1180" d="m 15.893518,16.610031 h -0.698495 v -0.48683 h 0.698495 z" fill-opacity="1" stroke-width="0.26458332" style="fill-rule:nonzero;" fill="#7c7c7c" gorn="0.3.0.0.0.0.0.2.0.0.0.0.14"/>
                                                <svg:path stroke="none" xmlns:svg="http://www.w3.org/2000/svg" id="path1182" d="m 13.586369,16.610031 h -0.698495 v -0.48683 h 0.698495 z" fill-opacity="1" stroke-width="0.26458332" style="fill-rule:nonzero;" fill="#7c7c7c" gorn="0.3.0.0.0.0.0.2.0.0.0.0.15"/>
                                                <svg:path stroke="none" xmlns:svg="http://www.w3.org/2000/svg" id="path1184" d="m 17.03651,21.859325 h -2.984478 v -0.48683 h 2.984478 z" fill-opacity="1" stroke-width="0.26458332" style="fill-rule:nonzero;" fill="#7c7c7c" gorn="0.3.0.0.0.0.0.2.0.0.0.0.16"/>
                                            </svg:g>
                                        </g>
                                    </g>
                                </g>
                                <g transform="translate(-2.1883332,-10.107084)" >
                                    <g >
                                        <g >
                                            <svg:g xmlns:svg="http://www.w3.org/2000/svg" id="g_C_01" gorn="0.3.0.0.0.0.0.2.1.0.0.0">
                                                <g transform="scale(1,-1)" >
                                                    <g >
                                                        <g >
                                                            <svg:rect stroke="none" xmlns:svg="http://www.w3.org/2000/svg" y="-26.954899" stroke-opacity="1" id="rect2082" fill-opacity="1" height="0.80000001" x="6.6348333" stroke-width="0.22355098" style="display:inline;opacity:1;vector-effect:none;fill-rule:evenodd;stroke-linecap:round;stroke-linejoin:bevel;stroke-miterlimit:4;stroke-dasharray:none;stroke-dashoffset:0;paint-order:normal;enable-background:new" width="1.5470001" fill="#d1d3d4" gorn="0.3.0.0.0.0.0.2.1.0.0.0.0.0.0.0"/>
                                                        </g>
                                                    </g>
                                                </g>
                                                <g transform="scale(1,-1)" >
                                                    <g >
                                                        <g >
                                                            <svg:rect stroke="none" xmlns:svg="http://www.w3.org/2000/svg" y="-25.444897" stroke-opacity="1" id="rect1945-4-7-4" fill-opacity="1" height="0.80000001" x="6.6348333" stroke-width="0.22355098" width="1.5470001" style="display:inline;opacity:1;vector-effect:none;fill-rule:evenodd;stroke-linecap:round;stroke-linejoin:bevel;stroke-miterlimit:4;stroke-dasharray:none;stroke-dashoffset:0;paint-order:normal;enable-background:new" fill="#d1d3d4" gorn="0.3.0.0.0.0.0.2.1.0.0.0.1.0.0.0"/>
                                                        </g>
                                                    </g>
                                                </g>
                                                <g transform="matrix(0,0.3527774,-0.35287066,0,9.4045566,23.804213)" >
                                                    <g >
                                                        <g >
                                                            <svg:g xmlns:svg="http://www.w3.org/2000/svg" id="g11-7" partID="854905600" style="display:inline;opacity:1;enable-background:new" gorn="0.3.0.0.0.0.0.2.1.0.0.0.2.0.0.0">
                                                                <svg:g xmlns:svg="http://www.w3.org/2000/svg" id="comp_C_1" gorn="0.3.0.0.0.0.0.2.1.0.0.0.2.0.0.0.0">
                                                                    <g transform="matrix(26.5941,0,0,21.6802,26.9369,78.0798)" >
                                                                        <g >
                                                                            <g >
                                                                                <svg:g xmlns:svg="http://www.w3.org/2000/svg" id="g6-3" gorn="0.3.0.0.0.0.0.2.1.0.0.0.2.0.0.0.0.0.0.0.0">
                                                                                    <svg:g xmlns:svg="http://www.w3.org/2000/svg" id="CAP_smd-4" gorn="0.3.0.0.0.0.0.2.1.0.0.0.2.0.0.0.0.0.0.0.0.0">
                                                                                        <svg:rect xmlns:svg="http://www.w3.org/2000/svg" y="-3.4219999" id="rect13688_4_-2" height="0.162" x="-0.88200003" width="0.164" style="fill:#af7e28" gorn="0.3.0.0.0.0.0.2.1.0.0.0.2.0.0.0.0.0.0.0.0.0.0"/>
                                                                                        <svg:path xmlns:svg="http://www.w3.org/2000/svg" id="path13690_4_-9" d="m -0.858,-3.422 h -0.034 c -0.008,0 -0.015,0.01 -0.015,0.022 v 0.119 c 0,0.012 0.007,0.022 0.015,0.022 h 0.034 c 0.003,-0.026 0.004,-0.053 0.004,-0.081 0.001,-0.029 0,-0.056 -0.004,-0.082 z" style="fill:#bbbbbb" gorn="0.3.0.0.0.0.0.2.1.0.0.0.2.0.0.0.0.0.0.0.0.0.1"/>
                                                                                        <svg:path xmlns:svg="http://www.w3.org/2000/svg" id="path13692_4_-4" d="M -0.693,-3.281 V -3.4 c 0,-0.012 -0.007,-0.022 -0.015,-0.022 h -0.034 c -0.003,0.026 -0.005,0.053 -0.005,0.082 0,0.029 0.002,0.055 0.004,0.081 h 0.034 c 0.008,-10e-4 0.016,-0.01 0.016,-0.022 z" style="fill:#bbbbbb" gorn="0.3.0.0.0.0.0.2.1.0.0.0.2.0.0.0.0.0.0.0.0.0.2"/>
                                                                                    </svg:g>
                                                                                </svg:g>
                                                                            </g>
                                                                        </g>
                                                                    </g>
                                                                    <svg:rect xmlns:svg="http://www.w3.org/2000/svg" y="4.79" id="connector1pin-0-6" height="1.758" x="1.715" width="1.775" style="fill:none" gorn="0.3.0.0.0.0.0.2.1.0.0.0.2.0.0.0.0.1"/>
                                                                    <svg:rect xmlns:svg="http://www.w3.org/2000/svg" y="4.7810001" id="connector0pin-19-7" height="1.774" x="7.849" width="1.775" style="fill:none" gorn="0.3.0.0.0.0.0.2.1.0.0.0.2.0.0.0.0.2"/>
                                                                </svg:g>
                                                            </svg:g>
                                                        </g>
                                                    </g>
                                                </g>
                                            </svg:g>
                                        </g>
                                    </g>
                                </g>
                                <g transform="translate(0.6317026,-10.107084)" >
                                    <g >
                                        <g >
                                            <svg:g xmlns:svg="http://www.w3.org/2000/svg" id="g_C_02" style="display:inline" gorn="0.3.0.0.0.0.0.2.2.0.0.0">
                                                <g transform="scale(1,-1)" >
                                                    <g >
                                                        <g >
                                                            <svg:rect stroke="none" xmlns:svg="http://www.w3.org/2000/svg" y="-26.954899" stroke-opacity="1" id="rect2082-8" fill-opacity="1" height="0.80000001" x="6.6348333" stroke-width="0.22355098" style="display:inline;opacity:1;vector-effect:none;fill-rule:evenodd;stroke-linecap:round;stroke-linejoin:bevel;stroke-miterlimit:4;stroke-dasharray:none;stroke-dashoffset:0;paint-order:normal;enable-background:new" width="1.5470001" fill="#d1d3d4" gorn="0.3.0.0.0.0.0.2.2.0.0.0.0.0.0.0"/>
                                                        </g>
                                                    </g>
                                                </g>
                                                <g transform="scale(1,-1)" >
                                                    <g >
                                                        <g >
                                                            <svg:rect stroke="none" xmlns:svg="http://www.w3.org/2000/svg" y="-25.444897" stroke-opacity="1" id="rect1945-4-7-4-8" fill-opacity="1" height="0.80000001" x="6.6348333" stroke-width="0.22355098" width="1.5470001" style="display:inline;opacity:1;vector-effect:none;fill-rule:evenodd;stroke-linecap:round;stroke-linejoin:bevel;stroke-miterlimit:4;stroke-dasharray:none;stroke-dashoffset:0;paint-order:normal;enable-background:new" fill="#d1d3d4" gorn="0.3.0.0.0.0.0.2.2.0.0.0.1.0.0.0"/>
                                                        </g>
                                                    </g>
                                                </g>
                                                <g transform="matrix(0,0.3527774,-0.35287066,0,9.4045566,23.804213)" >
                                                    <g >
                                                        <g >
                                                            <svg:g xmlns:svg="http://www.w3.org/2000/svg" id="g11-7-7" partID="854905600" style="display:inline;opacity:1;enable-background:new" gorn="0.3.0.0.0.0.0.2.2.0.0.0.2.0.0.0">
                                                                <svg:g xmlns:svg="http://www.w3.org/2000/svg" id="comp_C_1-9" gorn="0.3.0.0.0.0.0.2.2.0.0.0.2.0.0.0.0">
                                                                    <g transform="matrix(26.5941,0,0,21.6802,26.9369,78.0798)" >
                                                                        <g >
                                                                            <g >
                                                                                <svg:g xmlns:svg="http://www.w3.org/2000/svg" id="g6-3-3" gorn="0.3.0.0.0.0.0.2.2.0.0.0.2.0.0.0.0.0.0.0.0">
                                                                                    <svg:g xmlns:svg="http://www.w3.org/2000/svg" id="CAP_smd-4-7" gorn="0.3.0.0.0.0.0.2.2.0.0.0.2.0.0.0.0.0.0.0.0.0">
                                                                                        <svg:rect xmlns:svg="http://www.w3.org/2000/svg" y="-3.4219999" id="rect13688_4_-2-5" height="0.162" x="-0.88200003" width="0.164" style="fill:#af7e28" gorn="0.3.0.0.0.0.0.2.2.0.0.0.2.0.0.0.0.0.0.0.0.0.0"/>
                                                                                        <svg:path xmlns:svg="http://www.w3.org/2000/svg" id="path13690_4_-9-1" d="m -0.858,-3.422 h -0.034 c -0.008,0 -0.015,0.01 -0.015,0.022 v 0.119 c 0,0.012 0.007,0.022 0.015,0.022 h 0.034 c 0.003,-0.026 0.004,-0.053 0.004,-0.081 0.001,-0.029 0,-0.056 -0.004,-0.082 z" style="fill:#bbbbbb" gorn="0.3.0.0.0.0.0.2.2.0.0.0.2.0.0.0.0.0.0.0.0.0.1"/>
                                                                                        <svg:path xmlns:svg="http://www.w3.org/2000/svg" id="path13692_4_-4-6" d="M -0.693,-3.281 V -3.4 c 0,-0.012 -0.007,-0.022 -0.015,-0.022 h -0.034 c -0.003,0.026 -0.005,0.053 -0.005,0.082 0,0.029 0.002,0.055 0.004,0.081 h 0.034 c 0.008,-10e-4 0.016,-0.01 0.016,-0.022 z" style="fill:#bbbbbb" gorn="0.3.0.0.0.0.0.2.2.0.0.0.2.0.0.0.0.0.0.0.0.0.2"/>
                                                                                    </svg:g>
                                                                                </svg:g>
                                                                            </g>
                                                                        </g>
                                                                    </g>
                                                                    <svg:rect xmlns:svg="http://www.w3.org/2000/svg" y="4.79" id="connector1pin-0-6-9" height="1.758" x="1.715" width="1.775" style="fill:none" gorn="0.3.0.0.0.0.0.2.2.0.0.0.2.0.0.0.0.1"/>
                                                                    <svg:rect xmlns:svg="http://www.w3.org/2000/svg" y="4.7810001" id="connector0pin-19-7-6" height="1.774" x="7.849" width="1.775" style="fill:none" gorn="0.3.0.0.0.0.0.2.2.0.0.0.2.0.0.0.0.2"/>
                                                                </svg:g>
                                                            </svg:g>
                                                        </g>
                                                    </g>
                                                </g>
                                            </svg:g>
                                        </g>
                                    </g>
                                </g>
                                <g transform="translate(9.9507272,-10.107084)" >
                                    <g >
                                        <g >
                                            <svg:g xmlns:svg="http://www.w3.org/2000/svg" id="g_C_03" style="display:inline" gorn="0.3.0.0.0.0.0.2.3.0.0.0">
                                                <g transform="scale(1,-1)" >
                                                    <g >
                                                        <g >
                                                            <svg:rect stroke="none" xmlns:svg="http://www.w3.org/2000/svg" y="-26.954899" stroke-opacity="1" id="rect2082-8-2" fill-opacity="1" height="0.80000001" x="6.6348333" stroke-width="0.22355098" style="display:inline;opacity:1;vector-effect:none;fill-rule:evenodd;stroke-linecap:round;stroke-linejoin:bevel;stroke-miterlimit:4;stroke-dasharray:none;stroke-dashoffset:0;paint-order:normal;enable-background:new" width="1.5470001" fill="#d1d3d4" gorn="0.3.0.0.0.0.0.2.3.0.0.0.0.0.0.0"/>
                                                        </g>
                                                    </g>
                                                </g>
                                                <g transform="scale(1,-1)" >
                                                    <g >
                                                        <g >
                                                            <svg:rect stroke="none" xmlns:svg="http://www.w3.org/2000/svg" y="-25.444897" stroke-opacity="1" id="rect1945-4-7-4-8-8" fill-opacity="1" height="0.80000001" x="6.6348333" stroke-width="0.22355098" width="1.5470001" style="display:inline;opacity:1;vector-effect:none;fill-rule:evenodd;stroke-linecap:round;stroke-linejoin:bevel;stroke-miterlimit:4;stroke-dasharray:none;stroke-dashoffset:0;paint-order:normal;enable-background:new" fill="#d1d3d4" gorn="0.3.0.0.0.0.0.2.3.0.0.0.1.0.0.0"/>
                                                        </g>
                                                    </g>
                                                </g>
                                                <g transform="matrix(0,0.3527774,-0.35287066,0,9.4045566,23.804213)" >
                                                    <g >
                                                        <g >
                                                            <svg:g xmlns:svg="http://www.w3.org/2000/svg" id="g11-7-7-9" partID="854905600" style="display:inline;opacity:1;enable-background:new" gorn="0.3.0.0.0.0.0.2.3.0.0.0.2.0.0.0">
                                                                <svg:g xmlns:svg="http://www.w3.org/2000/svg" id="comp_C_1-9-8" gorn="0.3.0.0.0.0.0.2.3.0.0.0.2.0.0.0.0">
                                                                    <g transform="matrix(26.5941,0,0,21.6802,26.9369,78.0798)" >
                                                                        <g >
                                                                            <g >
                                                                                <svg:g xmlns:svg="http://www.w3.org/2000/svg" id="g6-3-3-8" gorn="0.3.0.0.0.0.0.2.3.0.0.0.2.0.0.0.0.0.0.0.0">
                                                                                    <svg:g xmlns:svg="http://www.w3.org/2000/svg" id="CAP_smd-4-7-4" gorn="0.3.0.0.0.0.0.2.3.0.0.0.2.0.0.0.0.0.0.0.0.0">
                                                                                        <svg:rect xmlns:svg="http://www.w3.org/2000/svg" y="-3.4219999" id="rect13688_4_-2-5-2" height="0.162" x="-0.88200003" width="0.164" style="fill:#af7e28" gorn="0.3.0.0.0.0.0.2.3.0.0.0.2.0.0.0.0.0.0.0.0.0.0"/>
                                                                                        <svg:path xmlns:svg="http://www.w3.org/2000/svg" id="path13690_4_-9-1-2" d="m -0.858,-3.422 h -0.034 c -0.008,0 -0.015,0.01 -0.015,0.022 v 0.119 c 0,0.012 0.007,0.022 0.015,0.022 h 0.034 c 0.003,-0.026 0.004,-0.053 0.004,-0.081 0.001,-0.029 0,-0.056 -0.004,-0.082 z" style="fill:#bbbbbb" gorn="0.3.0.0.0.0.0.2.3.0.0.0.2.0.0.0.0.0.0.0.0.0.1"/>
                                                                                        <svg:path xmlns:svg="http://www.w3.org/2000/svg" id="path13692_4_-4-6-6" d="M -0.693,-3.281 V -3.4 c 0,-0.012 -0.007,-0.022 -0.015,-0.022 h -0.034 c -0.003,0.026 -0.005,0.053 -0.005,0.082 0,0.029 0.002,0.055 0.004,0.081 h 0.034 c 0.008,-10e-4 0.016,-0.01 0.016,-0.022 z" style="fill:#bbbbbb" gorn="0.3.0.0.0.0.0.2.3.0.0.0.2.0.0.0.0.0.0.0.0.0.2"/>
                                                                                    </svg:g>
                                                                                </svg:g>
                                                                            </g>
                                                                        </g>
                                                                    </g>
                                                                    <svg:rect xmlns:svg="http://www.w3.org/2000/svg" y="4.79" id="connector1pin-0-6-9-0" height="1.758" x="1.715" width="1.775" style="fill:none" gorn="0.3.0.0.0.0.0.2.3.0.0.0.2.0.0.0.0.1"/>
                                                                    <svg:rect xmlns:svg="http://www.w3.org/2000/svg" y="4.7810001" id="connector0pin-19-7-6-1" height="1.774" x="7.849" width="1.775" style="fill:none" gorn="0.3.0.0.0.0.0.2.3.0.0.0.2.0.0.0.0.2"/>
                                                                </svg:g>
                                                            </svg:g>
                                                        </g>
                                                    </g>
                                                </g>
                                            </svg:g>
                                        </g>
                                    </g>
                                </g>
                                <g transform="translate(12.770727,-10.107084)" >
                                    <g >
                                        <g >
                                            <svg:g xmlns:svg="http://www.w3.org/2000/svg" id="g_C_04" style="display:inline" gorn="0.3.0.0.0.0.0.2.4.0.0.0">
                                                <g transform="scale(1,-1)" >
                                                    <g >
                                                        <g >
                                                            <svg:rect stroke="none" xmlns:svg="http://www.w3.org/2000/svg" y="-26.954899" stroke-opacity="1" id="rect2082-8-2-1" fill-opacity="1" height="0.80000001" x="6.6348333" stroke-width="0.22355098" style="display:inline;opacity:1;vector-effect:none;fill-rule:evenodd;stroke-linecap:round;stroke-linejoin:bevel;stroke-miterlimit:4;stroke-dasharray:none;stroke-dashoffset:0;paint-order:normal;enable-background:new" width="1.5470001" fill="#d1d3d4" gorn="0.3.0.0.0.0.0.2.4.0.0.0.0.0.0.0"/>
                                                        </g>
                                                    </g>
                                                </g>
                                                <g transform="scale(1,-1)" >
                                                    <g >
                                                        <g >
                                                            <svg:rect stroke="none" xmlns:svg="http://www.w3.org/2000/svg" y="-25.444897" stroke-opacity="1" id="rect1945-4-7-4-8-8-6" fill-opacity="1" height="0.80000001" x="6.6348333" stroke-width="0.22355098" width="1.5470001" style="display:inline;opacity:1;vector-effect:none;fill-rule:evenodd;stroke-linecap:round;stroke-linejoin:bevel;stroke-miterlimit:4;stroke-dasharray:none;stroke-dashoffset:0;paint-order:normal;enable-background:new" fill="#d1d3d4" gorn="0.3.0.0.0.0.0.2.4.0.0.0.1.0.0.0"/>
                                                        </g>
                                                    </g>
                                                </g>
                                                <g transform="matrix(0,0.3527774,-0.35287066,0,9.4045566,23.804213)" >
                                                    <g >
                                                        <g >
                                                            <svg:g xmlns:svg="http://www.w3.org/2000/svg" id="g11-7-7-9-9" partID="854905600" style="display:inline;opacity:1;enable-background:new" gorn="0.3.0.0.0.0.0.2.4.0.0.0.2.0.0.0">
                                                                <svg:g xmlns:svg="http://www.w3.org/2000/svg" id="comp_C_1-9-8-9" gorn="0.3.0.0.0.0.0.2.4.0.0.0.2.0.0.0.0">
                                                                    <g transform="matrix(26.5941,0,0,21.6802,26.9369,78.0798)" >
                                                                        <g >
                                                                            <g >
                                                                                <svg:g xmlns:svg="http://www.w3.org/2000/svg" id="g6-3-3-8-5" gorn="0.3.0.0.0.0.0.2.4.0.0.0.2.0.0.0.0.0.0.0.0">
                                                                                    <svg:g xmlns:svg="http://www.w3.org/2000/svg" id="CAP_smd-4-7-4-5" gorn="0.3.0.0.0.0.0.2.4.0.0.0.2.0.0.0.0.0.0.0.0.0">
                                                                                        <svg:rect xmlns:svg="http://www.w3.org/2000/svg" y="-3.4219999" id="rect13688_4_-2-5-2-8" height="0.162" x="-0.88200003" width="0.164" style="fill:#af7e28" gorn="0.3.0.0.0.0.0.2.4.0.0.0.2.0.0.0.0.0.0.0.0.0.0"/>
                                                                                        <svg:path xmlns:svg="http://www.w3.org/2000/svg" id="path13690_4_-9-1-2-5" d="m -0.858,-3.422 h -0.034 c -0.008,0 -0.015,0.01 -0.015,0.022 v 0.119 c 0,0.012 0.007,0.022 0.015,0.022 h 0.034 c 0.003,-0.026 0.004,-0.053 0.004,-0.081 0.001,-0.029 0,-0.056 -0.004,-0.082 z" style="fill:#bbbbbb" gorn="0.3.0.0.0.0.0.2.4.0.0.0.2.0.0.0.0.0.0.0.0.0.1"/>
                                                                                        <svg:path xmlns:svg="http://www.w3.org/2000/svg" id="path13692_4_-4-6-6-5" d="M -0.693,-3.281 V -3.4 c 0,-0.012 -0.007,-0.022 -0.015,-0.022 h -0.034 c -0.003,0.026 -0.005,0.053 -0.005,0.082 0,0.029 0.002,0.055 0.004,0.081 h 0.034 c 0.008,-10e-4 0.016,-0.01 0.016,-0.022 z" style="fill:#bbbbbb" gorn="0.3.0.0.0.0.0.2.4.0.0.0.2.0.0.0.0.0.0.0.0.0.2"/>
                                                                                    </svg:g>
                                                                                </svg:g>
                                                                            </g>
                                                                        </g>
                                                                    </g>
                                                                    <svg:rect xmlns:svg="http://www.w3.org/2000/svg" y="4.79" id="connector1pin-0-6-9-0-1" height="1.758" x="1.715" width="1.775" style="fill:none" gorn="0.3.0.0.0.0.0.2.4.0.0.0.2.0.0.0.0.1"/>
                                                                    <svg:rect xmlns:svg="http://www.w3.org/2000/svg" y="4.7810001" id="connector0pin-19-7-6-1-3" height="1.774" x="7.849" width="1.775" style="fill:none" gorn="0.3.0.0.0.0.0.2.4.0.0.0.2.0.0.0.0.2"/>
                                                                </svg:g>
                                                            </svg:g>
                                                        </g>
                                                    </g>
                                                </g>
                                            </svg:g>
                                        </g>
                                    </g>
                                </g>
                                <g transform="translate(-2.7244154,-2.1586745)" >
                                    <g >
                                        <g >
                                            <svg:g xmlns:svg="http://www.w3.org/2000/svg" id="g_LED_01" gorn="0.3.0.0.0.0.0.2.5.0.0.0">
                                                <svg:path stroke="none" xmlns:svg="http://www.w3.org/2000/svg" id="path1536" d="M 7.8516112,20.893295 V 22.43845 H 8.6559386 V 20.893295 Z" fill-opacity="1" stroke-width="0.26458332" style="fill-rule:evenodd;" fill="#d1d3d4" gorn="0.3.0.0.0.0.0.2.5.0.0.0.0"/>
                                                <svg:path stroke="none" xmlns:svg="http://www.w3.org/2000/svg" id="path1538" d="m 10.052928,20.893295 v 1.545155 h 0.804328 v -1.545155 z" fill-opacity="1" stroke-width="0.26458332" style="fill-rule:evenodd;" fill="#d1d3d4" gorn="0.3.0.0.0.0.0.2.5.0.0.0.1"/>
                                                <svg:path stroke="none" xmlns:svg="http://www.w3.org/2000/svg" id="path1540" d="M 10.370426,22.311451 H 8.3807739 v -0.08467 L 8.6559386,21.655289 8.3807739,21.126127 v -0.0635 0 -0.02117 h 1.9896521 v 0.08467 l -0.317498,0.529162 0.317498,0.571496 z" fill-opacity="1" stroke-width="0.26458332" style="fill-rule:nonzero;" fill="#cccccc" gorn="0.3.0.0.0.0.0.2.5.0.0.0.2"/>
                                                <svg:path stroke="none" xmlns:svg="http://www.w3.org/2000/svg" id="path1542" d="m 8.6559386,22.205619 -0.021166,-0.02117 v 0 c 0,0 0,0.02117 0,0.02117 0,0 -0.021166,0 -0.021166,0 0,0 0,0 -0.021166,0 0,0.02117 0,0.02117 0,0.02117 -0.021166,0 -0.021166,-0.02117 -0.021166,-0.02117 -0.021167,0 -0.021167,0 -0.021167,0 -0.021166,0 -0.021166,-0.02117 -0.021166,-0.02117 0,0 0,-0.02117 0,-0.02117 0,-0.02117 0,-0.04233 0.021166,-0.04233 0.021167,-0.02117 0.021167,-0.02117 0.0635,-0.02117 h 0.021166 v -0.02117 c 0,0 0,0 0,0 0,-0.02117 0,-0.02117 0,-0.02117 0,0 -0.021166,0 -0.021166,0 0,0 0,0 0,0 -0.021166,0 -0.021166,0 -0.042333,0 0,0 -0.021167,0 -0.021167,0 v -0.02117 c 0,0 0,0 0.021167,0 0,-0.02117 0.021166,-0.02117 0.042333,-0.02117 0,0 0.021166,0 0.021166,0 0,0.02117 0.021166,0.02117 0.021166,0.02117 0,0 0,0.02117 0.021166,0.02117 0,0 0,0.02117 0,0.02117 v 0.127 z m -0.0635,-0.02117 c 0,0 0.021166,0 0.021166,0 0,0 0,0 0.021166,0 0,-0.02117 0,-0.02117 0,-0.02117 0,0 0,-0.02117 0,-0.02117 v -0.02117 h -0.021166 c 0,0 -0.021166,0 -0.021166,0 0,0 -0.021166,0 -0.021166,0.02117 0,0 0,0 0,0 0,0 0,0.02117 0,0.02117 0,0 0,0.02117 0,0.02117 0,0 0.021166,0 0.021166,0 z" fill-opacity="1" stroke-width="0.26458332" style="fill-rule:nonzero;" fill="#cccccc" gorn="0.3.0.0.0.0.0.2.5.0.0.0.3"/>
                                                <svg:path stroke="none" xmlns:svg="http://www.w3.org/2000/svg" id="path1544" d="m 8.8041041,22.01512 h 0.021166 c 0,0 0,0 0,0 v 0.04233 c 0,0 0,0 0,0 0,0 -0.021166,0 -0.021166,0 0,0 0,0 -0.021166,0 0,0 0,0 0,0 -0.021166,0.02117 -0.021166,0.02117 -0.021166,0.02117 0,0.02117 0,0.02117 0,0.04233 v 0.08467 h -0.042333 v -0.190499 h 0.042333 v 0.04233 0 c 0,0 0,0 0,-0.02117 0.021166,0 0.021166,0 0.021166,0 0,0 0,0 0.021166,-0.02117 0,0 0,0 0,0 z" fill-opacity="1" stroke-width="0.26458332" style="fill-rule:nonzero;" fill="#cccccc" gorn="0.3.0.0.0.0.0.2.5.0.0.0.4"/>
                                                <svg:path stroke="none" xmlns:svg="http://www.w3.org/2000/svg" id="path1546" d="m 8.9946027,22.205619 v -0.105833 c 0,-0.02117 0,-0.04233 -0.021166,-0.04233 0,0 0,0 -0.021166,0 0,0 -0.021166,0 -0.021166,0 0,0 -0.021166,0 -0.021166,0 0,0.02117 0,0.02117 0,0.02117 0,0.02117 0,0.02117 0,0.04233 v 0.08467 h -0.042333 v -0.190499 h 0.021166 l 0.021166,0.04233 v 0 c 0,-0.02117 0,-0.02117 0,-0.02117 0,0 0,0 0.021166,0 0,0 0,-0.02117 0,-0.02117 0.021166,0 0.021166,0 0.021166,0 0.021166,0 0.042333,0.02117 0.042333,0.02117 0.021166,0.02117 0.021166,0.02117 0.021166,0.0635 v 0.105833 z" fill-opacity="1" stroke-width="0.26458332" style="fill-rule:nonzero;" fill="#cccccc" gorn="0.3.0.0.0.0.0.2.5.0.0.0.5"/>
                                                <svg:path stroke="none" xmlns:svg="http://www.w3.org/2000/svg" id="path1548" d="m 9.1851013,22.205619 v -0.02117 0 c -0.021166,0 -0.021166,0.02117 -0.021166,0.02117 0,0 0,0 -0.021166,0 0,0 0,0 0,0 -0.021166,0.02117 -0.021166,0.02117 -0.021166,0.02117 0,0 -0.021166,-0.02117 -0.021166,-0.02117 0,0 -0.021166,0 -0.021166,0 0,0 0,-0.02117 -0.021166,-0.02117 0,0 0,-0.02117 0,-0.02117 0,-0.02117 0.021166,-0.04233 0.021166,-0.04233 0.021166,-0.02117 0.042333,-0.02117 0.0635,-0.02117 h 0.042333 v -0.02117 c 0,0 0,0 -0.021166,0 0,-0.02117 0,-0.02117 0,-0.02117 0,0 0,0 0,0 -0.021166,0 -0.021166,0 -0.021166,0 -0.021166,0 -0.021166,0 -0.021166,0 -0.021166,0 -0.021166,0 -0.042333,0 v -0.02117 c 0,0 0.021166,0 0.021166,0 0.021166,-0.02117 0.021166,-0.02117 0.042333,-0.02117 0,0 0.021166,0 0.021166,0 0.021166,0.02117 0.021166,0.02117 0.021166,0.02117 0.021166,0 0.021166,0.02117 0.021166,0.02117 0,0 0,0.02117 0,0.02117 v 0.127 z m -0.063499,-0.02117 c 0.021166,0 0.021166,0 0.021166,0 0,0 0.021166,0 0.021166,0 0,-0.02117 0,-0.02117 0,-0.02117 0.021166,0 0.021166,-0.02117 0.021166,-0.02117 v -0.02117 h -0.042333 c 0,0 -0.021166,0 -0.021166,0 0,0 0,0 -0.021166,0.02117 0,0 0,0 0,0 0,0 0,0.02117 0,0.02117 0,0 0,0.02117 0,0.02117 0,0 0.021166,0 0.021167,0 z" fill-opacity="1" stroke-width="0.26458332" style="fill-rule:nonzero;" fill="#cccccc" gorn="0.3.0.0.0.0.0.2.5.0.0.0.6"/>
                                                <svg:path stroke="none" xmlns:svg="http://www.w3.org/2000/svg" id="path1550" d="m 9.3544334,22.01512 c 0,0 0.021166,0 0.021166,0.02117 0.021166,0 0.021166,0 0.021166,0 0.021166,0.02117 0.021166,0.02117 0.021166,0.04233 0,0 0,0.02117 0,0.04233 0,0.02117 0,0.02117 0,0.04233 0,0 0,0.02117 -0.021166,0.02117 0,0.02117 0,0.02117 -0.021166,0.02117 0,0 -0.021166,0.02117 -0.021166,0.02117 0,0 -0.021166,0 -0.021166,-0.02117 0,0 -0.021166,0 -0.021166,0 0,0 0,0 0,0 0,0 -0.021166,-0.02117 -0.021166,-0.02117 v 0 0.02117 h -0.021167 v -0.253997 h 0.021166 v 0.0635 0 c 0,0.02117 0,0.02117 0,0.02117 0,0 0,0 0,0.02117 v 0 c 0,-0.02117 0.021166,-0.02117 0.021166,-0.02117 0,0 0,0 0,0 0,0 0.021166,-0.02117 0.021166,-0.02117 0,0 0,0 0.021166,0 z m 0,0.04233 c -0.021166,0 -0.021166,0 -0.042333,0 0,0 0,0 0,0 0,0.02117 -0.021166,0.02117 -0.021166,0.02117 0,0.02117 0,0.02117 0,0.04233 0,0 0,0.02117 0,0.02117 0,0.02117 0.021166,0.02117 0.021166,0.02117 0,0.02117 0,0.02117 0,0.02117 0.021166,0 0.021166,0 0.042333,0 0,0 0.021166,0 0.021166,-0.02117 0.021166,0 0.021166,-0.02117 0.021166,-0.04233 0,-0.02117 0,-0.04233 -0.021166,-0.0635 0,0 -0.021166,0 -0.021166,0 z" fill-opacity="1" stroke-width="0.26458332" style="fill-rule:nonzero;" fill="#cccccc" gorn="0.3.0.0.0.0.0.2.5.0.0.0.7"/>
                                                <svg:path stroke="none" xmlns:svg="http://www.w3.org/2000/svg" id="path1552" d="m 9.460266,22.184452 c 0,0 0,0 0,0 0,0 0.021166,0 0.021166,0 0,-0.02117 0,-0.02117 0,-0.02117 0,0 0,0 0,0 0.021166,0 0.021166,0 0.021166,0 0,0 0,0.02117 0,0.02117 0,0 0,0 0,0 0,0 0,0 0,0 0,0.02117 0,0.02117 0,0.02117 0,0 0,0 0,0 0,0 0,0.02117 0,0.02117 0,0 0,0 -0.021166,0 0,0 0,0 0,0 0,0 0,-0.02117 0,-0.02117 0,0 -0.021166,0 -0.021166,0 0,0 0,0 0,-0.02117 z" fill-opacity="1" stroke-width="0.26458332" style="fill-rule:nonzero;" fill="#cccccc" gorn="0.3.0.0.0.0.0.2.5.0.0.0.8"/>
                                                <svg:path stroke="none" xmlns:svg="http://www.w3.org/2000/svg" id="path1554" d="m 9.6507645,22.01512 c 0.021166,0 0.021166,0 0.021166,0.02117 0.021166,0 0.021166,0 0.042333,0.02117 0,0 0,0 0,0.02117 0,0 0,0.02117 0,0.04233 0,0.02117 0,0.02117 0,0.04233 0,0 0,0.02117 0,0.02117 -0.021166,0.02117 -0.021166,0.02117 -0.042333,0.02117 0,0 0,0.02117 -0.021166,0.02117 0,0 -0.021166,0 -0.021166,-0.02117 0,0 0,0 -0.021166,0 0,0 0,0 0,0 0,0 0,-0.02117 0,-0.02117 h -0.021166 v 0.02117 h -0.021167 v -0.253997 h 0.042333 v 0.0635 c 0,0 0,0 -0.021166,0 v 0.02117 c 0,0 0,0 0,0.02117 h 0.021166 c 0,-0.02117 0,-0.02117 0,-0.02117 0,0 0,0 0,0 0.021166,0 0.021166,-0.02117 0.021166,-0.02117 0,0 0.021166,0 0.021167,0 z m 0,0.04233 c -0.021166,0 -0.021166,0 -0.021166,0 -0.021166,0 -0.021166,0 -0.021166,0 0,0.02117 0,0.02117 0,0.02117 0,0.02117 0,0.02117 0,0.04233 0,0 0,0.02117 0,0.02117 0,0.02117 0,0.02117 0,0.02117 0,0.02117 0,0.02117 0.021166,0.02117 0,0 0,0 0.021166,0 0,0 0.021166,0 0.021166,-0.02117 0.021166,0 0.021166,-0.02117 0.021166,-0.04233 0,-0.02117 0,-0.04233 -0.021166,-0.0635 0,0 0,0 -0.021166,0 z" fill-opacity="1" stroke-width="0.26458332" style="fill-rule:nonzero;" fill="#cccccc" gorn="0.3.0.0.0.0.0.2.5.0.0.0.9"/>
                                                <svg:path stroke="none" xmlns:svg="http://www.w3.org/2000/svg" id="path1556" d="m 9.7989301,22.205619 h -0.021166 v -0.253998 h 0.021166 z" fill-opacity="1" stroke-width="0.26458332" style="fill-rule:nonzero;" fill="#cccccc" gorn="0.3.0.0.0.0.0.2.5.0.0.0.10"/>
                                                <svg:path stroke="none" xmlns:svg="http://www.w3.org/2000/svg" id="path1558" d="m 9.9894287,22.205619 v -0.02117 0 c -0.021166,0 -0.021166,0.02117 -0.021166,0.02117 0,0 0,0 0,0 -0.021166,0 -0.021166,0 -0.021166,0 0,0.02117 -0.021166,0.02117 -0.021166,0.02117 0,0 -0.021166,-0.02117 -0.021166,-0.02117 -0.021166,0 -0.021166,0 -0.021166,0 0,-0.02117 -0.021166,-0.02117 -0.021166,-0.02117 0,-0.02117 0,-0.02117 0,-0.04233 V 22.01512 h 0.042332 v 0.126999 c 0,0.02117 0,0.02117 0,0.04233 0,0 0.021166,0 0.021166,0 0.021166,0 0.021166,0 0.021166,0 0.021166,0 0.021166,0 0.021166,-0.02117 0,0 0,0 0,-0.02117 0.021166,0 0.021166,0 0.021166,-0.02117 v -0.105833 h 0.021166 v 0.190499 z" fill-opacity="1" stroke-width="0.26458332" style="fill-rule:nonzero;" fill="#cccccc" gorn="0.3.0.0.0.0.0.2.5.0.0.0.11"/>
                                                <svg:path stroke="none" xmlns:svg="http://www.w3.org/2000/svg" id="path1560" d="m 10.137594,22.226785 c 0,0 -0.02117,-0.02117 -0.02117,-0.02117 -0.02117,0 -0.02117,0 -0.02117,-0.02117 -0.02117,0 -0.02117,-0.02117 -0.02117,-0.02117 0,-0.02117 -0.02117,-0.02117 -0.02117,-0.04233 0,-0.02117 0.02117,-0.02117 0.02117,-0.04233 0,-0.02117 0,-0.02117 0,-0.02117 0.02117,-0.02117 0.02117,-0.02117 0.04233,-0.02117 0,-0.02117 0.02117,-0.02117 0.02117,-0.02117 0.02117,0 0.02117,0 0.04233,0.02117 0,0 0,0 0.02117,0 0,0.02117 0,0.02117 0,0.04233 0.02117,0 0.02117,0.02117 0.02117,0.02117 v 0.02117 h -0.126999 c 0,0.02117 0,0.04233 0.02117,0.04233 0,0.02117 0.02117,0.02117 0.02117,0.02117 0.02117,0 0.02117,0 0.02117,0 0,0 0.02117,0 0.02117,0 0,0 0,0 0.02117,0 0,0 0,0 0,0 v 0.02117 c 0,0 0,0 0,0 -0.02117,0 -0.02117,0 -0.02117,0 0,0 -0.02117,0 -0.02117,0.02117 0,0 0,0 -0.02116,0 z m 0,-0.169332 c -0.02117,0 -0.02117,0 -0.02117,0 -0.02117,0.02117 -0.02117,0.02117 -0.02117,0.04233 h 0.08467 c 0,0 0,-0.02117 0,-0.02117 0,0 0,-0.02117 0,-0.02117 -0.02117,0 -0.02117,0 -0.02117,0 0,0 -0.02117,0 -0.02117,0 z" fill-opacity="1" stroke-width="0.26458332" style="fill-rule:nonzero;" fill="#cccccc" gorn="0.3.0.0.0.0.0.2.5.0.0.0.12"/>
                                                <svg:path stroke="none" xmlns:svg="http://www.w3.org/2000/svg" id="path1562" d="M 10.349259,22.290285 H 8.3596074 V 21.951621 L 8.6559386,21.655289 8.3596074,21.358958 v -0.317497 0 0 h 1.9896516 v 0.42333 l -0.296331,0.190498 0.296331,0.190499 z" fill-opacity="1" stroke-width="0.26458332" style="fill-rule:nonzero;" fill="#ffffcc" gorn="0.3.0.0.0.0.0.2.5.0.0.0.13"/>
                                                <svg:path stroke="none" xmlns:svg="http://www.w3.org/2000/svg" id="path1564" d="m 9.7989301,21.718789 c 0,0.08467 -0.0635,0.148165 -0.1481656,0.148165 -0.084666,0 -0.1481655,-0.0635 -0.1481655,-0.148165 0,-0.08467 0.0635,-0.148166 0.1481655,-0.148166 0.084666,0 0.1481656,0.0635 0.1481656,0.148166 z" fill-opacity="1" stroke-width="0.26458332" style="fill-rule:nonzero;" fill="#c4b969" gorn="0.3.0.0.0.0.0.2.5.0.0.0.14"/>
                                                <svg:path stroke="#c4b969" xmlns:svg="http://www.w3.org/2000/svg" stroke-opacity="1" id="path1566" d="m 9.0369357,21.612956 v 0.253998 H 8.5712725" stroke-width="0.0477893" style="stroke-linecap:round;stroke-linejoin:round;stroke-miterlimit:4;stroke-dasharray:none;" fill="none" gorn="0.3.0.0.0.0.0.2.5.0.0.0.15"/>
                                                <svg:path stroke="#c4b969" xmlns:svg="http://www.w3.org/2000/svg" stroke-opacity="1" id="path1568" d="m 9.6507645,21.718789 v -0.42333" stroke-width="0.0477893" style="stroke-linecap:butt;stroke-linejoin:round;stroke-miterlimit:4;stroke-dasharray:none;" fill="none" gorn="0.3.0.0.0.0.0.2.5.0.0.0.16"/>
                                                <svg:path stroke="#c4b969" xmlns:svg="http://www.w3.org/2000/svg" stroke-opacity="1" id="path1570" d="M 9.6507645,21.295459 H 10.095261" stroke-width="0.0477893" style="stroke-linecap:round;stroke-linejoin:round;stroke-miterlimit:4;stroke-dasharray:none;" fill="none" gorn="0.3.0.0.0.0.0.2.5.0.0.0.17"/>
                                                <svg:path stroke="#c4b969" xmlns:svg="http://www.w3.org/2000/svg" stroke-opacity="1" id="path1572" d="m 8.8464371,21.443624 h 0.3598307 v 0.359831 H 8.8464371 Z" fill-opacity="1" stroke-width="0.0477893" style="fill-rule:nonzero;stroke-linecap:round;stroke-linejoin:round;stroke-miterlimit:4;stroke-dasharray:none;" fill="#c4b969" gorn="0.3.0.0.0.0.0.2.5.0.0.0.18"/>
                                                <svg:path stroke="none" xmlns:svg="http://www.w3.org/2000/svg" id="path1574" d="m 9.2062678,21.612956 c 0,0.105833 -0.084666,0.190499 -0.1693321,0.190499 -0.1058325,0 -0.1904986,-0.08467 -0.1904986,-0.190499 0,-0.08467 0.084666,-0.169332 0.1904986,-0.169332 0.084666,0 0.1693321,0.08467 0.1693321,0.169332 z" fill-opacity="1" stroke-width="0.26458332" style="fill-rule:nonzero;" fill="#cccccc" gorn="0.3.0.0.0.0.0.2.5.0.0.0.19"/>
                                                <svg:path stroke="none" xmlns:svg="http://www.w3.org/2000/svg" id="path1576" d="m 8.9311032,21.52829 h 0.1904986 v 0.190499 H 8.9311032 Z" fill-opacity="1" stroke-width="0.26458332" style="fill-rule:nonzero;" fill="#000000" gorn="0.3.0.0.0.0.0.2.5.0.0.0.20"/>
                                                <svg:path stroke="#ffcc00" xmlns:svg="http://www.w3.org/2000/svg" stroke-opacity="1" id="path1578" d="m 9.0369357,21.612956 c 0.0635,-0.04233 0.5291628,0 0.6138288,0.126999" stroke-width="0.0119473" style="stroke-linecap:round;stroke-linejoin:round;stroke-miterlimit:4;stroke-dasharray:none;" fill="none" gorn="0.3.0.0.0.0.0.2.5.0.0.0.21"/>
                                                <svg:path stroke="none" xmlns:svg="http://www.w3.org/2000/svg" id="path1580" d="m 8.8252706,21.126127 c -0.021166,0 -0.063499,0.04233 -0.063499,0.04233 0,0 -0.0635,0.444496 -0.0635,0.402163 v -0.42333 c 0,-0.0635 0.042333,-0.08467 0.084666,-0.08467 h 0.5079963 c 0.042333,0 -0.4656633,0.0635 -0.4656633,0.0635 z" fill-opacity="1" stroke-width="0.26458332" style="fill-rule:nonzero;" fill="#cccccc" gorn="0.3.0.0.0.0.0.2.5.0.0.0.22"/>
                                                <svg:path stroke="none" xmlns:svg="http://www.w3.org/2000/svg" id="path1582" d="m 9.9047627,22.163286 c 0.021166,0 0.042333,-0.04233 0.042333,-0.04233 0,0 0.084666,-0.444497 0.084666,-0.402164 v 0.42333 c 0,0.0635 -0.042333,0.08467 -0.1060128,0.08467 h -0.5079 c -0.042333,0 0.4868298,-0.0635 0.4868298,-0.0635 z" fill-opacity="1" stroke-width="0.26458332" style="fill-rule:nonzero;" fill="#cccccc" gorn="0.3.0.0.0.0.0.2.5.0.0.0.23"/>
                                                <svg:path stroke="none" xmlns:svg="http://www.w3.org/2000/svg" id="path1584" d="m 8.6559386,21.041461 h 1.3969894 v 1.248824 H 8.6559386 Z" fill-opacity="1" stroke-width="0.26458332" style="fill-rule:nonzero;" fill="#ffffff" gorn="0.3.0.0.0.0.0.2.5.0.0.0.24"/>
                                                <svg:path stroke="none" xmlns:svg="http://www.w3.org/2000/svg" id="path1586" d="m 10.349259,21.845788 v -0.380997 c -0.105832,0 -0.190498,0.08467 -0.190498,0.190498 0,0.105833 0.08467,0.190499 0.190498,0.190499 z m 0,0.402164 h -0.296331 v -1.185325 h 0.296331 z" fill-opacity="1" stroke-width="0.26458332" style="fill-rule:nonzero;" fill="#c4b969" gorn="0.3.0.0.0.0.0.2.5.0.0.0.25"/>
                                                <svg:path stroke="none" xmlns:svg="http://www.w3.org/2000/svg" id="path1588" d="m 8.6559386,21.909287 c -0.084666,0.08467 -0.1904986,0.148166 -0.3174977,0.148166 v -0.804327 c 0.1269991,0 0.2328316,0.0635 0.3174977,0.148165 z M 8.3596074,21.464791 c 0.1058326,0 0.1904986,0.08467 0.1904986,0.190498 0,0.105833 -0.084666,0.190499 -0.1904986,0.190499 z" fill-opacity="1" stroke-width="0.26458332" style="fill-rule:evenodd;" fill="#c4b969" gorn="0.3.0.0.0.0.0.2.5.0.0.0.26"/>
                                                <svg:path stroke="none" xmlns:svg="http://www.w3.org/2000/svg" id="path1590" d="M 8.3596074,22.205619 H 8.6559386 V 21.951621 C 8.5712726,22.057453 8.46544,22.099786 8.3596074,22.099786 Z" fill-opacity="1" stroke-width="0.26458332" style="fill-rule:nonzero;" fill="#00cc33" gorn="0.3.0.0.0.0.0.2.5.0.0.0.27"/>
                                                <svg:path stroke="none" xmlns:svg="http://www.w3.org/2000/svg" id="path1592" d="M 8.6559386,21.10496 H 8.3596074 v 0.105833 c 0.1058326,0 0.2116651,0.04233 0.2963312,0.148165 z" fill-opacity="1" stroke-width="0.26458332" style="fill-rule:nonzero;" fill="#00cc33" gorn="0.3.0.0.0.0.0.2.5.0.0.0.28"/>
                                            </svg:g>
                                        </g>
                                    </g>
                                </g>
                                <g transform="translate(1.5569191,-5.8302895)" >
                                    <g >
                                        <g >
                                            <svg:g xmlns:svg="http://www.w3.org/2000/svg" id="g_R_01" gorn="0.3.0.0.0.0.0.2.6.0.0.0">
                                                <svg:path stroke="none" xmlns:svg="http://www.w3.org/2000/svg" id="path1681" d="m 15.942167,24.56491 v 1.545155 h 0.804327 V 24.56491 Z" fill-opacity="1" stroke-width="0.26458332" style="fill-rule:evenodd;" fill="#d1d3d4" gorn="0.3.0.0.0.0.0.2.6.0.0.0.0"/>
                                                <svg:path stroke="none" xmlns:svg="http://www.w3.org/2000/svg" id="path1683" d="m 17.677821,24.56491 v 1.545155 h 0.804327 V 24.56491 Z" fill-opacity="1" stroke-width="0.26458332" style="fill-rule:evenodd;" fill="#d1d3d4" gorn="0.3.0.0.0.0.0.2.6.0.0.0.1"/>
                                                <svg:path stroke="none" xmlns:svg="http://www.w3.org/2000/svg" id="path1685" d="m 16.196165,24.713076 h 2.010818 V 25.9619 h -2.010818 z" fill-opacity="1" stroke-width="0.26458332" style="fill-rule:nonzero;" fill="#222222" gorn="0.3.0.0.0.0.0.2.6.0.0.0.2"/>
                                                <svg:path stroke="none" xmlns:svg="http://www.w3.org/2000/svg" id="path1687" d="m 16.196165,24.713076 h 0.359831 V 25.9619 h -0.359831 z" fill-opacity="1" stroke-width="0.26458332" style="fill-rule:nonzero;" fill="#bbbbbb" gorn="0.3.0.0.0.0.0.2.6.0.0.0.3"/>
                                                <svg:path stroke="none" xmlns:svg="http://www.w3.org/2000/svg" id="path1689" d="m 17.847153,24.713076 h 0.35983 V 25.9619 h -0.35983 z" fill-opacity="1" stroke-width="0.26458332" style="fill-rule:nonzero;" fill="#bbbbbb" gorn="0.3.0.0.0.0.0.2.6.0.0.0.4"/>
                                                <svg:path stroke="none" xmlns:svg="http://www.w3.org/2000/svg" id="path1691" d="m 16.746494,25.517403 v -0.402164 h 0.148166 c 0.02117,0 0.04233,0 0.04233,0.02117 0,0 0.02117,0.02117 0.02117,0.04233 v 0.04233 c 0,0.02117 -0.02117,0.04233 -0.02117,0.0635 0,0.02117 -0.02117,0.02117 -0.04233,0.02117 h -0.02117 l 0.08467,0.211665 v 0 c 0,0.02117 0,0.02117 -0.02117,0.02117 0,0.02117 0,0.02117 0,0.02117 -0.02117,0 -0.02117,-0.02117 -0.02117,-0.02117 l -0.105832,-0.232836 h -0.04233 v 0.211665 c 0,0.02117 0,0.02117 0,0.02117 0,0.02117 0,0.02117 -0.02117,0.02117 0,0 0,0 -0.02117,-0.02117 0.02117,0 0.02117,0 0.02117,-0.02117 z m 0.04233,-0.253998 h 0.105833 c 0.02117,0 0.02117,0 0.02117,-0.02117 0,0 0.02117,0 0.02117,-0.02117 v -0.02117 c 0,-0.02117 0,-0.02117 -0.02117,-0.02117 0,-0.02117 0,-0.02117 -0.02117,-0.02117 h -0.105833 z" fill-opacity="1" stroke-width="0.26458332" style="fill-rule:nonzero;" fill="#ffffff" gorn="0.3.0.0.0.0.0.2.6.0.0.0.5"/>
                                                <svg:path stroke="none" xmlns:svg="http://www.w3.org/2000/svg" id="path1693" d="m 17.000492,25.496236 v -0.126999 c 0,-0.02117 0,-0.04233 0,-0.04233 0.02117,0 0.02117,-0.02117 0.02117,-0.02117 v -0.169332 c 0,0 0,0 0.02117,-0.02117 0,0 0,0 0.02117,0 h 0.08467 c 0,0 0,0 0.02117,0 0,0.02117 0,0.02117 0,0.02117 v 0.169332 c 0.02117,0 0.02117,0.02117 0.02117,0.02117 0.02117,0 0.02117,0.02117 0.02117,0.04233 v 0.126999 c 0,0.02117 0,0.04233 -0.02117,0.04233 0,0 0,0.02117 -0.02117,0.02117 h -0.126997 c -0.02117,0 -0.02117,-0.02117 -0.02117,-0.02117 -0.02117,-0.02117 -0.02117,-0.02117 -0.02117,-0.04233 z m 0.04233,-0.126999 v 0.126999 h 0.126999 v -0.126999 z m 0.04233,-0.211665 v 0.148166 h 0.04233 v -0.148166 z" fill-opacity="1" stroke-width="0.26458332" style="fill-rule:nonzero;" fill="#ffffff" gorn="0.3.0.0.0.0.0.2.6.0.0.0.6"/>
                                                <svg:path stroke="none" xmlns:svg="http://www.w3.org/2000/svg" id="path1695" d="m 17.25449,25.496236 v -0.338664 c 0,0 0,-0.02117 0,-0.02117 0.02117,-0.02117 0.02117,-0.02117 0.04233,-0.02117 h 0.127 c 0,0 0.02117,0 0.02117,0.02117 0.02117,0 0.02117,0.02117 0.02117,0.02117 v 0.338664 c 0,0.02117 0,0.04233 -0.02117,0.04233 0,0 -0.02117,0.02117 -0.02117,0.02117 h -0.127 c -0.02117,0 -0.02117,-0.02117 -0.04233,-0.02117 0,0 0,-0.02117 0,-0.04233 z m 0.169333,0 v -0.338664 h -0.127 v 0.338664 z" fill-opacity="1" stroke-width="0.26458332" style="fill-rule:nonzero;" fill="#ffffff" gorn="0.3.0.0.0.0.0.2.6.0.0.0.7"/>
                                                <svg:path stroke="none" xmlns:svg="http://www.w3.org/2000/svg" id="path1697" d="m 17.593155,25.496236 h 0.105832 v -0.126999 h -0.126999 v -0.253998 h 0.148166 c 0,0 0,0 0.02117,0 0,0.02117 0,0.02117 0,0.02117 0,0.02117 0,0.02117 0,0.02117 -0.02117,0.02117 -0.02117,0.02117 -0.02117,0.02117 h -0.126999 v 0.127 h 0.08467 c 0.02117,0 0.02117,0.02117 0.04233,0.02117 0,0 0,0.02117 0,0.04233 v 0.126999 c 0,0.02117 0,0.04233 0,0.04233 -0.02117,0 -0.02117,0.02117 -0.04233,0.02117 h -0.08467 c -0.02117,0 -0.02117,0 -0.04233,-0.02117 h -0.04233 c 0,-0.02117 0,-0.02117 0,-0.04233 0,0 0,0 0,-0.02117 0,0 0.02117,0 0.02117,0 0,0 0.02117,0 0.02117,0 l 0.04233,0.02117 c 0,0 0,0 0,0 z" fill-opacity="1" stroke-width="0.26458332" style="fill-rule:nonzero;" fill="#ffffff" gorn="0.3.0.0.0.0.0.2.6.0.0.0.8"/>
                                            </svg:g>
                                        </g>
                                    </g>
                                </g>
                            </svg:g>
                            <svg:g xmlns:svg="http://www.w3.org/2000/svg" id="g-layer-pin" style="display:inline" gorn="0.3.0.0.0.0.0.3">
                                <svg:circle stroke="url(#Breadboard_copper)" xmlns:svg="http://www.w3.org/2000/svg" cx="2.54" stroke-opacity="1" id="connector0pin" fill-opacity="0" r="0.73650008" cy="14.427202" stroke-width="0.50800002" style="display:inline;opacity:1;vector-effect:none;fill-rule:evenodd;stroke-linecap:round;stroke-linejoin:bevel;stroke-miterlimit:4;stroke-dasharray:none;stroke-dashoffset:0;paint-order:normal;enable-background:new" fill="none" gorn="0.3.0.0.0.0.0.3.0"/>
                                <svg:circle stroke="url(#Breadboard_copper)" xmlns:svg="http://www.w3.org/2000/svg" cx="2.5400002" stroke-opacity="1" id="connector1pin" fill-opacity="0" r="0.73650014" cy="16.967197" stroke-width="0.50800002" style="display:inline;opacity:1;vector-effect:none;fill-rule:evenodd;stroke-linecap:round;stroke-linejoin:bevel;stroke-miterlimit:4;stroke-dasharray:none;stroke-dashoffset:0;paint-order:normal;enable-background:new" fill="none" gorn="0.3.0.0.0.0.0.3.1"/>
                                <svg:circle stroke="url(#Breadboard_copper)" xmlns:svg="http://www.w3.org/2000/svg" cx="22.860001" stroke-opacity="1" id="connector2pin" fill-opacity="0" r="0.73650008" cy="14.427701" stroke-width="0.50800002" style="display:inline;opacity:1;vector-effect:none;fill-rule:evenodd;stroke-linecap:round;stroke-linejoin:bevel;stroke-miterlimit:4;stroke-dasharray:none;stroke-dashoffset:0;paint-order:normal;enable-background:new" fill="none" gorn="0.3.0.0.0.0.0.3.2"/>
                                <svg:circle stroke="url(#Breadboard_copper)" xmlns:svg="http://www.w3.org/2000/svg" cx="22.860001" stroke-opacity="1" id="connector3pin" fill-opacity="0" r="0.73650008" cy="16.967197" stroke-width="0.50800002" style="display:inline;opacity:1;vector-effect:none;fill-rule:evenodd;stroke-linecap:round;stroke-linejoin:bevel;stroke-miterlimit:4;stroke-dasharray:none;stroke-dashoffset:0;paint-order:normal;enable-background:new" fill="none" gorn="0.3.0.0.0.0.0.3.3"/>
                            </svg:g>
                        </svg:g>
                    </svg:g>
                </svg:g>
            </g>
        </g>
    </g>
</svg>
