<?xml version='1.0' encoding='UTF-8' standalone='no'?>
<svg
  xmlns:dc="http://purl.org/dc/elements/1.1/"
  xmlns:cc="http://creativecommons.org/ns#"
  xmlns:rdf="http://www.w3.org/1999/02/22-rdf-syntax-ns#"
  xmlns:svg="http://www.w3.org/2000/svg"
  xmlns="http://www.w3.org/2000/svg"
  id="svg45"
  width="0.52432364in"
  x="0in"
  y="0in"
  viewBox="0 0 524.3238 550.60512"
  height="0.55060494in"
  version="1.2">
  <metadata
    id="metadata51">
    <rdf:RDF>
      <cc:Work
        rdf:about="">
        <dc:format>image/svg+xml</dc:format>
        <dc:type
          rdf:resource="http://purl.org/dc/dcmitype/StillImage"
        />
        <dc:title/>
      </cc:Work>
    </rdf:RDF>
  </metadata>
  <defs
    id="defs49"
  />
  <desc
    id="desc2">
    <referenceFile>gy-max30102-module_1_pcb.svg</referenceFile>
  </desc>
  <g
    id="silkscreen">
    <rect
      stroke-width="10"
      stroke="#000000"
      fill="none"
      id="rect28"
      width="514.32379"
      height="540.6051"
      x="5"
      y="5"
    />
    <circle
      r="64"
      id="circle1"
      cx="87.18026"
      cy="95.259239"
      fill="#000000"
      stroke-width="0"
    />
    <circle
      r="64"
      id="circle138"
      cx="431.97528"
      cy="95.259239"
      fill="#000000"
      stroke-width="0"
    />
  </g>
  <g
    id="copper1">
    <g
      id="copper0">
      <circle
        stroke-width="20"
        stroke="#f7bd13"
        fill="none"
        r="29"
        id="connector0pin"
        cx="67.865891"
        cy="468.15973"
      />
      <circle
        stroke-width="20"
        stroke="#f7bd13"
        fill="none"
        r="29"
        id="connector1pin"
        cx="167.87027"
        cy="468.15973"
      />
      <circle
        stroke-width="20"
        stroke="#f7bd13"
        fill="none"
        r="29"
        id="connector2pin"
        cx="267.87463"
        cy="468.15973"
      />
      <circle
        stroke-width="20"
        stroke="#f7bd13"
        fill="none"
        r="29"
        id="connector3pin"
        cx="367.879"
        cy="468.15973"
      />
      <circle
        stroke-width="20"
        stroke="#f7bd13"
        fill="none"
        id="connector4pin"
        cx="467.81906"
        cy="468.20856"
        r="29"
      />
    </g>
  </g>
</svg>
