<?xml version='1.0' encoding='UTF-8' standalone='no'?>
<svg
  xmlns:dc="http://purl.org/dc/elements/1.1/"
  xmlns:cc="http://creativecommons.org/ns#"
  xmlns:rdf="http://www.w3.org/1999/02/22-rdf-syntax-ns#"
  xmlns:svg="http://www.w3.org/2000/svg"
  xmlns="http://www.w3.org/2000/svg"
  viewBox="0 0 809.9999999999999 510.0"
  x="0in"
  width="0.8099999999999999in"
  height="0.51in"
  version="1.2"
  y="0in"
  id="svg2">
  <metadata
    id="metadata41">
    <rdf:RDF>
      <cc:Work
        rdf:about="">
        <dc:format>image/svg+xml</dc:format>
        <dc:type
          rdf:resource="http://purl.org/dc/dcmitype/StillImage"
        />
        <dc:title/>
      </cc:Work>
    </rdf:RDF>
    <rdf:RDF>
      <cc:Work
        rdf:about="">
        <dc:title/>
      </cc:Work>
    </rdf:RDF>
    <rdf:RDF>
      <cc:Work
        rdf:about="">
        <dc:title/>
      </cc:Work>
    </rdf:RDF>
    <rdf:RDF>
      <cc:Work
        rdf:about="">
        <dc:title/>
      </cc:Work>
    </rdf:RDF>
  </metadata>
  <defs
    id="defs39"
  />
  <desc
    id="desc4">
    <referenceFile>Makerlab-Grove-GSR-sensor_1_schematic.svg</referenceFile>
  </desc>
  <g
    id="schematic">
    <rect
      fill="none"
      height="500.0"
      width="600.0"
      stroke-width="10"
      stroke="#000000"
      stroke-linejoin="round"
      stroke-linecap="round"
      id="symbol"
      x="105"
      y="5"
    />
    <text
      x="405.0"
      y="255.0"
      font-family="Droid Sans"
      font-size="60"
      fill="#000000"
      id="label"
      text-anchor="middle">GSR Sensor</text>
    <text
      x="75"
      y="85"
      text-anchor="end"
      font-family="Droid Sans"
      font-size="35"
      fill="#555555"
      id="pin0num">1</text>
    <text
      x="125"
      y="117"
      text-anchor="start"
      font-family="Droid Sans"
      font-size="49"
      fill="#555555"
      id="pin0label">SIG</text>
    <text
      x="75"
      y="185"
      text-anchor="end"
      font-family="Droid Sans"
      font-size="35"
      fill="#555555"
      id="pin1num">2</text>
    <text
      x="125"
      y="217"
      text-anchor="start"
      font-family="Droid Sans"
      font-size="49"
      fill="#555555"
      id="pin1label">NC</text>
    <text
      x="75"
      y="285"
      text-anchor="end"
      font-family="Droid Sans"
      font-size="35"
      fill="#555555"
      id="pin2num">3</text>
    <text
      x="125"
      y="317"
      text-anchor="start"
      font-family="Droid Sans"
      font-size="49"
      fill="#555555"
      id="pin2label">VCC</text>
    <text
      x="75"
      y="385"
      text-anchor="end"
      font-family="Droid Sans"
      font-size="35"
      fill="#555555"
      id="pin3num">4</text>
    <text
      x="125"
      y="417"
      text-anchor="start"
      font-family="Droid Sans"
      font-size="49"
      fill="#555555"
      id="pin3label">GND</text>
    <text
      x="735.0"
      y="285.0"
      text-anchor="start"
      font-family="Droid Sans"
      font-size="35"
      fill="#555555"
      id="pin4num">5</text>
    <text
      x="685.0"
      y="317.0"
      text-anchor="end"
      font-family="Droid Sans"
      font-size="49"
      fill="#555555"
      id="pin4label">S1</text>
    <text
      x="735.0"
      y="185.0"
      text-anchor="start"
      font-family="Droid Sans"
      font-size="35"
      fill="#555555"
      id="pin5num">6</text>
    <text
      x="685.0"
      y="217.0"
      text-anchor="end"
      font-family="Droid Sans"
      font-size="49"
      fill="#555555"
      id="pin5label">S2</text>
    <line
      fill="none"
      id="connector0pin"
      stroke="#555555"
      stroke-linecap="round"
      stroke-width="10"
      x1="105"
      x2="5"
      y1="105"
      y2="105"
    />
    <rect
      fill="none"
      id="connector0terminal"
      height="10"
      width="10"
      x="0"
      y="100"
      stroke="none"
      stroke-width="0"
    />
    <line
      fill="none"
      id="connector1pin"
      stroke="#555555"
      stroke-linecap="round"
      stroke-width="10"
      x1="105"
      x2="5"
      y1="205"
      y2="205"
    />
    <rect
      fill="none"
      id="connector1terminal"
      height="10"
      width="10"
      x="0"
      y="200"
      stroke="none"
      stroke-width="0"
    />
    <line
      fill="none"
      id="connector2pin"
      stroke="#555555"
      stroke-linecap="round"
      stroke-width="10"
      x1="105"
      x2="5"
      y1="305"
      y2="305"
    />
    <rect
      fill="none"
      id="connector2terminal"
      height="10"
      width="10"
      x="0"
      y="300"
      stroke="none"
      stroke-width="0"
    />
    <line
      fill="none"
      id="connector3pin"
      stroke="#555555"
      stroke-linecap="round"
      stroke-width="10"
      x1="105"
      x2="5"
      y1="405"
      y2="405"
    />
    <rect
      fill="none"
      id="connector3terminal"
      height="10"
      width="10"
      x="0"
      y="400"
      stroke="none"
      stroke-width="0"
    />
    <line
      fill="none"
      id="connector4pin"
      stroke="#555555"
      stroke-linecap="round"
      stroke-width="10"
      x1="705.0"
      x2="805.0"
      y1="305.0"
      y2="305.0"
    />
    <rect
      fill="none"
      id="connector4terminal"
      height="10"
      width="10"
      x="800.0"
      y="300.0"
      stroke="none"
      stroke-width="0"
    />
    <line
      fill="none"
      id="connector5pin"
      stroke="#555555"
      stroke-linecap="round"
      stroke-width="10"
      x1="705.0"
      x2="805.0"
      y1="205.0"
      y2="205.0"
    />
    <rect
      fill="none"
      id="connector5terminal"
      height="10"
      width="10"
      x="800.0"
      y="200.0"
      stroke="none"
      stroke-width="0"
    />
  </g>
</svg>
