<?xml version='1.0' encoding='UTF-8' standalone='no'?>
<svg
  xmlns:dc="http://purl.org/dc/elements/1.1/"
  xmlns:cc="http://creativecommons.org/ns#"
  xmlns:rdf="http://www.w3.org/1999/02/22-rdf-syntax-ns#"
  xmlns:svg="http://www.w3.org/2000/svg"
  xmlns="http://www.w3.org/2000/svg"
  viewBox="0 0 410.14088 610.00007"
  x="0in"
  width="0.41014087in"
  height="0.61000007in"
  version="1.2"
  y="0in"
  id="svg2">
  <metadata
    id="metadata41">
    <rdf:RDF>
      <cc:Work
        rdf:about="">
        <dc:format>image/svg+xml</dc:format>
        <dc:type
          rdf:resource="http://purl.org/dc/dcmitype/StillImage"
        />
        <dc:title/>
      </cc:Work>
    </rdf:RDF>
  </metadata>
  <defs
    id="defs39"
  />
  <desc
    id="desc4">
    <referenceFile>USB-mini-b-tht_1_schematic.svg</referenceFile>
  </desc>
  <g
    id="schematic">
    <rect
      x="105.14088"
      width="300"
      height="600.00006"
      y="5"
      id="rect7"
      fill="none"
      stroke="#000000"
      stroke-width="10"
      stroke-linecap="round"
    />
    <text
      id="text38"
      font-size="49"
      y="522.00006"
      x="126"
      font-family="'Droid Sans'"
      text-anchor="start"
      fill="#555555">GND</text>
    <text
      x="126"
      y="422.00009"
      font-size="49"
      id="text36"
      font-family="'Droid Sans'"
      text-anchor="start"
      fill="#555555">ID</text>
    <text
      id="text34"
      font-size="49"
      y="322.00009"
      x="126"
      font-family="'Droid Sans'"
      text-anchor="start"
      fill="#555555">D+</text>
    <text
      x="126"
      y="222.00008"
      font-size="49"
      id="text32"
      font-family="'Droid Sans'"
      text-anchor="start"
      fill="#555555">D-</text>
    <text
      id="text28"
      font-size="49"
      y="122.50008"
      x="126"
      font-family="'Droid Sans'"
      text-anchor="start"
      fill="#555555">V+</text>
    <text
      font-size="49"
      y="271.46667"
      x="288.98541"
      id="label"
      font-family="'Droid Sans'"
      text-anchor="middle"
      fill="#000000"
      stroke-width="0.99999994">USB</text>
    <text
      x="62.583008"
      y="84.999962"
      font-size="35"
      id="text15"
      font-family="'Droid Sans'"
      text-anchor="start"
      fill="#555555">1</text>
    <text
      x="57.755081"
      y="184.97667"
      font-size="35"
      id="text22"
      font-family="'Droid Sans'"
      text-anchor="start"
      fill="#555555">2</text>
    <text
      id="text44"
      font-size="35"
      y="285.49994"
      x="62.583008"
      font-family="'Droid Sans'"
      text-anchor="start"
      fill="#555555">3</text>
    <text
      id="text48"
      font-size="35"
      y="385.47665"
      x="57.755081"
      font-family="'Droid Sans'"
      text-anchor="start"
      fill="#555555">4</text>
    <text
      x="57.755081"
      y="485.47662"
      font-size="35"
      id="text60"
      font-family="'Droid Sans'"
      text-anchor="start"
      fill="#555555">5</text>
    <text
      id="text66"
      x="288.98541"
      y="372.50339"
      font-size="49"
      font-family="'Droid Sans'"
      text-anchor="middle"
      fill="#000000"
      stroke-width="0.99999994">Con</text>
    <text
      id="text68"
      x="288.98541"
      y="322.50519"
      font-size="49"
      font-family="'Droid Sans'"
      text-anchor="middle"
      fill="#000000"
      stroke-width="0.99999994">MiniB</text>
    <line
      y1="105.13839"
      y2="105.13839"
      x2="100.26112"
      x1="5.0712123"
      id="connector0pin"
      fill="none"
      stroke="#555555"
      stroke-width="10"
      stroke-linecap="round"
    />
    <rect
      id="connector0terminal"
      x="0.14087877"
      width="10"
      height="10"
      y="100.27778"
      fill="none"
      stroke-width="0"
    />
    <line
      y1="205.13841"
      y2="205.13841"
      x2="100.26112"
      x1="5.0712128"
      id="connector1pin"
      fill="none"
      stroke="#555555"
      stroke-width="10"
      stroke-linecap="round"
    />
    <rect
      id="connector1terminal"
      x="0.14087877"
      width="10"
      height="10"
      y="199.99998"
      fill="none"
      stroke-width="0"
    />
    <line
      id="connector2pin"
      x1="5.0712123"
      x2="100.26112"
      y2="305.63837"
      y1="305.63837"
      fill="none"
      stroke="#555555"
      stroke-width="10"
      stroke-linecap="round"
    />
    <rect
      y="300.77777"
      height="10"
      width="10"
      x="0.14087877"
      id="connector2terminal"
      fill="none"
      stroke-width="0"
    />
    <line
      id="connector3pin"
      x1="5.0712128"
      x2="100.26112"
      y2="405.6384"
      y1="405.6384"
      fill="none"
      stroke="#555555"
      stroke-width="10"
      stroke-linecap="round"
    />
    <rect
      y="400.49997"
      height="10"
      width="10"
      x="0.14087877"
      id="connector3terminal"
      fill="none"
      stroke-width="0"
    />
    <line
      y1="505.63837"
      y2="505.63837"
      x2="100.26112"
      x1="5.0712128"
      id="connector4pin"
      fill="none"
      stroke="#555555"
      stroke-width="10"
      stroke-linecap="round"
    />
    <rect
      id="connector4terminal"
      x="0.14087877"
      width="10"
      height="10"
      y="500.49994"
      fill="none"
      stroke-width="0"
    />
  </g>
</svg>
