<?xml version='1.0' encoding='UTF-8' standalone='no'?>
<svg
  xmlns="http://www.w3.org/2000/svg"
  xmlns:svg="http://www.w3.org/2000/svg"
  xmlns:rdf="http://www.w3.org/1999/02/22-rdf-syntax-ns#"
  xmlns:cc="http://creativecommons.org/ns#"
  xmlns:dc="http://purl.org/dc/elements/1.1/"
  shape-rendering="crispEdges"
  viewBox="0 0 1012.8348 124.25698"
  x="0in"
  width="1.0128348in"
  height="0.12425698in"
  version="1.2"
  y="0in"
  id="svg2">
  <metadata
    id="metadata27">
    <rdf:RDF>
      <cc:Work
        rdf:about="">
        <dc:format>image/svg+xml</dc:format>
        <dc:type
          rdf:resource="http://purl.org/dc/dcmitype/StillImage"
        />
      </cc:Work>
    </rdf:RDF>
  </metadata>
  <defs
    id="defs25"
  />
  <desc
    id="desc4">
    <referenceFile>119A-40A00-R04-pcb-con-bottom_1_pcb.svg</referenceFile>
  </desc>
  <g
    id="silkscreen">
    <line
      y1="0.499993"
      y2="123.519"
      x2="0.499993"
      x1="0.499993"
      id="line437"
      stroke-linejoin="round"
      stroke-linecap="round"
      stroke-width="0.999986"
      stroke="#000000"
      fill="none"
    />
    <line
      y1="0.499993"
      y2="123.519"
      x2="1012.3347"
      x1="1012.3347"
      id="line435"
      stroke-linejoin="round"
      stroke-linecap="round"
      stroke-width="0.999986"
      stroke="#000000"
      fill="none"
    />
    <line
      y1="123.75698"
      y2="123.75698"
      x2="1.5002981"
      x1="1012.3113"
      id="line293"
      stroke-linejoin="round"
      stroke-linecap="round"
      stroke-width="1"
      stroke="#000000"
      fill="none"
    />
    <line
      y1="0.499993"
      y2="123.519"
      x2="628.64972"
      x1="628.64972"
      id="line441"
      stroke-linejoin="round"
      stroke-linecap="round"
      stroke-width="0.999986"
      stroke="#000000"
      fill="none"
    />
    <line
      y1="0.499993"
      y2="123.519"
      x2="687.70483"
      x1="687.70483"
      id="line439"
      stroke-linejoin="round"
      stroke-linecap="round"
      stroke-width="0.999986"
      stroke="#000000"
      fill="none"
    />
  </g>
  <g
    id="copper1">
    <rect
      id="connector0pin"
      width="23.622047"
      height="90.551178"
      x="-982.88983"
      y="22.863274"
      fill="#f7bd13"
      stroke="none"
      stroke-width="0"
      transform="scale(-1,1)"
    />
    <rect
      id="connector1pin"
      width="23.622047"
      height="90.551178"
      x="-951.3938"
      y="22.863274"
      fill="#f7bd13"
      stroke="none"
      stroke-width="0"
      transform="scale(-1,1)"
    />
    <rect
      id="connector2pin"
      width="23.622047"
      height="90.551178"
      x="-919.89771"
      y="22.863274"
      fill="#f7bd13"
      stroke="none"
      stroke-width="0"
      transform="scale(-1,1)"
    />
    <rect
      id="connector3pin"
      width="23.622047"
      height="90.551178"
      x="-888.40167"
      y="22.863274"
      fill="#f7bd13"
      stroke="none"
      stroke-width="0"
      transform="scale(-1,1)"
    />
    <rect
      id="connector4pin"
      width="23.622047"
      height="90.551178"
      x="-856.90558"
      y="22.863274"
      fill="#f7bd13"
      stroke="none"
      stroke-width="0"
      transform="scale(-1,1)"
    />
    <rect
      id="connector5pin"
      width="23.622047"
      height="90.551178"
      x="-825.40955"
      y="22.863274"
      fill="#f7bd13"
      stroke="none"
      stroke-width="0"
      transform="scale(-1,1)"
    />
    <rect
      id="connector6pin"
      width="23.622047"
      height="90.551178"
      x="-793.91345"
      y="22.863274"
      fill="#f7bd13"
      stroke="none"
      stroke-width="0"
      transform="scale(-1,1)"
    />
    <rect
      id="connector7pin"
      width="23.622047"
      height="90.551178"
      x="-762.41742"
      y="22.863274"
      fill="#f7bd13"
      stroke="none"
      stroke-width="0"
      transform="scale(-1,1)"
    />
    <rect
      id="connector8pin"
      width="23.622047"
      height="90.551178"
      x="-604.93707"
      y="22.863274"
      fill="#f7bd13"
      stroke="none"
      stroke-width="0"
      transform="scale(-1,1)"
    />
    <rect
      id="connector9pin"
      width="23.622047"
      height="90.551178"
      x="-573.44104"
      y="22.863274"
      fill="#f7bd13"
      stroke="none"
      stroke-width="0"
      transform="scale(-1,1)"
    />
    <rect
      id="connector10pin"
      width="23.622047"
      height="90.551178"
      x="-541.94495"
      y="22.863274"
      fill="#f7bd13"
      stroke="none"
      stroke-width="0"
      transform="scale(-1,1)"
    />
    <rect
      id="connector11pin"
      width="23.622047"
      height="90.551178"
      x="-510.44888"
      y="22.863274"
      fill="#f7bd13"
      stroke="none"
      stroke-width="0"
      transform="scale(-1,1)"
    />
    <rect
      id="connector12pin"
      width="23.622047"
      height="90.551178"
      x="-478.95279"
      y="22.863274"
      fill="#f7bd13"
      stroke="none"
      stroke-width="0"
      transform="scale(-1,1)"
    />
    <rect
      id="connector13pin"
      width="23.622047"
      height="90.551178"
      x="-447.45676"
      y="22.863274"
      fill="#f7bd13"
      stroke="none"
      stroke-width="0"
      transform="scale(-1,1)"
    />
    <rect
      id="connector14pin"
      width="23.622047"
      height="90.551178"
      x="-415.96072"
      y="22.863274"
      fill="#f7bd13"
      stroke="none"
      stroke-width="0"
      transform="scale(-1,1)"
    />
    <rect
      id="connector15pin"
      width="23.622047"
      height="90.551178"
      x="-384.46463"
      y="22.863274"
      fill="#f7bd13"
      stroke="none"
      stroke-width="0"
      transform="scale(-1,1)"
    />
    <rect
      id="connector16pin"
      width="23.622047"
      height="90.551178"
      x="-352.9686"
      y="22.863274"
      fill="#f7bd13"
      stroke="none"
      stroke-width="0"
      transform="scale(-1,1)"
    />
    <rect
      id="connector17pin"
      width="23.622047"
      height="90.551178"
      x="-321.4725"
      y="22.863274"
      fill="#f7bd13"
      stroke="none"
      stroke-width="0"
      transform="scale(-1,1)"
    />
    <rect
      id="connector18pin"
      width="23.622047"
      height="90.551178"
      x="-289.97647"
      y="22.863274"
      fill="#f7bd13"
      stroke="none"
      stroke-width="0"
      transform="scale(-1,1)"
    />
    <rect
      id="connector19pin"
      width="23.622047"
      height="90.551178"
      x="-258.48038"
      y="22.863274"
      fill="#f7bd13"
      stroke="none"
      stroke-width="0"
      transform="scale(-1,1)"
    />
    <rect
      id="connector20pin"
      width="23.622047"
      height="90.551178"
      x="-226.98438"
      y="22.863274"
      fill="#f7bd13"
      stroke="none"
      stroke-width="0"
      transform="scale(-1,1)"
    />
    <rect
      id="connector21pin"
      width="23.622047"
      height="90.551178"
      x="-195.48828"
      y="22.863274"
      fill="#f7bd13"
      stroke="none"
      stroke-width="0"
      transform="scale(-1,1)"
    />
    <rect
      id="connector22pin"
      width="23.622047"
      height="90.551178"
      x="-163.99225"
      y="22.863274"
      fill="#f7bd13"
      stroke="none"
      stroke-width="0"
      transform="scale(-1,1)"
    />
    <rect
      id="connector23pin"
      width="23.622047"
      height="90.551178"
      x="-132.49615"
      y="22.863274"
      fill="#f7bd13"
      stroke="none"
      stroke-width="0"
      transform="scale(-1,1)"
    />
    <rect
      id="connector24pin"
      width="23.622047"
      height="90.551178"
      x="-101.00011"
      y="22.863274"
      fill="#f7bd13"
      stroke="none"
      stroke-width="0"
      transform="scale(-1,1)"
    />
    <rect
      id="connector25pin"
      width="23.622047"
      height="90.551178"
      x="-69.504082"
      y="22.863274"
      fill="#f7bd13"
      stroke="none"
      stroke-width="0"
      transform="scale(-1,1)"
    />
  </g>
</svg>
