<?xml version='1.0' encoding='UTF-8' standalone='no'?>
<svg
  xmlns:dc="http://purl.org/dc/elements/1.1/"
  xmlns:cc="http://creativecommons.org/ns#"
  xmlns:rdf="http://www.w3.org/1999/02/22-rdf-syntax-ns#"
  xmlns:svg="http://www.w3.org/2000/svg"
  xmlns="http://www.w3.org/2000/svg"
  viewBox="0 0 305.16798 610.00017"
  id="svg2"
  x="0px"
  width="0.30516788in"
  version="1.1"
  height="0.60999995in"
  y="0px"
  enable-background="new 0 0 28.8 43.2"
  xml:space="preserve"
  gorn="0">
  <metadata
    id="metadata34">
    <rdf:RDF>
      <cc:Work
        rdf:about="">
        <dc:format>image/svg+xml</dc:format>
        <dc:type
          rdf:resource="http://purl.org/dc/dcmitype/StillImage"
        />
        <dc:title/>
      </cc:Work>
    </rdf:RDF>
  </metadata>
  <defs
    id="defs32">
  </defs>
  <desc
    id="desc2">
    <referenceFile>pot-arduino-starter-kit_f9434a7da3fe64482007fdc064c0b43b_1_schematic.svg</referenceFile>
  </desc>
  <g
    id="schematic">
    <polyline
      transform="matrix(13.888927,0,0,13.888762,0.30555639,9.9361409)"
      points="4.125,17.557 21.6,27.474 21.6,37.743 "
      id="polyline4"
      fill="none"
      stroke="#000000"
      stroke-width="0.69999999"
      stroke-linecap="round"
    />
    <polygon
      transform="matrix(13.888927,0,0,13.888762,0.30555639,9.9361409)"
      points="5.819,16.8 4.23,19.505 -0.022,15.188 "
      id="polygon6"
    />
    <polyline
      transform="matrix(13.888927,0,0,13.888762,0.30555639,9.9361409)"
      points="14.401,36 14.401,34.559 11.521,32.4 18.001,28.799 11.521,25.2 18.001,21.6 11.521,18 18.001,14.4 11.521,10.8 14.401,8.64 14.401,7.2 "
      id="polyline8"
      fill="none"
      stroke="#000000"
      stroke-width="0.69999999"
      stroke-linecap="round"
    />
    <text
      transform="scale(1.0000059,0.9999941)"
      y="565.49628"
      x="160.31892"
      id="text14"
      font-size="27.77769089"
      font-family="DroidSans"
      fill="#787878"
      stroke-width="13.88884544">1</text>
    <text
      transform="scale(1.0000059,0.9999941)"
      y="565.49628"
      x="265.92279"
      id="text18"
      font-size="27.77769089"
      font-family="DroidSans"
      fill="#787878"
      stroke-width="13.88884544">3</text>
    <text
      transform="scale(1.0000059,0.9999941)"
      y="79.034645"
      x="160.31892"
      id="text24"
      font-size="27.77769089"
      font-family="DroidSans"
      fill="#787878"
      stroke-width="13.88884544">2</text>
    <line
      id="connector0pin"
      x2="200.30609"
      y1="605.06982"
      x1="200.30609"
      y2="509.93231"
      gorn="0.0.5"
      fill="none"
      stroke="#787878"
      stroke-width="9.72219086"
      stroke-linecap="round"
    />
    <rect
      id="connector0terminal"
      width="10.000004"
      height="10.000004"
      x="195.00008"
      y="600.00018"
      fill="none"
      stroke="none"
      stroke-width="0"
    />
    <line
      id="connector1pin"
      x2="299.86166"
      y1="605.06982"
      x1="299.86166"
      y2="509.93231"
      gorn="0.0.4"
      fill="none"
      stroke="#787878"
      stroke-width="9.72219086"
      stroke-linecap="round"
    />
    <rect
      y="600.00018"
      x="295.00012"
      height="10.000004"
      width="10.000004"
      id="connector1terminal"
      fill="none"
      stroke="none"
      stroke-width="0"
    />
    <line
      id="connector2pin"
      x2="200.30609"
      y1="5.0711985"
      x1="200.30609"
      y2="105.07094"
      gorn="0.0.9"
      fill="none"
      stroke="#787878"
      stroke-width="9.72219086"
      stroke-linecap="round"
    />
    <rect
      id="connector2terminal"
      width="10.000004"
      height="10.000004"
      x="195.00008"
      y="2.1684043e-19"
      fill="none"
      stroke="none"
      stroke-width="0"
    />
  </g>
</svg>
