<?xml version='1.0' encoding='UTF-8' standalone='no'?>
<svg
  xmlns:dc="http://purl.org/dc/elements/1.1/"
  xmlns:cc="http://creativecommons.org/ns#"
  xmlns:rdf="http://www.w3.org/1999/02/22-rdf-syntax-ns#"
  xmlns:svg="http://www.w3.org/2000/svg"
  xmlns="http://www.w3.org/2000/svg"
  enable-background="new 0 0 55.25 61.5"
  width="0.55000001in"
  height="0.79370081in"
  id="Layer_1"
  y="0px"
  viewBox="0 0 550.0002 793.70107"
  gorn="0"
  version="1.1"
  xml:space="preserve"
  x="0px">
  <metadata
    id="metadata27">
    <rdf:RDF>
      <cc:Work
        rdf:about="">
        <dc:format>image/svg+xml</dc:format>
        <dc:type
          rdf:resource="http://purl.org/dc/dcmitype/StillImage"
        />
        <dc:title/>
      </cc:Work>
    </rdf:RDF>
  </metadata>
  <defs
    id="defs25">
        </defs>
  <desc
    id="desc2">
    <referenceFile>Atlas-PH-circuit_1_pcb.svg</referenceFile>
  </desc>
  <g
    id="silkscreen">
    <path
      d="M 550.00019,793.70107 H 0 V 0 H 550.00019 Z M 9.59636,781.67295 H 540.40384 V 12.015214 H 9.59636 Z"
      fill="#000000"
      id="path4"
      stroke-width="13.889"
    />
  </g>
  <g
    id="copper1">
    <g
      id="copper0">
      <rect
        width="60.638824"
        height="60.638824"
        stroke-width="17.3612"
        stroke="#fdbf16"
        y="717.30585"
        fill="none"
        x="345.68069"
        id="rect15"
      />
      <rect
        width="60.559093"
        height="60.559093"
        stroke-width="17.4409"
        stroke="#fdbf16"
        y="17.345453"
        fill="none"
        x="145.34549"
        id="rect10"
      />
      <circle
        cy="47.389164"
        r="29"
        cx="175.5569"
        id="connector0pin"
        stroke-width="20"
        stroke="#fdbf16"
        gorn="0.2.0.1"
        fill="none"
      />
      <circle
        cy="47.389164"
        r="29"
        cx="275.62509"
        id="connector1pin"
        stroke-width="20"
        stroke="#fdbf16"
        gorn="0.2.0.2"
        fill="none"
      />
      <circle
        cy="47.389164"
        r="29"
        cx="375.62512"
        id="connector2pin"
        stroke-width="20"
        stroke="#fdbf16"
        gorn="0.2.0.3"
        fill="none"
      />
      <circle
        cy="747.62524"
        r="29"
        cx="175.5569"
        id="connector3pin"
        stroke-width="20"
        stroke="#fdbf16"
        gorn="0.2.0.7"
        fill="none"
      />
      <circle
        cy="747.62524"
        r="29"
        cx="276.00186"
        id="connector4pin"
        stroke-width="20"
        stroke="#fdbf16"
        gorn="0.2.0.6"
        fill="none"
      />
      <circle
        cy="747.62524"
        r="29"
        cx="375.62512"
        id="connector5pin"
        stroke-width="20"
        stroke="#fdbf16"
        gorn="0.2.0.5"
        fill="none"
      />
    </g>
  </g>
</svg>
