<?xml version="1.0" encoding="utf-8"?>
<!-- Generator: Adobe Illustrator 16.0.0, SVG Export Plug-In . SVG Version: 6.00 Build 0)  -->
<!DOCTYPE svg PUBLIC "-//W3C//DTD SVG 1.1//EN" "http://www.w3.org/Graphics/SVG/1.1/DTD/svg11.dtd">
<svg version="1.1"
	 id="Layer_1" xmlns:dc="http://purl.org/dc/elements/1.1/" xmlns:cc="http://creativecommons.org/ns#" xmlns:rdf="http://www.w3.org/1999/02/22-rdf-syntax-ns#" xmlns:svg="http://www.w3.org/2000/svg"
	 xmlns="http://www.w3.org/2000/svg" xmlns:xlink="http://www.w3.org/1999/xlink" x="0px" y="0px" width="35.018px"
	 height="61.943px" viewBox="0 0 35.018 61.943" enable-background="new 0 0 35.018 61.943" xml:space="preserve">
<g id="copper0">
	<g id="copper1">
		<g id="connector0pin">
			<rect id="square" x="18.656" y="2.19" fill="none" stroke="#F7BD13" stroke-width="2" width="4.96" height="4.961"/>
			<circle fill="none" stroke="#F7BD13" stroke-width="2" cx="21.135" cy="4.67" r="2.479"/>
		</g>
		<circle id="connector1pin" fill="none" stroke="#F7BD13" stroke-width="2" cx="7.019" cy="11.757" r="2.48"/>
		<circle id="connector2pin" fill="none" stroke="#F7BD13" stroke-width="2" cx="21.134" cy="18.843" r="2.48"/>
		<circle id="connector3pin" fill="none" stroke="#F7BD13" stroke-width="2" cx="6.906" cy="25.928" r="2.48"/>
		<circle id="connector4pin" fill="none" stroke="#F7BD13" stroke-width="2" cx="21.134" cy="33.015" r="2.479"/>
		<circle id="connector5pin" fill="none" stroke="#F7BD13" stroke-width="2" cx="7.019" cy="40.101" r="2.479"/>
		<circle id="connector6pin" fill="none" stroke="#F7BD13" stroke-width="2" cx="21.134" cy="47.188" r="2.48"/>
		<circle id="connector7pin" fill="none" stroke="#F7BD13" stroke-width="2" cx="6.906" cy="54.274" r="2.48"/>
	</g>
</g>
<g id="silkscreen">
	<rect x="0.5" y="0.5" fill="none" stroke="#000000" stroke-miterlimit="10" width="34.018" height="60.943"/>
</g>
</svg>
