<?xml version="1.0" encoding="utf-8"?>
<!-- Generator: Adobe Illustrator 16.0.0, SVG Export Plug-In . SVG Version: 6.00 Build 0)  -->
<!DOCTYPE svg PUBLIC "-//W3C//DTD SVG 1.1//EN" "http://www.w3.org/Graphics/SVG/1.1/DTD/svg11.dtd">
<svg version="1.1"
	 id="svg5451" xmlns:dc="http://purl.org/dc/elements/1.1/" xmlns:cc="http://creativecommons.org/ns#" xmlns:rdf="http://www.w3.org/1999/02/22-rdf-syntax-ns#" xmlns:svg="http://www.w3.org/2000/svg"
	 xmlns="http://www.w3.org/2000/svg" xmlns:xlink="http://www.w3.org/1999/xlink" x="0px" y="0px" width="60.945px"
	 height="34.016px" viewBox="0 0 60.945 34.016" enable-background="new 0 0 60.945 34.016" xml:space="preserve">
<g id="breadboard" transform="translate(-105.71429,-79.658044)">
	<rect x="105.714" y="79.658" fill="#CCCCCC" width="60.945" height="34.016"/>
	<g>
		<path fill="#999999" d="M165.951,99.102c0,1.564-1.271,2.834-2.837,2.834l0,0c-1.563,0-2.834-1.27-2.834-2.834V84.929
			c0-1.563,1.271-2.834,2.834-2.834l0,0c1.564,0,2.837,1.271,2.837,2.834V99.102z"/>
		<path fill="#999999" d="M158.864,99.102c0,1.564-1.271,2.834-2.838,2.834l0,0c-1.563,0-2.834-1.27-2.834-2.834V84.929
			c0-1.563,1.271-2.834,2.834-2.834l0,0c1.566,0,2.838,1.271,2.838,2.834V99.102z"/>
		<path fill="#999999" d="M151.779,99.102c0,1.564-1.27,2.834-2.836,2.834l0,0c-1.563,0-2.834-1.27-2.834-2.834V84.929
			c0-1.563,1.271-2.834,2.834-2.834l0,0c1.566,0,2.836,1.271,2.836,2.834V99.102z"/>
		<path fill="#999999" d="M144.693,99.102c0,1.564-1.27,2.834-2.836,2.834l0,0c-1.563,0-2.834-1.27-2.834-2.834V84.929
			c0-1.563,1.271-2.834,2.834-2.834l0,0c1.566,0,2.836,1.271,2.836,2.834V99.102z"/>
		<path fill="#999999" d="M137.607,99.102c0,1.564-1.27,2.834-2.836,2.834l0,0c-1.563,0-2.834-1.27-2.834-2.834V84.929
			c0-1.563,1.271-2.834,2.834-2.834l0,0c1.566,0,2.836,1.271,2.836,2.834V99.102z"/>
		<path fill="#999999" d="M130.521,99.102c0,1.564-1.27,2.834-2.836,2.834l0,0c-1.563,0-2.834-1.27-2.834-2.834V84.929
			c0-1.563,1.271-2.834,2.834-2.834l0,0c1.566,0,2.836,1.271,2.836,2.834V99.102z"/>
		<path fill="#999999" d="M123.435,99.102c0,1.564-1.27,2.834-2.836,2.834l0,0c-1.563,0-2.834-1.27-2.834-2.834V84.929
			c0-1.563,1.271-2.834,2.834-2.834l0,0c1.566,0,2.836,1.271,2.836,2.834V99.102z"/>
		<path fill="#999999" d="M116.349,99.102c0,1.564-1.27,2.834-2.836,2.834l0,0c-1.563,0-2.834-1.27-2.834-2.834V84.929
			c0-1.563,1.271-2.834,2.834-2.834l0,0c1.566,0,2.836,1.271,2.836,2.834V99.102z"/>
	</g>
	<g>
		<rect id="connector0pin" x="161.966" y="99.66" fill="none" width="2.552" height="2.553"/>
		<rect id="connector1pin" x="154.881" y="85.488" fill="none" width="2.551" height="2.552"/>
		<rect id="connector2pin" x="147.794" y="99.66" fill="none" width="2.551" height="2.553"/>
		<rect id="connector3pin" x="140.708" y="85.488" fill="none" width="2.551" height="2.552"/>
		<rect id="connector4pin" x="133.621" y="99.66" fill="none" width="2.552" height="2.553"/>
		<rect id="connector5pin" x="126.388" y="85.657" fill="none" width="2.551" height="2.552"/>
		<rect id="connector6pin" x="119.381" y="99.66" fill="none" width="2.551" height="2.553"/>
		<rect id="connector7pin" x="112.295" y="85.657" fill="none" width="2.551" height="2.552"/>
	</g>
	<g>
		<path fill="#666666" d="M165.95,99.102c0,1.566-1.271,2.836-2.835,2.836l0,0c-1.565,0-2.836-1.27-2.836-2.836v-8.503
			c0-1.564,1.271-2.834,2.836-2.834l0,0c1.564,0,2.835,1.27,2.835,2.834V99.102z"/>
		<path fill="#666666" d="M158.864,99.102c0,1.566-1.271,2.836-2.836,2.836l0,0c-1.564,0-2.835-1.27-2.835-2.836v-8.503
			c0-1.564,1.271-2.834,2.835-2.834l0,0c1.565,0,2.836,1.27,2.836,2.834V99.102z"/>
		<path fill="#666666" d="M151.779,99.101c0,1.566-1.27,2.836-2.835,2.836l0,0c-1.564,0-2.835-1.27-2.835-2.836v-8.503
			c0-1.564,1.271-2.834,2.835-2.834l0,0c1.565,0,2.835,1.27,2.835,2.834V99.101z"/>
		<path fill="#666666" d="M144.693,99.101c0,1.566-1.27,2.836-2.835,2.836l0,0c-1.564,0-2.835-1.27-2.835-2.836v-8.503
			c0-1.564,1.271-2.834,2.835-2.834l0,0c1.565,0,2.835,1.27,2.835,2.834V99.101z"/>
		<path fill="#666666" d="M137.607,99.102c0,1.566-1.27,2.836-2.835,2.836l0,0c-1.564,0-2.835-1.27-2.835-2.836v-8.504
			c0-1.564,1.271-2.834,2.835-2.834l0,0c1.565,0,2.835,1.27,2.835,2.834V99.102z"/>
		<path fill="#666666" d="M130.521,99.102c0,1.566-1.27,2.836-2.835,2.836l0,0c-1.564,0-2.835-1.27-2.835-2.836v-8.504
			c0-1.564,1.271-2.834,2.835-2.834l0,0c1.565,0,2.835,1.27,2.835,2.834V99.102z"/>
		<path fill="#666666" d="M123.435,99.1c0,1.566-1.27,2.836-2.835,2.836l0,0c-1.564,0-2.835-1.27-2.835-2.836v-8.503
			c0-1.564,1.271-2.834,2.835-2.834l0,0c1.565,0,2.835,1.27,2.835,2.834V99.1z"/>
		<path fill="#666666" d="M116.349,99.1c0,1.566-1.27,2.836-2.835,2.836l0,0c-1.564,0-2.835-1.27-2.835-2.836v-8.503
			c0-1.564,1.271-2.834,2.835-2.834l0,0c1.565,0,2.835,1.27,2.835,2.834V99.1z"/>
	</g>
	<g>
		
			<rect x="111.742" y="85.62" fill="#CCCCCC" stroke="#CCCCCC" stroke-linejoin="round" stroke-miterlimit="10" width="3.543" height="3.543"/>
		
			<rect x="118.828" y="85.62" fill="#CCCCCC" stroke="#CCCCCC" stroke-linejoin="round" stroke-miterlimit="10" width="3.543" height="3.543"/>
		
			<rect x="125.914" y="85.62" fill="#CCCCCC" stroke="#CCCCCC" stroke-linejoin="round" stroke-miterlimit="10" width="3.543" height="3.543"/>
		
			<rect x="133.125" y="85.62" fill="#CCCCCC" stroke="#CCCCCC" stroke-linejoin="round" stroke-miterlimit="10" width="3.543" height="3.543"/>
		
			<rect x="140.076" y="85.62" fill="#CCCCCC" stroke="#CCCCCC" stroke-linejoin="round" stroke-miterlimit="10" width="3.544" height="3.543"/>
		
			<rect x="147.162" y="85.62" fill="#CCCCCC" stroke="#CCCCCC" stroke-linejoin="round" stroke-miterlimit="10" width="3.544" height="3.543"/>
		
			<rect x="154.249" y="85.62" fill="#CCCCCC" stroke="#CCCCCC" stroke-linejoin="round" stroke-miterlimit="10" width="3.544" height="3.543"/>
		
			<rect x="161.344" y="85.62" fill="#CCCCCC" stroke="#CCCCCC" stroke-linejoin="round" stroke-miterlimit="10" width="3.543" height="3.543"/>
	</g>
</g>
</svg>
