<?xml version='1.0' encoding='UTF-8' standalone='no'?>
<svg xmlns="http://www.w3.org/2000/svg" width="1.7746923in" id="svg2" viewBox="0 0 1774.6924 1032.3096"  gorn="0" version="1.2" height="1.0323097in">
    <style id="style33" />
    <desc id="desc2" >
        <referenceFile >LM239_383e0df5e7311423c672919352eb812d_8_pcb.svg</referenceFile>
    </desc>
    <metadata id="metadata38" >
        <rdf:RDF xmlns:rdf="http://www.w3.org/1999/02/22-rdf-syntax-ns#">
            <cc:Work xmlns:cc="http://creativecommons.org/ns#" xmlns:rdf="http://www.w3.org/1999/02/22-rdf-syntax-ns#" rdf:about="">
                <dc:format xmlns:dc="http://purl.org/dc/elements/1.1/">image/svg+xml</dc:format>
                <dc:type xmlns:rdf="http://www.w3.org/1999/02/22-rdf-syntax-ns#" xmlns:dc="http://purl.org/dc/elements/1.1/" rdf:resource="http://purl.org/dc/dcmitype/StillImage"/>
                <dc:title xmlns:dc="http://purl.org/dc/elements/1.1/"/>
            </cc:Work>
        </rdf:RDF>
    </metadata>
    <defs id="defs36" >
    id="copper1">
    </defs>
    <desc id="desc4" >Fritzing
    footprint
    SVG</desc>
    <g  transform="translate(110.51913,76.797965)">
        <g >
            <g id="copper1"  gorn="0.5.0.0">
                <g id="copper0"  gorn="0.5.0.0.0">
                    <g  transform="rotate(-90)">
                        <g >
                            <rect width="58" fill="none" id="square" x="-656.36218" y="1487.7977"  stroke="#ffbf00" gorn="0.5.0.0.0.0.0.0" stroke-width="19.99999809" style="display:inline;" height="58"/>
                        </g>
                    </g>
                    <g  transform="rotate(-90)">
                        <g >
                            <circle fill="none" id="connector0pin"  cx="-627.36218" cy="1516.7977" stroke="#ffbf00" gorn="0.5.0.0.0.1.0.0" stroke-width="19.99999809" style="display:inline;" r="29"/>
                        </g>
                    </g>
                    <g  transform="rotate(-90)">
                        <g >
                            <circle fill="none" id="connector3pin"  cx="-327.36221" cy="1516.7977" stroke="#ffbf00" gorn="0.5.0.0.0.2.0.0" stroke-width="19.99999809" style="display:inline;" r="29"/>
                        </g>
                    </g>
                    <g  transform="rotate(-90)">
                        <g >
                            <circle fill="none" id="connector1pin"  cx="-527.36218" cy="1516.7977" stroke="#ffbf00" gorn="0.5.0.0.0.3.0.0" stroke-width="19.99999809" style="display:inline;" r="29"/>
                        </g>
                    </g>
                    <g  transform="rotate(-90)">
                        <g >
                            <circle fill="none" id="connector2pin"  cx="-427.36221" cy="1516.7977" stroke="#ffbf00" gorn="0.5.0.0.0.4.0.0" stroke-width="19.99999809" style="display:inline;" r="29"/>
                        </g>
                    </g>
                </g>
            </g>
        </g>
    </g>
    <g id="silkscreen"  gorn="0.6" stroke-width="10.41666674" style="stroke-miterlimit:4;stroke-dasharray:none">
        <path fill="none" d="m 635.53024,5.2165351 c -6.18547,0 -11.16944,4.66772 -11.16944,10.4610199 v 67.43662 h 433.0851 v -67.43662 c 0,-5.7932999 -4.984,-10.4610199 -11.1695,-10.4610199 z" id="rect5548" stroke-opacity="1"  stroke="#000000" gorn="0.6.0" stroke-width="10.41666674" style="fill-rule:nonzero;stroke-linejoin:miter;stroke-miterlimit:4;stroke-dasharray:none;paint-order:markers stroke fill" fill-opacity="1"/>
        <rect width="492.92706" fill="none" id="rect7217" x="77.425903" stroke-opacity="1" y="456.7579"  stroke="#000000" gorn="0.6.1" stroke-width="10.41666674" style="fill-rule:nonzero;stroke-miterlimit:4;stroke-dasharray:none;paint-order:markers stroke fill" height="255.86613" fill-opacity="1"/>
        <path fill="none" d="M 11.233475,504.57172 V 666.77874 H 76.947944 V 504.57172 Z" id="rect7219" stroke-opacity="1"  stroke="#000000" gorn="0.6.2" stroke-width="10.41666674" style="fill-rule:nonzero;stroke-miterlimit:4;stroke-dasharray:none;paint-order:markers stroke fill" fill-opacity="1"/>
        <g  transform="translate(464.84985,-277.53275)">
            <g >
                <g fill="none" id="g1743" stroke-opacity="1"  stroke="#000000" gorn="0.6.3.0.0" stroke-width="10.41666674" style="stroke-miterlimit:4;stroke-dasharray:none" fill-opacity="1">
                    <g  transform="translate(0,22.440906)">
                        <g >
                            <g fill="none" id="g1985" stroke-opacity="1"  stroke="#000000" gorn="0.6.3.0.0.0.0.0" stroke-width="10.41666674" style="stroke-miterlimit:4;stroke-dasharray:none" fill-opacity="1"/>
                        </g>
                    </g>
                    <path fill="none" d="m -309.25515,360.03631 c -21.811,0 -39.3677,17.5567 -39.3677,39.3677 v 334.69158 l 454.12597,0.19506 v 255.86612 l -454.12597,2e-5 v 275.39671 c 0,21.811 17.5567,39.3677 39.3677,39.3677 H 1265.5534 c 21.811,0 39.3678,-17.5567 39.3678,-39.3677 V 399.40401 c 0,-21.811 -17.5568,-39.3677 -39.3678,-39.3677 z m 44.2912,39.3677 c 24.46125,7e-5 44.29102,19.82975 44.2912,44.291 -2e-5,24.46136 -19.82984,44.29123 -44.2912,44.2913 -24.46136,-7e-5 -44.29118,-19.82994 -44.2912,-44.2913 1.8e-4,-24.46125 19.82995,-44.29093 44.2912,-44.291 z m 1486.22615,0 c 24.4612,7e-5 44.291,19.82975 44.2912,44.291 0,24.46136 -19.8298,44.29123 -44.2912,44.2913 -24.4613,-1.8e-4 -44.291,-19.83002 -44.291,-44.2913 2e-4,-24.46117 19.8298,-44.29082 44.291,-44.291 z m -0.083,776.93649 c 24.4614,10e-5 44.2911,19.83 44.2911,44.2914 -2e-4,24.4612 -19.8299,44.2908 -44.2911,44.2909 -24.4612,-10e-5 -44.291,-19.8297 -44.2912,-44.2909 0,-24.4614 19.8298,-44.2913 44.2912,-44.2914 z m -1486.14415,0.63 c 24.46136,1e-4 44.29118,19.8299 44.2912,44.2913 -2.4e-4,24.4612 -19.82999,44.2908 -44.2912,44.2909 -24.46121,-10e-5 -44.29096,-19.8297 -44.2912,-44.2909 2e-5,-24.4614 19.82984,-44.2912 44.2912,-44.2913 z" id="rect815" stroke-opacity="1"  stroke="#000000" gorn="0.6.3.0.0.1" stroke-width="10.41666674" style="fill-rule:nonzero;stroke-linejoin:round;stroke-miterlimit:4;stroke-dasharray:none;paint-order:markers stroke fill" fill-opacity="1"/>
                </g>
            </g>
        </g>
    </g>
</svg>
