<?xml version='1.0' encoding='UTF-8' standalone='no'?>
<svg
  xmlns:dc="http://purl.org/dc/elements/1.1/"
  xmlns:cc="http://creativecommons.org/ns#"
  xmlns:rdf="http://www.w3.org/1999/02/22-rdf-syntax-ns#"
  xmlns:svg="http://www.w3.org/2000/svg"
  xmlns="http://www.w3.org/2000/svg"
  viewBox="0 0 1704.9999 1913.9369"
  x="0in"
  width="1.705in"
  height="1.913937in"
  version="1.2"
  y="0in"
  id="svg2">
  <metadata
    id="metadata24">
    <rdf:RDF>
      <cc:Work
        rdf:about="">
        <dc:format>image/svg+xml</dc:format>
        <dc:type
          rdf:resource="http://purl.org/dc/dcmitype/StillImage"
        />
        <dc:title/>
      </cc:Work>
    </rdf:RDF>
  </metadata>
  <defs
    id="defs22"
  />
  <desc
    id="desc4">
    <referenceFile>DFR0205_1_breadboard.svg</referenceFile>
  </desc>
  <g
    id="breadboard">
    <rect
      id="rect9735"
      width="1694.5833"
      height="1903.5201"
      x="5.208333"
      y="5.208333"
      fill="#808080"
      fill-opacity="1"
      stroke="#999999"
      stroke-width="10.41666603"
    />
    <circle
      id="path9737"
      cx="129.43391"
      cy="120.88071"
      r="56.755203"
      fill="#ffffff"
      fill-opacity="1"
      stroke="#cccccc"
      stroke-width="40"
    />
    <circle
      r="56.755203"
      cy="120.88071"
      cx="1580.4806"
      id="circle9739"
      fill="#ffffff"
      fill-opacity="1"
      stroke="#cccccc"
      stroke-width="40"
    />
    <circle
      id="circle9741"
      cx="1581.5221"
      cy="1780.2542"
      r="56.755203"
      fill="#ffffff"
      fill-opacity="1"
      stroke="#cccccc"
      stroke-width="40"
    />
    <circle
      r="56.755203"
      cy="1780.2542"
      cx="131.52229"
      id="circle9743"
      fill="#ffffff"
      fill-opacity="1"
      stroke="#cccccc"
      stroke-width="40"
    />
    <polygon
      gorn="0.0.0"
      points="200,39.9487 196.012,39.9487 196.012,0 0,0 0,39.9487 3.98829,39.9487 3.98829,72.4061 0,72.4061 0,157.607 196.012,157.607 196.012,72.4061 200,72.4061 "
      id="background"
      transform="matrix(1.9999998,0,0,2.0004894,455.99997,1489.8282)"
      fill="#254e89"
      stroke-width="0.49993888"
    />
    <rect
      gorn="0.0.1"
      height="11.523539"
      y="1494.5928"
      width="385.48996"
      id="upperstripe"
      x="459.51184"
      fill="#456dab"
      stroke-width="0"
    />
    <rect
      gorn="0.0.2"
      height="142.99179"
      y="1662.0997"
      width="392.02396"
      id="lowerrect"
      x="455.99997"
      fill="#123c66"
      stroke-width="0"
    />
    <path
      d="M 554.06036,1653.8449 C 592.17376,1653.8449 623.20895,1622.3214 623.20895,1583.4847 H 484.88457 C 484.85717,1622.349 515.86516,1653.8449 554.06036,1653.8449 Z"
      id="path7"
      fill="#3a5c8e"
      stroke-width="1"
    />
    <path
      d="M 554.06036,1513.1523 C 515.89256,1513.1523 484.88457,1544.7036 484.88457,1583.4847 H 623.20895 C 623.20875,1544.6482 592.22816,1513.1523 554.06036,1513.1523 Z"
      id="path9"
      fill="#123c66"
      stroke-width="1"
    />
    <path
      id="path13"
      d="M 554.06036,1640.5485 C 523.07956,1640.5485 497.92477,1614.9528 497.92477,1583.4293 497.92477,1551.9612 523.07956,1526.3379 554.06036,1526.3379 585.01396,1526.3379 610.16875,1551.9336 610.16875,1583.4293 610.14135,1614.9528 584.98656,1640.5485 554.06036,1640.5485 Z"
      fill="#8b8b8b"
      stroke-width="1"
    />
    <path
      id="path15"
      d="M 554.06036,1527.446 C 584.46936,1527.446 609.07975,1552.5429 609.07975,1583.4293 609.07975,1614.3435 584.46936,1639.4404 554.06036,1639.4404 523.65136,1639.4404 498.98637,1614.3435 498.98637,1583.4293 498.95917,1552.5429 523.62396,1527.446 554.06036,1527.446 M 554.06036,1525.3961 C 522.56236,1525.3961 496.89037,1551.4627 496.89037,1583.5125 496.89037,1615.5624 522.50796,1641.6844 554.06036,1641.6844 585.50396,1641.6844 611.17595,1615.6456 611.17595,1583.5125 611.14875,1551.4625 585.53096,1525.3961 554.06036,1525.3961 Z"
      stroke-width="1"
    />
    <path
      id="path19"
      d="M 500.64717,1570.3269 C 499.63977,1574.5651 498.95917,1578.9972 498.95917,1583.5125 498.95917,1588.0832 499.63976,1592.4322 500.64704,1596.7812 H 607.41903 C 608.42631,1592.543 609.10691,1588.1386 609.10691,1583.5125 609.10691,1578.9973 608.48076,1574.6483 607.41903,1570.3269 Z"
      fill="#707070"
      stroke-width="1"
    />
    <rect
      id="rect23"
      height="94.958435"
      y="1536.0055"
      width="25.917198"
      x="541.07458"
      fill="#545252"
      stroke-width="0"
    />
    <rect
      id="rect25"
      height="26.343445"
      y="1570.3269"
      width="81.644394"
      x="513.22455"
      fill="#545252"
      stroke-width="0"
    />
    <path
      id="path29"
      d="M 554.06036,1532.0719 C 581.85596,1532.0719 604.53336,1555.1468 604.53336,1583.4293 604.53336,1611.7672 581.85596,1634.8143 554.06036,1634.8143 526.21036,1634.8143 503.53297,1611.7394 503.53297,1583.4293 503.50557,1555.1468 526.18296,1532.0719 554.06036,1532.0719 M 554.06036,1527.446 C 523.65136,1527.446 498.98657,1552.5429 498.98657,1583.4293 498.98657,1614.3435 523.65136,1639.4404 554.06036,1639.4404 584.46936,1639.4404 609.07975,1614.3435 609.07975,1583.4293 609.13415,1552.5429 584.46936,1527.446 554.06036,1527.446 Z"
      stroke-width="1"
    />
    <rect
      id="rect38"
      height="56.315777"
      y="1677.8062"
      width="138.35158"
      x="484.85718"
      fill="#103656"
      stroke-width="0"
    />
    <rect
      id="rect40"
      height="58.421093"
      y="1734.15"
      width="138.35158"
      x="484.85718"
      fill="#254e89"
      stroke-width="0"
    />
    <rect
      id="rect42"
      height="70.166168"
      y="1734.8701"
      width="67.732994"
      x="520.16656"
      fill="#254e89"
      stroke-width="0"
    />
    <rect
      id="rect44"
      height="105.76187"
      y="1682.7368"
      width="127.08099"
      x="490.51978"
      fill="#8d8c8c"
      stroke-width="0"
    />
    <path
      id="path46"
      d="M 554.06036,1782.2937 C 584.19716,1782.2937 608.72575,1764.122 608.72575,1741.5736 H 499.28597 C 499.34037,1764.1213 523.84176,1782.2937 554.06036,1782.2937 Z"
      fill="#a0a0a0"
      stroke-width="1"
    />
    <path
      id="path48"
      d="M 554.06036,1701.0479 C 523.86916,1701.0479 499.28597,1719.2196 499.28597,1741.685 H 608.72575 C 608.69855,1719.2183 584.25156,1701.0479 554.06036,1701.0479 Z"
      fill="#565656"
      stroke-width="1"
    />
    <ellipse
      id="ellipse50"
      ry="31.523512"
      cx="554.03296"
      rx="42.414795"
      cy="1741.6838"
      fill="#383838"
      stroke-width="0"
    />
    <polygon
      points="18.1175,96.0569 80.8004,96.9431 79.9292,104.157 76.989,103.271 67.0115,116.467 30.8446,116.467 21.8335,103.631 17.2599,103.271 "
      id="polygon52"
      transform="matrix(1.9999998,0,0,2.0004894,455.99997,1489.8282)"
      fill="#919291"
      stroke-width="0.49993888"
    />
    <path
      id="path54"
      d="M 614.11615,1685.5347 V 1694.6482 L 610.00535,1694.6483 H 608.23575 L 607.22835,1696.0887 589.17896,1721.0468 H 519.43156 L 501.08257,1696.0607 500.02097,1694.6483 H 498.30577 494.03177 V 1685.5347 H 614.11615 M 617.60075,1681.989 H 490.51977 V 1698.194 H 498.27857 L 517.68916,1724.5929 H 590.86696 L 609.95087,1698.194 H 617.54633 Z"
      fill="#57585a"
      stroke-width="1"
    />
    <rect
      id="rect60"
      height="41.6898"
      y="1788.1112"
      width="57.006798"
      x="525.55695"
      fill="#8c8c8c"
      stroke-width="0"
    />
    <path
      d="M 754.06034,1653.8449 C 792.17374,1653.8449 823.20893,1622.3214 823.20893,1583.4847 H 684.88455 C 684.85715,1622.349 715.86514,1653.8449 754.06034,1653.8449 Z"
      id="path66"
      fill="#3a5c8e"
      stroke-width="1"
    />
    <path
      d="M 754.06034,1513.1523 C 715.89254,1513.1523 684.88455,1544.7036 684.88455,1583.4847 H 823.20893 C 823.20873,1544.6482 792.22814,1513.1523 754.06034,1513.1523 Z"
      id="path68"
      fill="#123c66"
      stroke-width="1"
    />
    <path
      id="path72"
      d="M 754.06034,1640.5485 C 723.07954,1640.5485 697.92475,1614.9528 697.92475,1583.4293 697.92475,1551.9612 723.07954,1526.3379 754.06034,1526.3379 785.01394,1526.3379 810.16873,1551.9336 810.16873,1583.4293 810.14133,1614.9528 784.98654,1640.5485 754.06034,1640.5485 Z"
      fill="#8b8b8b"
      stroke-width="1"
    />
    <path
      id="path74"
      d="M 754.06034,1527.446 C 784.46934,1527.446 809.07973,1552.5429 809.07973,1583.4293 809.07973,1614.3435 784.46934,1639.4404 754.06034,1639.4404 723.65134,1639.4404 698.98635,1614.3435 698.98635,1583.4293 698.95915,1552.5429 723.62394,1527.446 754.06034,1527.446 M 754.06034,1525.3961 C 722.56234,1525.3961 696.89035,1551.4627 696.89035,1583.5125 696.89035,1615.5624 722.50794,1641.6844 754.06034,1641.6844 785.50394,1641.6844 811.17593,1615.6456 811.17593,1583.5125 811.14873,1551.4625 785.53094,1525.3961 754.06034,1525.3961 Z"
      stroke-width="1"
    />
    <path
      id="path78"
      d="M 700.64715,1570.3269 C 699.63975,1574.5651 698.95915,1578.9972 698.95915,1583.5125 698.95915,1588.0832 699.63974,1592.4322 700.64702,1596.7812 H 807.41901 C 808.42629,1592.543 809.10689,1588.1386 809.10689,1583.5125 809.10689,1578.9973 808.48074,1574.6483 807.41901,1570.3269 Z"
      fill="#707070"
      stroke-width="1"
    />
    <rect
      id="rect82"
      height="94.958435"
      y="1536.0055"
      width="25.917198"
      x="741.07452"
      fill="#545252"
      stroke-width="0"
    />
    <rect
      id="rect84"
      height="26.343445"
      y="1570.3269"
      width="81.644394"
      x="713.22455"
      fill="#545252"
      stroke-width="0"
    />
    <path
      id="path88"
      d="M 754.06034,1532.0719 C 781.85594,1532.0719 804.53334,1555.1468 804.53334,1583.4293 804.53334,1611.7672 781.85594,1634.8143 754.06034,1634.8143 726.21034,1634.8143 703.53295,1611.7394 703.53295,1583.4293 703.50555,1555.1468 726.18294,1532.0719 754.06034,1532.0719 M 754.06034,1527.446 C 723.65134,1527.446 698.98655,1552.5429 698.98655,1583.4293 698.98655,1614.3435 723.65134,1639.4404 754.06034,1639.4404 784.46934,1639.4404 809.07973,1614.3435 809.07973,1583.4293 809.13413,1552.5429 784.46934,1527.446 754.06034,1527.446 Z"
      stroke-width="1"
    />
    <rect
      id="rect97"
      height="56.315777"
      y="1677.8062"
      width="138.35158"
      x="684.85718"
      fill="#103656"
      stroke-width="0"
    />
    <rect
      id="rect99"
      height="58.421093"
      y="1734.15"
      width="138.35158"
      x="684.85718"
      fill="#254e89"
      stroke-width="0"
    />
    <rect
      id="rect101"
      height="70.166168"
      y="1734.8701"
      width="67.732994"
      x="720.16656"
      fill="#254e89"
      stroke-width="0"
    />
    <rect
      id="rect103"
      height="105.76187"
      y="1682.7368"
      width="127.08099"
      x="690.51971"
      fill="#8d8c8c"
      stroke-width="0"
    />
    <path
      id="path105"
      d="M 754.06034,1782.2937 C 784.19714,1782.2937 808.72573,1764.122 808.72573,1741.5736 H 699.28595 C 699.34035,1764.1213 723.84174,1782.2937 754.06034,1782.2937 Z"
      fill="#a0a0a0"
      stroke-width="1"
    />
    <path
      id="path107"
      d="M 754.06034,1701.0479 C 723.86914,1701.0479 699.28595,1719.2196 699.28595,1741.685 H 808.72573 C 808.69853,1719.2183 784.25154,1701.0479 754.06034,1701.0479 Z"
      fill="#565656"
      stroke-width="1"
    />
    <ellipse
      id="ellipse109"
      ry="31.523512"
      cx="754.03296"
      rx="42.414795"
      cy="1741.6838"
      fill="#383838"
      stroke-width="0"
    />
    <polygon
      points="18.1175,96.0569 80.8004,96.9431 79.9292,104.157 76.989,103.271 67.0115,116.467 30.8446,116.467 21.8335,103.631 17.2599,103.271 "
      id="polygon111"
      transform="matrix(1.9999998,0,0,2.0004894,655.99995,1489.8282)"
      fill="#919291"
      stroke-width="0.49993888"
    />
    <path
      id="path113"
      d="M 814.11613,1685.5347 V 1694.6482 L 810.00533,1694.6483 H 808.23573 L 807.22833,1696.0887 789.17894,1721.0468 H 719.43154 L 701.08255,1696.0607 700.02095,1694.6483 H 698.30575 694.03175 V 1685.5347 H 814.11613 M 817.60073,1681.989 H 690.51975 V 1698.194 H 698.27855 L 717.68914,1724.5929 H 790.86694 L 809.95085,1698.194 H 817.54631 Z"
      fill="#57585a"
      stroke-width="1"
    />
    <rect
      id="rect119"
      height="41.6898"
      y="1788.1112"
      width="57.006798"
      x="725.55695"
      fill="#8c8c8c"
      stroke-width="0"
    />
    <polygon
      gorn="0.0.0"
      points="3.98829,39.9487 3.98829,72.4061 0,72.4061 0,157.607 196.012,157.607 196.012,72.4061 200,72.4061 200,39.9487 196.012,39.9487 196.012,0 0,0 0,39.9487 "
      id="background-2"
      transform="matrix(1.9999998,0,0,2.0004894,955.99994,1477.9806)"
      fill="#254e89"
      stroke-width="0.49993888"
    />
    <rect
      gorn="0.0.1"
      height="11.523539"
      y="1482.7451"
      width="385.48996"
      id="upperstripe-5"
      x="959.51184"
      fill="#456dab"
      stroke-width="0"
    />
    <rect
      gorn="0.0.2"
      height="142.99179"
      y="1650.2522"
      width="392.02396"
      id="lowerrect-2"
      x="955.99994"
      fill="#123c66"
      stroke-width="0"
    />
    <path
      d="M 1054.0603,1641.9973 C 1092.1737,1641.9973 1123.2089,1610.4738 1123.2089,1571.6371 H 984.88454 C 984.85714,1610.5014 1015.8651,1641.9973 1054.0603,1641.9973 Z"
      id="path7-5"
      fill="#3a5c8e"
      stroke-width="1"
    />
    <path
      d="M 1054.0603,1501.3047 C 1015.8925,1501.3047 984.88454,1532.856 984.88454,1571.6371 H 1123.2089 C 1123.2087,1532.8006 1092.2281,1501.3047 1054.0603,1501.3047 Z"
      id="path9-6"
      fill="#123c66"
      stroke-width="1"
    />
    <path
      id="path13-9"
      d="M 1054.0603,1628.7009 C 1023.0795,1628.7009 997.92474,1603.1052 997.92474,1571.5817 997.92474,1540.1136 1023.0795,1514.4903 1054.0603,1514.4903 1085.0139,1514.4903 1110.1687,1540.086 1110.1687,1571.5817 1110.1413,1603.1052 1084.9865,1628.7009 1054.0603,1628.7009 Z"
      fill="#8b8b8b"
      stroke-width="1"
    />
    <path
      id="path15-7"
      d="M 1054.0603,1515.5984 C 1084.4693,1515.5984 1109.0797,1540.6953 1109.0797,1571.5817 1109.0797,1602.4959 1084.4693,1627.5928 1054.0603,1627.5928 1023.6513,1627.5928 998.98634,1602.4959 998.98634,1571.5817 998.95914,1540.6953 1023.6239,1515.5984 1054.0603,1515.5984 M 1054.0603,1513.5485 C 1022.5623,1513.5485 996.89034,1539.6151 996.89034,1571.6649 996.89034,1603.7148 1022.5079,1629.8368 1054.0603,1629.8368 1085.5039,1629.8368 1111.1759,1603.798 1111.1759,1571.6649 1111.1487,1539.6149 1085.5309,1513.5485 1054.0603,1513.5485 Z"
      stroke-width="1"
    />
    <path
      id="path19-7"
      d="M 1000.6471,1558.4793 C 999.63974,1562.7175 998.95914,1567.1496 998.95914,1571.6649 998.95914,1576.2356 999.63973,1580.5846 1000.647,1584.9336 H 1107.419 C 1108.4263,1580.6954 1109.1069,1576.291 1109.1069,1571.6649 1109.1069,1567.1497 1108.4807,1562.8007 1107.419,1558.4793 Z"
      fill="#707070"
      stroke-width="1"
    />
    <rect
      id="rect23-1"
      height="94.958435"
      y="1524.1578"
      width="25.917198"
      x="1041.0746"
      fill="#545252"
      stroke-width="0"
    />
    <rect
      id="rect25-4"
      height="26.343445"
      y="1558.4792"
      width="81.644394"
      x="1013.2245"
      fill="#545252"
      stroke-width="0"
    />
    <path
      id="path29-9"
      d="M 1054.0603,1520.2243 C 1081.8559,1520.2243 1104.5333,1543.2992 1104.5333,1571.5817 1104.5333,1599.9196 1081.8559,1622.9667 1054.0603,1622.9667 1026.2103,1622.9667 1003.5329,1599.8918 1003.5329,1571.5817 1003.5055,1543.2992 1026.1829,1520.2243 1054.0603,1520.2243 M 1054.0603,1515.5984 C 1023.6513,1515.5984 998.98654,1540.6953 998.98654,1571.5817 998.98654,1602.4959 1023.6513,1627.5928 1054.0603,1627.5928 1084.4693,1627.5928 1109.0797,1602.4959 1109.0797,1571.5817 1109.1341,1540.6953 1084.4693,1515.5984 1054.0603,1515.5984 Z"
      stroke-width="1"
    />
    <rect
      id="rect38-4"
      height="56.315777"
      y="1665.9586"
      width="138.35158"
      x="984.85712"
      fill="#103656"
      stroke-width="0"
    />
    <rect
      id="rect40-1"
      height="58.421093"
      y="1722.3024"
      width="138.35158"
      x="984.85712"
      fill="#254e89"
      stroke-width="0"
    />
    <rect
      id="rect42-0"
      height="70.166168"
      y="1723.0226"
      width="67.732994"
      x="1020.1666"
      fill="#254e89"
      stroke-width="0"
    />
    <rect
      id="rect44-8"
      height="105.76187"
      y="1670.8892"
      width="127.08099"
      x="990.51971"
      fill="#8d8c8c"
      stroke-width="0"
    />
    <path
      id="path46-9"
      d="M 1054.0603,1770.4461 C 1084.1971,1770.4461 1108.7257,1752.2744 1108.7257,1729.726 H 999.28594 C 999.34034,1752.2737 1023.8417,1770.4461 1054.0603,1770.4461 Z"
      fill="#a0a0a0"
      stroke-width="1"
    />
    <path
      id="path48-9"
      d="M 1054.0603,1689.2003 C 1023.8691,1689.2003 999.28594,1707.372 999.28594,1729.8374 H 1108.7257 C 1108.6985,1707.3707 1084.2515,1689.2003 1054.0603,1689.2003 Z"
      fill="#565656"
      stroke-width="1"
    />
    <ellipse
      id="ellipse50-2"
      ry="31.523512"
      cx="1054.033"
      rx="42.414795"
      cy="1729.8362"
      fill="#383838"
      stroke-width="0"
    />
    <polygon
      points="30.8446,116.467 21.8335,103.631 17.2599,103.271 18.1175,96.0569 80.8004,96.9431 79.9292,104.157 76.989,103.271 67.0115,116.467 "
      id="polygon52-2"
      transform="matrix(1.9999998,0,0,2.0004894,955.99994,1477.9806)"
      fill="#919291"
      stroke-width="0.49993888"
    />
    <path
      id="path54-9"
      d="M 1114.1161,1673.6871 V 1682.8006 L 1110.0053,1682.8007 H 1108.2357 L 1107.2283,1684.2411 1089.1789,1709.1992 H 1019.4315 L 1001.0825,1684.2131 1000.0209,1682.8007 H 998.30574 994.03174 V 1673.6871 H 1114.1161 M 1117.6007,1670.1414 H 990.51974 V 1686.3464 H 998.27854 L 1017.6891,1712.7453 H 1090.8669 L 1109.9508,1686.3464 H 1117.5463 Z"
      fill="#57585a"
      stroke-width="1"
    />
    <rect
      id="rect60-6"
      height="41.6898"
      y="1776.2635"
      width="57.006798"
      x="1025.5569"
      fill="#8c8c8c"
      stroke-width="0"
    />
    <path
      d="M 1254.0603,1641.9973 C 1292.1737,1641.9973 1323.2089,1610.4738 1323.2089,1571.6371 H 1184.8845 C 1184.8571,1610.5014 1215.8651,1641.9973 1254.0603,1641.9973 Z"
      id="path66-1"
      fill="#3a5c8e"
      stroke-width="1"
    />
    <path
      d="M 1254.0603,1501.3047 C 1215.8925,1501.3047 1184.8845,1532.856 1184.8845,1571.6371 H 1323.2089 C 1323.2087,1532.8006 1292.2281,1501.3047 1254.0603,1501.3047 Z"
      id="path68-0"
      fill="#123c66"
      stroke-width="1"
    />
    <path
      id="path72-5"
      d="M 1254.0603,1628.7009 C 1223.0795,1628.7009 1197.9247,1603.1052 1197.9247,1571.5817 1197.9247,1540.1136 1223.0795,1514.4903 1254.0603,1514.4903 1285.0139,1514.4903 1310.1687,1540.086 1310.1687,1571.5817 1310.1413,1603.1052 1284.9865,1628.7009 1254.0603,1628.7009 Z"
      fill="#8b8b8b"
      stroke-width="1"
    />
    <path
      id="path74-5"
      d="M 1254.0603,1515.5984 C 1284.4693,1515.5984 1309.0797,1540.6953 1309.0797,1571.5817 1309.0797,1602.4959 1284.4693,1627.5928 1254.0603,1627.5928 1223.6513,1627.5928 1198.9863,1602.4959 1198.9863,1571.5817 1198.9591,1540.6953 1223.6239,1515.5984 1254.0603,1515.5984 M 1254.0603,1513.5485 C 1222.5623,1513.5485 1196.8903,1539.6151 1196.8903,1571.6649 1196.8903,1603.7148 1222.5079,1629.8368 1254.0603,1629.8368 1285.5039,1629.8368 1311.1759,1603.798 1311.1759,1571.6649 1311.1487,1539.6149 1285.5309,1513.5485 1254.0603,1513.5485 Z"
      stroke-width="1"
    />
    <path
      id="path78-7"
      d="M 1200.6471,1558.4793 C 1199.6397,1562.7175 1198.9591,1567.1496 1198.9591,1571.6649 1198.9591,1576.2356 1199.6397,1580.5846 1200.647,1584.9336 H 1307.419 C 1308.4262,1580.6954 1309.1068,1576.291 1309.1068,1571.6649 1309.1068,1567.1497 1308.4807,1562.8007 1307.419,1558.4793 Z"
      fill="#707070"
      stroke-width="1"
    />
    <rect
      id="rect82-1"
      height="94.958435"
      y="1524.1578"
      width="25.917198"
      x="1241.0745"
      fill="#545252"
      stroke-width="0"
    />
    <rect
      id="rect84-8"
      height="26.343445"
      y="1558.4792"
      width="81.644394"
      x="1213.2245"
      fill="#545252"
      stroke-width="0"
    />
    <path
      id="path88-3"
      d="M 1254.0603,1520.2243 C 1281.8559,1520.2243 1304.5333,1543.2992 1304.5333,1571.5817 1304.5333,1599.9196 1281.8559,1622.9667 1254.0603,1622.9667 1226.2103,1622.9667 1203.5329,1599.8918 1203.5329,1571.5817 1203.5055,1543.2992 1226.1829,1520.2243 1254.0603,1520.2243 M 1254.0603,1515.5984 C 1223.6513,1515.5984 1198.9865,1540.6953 1198.9865,1571.5817 1198.9865,1602.4959 1223.6513,1627.5928 1254.0603,1627.5928 1284.4693,1627.5928 1309.0797,1602.4959 1309.0797,1571.5817 1309.1341,1540.6953 1284.4693,1515.5984 1254.0603,1515.5984 Z"
      stroke-width="1"
    />
    <rect
      id="rect97-7"
      height="56.315777"
      y="1665.9586"
      width="138.35158"
      x="1184.8571"
      fill="#103656"
      stroke-width="0"
    />
    <rect
      id="rect99-3"
      height="58.421093"
      y="1722.3024"
      width="138.35158"
      x="1184.8571"
      fill="#254e89"
      stroke-width="0"
    />
    <rect
      id="rect101-7"
      height="70.166168"
      y="1723.0226"
      width="67.732994"
      x="1220.1665"
      fill="#254e89"
      stroke-width="0"
    />
    <rect
      id="rect103-7"
      height="105.76187"
      y="1670.8892"
      width="127.08099"
      x="1190.5197"
      fill="#8d8c8c"
      stroke-width="0"
    />
    <path
      id="path105-4"
      d="M 1254.0603,1770.4461 C 1284.1971,1770.4461 1308.7257,1752.2744 1308.7257,1729.726 H 1199.2859 C 1199.3403,1752.2737 1223.8417,1770.4461 1254.0603,1770.4461 Z"
      fill="#a0a0a0"
      stroke-width="1"
    />
    <path
      id="path107-4"
      d="M 1254.0603,1689.2003 C 1223.8691,1689.2003 1199.2859,1707.372 1199.2859,1729.8374 H 1308.7257 C 1308.6985,1707.3707 1284.2515,1689.2003 1254.0603,1689.2003 Z"
      fill="#565656"
      stroke-width="1"
    />
    <ellipse
      id="ellipse109-0"
      ry="31.523512"
      cx="1254.0328"
      rx="42.414795"
      cy="1729.8362"
      fill="#383838"
      stroke-width="0"
    />
    <polygon
      points="30.8446,116.467 21.8335,103.631 17.2599,103.271 18.1175,96.0569 80.8004,96.9431 79.9292,104.157 76.989,103.271 67.0115,116.467 "
      id="polygon111-0"
      transform="matrix(1.9999998,0,0,2.0004894,1155.9999,1477.9806)"
      fill="#919291"
      stroke-width="0.49993888"
    />
    <path
      id="path113-7"
      d="M 1314.1161,1673.6871 V 1682.8006 L 1310.0053,1682.8007 H 1308.2357 L 1307.2283,1684.2411 1289.1789,1709.1992 H 1219.4315 L 1201.0825,1684.2131 1200.0209,1682.8007 H 1198.3057 1194.0317 V 1673.6871 H 1314.1161 M 1317.6007,1670.1414 H 1190.5197 V 1686.3464 H 1198.2785 L 1217.6891,1712.7453 H 1290.8669 L 1309.9508,1686.3464 H 1317.5463 Z"
      fill="#57585a"
      stroke-width="1"
    />
    <rect
      id="rect119-6"
      height="41.6898"
      y="1776.2635"
      width="57.006798"
      x="1225.5569"
      fill="#8c8c8c"
      stroke-width="0"
    />
    <polygon
      gorn="0.0.0"
      points="0,0 0,39.9487 3.98829,39.9487 3.98829,72.4061 0,72.4061 0,157.607 196.012,157.607 196.012,72.4061 200,72.4061 200,39.9487 196.012,39.9487 196.012,0 "
      id="background-2-0"
      transform="matrix(-1.9999998,0,0,-2.0004894,1352.9999,412.93695)"
      fill="#254e89"
      stroke-width="0.49993888"
    />
    <rect
      gorn="0.0.1"
      height="11.523539"
      y="-408.17239"
      width="385.48996"
      id="upperstripe-5-6"
      x="-1349.488"
      transform="scale(-1)"
      fill="#456dab"
      stroke-width="0"
    />
    <rect
      gorn="0.0.2"
      height="142.99179"
      y="-240.66541"
      width="392.02396"
      id="lowerrect-2-4"
      x="-1352.9999"
      transform="scale(-1)"
      fill="#123c66"
      stroke-width="0"
    />
    <path
      d="M 1254.9395,248.92022 C 1216.8261,248.92022 1185.7909,280.44374 1185.7909,319.28044 H 1324.1153 C 1324.1427,280.41613 1293.1347,248.92022 1254.9395,248.92022 Z"
      id="path7-5-4"
      fill="#3a5c8e"
      stroke-width="1"
    />
    <path
      d="M 1254.9395,389.61284 C 1293.1073,389.61284 1324.1153,358.06153 1324.1153,319.28044 H 1185.7909 C 1185.7911,358.11694 1216.7717,389.61284 1254.9395,389.61284 Z"
      id="path9-6-5"
      fill="#123c66"
      stroke-width="1"
    />
    <path
      id="path13-9-8"
      d="M 1254.9395,262.21668 C 1285.9203,262.21668 1311.0751,287.81234 1311.0751,319.33585 1311.0751,350.80395 1285.9203,376.42722 1254.9395,376.42722 1223.9859,376.42722 1198.8311,350.83156 1198.8311,319.33585 1198.8585,287.81234 1224.0133,262.21668 1254.9395,262.21668 Z"
      fill="#8b8b8b"
      stroke-width="1"
    />
    <path
      id="path15-7-6"
      d="M 1254.9395,375.31915 C 1224.5305,375.31915 1199.9201,350.22221 1199.9201,319.33585 1199.9201,288.42169 1224.5305,263.32475 1254.9395,263.32475 1285.3485,263.32475 1310.0135,288.42169 1310.0135,319.33585 1310.0407,350.22221 1285.3759,375.31915 1254.9395,375.31915 M 1254.9395,377.36905 C 1286.4375,377.36905 1312.1095,351.30247 1312.1095,319.25263 1312.1095,287.20279 1286.4919,261.0808 1254.9395,261.0808 1223.4959,261.0808 1197.8239,287.11957 1197.8239,319.25263 1197.8511,351.30267 1223.4689,377.36905 1254.9395,377.36905 Z"
      stroke-width="1"
    />
    <path
      id="path19-7-1"
      d="M 1308.3527,332.43826 C 1309.3601,328.20002 1310.0407,323.76794 1310.0407,319.25263 1310.0407,314.68199 1309.3601,310.33297 1308.3528,305.98392 H 1201.5808 C 1200.5736,310.22216 1199.893,314.62658 1199.893,319.25263 1199.893,323.76788 1200.5191,328.1169 1201.5808,332.43824 Z"
      fill="#707070"
      stroke-width="1"
    />
    <rect
      id="rect23-1-9"
      height="94.958435"
      y="-366.75964"
      width="25.917198"
      x="-1267.9253"
      transform="scale(-1)"
      fill="#545252"
      stroke-width="0"
    />
    <rect
      id="rect25-4-4"
      height="26.343445"
      y="-332.43826"
      width="81.644394"
      x="-1295.7753"
      transform="scale(-1)"
      fill="#545252"
      stroke-width="0"
    />
    <path
      id="path29-9-2"
      d="M 1254.9395,370.69322 C 1227.1439,370.69322 1204.4665,347.61837 1204.4665,319.33585 1204.4665,290.99792 1227.1439,267.95088 1254.9395,267.95088 1282.7895,267.95088 1305.4669,291.02573 1305.4669,319.33585 1305.4943,347.61837 1282.8169,370.69322 1254.9395,370.69322 M 1254.9395,375.31915 C 1285.3485,375.31915 1310.0133,350.22221 1310.0133,319.33585 1310.0133,288.42169 1285.3485,263.32475 1254.9395,263.32475 1224.5305,263.32475 1199.9201,288.42169 1199.9201,319.33585 1199.8657,350.22221 1224.5305,375.31915 1254.9395,375.31915 Z"
      stroke-width="1"
    />
    <rect
      id="rect38-4-3"
      height="56.315777"
      y="-224.95895"
      width="138.35158"
      x="-1324.1427"
      transform="scale(-1)"
      fill="#103656"
      stroke-width="0"
    />
    <rect
      id="rect40-1-1"
      height="58.421093"
      y="-168.61519"
      width="138.35158"
      x="-1324.1427"
      transform="scale(-1)"
      fill="#254e89"
      stroke-width="0"
    />
    <rect
      id="rect42-0-9"
      height="70.166168"
      y="-167.895"
      width="67.732994"
      x="-1288.8333"
      transform="scale(-1)"
      fill="#254e89"
      stroke-width="0"
    />
    <rect
      id="rect44-8-9"
      height="105.76187"
      y="-220.02835"
      width="127.08099"
      x="-1318.4801"
      transform="scale(-1)"
      fill="#8d8c8c"
      stroke-width="0"
    />
    <path
      id="path46-9-5"
      d="M 1254.9395,120.4714 C 1224.8027,120.4714 1200.2741,138.64315 1200.2741,161.19156 H 1309.7139 C 1309.6595,138.64385 1285.1581,120.4714 1254.9395,120.4714 Z"
      fill="#a0a0a0"
      stroke-width="1"
    />
    <path
      id="path48-9-4"
      d="M 1254.9395,201.71728 C 1285.1307,201.71728 1309.7139,183.54553 1309.7139,161.08014 H 1200.2741 C 1200.3013,183.54683 1224.7483,201.71728 1254.9395,201.71728 Z"
      fill="#565656"
      stroke-width="1"
    />
    <ellipse
      id="ellipse50-2-0"
      ry="31.523512"
      cx="-1254.9669"
      rx="42.414795"
      cy="-161.08133"
      transform="scale(-1)"
      fill="#383838"
      stroke-width="0"
    />
    <polygon
      points="17.2599,103.271 18.1175,96.0569 80.8004,96.9431 79.9292,104.157 76.989,103.271 67.0115,116.467 30.8446,116.467 21.8335,103.631 "
      id="polygon52-2-0"
      transform="matrix(-1.9999998,0,0,-2.0004894,1352.9999,412.93695)"
      fill="#919291"
      stroke-width="0.49993888"
    />
    <path
      id="path54-9-5"
      d="M 1194.8837,217.23047 V 208.1169 L 1198.9945,208.11684 H 1200.7641 L 1201.7715,206.67649 1219.8209,181.71838 H 1289.5683 L 1307.9173,206.7045 1308.9789,208.11684 H 1310.6941 1314.9681 V 217.23047 H 1194.8837 M 1191.3991,220.77614 H 1318.4801 V 204.57116 H 1310.7213 L 1291.3107,178.1723 H 1218.1329 L 1199.049,204.57116 H 1191.4535 Z"
      fill="#57585a"
      stroke-width="1"
    />
    <rect
      id="rect60-6-9"
      height="41.6898"
      y="-114.65398"
      width="57.006798"
      x="-1283.4429"
      transform="scale(-1)"
      fill="#8c8c8c"
      stroke-width="0"
    />
    <path
      d="M 1054.9395,248.92022 C 1016.8261,248.92022 985.79092,280.44374 985.79092,319.28044 H 1124.1153 C 1124.1427,280.41613 1093.1347,248.92022 1054.9395,248.92022 Z"
      id="path66-1-4"
      fill="#3a5c8e"
      stroke-width="1"
    />
    <path
      d="M 1054.9395,389.61284 C 1093.1073,389.61284 1124.1153,358.06153 1124.1153,319.28044 H 985.79092 C 985.79112,358.11694 1016.7717,389.61284 1054.9395,389.61284 Z"
      id="path68-0-8"
      fill="#123c66"
      stroke-width="1"
    />
    <path
      id="path72-5-1"
      d="M 1054.9395,262.21668 C 1085.9203,262.21668 1111.0751,287.81234 1111.0751,319.33585 1111.0751,350.80395 1085.9203,376.42722 1054.9395,376.42722 1023.9859,376.42722 998.83112,350.83156 998.83112,319.33585 998.85852,287.81234 1024.0133,262.21668 1054.9395,262.21668 Z"
      fill="#8b8b8b"
      stroke-width="1"
    />
    <path
      id="path74-5-6"
      d="M 1054.9395,375.31915 C 1024.5305,375.31915 999.92012,350.22221 999.92012,319.33585 999.92012,288.42169 1024.5305,263.32475 1054.9395,263.32475 1085.3485,263.32475 1110.0135,288.42169 1110.0135,319.33585 1110.0407,350.22221 1085.3759,375.31915 1054.9395,375.31915 M 1054.9395,377.36905 C 1086.4375,377.36905 1112.1095,351.30247 1112.1095,319.25263 1112.1095,287.20279 1086.4919,261.0808 1054.9395,261.0808 1023.4959,261.0808 997.82392,287.11957 997.82392,319.25263 997.85112,351.30267 1023.4689,377.36905 1054.9395,377.36905 Z"
      stroke-width="1"
    />
    <path
      id="path78-7-7"
      d="M 1108.3527,332.43826 C 1109.3601,328.20002 1110.0407,323.76794 1110.0407,319.25263 1110.0407,314.68199 1109.3601,310.33297 1108.3528,305.98392 H 1001.5808 C 1000.5736,310.22216 999.89296,314.62658 999.89296,319.25263 999.89296,323.76788 1000.5191,328.1169 1001.5808,332.43824 Z"
      fill="#707070"
      stroke-width="1"
    />
    <rect
      id="rect82-1-6"
      height="94.958435"
      y="-366.75964"
      width="25.917198"
      x="-1067.9253"
      transform="scale(-1)"
      fill="#545252"
      stroke-width="0"
    />
    <rect
      id="rect84-8-4"
      height="26.343445"
      y="-332.43826"
      width="81.644394"
      x="-1095.7753"
      transform="scale(-1)"
      fill="#545252"
      stroke-width="0"
    />
    <path
      id="path88-3-7"
      d="M 1054.9395,370.69322 C 1027.1439,370.69322 1004.4665,347.61837 1004.4665,319.33585 1004.4665,290.99792 1027.1439,267.95088 1054.9395,267.95088 1082.7895,267.95088 1105.4669,291.02573 1105.4669,319.33585 1105.4943,347.61837 1082.8169,370.69322 1054.9395,370.69322 M 1054.9395,375.31915 C 1085.3485,375.31915 1110.0133,350.22221 1110.0133,319.33585 1110.0133,288.42169 1085.3485,263.32475 1054.9395,263.32475 1024.5305,263.32475 999.92012,288.42169 999.92012,319.33585 999.86572,350.22221 1024.5305,375.31915 1054.9395,375.31915 Z"
      stroke-width="1"
    />
    <rect
      id="rect97-7-4"
      height="56.315777"
      y="-224.95895"
      width="138.35158"
      x="-1124.1427"
      transform="scale(-1)"
      fill="#103656"
      stroke-width="0"
    />
    <rect
      id="rect99-3-3"
      height="58.421093"
      y="-168.61519"
      width="138.35158"
      x="-1124.1427"
      transform="scale(-1)"
      fill="#254e89"
      stroke-width="0"
    />
    <rect
      id="rect101-7-7"
      height="70.166168"
      y="-167.895"
      width="67.732994"
      x="-1088.8333"
      transform="scale(-1)"
      fill="#254e89"
      stroke-width="0"
    />
    <rect
      id="rect103-7-9"
      height="105.76187"
      y="-220.02835"
      width="127.08099"
      x="-1118.4801"
      transform="scale(-1)"
      fill="#8d8c8c"
      stroke-width="0"
    />
    <path
      id="path105-4-3"
      d="M 1054.9395,120.4714 C 1024.8027,120.4714 1000.2741,138.64315 1000.2741,161.19156 H 1109.7139 C 1109.6595,138.64385 1085.1581,120.4714 1054.9395,120.4714 Z"
      fill="#a0a0a0"
      stroke-width="1"
    />
    <path
      id="path107-4-1"
      d="M 1054.9395,201.71728 C 1085.1307,201.71728 1109.7139,183.54553 1109.7139,161.08014 H 1000.2741 C 1000.3013,183.54683 1024.7483,201.71728 1054.9395,201.71728 Z"
      fill="#565656"
      stroke-width="1"
    />
    <ellipse
      id="ellipse109-0-5"
      ry="31.523512"
      cx="-1054.9669"
      rx="42.414795"
      cy="-161.08133"
      transform="scale(-1)"
      fill="#383838"
      stroke-width="0"
    />
    <polygon
      points="17.2599,103.271 18.1175,96.0569 80.8004,96.9431 79.9292,104.157 76.989,103.271 67.0115,116.467 30.8446,116.467 21.8335,103.631 "
      id="polygon111-0-7"
      transform="matrix(-1.9999998,0,0,-2.0004894,1152.9999,412.93695)"
      fill="#919291"
      stroke-width="0.49993888"
    />
    <path
      id="path113-7-9"
      d="M 994.88372,217.23047 V 208.1169 L 998.99452,208.11684 H 1000.7641 L 1001.7715,206.67649 1019.8209,181.71838 H 1089.5683 L 1107.9173,206.7045 1108.9789,208.11684 H 1110.6941 1114.9681 V 217.23047 H 994.88372 M 991.39912,220.77614 H 1118.4801 V 204.57116 H 1110.7213 L 1091.3107,178.1723 H 1018.1329 L 999.049,204.57116 H 991.45354 Z"
      fill="#57585a"
      stroke-width="1"
    />
    <rect
      id="rect119-6-8"
      height="41.6898"
      y="-114.65398"
      width="57.006798"
      x="-1083.4429"
      transform="scale(-1)"
      fill="#8c8c8c"
      stroke-width="0"
    />
    <polygon
      id="polygon4"
      points="217.113,0 0,217.113 0,782.747 217.113,1000 782.747,1000 1000,782.747 1000,217.113 782.747,0 "
      transform="matrix(0.09999999,0,0,0.09999999,1402.9999,346.93695)"
      fill="#404040"
    />
    <rect
      id="rect8"
      y="380.98325"
      width="31.921097"
      height="31.921097"
      x="1437.0461"
      fill="#8d8c8c"
      stroke-width="0.09999999"
    />
    <rect
      id="rect10"
      y="388.73434"
      width="16.418898"
      height="16.418898"
      x="1444.7972"
      fill="#8c8663"
      stroke-width="0.09999999"
    />
    <polygon
      id="polygon12"
      points="340.463,340.463 417.974,417.974 582.025,417.974 659.674,340.463 "
      transform="matrix(0.09999999,0,0,0.09999999,1402.9999,346.93695)"
      fill="#b8af82"
    />
    <polygon
      id="polygon14"
      points="582.025,582.025 582.025,417.974 659.674,340.463 659.674,659.674 "
      transform="matrix(0.09999999,0,0,0.09999999,1402.9999,346.93695)"
      fill="#80795b"
    />
    <polygon
      id="polygon16"
      points="417.974,582.025 582.025,582.025 659.674,659.674 340.463,659.674 "
      transform="matrix(0.09999999,0,0,0.09999999,1402.9999,346.93695)"
      fill="#5e5b43"
    />
    <polygon
      id="polygon18"
      points="340.463,340.463 417.974,417.974 417.974,582.025 340.463,659.674 "
      transform="matrix(0.09999999,0,0,0.09999999,1402.9999,346.93695)"
      fill="#9a916c"
    />
    <polygon
      id="polygon20"
      points="1217.11,0 1000,217.113 1000,782.747 1217.11,1000 1782.75,1000 2000,782.747 2000,217.113 1782.75,0 "
      transform="matrix(0.09999999,0,0,0.09999999,1402.9999,346.93695)"
      fill="#404040"
    />
    <rect
      id="rect24"
      y="380.98325"
      width="31.921097"
      height="31.921097"
      x="1537.0459"
      fill="#8d8c8c"
      stroke-width="0.09999999"
    />
    <rect
      id="rect26"
      y="388.73434"
      width="16.418898"
      height="16.418898"
      x="1544.7969"
      fill="#8c8663"
      stroke-width="0.09999999"
    />
    <polygon
      id="polygon28"
      points="1340.46,340.463 1417.97,417.974 1582.03,417.974 1659.67,340.463 "
      transform="matrix(0.09999999,0,0,0.09999999,1402.9999,346.93695)"
      fill="#b8af82"
    />
    <polygon
      id="polygon30"
      points="1582.03,582.025 1582.03,417.974 1659.67,340.463 1659.67,659.674 "
      transform="matrix(0.09999999,0,0,0.09999999,1402.9999,346.93695)"
      fill="#80795b"
    />
    <polygon
      id="polygon32"
      points="1417.97,582.025 1582.03,582.025 1659.67,659.674 1340.46,659.674 "
      transform="matrix(0.09999999,0,0,0.09999999,1402.9999,346.93695)"
      fill="#5e5b43"
    />
    <polygon
      id="polygon34"
      points="1340.46,340.463 1417.97,417.974 1417.97,582.025 1340.46,659.674 "
      transform="matrix(0.09999999,0,0,0.09999999,1402.9999,346.93695)"
      fill="#9a916c"
    />
    <polygon
      id="polygon4-0"
      points="0,217.113 0,782.747 217.113,1000 782.747,1000 1000,782.747 1000,217.113 782.747,0 217.113,0 "
      transform="matrix(0.09999999,0,0,0.09999999,1402.9999,446.93695)"
      fill="#404040"
    />
    <rect
      id="rect8-4"
      y="480.98325"
      width="31.921097"
      height="31.921097"
      x="1437.0461"
      fill="#8d8c8c"
      stroke-width="0.09999999"
    />
    <rect
      id="rect10-9"
      y="488.73434"
      width="16.418898"
      height="16.418898"
      x="1444.7972"
      fill="#8c8663"
      stroke-width="0.09999999"
    />
    <polygon
      id="polygon12-3"
      points="417.974,417.974 582.025,417.974 659.674,340.463 340.463,340.463 "
      transform="matrix(0.09999999,0,0,0.09999999,1402.9999,446.93695)"
      fill="#b8af82"
    />
    <polygon
      id="polygon14-5"
      points="582.025,417.974 659.674,340.463 659.674,659.674 582.025,582.025 "
      transform="matrix(0.09999999,0,0,0.09999999,1402.9999,446.93695)"
      fill="#80795b"
    />
    <polygon
      id="polygon16-1"
      points="582.025,582.025 659.674,659.674 340.463,659.674 417.974,582.025 "
      transform="matrix(0.09999999,0,0,0.09999999,1402.9999,446.93695)"
      fill="#5e5b43"
    />
    <polygon
      id="polygon18-5"
      points="417.974,417.974 417.974,582.025 340.463,659.674 340.463,340.463 "
      transform="matrix(0.09999999,0,0,0.09999999,1402.9999,446.93695)"
      fill="#9a916c"
    />
    <polygon
      id="polygon20-9"
      points="1000,217.113 1000,782.747 1217.11,1000 1782.75,1000 2000,782.747 2000,217.113 1782.75,0 1217.11,0 "
      transform="matrix(0.09999999,0,0,0.09999999,1402.9999,446.93695)"
      fill="#404040"
    />
    <rect
      id="rect24-3"
      y="480.98325"
      width="31.921097"
      height="31.921097"
      x="1537.0459"
      fill="#8d8c8c"
      stroke-width="0.09999999"
    />
    <rect
      id="rect26-1"
      y="488.73434"
      width="16.418898"
      height="16.418898"
      x="1544.7969"
      fill="#8c8663"
      stroke-width="0.09999999"
    />
    <polygon
      id="polygon28-5"
      points="1417.97,417.974 1582.03,417.974 1659.67,340.463 1340.46,340.463 "
      transform="matrix(0.09999999,0,0,0.09999999,1402.9999,446.93695)"
      fill="#b8af82"
    />
    <polygon
      id="polygon30-8"
      points="1582.03,417.974 1659.67,340.463 1659.67,659.674 1582.03,582.025 "
      transform="matrix(0.09999999,0,0,0.09999999,1402.9999,446.93695)"
      fill="#80795b"
    />
    <polygon
      id="polygon32-9"
      points="1582.03,582.025 1659.67,659.674 1340.46,659.674 1417.97,582.025 "
      transform="matrix(0.09999999,0,0,0.09999999,1402.9999,446.93695)"
      fill="#5e5b43"
    />
    <polygon
      id="polygon34-8"
      points="1417.97,417.974 1417.97,582.025 1340.46,659.674 1340.46,340.463 "
      transform="matrix(0.09999999,0,0,0.09999999,1402.9999,446.93695)"
      fill="#9a916c"
    />
    <path
      gorn="0.2.0.21.0"
      d="M 909.88736,410.22997 H 857.33571 L 857.33574,382.79769 891.82297,383.10408 891.82298,223.19009 H 834.34423 L 834.3442,195.75795 854.05026,195.75781 V 155.85561 H 909.88736 V 410.22985 Z"
      id="path2019-5"
      fill="#ffffff"
      stroke-width="10.41666985"
    />
    <path
      gorn="0.2.0.21.1"
      d="M 632.01718,410.22997 H 579.46553 L 579.46559,155.85588 635.30156,155.85575 635.30162,195.75811 H 655.00875 L 655.00869,223.19039 597.52997,223.19026 597.52998,382.79769 H 632.0172 Z"
      id="path2021-3"
      fill="#ffffff"
      stroke-width="10.41666985"
    />
    <path
      gorn="0.2.0.21.2"
      d="M 632.01718,410.22997 632.0172,382.79769 H 857.33574 L 857.33571,410.22997 Z"
      id="path2023-6"
      fill="#ffffff"
      stroke-width="10.41666985"
    />
    <path
      gorn="0.2.0.21.3"
      d="M 802.15571,195.75811 H 834.3442 L 834.34423,223.19026 655.00869,223.19039 655.00875,195.75811 H 687.19719 Z"
      id="path2025-7"
      fill="#ffffff"
      stroke-width="10.41666985"
    />
    <path
      gorn="0.2.0.21.4"
      d="M 802.15572,153.36189 802.15571,195.75811 H 687.19719 V 153.36189 Z"
      id="path2027-5"
      fill="#dbdbdb"
      stroke-width="10.41666985"
    />
    <path
      gorn="0.2.0.21.5"
      d="M 857.33571,410.22997 H 909.88736"
      stroke-miterlimit="10"
      id="path2029-0"
      fill="none"
      stroke="#000000"
      stroke-width="1.14741719"
    />
    <path
      gorn="0.2.0.21.6"
      d="M 857.33571,410.22997 857.33574,382.79769"
      stroke-miterlimit="10"
      id="path2031-9"
      fill="none"
      stroke="#000000"
      stroke-width="1.14741719"
    />
    <path
      gorn="0.2.0.21.7"
      d="M 891.82297,383.10424 857.33574,382.79787"
      stroke-miterlimit="10"
      id="path2033-7"
      fill="none"
      stroke="#000000"
      stroke-width="1.14741719"
    />
    <path
      gorn="0.2.0.21.8"
      d="M 891.82298,223.19026 891.82297,383.10424"
      stroke-miterlimit="10"
      id="path2035-2"
      fill="none"
      stroke="#000000"
      stroke-width="1.14741719"
    />
    <path
      gorn="0.2.0.21.9"
      d="M 834.34423,223.19026 834.3442,195.75811"
      stroke-miterlimit="10"
      id="path2037-8"
      fill="none"
      stroke="#000000"
      stroke-width="1.14741719"
    />
    <path
      gorn="0.2.0.21.10"
      d="M 854.05026,195.75798 834.3442,195.75811"
      stroke-miterlimit="10"
      id="path2039-2"
      fill="none"
      stroke="#000000"
      stroke-width="1.14741719"
    />
    <path
      gorn="0.2.0.21.11"
      d="M 632.01718,410.22997 H 857.33571"
      stroke-miterlimit="10"
      id="path2041-1"
      fill="none"
      stroke="#000000"
      stroke-width="1.14741719"
    />
    <path
      gorn="0.2.0.21.12"
      d="M 834.3442,195.75811 H 802.15571"
      stroke-miterlimit="10"
      id="path2043-0"
      fill="none"
      stroke="#000000"
      stroke-width="1.14741719"
    />
    <path
      gorn="0.2.0.21.13"
      d="M 909.88735,155.85588 854.05025,155.85575"
      stroke-miterlimit="10"
      id="path2045-9"
      fill="none"
      stroke="#000000"
      stroke-width="1.14741719"
    />
    <path
      gorn="0.2.0.21.14"
      d="M 854.05026,195.75798 854.05025,155.85575"
      stroke-miterlimit="10"
      id="path2047-8"
      fill="none"
      stroke="#000000"
      stroke-width="1.14741719"
    />
    <path
      gorn="0.2.0.21.15"
      d="M 802.15571,195.75811 802.15572,153.36189"
      stroke-miterlimit="10"
      id="path2049-2"
      fill="none"
      stroke="#000000"
      stroke-width="1.14741719"
    />
    <path
      gorn="0.2.0.21.16"
      d="M 597.52998,382.79769 597.52997,223.19026"
      stroke-miterlimit="10"
      id="path2051-3"
      fill="none"
      stroke="#000000"
      stroke-width="1.14741719"
    />
    <path
      gorn="0.2.0.21.17"
      d="M 632.0172,382.79769 H 597.52998"
      stroke-miterlimit="10"
      id="path2053-8"
      fill="none"
      stroke="#000000"
      stroke-width="1.14741719"
    />
    <path
      gorn="0.2.0.21.18"
      d="M 632.01718,410.22997 632.0172,382.79769"
      stroke-miterlimit="10"
      id="path2055-8"
      fill="none"
      stroke="#000000"
      stroke-width="1.14741719"
    />
    <path
      gorn="0.2.0.21.19"
      d="M 632.01718,410.22997 H 579.46553"
      stroke-miterlimit="10"
      id="path2057-5"
      fill="none"
      stroke="#000000"
      stroke-width="1.14741719"
    />
    <path
      gorn="0.2.0.21.20"
      d="M 635.30162,195.75811 H 655.00875"
      stroke-miterlimit="10"
      id="path2059-0"
      fill="none"
      stroke="#000000"
      stroke-width="1.14741719"
    />
    <path
      gorn="0.2.0.21.21"
      d="M 655.00875,195.75811 655.00869,223.19039"
      stroke-miterlimit="10"
      id="path2061-4"
      fill="none"
      stroke="#000000"
      stroke-width="1.14741719"
    />
    <path
      gorn="0.2.0.21.22"
      d="M 655.00875,195.75811 H 687.19719"
      stroke-miterlimit="10"
      id="path2063-8"
      fill="none"
      stroke="#000000"
      stroke-width="1.14741719"
    />
    <path
      gorn="0.2.0.21.23"
      d="M 579.46559,155.85588 635.30156,155.85575"
      stroke-miterlimit="10"
      id="path2065-8"
      fill="none"
      stroke="#000000"
      stroke-width="1.14741719"
    />
    <path
      gorn="0.2.0.21.24"
      d="M 635.30162,195.75811 635.30156,155.85575"
      stroke-miterlimit="10"
      id="path2067-6"
      fill="none"
      stroke="#000000"
      stroke-width="1.14741719"
    />
    <path
      gorn="0.2.0.21.25"
      d="M 687.19719,195.75811 V 153.36189"
      stroke-miterlimit="10"
      id="path2069-2"
      fill="none"
      stroke="#000000"
      stroke-width="1.14741719"
    />
    <path
      gorn="0.2.0.21.26"
      d="M 909.88735,155.85588 909.88736,410.22997"
      stroke-miterlimit="10"
      id="path2071-1"
      fill="none"
      stroke="#000000"
      stroke-width="1.14741719"
    />
    <path
      gorn="0.2.0.21.27"
      d="M 802.15571,195.75811 H 687.19719"
      stroke-miterlimit="10"
      id="path2073-1"
      fill="none"
      stroke="#000000"
      stroke-width="1.14741719"
    />
    <path
      gorn="0.2.0.21.28"
      d="M 579.46553,410.22997 579.46559,155.85588"
      stroke-miterlimit="10"
      id="path2075-5"
      fill="none"
      stroke="#000000"
      stroke-width="1.14741719"
    />
    <path
      gorn="0.2.0.21.29"
      d="M 857.33574,382.79769 H 632.0172"
      stroke-miterlimit="10"
      id="path2077-8"
      fill="none"
      stroke="#000000"
      stroke-width="1.14741719"
    />
    <path
      gorn="0.2.0.21.30"
      d="M 597.52997,223.19026 655.00869,223.19039 834.34423,223.19026 H 891.82298 L 891.82297,383.10424 857.33574,382.79787 H 632.01719 597.52995 L 597.52996,223.19056 Z M 835.00022,290.52477 835.00021,315.46172 851.42306,315.46157 851.42307,290.52477 Z M 654.3527,315.46157 654.35272,290.52477 637.92996,290.5249 637.92993,315.46172 Z"
      id="path2079-8"
      fill="#ffffff"
      stroke-width="10.41666985"
    />
    <rect
      id="rect10603"
      width="30.444445"
      height="160.52525"
      x="-1049.0992"
      y="-1448.7083"
      transform="scale(-1)"
      fill="#cccccc"
      stroke-width="0"
    />
    <rect
      y="-1448.7083"
      x="-1114.7242"
      height="160.52525"
      width="30.444445"
      id="rect10601"
      transform="scale(-1)"
      fill="#cccccc"
      stroke-width="0"
    />
    <rect
      id="rect10599"
      width="30.444445"
      height="160.52525"
      x="-1183.4742"
      y="-1448.7083"
      transform="scale(-1)"
      fill="#cccccc"
      stroke-width="0"
    />
    <rect
      y="-1448.7083"
      x="-1252.2238"
      height="160.52525"
      width="30.444445"
      id="rect10597"
      transform="scale(-1)"
      fill="#cccccc"
      stroke-width="0"
    />
    <rect
      id="rect10595"
      width="30.444445"
      height="160.52525"
      x="-1311.6993"
      y="-1448.7083"
      transform="scale(-1)"
      fill="#cccccc"
      stroke-width="0"
    />
    <rect
      id="rect10593"
      width="401.31314"
      height="440.06061"
      x="-1367.0529"
      y="-1296.486"
      transform="scale(-1)"
      fill="#1a1a1a"
      stroke-width="0"
    />
    <rect
      height="54.611698"
      width="135.77081"
      y="1213.1787"
      x="512.15753"
      connectorname="2"
      id="rect925"
      fill="#b3b3b3"
      stroke="none"
      stroke-width="0"
      stroke-linecap="round"
    />
    <rect
      height="54.623951"
      width="135.76251"
      y="871.95709"
      x="512.16333"
      connectorname="7"
      id="rect935"
      fill="#b3b3b3"
      stroke="none"
      stroke-width="0"
      stroke-linecap="round"
    />
    <rect
      height="254.37064"
      width="300.90958"
      y="943.80414"
      x="449.74695"
      connectorname="EP"
      id="rect939"
      fill="#c8beb7"
      stroke="#917c6f"
      stroke-width="0"
      stroke-linecap="round"
    />
    <rect
      height="336.29895"
      width="395.83328"
      y="902.84045"
      x="389.72736"
      id="rect941"
      fill="#cccccc"
      stroke="none"
      stroke-width="0"
    />
    <polygon
      points="0,46.9016 134.654,46.9016 124.654,56.9016 10,56.9016 "
      id="polygon943"
      transform="matrix(2.9396323,0,0,2.4850103,389.72732,786.2895)"
      fill="#803300"
      stroke-width="0.48263085"
    />
    <polygon
      points="10,172.232 0,182.232 134.654,182.232 124.654,172.232 "
      id="polygon945"
      transform="matrix(2.9396323,0,0,2.4850103,389.72732,786.2895)"
      fill="#784421"
      stroke-width="0.48263085"
    />
    <polygon
      points="0,46.9016 0,182.232 10,172.232 10,56.9016 "
      id="polygon947"
      transform="matrix(2.9396323,0,0,2.4850103,389.72732,786.2895)"
      fill="#a05a2c"
      stroke-width="0.48263085"
    />
    <polygon
      points="124.654,56.9016 134.654,46.9016 134.654,182.232 124.654,172.232 "
      id="polygon949"
      transform="matrix(2.9396323,0,0,2.4850103,389.72732,786.2895)"
      fill="#a05a2c"
      stroke-width="0.48263085"
    />
    <rect
      id="rect35"
      x="114.98339"
      width="152.4436"
      y="902.65363"
      height="167.13432"
      fill="#999999"
      stroke-width="13.88889217"
    />
    <polygon
      id="polygon37"
      points="12.182,4.014 9.995,4.014 9.995,8.652 5.357,8.652 5.357,10.837 9.995,10.837 9.995,15.476 12.182,15.476 12.182,10.837 16.818,10.837 16.818,8.652 12.182,8.652 "
      transform="matrix(10.519156,0,0,10.491797,72.770017,886.22347)"
      fill="#333333"
      stroke-width="1.32206321"
    />
    <polygon
      id="polygon39"
      points="9.995,4.014 10.511,4.014 10.511,9.189 5.357,9.189 5.357,8.652 9.995,8.652 "
      transform="matrix(10.519156,0,0,10.491797,72.770017,886.22347)"
      fill="#1a1a1a"
      stroke-width="1.32206321"
    />
    <polygon
      id="polygon41"
      points="10.511,14.839 10.511,11.481 9.995,10.837 9.995,14.839 "
      transform="matrix(10.519156,0,0,10.491797,72.770017,886.22347)"
      fill="#1a1a1a"
      stroke-width="1.32206321"
    />
    <polygon
      id="polygon43"
      points="16.039,9.171 12.68,9.171 12.18,8.655 16.039,8.655 "
      transform="matrix(10.519156,0,0,10.491797,72.770017,886.22347)"
      fill="#1a1a1a"
      stroke-width="1.32206321"
    />
    <path
      id="path45"
      d="M 72.770017,885.71986 V 1091.1807 H 306.04282 V 885.71986 Z M 189.40642,1036.1093 C 163.01386,1036.1093 141.62841,1014.7795 141.62841,988.45554 141.62841,962.12113 163.01386,940.8018 189.40642,940.8018 215.8095,940.8018 237.18443,962.12113 237.18443,988.45554 237.18443,1014.7795 215.8095,1036.1093 189.40642,1036.1093 Z"
      fill="#3250be"
      stroke-width="13.88889217"
    />
    <ellipse
      id="circle47"
      cy="1046.1394"
      cx="95.501915"
      rx="4.4180455"
      ry="4.4065547"
      fill="#e6e6e6"
      stroke-width="13.88889217"
    />
    <ellipse
      id="circle49"
      cy="1046.1394"
      cx="95.501915"
      rx="4.4180455"
      ry="4.4065547"
      fill="#e6e6e6"
      stroke-width="13.88889217"
    />
    <ellipse
      id="circle51"
      cy="1046.1394"
      cx="95.512428"
      rx="4.4180455"
      ry="4.4065547"
      fill="#b3b3b3"
      stroke-width="13.88889217"
    />
    <path
      id="path53"
      d="M 92.388243,1049.266 C 90.652582,1047.5453 90.663101,1044.744 92.388243,1043.0234 94.113385,1041.3027 96.900961,1041.3027 98.636622,1043.0234 100.36176,1044.744 96.343446,1039.8129 93.261333,1044.0411 90.095067,1048.3427 94.102865,1050.9867 92.388243,1049.266 Z"
      fill="#e6e6e6"
      stroke-width="13.88889217"
    />
    <path
      id="path55"
      d="M 98.626102,1043.0339 C 100.36176,1044.7545 100.35124,1047.5558 98.626102,1049.2765 96.900961,1050.9971 94.113385,1050.9971 92.377724,1049.2765 90.663101,1047.5663 94.681419,1052.4765 97.763532,1048.2693 100.91928,1043.9467 96.91148,1041.3027 98.626102,1043.0339 Z"
      fill="#808080"
      stroke-width="13.88889217"
    />
    <ellipse
      id="circle57"
      cy="955.70013"
      cx="157.3756"
      rx="4.4180455"
      ry="4.4065547"
      fill="#333333"
      stroke-width="13.88889217"
    />
    <ellipse
      id="circle59"
      cy="955.70013"
      cx="222.23669"
      rx="4.4180455"
      ry="4.4065547"
      fill="#333333"
      stroke-width="13.88889217"
    />
    <path
      d="M 152.96806,957.96638 131.05666,943.34081 125.19749,952.0595 147.12993,966.69555 C 148.7604,963.55851 150.70644,960.65228 152.96806,957.96638 Z"
      id="path63"
      fill="#263c8f"
      stroke-width="13.88889217"
    />
    <path
      d="M 189.40642,940.8018 C 191.05793,940.8018 192.61476,941.11655 194.22419,941.28442 L 193.85602,902.63264 183.33687,902.74805 183.70504,941.37885 C 185.59848,941.15852 187.44986,940.8018 189.40642,940.8018 Z"
      id="path65"
      fill="#263c8f"
      stroke-width="13.88889217"
    />
    <path
      d="M 170.54557,944.69425 158.4801,923.41689 149.32843,928.57885 161.4465,949.96114 C 164.28667,947.90474 167.28463,946.08966 170.54557,944.69425 Z"
      id="path67"
      fill="#263c8f"
      stroke-width="13.88889217"
    />
    <path
      d="M 237.18443,988.45554 C 237.18443,988.8962 237.06871,989.28439 237.04768,989.73554 L 262.9248,987.46931 261.9886,977.01948 236.25874,979.27522 C 236.84781,982.25489 237.18443,985.31849 237.18443,988.45554 Z"
      id="path69"
      fill="#263c8f"
      stroke-width="13.88889217"
    />
    <path
      d="M 216.71415,949.42606 228.20107,928.43197 218.95473,923.41689 207.48885,944.38999 C 210.74979,945.72245 213.8319,947.42212 216.71415,949.42606 Z"
      id="path71"
      fill="#263c8f"
      stroke-width="13.88889217"
    />
    <path
      d="M 231.76706,966.87391 252.26889,953.28704 246.4518,944.54737 225.94997,958.12375 C 228.21159,960.80965 230.15763,963.71588 231.76706,966.87391 Z"
      id="path73"
      fill="#263c8f"
      stroke-width="13.88889217"
    />
    <path
      d="M 231.27266,1010.9919 258.09651,1021.704 261.9886,1011.9572 235.21734,1001.2555 C 234.2601,1004.6759 232.94521,1007.9178 231.27266,1010.9919 Z"
      id="path75"
      fill="#263c8f"
      stroke-width="13.88889217"
    />
    <path
      d="M 217.76606,1026.6247 248.95536,1059.9676 256.62383,1052.8017 225.41349,1019.4273 C 223.13083,1022.1027 220.61675,1024.5368 217.76606,1026.6247 Z"
      id="path77"
      fill="#263c8f"
      stroke-width="13.88889217"
    />
    <path
      d="M 153.19948,1019.2385 131.15133,1042.5512 138.80928,1049.7486 160.84691,1026.4673 C 158.01726,1024.3375 155.49266,1021.9244 153.19948,1019.2385 Z"
      id="path79"
      fill="#263c8f"
      stroke-width="13.88889217"
    />
    <path
      d="M 141.62841,988.45554 C 141.62841,985.12964 141.97554,981.89817 142.62773,978.75063 L 114.74145,976.03325 113.72109,986.4621 141.71257,989.22144 C 141.70205,988.95915 141.62841,988.72833 141.62841,988.45554 Z"
      id="path81"
      fill="#263c8f"
      stroke-width="13.88889217"
    />
    <path
      d="M 143.33252,1000.4057 114.99391,1011.1178 118.71769,1020.9486 147.12993,1010.2365 C 145.50998,1007.11 144.21612,1003.847 143.33252,1000.4057 Z"
      id="path83"
      fill="#263c8f"
      stroke-width="13.88889217"
    />
    <polygon
      id="polygon85"
      points="16.529,10.837 12.182,10.837 12.182,14.628 12.307,14.628 12.316,10.982 16.529,10.964 "
      transform="matrix(10.519156,0,0,10.491797,72.770017,886.22347)"
      fill="#cccccc"
      stroke-width="1.32206321"
    />
    <path
      id="path87"
      d="M 189.40642,927.93885 C 155.88187,927.93885 128.71089,955.03917 128.71089,988.48702 128.71089,1021.9349 155.88187,1049.0352 189.40642,1049.0352 222.94149,1049.0352 250.10195,1021.9349 250.10195,988.48702 250.09143,955.02867 222.90993,927.93885 189.40642,927.93885 Z M 189.40642,1036.1093 C 163.01386,1036.1093 141.62841,1014.7795 141.62841,988.45554 141.62841,962.12113 163.01386,940.8018 189.40642,940.8018 215.8095,940.8018 237.18443,962.12113 237.18443,988.45554 237.18443,1014.7795 215.8095,1036.1093 189.40642,1036.1093 Z"
      fill="#263c8f"
      stroke-width="13.88889217"
    />
    <path
      d="M 226.82306,1034.6299 226.00256,1035.2909 C 215.42029,1043.527 202.76575,1047.8706 189.40642,1047.8706 175.92086,1047.8706 163.17164,1043.4535 152.55782,1035.0811 L 151.73732,1034.4201 138.75668,1048.1539 132.76076,1042.5093 145.7414,1028.786 145.04714,1028.0096 C 141.36543,1023.8863 138.2728,1019.3014 135.86391,1014.3388 L 135.41159,1013.405 119.36988,1019.4483 116.44555,1011.7683 132.44519,1005.725 132.16117,1004.7283 C 130.62537,999.31455 129.84696,993.86931 129.84696,988.46603 V 987.44833 L 128.85816,986.80833 114.96235,985.44439 115.77233,977.26079 130.68849,978.74014 130.87783,977.70145 C 132.03494,971.37489 134.15981,965.39457 137.16829,959.93884 L 137.66269,959.03654 126.77536,951.74474 131.36172,944.90409 142.27008,952.1854 142.92227,951.36704 C 146.59345,946.82409 150.87475,942.83721 155.66097,939.53229 L 156.51302,938.93426 150.87475,929.00902 158.04881,924.94869 163.6976,934.90541 164.64433,934.48574 C 170.7244,931.69492 177.14108,929.96377 183.684,929.34476 L 184.72539,929.25033 184.48345,903.88116 192.73047,903.78674 192.97241,929.20836 194.01381,929.30279 C 200.72503,929.81689 207.19431,931.42213 213.26386,934.05557 L 214.21059,934.47524 219.40705,924.96968 226.65475,928.89361 221.43725,938.40967 222.31034,938.98672 C 227.49628,942.42803 232.12471,946.64573 236.02732,951.58737 L 236.69002,952.40573 246.14675,946.12114 250.72258,952.96179 241.26586,959.2149 241.7813,960.12769 C 244.80029,965.67785 246.91464,971.82604 248.06123,978.33096 L 248.2611,979.36964 261.02083,978.26801 261.72562,986.45161 248.96588,987.56374 248.94484,988.59193 C 248.93432,994.45685 248.07175,1000.2378 246.35713,1005.809 L 246.05207,1006.8162 260.53695,1012.5972 257.47588,1020.2352 242.9384,1014.4332 242.46504,1015.3565 C 240.09823,1019.9834 237.10027,1024.327 233.53428,1028.2614 L 232.84001,1029.0168 255.03543,1052.7598 249.00796,1058.3834 Z"
      id="path91"
      fill="none"
      stroke="#000000"
      stroke-width="2.77777839"
    />
    <text
      y="1084.2969"
      x="94.399582"
      font-size="42.02186966"
      id="text95"
      transform="scale(1.001303,0.99869871)"
      font-family="OCRA"
      fill="#263c8f"
      stroke-width="13.88889217">1 3362 3</text>
    <path
      id="path97"
      enable-background="new    "
      d="M 144.91039,992.20111 C 144.91039,965.8667 166.29583,944.54737 192.6884,944.54737 202.5764,944.54737 216.11456,948.95392 216.11456,948.95392 208.48817,943.81294 199.28391,940.82278 189.40642,940.82278 163.01386,940.82278 141.62841,962.14211 141.62841,988.47652 141.62841,995.34865 143.09057,1001.8955 145.73088,1007.8234 145.73088,1007.8024 144.91039,999.07324 144.91039,992.20111 Z"
      opacity="0.35"
      stroke-width="13.88889217"
    />
    <rect
      height="68.060287"
      y="1091.1912"
      width="233.27281"
      id="rect99-0"
      x="72.77002"
      fill="#131e48"
      stroke-width="13.88889217"
    />
    <rect
      height="11.058354"
      y="1085.83"
      width="233.27281"
      enable-background="new    "
      id="rect101-6"
      x="72.77002"
      opacity="0.18000004"
      fill="#ffffff"
      stroke-width="13.88889217"
    />
    <ellipse
      cx="229.54782"
      ry="51.111038"
      rx="98.419991"
      cy="1572.4653"
      id="ellipse12"
      fill="#0d0033"
      stroke-width="9.99999905"
    />
    <rect
      width="196.78999"
      y="1562.0413"
      height="10.416591"
      id="rect14"
      x="131.10782"
      fill="#0d0033"
      stroke-width="9.99999905"
    />
    <ellipse
      cx="229.54782"
      ry="51.125874"
      rx="98.419991"
      cy="1564.1854"
      id="ellipse16"
      fill="#100040"
      stroke-width="9.99999905"
    />
    <ellipse
      cx="229.54782"
      ry="51.125874"
      rx="98.419991"
      cy="1528.6548"
      id="ellipse18"
      fill="#0d0033"
      stroke-width="9.99999905"
    />
    <rect
      width="196.85999"
      y="1347.8705"
      height="180.78424"
      id="rect20"
      x="131.10782"
      fill="#0d0033"
      stroke-width="9.99999905"
    />
    <ellipse
      cx="229.54782"
      ry="51.125874"
      rx="98.419991"
      cy="1347.8632"
      id="ellipse22"
      fill="#0d0033"
      stroke-width="9.99999905"
    />
    <ellipse
      cx="229.54782"
      ry="47.356907"
      rx="91.159996"
      cy="1343.3374"
      id="ellipse24"
      fill="#100040"
      stroke-width="9.99999905"
    />
    <ellipse
      cx="229.54782"
      ry="34.70713"
      rx="66.82"
      cy="1340.5997"
      id="ellipse26"
      fill="#b2b2b2"
      stroke-width="9.99999905"
    />
    <path
      d="M 150.32782,1317.5185 C 138.26782,1326.0061 131.10782,1336.5117 131.10782,1347.8705 V 1376.1081 H 144.27782 V 1373.3927 L 144.42782,1372.3615 C 144.42782,1372.3615 144.42782,1372.8881 144.42782,1370.9816 144.42782,1367.5613 146.61782,1365.3652 150.31782,1364.2746 153.88782,1363.221 153.62782,1344.532 153.62782,1344.532 Z"
      id="path28"
      fill="#d2eeff"
      stroke-width="9.99999905"
    />
    <path
      d="M 162.73782,1340.5997 C 162.73782,1334.4343 165.83782,1328.677 171.23782,1323.669 L 150.32782,1317.4888 C 142.74782,1324.3961 138.37782,1332.3644 138.37782,1340.8742 138.37782,1349.3841 142.75782,1357.3671 150.32782,1364.267 L 171.73782,1357.9458 C 166.04782,1352.8488 162.73782,1346.9209 162.73782,1340.5997 Z"
      id="path30"
      fill="#d2eeff"
      stroke-width="9.99999905"
    />
    <rect
      width="13.319999"
      y="1372.3613"
      height="156.28596"
      id="rect32"
      x="131.10782"
      fill="#d2eeff"
      stroke-width="9.99999905"
    />
    <rect
      width="13.319999"
      y="1494.4967"
      height="16.811962"
      id="rect34"
      x="131.10782"
      fill="#d2eeff"
      stroke-width="9.99999905"
    />
    <path
      d="M 131.10782,1564.178 V 1572.443 C 131.10782,1581.7987 135.96782,1590.5534 144.42782,1598.0987 V 1589.8411 1546.7651 1538.5075 C 135.96782,1546.0825 131.10782,1554.8298 131.10782,1564.178 Z"
      id="path36"
      fill="#d2eeff"
      stroke-width="9.99999905"
    />
    <path
      d="M 144.42782,1502.9843 C 135.96782,1510.5296 131.10782,1519.2917 131.10782,1528.6548 131.10782,1538.0178 135.96782,1546.7577 144.42782,1554.3105 Z"
      id="path38"
      fill="#d2eeff"
      stroke-width="9.99999905"
    />
    <path
      d="M 144.42782,1594.1443 C 144.42782,1594.1443 144.42782,1592.245 144.42782,1589.8485 144.42782,1587.4447 145.11782,1579.1278 146.22782,1575.4256 148.02782,1569.3047 151.84782,1565.0906 151.84782,1558.621 151.84782,1556.4398 150.17782,1553.3682 147.67782,1551.5134 145.20782,1549.6809 144.36782,1546.8022 144.36782,1543.8048 144.36782,1540.8001 144.36782,1536.9643 144.36782,1536.9643 L 138.66782,1537.1045 139.28782,1589.7959 Z"
      id="path40"
      fill="#d2eeff"
      stroke-width="9.99999905"
    />
    <path
      d="M 229.54781,1307.5322 C 265.92781,1307.5322 295.43781,1322.6378 296.28781,1341.4232 296.29781,1341.1414 296.39781,1340.8742 296.39781,1340.5996 296.39781,1321.4283 266.46781,1305.8925 229.56781,1305.8925 192.68781,1305.8925 162.75782,1321.4283 162.75782,1340.5996 162.75782,1340.8742 162.82782,1341.1412 162.84782,1341.4232 163.64782,1322.6378 193.16781,1307.5322 229.54781,1307.5322 Z"
      id="path42"
      opacity="0.35"
      stroke-width="9.99999905"
    />
    <path
      d="M 258.29781,1399.538 V 1479.7547 1541.2081 C 258.29781,1541.2081 258.29781,1572.7101 258.29781,1573.9714 258.29781,1575.2178 257.73781,1576.2639 257.05781,1577.2359 256.24781,1578.3637 254.40781,1580.1368 254.40781,1580.1368 280.62781,1575.9672 303.67781,1564.727 315.56781,1552.1292 316.38781,1551.3503 317.24781,1549.6957 317.53781,1548.9835 317.82781,1548.249 317.94781,1547.5367 317.94781,1547.5367 V 1541.2081 1506.2042 1373.1033 C 306.07781,1385.716 284.49781,1395.3833 258.29781,1399.538 Z"
      id="path44"
      opacity="0.35"
      stroke-width="9.99999905"
    />
    <path
      d="M 316.42781,1581.9025 C 315.50781,1580.0774 312.86781,1577.7775 312.86781,1577.7775 300.98781,1590.3753 280.25781,1597.0971 254.04781,1601.237 254.04781,1601.237 256.39781,1604.2047 257.43781,1606.7421 258.43781,1609.2646 258.31781,1613.0781 258.31781,1613.0781 V 1621.3506 C 284.52781,1617.2032 306.11781,1607.5137 317.97781,1594.9233 317.97781,1594.9233 317.97781,1589.166 317.97781,1587.6524 317.97781,1585.9386 317.20781,1583.4012 316.42781,1581.9025 Z"
      id="path46-6"
      opacity="0.35"
      stroke-width="9.99999905"
    />
    <path
      d="M 225.12781,1597.4162 C 224.94781,1595.6578 224.50781,1594.1146 223.88781,1592.7717 182.06781,1591.4065 148.08782,1575.1956 141.17782,1554.1695 139.84782,1554.9484 138.32782,1556.0169 137.40782,1557.2188 136.67782,1558.2278 136.00782,1559.682 135.45782,1561.0768 142.13782,1584.1135 179.34782,1601.9122 225.03781,1603.0177 225.23781,1601.4671 225.32781,1599.6048 225.12781,1597.4162 Z"
      id="path48-8"
      opacity="0.2"
      fill="#ffffff"
      stroke-width="9.99999905"
    />
    <path
      d="M 266.22781,1384.8183 C 266.29781,1383.6979 265.11781,1382.919 264.15781,1382.6148 263.13781,1382.281 261.45781,1381.7839 258.27781,1382.407 H 258.00781 C 249.07781,1384.0466 239.53781,1384.9963 229.52781,1384.9963 182.33781,1384.9963 144.07782,1365.1202 144.07782,1340.6071 144.07782,1339.9171 144.20782,1339.2345 144.26782,1338.5594 144.26782,1338.5005 144.18782,1338.4624 144.18782,1338.388 144.18782,1337.2974 143.59782,1335.8729 142.34782,1335.7319 140.91782,1335.5241 140.21782,1336.3997 139.51782,1337.5125 139.16782,1338.0541 138.89782,1338.8332 138.70782,1339.7383 138.67782,1339.8491 138.65782,1339.9831 138.63782,1340.0944 138.60782,1340.2139 138.60782,1340.369 138.58782,1340.4951 138.43782,1341.4298 138.36782,1342.3796 138.36782,1343.3292 138.36782,1369.4746 179.18782,1390.6861 229.52781,1390.6861 242.17781,1390.6861 254.09781,1389.2468 265.00781,1386.8281 266.05781,1386.4349 266.16781,1385.7895 266.22781,1384.8175 Z"
      id="path50"
      opacity="0.2"
      fill="#ffffff"
      stroke-width="9.99999905"
    />
    <path
      d="M 137.41782,1557.2188 C 136.68782,1558.2278 136.01782,1559.682 135.46782,1561.0768 137.12782,1566.8044 140.67782,1572.2205 145.79782,1577.132 145.93782,1576.4865 146.06782,1575.9152 146.22782,1575.4181 147.11782,1572.4059 148.47782,1569.8833 149.62782,1567.3237 145.64782,1563.2432 142.70782,1558.8213 141.19782,1554.1769 139.84782,1554.9411 138.34782,1556.0242 137.41782,1557.2187 Z"
      id="path52"
      fill="#ffffff"
      stroke-width="9.99999905"
    />
    <path
      d="M 144.08782,1340.5997 C 144.08782,1339.9098 144.22782,1339.2271 144.28782,1338.552 144.24782,1338.4845 144.16782,1338.455 144.16782,1338.374 144.16782,1337.2834 143.58782,1335.8589 142.34782,1335.7179 140.91782,1335.5251 140.21782,1336.4004 139.51782,1337.5134 139.15782,1338.055 138.89782,1338.8341 138.70782,1339.7392 138.67782,1339.85 138.63782,1339.984 138.62782,1340.0953 138.60782,1340.2148 138.59782,1340.3699 138.58782,1340.4959 138.43782,1341.4307 138.36782,1342.3804 138.36782,1343.3301 138.36782,1351.15 142.08782,1358.5098 148.54782,1365.0165 149.10782,1364.7419 149.66782,1364.4749 150.32782,1364.2746 L 155.53782,1362.7314 C 148.28782,1356.2172 144.08782,1348.6792 144.08782,1340.5997 Z"
      id="path54-5"
      fill="#ffffff"
      stroke-width="9.99999905"
    />
    <text
      id="text3685"
      font-size="63.96312332"
      y="1195.4985"
      x="225.17963"
      transform="scale(0.7599852,1.3158151)"
      font-family="OCRA"
      fill="#ffffff"
      stroke-width="1">-</text>
    <text
      x="356.90796"
      y="1195.4985"
      font-size="63.96312332"
      id="text133"
      transform="scale(0.7599852,1.3158151)"
      font-family="OCRA"
      fill="#ffffff"
      stroke-width="1">+</text>
    <ellipse
      id="ellipse10769"
      cy="720.02075"
      rx="98.419991"
      ry="51.111038"
      cx="852.27515"
      fill="#0d0033"
      stroke-width="9.99999905"
    />
    <rect
      x="753.83514"
      id="rect10771"
      height="10.416591"
      y="709.5968"
      width="196.78999"
      fill="#0d0033"
      stroke-width="9.99999905"
    />
    <ellipse
      id="ellipse10773"
      cy="711.74097"
      rx="98.419991"
      ry="51.125874"
      cx="852.27515"
      fill="#100040"
      stroke-width="9.99999905"
    />
    <ellipse
      id="ellipse10775"
      cy="676.21027"
      rx="98.419991"
      ry="51.125874"
      cx="852.27515"
      fill="#0d0033"
      stroke-width="9.99999905"
    />
    <rect
      x="753.83514"
      id="rect10777"
      height="180.78424"
      y="495.42606"
      width="196.85999"
      fill="#0d0033"
      stroke-width="9.99999905"
    />
    <ellipse
      id="ellipse10779"
      cy="495.41861"
      rx="98.419991"
      ry="51.125874"
      cx="852.27515"
      fill="#0d0033"
      stroke-width="9.99999905"
    />
    <ellipse
      id="ellipse10781"
      cy="490.89291"
      rx="91.159996"
      ry="47.356907"
      cx="852.27515"
      fill="#100040"
      stroke-width="9.99999905"
    />
    <ellipse
      id="ellipse10783"
      cy="488.15518"
      rx="66.82"
      ry="34.70713"
      cx="852.27515"
      fill="#b2b2b2"
      stroke-width="9.99999905"
    />
    <path
      id="path10785"
      d="M 773.05512,465.074 C 760.99512,473.56159 753.83512,484.06721 753.83512,495.42605 V 523.66362 H 767.00512 V 520.94818 L 767.15512,519.91697 C 767.15512,519.91697 767.15512,520.44365 767.15512,518.53707 767.15512,515.1168 769.34512,512.92072 773.04512,511.83009 776.61512,510.77656 776.35512,492.08753 776.35512,492.08753 Z"
      fill="#d2eeff"
      stroke-width="9.99999905"
    />
    <path
      id="path10787"
      d="M 785.46512,488.15521 C 785.46512,481.98982 788.56512,476.23252 793.96512,471.22453 L 773.05512,465.04432 C 765.47512,471.95162 761.10512,479.91987 761.10512,488.42972 761.10512,496.93957 765.48512,504.92266 773.05512,511.82253 L 794.46512,505.50135 C 788.77512,500.40435 785.46512,494.47639 785.46512,488.15521 Z"
      fill="#d2eeff"
      stroke-width="9.99999905"
    />
    <rect
      x="753.83514"
      id="rect10789"
      height="156.28596"
      y="519.91687"
      width="13.319999"
      fill="#d2eeff"
      stroke-width="9.99999905"
    />
    <rect
      x="753.83514"
      id="rect10791"
      height="16.811962"
      y="642.05219"
      width="13.319999"
      fill="#d2eeff"
      stroke-width="9.99999905"
    />
    <path
      id="path10793"
      d="M 753.83512,711.73353 V 719.99855 C 753.83512,729.35419 758.69512,738.10888 767.15512,745.65422 V 737.39663 694.32061 686.06302 C 758.69512,693.63804 753.83512,702.38531 753.83512,711.73353 Z"
      fill="#d2eeff"
      stroke-width="9.99999905"
    />
    <path
      id="path10795"
      d="M 767.15512,650.53978 C 758.69512,658.08512 753.83512,666.84723 753.83512,676.21028 753.83512,685.57336 758.69512,694.31319 767.15512,701.86597 Z"
      fill="#d2eeff"
      stroke-width="9.99999905"
    />
    <path
      id="path10797"
      d="M 767.15512,741.69977 C 767.15512,741.69977 767.15512,739.80046 767.15512,737.40406 767.15512,735.00022 767.84512,726.68326 768.95512,722.98108 770.75512,716.86022 774.57512,712.6461 774.57512,706.17653 774.57512,703.99528 772.90512,700.92373 770.40512,699.06891 767.93512,697.23636 767.09512,694.35772 767.09512,691.36034 767.09512,688.35556 767.09512,684.51982 767.09512,684.51982 L 761.39512,684.66006 762.01512,737.35139 Z"
      fill="#d2eeff"
      stroke-width="9.99999905"
    />
    <path
      id="path10799"
      d="M 852.27511,455.08772 C 888.65511,455.08772 918.16511,470.19326 919.01511,488.97874 919.02511,488.69687 919.12511,488.42972 919.12511,488.15513 919.12511,468.98385 889.19511,453.448 852.29511,453.448 815.41511,453.448 785.48512,468.98385 785.48512,488.15513 785.48512,488.42972 785.55512,488.6967 785.57512,488.97874 786.37512,470.19326 815.89511,455.08772 852.27511,455.08772 Z"
      opacity="0.35"
      stroke-width="9.99999905"
    />
    <path
      id="path10801"
      d="M 881.02511,547.09353 V 627.31019 688.76361 C 881.02511,688.76361 881.02511,720.26565 881.02511,721.52692 881.02511,722.77333 880.46511,723.81946 879.78511,724.79136 878.97511,725.91918 877.13511,727.69229 877.13511,727.69229 903.35511,723.52268 926.40511,712.28255 938.29511,699.68471 939.11511,698.90576 939.97511,697.2512 940.26511,696.53897 940.55511,695.80452 940.67511,695.09223 940.67511,695.09223 V 688.76361 653.75971 520.65883 C 928.80511,533.27151 907.22511,542.93876 881.02511,547.09353 Z"
      opacity="0.35"
      stroke-width="9.99999905"
    />
    <path
      id="path10803"
      d="M 939.15511,729.45806 C 938.23511,727.63294 935.59511,725.33297 935.59511,725.33297 923.71511,737.93081 902.98511,744.65262 876.77511,748.79255 876.77511,748.79255 879.12511,751.76024 880.16511,754.29762 881.16511,756.82015 881.04511,760.63365 881.04511,760.63365 V 768.90608 C 907.25511,764.75872 928.84511,755.06922 940.70511,742.4788 940.70511,742.4788 940.70511,736.72148 940.70511,735.20795 940.70511,733.49407 939.93511,730.95675 939.15511,729.45806 Z"
      opacity="0.35"
      stroke-width="9.99999905"
    />
    <path
      id="path10805"
      d="M 847.85511,744.97166 C 847.67511,743.2133 847.23511,741.6701 846.61511,740.32723 804.79511,738.96205 770.81512,722.75108 763.90512,701.725 762.57512,702.50395 761.05512,703.57239 760.13512,704.77429 759.40512,705.78333 758.73512,707.23748 758.18512,708.6323 764.86512,731.66898 802.07512,749.4677 847.76511,750.57318 847.96511,749.02257 848.05511,747.16032 847.85511,744.97166 Z"
      opacity="0.2"
      fill="#ffffff"
      stroke-width="9.99999905"
    />
    <path
      id="path10807"
      d="M 888.95511,532.37379 C 889.02511,531.25342 887.84511,530.47446 886.88511,530.17028 885.86511,529.83647 884.18511,529.3394 881.00511,529.96252 H 880.73511 C 871.80511,531.60212 862.26511,532.55183 852.25511,532.55183 805.06511,532.55183 766.80512,512.67573 766.80512,488.16261 766.80512,487.47265 766.93512,486.78998 766.99512,486.1149 766.99512,486.05603 766.91512,486.01794 766.91512,485.94349 766.91512,484.8529 766.32512,483.42838 765.07512,483.28742 763.64512,483.07965 762.94512,483.9552 762.24512,485.06803 761.89512,485.6096 761.62512,486.38871 761.43512,487.2938 761.40512,487.40461 761.38512,487.53862 761.36512,487.64995 761.33512,487.76941 761.33512,487.92454 761.31512,488.05059 761.16512,488.98535 761.09512,489.93508 761.09512,490.88473 761.09512,517.03009 801.91512,538.24165 852.25511,538.24165 864.90511,538.24165 876.82511,536.80236 887.73511,534.38365 888.78511,533.99046 888.89511,533.345 888.95511,532.37305 Z"
      opacity="0.2"
      fill="#ffffff"
      stroke-width="9.99999905"
    />
    <path
      id="path10809"
      d="M 760.14512,704.77429 C 759.41512,705.78333 758.74512,707.23748 758.19512,708.6323 759.85512,714.35993 763.40512,719.77597 768.52512,724.6875 768.66512,724.04204 768.79512,723.47069 768.95512,722.97361 769.84512,719.9614 771.20512,717.43886 772.35512,714.87924 768.37512,710.79866 765.43512,706.3768 763.92512,701.73236 762.57512,702.49659 761.07512,703.57975 760.14512,704.77424 Z"
      fill="#ffffff"
      stroke-width="9.99999905"
    />
    <path
      id="path10811"
      d="M 766.81512,488.15521 C 766.81512,487.46526 766.95512,486.78258 767.01512,486.1075 766.97512,486.03998 766.89512,486.01055 766.89512,485.92952 766.89512,484.83893 766.31512,483.41441 765.07512,483.27344 763.64512,483.08057 762.94512,483.95595 762.24512,485.06889 761.88512,485.61046 761.62512,486.38958 761.43512,487.29467 761.40512,487.40548 761.36512,487.53949 761.35512,487.65081 761.33512,487.77028 761.32512,487.92541 761.31512,488.05145 761.16512,488.98622 761.09512,489.93594 761.09512,490.8856 761.09512,498.70547 764.81512,506.06534 771.27512,512.572 771.83512,512.29741 772.39512,512.03043 773.05512,511.83011 L 778.26512,510.28694 C 771.01512,503.77268 766.81512,496.23475 766.81512,488.15521 Z"
      fill="#ffffff"
      stroke-width="9.99999905"
    />
    <text
      x="1044.5736"
      y="547.65332"
      font-size="63.96312332"
      id="text10813"
      transform="scale(0.7599852,1.3158151)"
      font-family="OCRA"
      fill="#ffffff"
      stroke-width="1">-</text>
    <text
      id="text10815"
      font-size="63.96312332"
      y="547.65332"
      x="1176.3019"
      transform="scale(0.7599852,1.3158151)"
      font-family="OCRA"
      fill="#ffffff"
      stroke-width="1">+</text>
    <rect
      gorn="0.0.5"
      height="38.999996"
      y="1777.291"
      width="38.999996"
      id="connector0pin"
      x="533.94788"
      fill="none"
      stroke-width="0"
    />
    <rect
      gorn="0.0.8"
      height="38.999996"
      y="1776.9369"
      width="38.999996"
      id="connector1pin"
      x="733.99994"
      fill="none"
      stroke-width="0"
    />
    <rect
      gorn="0.0.5"
      height="38.999996"
      y="1776.9369"
      width="38.999996"
      id="connector2pin"
      x="1033.9999"
      fill="none"
      stroke-width="0"
    />
    <rect
      gorn="0.0.8"
      height="38.999996"
      y="1776.9369"
      width="38.999996"
      id="connector3pin"
      x="1233.9999"
      fill="none"
      stroke-width="0"
    />
    <path
      gorn="0.2.0.21.34"
      d="M 672.6979,277.87373 672.69787,315.46149 634.62774,315.46172 634.6278,277.87393 Z"
      id="connector4pin"
      fill="#ffe500"
      stroke="#000000"
      stroke-width="1.14583385"
      stroke-linejoin="round"
    />
    <path
      gorn="0.2.0.21.31"
      d="M 835.00024,277.87373 H 873.07038 L 873.07034,315.46149 835.00021,315.46172 Z"
      id="connector5pin"
      fill="#ffe500"
      stroke="#000000"
      stroke-width="1.14583385"
      stroke-linejoin="round"
    />
    <rect
      gorn="0.0.8"
      height="38.999996"
      y="-111.88136"
      width="38.999996"
      id="connector6pin"
      x="-1073.9166"
      transform="scale(-1)"
      fill="none"
      stroke-width="0"
    />
    <rect
      gorn="0.0.5"
      height="38.999996"
      y="-116.04803"
      width="38.999996"
      id="connector7pin"
      x="-1272.8749"
      transform="scale(-1)"
      fill="none"
      stroke-width="0"
    />
    <rect
      y="377.55225"
      width="38.769196"
      id="connector8pin"
      gorn="0.0.1"
      height="38.769196"
      x="1433.6152"
      fill="none"
      stroke-width="0.09999999"
    />
    <rect
      y="377.55225"
      width="38.769196"
      id="connector9pin"
      gorn="0.0.10"
      height="38.769196"
      x="1533.6149"
      fill="none"
      stroke-width="0.09999999"
    />
    <rect
      y="477.55225"
      width="38.769196"
      id="connector10pin"
      gorn="0.0.1"
      height="38.769196"
      x="1433.6152"
      fill="none"
      stroke-width="0.09999999"
    />
    <rect
      y="477.55225"
      width="38.769196"
      id="connector11pin"
      gorn="0.0.10"
      height="38.769196"
      x="1533.6149"
      fill="none"
      stroke-width="0.09999999"
    />
  </g>
</svg>
