<?xml version='1.0' encoding='UTF-8' standalone='no'?>
<svg
  xmlns:dc="http://purl.org/dc/elements/1.1/"
  xmlns:cc="http://creativecommons.org/ns#"
  xmlns:rdf="http://www.w3.org/1999/02/22-rdf-syntax-ns#"
  xmlns:svg="http://www.w3.org/2000/svg"
  xmlns="http://www.w3.org/2000/svg"
  viewBox="0 0 1010.2052 1210"
  x="0in"
  width="1.0102051in"
  height="1.21in"
  version="1.2"
  y="0in"
  id="svg2">
  <metadata
    id="metadata41">
    <rdf:RDF>
      <cc:Work
        rdf:about="">
        <dc:format>image/svg+xml</dc:format>
        <dc:type
          rdf:resource="http://purl.org/dc/dcmitype/StillImage"
        />
        <dc:title/>
      </cc:Work>
    </rdf:RDF>
  </metadata>
  <defs
    id="defs39"
  />
  <desc
    id="desc4">
    <referenceFile>DFR0205_1_schematic.svg</referenceFile>
  </desc>
  <g
    id="schematic">
    <rect
      x="105.14088"
      width="800.00006"
      height="1200"
      y="5.0000005"
      id="rect7"
      fill="none"
      stroke="#000000"
      stroke-width="10.00000095"
      stroke-linecap="round"
    />
    <text
      id="text138"
      x="718.68317"
      y="773.17322"
      font-size="49"
      font-family="'Droid Sans'"
      text-anchor="end"
      fill="#555555"
      stroke-width="1">Hdr1</text>
    <text
      font-size="49"
      y="1073.1882"
      x="718.68317"
      id="text140"
      font-family="'Droid Sans'"
      text-anchor="end"
      fill="#555555"
      stroke-width="1">Hdr2</text>
    <text
      font-size="49"
      y="172.62854"
      x="718.68317"
      id="text126"
      font-family="'Droid Sans'"
      text-anchor="end"
      fill="#555555"
      stroke-width="1">JST</text>
    <text
      font-size="49"
      y="1022.5213"
      x="876.78143"
      id="text124"
      font-family="'Droid Sans'"
      text-anchor="end"
      fill="#555555">Vout+</text>
    <text
      font-size="49"
      y="1122.5214"
      x="878.50409"
      id="text122"
      font-family="'Droid Sans'"
      text-anchor="end"
      fill="#555555">Vout-</text>
    <text
      id="text120"
      x="876.78143"
      y="722.5213"
      font-size="49"
      font-family="'Droid Sans'"
      text-anchor="end"
      fill="#555555">Vout+</text>
    <text
      id="text118"
      x="878.50409"
      y="822.52136"
      font-size="49"
      font-family="'Droid Sans'"
      text-anchor="end"
      fill="#555555">Vout-</text>
    <text
      font-size="49"
      y="422.5213"
      x="876.78143"
      id="text116"
      font-family="'Droid Sans'"
      text-anchor="end"
      fill="#555555">Vout+</text>
    <text
      font-size="49"
      y="522.5213"
      x="878.50409"
      id="text114"
      font-family="'Droid Sans'"
      text-anchor="end"
      fill="#555555">Vout-</text>
    <text
      font-size="49"
      y="525.84814"
      x="711.67181"
      id="text130"
      font-family="'Droid Sans'"
      text-anchor="end"
      fill="#555555"
      stroke-width="1">Term</text>
    <text
      id="text128"
      x="711.67181"
      y="425.38376"
      font-size="49"
      font-family="'Droid Sans'"
      text-anchor="end"
      fill="#555555"
      stroke-width="1">Screw</text>
    <text
      font-size="49"
      y="520.00476"
      x="443.73853"
      id="label1"
      font-family="'Droid Sans'"
      text-anchor="middle"
      fill="#000000">DFR0205</text>
    <text
      id="label0"
      x="135"
      y="422.84802"
      font-size="49"
      font-family="'Droid Sans'"
      text-anchor="start"
      fill="#555555">Vin -</text>
    <text
      id="text104"
      x="130.65544"
      y="522.49982"
      font-size="49"
      font-family="'Droid Sans'"
      text-anchor="start"
      fill="#555555">Vin +</text>
    <text
      id="text63"
      font-size="35"
      y="484.65802"
      x="933.31171"
      font-family="'Droid Sans'"
      text-anchor="start"
      fill="#555555">4</text>
    <text
      id="text65"
      font-size="35"
      y="384.65802"
      x="933.61932"
      font-family="'Droid Sans'"
      text-anchor="start"
      fill="#555555">3</text>
    <text
      font-size="49"
      y="723.34802"
      x="135"
      id="text42"
      font-family="'Droid Sans'"
      text-anchor="start"
      fill="#555555">Vin -</text>
    <text
      font-size="49"
      y="822.99988"
      x="130.65544"
      id="text44"
      font-family="'Droid Sans'"
      text-anchor="start"
      fill="#555555">Vin+</text>
    <text
      x="933.31171"
      y="785.15796"
      font-size="35"
      id="text56"
      font-family="'Droid Sans'"
      text-anchor="start"
      fill="#555555">6</text>
    <text
      x="933.61932"
      y="685.1579"
      font-size="35"
      id="text60"
      font-family="'Droid Sans'"
      text-anchor="start"
      fill="#555555">5</text>
    <text
      id="text70"
      x="878.50409"
      y="222.9998"
      font-size="49"
      font-family="'Droid Sans'"
      text-anchor="end"
      fill="#555555">Vout-</text>
    <text
      x="933.31171"
      y="185.158"
      font-size="35"
      id="text72"
      font-family="'Droid Sans'"
      text-anchor="start"
      fill="#555555">2</text>
    <text
      id="text74"
      x="876.78143"
      y="122.99979"
      font-size="49"
      font-family="'Droid Sans'"
      text-anchor="end"
      fill="#555555">Vout+</text>
    <text
      x="933.61932"
      y="85.158005"
      font-size="35"
      id="text76"
      font-family="'Droid Sans'"
      text-anchor="start"
      fill="#555555">1</text>
    <text
      id="text88"
      font-size="35"
      y="1085.158"
      x="933.31171"
      font-family="'Droid Sans'"
      text-anchor="start"
      fill="#555555">8</text>
    <text
      id="text92"
      font-size="35"
      y="985.1579"
      x="933.61932"
      font-family="'Droid Sans'"
      text-anchor="start"
      fill="#555555">7</text>
    <text
      id="text106"
      x="443.73853"
      y="620.09088"
      font-size="49"
      font-family="'Droid Sans'"
      text-anchor="middle"
      fill="#000000">Power</text>
    <text
      font-size="49"
      y="720.09094"
      x="443.73853"
      id="text108"
      font-family="'Droid Sans'"
      text-anchor="middle"
      fill="#000000">Module</text>
    <line
      y1="405.13824"
      y2="405.13824"
      x2="100.26112"
      x1="5.0712123"
      id="connector0pin"
      fill="none"
      stroke="#555555"
      stroke-width="10"
      stroke-linecap="round"
    />
    <rect
      id="connector0terminal"
      x="0.14087862"
      width="10"
      height="10"
      y="400.27762"
      fill="none"
      stroke-width="0"
    />
    <line
      y1="505.13824"
      y2="505.13824"
      x2="100.26112"
      x1="5.0712128"
      id="connector1pin"
      fill="none"
      stroke="#555555"
      stroke-width="10"
      stroke-linecap="round"
    />
    <rect
      id="connector1terminal"
      x="0.14087862"
      width="10"
      height="10"
      y="499.99982"
      fill="none"
      stroke-width="0"
    />
    <line
      id="connector2pin"
      x1="5.0712123"
      x2="100.26112"
      y2="705.63818"
      y1="705.63818"
      fill="none"
      stroke="#555555"
      stroke-width="10"
      stroke-linecap="round"
    />
    <rect
      y="700.77759"
      height="10"
      width="10"
      x="0.14087862"
      id="connector2terminal"
      fill="none"
      stroke-width="0"
    />
    <line
      id="connector3pin"
      x1="5.0712128"
      x2="100.26112"
      y2="805.63824"
      y1="805.63824"
      fill="none"
      stroke="#555555"
      stroke-width="10"
      stroke-linecap="round"
    />
    <rect
      y="800.49982"
      height="10"
      width="10"
      x="0.14087862"
      id="connector3terminal"
      fill="none"
      stroke-width="0"
    />
    <line
      y1="105.1675"
      y2="105.1675"
      x2="1005.1339"
      x1="910.13385"
      id="connector4pin"
      fill="none"
      stroke="#555555"
      stroke-width="10"
      stroke-linecap="round"
    />
    <rect
      id="connector4terminal"
      x="1000.1339"
      width="10"
      height="10"
      y="101.1675"
      fill="none"
      stroke-width="0"
    />
    <line
      y1="205.16748"
      y2="205.16748"
      x2="1005.1339"
      x1="910.13385"
      id="connector5pin"
      fill="none"
      stroke="#555555"
      stroke-width="10"
      stroke-linecap="round"
    />
    <rect
      id="connector5terminal"
      x="1000.1339"
      width="10"
      height="10"
      y="200.16748"
      fill="none"
      stroke-width="0"
    />
    <line
      id="connector6pin"
      x1="910.13385"
      x2="1005.1339"
      y2="404.66751"
      y1="404.66751"
      fill="none"
      stroke="#555555"
      stroke-width="10"
      stroke-linecap="round"
    />
    <rect
      y="400.66751"
      height="10"
      width="10"
      x="1000.1339"
      id="connector6terminal"
      fill="none"
      stroke-width="0"
    />
    <line
      id="connector7pin"
      x1="910.13385"
      x2="1005.1339"
      y2="504.66751"
      y1="504.66751"
      fill="none"
      stroke="#555555"
      stroke-width="10"
      stroke-linecap="round"
    />
    <rect
      y="499.66751"
      height="10"
      width="10"
      x="1000.1339"
      id="connector7terminal"
      fill="none"
      stroke-width="0"
    />
    <line
      y1="705.16742"
      y2="705.16742"
      x2="1005.1339"
      x1="910.13385"
      id="connector8pin"
      fill="none"
      stroke="#555555"
      stroke-width="10"
      stroke-linecap="round"
    />
    <rect
      id="connector8terminal"
      x="1000.1339"
      width="10"
      height="10"
      y="701.16742"
      fill="none"
      stroke-width="0"
    />
    <line
      y1="805.16748"
      y2="805.16748"
      x2="1005.1339"
      x1="910.13385"
      id="connector9pin"
      fill="none"
      stroke="#555555"
      stroke-width="10"
      stroke-linecap="round"
    />
    <rect
      id="connector9terminal"
      x="1000.1339"
      width="10"
      height="10"
      y="800.16748"
      fill="none"
      stroke-width="0"
    />
    <line
      id="connector10pin"
      x1="910.13385"
      x2="1005.1339"
      y2="1005.1674"
      y1="1005.1674"
      fill="none"
      stroke="#555555"
      stroke-width="10"
      stroke-linecap="round"
    />
    <rect
      y="1001.1674"
      height="10"
      width="10"
      x="1000.1339"
      id="connector10terminal"
      fill="none"
      stroke-width="0"
    />
    <line
      id="connector11pin"
      x1="910.13385"
      x2="1005.1339"
      y2="1105.1675"
      y1="1105.1675"
      fill="none"
      stroke="#555555"
      stroke-width="10"
      stroke-linecap="round"
    />
    <rect
      y="1100.1675"
      height="10"
      width="10"
      x="1000.1339"
      id="connector11terminal"
      fill="none"
      stroke-width="0"
    />
  </g>
</svg>
