<?xml version='1.0' encoding='UTF-8' standalone='no'?>
<svg
  xmlns:dc="http://purl.org/dc/elements/1.1/"
  xmlns:cc="http://creativecommons.org/ns#"
  xmlns:rdf="http://www.w3.org/1999/02/22-rdf-syntax-ns#"
  xmlns:svg="http://www.w3.org/2000/svg"
  xmlns="http://www.w3.org/2000/svg"
  height="0.16055118in"
  id="svg2"
  version="1.2"
  viewBox="0 0 275.00001 160.55118"
  width="0.27500001in">
  <metadata
    id="metadata19">
    <rdf:RDF>
      <cc:Work
        rdf:about="">
        <dc:format>image/svg+xml</dc:format>
        <dc:type
          rdf:resource="http://purl.org/dc/dcmitype/StillImage"
        />
        <dc:title/>
      </cc:Work>
    </rdf:RDF>
  </metadata>
  <defs
    id="defs17"
  />
  <desc
    id="desc4">Fritzing
    footprint
    SVG</desc>
  <g
    id="silkscreen">
    <line
      id="line7"
      x1="47.81496"
      x2="224.98029"
      y1="155.55118"
      y2="155.55118"
      stroke="#000000"
      stroke-width="10"
    />
    <path
      d="m 50.373225,57.63563 a 84.871323,52.651653 0 0 1 169.736795,-0.602"
      id="path2413"
      opacity="1"
      fill="none"
      fill-opacity="1"
      fill-rule="nonzero"
      stroke="#000000"
      stroke-width="10"
      stroke-linecap="round"
      stroke-linejoin="round"
      stroke-miterlimit="4"
      stroke-dasharray="none"
      stroke-opacity="1"
    />
  </g>
  <g
    id="copper1">
    <g
      id="copper0">
      <circle
        cx="37.5"
        cy="100.81102"
        id="connector0pin"
        r="27.5"
        fill="none"
        stroke="#ffbf00"
        stroke-width="20"
      />
      <circle
        cx="137.5"
        cy="100.81102"
        fill="none"
        id="connector1pin"
        r="27.5"
        stroke="#ffbf00"
        stroke-width="20"
      />
      <circle
        cx="237.5"
        cy="100.81102"
        id="connector2pin"
        r="27.5"
        fill="none"
        stroke="#ffbf00"
        stroke-width="20"
      />
    </g>
  </g>
</svg>
