<?xml version='1.0' encoding='UTF-8' standalone='no'?>
<svg
  xmlns:dc="http://purl.org/dc/elements/1.1/"
  xmlns:cc="http://creativecommons.org/ns#"
  xmlns:rdf="http://www.w3.org/1999/02/22-rdf-syntax-ns#"
  xmlns:svg="http://www.w3.org/2000/svg"
  xmlns="http://www.w3.org/2000/svg"
  width="0.90899998in"
  x="0px"
  viewBox="0 0 909.00029 2136.4973"
  y="0px"
  gorn="0"
  version="1.1"
  id="Picoboard_Icon"
  overflow="visible"
  xml:space="preserve"
  height="2.1364965in">
  <metadata
    id="metadata58">
    <rdf:RDF>
      <cc:Work
        rdf:about="">
        <dc:format>image/svg+xml</dc:format>
        <dc:type
          rdf:resource="http://purl.org/dc/dcmitype/StillImage"
        />
        <dc:title/>
      </cc:Work>
    </rdf:RDF>
  </metadata>
  <defs
    id="defs56">
    </defs>
  <desc
    id="desc2">
    <referenceFile>rpi_pico-tht_1_pcb.svg</referenceFile>
  </desc>
  <g
    id="silkscreen">
    <line
      id="line148"
      x1="466.47162"
      x2="502.32697"
      y2="453.18359"
      y1="312.79196"
      fill="none"
      stroke="#000000"
      stroke-width="5"
      stroke-linecap="round"
      stroke-linejoin="round"
    />
    <line
      y1="414.522"
      y2="467.63916"
      x2="472.83759"
      x1="416.1716"
      id="line146"
      fill="none"
      stroke="#000000"
      stroke-width="5"
      stroke-linecap="round"
      stroke-linejoin="round"
    />
    <line
      id="line144"
      x1="417.94592"
      x2="471.06329"
      y2="537.74799"
      y1="594.414"
      fill="none"
      stroke="#000000"
      stroke-width="5"
      stroke-linecap="round"
      stroke-linejoin="round"
    />
    <line
      y1="497.85056"
      y2="497.85056"
      x2="470.48508"
      x1="417.36771"
      id="line24"
      fill="none"
      stroke="#000000"
      stroke-width="5"
      stroke-linecap="round"
      stroke-linejoin="round"
    />
    <text
      id="text3685"
      font-size="49"
      y="516.91357"
      x="486.28595"
      font-family="OCRA"
      fill="#000000"
      stroke-width="1.00000036">KEEPOUT</text>
    <rect
      id="rect1500"
      width="266.40756"
      height="75.496582"
      x="319.9252"
      y="5.000001"
      fill="none"
      stroke="#000000"
      stroke-width="10.00000191"
    />
    <circle
      r="35"
      id="ellipse1492"
      cx="678.46606"
      cy="167.26105"
      fill="#000000"
      stroke="none"
      stroke-width="0"
    />
    <circle
      r="35"
      id="ellipse1489"
      cx="230.06123"
      cy="167.26105"
      fill="#000000"
      stroke="none"
      stroke-width="0"
    />
    <circle
      r="35"
      id="ellipse1486"
      cx="678.46606"
      cy="2013.7887"
      fill="#000000"
      stroke="none"
      stroke-width="0"
    />
    <circle
      r="35"
      id="ellipse1483"
      cx="230.06123"
      cy="2013.7887"
      fill="#000000"
      stroke="none"
      stroke-width="0"
    />
    <rect
      id="rect1498"
      width="835.33362"
      height="2021.5424"
      x="38.588154"
      y="81.455101"
      fill="none"
      stroke="#000000"
      stroke-width="10"
    />
    <ellipse
      cy="146.88737"
      cx="317.69113"
      id="circle4509"
      rx="25.170198"
      ry="43.673359"
      fill="#000000"
      stroke="none"
      stroke-width="0"
    />
    <ellipse
      ry="43.673359"
      rx="25.170198"
      id="ellipse4511"
      cx="592.69122"
      cy="146.88737"
      fill="#000000"
      stroke="none"
      stroke-width="0"
    />
    <ellipse
      ry="35.000004"
      rx="43.095131"
      id="ellipse4513"
      cx="359.32324"
      cy="280.32544"
      fill="#000000"
      stroke="none"
      stroke-width="0"
    />
    <ellipse
      cy="280.32544"
      cx="550.99115"
      id="ellipse4515"
      rx="43.095131"
      ry="35.000004"
      fill="#000000"
      stroke="none"
      stroke-width="0"
    />
    <rect
      y="557.51776"
      x="314.91681"
      height="82.489609"
      width="82.489601"
      id="rect4521"
      fill="#000000"
      stroke-width="0"
    />
    <rect
      id="rect4519"
      width="82.489601"
      height="82.489609"
      x="314.91681"
      y="459.60107"
      fill="#000000"
      stroke-width="0"
    />
    <rect
      y="361.68442"
      x="314.91681"
      height="82.489609"
      width="82.489601"
      id="rect4517"
      fill="#000000"
      stroke-width="0"
    />
    <rect
      id="rect4507"
      width="293.84384"
      height="201.23965"
      x="307.62509"
      y="99.185127"
      fill="#000000"
      stroke-width="0"
    />
  </g>
  <g
    id="copper1">
    <g
      id="copper0">
      <circle
        cy="266.21561"
        cx="549.30225"
        id="nonconn1"
        r="29"
        fill="#ffffff"
        stroke="none"
        stroke-width="0"
      />
      <circle
        r="29"
        id="nonconn2"
        cx="358.67719"
        cy="266.21561"
        fill="#ffffff"
        stroke="none"
        stroke-width="0"
      />
      <circle
        cy="146.42392"
        cx="347.21884"
        id="nonconn3"
        r="35"
        fill="#ffffff"
        stroke="none"
        stroke-width="0"
      />
      <circle
        r="35"
        id="nonconn4"
        cx="561.80225"
        cy="146.42392"
        fill="#ffffff"
        stroke="none"
        stroke-width="0"
      />
      <path
        id="rect39"
        d="M 801.43557,101.14587 H 907.93561 V 179.1459 H 801.4365 v -14.72595 c 11.26823,0.23211 30.91804,-4.09336 23.6598,-20.80705 0.97931,-12.8495 -2.99347,-28.05686 -23.6598,-26.42213 z"
        fill="#f7bd13"
        stroke-width="0"
      />
      <path
        id="path120"
        d="M 801.43557,201.00007 H 907.93561 V 279.0001 H 801.4365 v -14.72595 c 11.26823,0.23211 30.91804,-4.09336 23.6598,-20.80705 0.97931,-12.8495 -2.99347,-28.05686 -23.6598,-26.42213 z"
        fill="#f7bd13"
        stroke-width="0"
      />
      <path
        id="path122"
        d="m 801.43557,301.0001 h 106.50004 v 78.00003 H 801.4365 v -14.72595 c 11.26823,0.23211 30.91804,-4.09336 23.6598,-20.80705 0.97931,-12.8495 -2.99347,-28.05686 -23.6598,-26.42213 z"
        fill="#f7bd13"
        stroke-width="0"
      />
      <path
        id="path124"
        d="m 801.43557,401.00014 h 106.50004 v 78.00003 H 801.4365 v -14.72595 c 11.26823,0.23211 30.91804,-4.09336 23.6598,-20.80705 0.97931,-12.8495 -2.99347,-28.05686 -23.6598,-26.42213 z"
        fill="#f7bd13"
        stroke-width="0"
      />
      <path
        id="path126"
        d="M 801.43557,501.00017 H 907.93561 V 579.0002 H 801.4365 v -14.72595 c 11.26823,0.23211 30.91804,-4.09336 23.6598,-20.80705 0.97931,-12.8495 -2.99347,-28.05686 -23.6598,-26.42213 z"
        fill="#f7bd13"
        stroke-width="0"
      />
      <path
        id="path128"
        d="m 801.43557,601.0002 h 106.50004 v 78.00003 H 801.4365 v -14.72595 c 11.26823,0.23211 30.91804,-4.09336 23.6598,-20.80705 0.97931,-12.8495 -2.99347,-28.05686 -23.6598,-26.42213 z"
        fill="#f7bd13"
        stroke-width="0"
      />
      <path
        id="path130"
        d="m 801.43557,701.00024 h 106.50004 v 78.00003 H 801.4365 v -14.72595 c 11.26823,0.23211 30.91804,-4.09336 23.6598,-20.80705 0.97931,-12.8495 -2.99347,-28.05686 -23.6598,-26.42213 z"
        fill="#f7bd13"
        stroke-width="0"
      />
      <path
        id="path132"
        d="M 801.43557,801.00027 H 907.93561 V 879.0003 H 801.4365 v -14.72595 c 11.26823,0.23211 30.91804,-4.09336 23.6598,-20.80705 0.97931,-12.8495 -2.99347,-28.05686 -23.6598,-26.42213 z"
        fill="#f7bd13"
        stroke-width="0"
      />
      <path
        id="path134"
        d="m 801.43557,901.0003 h 106.50004 v 78.00003 H 801.4365 v -14.72595 c 11.26823,0.23211 30.91804,-4.09336 23.6598,-20.80705 0.97931,-12.8495 -2.99347,-28.05686 -23.6598,-26.42213 z"
        fill="#f7bd13"
        stroke-width="0"
      />
      <path
        id="path136"
        d="m 801.43557,1001.0003 h 106.50004 v 78.0001 H 801.4365 v -14.726 c 11.26823,0.2321 30.91804,-4.0933 23.6598,-20.807 0.97931,-12.8495 -2.99347,-28.0569 -23.6598,-26.4222 z"
        fill="#f7bd13"
        stroke-width="0"
      />
      <path
        id="path138"
        d="m 801.43557,1101.0004 h 106.50004 v 78.0001 H 801.4365 v -14.726 c 11.26823,0.2321 30.91804,-4.0933 23.6598,-20.807 0.97931,-12.8495 -2.99347,-28.0569 -23.6598,-26.4222 z"
        fill="#f7bd13"
        stroke-width="0"
      />
      <path
        id="path140"
        d="m 801.43557,1201.0004 h 106.50004 v 78.0001 H 801.4365 v -14.726 c 11.26823,0.2321 30.91804,-4.0933 23.6598,-20.807 0.97931,-12.8495 -2.99347,-28.0569 -23.6598,-26.4222 z"
        fill="#f7bd13"
        stroke-width="0"
      />
      <path
        id="path142"
        d="m 801.43557,1301.0004 h 106.50004 v 78.0001 H 801.4365 v -14.726 c 11.26823,0.2321 30.91804,-4.0933 23.6598,-20.807 0.97931,-12.8495 -2.99347,-28.0569 -23.6598,-26.4222 z"
        fill="#f7bd13"
        stroke-width="0"
      />
      <path
        id="path144"
        d="m 801.43557,1401.0005 h 106.50004 v 78.0001 H 801.4365 v -14.726 c 11.26823,0.2321 30.91804,-4.0933 23.6598,-20.807 0.97931,-12.8495 -2.99347,-28.0569 -23.6598,-26.4222 z"
        fill="#f7bd13"
        stroke-width="0"
      />
      <path
        id="path146"
        d="m 801.43557,1501.0005 h 106.50004 v 78.0001 H 801.4365 v -14.726 c 11.26823,0.2321 30.91804,-4.0933 23.6598,-20.807 0.97931,-12.8495 -2.99347,-28.0569 -23.6598,-26.4222 z"
        fill="#f7bd13"
        stroke-width="0"
      />
      <path
        id="path148"
        d="m 801.43557,1601.0005 h 106.50004 v 78.0001 H 801.4365 v -14.726 c 11.26823,0.2321 30.91804,-4.0933 23.6598,-20.807 0.97931,-12.8495 -2.99347,-28.0569 -23.6598,-26.4222 z"
        fill="#f7bd13"
        stroke-width="0"
      />
      <path
        id="path150"
        d="m 801.43557,1701.0006 h 106.50004 v 78.0001 H 801.4365 v -14.726 c 11.26823,0.2321 30.91804,-4.0933 23.6598,-20.807 0.97931,-12.8495 -2.99347,-28.0569 -23.6598,-26.4222 z"
        fill="#f7bd13"
        stroke-width="0"
      />
      <path
        id="path152"
        d="m 801.43557,1801.0006 h 106.50004 v 78.0001 H 801.4365 v -14.726 c 11.26823,0.2321 30.91804,-4.0933 23.6598,-20.807 0.97931,-12.8495 -2.99347,-28.0569 -23.6598,-26.4222 z"
        fill="#f7bd13"
        stroke-width="0"
      />
      <path
        id="path154"
        d="m 801.43557,1901.0006 h 106.50004 v 78.0001 H 801.4365 v -14.726 c 11.26823,0.2321 30.91804,-4.0933 23.6598,-20.807 0.97931,-12.8495 -2.99347,-28.0569 -23.6598,-26.4222 z"
        fill="#f7bd13"
        stroke-width="0"
      />
      <path
        id="path156"
        d="m 801.43557,2001.0007 h 106.50004 v 78.0001 H 801.4365 v -14.726 c 11.26823,0.2321 30.91804,-4.0933 23.6598,-20.807 0.97931,-12.8495 -2.99347,-28.0569 -23.6598,-26.4222 z"
        fill="#f7bd13"
        stroke-width="0"
      />
      <path
        id="path158"
        d="m 594.00027,2035.959 v 100.25 h -78.0001 V 2035.96 h 14.726 c -0.2321,10.607 4.0933,29.1036 20.807,22.2714 12.8495,0.9217 28.0569,-2.8178 26.4222,-22.2714 z"
        fill="#f7bd13"
        stroke-width="0"
      />
      <path
        id="path160"
        d="m 494.00024,2035.959 v 100.25 h -78.0001 V 2035.96 h 14.726 c -0.2321,10.607 4.0933,29.1036 20.807,22.2714 12.8495,0.9217 28.0569,-2.8178 26.4222,-22.2714 z"
        fill="#f7bd13"
        stroke-width="0"
      />
      <path
        id="path162"
        d="m 394.00021,2035.959 v 100.25 h -78.0001 V 2035.96 h 14.726 c -0.2321,10.607 4.0933,29.1036 20.807,22.2714 12.8495,0.9217 28.0569,-2.8178 26.4222,-22.2714 z"
        fill="#f7bd13"
        stroke-width="0"
      />
      <path
        id="path164"
        d="M 106.5001,2079.0008 H 0 v -78.0001 h 106.4991 v 14.726 c -11.2682,-0.2321 -30.918001,4.0933 -23.659801,20.807 -0.9793,12.8495 2.9935,28.0569 23.659801,26.4222 z"
        fill="#f7bd13"
        stroke-width="0"
      />
      <path
        id="path166"
        d="M 106.5001,1979.0007 H 0 v -78.0001 h 106.4991 v 14.726 c -11.2682,-0.2321 -30.918001,4.0933 -23.659801,20.807 -0.9793,12.8495 2.9935,28.0569 23.659801,26.4222 z"
        fill="#f7bd13"
        stroke-width="0"
      />
      <path
        id="path168"
        d="M 106.5001,1879.0007 H 0 v -78.0001 h 106.4991 v 14.726 c -11.2682,-0.2321 -30.918001,4.0933 -23.659801,20.807 -0.9793,12.8495 2.9935,28.0569 23.659801,26.4222 z"
        fill="#f7bd13"
        stroke-width="0"
      />
      <path
        id="path170"
        d="M 106.5001,1779.0007 H 0 v -78.0001 h 106.4991 v 14.726 c -11.2682,-0.2321 -30.918001,4.0933 -23.659801,20.807 -0.9793,12.8495 2.9935,28.0569 23.659801,26.4222 z"
        fill="#f7bd13"
        stroke-width="0"
      />
      <path
        id="path172"
        d="M 106.5001,1679.0006 H 0 v -78.0001 h 106.4991 v 14.726 c -11.2682,-0.2321 -30.918001,4.0933 -23.659801,20.807 -0.9793,12.8495 2.9935,28.0569 23.659801,26.4222 z"
        fill="#f7bd13"
        stroke-width="0"
      />
      <path
        id="path174"
        d="M 106.5001,1579.0006 H 0 v -78.0001 h 106.4991 v 14.726 c -11.2682,-0.2321 -30.918001,4.0933 -23.659801,20.807 -0.9793,12.8495 2.9935,28.0569 23.659801,26.4222 z"
        fill="#f7bd13"
        stroke-width="0"
      />
      <path
        id="path176"
        d="M 106.5001,1479.0006 H 0 v -78.0001 h 106.4991 v 14.726 c -11.2682,-0.2321 -30.918001,4.0933 -23.659801,20.807 -0.9793,12.8495 2.9935,28.0569 23.659801,26.4222 z"
        fill="#f7bd13"
        stroke-width="0"
      />
      <path
        id="path178"
        d="M 106.5001,1379.0005 H 0 v -78.0001 h 106.4991 v 14.726 c -11.2682,-0.2321 -30.918001,4.0933 -23.659801,20.807 -0.9793,12.8495 2.9935,28.0569 23.659801,26.4222 z"
        fill="#f7bd13"
        stroke-width="0"
      />
      <path
        id="path180"
        d="M 106.5001,1279.0005 H 0 v -78.0001 h 106.4991 v 14.726 c -11.2682,-0.2321 -30.918001,4.0933 -23.659801,20.807 -0.9793,12.8495 2.9935,28.0569 23.659801,26.4222 z"
        fill="#f7bd13"
        stroke-width="0"
      />
      <path
        id="path182"
        d="M 106.5001,1179.0005 H 0 v -78.0001 h 106.4991 v 14.726 c -11.2682,-0.2321 -30.918001,4.0933 -23.659801,20.807 -0.9793,12.8495 2.9935,28.0569 23.659801,26.4222 z"
        fill="#f7bd13"
        stroke-width="0"
      />
      <path
        id="path184"
        d="M 106.5001,1079.0004 H 0 v -78.0001 h 106.4991 v 14.726 c -11.2682,-0.2321 -30.918001,4.0933 -23.659801,20.807 -0.9793,12.8495 2.9935,28.0569 23.659801,26.4222 z"
        fill="#f7bd13"
        stroke-width="0"
      />
      <path
        id="path186"
        d="M 106.5001,979.0004 H 0 v -78.0001 h 106.4991 v 14.726 c -11.2682,-0.2321 -30.918001,4.0933 -23.659801,20.807 -0.9793,12.8495 2.9935,28.0569 23.659801,26.4222 z"
        fill="#f7bd13"
        stroke-width="0"
      />
      <path
        id="path188"
        d="M 106.5001,879.00037 H 0 v -78.0001 h 106.4991 v 14.726 c -11.2682,-0.2321 -30.918001,4.0933 -23.659801,20.807 -0.9793,12.8495 2.9935,28.0569 23.659801,26.4222 z"
        fill="#f7bd13"
        stroke-width="0"
      />
      <path
        id="path190"
        d="M 106.5001,779.00034 H 0 v -78.0001 h 106.4991 v 14.726 c -11.2682,-0.2321 -30.918001,4.0933 -23.659801,20.807 -0.9793,12.8495 2.9935,28.0569 23.659801,26.4222 z"
        fill="#f7bd13"
        stroke-width="0"
      />
      <path
        id="path192"
        d="M 106.5001,679.0003 H 0 v -78.0001 h 106.4991 v 14.726 c -11.2682,-0.2321 -30.918001,4.0933 -23.659801,20.807 -0.9793,12.8495 2.9935,28.0569 23.659801,26.4222 z"
        fill="#f7bd13"
        stroke-width="0"
      />
      <path
        id="path194"
        d="M 106.5001,579.00027 H 0 v -78.0001 h 106.4991 v 14.726 c -11.2682,-0.2321 -30.918001,4.0933 -23.659801,20.807 -0.9793,12.8495 2.9935,28.0569 23.659801,26.4222 z"
        fill="#f7bd13"
        stroke-width="0"
      />
      <path
        id="path196"
        d="M 106.5001,479.00024 H 0 v -78.0001 h 106.4991 v 14.726 c -11.2682,-0.2321 -30.918001,4.0933 -23.659801,20.807 -0.9793,12.8495 2.9935,28.0569 23.659801,26.4222 z"
        fill="#f7bd13"
        stroke-width="0"
      />
      <path
        id="path198"
        d="M 106.5001,379.0002 H 0 v -78.0001 h 106.4991 v 14.726 c -11.2682,-0.2321 -30.918001,4.0933 -23.659801,20.807 -0.9793,12.8495 2.9935,28.0569 23.659801,26.4222 z"
        fill="#f7bd13"
        stroke-width="0"
      />
      <path
        id="path200"
        d="M 106.5001,279.00017 H 0 v -78.0001 h 106.4991 v 14.726 c -11.2682,-0.2321 -30.918001,4.0933 -23.659801,20.807 -0.9793,12.8495 2.9935,28.0569 23.659801,26.4222 z"
        fill="#f7bd13"
        stroke-width="0"
      />
      <path
        id="path202"
        d="M 106.5001,179.00013 H 0 v -78.0001 h 106.4991 v 14.726 c -11.2682,-0.2321 -30.918001,4.0933 -23.659801,20.807 -0.9793,12.8495 2.9935,28.0569 23.659801,26.4222 z"
        fill="#f7bd13"
        stroke-width="0"
      />
      <circle
        id="connector0pin"
        cx="104.62502"
        cy="140.09514"
        r="29"
        fill="none"
        stroke="#f7bd13"
        stroke-width="20"
      />
      <circle
        r="29"
        cy="240.14276"
        cx="104.62502"
        id="connector1pin"
        fill="none"
        stroke="#f7bd13"
        stroke-width="20"
      />
      <circle
        id="connector2pin"
        cx="104.62502"
        cy="340.14279"
        r="29"
        fill="none"
        stroke="#f7bd13"
        stroke-width="20"
      />
      <circle
        r="29"
        cy="440.14282"
        cx="104.62502"
        id="connector3pin"
        fill="none"
        stroke="#f7bd13"
        stroke-width="20"
      />
      <circle
        id="connector4pin"
        cx="104.62502"
        cy="540.14282"
        r="29"
        fill="none"
        stroke="#f7bd13"
        stroke-width="20"
      />
      <circle
        r="29"
        cy="640.14288"
        cx="104.62502"
        id="connector5pin"
        fill="none"
        stroke="#f7bd13"
        stroke-width="20"
      />
      <circle
        id="connector6pin"
        cx="104.62502"
        cy="740.14288"
        r="29"
        fill="none"
        stroke="#f7bd13"
        stroke-width="20"
      />
      <circle
        r="29"
        cy="840.14294"
        cx="104.62502"
        id="connector7pin"
        fill="none"
        stroke="#f7bd13"
        stroke-width="20"
      />
      <circle
        id="connector8pin"
        cx="104.62502"
        cy="940.14294"
        r="29"
        fill="none"
        stroke="#f7bd13"
        stroke-width="20"
      />
      <circle
        r="29"
        cy="1040.1429"
        cx="104.62502"
        id="connector9pin"
        fill="none"
        stroke="#f7bd13"
        stroke-width="20"
      />
      <circle
        id="connector10pin"
        cx="104.62502"
        cy="1140.1431"
        r="29"
        fill="none"
        stroke="#f7bd13"
        stroke-width="20"
      />
      <circle
        r="29"
        cy="1240.1431"
        cx="104.62502"
        id="connector11pin"
        fill="none"
        stroke="#f7bd13"
        stroke-width="20"
      />
      <circle
        id="connector12pin"
        cx="104.62502"
        cy="1340.1431"
        r="29"
        fill="none"
        stroke="#f7bd13"
        stroke-width="20"
      />
      <circle
        r="29"
        cy="1440.1432"
        cx="104.62502"
        id="connector13pin"
        fill="none"
        stroke="#f7bd13"
        stroke-width="20"
      />
      <circle
        id="connector14pin"
        cx="104.62502"
        cy="1540.1432"
        r="29"
        fill="none"
        stroke="#f7bd13"
        stroke-width="20"
      />
      <circle
        r="29"
        cy="1640.1432"
        cx="104.62502"
        id="connector15pin"
        fill="none"
        stroke="#f7bd13"
        stroke-width="20"
      />
      <circle
        id="connector16pin"
        cx="104.62502"
        cy="1740.1432"
        r="29"
        fill="none"
        stroke="#f7bd13"
        stroke-width="20"
      />
      <circle
        r="29"
        cy="1840.1433"
        cx="104.62502"
        id="connector17pin"
        fill="none"
        stroke="#f7bd13"
        stroke-width="20"
      />
      <circle
        id="connector18pin"
        cx="104.62502"
        cy="1940.1433"
        r="29"
        fill="none"
        stroke="#f7bd13"
        stroke-width="20"
      />
      <circle
        r="29"
        cy="2040.1433"
        cx="104.62502"
        id="connector19pin"
        fill="none"
        stroke="#f7bd13"
        stroke-width="20"
      />
      <circle
        id="connector20pin"
        cx="804.18774"
        cy="2040.1433"
        r="29"
        fill="none"
        stroke="#f7bd13"
        stroke-width="20"
      />
      <circle
        r="29"
        cy="1940.1433"
        cx="804.18774"
        id="connector21pin"
        fill="none"
        stroke="#f7bd13"
        stroke-width="20"
      />
      <circle
        id="connector22pin"
        cx="804.18774"
        cy="1840.1433"
        r="29"
        fill="none"
        stroke="#f7bd13"
        stroke-width="20"
      />
      <circle
        r="29"
        cy="1740.1432"
        cx="804.18774"
        id="connector23pin"
        fill="none"
        stroke="#f7bd13"
        stroke-width="20"
      />
      <circle
        id="connector24pin"
        cx="804.18774"
        cy="1640.1432"
        r="29"
        fill="none"
        stroke="#f7bd13"
        stroke-width="20"
      />
      <circle
        r="29"
        cy="1540.1432"
        cx="804.18774"
        id="connector25pin"
        fill="none"
        stroke="#f7bd13"
        stroke-width="20"
      />
      <circle
        id="connector26pin"
        cx="804.18774"
        cy="1440.1432"
        r="29"
        fill="none"
        stroke="#f7bd13"
        stroke-width="20"
      />
      <circle
        r="29"
        cy="1340.1431"
        cx="804.18774"
        id="connector27pin"
        fill="none"
        stroke="#f7bd13"
        stroke-width="20"
      />
      <circle
        id="connector28pin"
        cx="804.18774"
        cy="1240.1431"
        r="29"
        fill="none"
        stroke="#f7bd13"
        stroke-width="20"
      />
      <circle
        r="29"
        cy="1140.1431"
        cx="804.18774"
        id="connector29pin"
        fill="none"
        stroke="#f7bd13"
        stroke-width="20"
      />
      <circle
        id="connector30pin"
        cx="804.18774"
        cy="1040.1429"
        r="29"
        fill="none"
        stroke="#f7bd13"
        stroke-width="20"
      />
      <circle
        r="29"
        cy="940.14294"
        cx="804.18774"
        id="connector31pin"
        fill="none"
        stroke="#f7bd13"
        stroke-width="20"
      />
      <circle
        id="connector32pin"
        cx="804.18774"
        cy="840.14294"
        r="29"
        fill="none"
        stroke="#f7bd13"
        stroke-width="20"
      />
      <circle
        r="29"
        cy="740.14288"
        cx="804.18774"
        id="connector33pin"
        fill="none"
        stroke="#f7bd13"
        stroke-width="20"
      />
      <circle
        id="connector34pin"
        cx="804.18774"
        cy="640.14288"
        r="29"
        fill="none"
        stroke="#f7bd13"
        stroke-width="20"
      />
      <circle
        r="29"
        cy="540.14282"
        cx="804.18774"
        id="connector35pin"
        fill="none"
        stroke="#f7bd13"
        stroke-width="20"
      />
      <circle
        id="connector36pin"
        cx="804.18774"
        cy="440.14282"
        r="29"
        fill="none"
        stroke="#f7bd13"
        stroke-width="20"
      />
      <circle
        r="29"
        cy="340.14279"
        cx="804.18774"
        id="connector37pin"
        fill="none"
        stroke="#f7bd13"
        stroke-width="20"
      />
      <circle
        id="connector38pin"
        cx="804.18774"
        cy="240.14276"
        r="29"
        fill="none"
        stroke="#f7bd13"
        stroke-width="20"
      />
      <circle
        r="29"
        cy="140.14272"
        cx="804.18774"
        id="connector39pin"
        fill="none"
        stroke="#f7bd13"
        stroke-width="20"
      />
      <circle
        id="connector40pin"
        cx="354.18753"
        cy="2040.1433"
        r="29"
        fill="none"
        stroke="#f7bd13"
        stroke-width="20"
      />
      <circle
        r="29"
        cy="2040.1433"
        cx="454.18753"
        id="connector41pin"
        fill="none"
        stroke="#f7bd13"
        stroke-width="20"
      />
      <circle
        id="connector42pin"
        cx="554.1875"
        cy="2040.1433"
        r="29"
        fill="none"
        stroke="#f7bd13"
        stroke-width="20"
      />
    </g>
  </g>
</svg>
