<?xml version='1.0' encoding='UTF-8' standalone='no'?>
<svg
  xmlns:dc="http://purl.org/dc/elements/1.1/"
  xmlns:cc="http://creativecommons.org/ns#"
  xmlns:rdf="http://www.w3.org/1999/02/22-rdf-syntax-ns#"
  xmlns:svg="http://www.w3.org/2000/svg"
  xmlns="http://www.w3.org/2000/svg"
  id="svg288"
  x="0in"
  version="1.2"
  viewBox="0 0 610.37798 2110"
  height="2.1099999in"
  y="0in"
  width="0.61037797in">
  <metadata
    id="metadata294">
    <rdf:RDF>
      <cc:Work
        rdf:about="">
        <dc:format>image/svg+xml</dc:format>
        <dc:type
          rdf:resource="http://purl.org/dc/dcmitype/StillImage"
        />
        <dc:title/>
      </cc:Work>
    </rdf:RDF>
  </metadata>
  <defs
    id="defs292"
  />
  <desc
    id="desc2">
    <referenceFile>DIP-40-oblong-pads-600mil_1_schematic.svg</referenceFile>
  </desc>
  <g
    id="schematic">
    <rect
      id="rect4"
      x="105.21597"
      height="2100"
      y="5"
      width="400.00003"
      fill="none"
      stroke="#000000"
      stroke-width="10"
      stroke-linecap="round"
      stroke-linejoin="round"
    />
    <text
      gorn="0.1.1"
      x="300.96115"
      id="label"
      font-size="60"
      y="961.52533"
      font-family="'Droid Sans'"
      text-anchor="middle"
      fill="#000000"
      stroke="none">IC</text>
    <line
      id="connector0pin"
      x2="100.5016"
      y2="105.13842"
      y1="105.13842"
      x1="4.9303346"
      fill="none"
      stroke="#555555"
      stroke-width="10"
      stroke-linecap="round"
      stroke-linejoin="round"
    />
    <rect
      gorn="0.1.4"
      x="0.21596649"
      id="connector0terminal"
      height="10"
      y="100.27781"
      width="10"
      fill="none"
      stroke-width="0"
    />
    <text
      gorn="0.1.5"
      x="119.67004"
      id="label0"
      font-size="49"
      y="119.7221"
      font-family="'Droid Sans'"
      text-anchor="start"
      fill="#555555"
      stroke="none">1</text>
    <text
      id="text12"
      class="text"
      x="57.7127"
      font-size="35"
      y="95.657669"
      font-family="'Droid Sans'"
      text-anchor="middle"
      fill="#555555"
      stroke="none"
      stroke-width="0">1</text>
    <line
      id="connector1pin"
      x2="100.33621"
      y2="205.13841"
      y1="205.13841"
      x1="5.1463013"
      fill="none"
      stroke="#555555"
      stroke-width="10"
      stroke-linecap="round"
      stroke-linejoin="round"
    />
    <rect
      gorn="0.1.9"
      x="0.21596649"
      id="connector1terminal"
      height="10"
      y="200.2778"
      width="10"
      fill="none"
      stroke-width="0"
    />
    <text
      gorn="0.1.10"
      x="119.67004"
      id="label1"
      font-size="49"
      y="219.72209"
      font-family="'Droid Sans'"
      text-anchor="start"
      fill="#555555"
      stroke="none">2</text>
    <text
      id="text19"
      class="text"
      x="57.7127"
      font-size="35"
      y="195.65796"
      font-family="'Droid Sans'"
      text-anchor="middle"
      fill="#555555"
      stroke="none"
      stroke-width="0">2</text>
    <line
      id="connector2pin"
      x2="100.33621"
      y2="305.13843"
      y1="305.13843"
      x1="5.1463013"
      fill="none"
      stroke="#555555"
      stroke-width="10"
      stroke-linecap="round"
      stroke-linejoin="round"
    />
    <rect
      gorn="0.1.14"
      x="0.21596649"
      id="connector2terminal"
      height="10"
      y="305.1391"
      width="10"
      fill="none"
      stroke-width="0"
    />
    <text
      gorn="0.1.15"
      x="119.67004"
      id="label2"
      font-size="49"
      y="319.72208"
      font-family="'Droid Sans'"
      text-anchor="start"
      fill="#555555"
      stroke="none">3</text>
    <text
      id="text26"
      class="text"
      x="57.7127"
      font-size="35"
      y="295.65796"
      font-family="'Droid Sans'"
      text-anchor="middle"
      fill="#555555"
      stroke="none"
      stroke-width="0">3</text>
    <line
      id="connector3pin"
      x2="100.33621"
      y2="405.13843"
      y1="405.13843"
      x1="5.1463013"
      fill="none"
      stroke="#555555"
      stroke-width="10"
      stroke-linecap="round"
      stroke-linejoin="round"
    />
    <rect
      gorn="0.1.19"
      x="0.21596649"
      id="connector3terminal"
      height="10"
      y="405.1391"
      width="10"
      fill="none"
      stroke-width="0"
    />
    <text
      gorn="0.1.20"
      x="119.67004"
      id="label3"
      font-size="49"
      y="419.72208"
      font-family="'Droid Sans'"
      text-anchor="start"
      fill="#555555"
      stroke="none">4</text>
    <text
      id="text33"
      class="text"
      x="57.7127"
      font-size="35"
      y="395.65796"
      font-family="'Droid Sans'"
      text-anchor="middle"
      fill="#555555"
      stroke="none"
      stroke-width="0">4</text>
    <line
      id="connector4pin"
      x2="100.33621"
      y2="505.13843"
      y1="505.13843"
      x1="5.1463013"
      fill="none"
      stroke="#555555"
      stroke-width="10"
      stroke-linecap="round"
      stroke-linejoin="round"
    />
    <rect
      gorn="0.1.24"
      x="0.21596649"
      id="connector4terminal"
      height="10"
      y="505.1391"
      width="10"
      fill="none"
      stroke-width="0"
    />
    <text
      gorn="0.1.25"
      x="119.67004"
      id="label4"
      font-size="49"
      y="519.72211"
      font-family="'Droid Sans'"
      text-anchor="start"
      fill="#555555"
      stroke="none">5</text>
    <text
      id="text40"
      class="text"
      x="57.7127"
      font-size="35"
      y="495.65796"
      font-family="'Droid Sans'"
      text-anchor="middle"
      fill="#555555"
      stroke="none"
      stroke-width="0">5</text>
    <line
      id="connector5pin"
      x2="100.33621"
      y2="605.13849"
      y1="605.13849"
      x1="5.1463013"
      fill="none"
      stroke="#555555"
      stroke-width="10"
      stroke-linecap="round"
      stroke-linejoin="round"
    />
    <rect
      gorn="0.1.29"
      x="0.21596649"
      id="connector5terminal"
      height="10"
      y="600.27783"
      width="10"
      fill="none"
      stroke-width="0"
    />
    <text
      gorn="0.1.30"
      x="119.67004"
      id="label5"
      font-size="49"
      y="619.72211"
      font-family="'Droid Sans'"
      text-anchor="start"
      fill="#555555"
      stroke="none">6</text>
    <text
      id="text47"
      class="text"
      x="57.7127"
      font-size="35"
      y="595.65796"
      font-family="'Droid Sans'"
      text-anchor="middle"
      fill="#555555"
      stroke="none"
      stroke-width="0">6</text>
    <line
      id="connector6pin"
      x2="100.33621"
      y2="705.13849"
      y1="705.13849"
      x1="5.1463013"
      fill="none"
      stroke="#555555"
      stroke-width="10"
      stroke-linecap="round"
      stroke-linejoin="round"
    />
    <rect
      gorn="0.1.34"
      x="0.21596649"
      id="connector6terminal"
      height="10"
      y="700.27783"
      width="10"
      fill="none"
      stroke-width="0"
    />
    <text
      gorn="0.1.35"
      x="119.67004"
      id="label6"
      font-size="49"
      y="719.72211"
      font-family="'Droid Sans'"
      text-anchor="start"
      fill="#555555"
      stroke="none">7</text>
    <text
      id="text54"
      class="text"
      x="57.7127"
      font-size="35"
      y="695.65796"
      font-family="'Droid Sans'"
      text-anchor="middle"
      fill="#555555"
      stroke="none"
      stroke-width="0">7</text>
    <line
      id="connector7pin"
      x2="100.33621"
      y2="805.13849"
      y1="805.13849"
      x1="5.1463013"
      fill="none"
      stroke="#555555"
      stroke-width="10"
      stroke-linecap="round"
      stroke-linejoin="round"
    />
    <rect
      gorn="0.1.39"
      x="0.21596649"
      id="connector7terminal"
      height="10"
      y="805.1391"
      width="10"
      fill="none"
      stroke-width="0"
    />
    <text
      gorn="0.1.40"
      x="119.67004"
      id="label7"
      font-size="49"
      y="819.72211"
      font-family="'Droid Sans'"
      text-anchor="start"
      fill="#555555"
      stroke="none">8</text>
    <text
      id="text61"
      class="text"
      x="57.7127"
      font-size="35"
      y="795.65796"
      font-family="'Droid Sans'"
      text-anchor="middle"
      fill="#555555"
      stroke="none"
      stroke-width="0">8</text>
    <line
      id="connector8pin"
      x2="100.33621"
      y2="905.13849"
      y1="905.13849"
      x1="5.1463013"
      fill="none"
      stroke="#555555"
      stroke-width="10"
      stroke-linecap="round"
      stroke-linejoin="round"
    />
    <rect
      gorn="0.1.44"
      x="0.21596649"
      id="connector8terminal"
      height="10"
      y="905.1391"
      width="10"
      fill="none"
      stroke-width="0"
    />
    <text
      gorn="0.1.45"
      x="119.67004"
      id="label8"
      font-size="49"
      y="919.72211"
      font-family="'Droid Sans'"
      text-anchor="start"
      fill="#555555"
      stroke="none">9</text>
    <text
      id="text68"
      class="text"
      x="57.7127"
      font-size="35"
      y="895.65796"
      font-family="'Droid Sans'"
      text-anchor="middle"
      fill="#555555"
      stroke="none"
      stroke-width="0">9</text>
    <line
      id="connector9pin"
      x2="100.33621"
      y2="1005.1385"
      y1="1005.1385"
      x1="5.1463013"
      fill="none"
      stroke="#555555"
      stroke-width="10"
      stroke-linecap="round"
      stroke-linejoin="round"
    />
    <rect
      gorn="0.1.49"
      x="0.21596649"
      id="connector9terminal"
      height="10"
      y="1000.2779"
      width="10"
      fill="none"
      stroke-width="0"
    />
    <text
      gorn="0.1.50"
      x="119.67004"
      id="label9"
      font-size="49"
      y="1019.7201"
      font-family="'Droid Sans'"
      text-anchor="start"
      fill="#555555"
      stroke="none">10</text>
    <text
      id="text75"
      class="text"
      x="57.7127"
      font-size="35"
      y="995.65796"
      font-family="'Droid Sans'"
      text-anchor="middle"
      fill="#555555"
      stroke="none"
      stroke-width="0">10</text>
    <line
      id="connector10pin"
      x2="100.33621"
      y2="1105.1385"
      y1="1105.1385"
      x1="5.1463013"
      fill="none"
      stroke="#555555"
      stroke-width="10"
      stroke-linecap="round"
      stroke-linejoin="round"
    />
    <rect
      gorn="0.1.54"
      x="0.21596649"
      id="connector10terminal"
      height="10"
      y="1100.2778"
      width="10"
      fill="none"
      stroke-width="0"
    />
    <text
      gorn="0.1.55"
      x="119.67004"
      id="label10"
      font-size="49"
      y="1119.7201"
      font-family="'Droid Sans'"
      text-anchor="start"
      fill="#555555"
      stroke="none">11</text>
    <text
      id="text82"
      class="text"
      x="57.7127"
      font-size="35"
      y="1095.661"
      font-family="'Droid Sans'"
      text-anchor="middle"
      fill="#555555"
      stroke="none"
      stroke-width="0">11</text>
    <line
      id="connector11pin"
      x2="100.33621"
      y2="1205.1385"
      y1="1205.1385"
      x1="5.1463013"
      fill="none"
      stroke="#555555"
      stroke-width="10"
      stroke-linecap="round"
      stroke-linejoin="round"
    />
    <rect
      gorn="0.1.59"
      x="0.21596649"
      id="connector11terminal"
      height="10"
      y="1200.2778"
      width="10"
      fill="none"
      stroke-width="0"
    />
    <text
      gorn="0.1.60"
      x="119.67004"
      id="label11"
      font-size="49"
      y="1219.7201"
      font-family="'Droid Sans'"
      text-anchor="start"
      fill="#555555"
      stroke="none">12</text>
    <text
      id="text89"
      class="text"
      x="57.7127"
      font-size="35"
      y="1195.661"
      font-family="'Droid Sans'"
      text-anchor="middle"
      fill="#555555"
      stroke="none"
      stroke-width="0">12</text>
    <line
      id="connector12pin"
      x2="100.33621"
      y2="1305.1385"
      y1="1305.1385"
      x1="5.1463013"
      fill="none"
      stroke="#555555"
      stroke-width="10"
      stroke-linecap="round"
      stroke-linejoin="round"
    />
    <rect
      gorn="0.1.64"
      x="0.21596649"
      id="connector12terminal"
      height="10"
      y="1300.2778"
      width="10"
      fill="none"
      stroke-width="0"
    />
    <text
      gorn="0.1.65"
      x="119.67004"
      id="label12"
      font-size="49"
      y="1319.7201"
      font-family="'Droid Sans'"
      text-anchor="start"
      fill="#555555"
      stroke="none">13</text>
    <text
      id="text96"
      class="text"
      x="57.7127"
      font-size="35"
      y="1295.661"
      font-family="'Droid Sans'"
      text-anchor="middle"
      fill="#555555"
      stroke="none"
      stroke-width="0">13</text>
    <line
      id="connector13pin"
      x2="100.33621"
      y2="1405.1385"
      y1="1405.1385"
      x1="5.1463013"
      fill="none"
      stroke="#555555"
      stroke-width="10"
      stroke-linecap="round"
      stroke-linejoin="round"
    />
    <rect
      gorn="0.1.69"
      x="0.21596649"
      id="connector13terminal"
      height="10"
      y="1400.2778"
      width="10"
      fill="none"
      stroke-width="0"
    />
    <text
      gorn="0.1.70"
      x="119.67004"
      id="label13"
      font-size="49"
      y="1419.7201"
      font-family="'Droid Sans'"
      text-anchor="start"
      fill="#555555"
      stroke="none">14</text>
    <text
      id="text103"
      class="text"
      x="57.7127"
      font-size="35"
      y="1395.661"
      font-family="'Droid Sans'"
      text-anchor="middle"
      fill="#555555"
      stroke="none"
      stroke-width="0">14</text>
    <line
      id="connector14pin"
      x2="100.33621"
      y2="1505.1385"
      y1="1505.1385"
      x1="5.1463013"
      fill="none"
      stroke="#555555"
      stroke-width="10"
      stroke-linecap="round"
      stroke-linejoin="round"
    />
    <rect
      gorn="0.1.74"
      x="0.21596649"
      id="connector14terminal"
      height="10"
      y="1500.278"
      width="10"
      fill="none"
      stroke-width="0"
    />
    <text
      gorn="0.1.75"
      x="119.67004"
      id="label14"
      font-size="49"
      y="1519.7201"
      font-family="'Droid Sans'"
      text-anchor="start"
      fill="#555555"
      stroke="none">15</text>
    <text
      id="text110"
      class="text"
      x="57.7127"
      font-size="35"
      y="1495.661"
      font-family="'Droid Sans'"
      text-anchor="middle"
      fill="#555555"
      stroke="none"
      stroke-width="0">15</text>
    <line
      id="connector15pin"
      x2="100.33621"
      y2="1605.1385"
      y1="1605.1385"
      x1="5.1463013"
      fill="none"
      stroke="#555555"
      stroke-width="10"
      stroke-linecap="round"
      stroke-linejoin="round"
    />
    <rect
      gorn="0.1.79"
      x="0.21596649"
      id="connector15terminal"
      height="10"
      y="1600.278"
      width="10"
      fill="none"
      stroke-width="0"
    />
    <text
      gorn="0.1.80"
      x="119.67004"
      id="label15"
      font-size="49"
      y="1619.7201"
      font-family="'Droid Sans'"
      text-anchor="start"
      fill="#555555"
      stroke="none">16</text>
    <text
      id="text117"
      class="text"
      x="57.7127"
      font-size="35"
      y="1595.661"
      font-family="'Droid Sans'"
      text-anchor="middle"
      fill="#555555"
      stroke="none"
      stroke-width="0">16</text>
    <line
      id="connector16pin"
      x2="100.33621"
      y2="1705.1385"
      y1="1705.1385"
      x1="5.1463013"
      fill="none"
      stroke="#555555"
      stroke-width="10"
      stroke-linecap="round"
      stroke-linejoin="round"
    />
    <rect
      gorn="0.1.84"
      x="0.21596649"
      id="connector16terminal"
      height="10"
      y="1705.1401"
      width="10"
      fill="none"
      stroke-width="0"
    />
    <text
      gorn="0.1.85"
      x="119.67004"
      id="label16"
      font-size="49"
      y="1719.7201"
      font-family="'Droid Sans'"
      text-anchor="start"
      fill="#555555"
      stroke="none">17</text>
    <text
      id="text124"
      class="text"
      x="57.7127"
      font-size="35"
      y="1695.661"
      font-family="'Droid Sans'"
      text-anchor="middle"
      fill="#555555"
      stroke="none"
      stroke-width="0">17</text>
    <line
      id="connector17pin"
      x2="100.33621"
      y2="1805.1385"
      y1="1805.1385"
      x1="5.1463013"
      fill="none"
      stroke="#555555"
      stroke-width="10"
      stroke-linecap="round"
      stroke-linejoin="round"
    />
    <rect
      gorn="0.1.89"
      x="0.21596649"
      id="connector17terminal"
      height="10"
      y="1800.278"
      width="10"
      fill="none"
      stroke-width="0"
    />
    <text
      gorn="0.1.90"
      x="119.67004"
      id="label17"
      font-size="49"
      y="1819.7201"
      font-family="'Droid Sans'"
      text-anchor="start"
      fill="#555555"
      stroke="none">18</text>
    <text
      id="text131"
      class="text"
      x="57.7127"
      font-size="35"
      y="1795.661"
      font-family="'Droid Sans'"
      text-anchor="middle"
      fill="#555555"
      stroke="none"
      stroke-width="0">18</text>
    <line
      id="connector18pin"
      x2="100.33624"
      y2="1905.1385"
      y1="1905.1385"
      x1="5.1463013"
      fill="none"
      stroke="#555555"
      stroke-width="10"
      stroke-linecap="round"
      stroke-linejoin="round"
    />
    <rect
      gorn="0.1.94"
      x="0.21596649"
      id="connector18terminal"
      height="10"
      y="1900.278"
      width="10"
      fill="none"
      stroke-width="0"
    />
    <text
      gorn="0.1.95"
      x="119.67004"
      id="label18"
      font-size="49"
      y="1919.7201"
      font-family="'Droid Sans'"
      text-anchor="start"
      fill="#555555"
      stroke="none">19</text>
    <text
      id="text138"
      class="text"
      x="57.7127"
      font-size="35"
      y="1895.661"
      font-family="'Droid Sans'"
      text-anchor="middle"
      fill="#555555"
      stroke="none"
      stroke-width="0">19</text>
    <line
      id="connector19pin"
      x2="100.33621"
      y2="2005.1385"
      y1="2005.1385"
      x1="5.1463013"
      fill="none"
      stroke="#555555"
      stroke-width="10"
      stroke-linecap="round"
      stroke-linejoin="round"
    />
    <rect
      gorn="0.1.99"
      x="0.21596649"
      id="connector19terminal"
      height="10"
      y="2005.1401"
      width="10"
      fill="none"
      stroke-width="0"
    />
    <text
      gorn="0.1.100"
      x="119.67004"
      id="label19"
      font-size="49"
      y="2019.7201"
      font-family="'Droid Sans'"
      text-anchor="start"
      fill="#555555"
      stroke="none">20</text>
    <text
      id="text145"
      class="text"
      x="57.7127"
      font-size="35"
      y="1995.661"
      font-family="'Droid Sans'"
      text-anchor="middle"
      fill="#555555"
      stroke="none"
      stroke-width="0">20</text>
    <line
      id="connector39pin"
      x2="605.44757"
      y2="105.13842"
      y1="105.13842"
      x1="510.14633"
      fill="none"
      stroke="#555555"
      stroke-width="10"
      stroke-linecap="round"
      stroke-linejoin="round"
    />
    <rect
      gorn="0.1.104"
      x="600.21594"
      id="connector39terminal"
      height="10"
      y="100.27781"
      width="10"
      fill="none"
      stroke-width="0"
    />
    <text
      gorn="0.1.105"
      x="480.77197"
      id="label39"
      font-size="49"
      y="119.7221"
      font-family="'Droid Sans'"
      text-anchor="end"
      fill="#555555"
      stroke="none">40</text>
    <text
      id="text152"
      class="text"
      x="548.95038"
      font-size="35"
      y="95.416801"
      font-family="'Droid Sans'"
      text-anchor="middle"
      fill="#555555"
      stroke="none"
      stroke-width="0">40</text>
    <line
      id="connector38pin"
      x2="605.44757"
      y2="205.13841"
      y1="205.13841"
      x1="510.14633"
      fill="none"
      stroke="#555555"
      stroke-width="10"
      stroke-linecap="round"
      stroke-linejoin="round"
    />
    <rect
      gorn="0.1.109"
      x="600.21594"
      id="connector38terminal"
      height="10"
      y="200.2778"
      width="10"
      fill="none"
      stroke-width="0"
    />
    <text
      gorn="0.1.110"
      x="480.77197"
      id="label38"
      font-size="49"
      y="219.72209"
      font-family="'Droid Sans'"
      text-anchor="end"
      fill="#555555"
      stroke="none">39</text>
    <text
      id="text159"
      class="text"
      x="548.95038"
      font-size="35"
      y="195.4171"
      font-family="'Droid Sans'"
      text-anchor="middle"
      fill="#555555"
      stroke="none"
      stroke-width="0">39</text>
    <line
      id="connector37pin"
      x2="605.44757"
      y2="305.13843"
      y1="305.13843"
      x1="510.14633"
      fill="none"
      stroke="#555555"
      stroke-width="10"
      stroke-linecap="round"
      stroke-linejoin="round"
    />
    <rect
      gorn="0.1.114"
      x="600.21594"
      id="connector37terminal"
      height="10"
      y="300.2778"
      width="10"
      fill="none"
      stroke-width="0"
    />
    <text
      gorn="0.1.115"
      x="480.77197"
      id="label37"
      font-size="49"
      y="319.72208"
      font-family="'Droid Sans'"
      text-anchor="end"
      fill="#555555"
      stroke="none">38</text>
    <text
      id="text166"
      class="text"
      x="548.95038"
      font-size="35"
      y="295.41708"
      font-family="'Droid Sans'"
      text-anchor="middle"
      fill="#555555"
      stroke="none"
      stroke-width="0">38</text>
    <line
      id="connector36pin"
      x2="605.44757"
      y2="405.13843"
      y1="405.13843"
      x1="510.14633"
      fill="none"
      stroke="#555555"
      stroke-width="10"
      stroke-linecap="round"
      stroke-linejoin="round"
    />
    <rect
      gorn="0.1.119"
      x="600.21594"
      id="connector36terminal"
      height="10"
      y="400.2778"
      width="10"
      fill="none"
      stroke-width="0"
    />
    <text
      gorn="0.1.120"
      x="480.77197"
      id="label36"
      font-size="49"
      y="419.72208"
      font-family="'Droid Sans'"
      text-anchor="end"
      fill="#555555"
      stroke="none">37</text>
    <text
      id="text173"
      class="text"
      x="548.95038"
      font-size="35"
      y="395.41708"
      font-family="'Droid Sans'"
      text-anchor="middle"
      fill="#555555"
      stroke="none"
      stroke-width="0">37</text>
    <line
      id="connector35pin"
      x2="605.44757"
      y2="505.13843"
      y1="505.13843"
      x1="510.14633"
      fill="none"
      stroke="#555555"
      stroke-width="10"
      stroke-linecap="round"
      stroke-linejoin="round"
    />
    <rect
      gorn="0.1.124"
      x="600.21594"
      id="connector35terminal"
      height="10"
      y="500.27783"
      width="10"
      fill="none"
      stroke-width="0"
    />
    <text
      gorn="0.1.125"
      x="480.77197"
      id="label35"
      font-size="49"
      y="519.72211"
      font-family="'Droid Sans'"
      text-anchor="end"
      fill="#555555"
      stroke="none">36</text>
    <text
      id="text180"
      class="text"
      x="548.95038"
      font-size="35"
      y="495.41708"
      font-family="'Droid Sans'"
      text-anchor="middle"
      fill="#555555"
      stroke="none"
      stroke-width="0">36</text>
    <line
      id="connector34pin"
      x2="605.44757"
      y2="605.13849"
      y1="605.13849"
      x1="510.14633"
      fill="none"
      stroke="#555555"
      stroke-width="10"
      stroke-linecap="round"
      stroke-linejoin="round"
    />
    <rect
      gorn="0.1.129"
      x="600.21594"
      id="connector34terminal"
      height="10"
      y="600.27783"
      width="10"
      fill="none"
      stroke-width="0"
    />
    <text
      gorn="0.1.130"
      x="480.77197"
      id="label34"
      font-size="49"
      y="619.72211"
      font-family="'Droid Sans'"
      text-anchor="end"
      fill="#555555"
      stroke="none">35</text>
    <text
      id="text187"
      class="text"
      x="548.95038"
      font-size="35"
      y="595.41711"
      font-family="'Droid Sans'"
      text-anchor="middle"
      fill="#555555"
      stroke="none"
      stroke-width="0">35</text>
    <line
      id="connector33pin"
      x2="605.44757"
      y2="705.13849"
      y1="705.13849"
      x1="510.14633"
      fill="none"
      stroke="#555555"
      stroke-width="10"
      stroke-linecap="round"
      stroke-linejoin="round"
    />
    <rect
      gorn="0.1.134"
      x="600.21594"
      id="connector33terminal"
      height="10"
      y="700.27783"
      width="10"
      fill="none"
      stroke-width="0"
    />
    <text
      gorn="0.1.135"
      x="480.77197"
      id="label33"
      font-size="49"
      y="719.72211"
      font-family="'Droid Sans'"
      text-anchor="end"
      fill="#555555"
      stroke="none">34</text>
    <text
      id="text194"
      class="text"
      x="548.95038"
      font-size="35"
      y="695.41711"
      font-family="'Droid Sans'"
      text-anchor="middle"
      fill="#555555"
      stroke="none"
      stroke-width="0">34</text>
    <line
      id="connector32pin"
      x2="605.44757"
      y2="805.13849"
      y1="805.13849"
      x1="510.14633"
      fill="none"
      stroke="#555555"
      stroke-width="10"
      stroke-linecap="round"
      stroke-linejoin="round"
    />
    <rect
      gorn="0.1.139"
      x="600.21594"
      id="connector32terminal"
      height="10"
      y="800.27789"
      width="10"
      fill="none"
      stroke-width="0"
    />
    <text
      gorn="0.1.140"
      x="480.77197"
      id="label32"
      font-size="49"
      y="819.72211"
      font-family="'Droid Sans'"
      text-anchor="end"
      fill="#555555"
      stroke="none">33</text>
    <text
      id="text201"
      class="text"
      x="548.95038"
      font-size="35"
      y="795.41711"
      font-family="'Droid Sans'"
      text-anchor="middle"
      fill="#555555"
      stroke="none"
      stroke-width="0">33</text>
    <line
      id="connector31pin"
      x2="605.44757"
      y2="905.13849"
      y1="905.13849"
      x1="510.14633"
      fill="none"
      stroke="#555555"
      stroke-width="10"
      stroke-linecap="round"
      stroke-linejoin="round"
    />
    <rect
      gorn="0.1.144"
      x="600.21594"
      id="connector31terminal"
      height="10"
      y="900.27789"
      width="10"
      fill="none"
      stroke-width="0"
    />
    <text
      gorn="0.1.145"
      x="480.77197"
      id="label31"
      font-size="49"
      y="919.72211"
      font-family="'Droid Sans'"
      text-anchor="end"
      fill="#555555"
      stroke="none">32</text>
    <text
      id="text208"
      class="text"
      x="548.95038"
      font-size="35"
      y="895.41711"
      font-family="'Droid Sans'"
      text-anchor="middle"
      fill="#555555"
      stroke="none"
      stroke-width="0">32</text>
    <line
      id="connector30pin"
      x2="605.44757"
      y2="1005.1385"
      y1="1005.1385"
      x1="510.14633"
      fill="none"
      stroke="#555555"
      stroke-width="10"
      stroke-linecap="round"
      stroke-linejoin="round"
    />
    <rect
      gorn="0.1.149"
      x="600.21594"
      id="connector30terminal"
      height="10"
      y="1000.2779"
      width="10"
      fill="none"
      stroke-width="0"
    />
    <text
      gorn="0.1.150"
      x="480.77197"
      id="label30"
      font-size="49"
      y="1019.7201"
      font-family="'Droid Sans'"
      text-anchor="end"
      fill="#555555"
      stroke="none">31</text>
    <text
      id="text215"
      class="text"
      x="548.95038"
      font-size="35"
      y="995.41711"
      font-family="'Droid Sans'"
      text-anchor="middle"
      fill="#555555"
      stroke="none"
      stroke-width="0">31</text>
    <line
      id="connector29pin"
      x2="605.44757"
      y2="1105.1385"
      y1="1105.1385"
      x1="510.14633"
      fill="none"
      stroke="#555555"
      stroke-width="10"
      stroke-linecap="round"
      stroke-linejoin="round"
    />
    <rect
      gorn="0.1.154"
      x="600.21594"
      id="connector29terminal"
      height="10"
      y="1100.2778"
      width="10"
      fill="none"
      stroke-width="0"
    />
    <text
      gorn="0.1.155"
      x="480.77197"
      id="label29"
      font-size="49"
      y="1119.7201"
      font-family="'Droid Sans'"
      text-anchor="end"
      fill="#555555"
      stroke="none">30</text>
    <text
      id="text222"
      class="text"
      x="548.95038"
      font-size="35"
      y="1095.4202"
      font-family="'Droid Sans'"
      text-anchor="middle"
      fill="#555555"
      stroke="none"
      stroke-width="0">30</text>
    <line
      id="connector28pin"
      x2="605.44757"
      y2="1205.1385"
      y1="1205.1385"
      x1="510.14633"
      fill="none"
      stroke="#555555"
      stroke-width="10"
      stroke-linecap="round"
      stroke-linejoin="round"
    />
    <rect
      gorn="0.1.159"
      x="600.21594"
      id="connector28terminal"
      height="10"
      y="1200.2778"
      width="10"
      fill="none"
      stroke-width="0"
    />
    <text
      gorn="0.1.160"
      x="480.77197"
      id="label28"
      font-size="49"
      y="1219.7201"
      font-family="'Droid Sans'"
      text-anchor="end"
      fill="#555555"
      stroke="none">29</text>
    <text
      id="text229"
      class="text"
      x="548.95038"
      font-size="35"
      y="1195.4202"
      font-family="'Droid Sans'"
      text-anchor="middle"
      fill="#555555"
      stroke="none"
      stroke-width="0">29</text>
    <line
      id="connector27pin"
      x2="605.44757"
      y2="1305.1385"
      y1="1305.1385"
      x1="510.14633"
      fill="none"
      stroke="#555555"
      stroke-width="10"
      stroke-linecap="round"
      stroke-linejoin="round"
    />
    <rect
      gorn="0.1.164"
      x="600.21594"
      id="connector27terminal"
      height="10"
      y="1300.2778"
      width="10"
      fill="none"
      stroke-width="0"
    />
    <text
      gorn="0.1.165"
      x="480.77197"
      id="label27"
      font-size="49"
      y="1319.7201"
      font-family="'Droid Sans'"
      text-anchor="end"
      fill="#555555"
      stroke="none">28</text>
    <text
      id="text236"
      class="text"
      x="548.95038"
      font-size="35"
      y="1295.4202"
      font-family="'Droid Sans'"
      text-anchor="middle"
      fill="#555555"
      stroke="none"
      stroke-width="0">28</text>
    <line
      id="connector26pin"
      x2="605.44757"
      y2="1405.1385"
      y1="1405.1385"
      x1="510.14633"
      fill="none"
      stroke="#555555"
      stroke-width="10"
      stroke-linecap="round"
      stroke-linejoin="round"
    />
    <rect
      gorn="0.1.169"
      x="600.21594"
      id="connector26terminal"
      height="10"
      y="1400.2778"
      width="10"
      fill="none"
      stroke-width="0"
    />
    <text
      gorn="0.1.170"
      x="480.77197"
      id="label26"
      font-size="49"
      y="1419.7201"
      font-family="'Droid Sans'"
      text-anchor="end"
      fill="#555555"
      stroke="none">27</text>
    <text
      id="text243"
      class="text"
      x="548.95038"
      font-size="35"
      y="1395.4202"
      font-family="'Droid Sans'"
      text-anchor="middle"
      fill="#555555"
      stroke="none"
      stroke-width="0">27</text>
    <line
      id="connector25pin"
      x2="605.44757"
      y2="1505.1385"
      y1="1505.1385"
      x1="510.14633"
      fill="none"
      stroke="#555555"
      stroke-width="10"
      stroke-linecap="round"
      stroke-linejoin="round"
    />
    <rect
      gorn="0.1.174"
      x="600.21594"
      id="connector25terminal"
      height="10"
      y="1500.278"
      width="10"
      fill="none"
      stroke-width="0"
    />
    <text
      gorn="0.1.175"
      x="480.77197"
      id="label25"
      font-size="49"
      y="1519.7201"
      font-family="'Droid Sans'"
      text-anchor="end"
      fill="#555555"
      stroke="none">26</text>
    <text
      id="text250"
      class="text"
      x="548.95038"
      font-size="35"
      y="1495.4202"
      font-family="'Droid Sans'"
      text-anchor="middle"
      fill="#555555"
      stroke="none"
      stroke-width="0">26</text>
    <line
      id="connector24pin"
      x2="605.44757"
      y2="1605.1385"
      y1="1605.1385"
      x1="510.14633"
      fill="none"
      stroke="#555555"
      stroke-width="10"
      stroke-linecap="round"
      stroke-linejoin="round"
    />
    <rect
      gorn="0.1.179"
      x="600.21594"
      id="connector24terminal"
      height="10"
      y="1600.278"
      width="10"
      fill="none"
      stroke-width="0"
    />
    <text
      gorn="0.1.180"
      x="480.77197"
      id="label24"
      font-size="49"
      y="1619.7201"
      font-family="'Droid Sans'"
      text-anchor="end"
      fill="#555555"
      stroke="none">25</text>
    <text
      id="text257"
      class="text"
      x="548.95038"
      font-size="35"
      y="1595.4202"
      font-family="'Droid Sans'"
      text-anchor="middle"
      fill="#555555"
      stroke="none"
      stroke-width="0">25</text>
    <line
      id="connector23pin"
      x2="605.44757"
      y2="1705.1385"
      y1="1705.1385"
      x1="510.14633"
      fill="none"
      stroke="#555555"
      stroke-width="10"
      stroke-linecap="round"
      stroke-linejoin="round"
    />
    <rect
      gorn="0.1.184"
      x="600.21594"
      id="connector23terminal"
      height="10"
      y="1700.278"
      width="10"
      fill="none"
      stroke-width="0"
    />
    <text
      gorn="0.1.185"
      x="480.77197"
      id="label23"
      font-size="49"
      y="1719.7201"
      font-family="'Droid Sans'"
      text-anchor="end"
      fill="#555555"
      stroke="none">24</text>
    <text
      id="text264"
      class="text"
      x="548.95038"
      font-size="35"
      y="1695.4202"
      font-family="'Droid Sans'"
      text-anchor="middle"
      fill="#555555"
      stroke="none"
      stroke-width="0">24</text>
    <line
      id="connector22pin"
      x2="605.44757"
      y2="1805.1385"
      y1="1805.1385"
      x1="510.14633"
      fill="none"
      stroke="#555555"
      stroke-width="10"
      stroke-linecap="round"
      stroke-linejoin="round"
    />
    <rect
      gorn="0.1.189"
      x="600.21594"
      id="connector22terminal"
      height="10"
      y="1800.278"
      width="10"
      fill="none"
      stroke-width="0"
    />
    <text
      gorn="0.1.190"
      x="480.77197"
      id="label22"
      font-size="49"
      y="1819.7201"
      font-family="'Droid Sans'"
      text-anchor="end"
      fill="#555555"
      stroke="none">23</text>
    <text
      id="text271"
      class="text"
      x="548.95038"
      font-size="35"
      y="1795.4202"
      font-family="'Droid Sans'"
      text-anchor="middle"
      fill="#555555"
      stroke="none"
      stroke-width="0">23</text>
    <line
      id="connector21pin"
      x2="605.44763"
      y2="1905.1385"
      y1="1905.1385"
      x1="510.14633"
      fill="none"
      stroke="#555555"
      stroke-width="10"
      stroke-linecap="round"
      stroke-linejoin="round"
    />
    <rect
      gorn="0.1.194"
      x="600.21594"
      id="connector21terminal"
      height="10"
      y="1900.278"
      width="10"
      fill="none"
      stroke-width="0"
    />
    <text
      gorn="0.1.195"
      x="480.77197"
      id="label21"
      font-size="49"
      y="1919.7201"
      font-family="'Droid Sans'"
      text-anchor="end"
      fill="#555555"
      stroke="none">22</text>
    <text
      id="text278"
      class="text"
      x="548.95038"
      font-size="35"
      y="1895.4202"
      font-family="'Droid Sans'"
      text-anchor="middle"
      fill="#555555"
      stroke="none"
      stroke-width="0">22</text>
    <line
      id="connector20pin"
      x2="605.44763"
      y2="2005.1385"
      y1="2005.1385"
      x1="510.14633"
      fill="none"
      stroke="#555555"
      stroke-width="10"
      stroke-linecap="round"
      stroke-linejoin="round"
    />
    <rect
      gorn="0.1.199"
      x="600.21594"
      id="connector20terminal"
      height="10"
      y="2000.278"
      width="10"
      fill="none"
      stroke-width="0"
    />
    <text
      gorn="0.1.200"
      x="480.77197"
      id="label20"
      font-size="49"
      y="2019.7201"
      font-family="'Droid Sans'"
      text-anchor="end"
      fill="#555555"
      stroke="none">21</text>
    <text
      id="text285"
      class="text"
      x="548.95038"
      font-size="35"
      y="1995.4202"
      font-family="'Droid Sans'"
      text-anchor="middle"
      fill="#555555"
      stroke="none"
      stroke-width="0">21</text>
  </g>
</svg>
