<?xml version='1.0' encoding='UTF-8' standalone='no'?>
<svg
  xmlns:dc="http://purl.org/dc/elements/1.1/"
  xmlns:cc="http://creativecommons.org/ns#"
  xmlns:rdf="http://www.w3.org/1999/02/22-rdf-syntax-ns#"
  xmlns:svg="http://www.w3.org/2000/svg"
  xmlns="http://www.w3.org/2000/svg"
  id="svg24"
  version="1.2"
  viewBox="0 0 110 810.00001"
  width="0.11in"
  height="0.81in">
  <metadata
    id="metadata30">
    <rdf:RDF>
      <cc:Work
        rdf:about="">
        <dc:format>image/svg+xml</dc:format>
        <dc:type
          rdf:resource="http://purl.org/dc/dcmitype/StillImage"
        />
        <dc:title/>
      </cc:Work>
    </rdf:RDF>
  </metadata>
  <defs
    id="defs28"
  />
  <desc
    id="desc2">
    <referenceFile>8-wire-stepper_1_pcb.svg</referenceFile>
  </desc>
  <desc
    id="desc4">Fritzing
    footprint
    SVG</desc>
  <g
    id="silkscreen">
    <line
      id="line6"
      x1="4.9999995"
      y2="804.99982"
      x2="4.9999995"
      y1="4.9998589"
      stroke="#000000"
      stroke-width="9.99999905"
    />
    <line
      id="line8"
      x1="5"
      y2="805"
      x2="105"
      y1="805"
      stroke="#000000"
      stroke-width="10"
    />
    <line
      id="line10"
      x1="105"
      y2="4.9999847"
      x2="105"
      y1="805"
      stroke="#000000"
      stroke-width="10"
    />
    <line
      id="line12"
      x1="105"
      y2="5"
      x2="5"
      y1="5"
      stroke="#000000"
      stroke-width="10"
    />
    <line
      id="line14"
      x1="5"
      y2="5"
      x2="40"
      y1="40"
      stroke="#000000"
      stroke-width="5"
    />
  </g>
  <g
    id="copper1">
    <g
      id="copper0">
      <rect
        gorn="0.2.0.0"
        height="58"
        id="square"
        x="26"
        y="26"
        width="58"
        fill="none"
        stroke="#ffbf00"
        stroke-width="20"
      />
      <circle
        cy="55"
        gorn="0.2.0.1"
        id="connector0pin"
        cx="55"
        r="29"
        fill="none"
        stroke="#ffbf00"
        stroke-width="20"
      />
      <circle
        cy="155"
        gorn="0.2.0.2"
        id="connector1pin"
        cx="55"
        r="29"
        fill="none"
        stroke="#ffbf00"
        stroke-width="20"
      />
      <circle
        cy="255"
        gorn="0.2.0.3"
        id="connector2pin"
        cx="55"
        r="29"
        fill="none"
        stroke="#ffbf00"
        stroke-width="20"
      />
      <circle
        cy="355"
        gorn="0.2.0.4"
        id="connector3pin"
        cx="55"
        r="29"
        fill="none"
        stroke="#ffbf00"
        stroke-width="20"
      />
      <circle
        r="29"
        cx="55"
        id="connector4pin"
        gorn="0.2.0.3"
        cy="455"
        fill="none"
        stroke="#ffbf00"
        stroke-width="20"
      />
      <circle
        r="29"
        cx="55"
        id="connector5pin"
        gorn="0.2.0.4"
        cy="555"
        fill="none"
        stroke="#ffbf00"
        stroke-width="20"
      />
      <circle
        cy="655"
        gorn="0.2.0.3"
        id="connector6pin"
        cx="55"
        r="29"
        fill="none"
        stroke="#ffbf00"
        stroke-width="20"
      />
      <circle
        cy="755"
        gorn="0.2.0.4"
        id="connector7pin"
        cx="55"
        r="29"
        fill="none"
        stroke="#ffbf00"
        stroke-width="20"
      />
    </g>
  </g>
</svg>
