<?xml version="1.0" encoding="UTF-8" standalone="no"?>
<svg
   height="0.33in"
   width="0.7in"
   version="1.2"
   viewBox="0 0 70 33"
   id="svg2"
   xmlns="http://www.w3.org/2000/svg"
   xmlns:svg="http://www.w3.org/2000/svg"
   xmlns:rdf="http://www.w3.org/1999/02/22-rdf-syntax-ns#"
   xmlns:cc="http://creativecommons.org/ns#"
   xmlns:dc="http://purl.org/dc/elements/1.1/">
  <desc
     id="desc2">
    <referenceFile>svg.icon.4538_Dual-Oneshot_DIP_14_300mil_1_icon.svg</referenceFile>
  </desc>
  <metadata
     id="metadata76">
    <rdf:RDF>
      <cc:Work
         rdf:about="">
        <dc:format>image/svg+xml</dc:format>
        <dc:type
           rdf:resource="http://purl.org/dc/dcmitype/StillImage" />
      </cc:Work>
    </rdf:RDF>
  </metadata>
  <defs
     id="defs74" />
  <g
     id="breadboard">
    <rect
       y="3"
       x="0"
       height="27"
       width="70"
       fill="#303030"
       id="middle" />
    <rect
       y="3.0"
       x="0"
       height="2.46"
       width="70"
       fill="#3D3D3D"
       id="top" />
    <rect
       y="27.54"
       x="0"
       height="2.46"
       width="70"
       fill="#000000"
       id="bottom" />
    <polygon
       points="70,3 69.25,5.46 69.25,27.54 70,30"
       fill="#141414"
       id="right" />
    <polygon
       points="0,3 0.75,5.46 0.75,27.54 0,30"
       fill="#1F1F1F"
       id="left" />
    <polygon
       points="5,11.5 0.75,11.46 0.56,13.58 0.56,16.5 5,16.5"
       fill="#1C1C1C"
       id="left-upper-rect" />
    <polygon
       points="0.75,21.55 5,21.55 5,16.5 0.56,16.5 0.56,19.42"
       fill="#383838"
       id="left-lower-rect" />
    <path
       d="M0.56,13.58v5.83c1.47-0.17,2.62-1.4,2.62-2.92C3.18,14.97,2.04,13.75,0.56,13.58z"
       fill="#262626"
       id="slot" />
    <path
       d="M0.75,5.46V11.45c2.38,0.45,4.19,2.53,4.19,5.04c0,2.51-1.8,4.6-4.19,5.05V21.55h5.0V5.46H0.75z"
       fill="#303030"
       id="cover" />
    <circle
       cy="23.47"
       cx="6.5"
       r="2.06"
       fill="#212121"
       id="circle13" />
    <text
       y="20"
       x="3"
       font-size="13"
       font-family="OCRA"
       text-anchor="start"
       fill="#e6e6e6"
       id="label">4538</text>
    <rect
       y="28.66"
       x="3.5"
       height="4.34"
       width="3"
       fill="#8C8C8C"
       id="connector0pin" />
    <rect
       y="30"
       x="3.5"
       height="3"
       width="3"
       fill="#8C8C8C"
       id="connector0terminal" />
    <polygon
       points="3.5,28.66 3.5,30.66 6.5,30.66 8.5,29.74 8.5,28.66 "
       fill="#8C8C8C"
       id="polygon18" />
    <rect
       height="4.34"
       width="3"
       x="3.5"
       fill="#8C8C8C"
       id="connector13pin" />
    <rect
       height="3"
       width="3"
       x="3.5"
       fill="#8C8C8C"
       id="connector13terminal" />
    <polygon
       points="8.5,4.34 8.5,3.26 6.5,2.34 3.5,2.34 3.5,4.34"
       fill="#8C8C8C"
       id="polygon22" />
    <rect
       y="28.66"
       x="63.5"
       height="4.34"
       width="3"
       fill="#8C8C8C"
       id="connector6pin" />
    <rect
       y="30"
       x="63.5"
       height="3"
       width="3"
       fill="#8C8C8C"
       id="connector6terminal" />
    <polygon
       points="61.5,28.66 61.5,29.74 63.5,30.66 66.5,30.66 66.5,28.66"
       fill="#8C8C8C"
       id="polygon26" />
    <rect
       y="0"
       x="63.5"
       height="4.34"
       width="3"
       fill="#8C8C8C"
       id="connector7pin" />
    <rect
       y="0"
       x="63.5"
       height="3"
       width="3"
       fill="#8C8C8C"
       id="connector7terminal" />
    <polygon
       points="66.5,4.34 66.5,2.34 63.5,2.34 61.5,3.26 61.5,4.34 "
       fill="#8C8C8C"
       id="polygon30" />
    <rect
       y="0"
       x="13.5"
       height="4.34"
       width="3"
       fill="#8C8C8C"
       id="connector12pin" />
    <rect
       height="3"
       width="3"
       x="13.5"
       fill="#8C8C8C"
       id="connector12terminal" />
    <polygon
       points="18.5,4.34 18.5,3.26 16.5,2.34 13.5,2.34 11.5,3.26 11.5,4.34"
       fill="#8C8C8C"
       id="polygon34" />
    <rect
       y="0"
       x="23.5"
       height="4.34"
       width="3"
       fill="#8C8C8C"
       id="connector11pin" />
    <rect
       height="3"
       width="3"
       x="23.5"
       fill="#8C8C8C"
       id="connector11terminal" />
    <polygon
       points="28.5,4.34 28.5,3.26 26.5,2.34 23.5,2.34 21.5,3.26 21.5,4.34"
       fill="#8C8C8C"
       id="polygon38" />
    <rect
       y="0"
       x="33.5"
       height="4.34"
       width="3"
       fill="#8C8C8C"
       id="connector10pin" />
    <rect
       height="3"
       width="3"
       x="33.5"
       fill="#8C8C8C"
       id="connector10terminal" />
    <polygon
       points="38.5,4.34 38.5,3.26 36.5,2.34 33.5,2.34 31.5,3.26 31.5,4.34"
       fill="#8C8C8C"
       id="polygon42" />
    <rect
       y="0"
       x="43.5"
       height="4.34"
       width="3"
       fill="#8C8C8C"
       id="connector9pin" />
    <rect
       height="3"
       width="3"
       x="43.5"
       fill="#8C8C8C"
       id="connector9terminal" />
    <polygon
       points="48.5,4.34 48.5,3.26 46.5,2.34 43.5,2.34 41.5,3.26 41.5,4.34"
       fill="#8C8C8C"
       id="polygon46" />
    <rect
       y="0"
       x="53.5"
       height="4.34"
       width="3"
       fill="#8C8C8C"
       id="connector8pin" />
    <rect
       height="3"
       width="3"
       x="53.5"
       fill="#8C8C8C"
       id="connector8terminal" />
    <polygon
       points="58.5,4.34 58.5,3.26 56.5,2.34 53.5,2.34 51.5,3.26 51.5,4.34"
       fill="#8C8C8C"
       id="polygon50" />
    <rect
       y="28.66"
       x="13.5"
       height="4.34"
       width="3"
       fill="#8C8C8C"
       id="connector1pin" />
    <rect
       y="30"
       x="13.5"
       height="3"
       width="3"
       fill="#8C8C8C"
       id="connector1terminal" />
    <polygon
       points="11.5,28.66 11.5,29.74 13.5,30.66 16.5,30.66 18.5,29.74 18.5,28.66"
       fill="#8C8C8C"
       id="polygon54" />
    <rect
       y="28.66"
       x="23.5"
       height="4.34"
       width="3"
       fill="#8C8C8C"
       id="connector2pin" />
    <rect
       y="30"
       x="23.5"
       height="3"
       width="3"
       fill="#8C8C8C"
       id="connector2terminal" />
    <polygon
       points="21.5,28.66 21.5,29.74 23.5,30.66 26.5,30.66 28.5,29.74 28.5,28.66"
       fill="#8C8C8C"
       id="polygon58" />
    <rect
       y="28.66"
       x="33.5"
       height="4.34"
       width="3"
       fill="#8C8C8C"
       id="connector3pin" />
    <rect
       y="30"
       x="33.5"
       height="3"
       width="3"
       fill="#8C8C8C"
       id="connector3terminal" />
    <polygon
       points="31.5,28.66 31.5,29.74 33.5,30.66 36.5,30.66 38.5,29.74 38.5,28.66"
       fill="#8C8C8C"
       id="polygon62" />
    <rect
       y="28.66"
       x="43.5"
       height="4.34"
       width="3"
       fill="#8C8C8C"
       id="connector4pin" />
    <rect
       y="30"
       x="43.5"
       height="3"
       width="3"
       fill="#8C8C8C"
       id="connector4terminal" />
    <polygon
       points="41.5,28.66 41.5,29.74 43.5,30.66 46.5,30.66 48.5,29.74 48.5,28.66"
       fill="#8C8C8C"
       id="polygon66" />
    <rect
       y="28.66"
       x="53.5"
       height="4.34"
       width="3"
       fill="#8C8C8C"
       id="connector5pin" />
    <rect
       y="30"
       x="53.5"
       height="3"
       width="3"
       fill="#8C8C8C"
       id="connector5terminal" />
    <polygon
       points="51.5,28.66 51.5,29.74 53.5,30.66 56.5,30.66 58.5,29.74 58.5,28.66"
       fill="#8C8C8C"
       id="polygon70" />
  </g>
</svg>
