<?xml version='1.0' encoding='UTF-8' standalone='no'?>
<svg
  xmlns:dc="http://purl.org/dc/elements/1.1/"
  xmlns:cc="http://creativecommons.org/ns#"
  xmlns:rdf="http://www.w3.org/1999/02/22-rdf-syntax-ns#"
  xmlns:svg="http://www.w3.org/2000/svg"
  xmlns="http://www.w3.org/2000/svg"
  id="svg2"
  y="0in"
  version="1.2"
  height="0.61000007in"
  width="0.91000003in"
  x="0in"
  viewBox="0 0 910.00005 610.00007">
  <metadata
    id="metadata41">
    <rdf:RDF>
      <cc:Work
        rdf:about="">
        <dc:format>image/svg+xml</dc:format>
        <dc:type
          rdf:resource="http://purl.org/dc/dcmitype/StillImage"
        />
        <dc:title/>
      </cc:Work>
    </rdf:RDF>
  </metadata>
  <defs
    id="defs39"
  />
  <desc
    id="desc4">
    <referenceFile>Atlas-EZE-PRS_1_schematic.svg</referenceFile>
  </desc>
  <g
    id="schematic">
    <g
      id="g58">
      <rect
        stroke-linecap="round"
        stroke-width="9.99998"
        stroke="#000000"
        fill="none"
        x="4.99999"
        width="800.00006"
        height="600.00006"
        y="4.99999"
        id="rect7"
      />
      <text
        font-size="60"
        y="295.64587"
        x="304.99121"
        id="label"
        font-family="'Droid Sans'"
        text-anchor="middle"
        fill="#000000">AtlasScientific</text>
      <text
        fill="#555555"
        text-anchor="middle"
        font-family="'Droid Sans'"
        font-size="49"
        y="522.56067"
        x="728.52509"
        id="text83">ALM</text>
      <text
        fill="#555555"
        text-anchor="middle"
        font-family="'Droid Sans'"
        id="text89"
        x="700.24854"
        y="222.6888"
        font-size="49">TX/SDA</text>
      <text
        fill="#555555"
        text-anchor="middle"
        font-family="'Droid Sans'"
        font-size="49"
        y="325.46368"
        x="728.37201"
        id="text95">GND</text>
      <text
        fill="#555555"
        text-anchor="middle"
        font-family="'Droid Sans'"
        font-size="49"
        y="126.48302"
        x="704.82648"
        id="text46">RX/SCL</text>
      <text
        fill="#555555"
        text-anchor="middle"
        font-family="'Droid Sans'"
        font-size="49"
        y="422.59058"
        x="728.12897"
        id="text58">VCC</text>
      <text
        font-size="60"
        y="365.32361"
        x="304.98438"
        id="text74"
        dx="0 0 0 0 0 0 0 0 0 0 0 0 0 0 0 0 0"
        font-family="'Droid Sans'"
        text-anchor="middle"
        fill="#000000">EZO-PRS Sensor</text>
      <text
        fill="#555555"
        text-anchor="middle"
        font-family="'Droid Sans'"
        font-size="25"
        y="89.105431"
        x="838.94604"
        id="text53">wht</text>
      <text
        fill="#555555"
        text-anchor="middle"
        font-family="'Droid Sans'"
        font-size="25"
        y="188.99414"
        x="838.94604"
        id="text55">grn</text>
      <text
        fill="#555555"
        text-anchor="middle"
        font-family="'Droid Sans'"
        font-size="25"
        y="288.64746"
        x="838.94604"
        id="text57">blk</text>
      <text
        fill="#555555"
        text-anchor="middle"
        font-family="'Droid Sans'"
        font-size="25"
        y="388.99414"
        x="838.94604"
        id="text59">red</text>
      <text
        fill="#555555"
        text-anchor="middle"
        font-family="'Droid Sans'"
        font-size="25"
        y="488.99414"
        x="838.94604"
        id="text61">blu</text>
      <line
        y1="104.73769"
        y2="104.73769"
        x2="810.07001"
        x1="905"
        id="connector0pin"
        fill="none"
        stroke="#555555"
        stroke-width="10"
        stroke-linecap="round"
      />
      <rect
        id="connector0terminal"
        x="900"
        width="10"
        height="10"
        y="99.737686"
        fill="none"
        stroke-width="0"
      />
      <line
        id="connector1pin"
        x1="904.92999"
        x2="810"
        y2="204.73769"
        y1="204.73769"
        fill="none"
        stroke="#555555"
        stroke-width="10"
        stroke-linecap="round"
      />
      <rect
        y="199.73769"
        height="10"
        width="10"
        x="900"
        id="connector1terminal"
        fill="none"
        stroke-width="0"
      />
      <line
        y1="304.73767"
        y2="304.73767"
        x2="810"
        x1="904.92999"
        id="connector2pin"
        fill="none"
        stroke="#555555"
        stroke-width="10"
        stroke-linecap="round"
      />
      <rect
        id="connector2terminal"
        x="900"
        width="10"
        height="10"
        y="299.73767"
        fill="none"
        stroke-width="0"
      />
      <line
        id="connector3pin"
        x1="810"
        x2="905"
        y2="404.73767"
        y1="404.73767"
        fill="none"
        stroke="#555555"
        stroke-width="10"
        stroke-linecap="round"
      />
      <rect
        y="399.73767"
        height="10"
        width="10"
        x="900"
        id="connector3terminal"
        fill="none"
        stroke-width="0"
      />
      <line
        y1="504.73767"
        y2="504.73767"
        x2="810"
        x1="905"
        id="connector4pin"
        fill="none"
        stroke="#555555"
        stroke-width="10"
        stroke-linecap="round"
      />
      <rect
        id="connector4terminal"
        x="900"
        width="10"
        height="10"
        y="499.73157"
        fill="none"
        stroke-width="0"
      />
    </g>
  </g>
</svg>
