<?xml version='1.0' encoding='UTF-8' standalone='no'?>
<svg
  xmlns:dc="http://purl.org/dc/elements/1.1/"
  xmlns:cc="http://creativecommons.org/ns#"
  xmlns:rdf="http://www.w3.org/1999/02/22-rdf-syntax-ns#"
  xmlns:svg="http://www.w3.org/2000/svg"
  xmlns="http://www.w3.org/2000/svg"
  id="svg2"
  y="0in"
  version="1.2"
  height="0.8104319in"
  width="1.0104319in"
  x="0in"
  viewBox="0 0 1010.4319 810.43189">
  <metadata
    id="metadata41">
    <rdf:RDF>
      <cc:Work
        rdf:about="">
        <dc:format>image/svg+xml</dc:format>
        <dc:type
          rdf:resource="http://purl.org/dc/dcmitype/StillImage"
        />
        <dc:title/>
      </cc:Work>
    </rdf:RDF>
  </metadata>
  <defs
    id="defs39"
  />
  <desc
    id="desc4">
    <referenceFile>pm0002_1_schematic.svg</referenceFile>
  </desc>
  <g
    id="schematic">
    <rect
      stroke-linejoin="round"
      stroke-linecap="round"
      stroke-width="12.49999905"
      stroke="#000000"
      fill="none"
      id="rect7"
      y="66.681923"
      height="667.5"
      width="877.5"
      x="66.25"
    />
    <text
      class="text"
      x="992.06256"
      y="384.55185"
      font-size="35"
      id="text268"
      font-family="'Droid Sans'"
      text-anchor="middle"
      fill="#8c8c8c"
      stroke="none"
      stroke-width="0">5</text>
    <text
      class="text"
      x="631.64191"
      y="788.71558"
      font-size="35"
      id="text264"
      font-family="'Droid Sans'"
      text-anchor="middle"
      fill="#8c8c8c"
      stroke="none"
      stroke-width="0">4</text>
    <text
      id="text266"
      gorn="0.1.5"
      x="466.22345"
      y="702.44733"
      font-size="49"
      font-family="'Droid Sans'"
      text-anchor="start"
      fill="#8c8c8c"
      stroke="none"
      stroke-width="1">-IN</text>
    <text
      id="text262"
      gorn="0.1.10"
      x="708.04022"
      y="421.68417"
      font-size="49"
      font-family="'Droid Sans'"
      text-anchor="start"
      fill="#8c8c8c"
      stroke="none"
      stroke-width="1">-OUT</text>
    <text
      font-size="49"
      y="201.00867"
      x="466.22345"
      gorn="0.1.5"
      id="label0"
      font-family="'Droid Sans'"
      text-anchor="start"
      fill="#8c8c8c"
      stroke="none"
      stroke-width="1">+IN</text>
    <text
      id="text15"
      font-size="35"
      y="50.329697"
      x="477.48544"
      class="text"
      font-family="'Droid Sans'"
      text-anchor="middle"
      fill="#8c8c8c"
      stroke="none"
      stroke-width="0">1</text>
    <text
      font-size="49"
      y="421.68417"
      x="207.71648"
      gorn="0.1.10"
      id="label1"
      font-family="'Droid Sans'"
      text-anchor="start"
      fill="#8c8c8c"
      stroke="none"
      stroke-width="1">+OUT</text>
    <text
      id="text22"
      font-size="35"
      y="384.55185"
      x="38.273788"
      class="text"
      font-family="'Droid Sans'"
      text-anchor="middle"
      fill="#8c8c8c"
      stroke="none"
      stroke-width="0">2</text>
    <text
      id="text29"
      font-size="35"
      y="788.37292"
      x="364.47769"
      class="text"
      font-family="'Droid Sans'"
      text-anchor="middle"
      fill="#8c8c8c"
      stroke="none"
      stroke-width="0">3</text>
    <text
      id="text3369"
      gorn="0.1.10"
      x="332.65714"
      y="581.00043"
      font-size="60"
      font-family="'Droid Sans'"
      text-anchor="start"
      fill="#000000"
      stroke="none"
      stroke-width="0.99999994">PM0002</text>
    <line
      stroke-linecap="round"
      stroke-width="6"
      stroke="#000000"
      id="line2"
      y2="280.57028"
      x2="165.37207"
      y1="324.90967"
      x1="185.52605"
      class="other"
    />
    <line
      stroke-linecap="round"
      stroke-width="6"
      stroke="#000000"
      id="line4"
      y2="324.90967"
      x2="250.01877"
      y1="280.57028"
      x1="165.37207"
      class="other"
    />
    <line
      stroke-linecap="round"
      stroke-width="6"
      stroke="#000000"
      id="line6"
      y2="240.26181"
      x2="205.68001"
      y1="324.90967"
      x1="250.01877"
      class="other"
    />
    <line
      stroke-linecap="round"
      stroke-width="6"
      stroke="#000000"
      id="line8"
      y2="284.6011"
      x2="290.32672"
      y1="240.26181"
      x1="205.68001"
      class="other"
    />
    <line
      stroke-linecap="round"
      stroke-width="6"
      stroke="#000000"
      id="line10-0"
      y2="199.9534"
      x2="245.98796"
      y1="284.6011"
      x1="290.32672"
      class="other"
    />
    <line
      stroke-linecap="round"
      stroke-width="6"
      stroke="#000000"
      id="line12"
      y2="244.29269"
      x2="330.63464"
      y1="199.9534"
      x1="245.98796"
      class="other"
    />
    <line
      stroke-linecap="round"
      stroke-width="6"
      stroke="#000000"
      id="line14"
      y2="159.64487"
      x2="286.2959"
      y1="244.29269"
      x1="330.63464"
      class="other"
    />
    <line
      stroke-linecap="round"
      stroke-width="6"
      stroke="#000000"
      id="line16"
      y2="203.98422"
      x2="370.94263"
      y1="159.64487"
      x1="286.2959"
      class="other"
    />
    <line
      stroke-linecap="round"
      stroke-width="6"
      stroke="#000000"
      id="line61"
      y2="163.67575"
      x2="346.75787"
      y1="203.98422"
      x1="370.94263"
      class="other"
    />
    <line
      stroke-linecap="round"
      stroke-width="6"
      stroke="#000000"
      y2="163.67575"
      x2="346.75787"
      y1="105.34049"
      x1="405.08679"
      connectorname="2"
      id="line63"
      class="pin"
    />
    <line
      stroke-linecap="round"
      stroke-width="6"
      stroke="#000000"
      y2="324.90967"
      x2="185.52605"
      y1="405.52652"
      x1="104.9102"
      connectorname="1"
      id="line18"
      class="pin"
    />
    <line
      stroke-linecap="round"
      stroke-width="6"
      stroke="#000000"
      class="other"
      x1="679.9549"
      y1="630.47632"
      x2="661.19373"
      y2="589.20135"
      id="line117"
    />
    <line
      stroke-linecap="round"
      stroke-width="6"
      stroke="#000000"
      class="other"
      x1="661.19373"
      y1="589.20135"
      x2="739.9906"
      y2="630.47632"
      id="line119"
    />
    <line
      stroke-linecap="round"
      stroke-width="6"
      stroke="#000000"
      class="other"
      x1="739.9906"
      y1="630.47632"
      x2="698.71606"
      y2="551.67865"
      id="line121"
    />
    <line
      stroke-linecap="round"
      stroke-width="6"
      stroke="#000000"
      class="other"
      x1="698.71606"
      y1="551.67865"
      x2="777.513"
      y2="592.95361"
      id="line123"
    />
    <line
      stroke-linecap="round"
      stroke-width="6"
      stroke="#000000"
      class="other"
      x1="777.513"
      y1="592.95361"
      x2="736.23834"
      y2="514.15594"
      id="line125"
    />
    <line
      stroke-linecap="round"
      stroke-width="6"
      stroke="#000000"
      class="other"
      x1="736.23834"
      y1="514.15594"
      x2="815.03534"
      y2="555.43091"
      id="line127"
    />
    <line
      stroke-linecap="round"
      stroke-width="6"
      stroke="#000000"
      class="other"
      x1="815.03534"
      y1="555.43091"
      x2="773.76068"
      y2="476.63327"
      id="line129"
    />
    <line
      stroke-linecap="round"
      stroke-width="6"
      stroke="#000000"
      class="other"
      x1="773.76068"
      y1="476.63327"
      x2="852.55762"
      y2="517.90826"
      id="line131"
    />
    <line
      stroke-linecap="round"
      stroke-width="6"
      stroke="#000000"
      class="other"
      x1="852.55762"
      y1="517.90826"
      x2="830.04425"
      y2="480.38553"
      id="line133"
    />
    <line
      stroke-linecap="round"
      stroke-width="6"
      stroke="#000000"
      class="pin"
      id="line135"
      connectorname="2"
      x1="905.08984"
      y1="405.3392"
      x2="830.04425"
      y2="480.38553"
    />
    <line
      stroke-linecap="round"
      stroke-width="6"
      stroke="#000000"
      class="pin"
      id="line137"
      connectorname="1"
      x1="604.91022"
      y1="705.52173"
      x2="679.9549"
      y2="630.47632"
    />
    <line
      stroke-linecap="round"
      stroke-width="6"
      stroke="#000000"
      class="other"
      x1="662.82416"
      y1="163.67319"
      x2="707.23932"
      y2="143.51913"
      id="line141"
    />
    <line
      stroke-linecap="round"
      stroke-width="6"
      stroke="#000000"
      class="other"
      x1="707.23932"
      y1="143.51913"
      x2="662.82416"
      y2="228.16586"
      id="line143"
    />
    <line
      stroke-linecap="round"
      stroke-width="6"
      stroke="#000000"
      class="other"
      x1="662.82416"
      y1="228.16586"
      x2="747.61682"
      y2="183.82706"
      id="line145"
    />
    <line
      stroke-linecap="round"
      stroke-width="6"
      stroke="#000000"
      class="other"
      x1="747.61682"
      y1="183.82706"
      x2="703.2016"
      y2="268.47385"
      id="line147"
    />
    <line
      stroke-linecap="round"
      stroke-width="6"
      stroke="#000000"
      class="other"
      x1="703.2016"
      y1="268.47385"
      x2="787.99426"
      y2="224.13504"
      id="line149"
    />
    <line
      stroke-linecap="round"
      stroke-width="6"
      stroke="#000000"
      class="other"
      x1="787.99426"
      y1="224.13504"
      x2="743.57898"
      y2="308.78174"
      id="line151"
    />
    <line
      stroke-linecap="round"
      stroke-width="6"
      stroke="#000000"
      class="other"
      x1="743.57898"
      y1="308.78174"
      x2="828.37164"
      y2="264.44296"
      id="line153"
    />
    <line
      stroke-linecap="round"
      stroke-width="6"
      stroke="#000000"
      class="other"
      x1="828.37164"
      y1="264.44296"
      x2="783.95642"
      y2="349.08969"
      id="line155"
    />
    <line
      stroke-linecap="round"
      stroke-width="6"
      stroke="#000000"
      class="other"
      x1="783.95642"
      y1="349.08969"
      x2="824.33386"
      y2="324.90494"
      id="line157"
    />
    <line
      stroke-linecap="round"
      stroke-width="6"
      stroke="#000000"
      class="pin"
      id="line159"
      connectorname="2"
      x1="905.08978"
      y1="405.52176"
      x2="824.33386"
      y2="324.90494"
    />
    <line
      stroke-linecap="round"
      stroke-width="6"
      stroke="#000000"
      class="pin"
      id="line161"
      connectorname="1"
      x1="604.91028"
      y1="105.34037"
      x2="663.35974"
      y2="163.67319"
    />
    <line
      stroke-linecap="round"
      stroke-width="6.00000048"
      stroke="#000000"
      id="line165"
      y2="461.62341"
      x2="221.22943"
      y1="480.38477"
      x1="179.95483"
      class="other"
    />
    <line
      stroke-linecap="round"
      stroke-width="6.00000048"
      stroke="#000000"
      id="line167"
      y2="540.42108"
      x2="179.95483"
      y1="461.62341"
      x1="221.22943"
      class="other"
    />
    <line
      stroke-linecap="round"
      stroke-width="6.00000048"
      stroke="#000000"
      id="line169"
      y2="499.14609"
      x2="258.75177"
      y1="540.42108"
      x1="179.95483"
      class="other"
    />
    <line
      stroke-linecap="round"
      stroke-width="6.00000048"
      stroke="#000000"
      id="line171"
      y2="577.94373"
      x2="217.47719"
      y1="499.14609"
      x1="258.75177"
      class="other"
    />
    <line
      stroke-linecap="round"
      stroke-width="6.00000048"
      stroke="#000000"
      id="line173"
      y2="536.66876"
      x2="296.27408"
      y1="577.94373"
      x1="217.47719"
      class="other"
    />
    <line
      stroke-linecap="round"
      stroke-width="6.00000048"
      stroke="#000000"
      id="line175"
      y2="615.46637"
      x2="254.99953"
      y1="536.66876"
      x1="296.27408"
      class="other"
    />
    <line
      stroke-linecap="round"
      stroke-width="6.00000048"
      stroke="#000000"
      id="line177"
      y2="574.19147"
      x2="333.79645"
      y1="615.46637"
      x1="254.99953"
      class="other"
    />
    <line
      stroke-linecap="round"
      stroke-width="6.00000048"
      stroke="#000000"
      id="line179"
      y2="652.98907"
      x2="292.52185"
      y1="574.19147"
      x1="333.79645"
      class="other"
    />
    <line
      stroke-linecap="round"
      stroke-width="6.00000048"
      stroke="#000000"
      id="line181"
      y2="630.47546"
      x2="330.04422"
      y1="652.98907"
      x1="292.52185"
      class="other"
    />
    <line
      stroke-linecap="round"
      stroke-width="6"
      stroke="#000000"
      y2="630.47546"
      x2="330.04422"
      y1="705.52173"
      x1="405.08981"
      connectorname="2"
      id="line183"
      class="pin"
    />
    <line
      stroke-linecap="round"
      stroke-width="6"
      stroke="#000000"
      y2="480.38477"
      x2="179.95483"
      y1="405.33945"
      x1="104.9102"
      connectorname="1"
      id="line185"
      class="pin"
    />
    <line
      stroke-linejoin="round"
      stroke-linecap="round"
      stroke-width="6"
      stroke="#000000"
      fill="none"
      y1="105.43192"
      y2="105.43192"
      x2="605"
      x1="409.86111"
      id="line236"
    />
    <line
      stroke-linejoin="round"
      stroke-linecap="round"
      stroke-width="9.72220039"
      stroke="#787878"
      fill="none"
      y1="4.9303346"
      y2="100.50156"
      x2="505"
      x1="505"
      id="connector0pin"
    />
    <rect
      stroke-width="0"
      fill="none"
      y="0.70975316"
      height="9.7222004"
      width="10"
      x="500"
      gorn="0.1.4"
      id="connector0terminal"
    />
    <line
      stroke-linejoin="round"
      stroke-linecap="round"
      stroke-width="9.72220039"
      stroke="#787878"
      fill="none"
      id="connector1pin"
      x1="5"
      x2="100.57123"
      y2="405.43192"
      y1="405.43192"
    />
    <rect
      stroke-width="0"
      fill="none"
      y="400.70972"
      height="9.7222004"
      width="10"
      x="0"
      gorn="0.1.9"
      id="connector1terminal"
    />
    <line
      stroke-linejoin="round"
      stroke-linecap="round"
      stroke-width="9.72220039"
      stroke="#787878"
      fill="none"
      id="connector2pin"
      x1="404.86157"
      x2="404.86157"
      y2="805.50159"
      y1="709.93036"
    />
    <rect
      stroke-width="0"
      fill="none"
      y="800.70972"
      height="9.7222004"
      width="10"
      x="400"
      gorn="0.1.14"
      id="connector2terminal"
    />
    <line
      stroke-linejoin="round"
      stroke-linecap="round"
      stroke-width="9.72220039"
      stroke="#787878"
      fill="none"
      y1="709.93036"
      y2="805.50159"
      x2="604.86157"
      x1="604.86157"
      id="connector3pin"
    />
    <rect
      stroke-width="0"
      fill="none"
      id="connector3terminal"
      gorn="0.1.14"
      x="600"
      width="10"
      height="9.7222004"
      y="800.70972"
    />
    <line
      stroke-linejoin="round"
      stroke-linecap="round"
      stroke-width="9.72220039"
      stroke="#787878"
      fill="none"
      y1="405.57034"
      y2="405.57034"
      x2="1005.5016"
      x1="909.93036"
      id="connector4pin"
    />
    <rect
      stroke-width="0"
      fill="none"
      id="connector4terminal"
      gorn="0.1.9"
      x="1000"
      width="10"
      height="9.7222004"
      y="400.70972"
    />
  </g>
</svg>
