<?xml version='1.0' encoding='UTF-8' standalone='no'?>
<svg
  xmlns:dc="http://purl.org/dc/elements/1.1/"
  xmlns:cc="http://creativecommons.org/ns#"
  xmlns:rdf="http://www.w3.org/1999/02/22-rdf-syntax-ns#"
  xmlns:svg="http://www.w3.org/2000/svg"
  xmlns="http://www.w3.org/2000/svg"
  height="2.3132911in"
  version="1.2"
  gorn="0"
  id="svg13515"
  width="1.1071796in"
  viewBox="0 0 1107.1801 2313.2919">
  <desc
    id="desc13517">
    <referenceFile
      id="referenceFile13519">ESP32-S2-DevKitM-1_1_pcb.svg</referenceFile>
  </desc>
  <metadata
    id="metadata13646">
    <rdf:RDF>
      <cc:Work
        rdf:about="">
        <dc:format>image/svg+xml</dc:format>
        <dc:type
          rdf:resource="http://purl.org/dc/dcmitype/StillImage"
        />
        <dc:title/>
      </cc:Work>
    </rdf:RDF>
  </metadata>
  <defs
    id="defs13644"
  />
  <g
    id="silkscreen">
    <rect
      stroke-width="10"
      stroke="#000000"
      fill="none"
      x="12.773523"
      id="rect5"
      y="211.29089"
      width="989.00037"
      height="2097.001"
      rx="39.260044"
      ry="43.839314"
      gorn="0.3.0"
    />
    <line
      stroke-dasharray="none"
      stroke-linejoin="miter"
      stroke-width="10"
      stroke="#000000"
      stroke-miterlimit="4"
      gorn="0.3.8"
      y2="3.9544258"
      x2="215.00008"
      id="line80"
      x1="215.00008"
      y1="211.24617"
    />
    <line
      stroke-dasharray="none"
      stroke-linejoin="miter"
      stroke-width="10.00000191"
      stroke="#000000"
      stroke-miterlimit="4"
      gorn="0.3.9"
      y2="4.9961357"
      x2="804.30231"
      id="line82"
      x1="804.30231"
      y1="210.20454"
    />
    <line
      stroke-dasharray="none"
      stroke-linejoin="miter"
      stroke-width="10"
      stroke="#000000"
      stroke-miterlimit="4"
      gorn="0.3.10"
      y2="5"
      x2="805.42737"
      id="line84"
      x1="213.95839"
      y1="5"
    />
  </g>
  <g
    id="copper1">
    <g
      id="copper0">
      <path
        stroke-width="9.99493027"
        stroke="none"
        fill="#f7bd13"
        d="m 1001.9475,1654.1721 a 25.986819,25.986814 0 0 1 -25.98678,25.9873 h -51.9736 a 25.986819,25.986814 0 0 1 -25.98677,-25.9873 v 0 a 25.986819,25.986814 0 0 1 25.98677,-25.9873 h 51.9736 a 25.986819,25.986814 0 0 1 25.98678,25.9873 z m -52.72908,-15.9391 a 15.992809,15.992806 0 1 0 0,31.9856 15.992809,15.992806 0 1 0 0,-31.9856 z"
        id="path423"
        gorn="0.4.0.1"
      />
      <path
        stroke-width="9.99493027"
        stroke="none"
        fill="#f7bd13"
        d="m 1002.0316,1554.1721 a 25.986819,25.986814 0 0 1 -25.98678,25.9873 h -51.9736 a 25.986819,25.986814 0 0 1 -25.98677,-25.9873 v 0 a 25.986819,25.986814 0 0 1 25.98677,-25.9873 h 51.9736 a 25.986819,25.986814 0 0 1 25.98678,25.9873 z m -52.72908,-15.935 a 15.991889,15.991886 0 1 0 0,31.9814 15.991889,15.991886 0 1 0 0,-31.9814 z"
        id="path467"
        gorn="0.4.0.3"
      />
      <path
        stroke-width="9.99493027"
        stroke="none"
        fill="#f7bd13"
        d="m 1002.0844,1454.1721 a 26.000028,25.986814 0 0 1 -25.99998,25.9873 h -52 a 26.000028,25.986814 0 0 1 -25.99997,-25.9873 v 0 a 26.000028,25.986814 0 0 1 25.99997,-25.9872 h 52 a 26.000028,25.986814 0 0 1 25.99998,25.9872 z m -52.75588,-15.9391 a 16.000018,15.991886 0 1 0 0,31.9815 16.000018,15.991886 0 1 0 0,-31.9815 z"
        id="path13574-4"
        gorn="0.4.0.5"
      />
      <path
        stroke-width="9.99493027"
        stroke="none"
        fill="#f7bd13"
        d="m 1002.0316,1354.1721 a 25.986819,25.986814 0 0 1 -25.98678,25.9872 h -51.9736 a 25.986819,25.986814 0 0 1 -25.98677,-25.9872 v 0 a 25.986819,25.986814 0 0 1 25.98677,-25.9873 h 51.9736 a 25.986819,25.986814 0 0 1 25.98678,25.9873 z m -52.72908,-15.9351 a 15.991889,15.991886 0 1 0 0,31.9815 15.991889,15.991886 0 1 0 0,-31.9815 z"
        id="path461"
        gorn="0.4.0.7"
      />
      <path
        stroke-width="9.99493027"
        stroke="none"
        fill="#f7bd13"
        d="m 1002.0844,1254.172 a 26.000028,25.986814 0 0 1 -25.99998,25.9873 h -52 a 26.000028,25.986814 0 0 1 -25.99997,-25.9873 v 0 a 26.000028,25.986814 0 0 1 25.99997,-25.9873 h 52 a 26.000028,25.986814 0 0 1 25.99998,25.9873 z m -52.75588,-15.935 a 16.000938,15.992806 0 1 0 0,31.9856 16.000938,15.992806 0 1 0 0,-31.9856 z"
        id="path459"
        gorn="0.4.0.9"
      />
      <path
        stroke-width="9.99493027"
        stroke="none"
        fill="#f7bd13"
        d="m 1002.0316,1154.172 a 25.986819,25.986814 0 0 1 -25.98678,25.9872 h -51.9736 a 25.986819,25.986814 0 0 1 -25.98677,-25.9872 v 0 a 25.986819,25.986814 0 0 1 25.98677,-25.9873 h 51.9736 a 25.986819,25.986814 0 0 1 25.98678,25.9873 z m -52.72908,-15.935 a 15.992809,15.992806 0 1 0 0,31.9856 15.992809,15.992806 0 1 0 0,-31.9856 z"
        id="path479"
        gorn="0.4.0.11"
      />
      <path
        stroke-width="9.99493027"
        stroke="none"
        fill="#f7bd13"
        d="m 1002.0316,1054.1719 a 25.986819,25.986814 0 0 1 -25.98678,25.9873 h -51.9736 a 25.986819,25.986814 0 0 1 -25.98677,-25.9873 v 0 a 25.986819,25.986814 0 0 1 25.98677,-25.9873 h 51.9736 a 25.986819,25.986814 0 0 1 25.98678,25.9873 z m -52.72908,-15.935 a 15.992809,15.992806 0 1 0 0,31.9856 15.992809,15.992806 0 1 0 0,-31.9856 z"
        id="path481"
        gorn="0.4.0.13"
      />
      <path
        stroke-width="9.99493027"
        stroke="none"
        fill="#f7bd13"
        d="m 1002.0845,954.17204 a 26.000005,25.986814 0 0 1 -25.99998,25.9872 h -52 a 26.000005,25.986814 0 0 1 -26.00007,-25.9872 v 0 a 26.000005,25.986814 0 0 1 26.00007,-25.98322 h 52 a 26.000005,25.986814 0 0 1 25.99998,25.98322 z m -52.75598,-15.93508 a 16.000968,15.99285 0 1 0 0,31.98568 16.000968,15.99285 0 1 0 0,-31.98568 z"
        id="path485"
        gorn="0.4.0.15"
      />
      <path
        stroke-width="9.99493027"
        stroke="none"
        fill="#f7bd13"
        d="m 1002.0317,854.17604 a 25.986819,25.986814 0 0 1 -25.98678,25.98315 h -51.9736 a 25.986819,25.986814 0 0 1 -25.98687,-25.98315 v 0 a 25.986819,25.986814 0 0 1 25.98687,-25.98727 h 51.9736 a 25.986819,25.986814 0 0 1 25.98678,25.98727 z m -52.72918,-15.93913 a 15.992809,15.992806 0 1 0 0,31.98561 15.992809,15.992806 0 1 0 0,-31.98561 z"
        id="path483"
        gorn="0.4.0.17"
      />
      <path
        stroke-width="9.99493027"
        stroke="none"
        fill="#f7bd13"
        d="m 1002.0317,754.17187 a 25.986819,25.986814 0 0 1 -25.98678,25.98728 h -51.9736 a 25.986819,25.986814 0 0 1 -25.98687,-25.98728 v 0 a 25.986819,25.986814 0 0 1 25.98687,-25.98728 h 51.9736 a 25.986819,25.986814 0 0 1 25.98678,25.98728 z m -52.72918,-15.93914 a 15.992809,15.992806 0 1 0 0,31.98561 15.992809,15.992806 0 1 0 0,-31.98561 z"
        id="path469"
        gorn="0.4.0.19"
      />
      <path
        stroke-width="9.99493027"
        stroke="none"
        fill="#f7bd13"
        d="m 1002.0317,654.17184 a 25.986819,25.986814 0 0 1 -25.98678,25.98728 h -51.9736 a 25.986819,25.986814 0 0 1 -25.98687,-25.98728 v 0 a 25.986819,25.986814 0 0 1 25.98687,-25.98727 h 51.9736 a 25.986819,25.986814 0 0 1 25.98678,25.98727 z M 949.30252,638.2327 a 15.992813,15.99281 0 1 0 0,31.98562 15.992813,15.99281 0 1 0 0,-31.98562 z"
        id="path457"
        gorn="0.4.0.21"
      />
      <path
        stroke-width="9.99493027"
        stroke="none"
        fill="#f7bd13"
        d="m 1002.0845,554.1718 a 26.000005,25.986814 0 0 1 -25.99998,25.98728 h -52 A 26.000005,25.986814 0 0 1 898.08445,554.1718 v 0 a 26.000005,25.986814 0 0 1 26.00007,-25.98728 h 52 a 26.000005,25.986814 0 0 1 25.99998,25.98728 z m -52.75598,-15.93501 a 16.000003,15.991886 0 1 0 0,31.97735 16.000003,15.991886 0 1 0 0,-31.97735 z"
        id="path477"
        gorn="0.4.0.23"
      />
      <path
        stroke-width="9.99493027"
        stroke="none"
        fill="#f7bd13"
        d="m 1002.0317,454.17176 a 25.986819,25.986814 0 0 1 -25.98678,25.98728 h -51.9736 a 25.986819,25.986814 0 0 1 -25.98687,-25.98728 v 0 a 25.986819,25.986814 0 0 1 25.98687,-25.98727 h 51.9736 a 25.986819,25.986814 0 0 1 25.98678,25.98727 z m -52.72918,-15.93501 a 15.991889,15.991886 0 1 0 0,31.98149 15.991889,15.991886 0 1 0 0,-31.98149 z"
        id="path475"
        gorn="0.4.0.25"
      />
      <path
        stroke-width="9.99493027"
        stroke="none"
        fill="#f7bd13"
        d="M 1002.0845,354.17172 A 26.000005,25.986814 0 0 1 976.08452,380.159 h -52 a 26.000005,25.986814 0 0 1 -26.00007,-25.98728 v 0 a 26.000005,25.986814 0 0 1 26.00007,-25.98728 h 52 a 26.000005,25.986814 0 0 1 25.99998,25.98728 z m -52.75598,-15.93501 a 16.000003,15.991886 0 1 0 0,31.98148 16.000003,15.991886 0 1 0 0,-31.98148 z"
        id="path473"
        gorn="0.4.0.27"
      />
      <path
        stroke-width="9.99493027"
        stroke="none"
        fill="#f7bd13"
        d="m 1002.0317,254.17169 a 25.986819,25.986814 0 0 1 -25.98678,25.98728 h -51.9736 a 25.986819,25.986814 0 0 1 -25.98687,-25.98728 v 0 a 25.986819,25.986814 0 0 1 25.98687,-25.98727 h 51.9736 a 25.986819,25.986814 0 0 1 25.98678,25.98727 z m -52.72918,-15.93501 a 15.991889,15.991886 0 1 0 0,31.98149 15.991889,15.991886 0 1 0 0,-31.98149 z"
        id="path471"
        gorn="0.4.0.29"
      />
      <path
        stroke-width="9.99493027"
        stroke="none"
        fill="#f7bd13"
        d="M 104.97179,254.17169 A 25.986819,25.986814 0 0 1 78.984978,280.15897 H 27.011339 A 25.986819,25.986814 0 0 1 1.024516,254.17169 v 0 a 25.986819,25.986814 0 0 1 25.986823,-25.98727 h 51.973639 a 25.986819,25.986814 0 0 1 25.986812,25.98727 z M 53.029639,238.24494 a 15.991889,15.991886 0 1 0 0,31.98148 15.991889,15.991886 0 1 0 0,-31.98148 z"
        id="path425"
        gorn="0.4.0.31"
      />
      <path
        stroke-width="9.99493027"
        stroke="none"
        fill="#f7bd13"
        d="M 104.97179,354.17172 A 25.986819,25.986814 0 0 1 78.984978,380.159 H 27.011339 A 25.986819,25.986814 0 0 1 1.024516,354.17172 v 0 a 25.986819,25.986814 0 0 1 25.986823,-25.98728 h 51.973639 a 25.986819,25.986814 0 0 1 25.986812,25.98728 z M 53.029639,338.23671 a 15.991889,15.991886 0 1 0 0,31.98148 15.991889,15.991886 0 1 0 0,-31.98148 z"
        id="path431"
        gorn="0.4.0.33"
      />
      <path
        stroke-width="9.99493027"
        stroke="none"
        fill="#f7bd13"
        d="M 104.97179,454.17176 A 25.986819,25.986814 0 0 1 78.984978,480.15904 H 27.011339 A 25.986819,25.986814 0 0 1 1.024516,454.17176 v 0 a 25.986819,25.986814 0 0 1 25.986823,-25.98727 h 51.973639 a 25.986819,25.986814 0 0 1 25.986812,25.98727 z M 53.029639,438.23675 a 15.991889,15.991886 0 1 0 0,31.98149 15.991889,15.991886 0 1 0 0,-31.98149 z"
        id="path433"
        gorn="0.4.0.35"
      />
      <path
        stroke-width="9.99493027"
        stroke="none"
        fill="#f7bd13"
        d="M 104.97179,554.1718 A 25.986819,25.986814 0 0 1 78.984978,580.15908 H 27.011339 A 25.986819,25.986814 0 0 1 1.024516,554.1718 v 0 A 25.986819,25.986814 0 0 1 27.011339,528.18452 H 78.984978 A 25.986819,25.986814 0 0 1 104.97179,554.1718 Z M 53.029639,538.23679 a 15.991889,15.991886 0 1 0 0,31.97735 15.991889,15.991886 0 1 0 0,-31.97735 z"
        id="path435"
        gorn="0.4.0.37"
      />
      <path
        d="M 104.94727,654.17184 A 25.986819,25.986814 0 0 1 78.960458,680.15912 H 26.986819 A 25.986819,25.986814 0 0 1 1.0000004,654.17184 v 0 A 25.986819,25.986814 0 0 1 26.986819,628.18457 h 51.973639 a 25.986819,25.986814 0 0 1 25.986812,25.98727 z M 53.005119,638.2327 a 15.992813,15.99281 0 1 0 0,31.98562 15.992813,15.99281 0 1 0 0,-31.98562 z"
        id="path437"
        gorn="0.4.0.39"
        fill="#f7bd13"
        stroke="none"
        stroke-width="9.99493027"
      />
      <path
        stroke-width="9.99493027"
        stroke="none"
        fill="#f7bd13"
        d="M 104.97179,754.17187 A 25.986819,25.986814 0 0 1 78.984978,780.15915 H 27.011339 A 25.986819,25.986814 0 0 1 1.024516,754.17187 v 0 a 25.986819,25.986814 0 0 1 25.986823,-25.98728 h 51.973639 a 25.986819,25.986814 0 0 1 25.986812,25.98728 z M 53.029639,738.23273 a 15.992809,15.992806 0 1 0 0,31.98561 15.992809,15.992806 0 1 0 0,-31.98561 z"
        id="path439"
        gorn="0.4.0.41"
      />
      <path
        stroke-width="9.99493027"
        stroke="none"
        fill="#f7bd13"
        d="M 104.97179,854.17604 A 25.986819,25.986814 0 0 1 78.984978,880.15919 H 27.011339 A 25.986819,25.986814 0 0 1 1.024516,854.17604 v 0 a 25.986819,25.986814 0 0 1 25.986823,-25.98727 h 51.973639 a 25.986819,25.986814 0 0 1 25.986812,25.98727 z M 53.029639,838.23691 a 15.992809,15.992806 0 1 0 0,31.98561 15.992809,15.992806 0 1 0 0,-31.98561 z"
        id="path441"
        gorn="0.4.0.43"
      />
      <path
        stroke-width="9.99493027"
        stroke="none"
        fill="#f7bd13"
        d="m 104.97179,954.17204 a 25.986819,25.986814 0 0 1 -25.986812,25.9872 H 27.011339 A 25.986819,25.986814 0 0 1 1.024516,954.17204 v 0 a 25.986819,25.986814 0 0 1 25.986823,-25.98322 h 51.973639 a 25.986819,25.986814 0 0 1 25.986812,25.98322 z M 53.029639,938.23696 a 15.992853,15.99285 0 1 0 0,31.98568 15.992853,15.99285 0 1 0 0,-31.98568 z"
        id="path443"
        gorn="0.4.0.45"
      />
      <path
        stroke-width="9.99493027"
        stroke="none"
        fill="#f7bd13"
        d="m 104.96785,1054.1719 a 25.986819,25.986814 0 0 1 -25.986812,25.9873 H 27.007409 A 25.986819,25.986814 0 0 1 1.020585,1054.1719 v 0 a 25.986819,25.986814 0 0 1 25.986824,-25.9873 h 51.973639 a 25.986819,25.986814 0 0 1 25.986802,25.9873 z m -51.942151,-15.9267 a 15.992504,15.992501 0 1 0 0,31.9814 15.992504,15.992501 0 1 0 0,-31.9814 z"
        id="path445"
        gorn="0.4.0.47"
      />
      <path
        stroke-width="9.99493027"
        stroke="none"
        fill="#f7bd13"
        d="m 104.96785,1154.172 a 25.986819,25.986814 0 0 1 -25.986812,25.9872 H 27.007409 A 25.986819,25.986814 0 0 1 1.020585,1154.172 v 0 a 25.986819,25.986814 0 0 1 25.986824,-25.9873 h 51.973639 a 25.986819,25.986814 0 0 1 25.986802,25.9873 z m -51.942151,-15.935 a 15.992809,15.992806 0 1 0 0,31.9856 15.992809,15.992806 0 1 0 0,-31.9856 z"
        id="path447"
        gorn="0.4.0.49"
      />
      <path
        stroke-width="9.99493027"
        stroke="none"
        fill="#f7bd13"
        d="m 104.96785,1254.172 a 25.986819,25.986814 0 0 1 -25.986812,25.9873 H 27.007409 A 25.986819,25.986814 0 0 1 1.020585,1254.172 v 0 a 25.986819,25.986814 0 0 1 25.986824,-25.9873 h 51.973639 a 25.986819,25.986814 0 0 1 25.986802,25.9873 z m -51.942151,-15.935 a 15.992809,15.992806 0 1 0 0,31.9856 15.992809,15.992806 0 1 0 0,-31.9856 z"
        id="path449"
        gorn="0.4.0.51"
      />
      <path
        stroke-width="9.99493027"
        stroke="none"
        fill="#f7bd13"
        d="m 104.96785,1354.1721 a 25.986819,25.986814 0 0 1 -25.986812,25.9872 H 27.007409 A 25.986819,25.986814 0 0 1 1.020585,1354.1721 v 0 a 25.986819,25.986814 0 0 1 25.986824,-25.9873 h 51.973639 a 25.986819,25.986814 0 0 1 25.986802,25.9873 z M 53.025699,1338.237 a 15.991889,15.991886 0 1 0 0,31.9815 15.991889,15.991886 0 1 0 0,-31.9815 z"
        id="path451"
        gorn="0.4.0.53"
      />
      <path
        stroke-width="9.99493027"
        stroke="none"
        fill="#f7bd13"
        d="m 104.96785,1454.1721 a 25.986819,25.986814 0 0 1 -25.986812,25.9873 H 27.007409 A 25.986819,25.986814 0 0 1 1.020585,1454.1721 v 0 a 25.986819,25.986814 0 0 1 25.986824,-25.9872 h 51.973639 a 25.986819,25.986814 0 0 1 25.986802,25.9872 z M 53.025699,1438.233 a 15.991889,15.991886 0 1 0 0,31.9815 15.991889,15.991886 0 1 0 0,-31.9815 z"
        id="path455"
        gorn="0.4.0.55"
      />
      <path
        stroke-width="9.99493027"
        stroke="none"
        fill="#f7bd13"
        d="m 104.96785,1554.1721 a 25.986819,25.986814 0 0 1 -25.986812,25.9873 H 27.007409 A 25.986819,25.986814 0 0 1 1.020585,1554.1721 v 0 a 25.986819,25.986814 0 0 1 25.986824,-25.9873 h 51.973639 a 25.986819,25.986814 0 0 1 25.986802,25.9873 z m -51.942151,-15.935 a 15.991889,15.991886 0 1 0 0,31.9814 15.991889,15.991886 0 1 0 0,-31.9814 z"
        id="path453"
        gorn="0.4.0.57"
      />
      <path
        stroke-width="9.99493027"
        stroke="none"
        fill="#f7bd13"
        d="m 104.96785,1654.1721 a 25.986819,25.986814 0 0 1 -25.986812,25.9873 H 27.007409 A 25.986819,25.986814 0 0 1 1.020585,1654.1721 v 0 a 25.986819,25.986814 0 0 1 25.986824,-25.9873 h 51.973639 a 25.986819,25.986814 0 0 1 25.986802,25.9873 z M 53.025699,1638.233 a 15.992809,15.992806 0 1 0 0,31.9856 15.992809,15.992806 0 1 0 0,-31.9856 z"
        id="path463"
        gorn="0.4.0.59"
      />
      <path
        stroke-width="9.99493027"
        stroke="none"
        fill="#f7bd13"
        gorn="0.4.0.1"
        id="path200"
        d="m 1001.9475,2254.3043 a 25.986819,25.986814 0 0 1 -25.98678,25.9873 h -51.9736 a 25.986819,25.986814 0 0 1 -25.98677,-25.9873 v 0 a 25.986819,25.986814 0 0 1 25.98677,-25.9873 h 51.9736 a 25.986819,25.986814 0 0 1 25.98678,25.9873 z m -52.72908,-15.9391 a 15.992809,15.992806 0 1 0 0,31.9856 15.992809,15.992806 0 1 0 0,-31.9856 z"
      />
      <path
        stroke-width="9.99493027"
        stroke="none"
        fill="#f7bd13"
        gorn="0.4.0.3"
        id="path202"
        d="m 1002.0316,2154.3043 a 25.986819,25.986814 0 0 1 -25.98678,25.9873 h -51.9736 a 25.986819,25.986814 0 0 1 -25.98677,-25.9873 v 0 a 25.986819,25.986814 0 0 1 25.98677,-25.9873 h 51.9736 a 25.986819,25.986814 0 0 1 25.98678,25.9873 z m -52.72908,-15.935 a 15.991889,15.991886 0 1 0 0,31.9814 15.991889,15.991886 0 1 0 0,-31.9814 z"
      />
      <path
        stroke-width="9.99493027"
        stroke="none"
        fill="#f7bd13"
        gorn="0.4.0.5"
        id="path204"
        d="m 1002.0844,2054.3043 a 26.000028,25.986814 0 0 1 -25.99998,25.9873 h -52 a 26.000028,25.986814 0 0 1 -25.99997,-25.9873 v 0 a 26.000028,25.986814 0 0 1 25.99997,-25.9872 h 52 a 26.000028,25.986814 0 0 1 25.99998,25.9872 z m -52.75588,-15.9391 a 16.000018,15.991886 0 1 0 0,31.9815 16.000018,15.991886 0 1 0 0,-31.9815 z"
      />
      <path
        stroke-width="9.99493027"
        stroke="none"
        fill="#f7bd13"
        gorn="0.4.0.7"
        id="path206"
        d="m 1002.0316,1954.3043 a 25.986819,25.986814 0 0 1 -25.98678,25.9872 h -51.9736 a 25.986819,25.986814 0 0 1 -25.98677,-25.9872 v 0 a 25.986819,25.986814 0 0 1 25.98677,-25.9873 h 51.9736 a 25.986819,25.986814 0 0 1 25.98678,25.9873 z m -52.72908,-15.9351 a 15.991889,15.991886 0 1 0 0,31.9815 15.991889,15.991886 0 1 0 0,-31.9815 z"
      />
      <path
        stroke-width="9.99493027"
        stroke="none"
        fill="#f7bd13"
        gorn="0.4.0.9"
        id="path208"
        d="m 1002.0844,1854.3042 a 26.000028,25.986814 0 0 1 -25.99998,25.9873 h -52 a 26.000028,25.986814 0 0 1 -25.99997,-25.9873 v 0 a 26.000028,25.986814 0 0 1 25.99997,-25.9873 h 52 a 26.000028,25.986814 0 0 1 25.99998,25.9873 z m -52.75588,-15.935 a 16.000938,15.992806 0 1 0 0,31.9856 16.000938,15.992806 0 1 0 0,-31.9856 z"
      />
      <path
        stroke-width="9.99493027"
        stroke="none"
        fill="#f7bd13"
        gorn="0.4.0.11"
        id="path210"
        d="m 1002.0316,1754.3042 a 25.986819,25.986814 0 0 1 -25.98678,25.9872 h -51.9736 a 25.986819,25.986814 0 0 1 -25.98677,-25.9872 v 0 a 25.986819,25.986814 0 0 1 25.98677,-25.9873 h 51.9736 a 25.986819,25.986814 0 0 1 25.98678,25.9873 z m -52.72908,-15.935 a 15.992809,15.992806 0 1 0 0,31.9856 15.992809,15.992806 0 1 0 0,-31.9856 z"
      />
      <path
        stroke-width="9.99493027"
        stroke="none"
        fill="#f7bd13"
        gorn="0.4.0.49"
        id="path224"
        d="m 104.96785,1754.3042 a 25.986819,25.986814 0 0 1 -25.986812,25.9872 H 27.007409 A 25.986819,25.986814 0 0 1 1.020585,1754.3042 v 0 a 25.986819,25.986814 0 0 1 25.986824,-25.9873 h 51.973639 a 25.986819,25.986814 0 0 1 25.986802,25.9873 z m -51.942151,-15.935 a 15.992809,15.992806 0 1 0 0,31.9856 15.992809,15.992806 0 1 0 0,-31.9856 z"
      />
      <path
        stroke-width="9.99493027"
        stroke="none"
        fill="#f7bd13"
        gorn="0.4.0.51"
        id="path226"
        d="m 104.96785,1854.3042 a 25.986819,25.986814 0 0 1 -25.986812,25.9873 H 27.007409 A 25.986819,25.986814 0 0 1 1.020585,1854.3042 v 0 a 25.986819,25.986814 0 0 1 25.986824,-25.9873 h 51.973639 a 25.986819,25.986814 0 0 1 25.986802,25.9873 z m -51.942151,-15.935 a 15.992809,15.992806 0 1 0 0,31.9856 15.992809,15.992806 0 1 0 0,-31.9856 z"
      />
      <path
        stroke-width="9.99493027"
        stroke="none"
        fill="#f7bd13"
        gorn="0.4.0.53"
        id="path228"
        d="m 104.96785,1954.3043 a 25.986819,25.986814 0 0 1 -25.986812,25.9872 H 27.007409 A 25.986819,25.986814 0 0 1 1.020585,1954.3043 v 0 a 25.986819,25.986814 0 0 1 25.986824,-25.9873 h 51.973639 a 25.986819,25.986814 0 0 1 25.986802,25.9873 z m -51.942151,-15.9351 a 15.991889,15.991886 0 1 0 0,31.9815 15.991889,15.991886 0 1 0 0,-31.9815 z"
      />
      <path
        stroke-width="9.99493027"
        stroke="none"
        fill="#f7bd13"
        gorn="0.4.0.55"
        id="path230"
        d="m 104.96785,2054.3043 a 25.986819,25.986814 0 0 1 -25.986812,25.9873 H 27.007409 A 25.986819,25.986814 0 0 1 1.020585,2054.3043 v 0 a 25.986819,25.986814 0 0 1 25.986824,-25.9872 h 51.973639 a 25.986819,25.986814 0 0 1 25.986802,25.9872 z m -51.942151,-15.9391 a 15.991889,15.991886 0 1 0 0,31.9815 15.991889,15.991886 0 1 0 0,-31.9815 z"
      />
      <path
        stroke-width="9.99493027"
        stroke="none"
        fill="#f7bd13"
        gorn="0.4.0.57"
        id="path232"
        d="m 104.96785,2154.3043 a 25.986819,25.986814 0 0 1 -25.986812,25.9873 H 27.007409 A 25.986819,25.986814 0 0 1 1.020585,2154.3043 v 0 a 25.986819,25.986814 0 0 1 25.986824,-25.9873 h 51.973639 a 25.986819,25.986814 0 0 1 25.986802,25.9873 z m -51.942151,-15.935 a 15.991889,15.991886 0 1 0 0,31.9814 15.991889,15.991886 0 1 0 0,-31.9814 z"
      />
      <path
        stroke-width="9.99493027"
        stroke="none"
        fill="#f7bd13"
        gorn="0.4.0.59"
        id="path234"
        d="m 104.96785,2254.3043 a 25.986819,25.986814 0 0 1 -25.986812,25.9873 H 27.007409 A 25.986819,25.986814 0 0 1 1.020585,2254.3043 v 0 a 25.986819,25.986814 0 0 1 25.986824,-25.9873 h 51.973639 a 25.986819,25.986814 0 0 1 25.986802,25.9873 z m -51.942151,-15.9391 a 15.992809,15.992806 0 1 0 0,31.9856 15.992809,15.992806 0 1 0 0,-31.9856 z"
      />
      <circle
        stroke-width="7"
        stroke="#f7bd13"
        fill="none"
        gorn="0.4.0.0"
        cy="2254.2915"
        cx="952.00037"
        id="connector0pin"
        r="22.5"
      />
      <circle
        stroke-width="7"
        stroke="#f7bd13"
        fill="none"
        gorn="0.4.0.2"
        cy="2154.2917"
        cx="952.00037"
        id="connector1pin"
        r="22.5"
      />
      <circle
        stroke-width="7"
        stroke="#f7bd13"
        fill="none"
        r="22.5"
        gorn="0.4.0.4"
        cy="2054.2917"
        cx="952.00037"
        id="connector2pin"
      />
      <circle
        stroke-width="7"
        stroke="#f7bd13"
        fill="none"
        gorn="0.4.0.6"
        cy="1954.2917"
        cx="952.00037"
        id="connector3pin"
        r="22.5"
      />
      <circle
        stroke-width="7"
        stroke="#f7bd13"
        fill="none"
        r="22.5"
        gorn="0.4.0.8"
        cy="1854.2917"
        cx="952.00037"
        id="connector4pin"
      />
      <circle
        stroke-width="7"
        stroke="#f7bd13"
        fill="none"
        gorn="0.4.0.10"
        cy="1754.2916"
        cx="952.00037"
        id="connector5pin"
        r="22.5"
      />
      <circle
        stroke-width="7"
        stroke="#f7bd13"
        fill="none"
        r="22.5"
        id="connector6pin"
        cx="952.00037"
        cy="1654.1594"
        gorn="0.4.0.0"
      />
      <circle
        stroke-width="7"
        stroke="#f7bd13"
        fill="none"
        r="22.5"
        id="connector7pin"
        cx="952.00037"
        cy="1554.1594"
        gorn="0.4.0.2"
      />
      <circle
        stroke-width="7"
        stroke="#f7bd13"
        fill="none"
        id="connector8pin"
        cx="952.00037"
        cy="1454.1593"
        gorn="0.4.0.4"
        r="22.5"
      />
      <circle
        stroke-width="7"
        stroke="#f7bd13"
        fill="none"
        r="22.5"
        id="connector9pin"
        cx="952.00037"
        cy="1354.1593"
        gorn="0.4.0.6"
      />
      <circle
        stroke-width="7"
        stroke="#f7bd13"
        fill="none"
        id="connector10pin"
        cx="952.00037"
        cy="1254.1593"
        gorn="0.4.0.8"
        r="22.5"
      />
      <circle
        stroke-width="7"
        stroke="#f7bd13"
        fill="none"
        r="22.5"
        id="connector11pin"
        cx="952.00037"
        cy="1154.1592"
        gorn="0.4.0.10"
      />
      <circle
        stroke-width="7"
        stroke="#f7bd13"
        fill="none"
        id="connector12pin"
        cx="952.00037"
        cy="1054.1592"
        gorn="0.4.0.12"
        r="22.5"
      />
      <circle
        stroke-width="7"
        stroke="#f7bd13"
        fill="none"
        r="22.5"
        id="connector13pin"
        cx="952.00037"
        cy="954.15912"
        gorn="0.4.0.14"
      />
      <circle
        stroke-width="7"
        stroke="#f7bd13"
        fill="none"
        id="connector14pin"
        cx="952.00037"
        cy="854.15918"
        gorn="0.4.0.16"
        r="22.5"
      />
      <circle
        stroke-width="7"
        stroke="#f7bd13"
        fill="none"
        r="22.5"
        id="connector15pin"
        cx="952.00037"
        cy="754.15912"
        gorn="0.4.0.18"
      />
      <circle
        stroke-width="7"
        stroke="#f7bd13"
        fill="none"
        r="22.5"
        id="connector16pin"
        cx="952.00037"
        cy="654.15912"
        gorn="0.4.0.20"
      />
      <circle
        stroke-width="7"
        stroke="#f7bd13"
        fill="none"
        id="connector17pin"
        cx="952.00037"
        cy="554.15906"
        gorn="0.4.0.22"
        r="22.5"
      />
      <circle
        stroke-width="7"
        stroke="#f7bd13"
        fill="none"
        r="22.5"
        id="connector18pin"
        cx="952.00037"
        cy="454.15906"
        gorn="0.4.0.24"
      />
      <circle
        stroke-width="7"
        stroke="#f7bd13"
        fill="none"
        id="connector19pin"
        cx="952.00037"
        cy="354.15903"
        gorn="0.4.0.26"
        r="22.5"
      />
      <circle
        stroke-width="7"
        stroke="#f7bd13"
        fill="none"
        r="22.5"
        id="connector20pin"
        cx="952.00037"
        cy="254.15895"
        gorn="0.4.0.28"
      />
      <circle
        stroke-width="7"
        stroke="#f7bd13"
        fill="none"
        r="22.5"
        id="connector21pin"
        cx="51.563419"
        cy="254.15895"
        gorn="0.4.0.30"
      />
      <circle
        stroke-width="7"
        stroke="#f7bd13"
        fill="none"
        r="22.5"
        id="connector22pin"
        cx="51.563419"
        cy="354.15903"
        gorn="0.4.0.32"
      />
      <circle
        stroke-width="7"
        stroke="#f7bd13"
        fill="none"
        r="22.5"
        id="connector23pin"
        cx="51.563419"
        cy="454.15906"
        gorn="0.4.0.34"
      />
      <circle
        stroke-width="7"
        stroke="#f7bd13"
        fill="none"
        r="22.5"
        id="connector24pin"
        cx="51.563419"
        cy="554.15906"
        gorn="0.4.0.36"
      />
      <circle
        stroke-width="7"
        stroke="#f7bd13"
        fill="none"
        r="22.5"
        id="connector25pin"
        cx="51.563419"
        cy="654.15912"
        gorn="0.4.0.38"
      />
      <circle
        stroke-width="7"
        stroke="#f7bd13"
        fill="none"
        r="22.5"
        id="connector26pin"
        cx="51.563419"
        cy="754.15912"
        gorn="0.4.0.40"
      />
      <circle
        stroke-width="7"
        stroke="#f7bd13"
        fill="none"
        r="22.5"
        id="connector27pin"
        cx="51.563419"
        cy="854.15918"
        gorn="0.4.0.42"
      />
      <circle
        stroke-width="7"
        stroke="#f7bd13"
        fill="none"
        r="22.5"
        id="connector28pin"
        cx="51.563419"
        cy="954.15912"
        gorn="0.4.0.44"
      />
      <circle
        stroke-width="7"
        stroke="#f7bd13"
        fill="none"
        r="22.5"
        id="connector29pin"
        cx="51.563419"
        cy="1054.1592"
        gorn="0.4.0.46"
      />
      <circle
        stroke-width="7"
        stroke="#f7bd13"
        fill="none"
        r="22.5"
        id="connector30pin"
        cx="51.563419"
        cy="1154.1592"
        gorn="0.4.0.48"
      />
      <circle
        stroke-width="7"
        stroke="#f7bd13"
        fill="none"
        r="22.5"
        id="connector31pin"
        cx="51.563419"
        cy="1254.1593"
        gorn="0.4.0.50"
      />
      <circle
        stroke-width="7"
        stroke="#f7bd13"
        fill="none"
        r="22.5"
        id="connector32pin"
        cx="51.563419"
        cy="1354.1593"
        gorn="0.4.0.52"
      />
      <circle
        stroke-width="7"
        stroke="#f7bd13"
        fill="none"
        r="22.5"
        id="connector33pin"
        cx="51.563419"
        cy="1454.1593"
        gorn="0.4.0.54"
      />
      <circle
        stroke-width="7"
        stroke="#f7bd13"
        fill="none"
        r="22.5"
        id="connector34pin"
        cx="51.566196"
        cy="1554.1594"
        gorn="0.4.0.56"
      />
      <circle
        stroke-width="7"
        stroke="#f7bd13"
        fill="none"
        r="22.5"
        id="connector35pin"
        cx="51.563419"
        cy="1654.1594"
        gorn="0.4.0.58"
      />
      <circle
        stroke-width="7"
        stroke="#f7bd13"
        fill="none"
        gorn="0.4.0.48"
        cy="1754.2916"
        cx="51.563419"
        id="connector36pin"
        r="22.5"
      />
      <circle
        stroke-width="7"
        stroke="#f7bd13"
        fill="none"
        gorn="0.4.0.50"
        cy="1854.2917"
        cx="51.563419"
        id="connector37pin"
        r="22.5"
      />
      <circle
        stroke-width="7"
        stroke="#f7bd13"
        fill="none"
        gorn="0.4.0.52"
        cy="1954.2917"
        cx="51.563419"
        id="connector38pin"
        r="22.5"
      />
      <circle
        stroke-width="7"
        stroke="#f7bd13"
        fill="none"
        gorn="0.4.0.54"
        cy="2054.2917"
        cx="51.563419"
        id="connector39pin"
        r="22.5"
      />
      <circle
        stroke-width="7"
        stroke="#f7bd13"
        fill="none"
        gorn="0.4.0.56"
        cy="2154.2917"
        cx="51.566196"
        id="connector40pin"
        r="22.5"
      />
      <circle
        stroke-width="7"
        stroke="#f7bd13"
        fill="none"
        gorn="0.4.0.58"
        cy="2254.2915"
        cx="51.563419"
        id="connector41pin"
        r="22.5"
      />
    </g>
  </g>
</svg>
