<?xml version='1.0' encoding='UTF-8' standalone='no'?>
<svg
  xmlns:dc="http://purl.org/dc/elements/1.1/"
  xmlns:cc="http://creativecommons.org/ns#"
  xmlns:rdf="http://www.w3.org/1999/02/22-rdf-syntax-ns#"
  xmlns:svg="http://www.w3.org/2000/svg"
  xmlns="http://www.w3.org/2000/svg"
  xml:space="preserve"
  viewBox="0 0 1115.4943 2310"
  width="1.1154943in"
  id="svg959"
  gorn="0"
  version="1.1"
  height="2.3099999in"
  clip-rule="evenodd"
  fill-rule="evenodd"
  image-rendering="optimizeQuality"
  shape-rendering="geometricPrecision"
  text-rendering="geometricPrecision">
  <metadata
    id="metadata965">
    <rdf:RDF>
      <cc:Work
        rdf:about="">
        <dc:format>image/svg+xml</dc:format>
        <dc:type
          rdf:resource="http://purl.org/dc/dcmitype/StillImage"
        />
        <dc:title/>
      </cc:Work>
    </rdf:RDF>
  </metadata>
  <defs
    id="defs963">
  </defs>
  <desc
    id="desc2">
    <referenceFile>ESP32-S2-DevKitM-1_1_schematic.svg</referenceFile>
  </desc>
  <g
    id="schematic">
    <rect
      width="901.48767"
      id="rect5"
      x="104.7505"
      gorn="0.3.0"
      y="4.2561693"
      height="2301.4878"
      fill="#fefefe"
      stroke="#373435"
      stroke-width="8.51233864"
    />
    <text
      y="1618.1176"
      gorn="0.3.3.0"
      x="971.82373"
      id="text11"
      font-size="45"
      font-weight="normal"
      font-family="'Droid Sans'"
      text-anchor="end"
      fill="#555555">34</text>
    <rect
      width="10"
      id="rect31"
      x="5.4943204"
      gorn="0.3.6"
      y="196.99994"
      height="10"
      fill="none"
    />
    <text
      y="220.44014"
      gorn="0.3.7.0"
      x="141.20364"
      id="text33"
      font-size="49"
      font-weight="normal"
      font-family="'Droid Sans'"
      fill="#555555"
      stroke-width="0.99999994">3V3</text>
    <text
      font-weight="normal"
      font-size="35"
      id="text35"
      x="38.958008"
      gorn="0.3.8"
      y="1087.658"
      font-family="'Droid Sans'"
      fill="#555555">31</text>
    <rect
      width="10"
      id="rect39"
      x="5.4943204"
      gorn="0.3.11"
      y="296.99994"
      height="10"
      fill="none"
    />
    <text
      font-weight="normal"
      font-size="45"
      id="text41"
      x="142.74774"
      gorn="0.3.12"
      y="320.56055"
      font-family="'Droid Sans'"
      fill="#555555">0</text>
    <text
      font-weight="normal"
      font-size="35"
      id="text59"
      x="38.958008"
      gorn="0.3.13"
      y="1187.9998"
      font-family="'Droid Sans'"
      fill="#555555">32</text>
    <rect
      width="10"
      id="rect79"
      x="5.4943204"
      gorn="0.3.16"
      y="396.99994"
      height="10"
      fill="none"
    />
    <text
      font-weight="normal"
      font-size="45"
      id="text81"
      x="142.74774"
      gorn="0.3.17"
      y="420.56055"
      font-family="'Droid Sans'"
      fill="#555555">1</text>
    <text
      font-weight="normal"
      font-size="35"
      id="text83"
      x="38.958008"
      gorn="0.3.18"
      y="1287.658"
      font-family="'Droid Sans'"
      fill="#555555">33</text>
    <rect
      width="10"
      id="rect103"
      x="5.4943204"
      gorn="0.3.21"
      y="496.99994"
      height="10"
      fill="none"
    />
    <text
      font-weight="normal"
      font-size="45"
      id="text105"
      x="142.74774"
      gorn="0.3.22"
      y="520.56055"
      font-family="'Droid Sans'"
      fill="#555555">2</text>
    <text
      font-weight="normal"
      font-size="35"
      id="text107"
      x="38.958008"
      gorn="0.3.23"
      y="1387.6581"
      font-family="'Droid Sans'"
      fill="#555555">34</text>
    <rect
      width="10"
      id="rect111"
      x="5.4943204"
      gorn="0.3.26"
      y="596.99994"
      height="10"
      fill="none"
    />
    <text
      font-weight="normal"
      font-size="45"
      id="text113"
      x="143.19933"
      gorn="0.3.27"
      y="620.56055"
      font-family="'Droid Sans'"
      fill="#555555">3</text>
    <text
      font-weight="normal"
      font-size="35"
      id="text131"
      x="40.359375"
      gorn="0.3.28"
      y="1487.6581"
      font-family="'Droid Sans'"
      fill="#555555">35</text>
    <rect
      width="10"
      id="rect151"
      x="5.4943204"
      gorn="0.3.31"
      y="696.99994"
      height="10"
      fill="none"
    />
    <text
      font-weight="normal"
      font-size="45"
      id="text153"
      x="142.74774"
      gorn="0.3.32"
      y="720.56055"
      font-family="'Droid Sans'"
      fill="#555555">4</text>
    <text
      font-weight="normal"
      font-size="35"
      id="text171"
      x="40.359375"
      gorn="0.3.33"
      y="1588"
      font-family="'Droid Sans'"
      fill="#555555">36</text>
    <rect
      width="10"
      id="rect191"
      x="5.4943204"
      gorn="0.3.36"
      y="796.99994"
      height="10"
      fill="none"
    />
    <text
      font-weight="normal"
      font-size="45"
      id="text193"
      x="142.74774"
      gorn="0.3.37"
      y="820.56061"
      font-family="'Droid Sans'"
      fill="#555555">5</text>
    <text
      font-weight="normal"
      font-size="35"
      id="text211"
      x="40.853695"
      gorn="0.3.38"
      y="188.4734"
      font-family="'Droid Sans'"
      fill="#555555">22</text>
    <rect
      width="10"
      id="rect231"
      x="5.4943204"
      gorn="0.3.41"
      y="896.99994"
      height="10"
      fill="none"
    />
    <text
      font-weight="normal"
      font-size="45"
      id="text233"
      x="142.74774"
      gorn="0.3.42"
      y="920.56049"
      font-family="'Droid Sans'"
      fill="#555555">6</text>
    <text
      font-weight="normal"
      font-size="35"
      id="text251"
      x="40.853695"
      gorn="0.3.43"
      y="288.13153"
      font-family="'Droid Sans'"
      fill="#555555">23</text>
    <rect
      width="10"
      id="rect271"
      x="5.4943204"
      gorn="0.3.46"
      y="996.99994"
      height="10"
      fill="none"
    />
    <text
      font-weight="normal"
      font-size="45"
      id="text273"
      x="142.74774"
      gorn="0.3.47"
      y="1020.5605"
      font-family="'Droid Sans'"
      fill="#555555">7</text>
    <text
      font-weight="normal"
      font-size="35"
      id="text291"
      x="40.853695"
      gorn="0.3.48"
      y="388.47333"
      font-family="'Droid Sans'"
      fill="#555555">24</text>
    <rect
      width="10"
      id="rect311"
      x="5.4943204"
      gorn="0.3.51"
      y="1094.9999"
      height="10"
      fill="none"
    />
    <text
      font-weight="normal"
      font-size="45"
      id="text313"
      x="142.74774"
      gorn="0.3.52"
      y="1120.5604"
      font-family="'Droid Sans'"
      fill="#555555">8</text>
    <text
      y="487.6582"
      gorn="0.3.53.0"
      x="40.312424"
      id="text331"
      font-size="35"
      font-weight="normal"
      font-family="'Droid Sans'"
      fill="#555555">25</text>
    <rect
      width="10"
      id="rect351"
      x="5.4943204"
      gorn="0.3.56"
      y="1196.9999"
      height="10"
      fill="none"
    />
    <text
      font-weight="normal"
      font-size="45"
      id="text353"
      x="142.74774"
      gorn="0.3.57"
      y="1220.5604"
      font-family="'Droid Sans'"
      fill="#555555">9</text>
    <text
      font-weight="normal"
      font-size="35"
      id="text355"
      x="40.853695"
      gorn="0.3.58"
      y="588.13159"
      font-family="'Droid Sans'"
      fill="#555555">26</text>
    <rect
      width="10"
      id="rect359"
      x="5.4943204"
      gorn="0.3.61"
      y="1296.9999"
      height="10"
      fill="none"
    />
    <text
      font-weight="normal"
      font-size="45"
      id="text361"
      x="142.74774"
      gorn="0.3.62"
      y="1320.5604"
      font-family="'Droid Sans'"
      fill="#555555">10</text>
    <text
      font-weight="normal"
      font-size="35"
      id="text363"
      x="40.853695"
      gorn="0.3.63"
      y="688.47345"
      font-family="'Droid Sans'"
      fill="#555555">27</text>
    <text
      font-weight="normal"
      font-size="45"
      id="text367"
      x="142.74774"
      gorn="0.3.64"
      y="1520.5604"
      font-family="'Droid Sans'"
      fill="#555555">12</text>
    <rect
      width="10"
      id="rect391"
      x="5.4943204"
      gorn="0.3.69"
      y="1396.9999"
      height="10"
      fill="none"
    />
    <text
      font-weight="normal"
      font-size="45"
      id="text393"
      x="142.74774"
      gorn="0.3.70"
      y="1420.5604"
      font-family="'Droid Sans'"
      fill="#555555">11</text>
    <text
      font-weight="normal"
      font-size="35"
      id="text411"
      x="40.853695"
      gorn="0.3.71"
      y="788.13171"
      font-family="'Droid Sans'"
      fill="#555555">28</text>
    <text
      font-weight="normal"
      font-size="45"
      id="text433"
      x="145.49432"
      gorn="0.3.74"
      y="1620.5604"
      font-family="'Droid Sans'"
      fill="#555555">13</text>
    <rect
      width="10"
      id="rect453"
      x="1105.4943"
      gorn="0.3.77"
      y="1496.9999"
      height="10"
      fill="none"
    />
    <text
      font-weight="normal"
      font-size="45"
      id="text455"
      x="965.65918"
      gorn="0.3.78"
      y="1521.5604"
      font-family="'Droid Sans'"
      text-anchor="end"
      fill="#555555">35</text>
    <text
      font-weight="normal"
      font-size="35"
      id="text473"
      x="1033.9575"
      gorn="0.3.79"
      y="584.99994"
      font-family="'Droid Sans'"
      fill="#555555">17</text>
    <rect
      width="10"
      id="rect493"
      x="1105.4943"
      gorn="0.3.82"
      y="1396.9999"
      height="10"
      fill="none"
    />
    <text
      y="1423.6627"
      gorn="0.3.83.0"
      x="965.65918"
      id="text495"
      font-size="45"
      font-weight="normal"
      font-family="'Droid Sans'"
      text-anchor="end"
      fill="#555555">36</text>
    <text
      font-weight="normal"
      font-size="35"
      id="text513"
      x="1034.1968"
      gorn="0.3.84"
      y="484.65808"
      font-family="'Droid Sans'"
      fill="#555555">18</text>
    <rect
      width="10"
      id="rect533"
      x="1105.4943"
      gorn="0.3.87"
      y="1296.9999"
      height="10"
      fill="none"
    />
    <text
      font-weight="normal"
      font-size="45"
      id="text535"
      x="971.82373"
      gorn="0.3.88"
      y="1321.5604"
      font-family="'Droid Sans'"
      text-anchor="end"
      fill="#555555">37</text>
    <text
      font-weight="normal"
      font-size="35"
      id="text553"
      x="1031.958"
      gorn="0.3.89"
      y="384.99982"
      font-family="'Droid Sans'"
      fill="#555555">19</text>
    <rect
      width="10"
      id="rect573"
      x="1105.4943"
      gorn="0.3.92"
      y="1196.9999"
      height="10"
      fill="none"
    />
    <text
      font-weight="normal"
      font-size="45"
      id="text575"
      x="964.27979"
      gorn="0.3.93"
      y="1222"
      font-family="'Droid Sans'"
      text-anchor="end"
      fill="#555555">38</text>
    <text
      font-weight="normal"
      font-size="35"
      id="text593"
      x="1033.3594"
      gorn="0.3.94"
      y="284.65796"
      font-family="'Droid Sans'"
      fill="#555555">20</text>
    <rect
      width="10"
      id="rect597"
      x="1105.4943"
      gorn="0.3.97"
      y="1096.9999"
      height="10"
      fill="none"
    />
    <text
      y="1121.6617"
      gorn="0.3.98.0"
      x="961.90674"
      id="text599"
      font-size="45"
      font-weight="normal"
      font-family="'Droid Sans'"
      text-anchor="end"
      fill="#555555">39</text>
    <text
      font-weight="normal"
      font-size="35"
      id="text617"
      x="1033.667"
      gorn="0.3.99"
      y="184.65788"
      font-family="'Droid Sans'"
      fill="#555555">21</text>
    <rect
      width="10"
      id="rect621"
      x="1105.4943"
      gorn="0.3.102"
      y="996.99994"
      height="10"
      fill="none"
    />
    <text
      font-weight="normal"
      font-size="45"
      id="text623"
      x="962.30225"
      gorn="0.3.103"
      y="1022.5605"
      font-family="'Droid Sans'"
      text-anchor="end"
      fill="#555555">40</text>
    <text
      font-weight="normal"
      font-size="35"
      id="text641"
      x="1032.9562"
      gorn="0.3.104"
      y="1588"
      font-family="'Droid Sans'"
      fill="#555555">7</text>
    <rect
      width="10"
      id="rect661"
      x="1105.4943"
      gorn="0.3.107"
      y="896.99994"
      height="10"
      fill="none"
    />
    <text
      y="922.42023"
      gorn="0.3.108.0"
      x="962.80762"
      id="text663"
      font-size="45"
      font-weight="normal"
      font-family="'Droid Sans'"
      text-anchor="end"
      fill="#555555">41</text>
    <text
      font-weight="normal"
      font-size="35"
      id="text681"
      x="1032.6827"
      gorn="0.3.109"
      y="1487.6581"
      font-family="'Droid Sans'"
      fill="#555555">8</text>
    <rect
      width="10"
      id="rect701"
      x="1105.4943"
      gorn="0.3.112"
      y="796.99994"
      height="10"
      fill="none"
    />
    <text
      font-weight="normal"
      font-size="45"
      id="text703"
      x="971.82373"
      gorn="0.3.113"
      y="821.56061"
      font-family="'Droid Sans'"
      text-anchor="end"
      fill="#555555">42</text>
    <text
      font-weight="normal"
      font-size="35"
      id="text721"
      x="1032.6827"
      gorn="0.3.114"
      y="1387.6581"
      font-family="'Droid Sans'"
      fill="#555555">9</text>
    <rect
      width="10"
      id="rect741"
      x="1105.4943"
      gorn="0.3.117"
      y="696.99994"
      height="10"
      fill="none"
    />
    <text
      font-weight="normal"
      font-size="45"
      id="text743"
      x="962.45605"
      gorn="0.3.118"
      y="721.56055"
      font-family="'Droid Sans'"
      text-anchor="end"
      fill="#555555">TX</text>
    <text
      font-weight="normal"
      font-size="35"
      id="text761"
      x="1031.0413"
      gorn="0.3.119"
      y="1287.6581"
      font-family="'Droid Sans'"
      fill="#555555">10</text>
    <rect
      width="10"
      id="rect783"
      x="1105.4943"
      gorn="0.3.122"
      y="596.99994"
      height="10"
      fill="none"
    />
    <text
      font-weight="normal"
      font-size="45"
      id="text785"
      x="962.45605"
      gorn="0.3.123"
      y="621.56055"
      font-family="'Droid Sans'"
      text-anchor="end"
      fill="#555555">RX</text>
    <text
      font-weight="normal"
      font-size="35"
      id="text803"
      x="1031.4523"
      gorn="0.3.124"
      y="1187.9998"
      font-family="'Droid Sans'"
      fill="#555555">11</text>
    <rect
      width="10"
      id="rect823"
      x="1105.4943"
      gorn="0.3.127"
      y="496.99994"
      height="10"
      fill="none"
    />
    <text
      font-weight="normal"
      font-size="45"
      id="text825"
      x="971.82373"
      gorn="0.3.128"
      y="521.56055"
      font-family="'Droid Sans'"
      text-anchor="end"
      fill="#555555">45</text>
    <text
      font-weight="normal"
      font-size="35"
      id="text843"
      x="1031.4943"
      gorn="0.3.129"
      y="1087.9998"
      font-family="'Droid Sans'"
      fill="#555555">12</text>
    <rect
      width="10"
      id="rect847"
      x="1105.4943"
      gorn="0.3.132"
      y="396.99994"
      height="10"
      fill="none"
    />
    <text
      font-weight="normal"
      font-size="45"
      id="text849"
      x="966.77979"
      gorn="0.3.133"
      y="421.56055"
      font-family="'Droid Sans'"
      text-anchor="end"
      fill="#555555">46</text>
    <text
      font-weight="normal"
      font-size="35"
      id="text867"
      x="1031.4943"
      gorn="0.3.134"
      y="987.65796"
      font-family="'Droid Sans'"
      fill="#555555">13</text>
    <rect
      width="10"
      id="rect872"
      x="1105.4943"
      gorn="0.3.137"
      y="296.99994"
      height="10"
      fill="none"
    />
    <text
      font-weight="normal"
      font-size="45"
      id="text874"
      x="967.54883"
      gorn="0.3.138"
      y="321.56055"
      font-family="'Droid Sans'"
      text-anchor="end"
      fill="#555555">RST</text>
    <text
      font-weight="normal"
      font-size="35"
      id="text892"
      x="1031.6512"
      gorn="0.3.139"
      y="887.99976"
      font-family="'Droid Sans'"
      fill="#555555">14</text>
    <rect
      width="10"
      id="rect912"
      x="1105.4943"
      gorn="0.3.142"
      y="196.99994"
      height="10"
      fill="none"
    />
    <text
      font-weight="normal"
      font-size="45"
      id="text914"
      x="971.82373"
      gorn="0.3.143"
      y="221.56055"
      font-family="'Droid Sans'"
      text-anchor="end"
      fill="#555555">G</text>
    <text
      font-weight="normal"
      font-size="35"
      id="text932"
      x="1031.4943"
      gorn="0.3.144"
      y="787.65808"
      font-family="'Droid Sans'"
      fill="#555555">15</text>
    <text
      font-weight="500"
      font-size="60"
      id="text934"
      x="555.5932"
      gorn="0.3.145"
      y="79.915565"
      font-family="OCRA"
      text-anchor="middle"
      fill="#000000"
      stroke-width="0.99999994">ESP32-S2-DEVkitM-1</text>
    <text
      font-weight="500"
      font-size="60"
      id="text936"
      x="449.86832"
      gorn="0.3.146"
      y="189.0016"
      font-family="OCRA"
      fill="#000000"
      stroke-width="1">42PIN</text>
    <text
      font-weight="500"
      font-size="60"
      id="text938"
      x="493.45807"
      gorn="0.3.147"
      y="289.13971"
      stroke-width="1">WiFi</text>
    <text
      font-weight="500"
      font-size="60"
      id="text956"
      x="428.09698"
      gorn="0.3.148"
      y="390.10419"
      font-family="OCRA"
      fill="#000000"
      stroke-width="1">Module</text>
    <text
      font-weight="normal"
      font-size="35"
      id="text1478"
      x="1032.8387"
      gorn="0.3.149"
      y="685"
      font-family="'Droid Sans'"
      fill="#555555">16</text>
    <text
      font-weight="normal"
      font-size="35"
      id="text3146"
      x="40.853695"
      gorn="0.3.150"
      y="888.37103"
      font-family="'Droid Sans'"
      fill="#555555">29</text>
    <text
      font-weight="normal"
      font-size="35"
      id="text3148"
      x="40.772419"
      gorn="0.3.151"
      y="987.6582"
      font-family="'Droid Sans'"
      fill="#555555">30</text>
    <text
      font-weight="normal"
      font-size="45"
      id="text317"
      x="971.82373"
      gorn="0.3.3.0"
      y="2218.5605"
      font-family="'Droid Sans'"
      text-anchor="end"
      fill="#555555">18</text>
    <rect
      height="10"
      y="2097.4429"
      gorn="0.3.77"
      x="1105.4943"
      id="rect319"
      width="10"
      fill="none"
    />
    <text
      y="2122.0034"
      gorn="0.3.78"
      x="965.65918"
      id="text321"
      font-size="45"
      font-weight="normal"
      font-family="'Droid Sans'"
      text-anchor="end"
      fill="#555555">19</text>
    <text
      y="2088.4429"
      gorn="0.3.79"
      x="1032.8536"
      id="text323"
      font-size="35"
      font-weight="normal"
      font-family="'Droid Sans'"
      fill="#555555">2</text>
    <rect
      height="10"
      y="1997.4429"
      gorn="0.3.82"
      x="1105.4943"
      id="rect325"
      width="10"
      fill="none"
    />
    <text
      font-weight="normal"
      font-size="45"
      id="text327"
      x="965.65918"
      gorn="0.3.83.0"
      y="2024.1057"
      font-family="'Droid Sans'"
      text-anchor="end"
      fill="#555555">20</text>
    <text
      y="1988.1011"
      gorn="0.3.84"
      x="1033.0929"
      id="text329"
      font-size="35"
      font-weight="normal"
      font-family="'Droid Sans'"
      fill="#555555">3</text>
    <rect
      height="10"
      y="1897.4429"
      gorn="0.3.87"
      x="1105.4943"
      id="rect331"
      width="10"
      fill="none"
    />
    <text
      y="1922.0034"
      gorn="0.3.88"
      x="971.82373"
      id="text333"
      font-size="45"
      font-weight="normal"
      font-family="'Droid Sans'"
      text-anchor="end"
      fill="#555555">21</text>
    <text
      y="1888.4429"
      gorn="0.3.89"
      x="1034.1012"
      id="text335"
      font-size="35"
      font-weight="normal"
      font-family="'Droid Sans'"
      fill="#555555">4</text>
    <rect
      height="10"
      y="1797.4429"
      gorn="0.3.92"
      x="1105.4943"
      id="rect337"
      width="10"
      fill="none"
    />
    <text
      y="1822.443"
      gorn="0.3.93"
      x="964.27979"
      id="text339"
      font-size="45"
      font-weight="normal"
      font-family="'Droid Sans'"
      text-anchor="end"
      fill="#555555">26</text>
    <text
      y="1788.1011"
      gorn="0.3.94"
      x="1032.2555"
      id="text341"
      font-size="35"
      font-weight="normal"
      font-family="'Droid Sans'"
      fill="#555555">5</text>
    <rect
      height="10"
      y="1697.4429"
      gorn="0.3.97"
      x="1105.4943"
      id="rect343"
      width="10"
      fill="none"
    />
    <text
      font-weight="normal"
      font-size="45"
      id="text345"
      x="961.90674"
      gorn="0.3.98.0"
      y="1722.1047"
      font-family="'Droid Sans'"
      text-anchor="end"
      fill="#555555">33</text>
    <text
      y="1688.1011"
      gorn="0.3.99"
      x="1032.5631"
      id="text347"
      font-size="35"
      font-weight="normal"
      font-family="'Droid Sans'"
      fill="#555555">6</text>
    <text
      y="2188.4429"
      gorn="0.3.149"
      x="1031.7349"
      id="text349"
      font-size="35"
      font-weight="normal"
      font-family="'Droid Sans'"
      fill="#555555">1</text>
    <rect
      height="10"
      y="1695"
      gorn="0.3.51"
      x="5.4943204"
      id="rect375"
      width="10"
      fill="none"
    />
    <text
      y="1720.5605"
      gorn="0.3.52"
      x="142.74774"
      id="text377"
      font-size="45"
      font-weight="normal"
      font-family="'Droid Sans'"
      fill="#555555">14</text>
    <text
      font-weight="normal"
      font-size="35"
      id="text379"
      x="40.312424"
      gorn="0.3.53.0"
      y="1687.6582"
      font-family="'Droid Sans'"
      fill="#555555">37</text>
    <rect
      height="10"
      y="1797"
      gorn="0.3.56"
      x="5.4943204"
      id="rect381"
      width="10"
      fill="none"
    />
    <text
      y="1820.5605"
      gorn="0.3.57"
      x="142.74774"
      id="text383"
      font-size="45"
      font-weight="normal"
      font-family="'Droid Sans'"
      fill="#555555">15</text>
    <text
      y="1787.6582"
      gorn="0.3.58"
      x="40.853695"
      id="text385"
      font-size="35"
      font-weight="normal"
      font-family="'Droid Sans'"
      fill="#555555">38</text>
    <rect
      height="10"
      y="1897"
      gorn="0.3.61"
      x="5.4943204"
      id="rect387"
      width="10"
      fill="none"
    />
    <text
      y="1920.5605"
      gorn="0.3.62"
      x="142.74774"
      id="text389"
      font-size="45"
      font-weight="normal"
      font-family="'Droid Sans'"
      fill="#555555">16</text>
    <text
      y="1888"
      gorn="0.3.63"
      x="40.853695"
      id="text391"
      font-size="35"
      font-weight="normal"
      font-family="'Droid Sans'"
      fill="#555555">39</text>
    <text
      y="2120.5605"
      gorn="0.3.64"
      x="142.74774"
      id="text394"
      font-size="45"
      font-weight="normal"
      font-family="'Droid Sans'"
      fill="#555555">5V</text>
    <rect
      height="10"
      y="1997"
      gorn="0.3.69"
      x="5.4943204"
      id="rect396"
      width="10"
      fill="none"
    />
    <text
      y="2020.5605"
      gorn="0.3.70"
      x="142.74774"
      id="text398"
      font-size="45"
      font-weight="normal"
      font-family="'Droid Sans'"
      fill="#555555">17</text>
    <text
      y="1987.6582"
      gorn="0.3.71"
      x="40.853695"
      id="text400"
      font-size="35"
      font-weight="normal"
      font-family="'Droid Sans'"
      fill="#555555">40</text>
    <text
      y="2220.5605"
      gorn="0.3.74"
      x="145.49432"
      id="text402"
      font-size="45"
      font-weight="normal"
      font-family="'Droid Sans'"
      fill="#555555">G</text>
    <text
      y="2087.8975"
      gorn="0.3.150"
      x="40.853695"
      id="text404"
      font-size="35"
      font-weight="normal"
      font-family="'Droid Sans'"
      fill="#555555">41</text>
    <text
      y="2187.1846"
      gorn="0.3.151"
      x="40.772419"
      id="text406"
      font-size="35"
      font-weight="normal"
      font-family="'Droid Sans'"
      fill="#555555">42</text>
    <line
      gorn="0.3.1"
      y2="2205.4429"
      x2="1106.0869"
      id="connector0pin"
      x1="1010.308"
      y1="2205.4429"
      fill="none"
      stroke="#555555"
      stroke-width="10"
      stroke-linecap="round"
    />
    <rect
      height="10"
      y="2200.4429"
      gorn="0.3.2"
      x="1100.4943"
      id="connector0terminal"
      width="10"
      fill="none"
      stroke="none"
      stroke-width="0"
    />
    <line
      gorn="0.3.75"
      y2="2105.6963"
      x2="1105.1927"
      id="connector1pin"
      x1="1010.247"
      y1="2105.6963"
      fill="none"
      stroke="#555555"
      stroke-width="10"
      stroke-linecap="round"
    />
    <rect
      height="10"
      y="2100.4429"
      gorn="0.3.76"
      x="1100.4943"
      id="connector1terminal"
      width="10"
      fill="none"
      stroke="none"
      stroke-width="0"
    />
    <line
      gorn="0.3.80"
      y2="2005.4424"
      x2="1010.2575"
      id="connector2pin"
      x1="1105.5886"
      y1="2005.4424"
      fill="none"
      stroke="#555555"
      stroke-width="10"
      stroke-linecap="round"
    />
    <rect
      height="10"
      y="2000.4429"
      gorn="0.3.81"
      x="1100.4943"
      id="connector2terminal"
      width="10"
      fill="none"
      stroke="none"
      stroke-width="0"
    />
    <line
      gorn="0.3.85"
      y2="1905.4424"
      x2="1010.2575"
      id="connector3pin"
      x1="1105.5886"
      y1="1905.4424"
      fill="none"
      stroke="#555555"
      stroke-width="10"
      stroke-linecap="round"
    />
    <rect
      height="10"
      y="1900.4429"
      gorn="0.3.86"
      x="1100.4943"
      id="connector3terminal"
      width="10"
      fill="none"
      stroke="none"
      stroke-width="0"
    />
    <line
      gorn="0.3.90"
      y2="1805.4424"
      x2="1010.2575"
      id="connector4pin"
      x1="1105.5886"
      y1="1805.4424"
      fill="none"
      stroke="#555555"
      stroke-width="10"
      stroke-linecap="round"
    />
    <rect
      height="9.999999"
      y="1800.4429"
      gorn="0.3.91"
      x="1100.4943"
      id="connector4terminal"
      width="10"
      fill="none"
      stroke="none"
      stroke-width="0"
    />
    <line
      gorn="0.3.95"
      y2="1705.4424"
      x2="1010.2575"
      id="connector5pin"
      x1="1105.5886"
      y1="1705.4424"
      fill="none"
      stroke="#555555"
      stroke-width="10"
      stroke-linecap="round"
    />
    <rect
      height="10"
      y="1700.4429"
      gorn="0.3.96"
      x="1100.4943"
      id="connector5terminal"
      width="10"
      fill="none"
      stroke="none"
      stroke-width="0"
    />
    <line
      y1="1604.9999"
      x1="1010.308"
      id="connector6pin"
      x2="1106.0869"
      y2="1604.9999"
      gorn="0.3.1"
      fill="none"
      stroke="#555555"
      stroke-width="10"
      stroke-linecap="round"
    />
    <rect
      width="10"
      id="connector6terminal"
      x="1100.4943"
      gorn="0.3.2"
      y="1599.9999"
      height="10"
      fill="none"
      stroke="none"
      stroke-width="0"
    />
    <line
      y1="1505.2534"
      x1="1010.247"
      id="connector7pin"
      x2="1105.1927"
      y2="1505.2534"
      gorn="0.3.75"
      fill="none"
      stroke="#555555"
      stroke-width="10"
      stroke-linecap="round"
    />
    <rect
      width="10"
      id="connector7terminal"
      x="1100.4943"
      gorn="0.3.76"
      y="1499.9999"
      height="10"
      fill="none"
      stroke="none"
      stroke-width="0"
    />
    <line
      y1="1404.9994"
      x1="1105.5886"
      id="connector8pin"
      x2="1010.2575"
      y2="1404.9994"
      gorn="0.3.80"
      fill="none"
      stroke="#555555"
      stroke-width="10"
      stroke-linecap="round"
    />
    <rect
      width="10"
      id="connector8terminal"
      x="1100.4943"
      gorn="0.3.81"
      y="1399.9999"
      height="10"
      fill="none"
      stroke="none"
      stroke-width="0"
    />
    <line
      y1="1304.9994"
      x1="1105.5886"
      id="connector9pin"
      x2="1010.2575"
      y2="1304.9994"
      gorn="0.3.85"
      fill="none"
      stroke="#555555"
      stroke-width="10"
      stroke-linecap="round"
    />
    <rect
      width="10"
      id="connector9terminal"
      x="1100.4943"
      gorn="0.3.86"
      y="1299.9999"
      height="10"
      fill="none"
      stroke="none"
      stroke-width="0"
    />
    <line
      y1="1204.9994"
      x1="1105.5886"
      id="connector10pin"
      x2="1010.2575"
      y2="1204.9994"
      gorn="0.3.90"
      fill="none"
      stroke="#555555"
      stroke-width="10"
      stroke-linecap="round"
    />
    <rect
      width="10"
      id="connector10terminal"
      x="1100.4943"
      gorn="0.3.91"
      y="1199.9999"
      height="9.999999"
      fill="none"
      stroke="none"
      stroke-width="0"
    />
    <line
      y1="1104.9994"
      x1="1105.5886"
      id="connector11pin"
      x2="1010.2575"
      y2="1104.9994"
      gorn="0.3.95"
      fill="none"
      stroke="#555555"
      stroke-width="10"
      stroke-linecap="round"
    />
    <rect
      width="10"
      id="connector11terminal"
      x="1100.4943"
      gorn="0.3.96"
      y="1099.9999"
      height="10"
      fill="none"
      stroke="none"
      stroke-width="0"
    />
    <line
      y1="1004.9995"
      x1="1010.2575"
      id="connector12pin"
      x2="1105.5886"
      y2="1004.9995"
      gorn="0.3.100"
      fill="none"
      stroke="#555555"
      stroke-width="10"
      stroke-linecap="round"
    />
    <rect
      width="10"
      id="connector12terminal"
      x="1100.4943"
      gorn="0.3.101"
      y="999.99994"
      height="10"
      fill="none"
      stroke="none"
      stroke-width="0"
    />
    <line
      y1="904.99945"
      x1="1010.2575"
      id="connector13pin"
      x2="1105.5886"
      y2="904.99945"
      gorn="0.3.105"
      fill="none"
      stroke="#555555"
      stroke-width="10"
      stroke-linecap="round"
    />
    <rect
      width="10"
      id="connector13terminal"
      x="1100.4943"
      gorn="0.3.106"
      y="899.99994"
      height="10"
      fill="none"
      stroke="none"
      stroke-width="0"
    />
    <line
      y1="804.99951"
      x1="1010.2575"
      id="connector14pin"
      x2="1105.5886"
      y2="804.99951"
      gorn="0.3.110"
      fill="none"
      stroke="#555555"
      stroke-width="10"
      stroke-linecap="round"
    />
    <rect
      width="10"
      id="connector14terminal"
      x="1100.4943"
      gorn="0.3.111"
      y="800.00006"
      height="10"
      fill="none"
      stroke="none"
      stroke-width="0"
    />
    <line
      y1="705.25348"
      x1="1010.247"
      id="connector15pin"
      x2="1105.1927"
      y2="705.25348"
      gorn="0.3.115"
      fill="none"
      stroke="#555555"
      stroke-width="10"
      stroke-linecap="round"
    />
    <rect
      width="10"
      id="connector15terminal"
      x="1100.4943"
      gorn="0.3.116"
      y="700"
      height="10"
      fill="none"
      stroke="none"
      stroke-width="0"
    />
    <line
      y1="604.99951"
      x1="1105.5886"
      id="connector16pin"
      x2="1010.2575"
      y2="604.99951"
      gorn="0.3.120"
      fill="none"
      stroke="#555555"
      stroke-width="10"
      stroke-linecap="round"
    />
    <rect
      width="10"
      id="connector16terminal"
      x="1100.4943"
      gorn="0.3.121"
      y="600"
      height="10"
      fill="none"
      stroke="none"
      stroke-width="0"
    />
    <line
      y1="504.99951"
      x1="1105.5886"
      id="connector17pin"
      x2="1010.2575"
      y2="504.99951"
      gorn="0.3.125"
      fill="none"
      stroke="#555555"
      stroke-width="10"
      stroke-linecap="round"
    />
    <rect
      width="10"
      id="connector17terminal"
      x="1100.4943"
      gorn="0.3.126"
      y="500"
      height="10"
      fill="none"
      stroke="none"
      stroke-width="0"
    />
    <line
      y1="404.99951"
      x1="1105.5886"
      id="connector18pin"
      x2="1010.2575"
      y2="404.99951"
      gorn="0.3.130"
      fill="none"
      stroke="#555555"
      stroke-width="10"
      stroke-linecap="round"
    />
    <rect
      width="10"
      id="connector18terminal"
      x="1100.4943"
      gorn="0.3.131"
      y="400"
      height="10"
      fill="none"
      stroke="none"
      stroke-width="0"
    />
    <line
      y1="304.99951"
      x1="1105.5886"
      id="connector19pin"
      x2="1010.2575"
      y2="304.99951"
      gorn="0.3.135"
      fill="none"
      stroke="#555555"
      stroke-width="10"
      stroke-linecap="round">
      <metadata
        id="CorelCorpID_1">
        <odm
          value="connector36pin"
          type="0"
          name="Name"
        />
      </metadata>
    </line>
    <rect
      width="10"
      id="connector19terminal"
      x="1100.4943"
      gorn="0.3.136"
      y="300"
      height="10"
      fill="none"
      stroke="none"
      stroke-width="0"
    />
    <line
      y1="204.99951"
      x1="1105.5886"
      id="connector20pin"
      x2="1010.2575"
      y2="204.99951"
      gorn="0.3.140"
      fill="none"
      stroke="#555555"
      stroke-width="10"
      stroke-linecap="round"
    />
    <rect
      width="10"
      id="connector20terminal"
      x="1100.4943"
      gorn="0.3.141"
      y="200.00003"
      height="10"
      fill="none"
      stroke="none"
      stroke-width="0"
    />
    <line
      y1="204.99951"
      x1="100.89666"
      id="connector21pin"
      x2="5.5655332"
      y2="204.99951"
      gorn="0.3.4"
      fill="none"
      stroke="#555555"
      stroke-width="10"
      stroke-linecap="round"
    />
    <rect
      width="10"
      id="connector21terminal"
      x="0.49432135"
      gorn="0.3.5"
      y="200.00003"
      height="10"
      fill="none"
      stroke="none"
      stroke-width="0"
    />
    <line
      y1="305.25742"
      x1="101.09001"
      id="connector22pin"
      x2="5.3039856"
      y2="305.25742"
      gorn="0.3.9"
      fill="none"
      stroke="#555555"
      stroke-width="10"
      stroke-linecap="round"
    />
    <rect
      width="10"
      id="connector22terminal"
      x="0.49432135"
      gorn="0.3.10"
      y="300"
      height="10"
      fill="none"
      stroke="none"
      stroke-width="0"
    />
    <line
      y1="404.99951"
      x1="100.89666"
      id="connector23pin"
      x2="5.5655332"
      y2="404.99951"
      gorn="0.3.14"
      fill="none"
      stroke="#555555"
      stroke-width="10"
      stroke-linecap="round"
    />
    <rect
      width="10"
      id="connector23terminal"
      x="0.49432135"
      gorn="0.3.15"
      y="400"
      height="10"
      fill="none"
      stroke="none"
      stroke-width="0"
    />
    <line
      y1="504.99951"
      x1="100.65988"
      id="connector24pin"
      x2="5.328764"
      y2="504.99951"
      gorn="0.3.19"
      fill="none"
      stroke="#555555"
      stroke-width="10"
      stroke-linecap="round"
    />
    <rect
      width="10"
      id="connector24terminal"
      x="0.49432135"
      gorn="0.3.20"
      y="500"
      height="10"
      fill="none"
      stroke="none"
      stroke-width="0"
    />
    <line
      y1="605.25739"
      x1="101.09001"
      id="connector25pin"
      x2="5.3039856"
      y2="605.25739"
      gorn="0.3.24"
      fill="none"
      stroke="#555555"
      stroke-width="10"
      stroke-linecap="round"
    />
    <rect
      width="10"
      id="connector25terminal"
      x="0.49432135"
      gorn="0.3.25"
      y="600"
      height="10"
      fill="none"
      stroke="none"
      stroke-width="0"
    />
    <line
      y1="705.25348"
      x1="5.1047993"
      id="connector26pin"
      x2="100.88384"
      y2="705.25348"
      gorn="0.3.29"
      fill="none"
      stroke="#555555"
      stroke-width="10"
      stroke-linecap="round"
    />
    <rect
      width="10"
      id="connector26terminal"
      x="0.49432611"
      gorn="0.3.30"
      y="699.99323"
      height="10"
      fill="none"
      stroke="none"
      stroke-width="0"
    />
    <line
      y1="805.25342"
      x1="100.88384"
      id="connector27pin"
      x2="5.1047993"
      y2="805.25342"
      gorn="0.3.34"
      fill="none"
      stroke="#555555"
      stroke-width="10"
      stroke-linecap="round"
    />
    <rect
      width="10"
      id="connector27terminal"
      x="0.49432135"
      gorn="0.3.35"
      y="800.00006"
      height="10"
      fill="none"
      stroke="none"
      stroke-width="0"
    />
    <line
      y1="905.25348"
      x1="100.88384"
      id="connector28pin"
      x2="5.1047993"
      y2="905.25348"
      gorn="0.3.39"
      fill="none"
      stroke="#555555"
      stroke-width="10"
      stroke-linecap="round"
    />
    <rect
      width="10"
      id="connector28terminal"
      x="0.49432611"
      gorn="0.3.40"
      y="899.99518"
      height="10"
      fill="none"
      stroke="none"
      stroke-width="0"
    />
    <line
      y1="1005.2535"
      x1="101.08703"
      id="connector29pin"
      x2="5.3079815"
      y2="1005.2535"
      gorn="0.3.44"
      fill="none"
      stroke="#555555"
      stroke-width="10"
      stroke-linecap="round"
    />
    <rect
      width="10"
      id="connector29terminal"
      x="0.49432611"
      gorn="0.3.45"
      y="999.99127"
      height="10"
      fill="none"
      stroke="none"
      stroke-width="0"
    />
    <line
      y1="1104.9994"
      x1="5.5655332"
      id="connector30pin"
      x2="100.89666"
      y2="1104.9994"
      gorn="0.3.49"
      fill="none"
      stroke="#555555"
      stroke-width="10"
      stroke-linecap="round"
    />
    <rect
      width="10"
      id="connector30terminal"
      x="0.49432135"
      gorn="0.3.50"
      y="1099.9999"
      height="10"
      fill="none"
      stroke="none"
      stroke-width="0"
    />
    <line
      y1="1205.2534"
      x1="100.51431"
      id="connector31pin"
      x2="5.5655332"
      y2="1205.2534"
      gorn="0.3.54"
      fill="none"
      stroke="#555555"
      stroke-width="10"
      stroke-linecap="round"
    />
    <rect
      width="10"
      id="connector31terminal"
      x="0.49432135"
      gorn="0.3.55"
      y="1199.9999"
      height="10"
      fill="none"
      stroke="none"
      stroke-width="0"
    />
    <line
      y1="1305"
      x1="100.40233"
      id="connector32pin"
      x2="5.0712123"
      y2="1305"
      gorn="0.3.59"
      fill="none"
      stroke="#555555"
      stroke-width="10"
      stroke-linecap="round"
    />
    <rect
      width="10"
      id="connector32terminal"
      x="0.49432611"
      gorn="0.3.60"
      y="1299.9991"
      height="10"
      fill="none"
      stroke="none"
      stroke-width="0"
    />
    <line
      y1="1405"
      x1="5.0712123"
      id="connector33pin"
      x2="100.40233"
      y2="1405"
      gorn="0.3.67"
      fill="none"
      stroke="#555555"
      stroke-width="10"
      stroke-linecap="round"
    />
    <rect
      width="10"
      id="connector33terminal"
      x="0.49432135"
      gorn="0.3.68"
      y="1400"
      height="10"
      fill="none"
      stroke="none"
      stroke-width="0"
    />
    <line
      y1="1504.9999"
      x1="5.2575512"
      id="connector34pin"
      x2="100.58867"
      y2="1504.9999"
      gorn="0.3.65"
      fill="none"
      stroke="#555555"
      stroke-width="10"
      stroke-linecap="round"
    />
    <rect
      width="10"
      id="connector34terminal"
      x="0.49432135"
      gorn="0.3.66"
      y="1499.9999"
      height="10"
      fill="none"
      stroke="none"
      stroke-width="0"
    />
    <line
      y1="1604.9999"
      x1="5.2575512"
      id="connector35pin"
      x2="100.58867"
      y2="1604.9999"
      gorn="0.3.72"
      fill="none"
      stroke="#555555"
      stroke-width="10"
      stroke-linecap="round"
    />
    <rect
      width="10"
      id="connector35terminal"
      x="0.49432135"
      gorn="0.3.73"
      y="1599.9999"
      height="10"
      fill="none"
      stroke="none"
      stroke-width="0"
    />
    <line
      gorn="0.3.49"
      y2="1704.9995"
      x2="100.89666"
      id="connector36pin"
      x1="5.5655332"
      y1="1704.9995"
      fill="none"
      stroke="#555555"
      stroke-width="10"
      stroke-linecap="round"
    />
    <rect
      height="10"
      y="1700"
      gorn="0.3.50"
      x="0.49432135"
      id="connector36terminal"
      width="10"
      fill="none"
      stroke="none"
      stroke-width="0"
    />
    <line
      gorn="0.3.54"
      y2="1805.2535"
      x2="5.5655332"
      id="connector37pin"
      x1="100.51431"
      y1="1805.2535"
      fill="none"
      stroke="#555555"
      stroke-width="10"
      stroke-linecap="round"
    />
    <rect
      height="10"
      y="1800"
      gorn="0.3.55"
      x="0.49432135"
      id="connector37terminal"
      width="10"
      fill="none"
      stroke="none"
      stroke-width="0"
    />
    <line
      gorn="0.3.59"
      y2="1905.0001"
      x2="5.0712123"
      id="connector38pin"
      x1="100.40233"
      y1="1905.0001"
      fill="none"
      stroke="#555555"
      stroke-width="10"
      stroke-linecap="round"
    />
    <rect
      height="10"
      y="1899.9993"
      gorn="0.3.60"
      x="0.49432611"
      id="connector38terminal"
      width="10"
      fill="none"
      stroke="none"
      stroke-width="0"
    />
    <line
      gorn="0.3.67"
      y2="2005"
      x2="100.40233"
      id="connector39pin"
      x1="5.0712123"
      y1="2005"
      fill="none"
      stroke="#555555"
      stroke-width="10"
      stroke-linecap="round"
    />
    <rect
      height="10"
      y="2000"
      gorn="0.3.68"
      x="0.49432135"
      id="connector39terminal"
      width="10"
      fill="none"
      stroke="none"
      stroke-width="0"
    />
    <line
      gorn="0.3.65"
      y2="2105"
      x2="100.58867"
      id="connector40pin"
      x1="5.2575512"
      y1="2105"
      fill="none"
      stroke="#555555"
      stroke-width="10"
      stroke-linecap="round"
    />
    <rect
      height="10"
      y="2100"
      gorn="0.3.66"
      x="0.49432135"
      id="connector40terminal"
      width="10"
      fill="none"
      stroke="none"
      stroke-width="0"
    />
    <line
      gorn="0.3.72"
      y2="2205"
      x2="100.58867"
      id="connector41pin"
      x1="5.2575512"
      y1="2205"
      fill="none"
      stroke="#555555"
      stroke-width="10"
      stroke-linecap="round"
    />
    <rect
      height="10"
      y="2200"
      gorn="0.3.73"
      x="0.49432135"
      id="connector41terminal"
      width="10"
      fill="none"
      stroke="none"
      stroke-width="0"
    />
  </g>
</svg>
