<?xml version='1.0' encoding='UTF-8' standalone='no'?>
<svg xmlns="http://www.w3.org/2000/svg" height="32" version="1.0" baseProfile="tiny" id="svg2" width="32" gorn="0" >
    <desc>
        <referenceFile>basic_pbutton.svg</referenceFile>
    </desc>
    <g transform="matrix(0.9702667,0,0,0.9702556,3.7292331,-2.2315822e-2)" >
        <g style="display:inline" id="icon" gorn="0.0.0" >
            <g id="g3038" gorn="0.0.0.0" >
                <g id="g10022" gorn="0.0.0.0.0" >
                    <polygon style="fill:#b3b3b3" id="polygon3041" gorn="0.0.0.0.0.0"  points="20.82,33.003 20.82,21.51 24.037,21.51 24.037,33.003 20.82,33.003 "/>
                    <polygon style="fill:#b3b3b3" id="polygon3043" gorn="0.0.0.0.0.1"  points="0.831,11.516 0.831,0.024 4.047,0.024 4.047,11.516 0.831,11.516 "/>
                    <polygon style="fill:#b3b3b3" id="polygon3045" gorn="0.0.0.0.0.2"  points="20.82,11.517 20.82,0.023 24.037,0.023 24.037,11.517 20.82,11.517 "/>
                    <polygon style="fill:#b3b3b3" id="polygon3047" gorn="0.0.0.0.0.3"  points="0.832,33.004 0.832,21.511 4.049,21.511 4.049,33.004 0.832,33.004 "/>
                    <rect height="24.518999" id="rect3049" x="0.176" width="24.518" y="4.2550001" gorn="0.0.0.0.0.4" />
                    <path d="M 24.693,26.775 C 24.693,27.876 23.795,28.774 22.693,28.774 L 2.175,28.774 C 1.075,28.774 0.176,27.876 0.176,26.775 L 0.176,6.253 C 0.176,5.153 1.075,4.255 2.175,4.255 L 22.696,4.255 C 23.797,4.255 24.694,5.153 24.694,6.253 L 24.694,26.775 L 24.693,26.775 z" style="fill:#999999" id="path3051" gorn="0.0.0.0.0.5" />
                    <circle id="circle3053" cx="3.747" cy="7.8260002" gorn="0.0.0.0.0.6"  r="2.1240001"/>
                    <circle id="circle3055" cx="21.181999" cy="7.8629999" gorn="0.0.0.0.0.7"  r="2.1240001"/>
                    <circle id="circle3057" cx="21.145" cy="25.298" gorn="0.0.0.0.0.8"  r="2.1240001"/>
                    <circle id="circle3059" cx="3.71" cy="25.26" gorn="0.0.0.0.0.9"  r="2.1240001"/>
                    <circle style="fill:#3f3f3f" id="circle3061" cx="12.434" cy="16.514" gorn="0.0.0.0.0.10"  r="7.1500001"/>
                    <linearGradient id="SVGID_1_" y1="810.97968" y2="825.28833" x1="12.4897"  x2="12.4897" gradientUnits="userSpaceOnUse" gradientTransform="matrix(0.9994,0,0,0.9994,-4.87e-2,-801.1296)">
                        <stop style="stop-color:#333333" id="stop3064" offset="0" />
                        <stop style="stop-color:#4D4D4D" id="stop3066" offset="1" />
                    </linearGradient>
                    <circle style="fill:url(#SVGID_1_)" id="circle3068" cx="12.434" cy="16.514" gorn="0.0.0.0.0.12"  r="7.1500001"/>
                    <circle style="opacity:0.6" id="circle3070" cx="12.559" cy="17.364" gorn="0.0.0.0.0.13"  enable-background="new    " r="6.2919998"/>
                    <circle style="fill:#735348" id="circle3072" cx="12.443" cy="16.556" gorn="0.0.0.0.0.14"  r="6.132"/>
                    <path d="M 3.472,7.715 C 3.514,7.614 3.591,7.538 3.699,7.518 L 3.491,6.18 C 3.41,6.194 3.326,6.183 3.246,6.207 L 3.244,6.201 C 2.749,6.354 2.379,6.722 2.19,7.194 L 3.472,7.715 z" style="opacity:0.5;fill:#ffffff" id="path3074" gorn="0.0.0.0.0.15"  enable-background="new    "/>
                    <path d="M 20.906,7.751 C 20.947,7.649 21.025,7.572 21.134,7.554 L 20.927,6.216 C 20.845,6.23 20.761,6.218 20.682,6.243 L 20.679,6.235 C 20.186,6.388 19.815,6.756 19.626,7.228 L 20.906,7.751 z" style="opacity:0.5;fill:#ffffff" id="path3076" gorn="0.0.0.0.0.16"  enable-background="new    "/>
                    <path d="M 20.871,25.186 C 20.912,25.086 20.988,25.008 21.098,24.989 L 20.891,23.652 C 20.809,23.667 20.725,23.654 20.645,23.679 L 20.643,23.67 C 20.149,23.823 19.778,24.191 19.59,24.664 L 20.871,25.186 z" style="opacity:0.5;fill:#ffffff" id="path3078" gorn="0.0.0.0.0.17"  enable-background="new    "/>
                    <path d="M 3.435,25.149 C 3.476,25.049 3.553,24.973 3.663,24.954 L 3.454,23.615 C 3.372,23.631 3.288,23.617 3.209,23.642 L 3.207,23.636 C 2.712,23.787 2.342,24.157 2.153,24.629 L 3.435,25.149 z" style="opacity:0.5;fill:#ffffff" id="path3080" gorn="0.0.0.0.0.18"  enable-background="new    "/>
                    <path d="M 14.637,10.841 C 14.162,10.656 13.662,10.522 13.133,10.463 C 11.817,10.315 10.557,10.607 9.48,11.205 L 9.346,11.553 C 10.549,10.911 11.95,10.611 13.407,10.774 C 13.856,10.827 14.289,10.927 14.706,11.058 L 14.637,10.841 z" style="opacity:0.6;fill:#ffffff" id="path3082" gorn="0.0.0.0.0.19"  enable-background="new    "/>
                </g>
            </g>
        </g>
    </g>
</svg>
