<?xml version='1.0' encoding='UTF-8' standalone='no'?>
<svg xmlns="http://www.w3.org/2000/svg" width="0.19131154in" x="0in" version="1.2" y="0in" gorn="0"  height="0.4765361in" viewBox="0 0 13.774461 34.310714" id="svg204">
    <desc >
        <referenceFile >esq2.svg</referenceFile>
    </desc>
    <metadata  id="metadata210">
        <rdf:RDF xmlns:rdf="http://www.w3.org/1999/02/22-rdf-syntax-ns#">
            <cc:Work xmlns:rdf="http://www.w3.org/1999/02/22-rdf-syntax-ns#" xmlns:cc="http://creativecommons.org/ns#" rdf:about="">
                <dc:format xmlns:dc="http://purl.org/dc/elements/1.1/">image/svg+xml</dc:format>
                <dc:type xmlns:rdf="http://www.w3.org/1999/02/22-rdf-syntax-ns#" rdf:resource="http://purl.org/dc/dcmitype/StillImage" xmlns:dc="http://purl.org/dc/elements/1.1/"/>
                <dc:title xmlns:dc="http://purl.org/dc/elements/1.1/"/>
            </cc:Work>
        </rdf:RDF>
    </metadata>
    <defs  id="defs208"/>
    <g  transform="translate(-0.25024161,-0.10825884)">
        <g >
            <g gorn="0.3.0.0"  id="g202" partID="258880">
                <g gorn="0.3.0.0.0"  id="schematic">
                    <line fill="none" gorn="0.3.0.0.0.0"  stroke="#000000" stroke-linejoin="round" stroke-linecap="round" y1="2.82655" y2="2.82655" x1="0.59304398" stroke-width="0.685621" x2="7.3716402"/>
                    <g width="0.519746" x="0" y="2.72978" fill="none" gorn="0.3.0.0.0.1"  height="0.209622" stroke-width="0.979458"/>
                    <g  transform="matrix(13.2211,0,0,13.9972,0.259873,-0.801528)">
                        <g >
                            <g gorn="0.3.0.0.0.2.0.0"  id="g114">
                                <polyline points="0.712656,0.118296,1.0152,0.2592,0.712656,0.400032" fill="none" gorn="0.3.0.0.0.2.0.0.0"  stroke="#000000" stroke-linejoin="round" id="connector0pin" stroke-linecap="round" stroke-width="0.0504"/>
                            </g>
                        </g>
                    </g>
                    <line fill="none" gorn="0.3.0.0.0.3"  stroke="#000000" stroke-linejoin="round" id="line" stroke-linecap="round" y1="2.82655" y2="2.82655" x1="13.6819" stroke-width="0.685621" x2="4.8109899"/>
                    <g  transform="scale(0.97188048,1.0289331)">
                        <g >
                            <g gorn="0.3.0.0.0.4.0.0"  id="g118">
                                <text x="5.2136598" y="1.74801" class="text" font-family="Droid Sans" fill="#8c8c8c" gorn="0.3.0.0.0.4.0.0.0"  text-anchor="middle" stroke="none" id="text9" stroke-width="0" font-size="1.95892">1</text>
                            </g>
                        </g>
                    </g>
                    <line fill="none" gorn="0.3.0.0.0.5"  stroke="#000000" stroke-linejoin="round" stroke-linecap="round" y1="10.0827" y2="10.0827" x1="0.59304398" stroke-width="0.685621" x2="7.3716402"/>
                    <g width="0.519746" x="0" y="9.98593" fill="none" gorn="0.3.0.0.0.6"  height="0.209622" stroke-width="0.979458"/>
                    <g  transform="matrix(13.2211,0,0,13.9972,0.259873,-0.801528)">
                        <g >
                            <g gorn="0.3.0.0.0.7.0.0"  id="g123">
                                <polyline points="0.712656,0.636696,1.0152,0.7776,0.712656,0.918432" fill="none" gorn="0.3.0.0.0.7.0.0.0"  stroke="#000000" stroke-linejoin="round" id="connector1pin" stroke-linecap="round" stroke-width="0.0504"/>
                            </g>
                        </g>
                    </g>
                    <line fill="none" gorn="0.3.0.0.0.8"  stroke="#000000" stroke-linejoin="round" id="line15" stroke-linecap="round" y1="10.0827" y2="10.0827" x1="13.6819" stroke-width="0.685621" x2="4.8109899"/>
                    <g  transform="scale(0.97188048,1.0289331)">
                        <g >
                            <g gorn="0.3.0.0.0.9.0.0"  id="g127">
                                <text x="5.2136598" y="8.8001099" class="text" font-family="Droid Sans" fill="#8c8c8c" gorn="0.3.0.0.0.9.0.0.0"  text-anchor="middle" stroke="none" id="text17" stroke-width="0" font-size="1.95892">2</text>
                            </g>
                        </g>
                    </g>
                    <line fill="none" gorn="0.3.0.0.0.10"  stroke="#000000" stroke-linejoin="round" stroke-linecap="round" y1="24.838829" y2="24.838829" x1="0.59304398" stroke-width="0.685621" x2="7.3716402"/>
                    <g width="0.519746" x="0" y="17.2421" fill="none" gorn="0.3.0.0.0.11"  height="0.209622" stroke-width="0.979458"/>
                    <g  transform="matrix(13.2211,0,0,13.9972,0.259873,-0.801528)">
                        <g >
                            <g gorn="0.3.0.0.0.12.0.0"  id="g132">
                                <g  transform="translate(0,0.53582325)">
                                    <g >
                                        <polyline points="0.712656,1.1551,1.0152,1.296,0.712656,1.43683" fill="none" gorn="0.3.0.0.0.12.0.0.0.0.0"  stroke="#000000" stroke-linejoin="round" id="connector2pin" stroke-linecap="round" stroke-width="0.0504"/>
                                    </g>
                                </g>
                            </g>
                        </g>
                    </g>
                    <line fill="none" gorn="0.3.0.0.0.13"  stroke="#000000" stroke-linejoin="round" id="line23" stroke-linecap="round" y1="24.838829" y2="24.838829" x1="13.6819" stroke-width="0.685621" x2="4.8109899"/>
                    <g  transform="scale(0.97188048,1.0289331)">
                        <g >
                            <g gorn="0.3.0.0.0.14.0.0"  id="g136">
                                <text x="5.2136598" y="23.141323" class="text" font-family="Droid Sans" fill="#8c8c8c" gorn="0.3.0.0.0.14.0.0.0"  text-anchor="middle" stroke="none" id="text25" stroke-width="0" font-size="1.95892">3</text>
                            </g>
                        </g>
                    </g>
                    <line fill="none" gorn="0.3.0.0.0.15"  stroke="#000000" stroke-linejoin="round" stroke-linecap="round" y1="32.095028" y2="32.095028" x1="0.59304398" stroke-width="0.685621" x2="7.3716402"/>
                    <g width="0.519746" x="0" y="24.4982" fill="none" gorn="0.3.0.0.0.16"  height="0.209622" stroke-width="0.979458"/>
                    <g  transform="matrix(13.2211,0,0,13.9972,0.259873,-0.801528)">
                        <g >
                            <g gorn="0.3.0.0.0.17.0.0"  id="g141">
                                <g  transform="translate(0,0.5358233)">
                                    <g >
                                        <polyline points="0.712656,1.6735,1.0152,1.8144,0.712656,1.95523" fill="none" gorn="0.3.0.0.0.17.0.0.0.0.0"  stroke="#000000" stroke-linejoin="round" id="connector3pin" stroke-linecap="round" stroke-width="0.0504"/>
                                    </g>
                                </g>
                            </g>
                        </g>
                    </g>
                    <line fill="none" gorn="0.3.0.0.0.18"  stroke="#000000" stroke-linejoin="round" id="line31" stroke-linecap="round" y1="32.095028" y2="32.095028" x1="13.6819" stroke-width="0.685621" x2="4.8109899"/>
                    <g  transform="scale(0.97188048,1.0289331)">
                        <g >
                            <g gorn="0.3.0.0.0.19.0.0"  id="g145">
                                <text x="5.2136598" y="30.193434" class="text" font-family="Droid Sans" fill="#8c8c8c" gorn="0.3.0.0.0.19.0.0.0"  text-anchor="middle" stroke="none" id="text33" stroke-width="0" font-size="1.95892">4</text>
                            </g>
                        </g>
                    </g>
                    <g width="0.519746" x="0" y="31.7544" fill="none" gorn="0.3.0.0.0.20"  height="0.209622" id="connector4terminal" stroke-width="0.979458"/>
                    <g  transform="matrix(13.2211,0,0,13.9972,0.259873,-0.801528)">
                        <g >
                            <g gorn="0.3.0.0.0.21.0.0"  id="g150"/>
                        </g>
                    </g>
                    <g  transform="scale(0.97188048,1.0289331)">
                        <g >
                            <g gorn="0.3.0.0.0.22.0.0"  id="g154"/>
                        </g>
                    </g>
                    <g width="0.519746" x="0.458208" y="46.0947" fill="none" gorn="0.3.0.0.0.23"  height="0.209622" id="connector5terminal" stroke-width="0.979458"/>
                    <g  transform="matrix(13.2211,0,0,13.9972,0.718081,42.5633)">
                        <g >
                            <g gorn="0.3.0.0.0.24.0.0"  id="g159"/>
                        </g>
                    </g>
                    <g  transform="scale(0.97188048,1.0289331)">
                        <g >
                            <g gorn="0.3.0.0.0.25.0.0"  id="g163"/>
                        </g>
                    </g>
                    <g width="0.519746" x="0.458208" y="53.3508" fill="none" gorn="0.3.0.0.0.26"  height="0.209622" id="connector6terminal" stroke-width="0.979458"/>
                    <g  transform="matrix(13.2211,0,0,13.9972,0.718081,42.5633)">
                        <g >
                            <g gorn="0.3.0.0.0.27.0.0"  id="g168"/>
                        </g>
                    </g>
                    <g  transform="scale(0.97188048,1.0289331)">
                        <g >
                            <g gorn="0.3.0.0.0.28.0.0"  id="g172"/>
                        </g>
                    </g>
                    <g width="0.519746" x="0.458208" y="60.6069" fill="none" gorn="0.3.0.0.0.29"  height="0.209622" id="connector7terminal" stroke-width="0.979458"/>
                    <g  transform="matrix(13.2211,0,0,13.9972,0.718081,42.5633)">
                        <g >
                            <g gorn="0.3.0.0.0.30.0.0"  id="g177"/>
                        </g>
                    </g>
                    <g  transform="scale(0.97188048,1.0289331)">
                        <g >
                            <g gorn="0.3.0.0.0.31.0.0"  id="g181"/>
                        </g>
                    </g>
                    <g width="0.519746" x="0.458208" y="67.8631" fill="none" gorn="0.3.0.0.0.32"  height="0.209622" id="connector8terminal" stroke-width="0.979458"/>
                    <g  transform="matrix(13.2211,0,0,13.9972,0.718081,42.5633)">
                        <g >
                            <g gorn="0.3.0.0.0.33.0.0"  id="g186"/>
                        </g>
                    </g>
                    <g  transform="scale(0.97188048,1.0289331)">
                        <g >
                            <g gorn="0.3.0.0.0.34.0.0"  id="g190"/>
                        </g>
                    </g>
                    <g width="0.519746" x="0.458208" y="75.1192" fill="none" gorn="0.3.0.0.0.35"  height="0.209622" id="connector9terminal" stroke-width="0.979458"/>
                    <g  transform="matrix(13.2211,0,0,13.9972,0.718081,42.5633)">
                        <g >
                            <g gorn="0.3.0.0.0.36.0.0"  id="g195"/>
                        </g>
                    </g>
                    <g  transform="scale(0.97188048,1.0289331)">
                        <g >
                            <g gorn="0.3.0.0.0.37.0.0"  id="g199"/>
                        </g>
                    </g>
                </g>
            </g>
        </g>
    </g>
</svg>
