<?xml version='1.0' encoding='UTF-8' standalone='no'?>
<svg
  xmlns:dc="http://purl.org/dc/elements/1.1/"
  xmlns:cc="http://creativecommons.org/ns#"
  xmlns:rdf="http://www.w3.org/1999/02/22-rdf-syntax-ns#"
  xmlns:svg="http://www.w3.org/2000/svg"
  xmlns="http://www.w3.org/2000/svg"
  id="svg2"
  y="0in"
  version="1.2"
  height="1.61in"
  width="0.60977811in"
  x="0in"
  viewBox="0 0 609.77812 1610">
  <metadata
    id="metadata41">
    <rdf:RDF>
      <cc:Work
        rdf:about="">
        <dc:format>image/svg+xml</dc:format>
        <dc:type
          rdf:resource="http://purl.org/dc/dcmitype/StillImage"
        />
        <dc:title/>
      </cc:Work>
    </rdf:RDF>
  </metadata>
  <defs
    id="defs39"
  />
  <desc
    id="desc4">
    <referenceFile>em705_1_schematic.svg</referenceFile>
  </desc>
  <g
    id="schematic">
    <rect
      stroke-linecap="round"
      stroke-width="10"
      stroke="#000000"
      fill="none"
      id="rect7"
      y="5"
      height="1600"
      width="400"
      x="104.99999"
    />
    <text
      fill="#000000"
      text-anchor="middle"
      font-family="'Droid Sans'"
      id="label1"
      x="302.87122"
      y="721.4353"
      font-size="49">EM705</text>
    <text
      fill="#555555"
      text-anchor="start"
      font-family="'Droid Sans'"
      font-size="49"
      y="122.84812"
      x="135"
      id="label0">NC</text>
    <text
      fill="#555555"
      text-anchor="start"
      font-family="'Droid Sans'"
      font-size="49"
      y="222.49991"
      x="130.65544"
      id="text180">RXD</text>
    <text
      fill="#555555"
      text-anchor="end"
      font-family="'Droid Sans'"
      id="text79"
      x="478.07715"
      y="622.99994"
      font-size="49">A-</text>
    <text
      fill="#555555"
      text-anchor="end"
      font-family="'Droid Sans'"
      id="text81"
      x="476.35449"
      y="522.99988"
      font-size="49">A+</text>
    <text
      fill="#555555"
      text-anchor="start"
      font-family="'Droid Sans'"
      id="text42"
      x="135"
      y="323.34811"
      font-size="49">GND</text>
    <text
      fill="#555555"
      text-anchor="start"
      font-family="'Droid Sans'"
      id="text46"
      x="130.65544"
      y="422.99994"
      font-size="49">TXD</text>
    <text
      fill="#555555"
      text-anchor="start"
      font-family="'Droid Sans'"
      font-size="49"
      y="523.34808"
      x="135"
      id="text58">+5V</text>
    <text
      fill="#555555"
      text-anchor="start"
      font-family="'Droid Sans'"
      font-size="49"
      y="622.99994"
      x="130.65544"
      id="text62">NC</text>
    <text
      fill="#555555"
      text-anchor="start"
      font-family="'Droid Sans'"
      font-size="49"
      y="823.34808"
      x="135"
      id="text74">PUL+</text>
    <text
      fill="#555555"
      text-anchor="start"
      font-family="'Droid Sans'"
      font-size="49"
      y="922.99988"
      x="130.65544"
      id="text78">PUL-</text>
    <text
      fill="#555555"
      text-anchor="start"
      font-family="'Droid Sans'"
      id="text90"
      x="135"
      y="1023.348"
      font-size="49">DIR+</text>
    <text
      fill="#555555"
      text-anchor="start"
      font-family="'Droid Sans'"
      id="text94"
      x="130.65544"
      y="1123"
      font-size="49">DIR-</text>
    <text
      fill="#555555"
      text-anchor="start"
      font-family="'Droid Sans'"
      id="text106"
      x="135"
      y="1223.348"
      font-size="49">ENA+</text>
    <text
      fill="#555555"
      text-anchor="start"
      font-family="'Droid Sans'"
      id="text110"
      x="130.65544"
      y="1322.9999"
      font-size="49">ENA-</text>
    <text
      fill="#555555"
      text-anchor="start"
      font-family="'Droid Sans'"
      font-size="49"
      y="1423.348"
      x="135"
      id="text122">FLT+</text>
    <text
      fill="#555555"
      text-anchor="start"
      font-family="'Droid Sans'"
      font-size="49"
      y="1523"
      x="130.65544"
      id="text126">FLT-</text>
    <text
      fill="#555555"
      text-anchor="end"
      font-family="'Droid Sans'"
      font-size="49"
      y="822.99994"
      x="478.07715"
      id="text138">B-</text>
    <text
      fill="#555555"
      text-anchor="end"
      font-family="'Droid Sans'"
      font-size="49"
      y="722.99994"
      x="476.35449"
      id="text142">B+</text>
    <text
      fill="#555555"
      text-anchor="end"
      font-family="'Droid Sans'"
      id="text154"
      x="478.07715"
      y="1023"
      font-size="49">GND</text>
    <text
      fill="#555555"
      text-anchor="end"
      font-family="'Droid Sans'"
      id="text158"
      x="476.35449"
      y="922.99988"
      font-size="49">+Vdc</text>
    <line
      stroke-linecap="round"
      stroke-width="10"
      stroke="#555555"
      fill="none"
      y1="1005.1678"
      y2="1005.1678"
      x2="604.70691"
      x1="509.70691"
      id="connector0pin"
    />
    <rect
      stroke-width="0"
      fill="none"
      id="connector0terminal"
      x="599.70691"
      width="10"
      height="10"
      y="1000.1678"
    />
    <line
      stroke-linecap="round"
      stroke-width="10"
      stroke="#555555"
      fill="none"
      y1="905.16772"
      y2="905.16772"
      x2="604.70691"
      x1="509.70691"
      id="connector1pin"
    />
    <rect
      stroke-width="0"
      fill="none"
      id="connector1terminal"
      x="599.70691"
      width="10"
      height="10"
      y="901.16772"
    />
    <line
      stroke-linecap="round"
      stroke-width="10"
      stroke="#555555"
      fill="none"
      id="connector2pin"
      x1="509.70691"
      x2="604.70691"
      y2="805.16766"
      y1="805.16766"
    />
    <rect
      stroke-width="0"
      fill="none"
      y="800.16766"
      height="10"
      width="10"
      x="599.70691"
      id="connector2terminal"
    />
    <line
      stroke-linecap="round"
      stroke-width="10"
      stroke="#555555"
      fill="none"
      id="connector3pin"
      x1="509.70691"
      x2="604.70691"
      y2="705.1676"
      y1="705.1676"
    />
    <rect
      stroke-width="0"
      fill="none"
      y="701.1676"
      height="10"
      width="10"
      x="599.70691"
      id="connector3terminal"
    />
    <line
      stroke-linecap="round"
      stroke-width="10"
      stroke="#555555"
      fill="none"
      y1="605.1676"
      y2="605.1676"
      x2="604.70691"
      x1="509.70691"
      id="connector4pin"
    />
    <rect
      stroke-width="0"
      fill="none"
      id="connector4terminal"
      x="599.70691"
      width="10"
      height="10"
      y="600.1676"
    />
    <line
      stroke-linecap="round"
      stroke-width="10"
      stroke="#555555"
      fill="none"
      y1="505.16754"
      y2="505.16754"
      x2="604.70691"
      x1="509.70691"
      id="connector5pin"
    />
    <rect
      stroke-width="0"
      fill="none"
      id="connector5terminal"
      x="599.70691"
      width="10"
      height="10"
      y="501.16754"
    />
    <line
      stroke-linecap="round"
      stroke-width="10"
      stroke="#555555"
      fill="none"
      id="connector6pin"
      x1="5.0712128"
      x2="100.26112"
      y2="1505.6384"
      y1="1505.6384"
    />
    <rect
      stroke-width="0"
      fill="none"
      y="1500.5"
      height="10"
      width="10"
      x="0.14087847"
      id="connector6terminal"
    />
    <line
      stroke-linecap="round"
      stroke-width="10"
      stroke="#555555"
      fill="none"
      id="connector7pin"
      x1="5.0712123"
      x2="100.26112"
      y2="1405.6383"
      y1="1405.6383"
    />
    <rect
      stroke-width="0"
      fill="none"
      y="1400.7777"
      height="10"
      width="10"
      x="0.14087847"
      id="connector7terminal"
    />
    <line
      stroke-linecap="round"
      stroke-width="10"
      stroke="#555555"
      fill="none"
      y1="1305.6383"
      y2="1305.6383"
      x2="100.26112"
      x1="5.0712128"
      id="connector8pin"
    />
    <rect
      stroke-width="0"
      fill="none"
      id="connector8terminal"
      x="0.14087847"
      width="10"
      height="10"
      y="1300.4999"
    />
    <line
      stroke-linecap="round"
      stroke-width="10"
      stroke="#555555"
      fill="none"
      y1="1205.6382"
      y2="1205.6382"
      x2="100.26112"
      x1="5.0712123"
      id="connector9pin"
    />
    <rect
      stroke-width="0"
      fill="none"
      id="connector9terminal"
      x="0.14087847"
      width="10"
      height="10"
      y="1200.7776"
    />
    <line
      stroke-linecap="round"
      stroke-width="10"
      stroke="#555555"
      fill="none"
      y1="1105.6384"
      y2="1105.6384"
      x2="100.26112"
      x1="5.0712128"
      id="connector10pin"
    />
    <rect
      id="connector10terminal"
      x="0.14087847"
      width="10"
      height="10"
      y="1100.5"
      fill="none"
      stroke-width="0"
    />
    <line
      stroke-linecap="round"
      stroke-width="10"
      stroke="#555555"
      fill="none"
      y1="1005.6383"
      y2="1005.6383"
      x2="100.26112"
      x1="5.0712123"
      id="connector11pin"
    />
    <rect
      stroke-width="0"
      fill="none"
      id="connector11terminal"
      x="0.14087847"
      width="10"
      height="10"
      y="1000.7777"
    />
    <line
      stroke-linecap="round"
      stroke-width="10"
      stroke="#555555"
      fill="none"
      id="connector12pin"
      x1="5.0712128"
      x2="100.26112"
      y2="905.63831"
      y1="905.63831"
    />
    <rect
      stroke-width="0"
      fill="none"
      y="900.49988"
      height="10"
      width="10"
      x="0.14087847"
      id="connector12terminal"
    />
    <line
      stroke-linecap="round"
      stroke-width="10"
      stroke="#555555"
      fill="none"
      id="connector13pin"
      x1="5.0712123"
      x2="100.26112"
      y2="805.63831"
      y1="805.63831"
    />
    <rect
      stroke-width="0"
      fill="none"
      y="800.77771"
      height="10"
      width="10"
      x="0.14087847"
      id="connector13terminal"
    />
    <line
      stroke-linecap="round"
      stroke-width="10"
      stroke="#555555"
      fill="none"
      id="connector14pin"
      x1="5.0712128"
      x2="100.26112"
      y2="605.63831"
      y1="605.63831"
    />
    <rect
      stroke-width="0"
      fill="none"
      y="600.49988"
      height="10"
      width="10"
      x="0.14087847"
      id="connector14terminal"
    />
    <line
      stroke-linecap="round"
      stroke-width="10"
      stroke="#555555"
      fill="none"
      id="connector15pin"
      x1="5.0712123"
      x2="100.26112"
      y2="505.63824"
      y1="505.63824"
    />
    <rect
      stroke-width="0"
      fill="none"
      y="500.77765"
      height="10"
      width="10"
      x="0.14087847"
      id="connector15terminal"
    />
    <line
      stroke-linecap="round"
      stroke-width="10"
      stroke="#555555"
      fill="none"
      y1="405.63834"
      y2="405.63834"
      x2="100.26112"
      x1="5.0712128"
      id="connector16pin"
    />
    <rect
      stroke-width="0"
      fill="none"
      id="connector16terminal"
      x="0.14087847"
      width="10"
      height="10"
      y="400.49991"
    />
    <line
      stroke-linecap="round"
      stroke-width="10"
      stroke="#555555"
      fill="none"
      y1="305.63831"
      y2="305.63831"
      x2="100.26112"
      x1="5.0712123"
      id="connector17pin"
    />
    <rect
      stroke-width="0"
      fill="none"
      id="connector17terminal"
      x="0.14087847"
      width="10"
      height="10"
      y="300.77771"
    />
    <line
      stroke-linecap="round"
      stroke-width="10"
      stroke="#555555"
      fill="none"
      id="connector18pin"
      x1="5.0712128"
      x2="100.26112"
      y2="205.13834"
      y1="205.13834"
    />
    <rect
      stroke-width="0"
      fill="none"
      y="199.99991"
      height="10"
      width="10"
      x="0.14087847"
      id="connector18terminal"
    />
    <line
      stroke-linecap="round"
      stroke-width="10"
      stroke="#555555"
      fill="none"
      id="connector19pin"
      x1="5.0712123"
      x2="100.26112"
      y2="105.13833"
      y1="105.13833"
    />
    <rect
      stroke-width="0"
      fill="none"
      y="100.27772"
      height="10"
      width="10"
      x="0.14087847"
      id="connector19terminal"
    />
  </g>
</svg>
