<?xml version='1.0' encoding='UTF-8' standalone='no'?>
<!-- Created with Fritzing (http://www.fritzing.org/) -->
<svg xmlns="http://www.w3.org/2000/svg" y="0in" x="0in" baseProfile="tiny" width="0.29252in" version="1.2" height="0.6in"  viewBox="0 0 292.52 600">
    <desc>
        <referenceFile>sparkfun-freqctrl_resonator_nocap_breadboard.svg</referenceFile>
    </desc>
    <desc >Fritzing breadboard generated by brd2svg</desc>
    <g  id="breadboard" gorn="0.1">
        <g  id="icon" gorn="0.1.0">
            <path fill="#1F7A34" stroke-width="0" d="M0,0L0,270A30,30 0 0 1 0,330L0,600L292.52,600L292.52,0L0,0z"  stroke="none"/>
            <g transform="translate(53.7402,176.89)" >
                <g >
                    <g transform="matrix(0.5, 0, 0, 0.5, 46.2598, 61.5551)" >
                        <g >
                            <rect y="22.7165" stroke-linecap="round" x="0" width="31.496" fill="#8c8c8c" stroke-width="0" height="200.787"  connectorname="P$1" stroke="none"/>
                            <rect y="22.7165" stroke-linecap="round" x="153.543" width="31.496" fill="#8c8c8c" stroke-width="0" height="200.787"  connectorname="P$2" stroke="none"/>
                            <rect y="0" x="30.4331" width="124.173" fill="#303030" stroke-width="0" height="246.22"  stroke="none"/>
                            <polygon fill="#1f1f1f" points="30.4331,0 154.606,0 144.606,10 40.4331,10" />
                            <polygon fill="#1f1f1f" points="30.4331,246.22 154.606,246.22 144.606,236.22 40.4331,236.22" />
                            <polygon fill="#000000" points="30.4331,0 30.4331,246.22 40.4331,236.22 40.4331,10" />
                            <polygon fill="#3d3d3d" points="154.606,0 154.606,246.22 144.606,236.22 144.606,10" />
                            <circle cx="60.4331" cy="216.22" fill="#1f1f1f" stroke-width="0"  stroke="none" r="10"/>
                        </g>
                    </g>
                </g>
            </g>
            <text text-anchor="start" y="324.375" x="50" fill="white" stroke-width="0" font-size="65"  font-family="OCRA" id="label" stroke="none" gorn="0.1.0.2">RESONATOR_NOCAP</text>
            <g transform="translate(159.76,526.05)" >
                <g >
                    <g transform="rotate(-90)" >
                        <g >
                            <text text-anchor="start" y="0" x="0" fill="white" stroke-width="0" font-size="45"  font-family="OCRA" stroke="none">P$1</text>
                        </g>
                    </g>
                </g>
            </g>
            <g transform="translate(159.76,73.95)" >
                <g >
                    <g transform="rotate(-90)" >
                        <g >
                            <text text-anchor="end" y="0" x="0" fill="white" stroke-width="0" font-size="45"  font-family="OCRA" stroke="none">P$2</text>
                        </g>
                    </g>
                </g>
            </g>
        </g>
        <g transform="translate(130.295,534.05)" >
            <g >
                <rect y="0" x="0" width="31.93" fill="#8D8C8C" height="31.9"  id="connector0pin" gorn="0.1.1.0.0"/>
                <rect y="7.73544" x="7.79153" width="16.4442" fill="#8C8663" height="16.4152" />
                <polygon fill="#B8AF82" points="0,31.9,7.79153,24.1368,7.79153,6.97162,0,0" />
                <polygon fill="#80795B" points="24.2079,7.76321,7.90264,7.76321,0,0,31.93,0" />
                <polygon fill="#5E5B43" points="24.2079,24.1368,24.2079,7.76321,31.93,0,31.93,31.9" />
                <polygon fill="#9A916C" points="0,31.9,7.87486,24.1368,24.2079,24.1368,31.93,31.9" />
            </g>
        </g>
        <g transform="translate(130.295,34.05)" >
            <g >
                <rect y="0" x="0" width="31.93" fill="#8D8C8C" height="31.9"  id="connector1pin" gorn="0.1.2.0.0"/>
                <rect y="7.73544" x="7.79153" width="16.4442" fill="#8C8663" height="16.4152" />
                <polygon fill="#B8AF82" points="0,31.9,7.79153,24.1368,7.79153,6.97162,0,0" />
                <polygon fill="#80795B" points="24.2079,7.76321,7.90264,7.76321,0,0,31.93,0" />
                <polygon fill="#5E5B43" points="24.2079,24.1368,24.2079,7.76321,31.93,0,31.93,31.9" />
                <polygon fill="#9A916C" points="0,31.9,7.87486,24.1368,24.2079,24.1368,31.93,31.9" />
            </g>
        </g>
    </g>
</svg>
