<?xml version="1.0" encoding="utf-8"?>
<!-- Generator: Adobe Illustrator 16.0.0, SVG Export Plug-In . SVG Version: 6.00 Build 0)  -->
<!DOCTYPE svg PUBLIC "-//W3C//DTD SVG 1.1//EN" "http://www.w3.org/Graphics/SVG/1.1/DTD/svg11.dtd">
<svg version="1.1"
	 id="Layer_1" xmlns:svg="http://www.w3.org/2000/svg" xmlns:cc="http://creativecommons.org/ns#" xmlns:dc="http://purl.org/dc/elements/1.1/" xmlns:rdf="http://www.w3.org/1999/02/22-rdf-syntax-ns#"
	 xmlns="http://www.w3.org/2000/svg" xmlns:xlink="http://www.w3.org/1999/xlink" x="0px" y="0px" width="14.174px"
	 height="14.174px" viewBox="0 0 14.174 14.174" enable-background="new 0 0 14.174 14.174" xml:space="preserve">
<desc  id="desc2">
	<referenceFile>prefix0000_7357f0982520a864006d73e1db204e9b_1_breadboard.svg</referenceFile>
</desc>
<g id="breadboard">
	<g>
		<ellipse id="ellipse22" fill="#0D0033" cx="7.09" cy="7.139" rx="7.086" ry="7.035"/>
		<ellipse id="ellipse24" fill="#100040" cx="7.09" cy="6.516" rx="6.563" ry="6.516"/>
		<ellipse id="ellipse26" fill="#B2B2B2" cx="7.09" cy="6.14" rx="4.812" ry="4.774"/>
		<path id="path28" fill="#D2EEFF" d="M1.386,2.963C0.518,4.131,0.002,5.578,0.002,7.141c0,0-0.122,1.779,0.948,3.512
			c0.019,0.029,0.011-0.144,0.011-0.144s0,0.072,0-0.188c0-0.471,0.158-0.773,0.424-0.924c0.257-0.146,0.239-2.715,0.239-2.715
			L1.386,2.963z"/>
		<path id="path30" fill="#D2EEFF" d="M2.279,6.141c0-0.849,0.223-1.641,0.612-2.33L1.386,2.96c-0.546,0.95-0.86,2.047-0.86,3.218
			c0,1.17,0.315,2.27,0.86,3.219l1.542-0.871C2.518,7.824,2.279,7.009,2.279,6.141z"/>
		<path id="path42" opacity="0.35" enable-background="new    " d="M7.09,1.59c2.619,0,4.743,2.078,4.806,4.663
			c0-0.039,0.008-0.075,0.008-0.112c0-2.639-2.153-4.775-4.813-4.775c-2.655,0-4.81,2.137-4.81,4.775
			c0,0.038,0.005,0.073,0.006,0.112C2.345,3.668,4.47,1.59,7.09,1.59z"/>
		<path id="path50" opacity="0.2" fill="#FFFFFF" enable-background="new    " d="M9.731,12.224c0.004-0.152-0.08-0.263-0.149-0.304
			c-0.072-0.045-0.192-0.112-0.423-0.026H9.14c-0.645,0.225-1.33,0.354-2.051,0.354c-3.398,0-6.153-2.735-6.153-6.107
			c0-0.095,0.01-0.189,0.014-0.283c0-0.008-0.005-0.013-0.005-0.021c0-0.15-0.042-0.346-0.133-0.365
			c-0.103-0.029-0.154,0.09-0.205,0.244C0.582,5.789,0.563,5.898,0.549,6.021C0.547,6.035,0.545,6.057,0.544,6.07
			C0.542,6.087,0.542,6.107,0.541,6.125C0.53,6.254,0.524,6.385,0.524,6.516c0,3.596,2.939,6.516,6.564,6.516
			c0.911,0,1.769-0.199,2.554-0.531C9.718,12.444,9.726,12.356,9.731,12.224L9.731,12.224z"/>
		<path id="path54" fill="#FFFFFF" d="M0.937,6.141c0-0.096,0.01-0.189,0.015-0.281c-0.004-0.01-0.01-0.016-0.01-0.024
			c0-0.149-0.042-0.349-0.131-0.367C0.709,5.441,0.658,5.561,0.607,5.715C0.582,5.789,0.563,5.898,0.549,6.021
			C0.547,6.035,0.544,6.057,0.544,6.07C0.542,6.087,0.541,6.107,0.541,6.125C0.53,6.254,0.524,6.385,0.524,6.516
			c0,1.076,0.268,2.088,0.733,2.984c0.04-0.039,0.081-0.074,0.128-0.104l0.376-0.211C1.239,8.287,0.937,7.251,0.937,6.141z"/>
	</g>
	<g display="none">
		
			<text id="text3685" transform="matrix(1 0 0 1 2.7715 6.252)" display="inline" fill="#FFFFFF" font-family="'OCRA'" font-size="3.5">-</text>
		
			<text id="text133" transform="matrix(1 0 0 1 9.4834 6.1777)" display="inline" fill="#FFFFFF" font-family="'OCRA'" font-size="3.5">+</text>
		<rect id="connector0pin" x="2.772" y="6.413" display="inline" fill="#8C8C8C" width="1.44" height="1.439"/>
		<rect id="connector1pin" x="9.972" y="6.413" display="inline" fill="#8C8C8C" width="1.44" height="1.439"/>
	</g>
</g>
</svg>
