<?xml version="1.0" encoding="utf-8"?>
<!-- Generator: Adobe Illustrator 16.0.0, SVG Export Plug-In . SVG Version: 6.00 Build 0)  -->
<!DOCTYPE svg PUBLIC "-//W3C//DTD SVG 1.1//EN" "http://www.w3.org/Graphics/SVG/1.1/DTD/svg11.dtd">
<svg version="1.1"
	 id="Layer_1" xmlns:dc="http://purl.org/dc/elements/1.1/" xmlns:cc="http://creativecommons.org/ns#" xmlns:rdf="http://www.w3.org/1999/02/22-rdf-syntax-ns#" xmlns:svg="http://www.w3.org/2000/svg" xmlns:sodipodi="http://sodipodi.sourceforge.net/DTD/sodipodi-0.dtd" xmlns:inkscape="http://www.inkscape.org/namespaces/inkscape" inkscape:version="0.92.4 (5da689c313, 2019-01-14)" sodipodi:docname="svg.pcb.AG-USBA_7b58b9737e8d0a66302fd57638ef439e_2_pcb.svg"
	 xmlns="http://www.w3.org/2000/svg" xmlns:xlink="http://www.w3.org/1999/xlink" x="0px" y="0px" width="21.775px"
	 height="41.678px" viewBox="0 0 21.775 41.678" enable-background="new 0 0 21.775 41.678" xml:space="preserve">
<sodipodi:namedview  inkscape:cy="27.785328" inkscape:cx="14.516687" inkscape:zoom="10.473153" showgrid="false" guidetolerance="10" gridtolerance="10" pagecolor="#ffffff" borderopacity="1" bordercolor="#666666" objecttolerance="10" id="namedview29" inkscape:snap-center="true" inkscape:pageshadow="2" inkscape:pageopacity="0" inkscape:window-maximized="1" inkscape:window-width="1366" inkscape:window-height="716" inkscape:window-y="-8" inkscape:window-x="-8" inkscape:current-layer="g25">
	</sodipodi:namedview>
<desc  id="desc2">
	<referenceFile>Usb_pcb.svg</referenceFile>
</desc>
<g id="silkscreen">
	<g id="g12">
		
			<line id="line4" fill="none" stroke="#F0F0F0" stroke-width="0.576" stroke-linecap="round" x1="0.288" y1="3.832" x2="0.288" y2="37.849"/>
		
			<line id="line6" fill="none" stroke="#F0F0F0" stroke-width="0.576" stroke-linecap="round" x1="0.288" y1="3.832" x2="3.123" y2="3.832"/>
		
			<line id="line8" fill="none" stroke="#F0F0F0" stroke-width="0.576" stroke-linecap="round" x1="0.288" y1="37.849" x2="3.123" y2="37.849"/>
		
			<line id="line10" fill="none" stroke="#F0F0F0" stroke-width="0.576" stroke-linecap="round" x1="11.625" y1="32.181" x2="11.625" y2="9.501"/>
		<circle id="path845" fill="#F0F0F0" cx="8.124" cy="27.219" r="1.417"/>
		<circle id="circle847" fill="#F0F0F0" cx="8.124" cy="14.433" r="1.417"/>
	</g>
</g>
<g id="copper1">
	<rect id="connector5pad" x="13.042" y="9.771" fill="#F7BD13" stroke="none" width="7.085" height="2.835"/>
	<rect id="connector3pad" x="13.042" y="16.574" fill="#F7BD13" stroke="none" width="7.085" height="2.835"/>
	<rect id="connector2pad" x="13.042" y="22.272" fill="#F7BD13" stroke="none" width="7.085" height="2.834"/>
	<rect id="connector4pad" x="13.043" y="29.076" fill="#F7BD13" stroke="none" width="7.085" height="2.834"/>
	<g id="copper0">
		<g id="connector6pad">
			<circle fill="none" stroke="none" cx="7.396" cy="4.399" r="1.417"/>
			<circle fill="none" stroke="none" cx="10.23" cy="4.4" r="1.417"/>
		</g>
		<path fill="none" stroke="#F7BD13" stroke-width="1.5" stroke-miterlimit="10" d="M8.813,0.856c1.955,0,3.542,1.587,3.542,3.542
			c0,1.958-1.586,3.545-3.542,3.545c-1.958,0-3.544-1.587-3.544-3.545C5.269,2.444,6.856,0.856,8.813,0.856z"/>
		<path fill="none" stroke="#F7BD13" stroke-width="1.5" stroke-miterlimit="10" d="M12.355,4.4c0,1.957-1.586,3.543-3.543,3.543
			S5.269,6.357,5.269,4.4s1.586-3.543,3.543-3.543C10.769,0.856,12.355,2.443,12.355,4.4z M12.355,4.4
			c0-1.174-0.952-2.126-2.126-2.126H7.395c-1.174,0-2.126,0.952-2.126,2.126l0,0c0,1.177,0.952,2.126,2.126,2.126h2.834
			C11.403,6.526,12.355,5.574,12.355,4.4L12.355,4.4z"/>
		<g id="connector7pad">
			<circle fill="none" stroke="none" cx="7.396" cy="37.281" r="1.417"/>
			<circle fill="none" stroke="none" cx="10.23" cy="37.282" r="1.417"/>
		</g>
		<path fill="none" stroke="#F7BD13" stroke-width="1.5" d="M8.813,33.737c1.953,0,3.543,1.59,3.543,3.542
			c0,1.959-1.587,3.547-3.543,3.547c-1.957,0-3.544-1.588-3.544-3.547C5.27,35.323,6.857,33.737,8.813,33.737z"/>
		<path fill="none" stroke="#F7BD13" stroke-width="1.5" stroke-miterlimit="10" d="M12.356,37.28c0,1.178-0.953,2.129-2.126,2.129
			H7.395c-1.174,0-2.126-0.951-2.126-2.129l0,0c0-1.175,0.952-2.126,2.126-2.126h2.834C11.403,35.154,12.356,36.105,12.356,37.28
			L12.356,37.28z M8.813,33.738c-1.957,0-3.543,1.588-3.543,3.545c0,1.955,1.586,3.543,3.543,3.543s3.543-1.588,3.543-3.543
			C12.356,35.324,10.769,33.738,8.813,33.738z"/>
	</g>
</g>
</svg>
