<?xml version="1.0" encoding="utf-8"?>
<!-- Generator: Adobe Illustrator 16.0.0, SVG Export Plug-In . SVG Version: 6.00 Build 0)  -->
<!DOCTYPE svg PUBLIC "-//W3C//DTD SVG 1.1//EN" "http://www.w3.org/Graphics/SVG/1.1/DTD/svg11.dtd">
<svg version="1.1"
	 id="Layer_1" xmlns:dc="http://purl.org/dc/elements/1.1/" xmlns:cc="http://creativecommons.org/ns#" xmlns:rdf="http://www.w3.org/1999/02/22-rdf-syntax-ns#" xmlns:svg="http://www.w3.org/2000/svg" xmlns:sodipodi="http://sodipodi.sourceforge.net/DTD/sodipodi-0.dtd" xmlns:inkscape="http://www.inkscape.org/namespaces/inkscape" sodipodi:docname="svg.schematic.AG-USBA_7b58b9737e8d0a66302fd57638ef439e_2_schematic1.svg" inkscape:version="0.92.4 (5da689c313, 2019-01-14)"
	 xmlns="http://www.w3.org/2000/svg" xmlns:xlink="http://www.w3.org/1999/xlink" x="0px" y="0px" width="22.477px"
	 height="29.701px" viewBox="0 0 22.477 29.701" enable-background="new 0 0 22.477 29.701" xml:space="preserve">
<g id="schematic" transform="translate(3.2622,24.6648)">
	
		<rect id="rect1404" x="4.518" y="-24.215" fill="#FFFFFF" stroke="#000000" stroke-width="0.9" stroke-linecap="round" stroke-linejoin="round" width="14.4" height="28.801"/>
	<line id="connector3pin" fill="none" stroke="#787878" stroke-linecap="round" x1="-2.683" y1="0.987" x2="4.517" y2="0.987"/>
	<circle id="connector3terminal" fill="none" cx="-2.683" cy="0.987" r="0.283"/>
	<line id="connector2pin" fill="none" stroke="#787878" stroke-linecap="round" x1="-2.683" y1="-20.613" x2="4.518" y2="-20.613"/>
	<circle id="connector2terminal" fill="none" cx="-2.683" cy="-20.614" r="0.284"/>
	<line id="connector4pin" fill="none" stroke="#787878" stroke-linecap="round" x1="-2.683" y1="-6.213" x2="4.518" y2="-6.213"/>
	<circle id="connector4terminal" fill="none" cx="-2.682" cy="-6.215" r="0.283"/>
	<line id="connector5pin" fill="none" stroke="#787878" stroke-linecap="round" x1="-2.683" y1="-13.414" x2="4.518" y2="-13.414"/>
	<circle id="connector5terminal" fill="none" cx="-2.683" cy="-13.414" r="0.283"/>
	
		<line id="connector6pin" fill="none" stroke="#787878" stroke-linecap="round" x1="15.318" y1="-20.613" x2="18.917" y2="-20.613"/>
	<circle id="connector6terminal" fill="none" cx="15.318" cy="-20.615" r="0.283"/>
	<line id="connector7pin" fill="none" stroke="#787878" stroke-linecap="round" x1="15.318" y1="0.987" x2="18.917" y2="0.987"/>
	<circle id="connector7terminal" fill="none" cx="15.318" cy="0.987" r="0.283"/>
</g>
</svg>
