<?xml version='1.0' encoding='UTF-8' standalone='no'?>
<svg
  xmlns:dc="http://purl.org/dc/elements/1.1/"
  xmlns:cc="http://creativecommons.org/ns#"
  xmlns:rdf="http://www.w3.org/1999/02/22-rdf-syntax-ns#"
  xmlns:svg="http://www.w3.org/2000/svg"
  xmlns="http://www.w3.org/2000/svg"
  viewBox="0 0 197.40157 433.70079"
  x="0in"
  width="0.19740157in"
  height="0.4337008in"
  version="1.2"
  y="0in"
  id="svg2"
  shape-rendering="crispEdges">
  <metadata
    id="metadata27">
    <rdf:RDF>
      <cc:Work
        rdf:about="">
        <dc:format>image/svg+xml</dc:format>
        <dc:type
          rdf:resource="http://purl.org/dc/dcmitype/StillImage"
        />
        <dc:title/>
      </cc:Work>
    </rdf:RDF>
  </metadata>
  <defs
    id="defs25"
  />
  <desc
    id="desc4">
    <referenceFile>l710a8ge-dual-led_1_pcb.svg</referenceFile>
  </desc>
  <g
    id="silkscreen">
    <line
      y1="3.5039263"
      y2="428.70078"
      x2="5"
      x1="5"
      id="line7"
      stroke="#000000"
      stroke-width="10"
    />
    <line
      y1="428.70078"
      y2="428.70078"
      x2="192.55905"
      x1="3.5826769"
      id="line9"
      stroke="#000000"
      stroke-width="10"
    />
    <line
      y1="428.70078"
      y2="3.5039253"
      x2="192.40157"
      x1="192.40157"
      id="line11"
      stroke="#000000"
      stroke-width="10"
    />
    <line
      y1="5"
      y2="5"
      x2="3.5826759"
      x1="192.55905"
      id="line13"
      stroke="#000000"
      stroke-width="10"
    />
  </g>
  <g
    id="copper1">
    <g
      id="copper0">
      <rect
        id="square"
        gorn="0.2.0.0"
        x="122.55118"
        height="50"
        width="50"
        y="131.70076"
        fill="none"
        stroke="#ffbf00"
        stroke-width="20"
      />
      <circle
        id="connector0pin"
        gorn="0.2.0.1"
        cx="147.86594"
        cy="156.77962"
        r="25"
        fill="none"
        stroke="#ffbf00"
        stroke-width="20"
      />
      <circle
        id="connector1pin"
        gorn="0.2.0.2"
        cx="47.803196"
        cy="157"
        r="25"
        fill="none"
        stroke="#ffbf00"
        stroke-width="20"
      />
      <circle
        id="connector2pin"
        gorn="0.2.0.3"
        cx="147.86594"
        cy="57"
        r="25"
        fill="none"
        stroke="#ffbf00"
        stroke-width="20"
      />
      <circle
        r="25"
        cy="57"
        cx="47.803196"
        gorn="0.2.0.3"
        id="connector3pin"
        fill="none"
        stroke="#ffbf00"
        stroke-width="20"
      />
    </g>
  </g>
</svg>
