<?xml version='1.0' encoding='UTF-8' standalone='no'?>
<svg
  xmlns:dc="http://purl.org/dc/elements/1.1/"
  xmlns:cc="http://creativecommons.org/ns#"
  xmlns:rdf="http://www.w3.org/1999/02/22-rdf-syntax-ns#"
  xmlns:svg="http://www.w3.org/2000/svg"
  xmlns="http://www.w3.org/2000/svg"
  id="svg1219"
  height="0.6in"
  width="2.2in"
  y="0in"
  x="0in"
  version="1.2"
  viewBox="0 0 2200 600">
  <metadata
    id="metadata1225">
    <rdf:RDF>
      <cc:Work
        rdf:about="">
        <dc:format>image/svg+xml</dc:format>
        <dc:type
          rdf:resource="http://purl.org/dc/dcmitype/StillImage"
        />
        <dc:title/>
      </cc:Work>
    </rdf:RDF>
  </metadata>
  <defs
    id="defs1223"
  />
  <desc
    id="desc2">
    <referenceFile>PIC24FJ128GA204_8903ac93cd3db0fdd1143f9428ed518e_1_breadboard.svg</referenceFile>
  </desc>
  <desc
    id="desc4">Fritzing
    breadboard
    generated
    by
    brd2svg</desc>
  <g
    id="breadboard"
    gorn="0.1">
    <g
      id="icon"
      gorn="0.1.0">
      <path
        id="path6"
        fill="#1F7A34"
        d="M0,0L0,270A30,30 0 0 1 0,330L0,600L2200,600L2200,0L0,0z"
        stroke-width="0"
        stroke="none"
      />
      <g
        id="g114"
        transform="translate(950.394,150.394)">
        <g
          id="g112">
          <g
            id="g110"
            transform="matrix(0.5, 0, 0, 0.5, 74.8031, 74.8031)">
            <g
              id="g108">
              <rect
                id="rect8"
                height="11.811"
                width="31.4961"
                connectorname="1"
                fill="#8c8c8c"
                y="45.2757"
                x="0"
                stroke-linecap="round"
                stroke-width="0"
                stroke="none"
              />
              <rect
                id="rect10"
                height="11.811"
                width="31.4961"
                connectorname="2"
                fill="#8c8c8c"
                y="64.9607"
                x="0"
                stroke-linecap="round"
                stroke-width="0"
                stroke="none"
              />
              <rect
                id="rect12"
                height="11.811"
                width="31.4961"
                connectorname="3"
                fill="#8c8c8c"
                y="84.6458"
                x="0"
                stroke-linecap="round"
                stroke-width="0"
                stroke="none"
              />
              <rect
                id="rect14"
                height="11.811"
                width="31.4961"
                connectorname="4"
                fill="#8c8c8c"
                y="104.331"
                x="0"
                stroke-linecap="round"
                stroke-width="0"
                stroke="none"
              />
              <rect
                id="rect16"
                height="11.811"
                width="31.4961"
                connectorname="5"
                fill="#8c8c8c"
                y="124.016"
                x="0"
                stroke-linecap="round"
                stroke-width="0"
                stroke="none"
              />
              <rect
                id="rect18"
                height="11.811"
                width="31.4961"
                connectorname="6"
                fill="#8c8c8c"
                y="143.701"
                x="0"
                stroke-linecap="round"
                stroke-width="0"
                stroke="none"
              />
              <rect
                id="rect20"
                height="11.811"
                width="31.4961"
                connectorname="7"
                fill="#8c8c8c"
                y="163.386"
                x="0"
                stroke-linecap="round"
                stroke-width="0"
                stroke="none"
              />
              <rect
                id="rect22"
                height="11.811"
                width="31.4961"
                connectorname="8"
                fill="#8c8c8c"
                y="183.071"
                x="0"
                stroke-linecap="round"
                stroke-width="0"
                stroke="none"
              />
              <rect
                id="rect24"
                height="11.811"
                width="31.4961"
                connectorname="9"
                fill="#8c8c8c"
                y="202.756"
                x="0"
                stroke-linecap="round"
                stroke-width="0"
                stroke="none"
              />
              <rect
                id="rect26"
                height="11.811"
                width="31.4961"
                connectorname="10"
                fill="#8c8c8c"
                y="222.441"
                x="0"
                stroke-linecap="round"
                stroke-width="0"
                stroke="none"
              />
              <rect
                id="rect28"
                height="11.811"
                width="31.4961"
                connectorname="11"
                fill="#8c8c8c"
                y="242.126"
                x="0"
                stroke-linecap="round"
                stroke-width="0"
                stroke="none"
              />
              <rect
                id="rect30"
                height="31.4961"
                width="11.811"
                connectorname="12"
                fill="#8c8c8c"
                y="267.717"
                x="45.2757"
                stroke-linecap="round"
                stroke-width="0"
                stroke="none"
              />
              <rect
                id="rect32"
                height="31.4961"
                width="11.811"
                connectorname="13"
                fill="#8c8c8c"
                y="267.717"
                x="64.9607"
                stroke-linecap="round"
                stroke-width="0"
                stroke="none"
              />
              <rect
                id="rect34"
                height="31.4961"
                width="11.811"
                connectorname="14"
                fill="#8c8c8c"
                y="267.717"
                x="84.6458"
                stroke-linecap="round"
                stroke-width="0"
                stroke="none"
              />
              <rect
                id="rect36"
                height="31.4961"
                width="11.811"
                connectorname="15"
                fill="#8c8c8c"
                y="267.717"
                x="104.331"
                stroke-linecap="round"
                stroke-width="0"
                stroke="none"
              />
              <rect
                id="rect38"
                height="31.4961"
                width="11.811"
                connectorname="16"
                fill="#8c8c8c"
                y="267.717"
                x="124.016"
                stroke-linecap="round"
                stroke-width="0"
                stroke="none"
              />
              <rect
                id="rect40"
                height="31.4961"
                width="11.811"
                connectorname="17"
                fill="#8c8c8c"
                y="267.717"
                x="143.701"
                stroke-linecap="round"
                stroke-width="0"
                stroke="none"
              />
              <rect
                id="rect42"
                height="31.4961"
                width="11.811"
                connectorname="18"
                fill="#8c8c8c"
                y="267.717"
                x="163.386"
                stroke-linecap="round"
                stroke-width="0"
                stroke="none"
              />
              <rect
                id="rect44"
                height="31.4961"
                width="11.811"
                connectorname="19"
                fill="#8c8c8c"
                y="267.717"
                x="183.071"
                stroke-linecap="round"
                stroke-width="0"
                stroke="none"
              />
              <rect
                id="rect46"
                height="31.4961"
                width="11.811"
                connectorname="20"
                fill="#8c8c8c"
                y="267.717"
                x="202.756"
                stroke-linecap="round"
                stroke-width="0"
                stroke="none"
              />
              <rect
                id="rect48"
                height="31.4961"
                width="11.811"
                connectorname="21"
                fill="#8c8c8c"
                y="267.717"
                x="222.441"
                stroke-linecap="round"
                stroke-width="0"
                stroke="none"
              />
              <rect
                id="rect50"
                height="31.4961"
                width="11.811"
                connectorname="22"
                fill="#8c8c8c"
                y="267.717"
                x="242.126"
                stroke-linecap="round"
                stroke-width="0"
                stroke="none"
              />
              <rect
                id="rect52"
                height="11.811"
                width="31.4961"
                connectorname="23"
                fill="#8c8c8c"
                y="242.126"
                x="267.717"
                stroke-linecap="round"
                stroke-width="0"
                stroke="none"
              />
              <rect
                id="rect54"
                height="11.811"
                width="31.4961"
                connectorname="24"
                fill="#8c8c8c"
                y="222.441"
                x="267.717"
                stroke-linecap="round"
                stroke-width="0"
                stroke="none"
              />
              <rect
                id="rect56"
                height="11.811"
                width="31.4961"
                connectorname="25"
                fill="#8c8c8c"
                y="202.756"
                x="267.717"
                stroke-linecap="round"
                stroke-width="0"
                stroke="none"
              />
              <rect
                id="rect58"
                height="11.811"
                width="31.4961"
                connectorname="26"
                fill="#8c8c8c"
                y="183.071"
                x="267.717"
                stroke-linecap="round"
                stroke-width="0"
                stroke="none"
              />
              <rect
                id="rect60"
                height="11.811"
                width="31.4961"
                connectorname="27"
                fill="#8c8c8c"
                y="163.386"
                x="267.717"
                stroke-linecap="round"
                stroke-width="0"
                stroke="none"
              />
              <rect
                id="rect62"
                height="11.811"
                width="31.4961"
                connectorname="28"
                fill="#8c8c8c"
                y="143.701"
                x="267.717"
                stroke-linecap="round"
                stroke-width="0"
                stroke="none"
              />
              <rect
                id="rect64"
                height="11.811"
                width="31.4961"
                connectorname="29"
                fill="#8c8c8c"
                y="124.016"
                x="267.717"
                stroke-linecap="round"
                stroke-width="0"
                stroke="none"
              />
              <rect
                id="rect66"
                height="11.811"
                width="31.4961"
                connectorname="30"
                fill="#8c8c8c"
                y="104.331"
                x="267.717"
                stroke-linecap="round"
                stroke-width="0"
                stroke="none"
              />
              <rect
                id="rect68"
                height="11.811"
                width="31.4961"
                connectorname="31"
                fill="#8c8c8c"
                y="84.6458"
                x="267.717"
                stroke-linecap="round"
                stroke-width="0"
                stroke="none"
              />
              <rect
                id="rect70"
                height="11.811"
                width="31.4961"
                connectorname="32"
                fill="#8c8c8c"
                y="64.9607"
                x="267.717"
                stroke-linecap="round"
                stroke-width="0"
                stroke="none"
              />
              <rect
                id="rect72"
                height="11.811"
                width="31.4961"
                connectorname="33"
                fill="#8c8c8c"
                y="45.2757"
                x="267.717"
                stroke-linecap="round"
                stroke-width="0"
                stroke="none"
              />
              <rect
                id="rect74"
                height="31.4961"
                width="11.811"
                connectorname="34"
                fill="#8c8c8c"
                y="0"
                x="242.126"
                stroke-linecap="round"
                stroke-width="0"
                stroke="none"
              />
              <rect
                id="rect76"
                height="31.4961"
                width="11.811"
                connectorname="35"
                fill="#8c8c8c"
                y="0"
                x="222.441"
                stroke-linecap="round"
                stroke-width="0"
                stroke="none"
              />
              <rect
                id="rect78"
                height="31.4961"
                width="11.811"
                connectorname="36"
                fill="#8c8c8c"
                y="0"
                x="202.756"
                stroke-linecap="round"
                stroke-width="0"
                stroke="none"
              />
              <rect
                id="rect80"
                height="31.4961"
                width="11.811"
                connectorname="37"
                fill="#8c8c8c"
                y="0"
                x="183.071"
                stroke-linecap="round"
                stroke-width="0"
                stroke="none"
              />
              <rect
                id="rect82"
                height="31.4961"
                width="11.811"
                connectorname="38"
                fill="#8c8c8c"
                y="0"
                x="163.386"
                stroke-linecap="round"
                stroke-width="0"
                stroke="none"
              />
              <rect
                id="rect84"
                height="31.4961"
                width="11.811"
                connectorname="39"
                fill="#8c8c8c"
                y="0"
                x="143.701"
                stroke-linecap="round"
                stroke-width="0"
                stroke="none"
              />
              <rect
                id="rect86"
                height="31.4961"
                width="11.811"
                connectorname="40"
                fill="#8c8c8c"
                y="0"
                x="124.016"
                stroke-linecap="round"
                stroke-width="0"
                stroke="none"
              />
              <rect
                id="rect88"
                height="31.4961"
                width="11.811"
                connectorname="41"
                fill="#8c8c8c"
                y="0"
                x="104.331"
                stroke-linecap="round"
                stroke-width="0"
                stroke="none"
              />
              <rect
                id="rect90"
                height="31.4961"
                width="11.811"
                connectorname="42"
                fill="#8c8c8c"
                y="0"
                x="84.6458"
                stroke-linecap="round"
                stroke-width="0"
                stroke="none"
              />
              <rect
                id="rect92"
                height="31.4961"
                width="11.811"
                connectorname="43"
                fill="#8c8c8c"
                y="0"
                x="64.9607"
                stroke-linecap="round"
                stroke-width="0"
                stroke="none"
              />
              <rect
                id="rect94"
                height="31.4961"
                width="11.811"
                connectorname="44"
                fill="#8c8c8c"
                y="0"
                x="45.2757"
                stroke-linecap="round"
                stroke-width="0"
                stroke="none"
              />
              <rect
                id="rect96"
                height="283.591"
                width="283.591"
                fill="#303030"
                y="7.81102"
                x="7.81102"
                stroke-width="0"
                stroke="none"
              />
              <polygon
                id="polygon98"
                fill="#1f1f1f"
                points="7.81102,7.81102 291.402,7.81102 281.402,17.811 17.811,17.811"
              />
              <polygon
                id="polygon100"
                fill="#1f1f1f"
                points="7.81102,291.402 291.402,291.402 281.402,281.402 17.811,281.402"
              />
              <polygon
                id="polygon102"
                fill="#000000"
                points="7.81102,7.81102 7.81102,291.402 17.811,281.402 17.811,17.811"
              />
              <polygon
                id="polygon104"
                fill="#3d3d3d"
                points="291.402,7.81102 291.402,291.402 281.402,281.402 281.402,17.811"
              />
              <circle
                id="circle106"
                fill="#1f1f1f"
                stroke-width="0"
                stroke="none"
                cx="37.811"
                r="10"
                cy="261.402"
              />
            </g>
          </g>
        </g>
      </g>
      <text
        id="label"
        fill="white"
        y="324.375"
        x="50"
        stroke-width="0"
        text-anchor="start"
        font-family="OCRA"
        stroke="none"
        font-size="65"
        gorn="0.1.0.2">PIC24FJ128GA204</text>
      <g
        id="g125"
        transform="translate(63.5,526.05)">
        <g
          id="g123">
          <g
            id="g121"
            transform="rotate(-90)">
            <g
              id="g119">
              <text
                id="text117"
                fill="white"
                y="0"
                x="0"
                stroke-width="0"
                text-anchor="start"
                font-family="OCRA"
                stroke="none"
                font-size="45">1</text>
            </g>
          </g>
        </g>
      </g>
      <g
        id="g135"
        transform="translate(63.5,73.95)">
        <g
          id="g133">
          <g
            id="g131"
            transform="rotate(-90)">
            <g
              id="g129">
              <text
                id="text127"
                fill="white"
                y="0"
                x="0"
                stroke-width="0"
                text-anchor="end"
                font-family="OCRA"
                stroke="none"
                font-size="45">44</text>
            </g>
          </g>
        </g>
      </g>
      <g
        id="g145"
        transform="translate(163.5,526.05)">
        <g
          id="g143">
          <g
            id="g141"
            transform="rotate(-90)">
            <g
              id="g139">
              <text
                id="text137"
                fill="white"
                y="0"
                x="0"
                stroke-width="0"
                text-anchor="start"
                font-family="OCRA"
                stroke="none"
                font-size="45">2</text>
            </g>
          </g>
        </g>
      </g>
      <g
        id="g155"
        transform="translate(163.5,73.95)">
        <g
          id="g153">
          <g
            id="g151"
            transform="rotate(-90)">
            <g
              id="g149">
              <text
                id="text147"
                fill="white"
                y="0"
                x="0"
                stroke-width="0"
                text-anchor="end"
                font-family="OCRA"
                stroke="none"
                font-size="45">43</text>
            </g>
          </g>
        </g>
      </g>
      <g
        id="g165"
        transform="translate(263.5,526.05)">
        <g
          id="g163">
          <g
            id="g161"
            transform="rotate(-90)">
            <g
              id="g159">
              <text
                id="text157"
                fill="white"
                y="0"
                x="0"
                stroke-width="0"
                text-anchor="start"
                font-family="OCRA"
                stroke="none"
                font-size="45">3</text>
            </g>
          </g>
        </g>
      </g>
      <g
        id="g175"
        transform="translate(263.5,73.95)">
        <g
          id="g173">
          <g
            id="g171"
            transform="rotate(-90)">
            <g
              id="g169">
              <text
                id="text167"
                fill="white"
                y="0"
                x="0"
                stroke-width="0"
                text-anchor="end"
                font-family="OCRA"
                stroke="none"
                font-size="45">42</text>
            </g>
          </g>
        </g>
      </g>
      <g
        id="g185"
        transform="translate(363.5,526.05)">
        <g
          id="g183">
          <g
            id="g181"
            transform="rotate(-90)">
            <g
              id="g179">
              <text
                id="text177"
                fill="white"
                y="0"
                x="0"
                stroke-width="0"
                text-anchor="start"
                font-family="OCRA"
                stroke="none"
                font-size="45">4</text>
            </g>
          </g>
        </g>
      </g>
      <g
        id="g195"
        transform="translate(363.5,73.95)">
        <g
          id="g193">
          <g
            id="g191"
            transform="rotate(-90)">
            <g
              id="g189">
              <text
                id="text187"
                fill="white"
                y="0"
                x="0"
                stroke-width="0"
                text-anchor="end"
                font-family="OCRA"
                stroke="none"
                font-size="45">41</text>
            </g>
          </g>
        </g>
      </g>
      <g
        id="g205"
        transform="translate(463.5,526.05)">
        <g
          id="g203">
          <g
            id="g201"
            transform="rotate(-90)">
            <g
              id="g199">
              <text
                id="text197"
                fill="white"
                y="0"
                x="0"
                stroke-width="0"
                text-anchor="start"
                font-family="OCRA"
                stroke="none"
                font-size="45">5</text>
            </g>
          </g>
        </g>
      </g>
      <g
        id="g215"
        transform="translate(463.5,73.95)">
        <g
          id="g213">
          <g
            id="g211"
            transform="rotate(-90)">
            <g
              id="g209">
              <text
                id="text207"
                fill="white"
                y="0"
                x="0"
                stroke-width="0"
                text-anchor="end"
                font-family="OCRA"
                stroke="none"
                font-size="45">40</text>
            </g>
          </g>
        </g>
      </g>
      <g
        id="g225"
        transform="translate(563.5,526.05)">
        <g
          id="g223">
          <g
            id="g221"
            transform="rotate(-90)">
            <g
              id="g219">
              <text
                id="text217"
                fill="white"
                y="0"
                x="0"
                stroke-width="0"
                text-anchor="start"
                font-family="OCRA"
                stroke="none"
                font-size="45">6</text>
            </g>
          </g>
        </g>
      </g>
      <g
        id="g235"
        transform="translate(563.5,73.95)">
        <g
          id="g233">
          <g
            id="g231"
            transform="rotate(-90)">
            <g
              id="g229">
              <text
                id="text227"
                fill="white"
                y="0"
                x="0"
                stroke-width="0"
                text-anchor="end"
                font-family="OCRA"
                stroke="none"
                font-size="45">39</text>
            </g>
          </g>
        </g>
      </g>
      <g
        id="g245"
        transform="translate(663.5,526.05)">
        <g
          id="g243">
          <g
            id="g241"
            transform="rotate(-90)">
            <g
              id="g239">
              <text
                id="text237"
                fill="white"
                y="0"
                x="0"
                stroke-width="0"
                text-anchor="start"
                font-family="OCRA"
                stroke="none"
                font-size="45">7</text>
            </g>
          </g>
        </g>
      </g>
      <g
        id="g255"
        transform="translate(663.5,73.95)">
        <g
          id="g253">
          <g
            id="g251"
            transform="rotate(-90)">
            <g
              id="g249">
              <text
                id="text247"
                fill="white"
                y="0"
                x="0"
                stroke-width="0"
                text-anchor="end"
                font-family="OCRA"
                stroke="none"
                font-size="45">38</text>
            </g>
          </g>
        </g>
      </g>
      <g
        id="g265"
        transform="translate(763.5,526.05)">
        <g
          id="g263">
          <g
            id="g261"
            transform="rotate(-90)">
            <g
              id="g259">
              <text
                id="text257"
                fill="white"
                y="0"
                x="0"
                stroke-width="0"
                text-anchor="start"
                font-family="OCRA"
                stroke="none"
                font-size="45">8</text>
            </g>
          </g>
        </g>
      </g>
      <g
        id="g275"
        transform="translate(763.5,73.95)">
        <g
          id="g273">
          <g
            id="g271"
            transform="rotate(-90)">
            <g
              id="g269">
              <text
                id="text267"
                fill="white"
                y="0"
                x="0"
                stroke-width="0"
                text-anchor="end"
                font-family="OCRA"
                stroke="none"
                font-size="45">37</text>
            </g>
          </g>
        </g>
      </g>
      <g
        id="g285"
        transform="translate(863.5,526.05)">
        <g
          id="g283">
          <g
            id="g281"
            transform="rotate(-90)">
            <g
              id="g279">
              <text
                id="text277"
                fill="white"
                y="0"
                x="0"
                stroke-width="0"
                text-anchor="start"
                font-family="OCRA"
                stroke="none"
                font-size="45">9</text>
            </g>
          </g>
        </g>
      </g>
      <g
        id="g295"
        transform="translate(863.5,73.95)">
        <g
          id="g293">
          <g
            id="g291"
            transform="rotate(-90)">
            <g
              id="g289">
              <text
                id="text287"
                fill="white"
                y="0"
                x="0"
                stroke-width="0"
                text-anchor="end"
                font-family="OCRA"
                stroke="none"
                font-size="45">36</text>
            </g>
          </g>
        </g>
      </g>
      <g
        id="g305"
        transform="translate(963.5,526.05)">
        <g
          id="g303">
          <g
            id="g301"
            transform="rotate(-90)">
            <g
              id="g299">
              <text
                id="text297"
                fill="white"
                y="0"
                x="0"
                stroke-width="0"
                text-anchor="start"
                font-family="OCRA"
                stroke="none"
                font-size="45">10</text>
            </g>
          </g>
        </g>
      </g>
      <g
        id="g315"
        transform="translate(963.5,73.95)">
        <g
          id="g313">
          <g
            id="g311"
            transform="rotate(-90)">
            <g
              id="g309">
              <text
                id="text307"
                fill="white"
                y="0"
                x="0"
                stroke-width="0"
                text-anchor="end"
                font-family="OCRA"
                stroke="none"
                font-size="45">35</text>
            </g>
          </g>
        </g>
      </g>
      <g
        id="g325"
        transform="translate(1063.5,526.05)">
        <g
          id="g323">
          <g
            id="g321"
            transform="rotate(-90)">
            <g
              id="g319">
              <text
                id="text317"
                fill="white"
                y="0"
                x="0"
                stroke-width="0"
                text-anchor="start"
                font-family="OCRA"
                stroke="none"
                font-size="45">11</text>
            </g>
          </g>
        </g>
      </g>
      <g
        id="g335"
        transform="translate(1063.5,73.95)">
        <g
          id="g333">
          <g
            id="g331"
            transform="rotate(-90)">
            <g
              id="g329">
              <text
                id="text327"
                fill="white"
                y="0"
                x="0"
                stroke-width="0"
                text-anchor="end"
                font-family="OCRA"
                stroke="none"
                font-size="45">34</text>
            </g>
          </g>
        </g>
      </g>
      <g
        id="g345"
        transform="translate(1163.5,526.05)">
        <g
          id="g343">
          <g
            id="g341"
            transform="rotate(-90)">
            <g
              id="g339">
              <text
                id="text337"
                fill="white"
                y="0"
                x="0"
                stroke-width="0"
                text-anchor="start"
                font-family="OCRA"
                stroke="none"
                font-size="45">12</text>
            </g>
          </g>
        </g>
      </g>
      <g
        id="g355"
        transform="translate(1163.5,73.95)">
        <g
          id="g353">
          <g
            id="g351"
            transform="rotate(-90)">
            <g
              id="g349">
              <text
                id="text347"
                fill="white"
                y="0"
                x="0"
                stroke-width="0"
                text-anchor="end"
                font-family="OCRA"
                stroke="none"
                font-size="45">33</text>
            </g>
          </g>
        </g>
      </g>
      <g
        id="g365"
        transform="translate(1263.5,526.05)">
        <g
          id="g363">
          <g
            id="g361"
            transform="rotate(-90)">
            <g
              id="g359">
              <text
                id="text357"
                fill="white"
                y="0"
                x="0"
                stroke-width="0"
                text-anchor="start"
                font-family="OCRA"
                stroke="none"
                font-size="45">13</text>
            </g>
          </g>
        </g>
      </g>
      <g
        id="g375"
        transform="translate(1263.5,73.95)">
        <g
          id="g373">
          <g
            id="g371"
            transform="rotate(-90)">
            <g
              id="g369">
              <text
                id="text367"
                fill="white"
                y="0"
                x="0"
                stroke-width="0"
                text-anchor="end"
                font-family="OCRA"
                stroke="none"
                font-size="45">32</text>
            </g>
          </g>
        </g>
      </g>
      <g
        id="g385"
        transform="translate(1363.5,526.05)">
        <g
          id="g383">
          <g
            id="g381"
            transform="rotate(-90)">
            <g
              id="g379">
              <text
                id="text377"
                fill="white"
                y="0"
                x="0"
                stroke-width="0"
                text-anchor="start"
                font-family="OCRA"
                stroke="none"
                font-size="45">14</text>
            </g>
          </g>
        </g>
      </g>
      <g
        id="g395"
        transform="translate(1363.5,73.95)">
        <g
          id="g393">
          <g
            id="g391"
            transform="rotate(-90)">
            <g
              id="g389">
              <text
                id="text387"
                fill="white"
                y="0"
                x="0"
                stroke-width="0"
                text-anchor="end"
                font-family="OCRA"
                stroke="none"
                font-size="45">31</text>
            </g>
          </g>
        </g>
      </g>
      <g
        id="g405"
        transform="translate(1463.5,526.05)">
        <g
          id="g403">
          <g
            id="g401"
            transform="rotate(-90)">
            <g
              id="g399">
              <text
                id="text397"
                fill="white"
                y="0"
                x="0"
                stroke-width="0"
                text-anchor="start"
                font-family="OCRA"
                stroke="none"
                font-size="45">15</text>
            </g>
          </g>
        </g>
      </g>
      <g
        id="g415"
        transform="translate(1463.5,73.95)">
        <g
          id="g413">
          <g
            id="g411"
            transform="rotate(-90)">
            <g
              id="g409">
              <text
                id="text407"
                fill="white"
                y="0"
                x="0"
                stroke-width="0"
                text-anchor="end"
                font-family="OCRA"
                stroke="none"
                font-size="45">30</text>
            </g>
          </g>
        </g>
      </g>
      <g
        id="g425"
        transform="translate(1563.5,526.05)">
        <g
          id="g423">
          <g
            id="g421"
            transform="rotate(-90)">
            <g
              id="g419">
              <text
                id="text417"
                fill="white"
                y="0"
                x="0"
                stroke-width="0"
                text-anchor="start"
                font-family="OCRA"
                stroke="none"
                font-size="45">16</text>
            </g>
          </g>
        </g>
      </g>
      <g
        id="g435"
        transform="translate(1563.5,73.95)">
        <g
          id="g433">
          <g
            id="g431"
            transform="rotate(-90)">
            <g
              id="g429">
              <text
                id="text427"
                fill="white"
                y="0"
                x="0"
                stroke-width="0"
                text-anchor="end"
                font-family="OCRA"
                stroke="none"
                font-size="45">29</text>
            </g>
          </g>
        </g>
      </g>
      <g
        id="g445"
        transform="translate(1663.5,526.05)">
        <g
          id="g443">
          <g
            id="g441"
            transform="rotate(-90)">
            <g
              id="g439">
              <text
                id="text437"
                fill="white"
                y="0"
                x="0"
                stroke-width="0"
                text-anchor="start"
                font-family="OCRA"
                stroke="none"
                font-size="45">17</text>
            </g>
          </g>
        </g>
      </g>
      <g
        id="g455"
        transform="translate(1663.5,73.95)">
        <g
          id="g453">
          <g
            id="g451"
            transform="rotate(-90)">
            <g
              id="g449">
              <text
                id="text447"
                fill="white"
                y="0"
                x="0"
                stroke-width="0"
                text-anchor="end"
                font-family="OCRA"
                stroke="none"
                font-size="45">28</text>
            </g>
          </g>
        </g>
      </g>
      <g
        id="g465"
        transform="translate(1763.5,526.05)">
        <g
          id="g463">
          <g
            id="g461"
            transform="rotate(-90)">
            <g
              id="g459">
              <text
                id="text457"
                fill="white"
                y="0"
                x="0"
                stroke-width="0"
                text-anchor="start"
                font-family="OCRA"
                stroke="none"
                font-size="45">18</text>
            </g>
          </g>
        </g>
      </g>
      <g
        id="g475"
        transform="translate(1763.5,73.95)">
        <g
          id="g473">
          <g
            id="g471"
            transform="rotate(-90)">
            <g
              id="g469">
              <text
                id="text467"
                fill="white"
                y="0"
                x="0"
                stroke-width="0"
                text-anchor="end"
                font-family="OCRA"
                stroke="none"
                font-size="45">27</text>
            </g>
          </g>
        </g>
      </g>
      <g
        id="g485"
        transform="translate(1863.5,526.05)">
        <g
          id="g483">
          <g
            id="g481"
            transform="rotate(-90)">
            <g
              id="g479">
              <text
                id="text477"
                fill="white"
                y="0"
                x="0"
                stroke-width="0"
                text-anchor="start"
                font-family="OCRA"
                stroke="none"
                font-size="45">19</text>
            </g>
          </g>
        </g>
      </g>
      <g
        id="g495"
        transform="translate(1863.5,73.95)">
        <g
          id="g493">
          <g
            id="g491"
            transform="rotate(-90)">
            <g
              id="g489">
              <text
                id="text487"
                fill="white"
                y="0"
                x="0"
                stroke-width="0"
                text-anchor="end"
                font-family="OCRA"
                stroke="none"
                font-size="45">26</text>
            </g>
          </g>
        </g>
      </g>
      <g
        id="g505"
        transform="translate(1963.5,526.05)">
        <g
          id="g503">
          <g
            id="g501"
            transform="rotate(-90)">
            <g
              id="g499">
              <text
                id="text497"
                fill="white"
                y="0"
                x="0"
                stroke-width="0"
                text-anchor="start"
                font-family="OCRA"
                stroke="none"
                font-size="45">20</text>
            </g>
          </g>
        </g>
      </g>
      <g
        id="g515"
        transform="translate(1963.5,73.95)">
        <g
          id="g513">
          <g
            id="g511"
            transform="rotate(-90)">
            <g
              id="g509">
              <text
                id="text507"
                fill="white"
                y="0"
                x="0"
                stroke-width="0"
                text-anchor="end"
                font-family="OCRA"
                stroke="none"
                font-size="45">25</text>
            </g>
          </g>
        </g>
      </g>
      <g
        id="g525"
        transform="translate(2063.5,526.05)">
        <g
          id="g523">
          <g
            id="g521"
            transform="rotate(-90)">
            <g
              id="g519">
              <text
                id="text517"
                fill="white"
                y="0"
                x="0"
                stroke-width="0"
                text-anchor="start"
                font-family="OCRA"
                stroke="none"
                font-size="45">21</text>
            </g>
          </g>
        </g>
      </g>
      <g
        id="g535"
        transform="translate(2063.5,73.95)">
        <g
          id="g533">
          <g
            id="g531"
            transform="rotate(-90)">
            <g
              id="g529">
              <text
                id="text527"
                fill="white"
                y="0"
                x="0"
                stroke-width="0"
                text-anchor="end"
                font-family="OCRA"
                stroke="none"
                font-size="45">24</text>
            </g>
          </g>
        </g>
      </g>
      <g
        id="g545"
        transform="translate(2163.5,526.05)">
        <g
          id="g543">
          <g
            id="g541"
            transform="rotate(-90)">
            <g
              id="g539">
              <text
                id="text537"
                fill="white"
                y="0"
                x="0"
                stroke-width="0"
                text-anchor="start"
                font-family="OCRA"
                stroke="none"
                font-size="45">22</text>
            </g>
          </g>
        </g>
      </g>
      <g
        id="g555"
        transform="translate(2163.5,73.95)">
        <g
          id="g553">
          <g
            id="g551"
            transform="rotate(-90)">
            <g
              id="g549">
              <text
                id="text547"
                fill="white"
                y="0"
                x="0"
                stroke-width="0"
                text-anchor="end"
                font-family="OCRA"
                stroke="none"
                font-size="45">23</text>
            </g>
          </g>
        </g>
      </g>
    </g>
    <g
      id="g571"
      transform="translate(34.035,534.05)">
      <g
        id="g569">
        <rect
          id="connector0pin"
          height="31.9"
          width="31.93"
          fill="#8D8C8C"
          y="0"
          x="0"
          gorn="0.1.1.0.0"
        />
        <rect
          id="rect559"
          height="16.4152"
          width="16.4442"
          fill="#8C8663"
          y="7.73544"
          x="7.79153"
        />
        <polygon
          id="polygon561"
          fill="#B8AF82"
          points="0,31.9,7.79153,24.1368,7.79153,6.97162,0,0"
        />
        <polygon
          id="polygon563"
          fill="#80795B"
          points="24.2079,7.76321,7.90264,7.76321,0,0,31.93,0"
        />
        <polygon
          id="polygon565"
          fill="#5E5B43"
          points="24.2079,24.1368,24.2079,7.76321,31.93,0,31.93,31.9"
        />
        <polygon
          id="polygon567"
          fill="#9A916C"
          points="0,31.9,7.87486,24.1368,24.2079,24.1368,31.93,31.9"
        />
      </g>
    </g>
    <g
      id="g586"
      transform="translate(34.035,34.05)">
      <g
        id="g584">
        <rect
          id="connector43pin"
          height="31.9"
          width="31.93"
          fill="#8D8C8C"
          y="0"
          x="0"
          gorn="0.1.2.0.0"
        />
        <rect
          id="rect574"
          height="16.4152"
          width="16.4442"
          fill="#8C8663"
          y="7.73544"
          x="7.79153"
        />
        <polygon
          id="polygon576"
          fill="#B8AF82"
          points="0,31.9,7.79153,24.1368,7.79153,6.97162,0,0"
        />
        <polygon
          id="polygon578"
          fill="#80795B"
          points="24.2079,7.76321,7.90264,7.76321,0,0,31.93,0"
        />
        <polygon
          id="polygon580"
          fill="#5E5B43"
          points="24.2079,24.1368,24.2079,7.76321,31.93,0,31.93,31.9"
        />
        <polygon
          id="polygon582"
          fill="#9A916C"
          points="0,31.9,7.87486,24.1368,24.2079,24.1368,31.93,31.9"
        />
      </g>
    </g>
    <g
      id="g601"
      transform="translate(134.035,534.05)">
      <g
        id="g599">
        <rect
          id="connector1pin"
          height="31.9"
          width="31.93"
          fill="#8D8C8C"
          y="0"
          x="0"
          gorn="0.1.3.0.0"
        />
        <rect
          id="rect589"
          height="16.4152"
          width="16.4442"
          fill="#8C8663"
          y="7.73544"
          x="7.79153"
        />
        <polygon
          id="polygon591"
          fill="#B8AF82"
          points="0,31.9,7.79153,24.1368,7.79153,6.97162,0,0"
        />
        <polygon
          id="polygon593"
          fill="#80795B"
          points="24.2079,7.76321,7.90264,7.76321,0,0,31.93,0"
        />
        <polygon
          id="polygon595"
          fill="#5E5B43"
          points="24.2079,24.1368,24.2079,7.76321,31.93,0,31.93,31.9"
        />
        <polygon
          id="polygon597"
          fill="#9A916C"
          points="0,31.9,7.87486,24.1368,24.2079,24.1368,31.93,31.9"
        />
      </g>
    </g>
    <g
      id="g616"
      transform="translate(134.035,34.05)">
      <g
        id="g614">
        <rect
          id="connector42pin"
          height="31.9"
          width="31.93"
          fill="#8D8C8C"
          y="0"
          x="0"
          gorn="0.1.4.0.0"
        />
        <rect
          id="rect604"
          height="16.4152"
          width="16.4442"
          fill="#8C8663"
          y="7.73544"
          x="7.79153"
        />
        <polygon
          id="polygon606"
          fill="#B8AF82"
          points="0,31.9,7.79153,24.1368,7.79153,6.97162,0,0"
        />
        <polygon
          id="polygon608"
          fill="#80795B"
          points="24.2079,7.76321,7.90264,7.76321,0,0,31.93,0"
        />
        <polygon
          id="polygon610"
          fill="#5E5B43"
          points="24.2079,24.1368,24.2079,7.76321,31.93,0,31.93,31.9"
        />
        <polygon
          id="polygon612"
          fill="#9A916C"
          points="0,31.9,7.87486,24.1368,24.2079,24.1368,31.93,31.9"
        />
      </g>
    </g>
    <g
      id="g631"
      transform="translate(234.035,534.05)">
      <g
        id="g629">
        <rect
          id="connector2pin"
          height="31.9"
          width="31.93"
          fill="#8D8C8C"
          y="0"
          x="0"
          gorn="0.1.5.0.0"
        />
        <rect
          id="rect619"
          height="16.4152"
          width="16.4442"
          fill="#8C8663"
          y="7.73544"
          x="7.79153"
        />
        <polygon
          id="polygon621"
          fill="#B8AF82"
          points="0,31.9,7.79153,24.1368,7.79153,6.97162,0,0"
        />
        <polygon
          id="polygon623"
          fill="#80795B"
          points="24.2079,7.76321,7.90264,7.76321,0,0,31.93,0"
        />
        <polygon
          id="polygon625"
          fill="#5E5B43"
          points="24.2079,24.1368,24.2079,7.76321,31.93,0,31.93,31.9"
        />
        <polygon
          id="polygon627"
          fill="#9A916C"
          points="0,31.9,7.87486,24.1368,24.2079,24.1368,31.93,31.9"
        />
      </g>
    </g>
    <g
      id="g646"
      transform="translate(234.035,34.05)">
      <g
        id="g644">
        <rect
          id="connector41pin"
          height="31.9"
          width="31.93"
          fill="#8D8C8C"
          y="0"
          x="0"
          gorn="0.1.6.0.0"
        />
        <rect
          id="rect634"
          height="16.4152"
          width="16.4442"
          fill="#8C8663"
          y="7.73544"
          x="7.79153"
        />
        <polygon
          id="polygon636"
          fill="#B8AF82"
          points="0,31.9,7.79153,24.1368,7.79153,6.97162,0,0"
        />
        <polygon
          id="polygon638"
          fill="#80795B"
          points="24.2079,7.76321,7.90264,7.76321,0,0,31.93,0"
        />
        <polygon
          id="polygon640"
          fill="#5E5B43"
          points="24.2079,24.1368,24.2079,7.76321,31.93,0,31.93,31.9"
        />
        <polygon
          id="polygon642"
          fill="#9A916C"
          points="0,31.9,7.87486,24.1368,24.2079,24.1368,31.93,31.9"
        />
      </g>
    </g>
    <g
      id="g661"
      transform="translate(334.035,534.05)">
      <g
        id="g659">
        <rect
          id="connector3pin"
          height="31.9"
          width="31.93"
          fill="#8D8C8C"
          y="0"
          x="0"
          gorn="0.1.7.0.0"
        />
        <rect
          id="rect649"
          height="16.4152"
          width="16.4442"
          fill="#8C8663"
          y="7.73544"
          x="7.79153"
        />
        <polygon
          id="polygon651"
          fill="#B8AF82"
          points="0,31.9,7.79153,24.1368,7.79153,6.97162,0,0"
        />
        <polygon
          id="polygon653"
          fill="#80795B"
          points="24.2079,7.76321,7.90264,7.76321,0,0,31.93,0"
        />
        <polygon
          id="polygon655"
          fill="#5E5B43"
          points="24.2079,24.1368,24.2079,7.76321,31.93,0,31.93,31.9"
        />
        <polygon
          id="polygon657"
          fill="#9A916C"
          points="0,31.9,7.87486,24.1368,24.2079,24.1368,31.93,31.9"
        />
      </g>
    </g>
    <g
      id="g676"
      transform="translate(334.035,34.05)">
      <g
        id="g674">
        <rect
          id="connector40pin"
          height="31.9"
          width="31.93"
          fill="#8D8C8C"
          y="0"
          x="0"
          gorn="0.1.8.0.0"
        />
        <rect
          id="rect664"
          height="16.4152"
          width="16.4442"
          fill="#8C8663"
          y="7.73544"
          x="7.79153"
        />
        <polygon
          id="polygon666"
          fill="#B8AF82"
          points="0,31.9,7.79153,24.1368,7.79153,6.97162,0,0"
        />
        <polygon
          id="polygon668"
          fill="#80795B"
          points="24.2079,7.76321,7.90264,7.76321,0,0,31.93,0"
        />
        <polygon
          id="polygon670"
          fill="#5E5B43"
          points="24.2079,24.1368,24.2079,7.76321,31.93,0,31.93,31.9"
        />
        <polygon
          id="polygon672"
          fill="#9A916C"
          points="0,31.9,7.87486,24.1368,24.2079,24.1368,31.93,31.9"
        />
      </g>
    </g>
    <g
      id="g691"
      transform="translate(434.035,534.05)">
      <g
        id="g689">
        <rect
          id="connector4pin"
          height="31.9"
          width="31.93"
          fill="#8D8C8C"
          y="0"
          x="0"
          gorn="0.1.9.0.0"
        />
        <rect
          id="rect679"
          height="16.4152"
          width="16.4442"
          fill="#8C8663"
          y="7.73544"
          x="7.79153"
        />
        <polygon
          id="polygon681"
          fill="#B8AF82"
          points="0,31.9,7.79153,24.1368,7.79153,6.97162,0,0"
        />
        <polygon
          id="polygon683"
          fill="#80795B"
          points="24.2079,7.76321,7.90264,7.76321,0,0,31.93,0"
        />
        <polygon
          id="polygon685"
          fill="#5E5B43"
          points="24.2079,24.1368,24.2079,7.76321,31.93,0,31.93,31.9"
        />
        <polygon
          id="polygon687"
          fill="#9A916C"
          points="0,31.9,7.87486,24.1368,24.2079,24.1368,31.93,31.9"
        />
      </g>
    </g>
    <g
      id="g706"
      transform="translate(434.035,34.05)">
      <g
        id="g704">
        <rect
          id="connector39pin"
          height="31.9"
          width="31.93"
          fill="#8D8C8C"
          y="0"
          x="0"
          gorn="0.1.10.0.0"
        />
        <rect
          id="rect694"
          height="16.4152"
          width="16.4442"
          fill="#8C8663"
          y="7.73544"
          x="7.79153"
        />
        <polygon
          id="polygon696"
          fill="#B8AF82"
          points="0,31.9,7.79153,24.1368,7.79153,6.97162,0,0"
        />
        <polygon
          id="polygon698"
          fill="#80795B"
          points="24.2079,7.76321,7.90264,7.76321,0,0,31.93,0"
        />
        <polygon
          id="polygon700"
          fill="#5E5B43"
          points="24.2079,24.1368,24.2079,7.76321,31.93,0,31.93,31.9"
        />
        <polygon
          id="polygon702"
          fill="#9A916C"
          points="0,31.9,7.87486,24.1368,24.2079,24.1368,31.93,31.9"
        />
      </g>
    </g>
    <g
      id="g721"
      transform="translate(534.035,534.05)">
      <g
        id="g719">
        <rect
          id="connector5pin"
          height="31.9"
          width="31.93"
          fill="#8D8C8C"
          y="0"
          x="0"
          gorn="0.1.11.0.0"
        />
        <rect
          id="rect709"
          height="16.4152"
          width="16.4442"
          fill="#8C8663"
          y="7.73544"
          x="7.79153"
        />
        <polygon
          id="polygon711"
          fill="#B8AF82"
          points="0,31.9,7.79153,24.1368,7.79153,6.97162,0,0"
        />
        <polygon
          id="polygon713"
          fill="#80795B"
          points="24.2079,7.76321,7.90264,7.76321,0,0,31.93,0"
        />
        <polygon
          id="polygon715"
          fill="#5E5B43"
          points="24.2079,24.1368,24.2079,7.76321,31.93,0,31.93,31.9"
        />
        <polygon
          id="polygon717"
          fill="#9A916C"
          points="0,31.9,7.87486,24.1368,24.2079,24.1368,31.93,31.9"
        />
      </g>
    </g>
    <g
      id="g736"
      transform="translate(534.035,34.05)">
      <g
        id="g734">
        <rect
          id="connector38pin"
          height="31.9"
          width="31.93"
          fill="#8D8C8C"
          y="0"
          x="0"
          gorn="0.1.12.0.0"
        />
        <rect
          id="rect724"
          height="16.4152"
          width="16.4442"
          fill="#8C8663"
          y="7.73544"
          x="7.79153"
        />
        <polygon
          id="polygon726"
          fill="#B8AF82"
          points="0,31.9,7.79153,24.1368,7.79153,6.97162,0,0"
        />
        <polygon
          id="polygon728"
          fill="#80795B"
          points="24.2079,7.76321,7.90264,7.76321,0,0,31.93,0"
        />
        <polygon
          id="polygon730"
          fill="#5E5B43"
          points="24.2079,24.1368,24.2079,7.76321,31.93,0,31.93,31.9"
        />
        <polygon
          id="polygon732"
          fill="#9A916C"
          points="0,31.9,7.87486,24.1368,24.2079,24.1368,31.93,31.9"
        />
      </g>
    </g>
    <g
      id="g751"
      transform="translate(634.035,534.05)">
      <g
        id="g749">
        <rect
          id="connector6pin"
          height="31.9"
          width="31.93"
          fill="#8D8C8C"
          y="0"
          x="0"
          gorn="0.1.13.0.0"
        />
        <rect
          id="rect739"
          height="16.4152"
          width="16.4442"
          fill="#8C8663"
          y="7.73544"
          x="7.79153"
        />
        <polygon
          id="polygon741"
          fill="#B8AF82"
          points="0,31.9,7.79153,24.1368,7.79153,6.97162,0,0"
        />
        <polygon
          id="polygon743"
          fill="#80795B"
          points="24.2079,7.76321,7.90264,7.76321,0,0,31.93,0"
        />
        <polygon
          id="polygon745"
          fill="#5E5B43"
          points="24.2079,24.1368,24.2079,7.76321,31.93,0,31.93,31.9"
        />
        <polygon
          id="polygon747"
          fill="#9A916C"
          points="0,31.9,7.87486,24.1368,24.2079,24.1368,31.93,31.9"
        />
      </g>
    </g>
    <g
      id="g766"
      transform="translate(634.035,34.05)">
      <g
        id="g764">
        <rect
          id="connector37pin"
          height="31.9"
          width="31.93"
          fill="#8D8C8C"
          y="0"
          x="0"
          gorn="0.1.14.0.0"
        />
        <rect
          id="rect754"
          height="16.4152"
          width="16.4442"
          fill="#8C8663"
          y="7.73544"
          x="7.79153"
        />
        <polygon
          id="polygon756"
          fill="#B8AF82"
          points="0,31.9,7.79153,24.1368,7.79153,6.97162,0,0"
        />
        <polygon
          id="polygon758"
          fill="#80795B"
          points="24.2079,7.76321,7.90264,7.76321,0,0,31.93,0"
        />
        <polygon
          id="polygon760"
          fill="#5E5B43"
          points="24.2079,24.1368,24.2079,7.76321,31.93,0,31.93,31.9"
        />
        <polygon
          id="polygon762"
          fill="#9A916C"
          points="0,31.9,7.87486,24.1368,24.2079,24.1368,31.93,31.9"
        />
      </g>
    </g>
    <g
      id="g781"
      transform="translate(734.035,534.05)">
      <g
        id="g779">
        <rect
          id="connector7pin"
          height="31.9"
          width="31.93"
          fill="#8D8C8C"
          y="0"
          x="0"
          gorn="0.1.15.0.0"
        />
        <rect
          id="rect769"
          height="16.4152"
          width="16.4442"
          fill="#8C8663"
          y="7.73544"
          x="7.79153"
        />
        <polygon
          id="polygon771"
          fill="#B8AF82"
          points="0,31.9,7.79153,24.1368,7.79153,6.97162,0,0"
        />
        <polygon
          id="polygon773"
          fill="#80795B"
          points="24.2079,7.76321,7.90264,7.76321,0,0,31.93,0"
        />
        <polygon
          id="polygon775"
          fill="#5E5B43"
          points="24.2079,24.1368,24.2079,7.76321,31.93,0,31.93,31.9"
        />
        <polygon
          id="polygon777"
          fill="#9A916C"
          points="0,31.9,7.87486,24.1368,24.2079,24.1368,31.93,31.9"
        />
      </g>
    </g>
    <g
      id="g796"
      transform="translate(734.035,34.05)">
      <g
        id="g794">
        <rect
          id="connector36pin"
          height="31.9"
          width="31.93"
          fill="#8D8C8C"
          y="0"
          x="0"
          gorn="0.1.16.0.0"
        />
        <rect
          id="rect784"
          height="16.4152"
          width="16.4442"
          fill="#8C8663"
          y="7.73544"
          x="7.79153"
        />
        <polygon
          id="polygon786"
          fill="#B8AF82"
          points="0,31.9,7.79153,24.1368,7.79153,6.97162,0,0"
        />
        <polygon
          id="polygon788"
          fill="#80795B"
          points="24.2079,7.76321,7.90264,7.76321,0,0,31.93,0"
        />
        <polygon
          id="polygon790"
          fill="#5E5B43"
          points="24.2079,24.1368,24.2079,7.76321,31.93,0,31.93,31.9"
        />
        <polygon
          id="polygon792"
          fill="#9A916C"
          points="0,31.9,7.87486,24.1368,24.2079,24.1368,31.93,31.9"
        />
      </g>
    </g>
    <g
      id="g811"
      transform="translate(834.035,534.05)">
      <g
        id="g809">
        <rect
          id="connector8pin"
          height="31.9"
          width="31.93"
          fill="#8D8C8C"
          y="0"
          x="0"
          gorn="0.1.17.0.0"
        />
        <rect
          id="rect799"
          height="16.4152"
          width="16.4442"
          fill="#8C8663"
          y="7.73544"
          x="7.79153"
        />
        <polygon
          id="polygon801"
          fill="#B8AF82"
          points="0,31.9,7.79153,24.1368,7.79153,6.97162,0,0"
        />
        <polygon
          id="polygon803"
          fill="#80795B"
          points="24.2079,7.76321,7.90264,7.76321,0,0,31.93,0"
        />
        <polygon
          id="polygon805"
          fill="#5E5B43"
          points="24.2079,24.1368,24.2079,7.76321,31.93,0,31.93,31.9"
        />
        <polygon
          id="polygon807"
          fill="#9A916C"
          points="0,31.9,7.87486,24.1368,24.2079,24.1368,31.93,31.9"
        />
      </g>
    </g>
    <g
      id="g826"
      transform="translate(834.035,34.05)">
      <g
        id="g824">
        <rect
          id="connector35pin"
          height="31.9"
          width="31.93"
          fill="#8D8C8C"
          y="0"
          x="0"
          gorn="0.1.18.0.0"
        />
        <rect
          id="rect814"
          height="16.4152"
          width="16.4442"
          fill="#8C8663"
          y="7.73544"
          x="7.79153"
        />
        <polygon
          id="polygon816"
          fill="#B8AF82"
          points="0,31.9,7.79153,24.1368,7.79153,6.97162,0,0"
        />
        <polygon
          id="polygon818"
          fill="#80795B"
          points="24.2079,7.76321,7.90264,7.76321,0,0,31.93,0"
        />
        <polygon
          id="polygon820"
          fill="#5E5B43"
          points="24.2079,24.1368,24.2079,7.76321,31.93,0,31.93,31.9"
        />
        <polygon
          id="polygon822"
          fill="#9A916C"
          points="0,31.9,7.87486,24.1368,24.2079,24.1368,31.93,31.9"
        />
      </g>
    </g>
    <g
      id="g841"
      transform="translate(934.035,534.05)">
      <g
        id="g839">
        <rect
          id="connector9pin"
          height="31.9"
          width="31.93"
          fill="#8D8C8C"
          y="0"
          x="0"
          gorn="0.1.19.0.0"
        />
        <rect
          id="rect829"
          height="16.4152"
          width="16.4442"
          fill="#8C8663"
          y="7.73544"
          x="7.79153"
        />
        <polygon
          id="polygon831"
          fill="#B8AF82"
          points="0,31.9,7.79153,24.1368,7.79153,6.97162,0,0"
        />
        <polygon
          id="polygon833"
          fill="#80795B"
          points="24.2079,7.76321,7.90264,7.76321,0,0,31.93,0"
        />
        <polygon
          id="polygon835"
          fill="#5E5B43"
          points="24.2079,24.1368,24.2079,7.76321,31.93,0,31.93,31.9"
        />
        <polygon
          id="polygon837"
          fill="#9A916C"
          points="0,31.9,7.87486,24.1368,24.2079,24.1368,31.93,31.9"
        />
      </g>
    </g>
    <g
      id="g856"
      transform="translate(934.035,34.05)">
      <g
        id="g854">
        <rect
          id="connector34pin"
          height="31.9"
          width="31.93"
          fill="#8D8C8C"
          y="0"
          x="0"
          gorn="0.1.20.0.0"
        />
        <rect
          id="rect844"
          height="16.4152"
          width="16.4442"
          fill="#8C8663"
          y="7.73544"
          x="7.79153"
        />
        <polygon
          id="polygon846"
          fill="#B8AF82"
          points="0,31.9,7.79153,24.1368,7.79153,6.97162,0,0"
        />
        <polygon
          id="polygon848"
          fill="#80795B"
          points="24.2079,7.76321,7.90264,7.76321,0,0,31.93,0"
        />
        <polygon
          id="polygon850"
          fill="#5E5B43"
          points="24.2079,24.1368,24.2079,7.76321,31.93,0,31.93,31.9"
        />
        <polygon
          id="polygon852"
          fill="#9A916C"
          points="0,31.9,7.87486,24.1368,24.2079,24.1368,31.93,31.9"
        />
      </g>
    </g>
    <g
      id="g871"
      transform="translate(1034.04,534.05)">
      <g
        id="g869">
        <rect
          id="connector10pin"
          height="31.9"
          width="31.93"
          fill="#8D8C8C"
          y="0"
          x="0"
          gorn="0.1.21.0.0"
        />
        <rect
          id="rect859"
          height="16.4152"
          width="16.4442"
          fill="#8C8663"
          y="7.73544"
          x="7.79153"
        />
        <polygon
          id="polygon861"
          fill="#B8AF82"
          points="0,31.9,7.79153,24.1368,7.79153,6.97162,0,0"
        />
        <polygon
          id="polygon863"
          fill="#80795B"
          points="24.2079,7.76321,7.90264,7.76321,0,0,31.93,0"
        />
        <polygon
          id="polygon865"
          fill="#5E5B43"
          points="24.2079,24.1368,24.2079,7.76321,31.93,0,31.93,31.9"
        />
        <polygon
          id="polygon867"
          fill="#9A916C"
          points="0,31.9,7.87486,24.1368,24.2079,24.1368,31.93,31.9"
        />
      </g>
    </g>
    <g
      id="g886"
      transform="translate(1034.04,34.05)">
      <g
        id="g884">
        <rect
          id="connector33pin"
          height="31.9"
          width="31.93"
          fill="#8D8C8C"
          y="0"
          x="0"
          gorn="0.1.22.0.0"
        />
        <rect
          id="rect874"
          height="16.4152"
          width="16.4442"
          fill="#8C8663"
          y="7.73544"
          x="7.79153"
        />
        <polygon
          id="polygon876"
          fill="#B8AF82"
          points="0,31.9,7.79153,24.1368,7.79153,6.97162,0,0"
        />
        <polygon
          id="polygon878"
          fill="#80795B"
          points="24.2079,7.76321,7.90264,7.76321,0,0,31.93,0"
        />
        <polygon
          id="polygon880"
          fill="#5E5B43"
          points="24.2079,24.1368,24.2079,7.76321,31.93,0,31.93,31.9"
        />
        <polygon
          id="polygon882"
          fill="#9A916C"
          points="0,31.9,7.87486,24.1368,24.2079,24.1368,31.93,31.9"
        />
      </g>
    </g>
    <g
      id="g901"
      transform="translate(1134.04,534.05)">
      <g
        id="g899">
        <rect
          id="connector11pin"
          height="31.9"
          width="31.93"
          fill="#8D8C8C"
          y="0"
          x="0"
          gorn="0.1.23.0.0"
        />
        <rect
          id="rect889"
          height="16.4152"
          width="16.4442"
          fill="#8C8663"
          y="7.73544"
          x="7.79153"
        />
        <polygon
          id="polygon891"
          fill="#B8AF82"
          points="0,31.9,7.79153,24.1368,7.79153,6.97162,0,0"
        />
        <polygon
          id="polygon893"
          fill="#80795B"
          points="24.2079,7.76321,7.90264,7.76321,0,0,31.93,0"
        />
        <polygon
          id="polygon895"
          fill="#5E5B43"
          points="24.2079,24.1368,24.2079,7.76321,31.93,0,31.93,31.9"
        />
        <polygon
          id="polygon897"
          fill="#9A916C"
          points="0,31.9,7.87486,24.1368,24.2079,24.1368,31.93,31.9"
        />
      </g>
    </g>
    <g
      id="g916"
      transform="translate(1134.04,34.05)">
      <g
        id="g914">
        <rect
          id="connector32pin"
          height="31.9"
          width="31.93"
          fill="#8D8C8C"
          y="0"
          x="0"
          gorn="0.1.24.0.0"
        />
        <rect
          id="rect904"
          height="16.4152"
          width="16.4442"
          fill="#8C8663"
          y="7.73544"
          x="7.79153"
        />
        <polygon
          id="polygon906"
          fill="#B8AF82"
          points="0,31.9,7.79153,24.1368,7.79153,6.97162,0,0"
        />
        <polygon
          id="polygon908"
          fill="#80795B"
          points="24.2079,7.76321,7.90264,7.76321,0,0,31.93,0"
        />
        <polygon
          id="polygon910"
          fill="#5E5B43"
          points="24.2079,24.1368,24.2079,7.76321,31.93,0,31.93,31.9"
        />
        <polygon
          id="polygon912"
          fill="#9A916C"
          points="0,31.9,7.87486,24.1368,24.2079,24.1368,31.93,31.9"
        />
      </g>
    </g>
    <g
      id="g931"
      transform="translate(1234.04,534.05)">
      <g
        id="g929">
        <rect
          id="connector12pin"
          height="31.9"
          width="31.93"
          fill="#8D8C8C"
          y="0"
          x="0"
          gorn="0.1.25.0.0"
        />
        <rect
          id="rect919"
          height="16.4152"
          width="16.4442"
          fill="#8C8663"
          y="7.73544"
          x="7.79153"
        />
        <polygon
          id="polygon921"
          fill="#B8AF82"
          points="0,31.9,7.79153,24.1368,7.79153,6.97162,0,0"
        />
        <polygon
          id="polygon923"
          fill="#80795B"
          points="24.2079,7.76321,7.90264,7.76321,0,0,31.93,0"
        />
        <polygon
          id="polygon925"
          fill="#5E5B43"
          points="24.2079,24.1368,24.2079,7.76321,31.93,0,31.93,31.9"
        />
        <polygon
          id="polygon927"
          fill="#9A916C"
          points="0,31.9,7.87486,24.1368,24.2079,24.1368,31.93,31.9"
        />
      </g>
    </g>
    <g
      id="g946"
      transform="translate(1234.04,34.05)">
      <g
        id="g944">
        <rect
          id="connector31pin"
          height="31.9"
          width="31.93"
          fill="#8D8C8C"
          y="0"
          x="0"
          gorn="0.1.26.0.0"
        />
        <rect
          id="rect934"
          height="16.4152"
          width="16.4442"
          fill="#8C8663"
          y="7.73544"
          x="7.79153"
        />
        <polygon
          id="polygon936"
          fill="#B8AF82"
          points="0,31.9,7.79153,24.1368,7.79153,6.97162,0,0"
        />
        <polygon
          id="polygon938"
          fill="#80795B"
          points="24.2079,7.76321,7.90264,7.76321,0,0,31.93,0"
        />
        <polygon
          id="polygon940"
          fill="#5E5B43"
          points="24.2079,24.1368,24.2079,7.76321,31.93,0,31.93,31.9"
        />
        <polygon
          id="polygon942"
          fill="#9A916C"
          points="0,31.9,7.87486,24.1368,24.2079,24.1368,31.93,31.9"
        />
      </g>
    </g>
    <g
      id="g961"
      transform="translate(1334.04,534.05)">
      <g
        id="g959">
        <rect
          id="connector13pin"
          height="31.9"
          width="31.93"
          fill="#8D8C8C"
          y="0"
          x="0"
          gorn="0.1.27.0.0"
        />
        <rect
          id="rect949"
          height="16.4152"
          width="16.4442"
          fill="#8C8663"
          y="7.73544"
          x="7.79153"
        />
        <polygon
          id="polygon951"
          fill="#B8AF82"
          points="0,31.9,7.79153,24.1368,7.79153,6.97162,0,0"
        />
        <polygon
          id="polygon953"
          fill="#80795B"
          points="24.2079,7.76321,7.90264,7.76321,0,0,31.93,0"
        />
        <polygon
          id="polygon955"
          fill="#5E5B43"
          points="24.2079,24.1368,24.2079,7.76321,31.93,0,31.93,31.9"
        />
        <polygon
          id="polygon957"
          fill="#9A916C"
          points="0,31.9,7.87486,24.1368,24.2079,24.1368,31.93,31.9"
        />
      </g>
    </g>
    <g
      id="g976"
      transform="translate(1334.04,34.05)">
      <g
        id="g974">
        <rect
          id="connector30pin"
          height="31.9"
          width="31.93"
          fill="#8D8C8C"
          y="0"
          x="0"
          gorn="0.1.28.0.0"
        />
        <rect
          id="rect964"
          height="16.4152"
          width="16.4442"
          fill="#8C8663"
          y="7.73544"
          x="7.79153"
        />
        <polygon
          id="polygon966"
          fill="#B8AF82"
          points="0,31.9,7.79153,24.1368,7.79153,6.97162,0,0"
        />
        <polygon
          id="polygon968"
          fill="#80795B"
          points="24.2079,7.76321,7.90264,7.76321,0,0,31.93,0"
        />
        <polygon
          id="polygon970"
          fill="#5E5B43"
          points="24.2079,24.1368,24.2079,7.76321,31.93,0,31.93,31.9"
        />
        <polygon
          id="polygon972"
          fill="#9A916C"
          points="0,31.9,7.87486,24.1368,24.2079,24.1368,31.93,31.9"
        />
      </g>
    </g>
    <g
      id="g991"
      transform="translate(1434.04,534.05)">
      <g
        id="g989">
        <rect
          id="connector14pin"
          height="31.9"
          width="31.93"
          fill="#8D8C8C"
          y="0"
          x="0"
          gorn="0.1.29.0.0"
        />
        <rect
          id="rect979"
          height="16.4152"
          width="16.4442"
          fill="#8C8663"
          y="7.73544"
          x="7.79153"
        />
        <polygon
          id="polygon981"
          fill="#B8AF82"
          points="0,31.9,7.79153,24.1368,7.79153,6.97162,0,0"
        />
        <polygon
          id="polygon983"
          fill="#80795B"
          points="24.2079,7.76321,7.90264,7.76321,0,0,31.93,0"
        />
        <polygon
          id="polygon985"
          fill="#5E5B43"
          points="24.2079,24.1368,24.2079,7.76321,31.93,0,31.93,31.9"
        />
        <polygon
          id="polygon987"
          fill="#9A916C"
          points="0,31.9,7.87486,24.1368,24.2079,24.1368,31.93,31.9"
        />
      </g>
    </g>
    <g
      id="g1006"
      transform="translate(1434.04,34.05)">
      <g
        id="g1004">
        <rect
          id="connector29pin"
          height="31.9"
          width="31.93"
          fill="#8D8C8C"
          y="0"
          x="0"
          gorn="0.1.30.0.0"
        />
        <rect
          id="rect994"
          height="16.4152"
          width="16.4442"
          fill="#8C8663"
          y="7.73544"
          x="7.79153"
        />
        <polygon
          id="polygon996"
          fill="#B8AF82"
          points="0,31.9,7.79153,24.1368,7.79153,6.97162,0,0"
        />
        <polygon
          id="polygon998"
          fill="#80795B"
          points="24.2079,7.76321,7.90264,7.76321,0,0,31.93,0"
        />
        <polygon
          id="polygon1000"
          fill="#5E5B43"
          points="24.2079,24.1368,24.2079,7.76321,31.93,0,31.93,31.9"
        />
        <polygon
          id="polygon1002"
          fill="#9A916C"
          points="0,31.9,7.87486,24.1368,24.2079,24.1368,31.93,31.9"
        />
      </g>
    </g>
    <g
      id="g1021"
      transform="translate(1534.04,534.05)">
      <g
        id="g1019">
        <rect
          id="connector15pin"
          height="31.9"
          width="31.93"
          fill="#8D8C8C"
          y="0"
          x="0"
          gorn="0.1.31.0.0"
        />
        <rect
          id="rect1009"
          height="16.4152"
          width="16.4442"
          fill="#8C8663"
          y="7.73544"
          x="7.79153"
        />
        <polygon
          id="polygon1011"
          fill="#B8AF82"
          points="0,31.9,7.79153,24.1368,7.79153,6.97162,0,0"
        />
        <polygon
          id="polygon1013"
          fill="#80795B"
          points="24.2079,7.76321,7.90264,7.76321,0,0,31.93,0"
        />
        <polygon
          id="polygon1015"
          fill="#5E5B43"
          points="24.2079,24.1368,24.2079,7.76321,31.93,0,31.93,31.9"
        />
        <polygon
          id="polygon1017"
          fill="#9A916C"
          points="0,31.9,7.87486,24.1368,24.2079,24.1368,31.93,31.9"
        />
      </g>
    </g>
    <g
      id="g1036"
      transform="translate(1534.04,34.05)">
      <g
        id="g1034">
        <rect
          id="connector28pin"
          height="31.9"
          width="31.93"
          fill="#8D8C8C"
          y="0"
          x="0"
          gorn="0.1.32.0.0"
        />
        <rect
          id="rect1024"
          height="16.4152"
          width="16.4442"
          fill="#8C8663"
          y="7.73544"
          x="7.79153"
        />
        <polygon
          id="polygon1026"
          fill="#B8AF82"
          points="0,31.9,7.79153,24.1368,7.79153,6.97162,0,0"
        />
        <polygon
          id="polygon1028"
          fill="#80795B"
          points="24.2079,7.76321,7.90264,7.76321,0,0,31.93,0"
        />
        <polygon
          id="polygon1030"
          fill="#5E5B43"
          points="24.2079,24.1368,24.2079,7.76321,31.93,0,31.93,31.9"
        />
        <polygon
          id="polygon1032"
          fill="#9A916C"
          points="0,31.9,7.87486,24.1368,24.2079,24.1368,31.93,31.9"
        />
      </g>
    </g>
    <g
      id="g1051"
      transform="translate(1634.04,534.05)">
      <g
        id="g1049">
        <rect
          id="connector16pin"
          height="31.9"
          width="31.93"
          fill="#8D8C8C"
          y="0"
          x="0"
          gorn="0.1.33.0.0"
        />
        <rect
          id="rect1039"
          height="16.4152"
          width="16.4442"
          fill="#8C8663"
          y="7.73544"
          x="7.79153"
        />
        <polygon
          id="polygon1041"
          fill="#B8AF82"
          points="0,31.9,7.79153,24.1368,7.79153,6.97162,0,0"
        />
        <polygon
          id="polygon1043"
          fill="#80795B"
          points="24.2079,7.76321,7.90264,7.76321,0,0,31.93,0"
        />
        <polygon
          id="polygon1045"
          fill="#5E5B43"
          points="24.2079,24.1368,24.2079,7.76321,31.93,0,31.93,31.9"
        />
        <polygon
          id="polygon1047"
          fill="#9A916C"
          points="0,31.9,7.87486,24.1368,24.2079,24.1368,31.93,31.9"
        />
      </g>
    </g>
    <g
      id="g1066"
      transform="translate(1634.04,34.05)">
      <g
        id="g1064">
        <rect
          id="connector27pin"
          height="31.9"
          width="31.93"
          fill="#8D8C8C"
          y="0"
          x="0"
          gorn="0.1.34.0.0"
        />
        <rect
          id="rect1054"
          height="16.4152"
          width="16.4442"
          fill="#8C8663"
          y="7.73544"
          x="7.79153"
        />
        <polygon
          id="polygon1056"
          fill="#B8AF82"
          points="0,31.9,7.79153,24.1368,7.79153,6.97162,0,0"
        />
        <polygon
          id="polygon1058"
          fill="#80795B"
          points="24.2079,7.76321,7.90264,7.76321,0,0,31.93,0"
        />
        <polygon
          id="polygon1060"
          fill="#5E5B43"
          points="24.2079,24.1368,24.2079,7.76321,31.93,0,31.93,31.9"
        />
        <polygon
          id="polygon1062"
          fill="#9A916C"
          points="0,31.9,7.87486,24.1368,24.2079,24.1368,31.93,31.9"
        />
      </g>
    </g>
    <g
      id="g1081"
      transform="translate(1734.04,534.05)">
      <g
        id="g1079">
        <rect
          id="connector17pin"
          height="31.9"
          width="31.93"
          fill="#8D8C8C"
          y="0"
          x="0"
          gorn="0.1.35.0.0"
        />
        <rect
          id="rect1069"
          height="16.4152"
          width="16.4442"
          fill="#8C8663"
          y="7.73544"
          x="7.79153"
        />
        <polygon
          id="polygon1071"
          fill="#B8AF82"
          points="0,31.9,7.79153,24.1368,7.79153,6.97162,0,0"
        />
        <polygon
          id="polygon1073"
          fill="#80795B"
          points="24.2079,7.76321,7.90264,7.76321,0,0,31.93,0"
        />
        <polygon
          id="polygon1075"
          fill="#5E5B43"
          points="24.2079,24.1368,24.2079,7.76321,31.93,0,31.93,31.9"
        />
        <polygon
          id="polygon1077"
          fill="#9A916C"
          points="0,31.9,7.87486,24.1368,24.2079,24.1368,31.93,31.9"
        />
      </g>
    </g>
    <g
      id="g1096"
      transform="translate(1734.04,34.05)">
      <g
        id="g1094">
        <rect
          id="connector26pin"
          height="31.9"
          width="31.93"
          fill="#8D8C8C"
          y="0"
          x="0"
          gorn="0.1.36.0.0"
        />
        <rect
          id="rect1084"
          height="16.4152"
          width="16.4442"
          fill="#8C8663"
          y="7.73544"
          x="7.79153"
        />
        <polygon
          id="polygon1086"
          fill="#B8AF82"
          points="0,31.9,7.79153,24.1368,7.79153,6.97162,0,0"
        />
        <polygon
          id="polygon1088"
          fill="#80795B"
          points="24.2079,7.76321,7.90264,7.76321,0,0,31.93,0"
        />
        <polygon
          id="polygon1090"
          fill="#5E5B43"
          points="24.2079,24.1368,24.2079,7.76321,31.93,0,31.93,31.9"
        />
        <polygon
          id="polygon1092"
          fill="#9A916C"
          points="0,31.9,7.87486,24.1368,24.2079,24.1368,31.93,31.9"
        />
      </g>
    </g>
    <g
      id="g1111"
      transform="translate(1834.04,534.05)">
      <g
        id="g1109">
        <rect
          id="connector18pin"
          height="31.9"
          width="31.93"
          fill="#8D8C8C"
          y="0"
          x="0"
          gorn="0.1.37.0.0"
        />
        <rect
          id="rect1099"
          height="16.4152"
          width="16.4442"
          fill="#8C8663"
          y="7.73544"
          x="7.79153"
        />
        <polygon
          id="polygon1101"
          fill="#B8AF82"
          points="0,31.9,7.79153,24.1368,7.79153,6.97162,0,0"
        />
        <polygon
          id="polygon1103"
          fill="#80795B"
          points="24.2079,7.76321,7.90264,7.76321,0,0,31.93,0"
        />
        <polygon
          id="polygon1105"
          fill="#5E5B43"
          points="24.2079,24.1368,24.2079,7.76321,31.93,0,31.93,31.9"
        />
        <polygon
          id="polygon1107"
          fill="#9A916C"
          points="0,31.9,7.87486,24.1368,24.2079,24.1368,31.93,31.9"
        />
      </g>
    </g>
    <g
      id="g1126"
      transform="translate(1834.04,34.05)">
      <g
        id="g1124">
        <rect
          id="connector25pin"
          height="31.9"
          width="31.93"
          fill="#8D8C8C"
          y="0"
          x="0"
          gorn="0.1.38.0.0"
        />
        <rect
          id="rect1114"
          height="16.4152"
          width="16.4442"
          fill="#8C8663"
          y="7.73544"
          x="7.79153"
        />
        <polygon
          id="polygon1116"
          fill="#B8AF82"
          points="0,31.9,7.79153,24.1368,7.79153,6.97162,0,0"
        />
        <polygon
          id="polygon1118"
          fill="#80795B"
          points="24.2079,7.76321,7.90264,7.76321,0,0,31.93,0"
        />
        <polygon
          id="polygon1120"
          fill="#5E5B43"
          points="24.2079,24.1368,24.2079,7.76321,31.93,0,31.93,31.9"
        />
        <polygon
          id="polygon1122"
          fill="#9A916C"
          points="0,31.9,7.87486,24.1368,24.2079,24.1368,31.93,31.9"
        />
      </g>
    </g>
    <g
      id="g1141"
      transform="translate(1934.04,534.05)">
      <g
        id="g1139">
        <rect
          id="connector19pin"
          height="31.9"
          width="31.93"
          fill="#8D8C8C"
          y="0"
          x="0"
          gorn="0.1.39.0.0"
        />
        <rect
          id="rect1129"
          height="16.4152"
          width="16.4442"
          fill="#8C8663"
          y="7.73544"
          x="7.79153"
        />
        <polygon
          id="polygon1131"
          fill="#B8AF82"
          points="0,31.9,7.79153,24.1368,7.79153,6.97162,0,0"
        />
        <polygon
          id="polygon1133"
          fill="#80795B"
          points="24.2079,7.76321,7.90264,7.76321,0,0,31.93,0"
        />
        <polygon
          id="polygon1135"
          fill="#5E5B43"
          points="24.2079,24.1368,24.2079,7.76321,31.93,0,31.93,31.9"
        />
        <polygon
          id="polygon1137"
          fill="#9A916C"
          points="0,31.9,7.87486,24.1368,24.2079,24.1368,31.93,31.9"
        />
      </g>
    </g>
    <g
      id="g1156"
      transform="translate(1934.04,34.05)">
      <g
        id="g1154">
        <rect
          id="connector24pin"
          height="31.9"
          width="31.93"
          fill="#8D8C8C"
          y="0"
          x="0"
          gorn="0.1.40.0.0"
        />
        <rect
          id="rect1144"
          height="16.4152"
          width="16.4442"
          fill="#8C8663"
          y="7.73544"
          x="7.79153"
        />
        <polygon
          id="polygon1146"
          fill="#B8AF82"
          points="0,31.9,7.79153,24.1368,7.79153,6.97162,0,0"
        />
        <polygon
          id="polygon1148"
          fill="#80795B"
          points="24.2079,7.76321,7.90264,7.76321,0,0,31.93,0"
        />
        <polygon
          id="polygon1150"
          fill="#5E5B43"
          points="24.2079,24.1368,24.2079,7.76321,31.93,0,31.93,31.9"
        />
        <polygon
          id="polygon1152"
          fill="#9A916C"
          points="0,31.9,7.87486,24.1368,24.2079,24.1368,31.93,31.9"
        />
      </g>
    </g>
    <g
      id="g1171"
      transform="translate(2034.04,534.05)">
      <g
        id="g1169">
        <rect
          id="connector20pin"
          height="31.9"
          width="31.93"
          fill="#8D8C8C"
          y="0"
          x="0"
          gorn="0.1.41.0.0"
        />
        <rect
          id="rect1159"
          height="16.4152"
          width="16.4442"
          fill="#8C8663"
          y="7.73544"
          x="7.79153"
        />
        <polygon
          id="polygon1161"
          fill="#B8AF82"
          points="0,31.9,7.79153,24.1368,7.79153,6.97162,0,0"
        />
        <polygon
          id="polygon1163"
          fill="#80795B"
          points="24.2079,7.76321,7.90264,7.76321,0,0,31.93,0"
        />
        <polygon
          id="polygon1165"
          fill="#5E5B43"
          points="24.2079,24.1368,24.2079,7.76321,31.93,0,31.93,31.9"
        />
        <polygon
          id="polygon1167"
          fill="#9A916C"
          points="0,31.9,7.87486,24.1368,24.2079,24.1368,31.93,31.9"
        />
      </g>
    </g>
    <g
      id="g1186"
      transform="translate(2034.04,34.05)">
      <g
        id="g1184">
        <rect
          id="connector23pin"
          height="31.9"
          width="31.93"
          fill="#8D8C8C"
          y="0"
          x="0"
          gorn="0.1.42.0.0"
        />
        <rect
          id="rect1174"
          height="16.4152"
          width="16.4442"
          fill="#8C8663"
          y="7.73544"
          x="7.79153"
        />
        <polygon
          id="polygon1176"
          fill="#B8AF82"
          points="0,31.9,7.79153,24.1368,7.79153,6.97162,0,0"
        />
        <polygon
          id="polygon1178"
          fill="#80795B"
          points="24.2079,7.76321,7.90264,7.76321,0,0,31.93,0"
        />
        <polygon
          id="polygon1180"
          fill="#5E5B43"
          points="24.2079,24.1368,24.2079,7.76321,31.93,0,31.93,31.9"
        />
        <polygon
          id="polygon1182"
          fill="#9A916C"
          points="0,31.9,7.87486,24.1368,24.2079,24.1368,31.93,31.9"
        />
      </g>
    </g>
    <g
      id="g1201"
      transform="translate(2134.03,534.05)">
      <g
        id="g1199">
        <rect
          id="connector21pin"
          height="31.9"
          width="31.93"
          fill="#8D8C8C"
          y="0"
          x="0"
          gorn="0.1.43.0.0"
        />
        <rect
          id="rect1189"
          height="16.4152"
          width="16.4442"
          fill="#8C8663"
          y="7.73544"
          x="7.79153"
        />
        <polygon
          id="polygon1191"
          fill="#B8AF82"
          points="0,31.9,7.79153,24.1368,7.79153,6.97162,0,0"
        />
        <polygon
          id="polygon1193"
          fill="#80795B"
          points="24.2079,7.76321,7.90264,7.76321,0,0,31.93,0"
        />
        <polygon
          id="polygon1195"
          fill="#5E5B43"
          points="24.2079,24.1368,24.2079,7.76321,31.93,0,31.93,31.9"
        />
        <polygon
          id="polygon1197"
          fill="#9A916C"
          points="0,31.9,7.87486,24.1368,24.2079,24.1368,31.93,31.9"
        />
      </g>
    </g>
    <g
      id="g1216"
      transform="translate(2134.03,34.05)">
      <g
        id="g1214">
        <rect
          id="connector22pin"
          height="31.9"
          width="31.93"
          fill="#8D8C8C"
          y="0"
          x="0"
          gorn="0.1.44.0.0"
        />
        <rect
          id="rect1204"
          height="16.4152"
          width="16.4442"
          fill="#8C8663"
          y="7.73544"
          x="7.79153"
        />
        <polygon
          id="polygon1206"
          fill="#B8AF82"
          points="0,31.9,7.79153,24.1368,7.79153,6.97162,0,0"
        />
        <polygon
          id="polygon1208"
          fill="#80795B"
          points="24.2079,7.76321,7.90264,7.76321,0,0,31.93,0"
        />
        <polygon
          id="polygon1210"
          fill="#5E5B43"
          points="24.2079,24.1368,24.2079,7.76321,31.93,0,31.93,31.9"
        />
        <polygon
          id="polygon1212"
          fill="#9A916C"
          points="0,31.9,7.87486,24.1368,24.2079,24.1368,31.93,31.9"
        />
      </g>
    </g>
  </g>
</svg>
