<?xml version='1.0' encoding='utf-8'?>
<svg xmlns="http://www.w3.org/2000/svg"  viewBox="0 0 800 800" width="0.8in" height="0.8in">
    <desc>
        <referenceFile>S09_schematic.svg</referenceFile>
    </desc>
    <g  id="schematic" gorn="0.0">
        <rect  stroke="black" fill="none" y="200" width="400" x="200" stroke-width="10" height="400"/>
        <line y2="400" x2="200"  stroke="#444444" id="connector0pin" y1="400" gorn="0.0.1" fill="none" x1="000" stroke-width="10"/>
        <line y2="200" x2="300"  stroke="#444444" id="connector1pin" y1="000" gorn="0.0.2" fill="none" x1="300" stroke-width="10"/>
        <line y2="800" x2="300"  stroke="#444444" id="connector2pin" y1="600" gorn="0.0.3" fill="none" x1="300" stroke-width="10"/>
        <line y2="200" x2="500"  stroke="#444444" id="connector3pin" y1="000" gorn="0.0.4" fill="none" x1="500" stroke-width="10"/>
        <line y2="800" x2="500"  stroke="#444444" id="connector4pin" y1="600" gorn="0.0.5" fill="none" x1="500" stroke-width="10"/>
        <circle  stroke="#444444" id="connector0terminal" gorn="0.0.6" fill="none" cy="400" cx="000" r="5" stroke-width="5"/>
        <circle  stroke="#444444" id="connector1terminal" gorn="0.0.7" fill="none" cy="000" cx="300" r="5" stroke-width="5"/>
        <circle  stroke="#444444" id="connector2terminal" gorn="0.0.8" fill="none" cy="800" cx="300" r="5" stroke-width="5"/>
        <circle  stroke="#444444" id="connector3terminal" gorn="0.0.9" fill="none" cy="000" cx="500" r="5" stroke-width="5"/>
        <circle  stroke="#444444" id="connector4terminal" gorn="0.0.10" fill="none" cy="800" cx="500" r="5" stroke-width="5"/>
        <text  fill="#888888" font-size="40" y="420" font-family="DroidSans" x="220">En</text>
        <text  fill="#888888" font-size="40" y="260" font-family="DroidSans" x="280">Vin+</text>
        <text  fill="#888888" font-size="40" y="580" font-family="DroidSans" x="280">Vin-</text>
        <text  fill="#888888" font-size="40" y="260" font-family="DroidSans" x="480">Vout+</text>
        <text  fill="#888888" font-size="40" y="580" font-family="DroidSans" x="480">Vout-</text>
        <text  fill="#888888" font-size="80" y="440" font-family="DroidSans" x="350">S09</text>
    </g>
</svg>
