<?xml version='1.0' encoding='UTF-8' standalone='no'?>
<svg
  xmlns:dc="http://purl.org/dc/elements/1.1/"
  xmlns:cc="http://creativecommons.org/ns#"
  xmlns:rdf="http://www.w3.org/1999/02/22-rdf-syntax-ns#"
  xmlns:svg="http://www.w3.org/2000/svg"
  xmlns="http://www.w3.org/2000/svg"
  viewBox="0 0 809.77955 810.75018"
  x="0in"
  width="0.80977952in"
  height="0.81075019in"
  version="1.2"
  y="0in"
  id="svg2">
  <metadata
    id="metadata41">
    <rdf:RDF>
      <cc:Work
        rdf:about="">
        <dc:format>image/svg+xml</dc:format>
        <dc:type
          rdf:resource="http://purl.org/dc/dcmitype/StillImage"
        />
        <dc:title/>
      </cc:Work>
    </rdf:RDF>
  </metadata>
  <defs
    id="defs39"
  />
  <desc
    id="desc4">
    <referenceFile>adafruit_9be8201374b8a10852fc2e7a0961f040_8_schematic.svg</referenceFile>
  </desc>
  <g
    id="schematic">
    <rect
      x="105.14088"
      width="600.00006"
      height="600.00006"
      y="105.7502"
      id="rect7"
      fill="none"
      stroke="#000000"
      stroke-width="10.00000095"
      stroke-linecap="round"
    />
    <text
      font-size="60"
      y="332.14301"
      x="407.27734"
      id="label1"
      font-family="'Droid Sans'"
      text-anchor="middle"
      fill="#000000">Adafruit</text>
    <text
      id="label0"
      x="135"
      y="323.59839"
      font-size="49"
      font-family="'Droid Sans'"
      text-anchor="start"
      fill="#555555">SDA</text>
    <text
      x="62.583008"
      y="285.75018"
      font-size="35"
      id="text15"
      font-family="'Droid Sans'"
      text-anchor="start"
      fill="#555555">3</text>
    <text
      id="text52"
      x="130.65544"
      y="423.25018"
      font-size="49"
      font-family="'Droid Sans'"
      text-anchor="start"
      fill="#555555">SCL</text>
    <text
      x="57.755081"
      y="385.72687"
      font-size="35"
      id="text22"
      font-family="'Droid Sans'"
      text-anchor="start"
      fill="#555555">4</text>
    <text
      font-size="49"
      y="675.11609"
      x="404.19891"
      id="text83"
      font-family="'Droid Sans'"
      text-anchor="middle"
      fill="#555555">GND</text>
    <text
      id="text51"
      font-size="35"
      y="751.3114"
      x="367.23734"
      font-family="'Droid Sans'"
      text-anchor="middle"
      fill="#555555">2</text>
    <text
      font-size="49"
      y="423.25018"
      x="678.07861"
      id="text79"
      font-family="'Droid Sans'"
      text-anchor="end"
      fill="#555555">CLK1</text>
    <text
      id="text63"
      font-size="35"
      y="385.40839"
      x="732.88623"
      font-family="'Droid Sans'"
      text-anchor="start"
      fill="#555555">6</text>
    <text
      font-size="49"
      y="323.25018"
      x="676.35596"
      id="text81"
      font-family="'Droid Sans'"
      text-anchor="end"
      fill="#555555">CLK0</text>
    <text
      id="text65"
      font-size="35"
      y="285.40839"
      x="733.19385"
      font-family="'Droid Sans'"
      text-anchor="start"
      fill="#555555">7</text>
    <text
      font-size="49"
      y="170.75017"
      x="404.74643"
      id="text95"
      font-family="'Droid Sans'"
      text-anchor="middle"
      fill="#555555">VIN</text>
    <text
      x="376.46585"
      y="75.614365"
      font-size="35"
      id="text75"
      font-family="'Droid Sans'"
      text-anchor="end"
      fill="#555555">1</text>
    <text
      id="text44"
      x="678.07861"
      y="523.75018"
      font-size="49"
      font-family="'Droid Sans'"
      text-anchor="end"
      fill="#555555">CLK2</text>
    <text
      x="732.88623"
      y="485.90839"
      font-size="35"
      id="text46"
      font-family="'Droid Sans'"
      text-anchor="start"
      fill="#555555">5</text>
    <text
      id="text54"
      x="407.43106"
      y="398.56064"
      font-size="60"
      font-family="'Droid Sans'"
      text-anchor="middle"
      fill="#000000"
      stroke-width="1">SI5351A</text>
    <text
      font-size="60"
      y="458.70999"
      x="407.35281"
      id="text56"
      font-family="'Droid Sans'"
      text-anchor="middle"
      fill="#000000"
      stroke-width="1">Clock</text>
    <text
      id="text58"
      x="407.35281"
      y="518.68512"
      font-size="60"
      font-family="'Droid Sans'"
      text-anchor="middle"
      fill="#000000"
      stroke-width="1">Generator</text>
    <line
      id="connector0pin"
      x1="709.70837"
      x2="804.70837"
      y2="305.41788"
      y1="305.41788"
      fill="none"
      stroke="#555555"
      stroke-width="10"
      stroke-linecap="round"
    />
    <rect
      y="301.41788"
      height="10"
      width="10"
      x="799.70837"
      id="connector0terminal"
      fill="none"
      stroke-width="0"
    />
    <line
      id="connector1pin"
      x1="709.70837"
      x2="804.70837"
      y2="405.41788"
      y1="405.41788"
      fill="none"
      stroke="#555555"
      stroke-width="10"
      stroke-linecap="round"
    />
    <rect
      y="400.41788"
      height="10"
      width="10"
      x="799.70837"
      id="connector1terminal"
      fill="none"
      stroke-width="0"
    />
    <line
      y1="505.91788"
      y2="505.91788"
      x2="804.70837"
      x1="709.70837"
      id="connector2pin"
      fill="none"
      stroke="#555555"
      stroke-width="10"
      stroke-linecap="round"
    />
    <rect
      id="connector2terminal"
      x="799.70837"
      width="10"
      height="10"
      y="500.91788"
      fill="none"
      stroke-width="0"
    />
    <line
      y1="405.88861"
      y2="405.88861"
      x2="100.26112"
      x1="5.0712128"
      id="connector3pin"
      fill="none"
      stroke="#555555"
      stroke-width="10"
      stroke-linecap="round"
    />
    <rect
      id="connector3terminal"
      x="0.14087862"
      width="10"
      height="10"
      y="400.75018"
      fill="none"
      stroke-width="0"
    />
    <line
      y1="305.88861"
      y2="305.88861"
      x2="100.26112"
      x1="5.0712123"
      id="connector4pin"
      fill="none"
      stroke="#555555"
      stroke-width="10"
      stroke-linecap="round"
    />
    <rect
      id="connector4terminal"
      x="0.14087862"
      width="10"
      height="10"
      y="301.02798"
      fill="none"
      stroke-width="0"
    />
    <line
      id="connector5pin"
      x1="404.69519"
      x2="404.69519"
      y2="805.67902"
      y1="710.67902"
      fill="none"
      stroke="#555555"
      stroke-width="10"
      stroke-linecap="round"
    />
    <rect
      y="800.75024"
      height="10"
      width="10"
      x="399.69519"
      id="connector5terminal"
      fill="none"
      stroke-width="0"
    />
    <line
      y1="5.0712123"
      y2="100.00121"
      x2="404.62064"
      x1="404.62064"
      id="connector6pin"
      fill="none"
      stroke="#555555"
      stroke-width="10"
      stroke-linecap="round"
    />
    <rect
      id="connector6terminal"
      x="399.62064"
      width="10"
      height="10"
      y="0.33321378"
      fill="none"
      stroke-width="0"
    />
    <line
      y1="710.67902"
      y2="805.67902"
      x2="404.69519"
      x1="404.69519"
      id="connector7pin"
      fill="none"
      stroke="#555555"
      stroke-width="10"
      stroke-linecap="round"
    />
    <rect
      id="connector7terminal"
      x="399.69519"
      width="10"
      height="10"
      y="800.75024"
      fill="none"
      stroke-width="0"
    />
    <line
      id="connector8pin"
      x1="709.70837"
      x2="804.70837"
      y2="505.91788"
      y1="505.91788"
      fill="none"
      stroke="#555555"
      stroke-width="10"
      stroke-linecap="round"
    />
    <rect
      y="500.91788"
      height="10"
      width="10"
      x="799.70837"
      id="connector8terminal"
      fill="none"
      stroke-width="0"
    />
    <line
      y1="710.67902"
      y2="805.67902"
      x2="404.69519"
      x1="404.69519"
      id="connector9pin"
      fill="none"
      stroke="#555555"
      stroke-width="10"
      stroke-linecap="round"
    />
    <rect
      id="connector9terminal"
      x="399.69519"
      width="10"
      height="10"
      y="800.75024"
      fill="none"
      stroke-width="0"
    />
    <line
      id="connector10pin"
      x1="404.69519"
      x2="404.69519"
      y2="805.67902"
      y1="710.67902"
      fill="none"
      stroke="#555555"
      stroke-width="10"
      stroke-linecap="round"
    />
    <rect
      y="800.75024"
      height="10"
      width="10"
      x="399.69519"
      id="connector10terminal"
      fill="none"
      stroke-width="0"
    />
    <line
      y1="405.41788"
      y2="405.41788"
      x2="804.70837"
      x1="709.70837"
      id="connector11pin"
      fill="none"
      stroke="#555555"
      stroke-width="10"
      stroke-linecap="round"
    />
    <rect
      id="connector11terminal"
      x="799.70837"
      width="10"
      height="10"
      y="400.41788"
      fill="none"
      stroke-width="0"
    />
    <line
      y1="710.67902"
      y2="805.67902"
      x2="404.69519"
      x1="404.69519"
      id="connector12pin"
      fill="none"
      stroke="#555555"
      stroke-width="10"
      stroke-linecap="round"
    />
    <rect
      id="connector12terminal"
      x="399.69519"
      width="10"
      height="10"
      y="800.75024"
      fill="none"
      stroke-width="0"
    />
    <line
      id="connector13pin"
      x1="404.69519"
      x2="404.69519"
      y2="805.67902"
      y1="710.67902"
      fill="none"
      stroke="#555555"
      stroke-width="10"
      stroke-linecap="round"
    />
    <rect
      y="800.75024"
      height="10"
      width="10"
      x="399.69519"
      id="connector13terminal"
      fill="none"
      stroke-width="0"
    />
    <line
      y1="305.41788"
      y2="305.41788"
      x2="804.70837"
      x1="709.70837"
      id="connector14pin"
      fill="none"
      stroke="#555555"
      stroke-width="10"
      stroke-linecap="round"
    />
    <rect
      id="connector14terminal"
      x="799.70837"
      width="10"
      height="10"
      y="301.41788"
      fill="none"
      stroke-width="0"
    />
    <line
      id="connector15pin"
      x1="404.69519"
      x2="404.69519"
      y2="805.67902"
      y1="710.67902"
      fill="none"
      stroke="#555555"
      stroke-width="10"
      stroke-linecap="round"
    />
    <rect
      y="800.75024"
      height="10"
      width="10"
      x="399.69519"
      id="connector15terminal"
      fill="none"
      stroke-width="0"
    />
  </g>
</svg>
