<?xml version='1.0' encoding='UTF-8' standalone='no'?>
<svg
  xmlns:dc="http://purl.org/dc/elements/1.1/"
  xmlns:cc="http://creativecommons.org/ns#"
  xmlns:rdf="http://www.w3.org/1999/02/22-rdf-syntax-ns#"
  xmlns:svg="http://www.w3.org/2000/svg"
  xmlns="http://www.w3.org/2000/svg"
  id="svg218"
  x="0in"
  version="1.2"
  y="0in"
  viewBox="0 0 700.13858 1600"
  height="1.6in"
  width="0.70013857in">
  <metadata
    id="metadata224">
    <rdf:RDF>
      <cc:Work
        rdf:about="">
        <dc:format>image/svg+xml</dc:format>
        <dc:type
          rdf:resource="http://purl.org/dc/dcmitype/StillImage"
        />
        <dc:title/>
      </cc:Work>
    </rdf:RDF>
  </metadata>
  <defs
    id="defs222"
  />
  <desc
    id="desc2">
    <referenceFile>TDA7439_18a58d0be33b96f49e4f6162c2da194d_1_schematic.svg</referenceFile>
  </desc>
  <g
    id="schematic">
    <rect
      id="rect4"
      x="200.06923"
      y="6.25"
      height="1587.5"
      width="293.75"
      fill="none"
      stroke="#000000"
      stroke-width="12.5"
      stroke-linecap="round"
      stroke-linejoin="round"
    />
    <text
      x="350.06924"
      gorn="0.1.1"
      y="751.38898"
      font-size="48.61109924"
      id="label"
      font-family="'Droid Sans'"
      text-anchor="middle"
      fill="#000000"
      stroke="none">IC</text>
    <line
      id="line7"
      x2="200.06923"
      y2="100"
      x1="4.9303346"
      y1="100"
      fill="none"
      stroke="#787878"
      stroke-width="9.72220039"
      stroke-linecap="round"
      stroke-linejoin="round"
    />
    <rect
      x="0.06923417"
      gorn="0.1.3"
      y="95.138901"
      height="9.7222004"
      connectorName="1"
      id="connector0pin"
      width="200"
      fill="none"
      stroke-width="0"
    />
    <rect
      x="0.06923417"
      gorn="0.1.4"
      y="95.138901"
      height="9.7222004"
      id="connector0terminal"
      width="10"
      fill="none"
      stroke-width="0"
    />
    <text
      x="219.51323"
      gorn="0.1.5"
      y="109.722"
      font-size="48.61109924"
      id="label0"
      font-family="'Droid Sans'"
      text-anchor="start"
      fill="#8c8c8c"
      stroke="none">1</text>
    <text
      id="text12"
      class="text"
      x="100.06924"
      y="85.416702"
      font-size="34.72219849"
      font-family="'Droid Sans'"
      text-anchor="middle"
      fill="#8c8c8c"
      stroke="none"
      stroke-width="0">1</text>
    <line
      id="line14"
      x2="200.06923"
      y2="200"
      x1="4.9303346"
      y1="200"
      fill="none"
      stroke="#787878"
      stroke-width="9.72220039"
      stroke-linecap="round"
      stroke-linejoin="round"
    />
    <rect
      x="0.06923417"
      gorn="0.1.8"
      y="195.13901"
      height="9.7222004"
      connectorName="2"
      id="connector1pin"
      width="200"
      fill="none"
      stroke-width="0"
    />
    <rect
      x="0.06923417"
      gorn="0.1.9"
      y="195.13901"
      height="9.7222004"
      id="connector1terminal"
      width="10"
      fill="none"
      stroke-width="0"
    />
    <text
      x="219.51323"
      gorn="0.1.10"
      y="209.722"
      font-size="48.61109924"
      id="label1"
      font-family="'Droid Sans'"
      text-anchor="start"
      fill="#8c8c8c"
      stroke="none">2</text>
    <text
      id="text19"
      class="text"
      x="100.06924"
      y="185.41701"
      font-size="34.72219849"
      font-family="'Droid Sans'"
      text-anchor="middle"
      fill="#8c8c8c"
      stroke="none"
      stroke-width="0">2</text>
    <line
      id="line21"
      x2="200.06923"
      y2="300"
      x1="4.9303346"
      y1="300"
      fill="none"
      stroke="#787878"
      stroke-width="9.72220039"
      stroke-linecap="round"
      stroke-linejoin="round"
    />
    <rect
      x="0.06923417"
      gorn="0.1.13"
      y="295.13901"
      height="9.7222004"
      connectorName="3"
      id="connector2pin"
      width="200"
      fill="none"
      stroke-width="0"
    />
    <rect
      x="0.06923417"
      gorn="0.1.14"
      y="295.13901"
      height="9.7222004"
      id="connector2terminal"
      width="10"
      fill="none"
      stroke-width="0"
    />
    <text
      x="219.51323"
      gorn="0.1.15"
      y="309.72198"
      font-size="48.61109924"
      id="label2"
      font-family="'Droid Sans'"
      text-anchor="start"
      fill="#8c8c8c"
      stroke="none">3</text>
    <text
      id="text26"
      class="text"
      x="100.06924"
      y="285.41699"
      font-size="34.72219849"
      font-family="'Droid Sans'"
      text-anchor="middle"
      fill="#8c8c8c"
      stroke="none"
      stroke-width="0">3</text>
    <line
      id="line28"
      x2="200.06923"
      y2="400"
      x1="4.9303346"
      y1="400"
      fill="none"
      stroke="#787878"
      stroke-width="9.72220039"
      stroke-linecap="round"
      stroke-linejoin="round"
    />
    <rect
      x="0.06923417"
      gorn="0.1.18"
      y="395.13901"
      height="9.7222004"
      connectorName="4"
      id="connector3pin"
      width="200"
      fill="none"
      stroke-width="0"
    />
    <rect
      x="0.06923417"
      gorn="0.1.19"
      y="395.13901"
      height="9.7222004"
      id="connector3terminal"
      width="10"
      fill="none"
      stroke-width="0"
    />
    <text
      x="219.51323"
      gorn="0.1.20"
      y="409.72198"
      font-size="48.61109924"
      id="label3"
      font-family="'Droid Sans'"
      text-anchor="start"
      fill="#8c8c8c"
      stroke="none">4</text>
    <text
      id="text33"
      class="text"
      x="100.06924"
      y="385.41699"
      font-size="34.72219849"
      font-family="'Droid Sans'"
      text-anchor="middle"
      fill="#8c8c8c"
      stroke="none"
      stroke-width="0">4</text>
    <line
      id="line35"
      x2="200.06923"
      y2="500"
      x1="4.9303346"
      y1="500"
      fill="none"
      stroke="#787878"
      stroke-width="9.72220039"
      stroke-linecap="round"
      stroke-linejoin="round"
    />
    <rect
      x="0.06923417"
      gorn="0.1.23"
      y="495.13901"
      height="9.7222004"
      connectorName="5"
      id="connector4pin"
      width="200"
      fill="none"
      stroke-width="0"
    />
    <rect
      x="0.06923417"
      gorn="0.1.24"
      y="495.13901"
      height="9.7222004"
      id="connector4terminal"
      width="10"
      fill="none"
      stroke-width="0"
    />
    <text
      x="219.51323"
      gorn="0.1.25"
      y="509.72198"
      font-size="48.61109924"
      id="label4"
      font-family="'Droid Sans'"
      text-anchor="start"
      fill="#8c8c8c"
      stroke="none">5</text>
    <text
      id="text40"
      class="text"
      x="100.06924"
      y="485.41699"
      font-size="34.72219849"
      font-family="'Droid Sans'"
      text-anchor="middle"
      fill="#8c8c8c"
      stroke="none"
      stroke-width="0">5</text>
    <line
      id="line42"
      x2="200.06923"
      y2="600"
      x1="4.9303346"
      y1="600"
      fill="none"
      stroke="#787878"
      stroke-width="9.72220039"
      stroke-linecap="round"
      stroke-linejoin="round"
    />
    <rect
      x="0.06923417"
      gorn="0.1.28"
      y="595.13898"
      height="9.7222004"
      connectorName="6"
      id="connector5pin"
      width="200"
      fill="none"
      stroke-width="0"
    />
    <rect
      x="0.06923417"
      gorn="0.1.29"
      y="595.13898"
      height="9.7222004"
      id="connector5terminal"
      width="10"
      fill="none"
      stroke-width="0"
    />
    <text
      x="219.51323"
      gorn="0.1.30"
      y="609.72198"
      font-size="48.61109924"
      id="label5"
      font-family="'Droid Sans'"
      text-anchor="start"
      fill="#8c8c8c"
      stroke="none">6</text>
    <text
      id="text47"
      class="text"
      x="100.06924"
      y="585.41699"
      font-size="34.72219849"
      font-family="'Droid Sans'"
      text-anchor="middle"
      fill="#8c8c8c"
      stroke="none"
      stroke-width="0">6</text>
    <line
      id="line49"
      x2="200.06923"
      y2="700"
      x1="4.9303346"
      y1="700"
      fill="none"
      stroke="#787878"
      stroke-width="9.72220039"
      stroke-linecap="round"
      stroke-linejoin="round"
    />
    <rect
      x="0.06923417"
      gorn="0.1.33"
      y="695.13898"
      height="9.7222004"
      connectorName="7"
      id="connector6pin"
      width="200"
      fill="none"
      stroke-width="0"
    />
    <rect
      x="0.06923417"
      gorn="0.1.34"
      y="695.13898"
      height="9.7222004"
      id="connector6terminal"
      width="10"
      fill="none"
      stroke-width="0"
    />
    <text
      x="219.51323"
      gorn="0.1.35"
      y="709.72198"
      font-size="48.61109924"
      id="label6"
      font-family="'Droid Sans'"
      text-anchor="start"
      fill="#8c8c8c"
      stroke="none">7</text>
    <text
      id="text54"
      class="text"
      x="100.06924"
      y="685.41699"
      font-size="34.72219849"
      font-family="'Droid Sans'"
      text-anchor="middle"
      fill="#8c8c8c"
      stroke="none"
      stroke-width="0">7</text>
    <line
      id="line56"
      x2="200.06923"
      y2="800"
      x1="4.9303346"
      y1="800"
      fill="none"
      stroke="#787878"
      stroke-width="9.72220039"
      stroke-linecap="round"
      stroke-linejoin="round"
    />
    <rect
      x="0.06923417"
      gorn="0.1.38"
      y="795.13898"
      height="9.7222004"
      connectorName="8"
      id="connector7pin"
      width="200"
      fill="none"
      stroke-width="0"
    />
    <rect
      x="0.06923417"
      gorn="0.1.39"
      y="795.13898"
      height="9.7222004"
      id="connector7terminal"
      width="10"
      fill="none"
      stroke-width="0"
    />
    <text
      x="219.51323"
      gorn="0.1.40"
      y="809.72198"
      font-size="48.61109924"
      id="label7"
      font-family="'Droid Sans'"
      text-anchor="start"
      fill="#8c8c8c"
      stroke="none">8</text>
    <text
      id="text61"
      class="text"
      x="100.06924"
      y="785.41699"
      font-size="34.72219849"
      font-family="'Droid Sans'"
      text-anchor="middle"
      fill="#8c8c8c"
      stroke="none"
      stroke-width="0">8</text>
    <line
      id="line63"
      x2="200.06923"
      y2="900"
      x1="4.9303346"
      y1="900"
      fill="none"
      stroke="#787878"
      stroke-width="9.72220039"
      stroke-linecap="round"
      stroke-linejoin="round"
    />
    <rect
      x="0.06923417"
      gorn="0.1.43"
      y="895.13898"
      height="9.7222004"
      connectorName="9"
      id="connector8pin"
      width="200"
      fill="none"
      stroke-width="0"
    />
    <rect
      x="0.06923417"
      gorn="0.1.44"
      y="895.13898"
      height="9.7222004"
      id="connector8terminal"
      width="10"
      fill="none"
      stroke-width="0"
    />
    <text
      x="219.51323"
      gorn="0.1.45"
      y="909.72198"
      font-size="48.61109924"
      id="label8"
      font-family="'Droid Sans'"
      text-anchor="start"
      fill="#8c8c8c"
      stroke="none">9</text>
    <text
      id="text68"
      class="text"
      x="100.06924"
      y="885.41699"
      font-size="34.72219849"
      font-family="'Droid Sans'"
      text-anchor="middle"
      fill="#8c8c8c"
      stroke="none"
      stroke-width="0">9</text>
    <line
      id="line70"
      x2="200.06923"
      y2="1000"
      x1="4.9303346"
      y1="1000"
      fill="none"
      stroke="#787878"
      stroke-width="9.72220039"
      stroke-linecap="round"
      stroke-linejoin="round"
    />
    <rect
      x="0.06923417"
      gorn="0.1.48"
      y="995.13898"
      height="9.7222004"
      connectorName="10"
      id="connector9pin"
      width="200"
      fill="none"
      stroke-width="0"
    />
    <rect
      x="0.06923417"
      gorn="0.1.49"
      y="995.13898"
      height="9.7222004"
      id="connector9terminal"
      width="10"
      fill="none"
      stroke-width="0"
    />
    <text
      x="219.51323"
      gorn="0.1.50"
      y="1009.72"
      font-size="48.61109924"
      id="label9"
      font-family="'Droid Sans'"
      text-anchor="start"
      fill="#8c8c8c"
      stroke="none">10</text>
    <text
      id="text75"
      class="text"
      x="100.06924"
      y="985.41699"
      font-size="34.72219849"
      font-family="'Droid Sans'"
      text-anchor="middle"
      fill="#8c8c8c"
      stroke="none"
      stroke-width="0">10</text>
    <line
      id="line77"
      x2="200.06923"
      y2="1100"
      x1="4.9303346"
      y1="1100"
      fill="none"
      stroke="#787878"
      stroke-width="9.72220039"
      stroke-linecap="round"
      stroke-linejoin="round"
    />
    <rect
      x="0.06923417"
      gorn="0.1.53"
      y="1095.14"
      height="9.7222004"
      connectorName="11"
      id="connector10pin"
      width="200"
      fill="none"
      stroke-width="0"
    />
    <rect
      x="0.06923417"
      gorn="0.1.54"
      y="1095.14"
      height="9.7222004"
      id="connector10terminal"
      width="10"
      fill="none"
      stroke-width="0"
    />
    <text
      x="219.51323"
      gorn="0.1.55"
      y="1109.72"
      font-size="48.61109924"
      id="label10"
      font-family="'Droid Sans'"
      text-anchor="start"
      fill="#8c8c8c"
      stroke="none">11</text>
    <text
      id="text82"
      class="text"
      x="100.06924"
      y="1085.42"
      font-size="34.72219849"
      font-family="'Droid Sans'"
      text-anchor="middle"
      fill="#8c8c8c"
      stroke="none"
      stroke-width="0">11</text>
    <line
      id="line84"
      x2="200.06923"
      y2="1200"
      x1="4.9303346"
      y1="1200"
      fill="none"
      stroke="#787878"
      stroke-width="9.72220039"
      stroke-linecap="round"
      stroke-linejoin="round"
    />
    <rect
      x="0.06923417"
      gorn="0.1.58"
      y="1195.14"
      height="9.7222004"
      connectorName="12"
      id="connector11pin"
      width="200"
      fill="none"
      stroke-width="0"
    />
    <rect
      x="0.06923417"
      gorn="0.1.59"
      y="1195.14"
      height="9.7222004"
      id="connector11terminal"
      width="10"
      fill="none"
      stroke-width="0"
    />
    <text
      x="219.51323"
      gorn="0.1.60"
      y="1209.72"
      font-size="48.61109924"
      id="label11"
      font-family="'Droid Sans'"
      text-anchor="start"
      fill="#8c8c8c"
      stroke="none">12</text>
    <text
      id="text89"
      class="text"
      x="100.06924"
      y="1185.42"
      font-size="34.72219849"
      font-family="'Droid Sans'"
      text-anchor="middle"
      fill="#8c8c8c"
      stroke="none"
      stroke-width="0">12</text>
    <line
      id="line91"
      x2="200.06923"
      y2="1300"
      x1="4.9303346"
      y1="1300"
      fill="none"
      stroke="#787878"
      stroke-width="9.72220039"
      stroke-linecap="round"
      stroke-linejoin="round"
    />
    <rect
      x="0.06923417"
      gorn="0.1.63"
      y="1295.14"
      height="9.7222004"
      connectorName="13"
      id="connector12pin"
      width="200"
      fill="none"
      stroke-width="0"
    />
    <rect
      x="0.06923417"
      gorn="0.1.64"
      y="1295.14"
      height="9.7222004"
      id="connector12terminal"
      width="10"
      fill="none"
      stroke-width="0"
    />
    <text
      x="219.51323"
      gorn="0.1.65"
      y="1309.72"
      font-size="48.61109924"
      id="label12"
      font-family="'Droid Sans'"
      text-anchor="start"
      fill="#8c8c8c"
      stroke="none">13</text>
    <text
      id="text96"
      class="text"
      x="100.06924"
      y="1285.42"
      font-size="34.72219849"
      font-family="'Droid Sans'"
      text-anchor="middle"
      fill="#8c8c8c"
      stroke="none"
      stroke-width="0">13</text>
    <line
      id="line98"
      x2="200.06923"
      y2="1400"
      x1="4.9303346"
      y1="1400"
      fill="none"
      stroke="#787878"
      stroke-width="9.72220039"
      stroke-linecap="round"
      stroke-linejoin="round"
    />
    <rect
      x="0.06923417"
      gorn="0.1.68"
      y="1395.14"
      height="9.7222004"
      connectorName="14"
      id="connector13pin"
      width="200"
      fill="none"
      stroke-width="0"
    />
    <rect
      x="0.06923417"
      gorn="0.1.69"
      y="1395.14"
      height="9.7222004"
      id="connector13terminal"
      width="10"
      fill="none"
      stroke-width="0"
    />
    <text
      x="219.51323"
      gorn="0.1.70"
      y="1409.72"
      font-size="48.61109924"
      id="label13"
      font-family="'Droid Sans'"
      text-anchor="start"
      fill="#8c8c8c"
      stroke="none">14</text>
    <text
      id="text103"
      class="text"
      x="100.06924"
      y="1385.42"
      font-size="34.72219849"
      font-family="'Droid Sans'"
      text-anchor="middle"
      fill="#8c8c8c"
      stroke="none"
      stroke-width="0">14</text>
    <line
      id="line105"
      x2="200.06923"
      y2="1500"
      x1="4.9303346"
      y1="1500"
      fill="none"
      stroke="#787878"
      stroke-width="9.72220039"
      stroke-linecap="round"
      stroke-linejoin="round"
    />
    <rect
      x="0.06923417"
      gorn="0.1.73"
      y="1495.14"
      height="9.7222004"
      connectorName="15"
      id="connector14pin"
      width="200"
      fill="none"
      stroke-width="0"
    />
    <rect
      x="0.06923417"
      gorn="0.1.74"
      y="1495.14"
      height="9.7222004"
      id="connector14terminal"
      width="10"
      fill="none"
      stroke-width="0"
    />
    <text
      x="219.51323"
      gorn="0.1.75"
      y="1509.72"
      font-size="48.61109924"
      id="label14"
      font-family="'Droid Sans'"
      text-anchor="start"
      fill="#8c8c8c"
      stroke="none">15</text>
    <text
      id="text110"
      class="text"
      x="100.06924"
      y="1485.42"
      font-size="34.72219849"
      font-family="'Droid Sans'"
      text-anchor="middle"
      fill="#8c8c8c"
      stroke="none"
      stroke-width="0">15</text>
    <line
      id="line112"
      x2="695.20819"
      y2="100"
      x1="495.20825"
      y1="100"
      fill="none"
      stroke="#787878"
      stroke-width="9.72220039"
      stroke-linecap="round"
      stroke-linejoin="round"
    />
    <rect
      x="500.06924"
      gorn="0.1.78"
      y="95.138901"
      connectorname="30"
      height="9.7222004"
      id="connector29pin"
      width="200"
      fill="none"
      stroke-width="0"
    />
    <rect
      x="690.06921"
      gorn="0.1.79"
      y="95.277824"
      height="9.7222004"
      id="connector29terminal"
      width="10"
      fill="none"
      stroke-width="0"
    />
    <text
      x="480.62524"
      gorn="0.1.80"
      y="109.722"
      font-size="48.61109924"
      id="label29"
      font-family="'Droid Sans'"
      text-anchor="end"
      fill="#8c8c8c"
      stroke="none">30</text>
    <text
      id="text117"
      class="text"
      x="600.06921"
      y="85.416702"
      font-size="34.72219849"
      font-family="'Droid Sans'"
      text-anchor="middle"
      fill="#8c8c8c"
      stroke="none"
      stroke-width="0">30</text>
    <line
      id="line119"
      x2="695.20819"
      y2="200"
      x1="495.20825"
      y1="200"
      fill="none"
      stroke="#787878"
      stroke-width="9.72220039"
      stroke-linecap="round"
      stroke-linejoin="round"
    />
    <rect
      x="500.06924"
      gorn="0.1.83"
      y="195.13901"
      connectorname="29"
      height="9.7222004"
      id="connector28pin"
      width="200"
      fill="none"
      stroke-width="0"
    />
    <rect
      x="690.06921"
      gorn="0.1.84"
      y="195.13901"
      height="9.7222004"
      id="connector28terminal"
      width="10"
      fill="none"
      stroke-width="0"
    />
    <text
      x="480.62524"
      gorn="0.1.85"
      y="209.722"
      font-size="48.61109924"
      id="label28"
      font-family="'Droid Sans'"
      text-anchor="end"
      fill="#8c8c8c"
      stroke="none">29</text>
    <text
      id="text124"
      class="text"
      x="600.06921"
      y="185.41701"
      font-size="34.72219849"
      font-family="'Droid Sans'"
      text-anchor="middle"
      fill="#8c8c8c"
      stroke="none"
      stroke-width="0">29</text>
    <line
      id="line126"
      x2="695.20819"
      y2="300"
      x1="495.20825"
      y1="300"
      fill="none"
      stroke="#787878"
      stroke-width="9.72220039"
      stroke-linecap="round"
      stroke-linejoin="round"
    />
    <rect
      x="500.06924"
      gorn="0.1.88"
      y="295.13901"
      connectorname="28"
      height="9.7222004"
      id="connector27pin"
      width="200"
      fill="none"
      stroke-width="0"
    />
    <rect
      x="690.06921"
      gorn="0.1.89"
      y="295.13901"
      height="9.7222004"
      id="connector27terminal"
      width="10"
      fill="none"
      stroke-width="0"
    />
    <text
      x="480.62524"
      gorn="0.1.90"
      y="309.72198"
      font-size="48.61109924"
      id="label27"
      font-family="'Droid Sans'"
      text-anchor="end"
      fill="#8c8c8c"
      stroke="none">28</text>
    <text
      id="text131"
      class="text"
      x="600.06921"
      y="285.41699"
      font-size="34.72219849"
      font-family="'Droid Sans'"
      text-anchor="middle"
      fill="#8c8c8c"
      stroke="none"
      stroke-width="0">28</text>
    <line
      id="line133"
      x2="695.20819"
      y2="400"
      x1="495.20825"
      y1="400"
      fill="none"
      stroke="#787878"
      stroke-width="9.72220039"
      stroke-linecap="round"
      stroke-linejoin="round"
    />
    <rect
      x="500.06924"
      gorn="0.1.93"
      y="395.13901"
      connectorname="27"
      height="9.7222004"
      id="connector26pin"
      width="200"
      fill="none"
      stroke-width="0"
    />
    <rect
      x="690.06921"
      gorn="0.1.94"
      y="395.13901"
      height="9.7222004"
      id="connector26terminal"
      width="10"
      fill="none"
      stroke-width="0"
    />
    <text
      x="480.62524"
      gorn="0.1.95"
      y="409.72198"
      font-size="48.61109924"
      id="label26"
      font-family="'Droid Sans'"
      text-anchor="end"
      fill="#8c8c8c"
      stroke="none">27</text>
    <text
      id="text138"
      class="text"
      x="600.06921"
      y="385.41699"
      font-size="34.72219849"
      font-family="'Droid Sans'"
      text-anchor="middle"
      fill="#8c8c8c"
      stroke="none"
      stroke-width="0">27</text>
    <line
      id="line140"
      x2="695.20819"
      y2="500"
      x1="495.20825"
      y1="500"
      fill="none"
      stroke="#787878"
      stroke-width="9.72220039"
      stroke-linecap="round"
      stroke-linejoin="round"
    />
    <rect
      x="500.06924"
      gorn="0.1.98"
      y="495.13901"
      connectorname="26"
      height="9.7222004"
      id="connector25pin"
      width="200"
      fill="none"
      stroke-width="0"
    />
    <rect
      x="690.06921"
      gorn="0.1.99"
      y="495.13901"
      height="9.7222004"
      id="connector25terminal"
      width="10"
      fill="none"
      stroke-width="0"
    />
    <text
      x="480.62524"
      gorn="0.1.100"
      y="509.72198"
      font-size="48.61109924"
      id="label25"
      font-family="'Droid Sans'"
      text-anchor="end"
      fill="#8c8c8c"
      stroke="none">26</text>
    <text
      id="text145"
      class="text"
      x="600.06921"
      y="485.41699"
      font-size="34.72219849"
      font-family="'Droid Sans'"
      text-anchor="middle"
      fill="#8c8c8c"
      stroke="none"
      stroke-width="0">26</text>
    <line
      id="line147"
      x2="695.20819"
      y2="600"
      x1="495.20825"
      y1="600"
      fill="none"
      stroke="#787878"
      stroke-width="9.72220039"
      stroke-linecap="round"
      stroke-linejoin="round"
    />
    <rect
      x="500.06924"
      gorn="0.1.103"
      y="595.13898"
      connectorname="25"
      height="9.7222004"
      id="connector24pin"
      width="200"
      fill="none"
      stroke-width="0"
    />
    <rect
      x="690.06921"
      gorn="0.1.104"
      y="595.13898"
      height="9.7222004"
      id="connector24terminal"
      width="10"
      fill="none"
      stroke-width="0"
    />
    <text
      x="480.62524"
      gorn="0.1.105"
      y="609.72198"
      font-size="48.61109924"
      id="label24"
      font-family="'Droid Sans'"
      text-anchor="end"
      fill="#8c8c8c"
      stroke="none">25</text>
    <text
      id="text152"
      class="text"
      x="600.06921"
      y="585.41699"
      font-size="34.72219849"
      font-family="'Droid Sans'"
      text-anchor="middle"
      fill="#8c8c8c"
      stroke="none"
      stroke-width="0">25</text>
    <line
      id="line154"
      x2="695.20819"
      y2="700"
      x1="495.20825"
      y1="700"
      fill="none"
      stroke="#787878"
      stroke-width="9.72220039"
      stroke-linecap="round"
      stroke-linejoin="round"
    />
    <rect
      x="500.06924"
      gorn="0.1.108"
      y="695.13898"
      connectorname="24"
      height="9.7222004"
      id="connector23pin"
      width="200"
      fill="none"
      stroke-width="0"
    />
    <rect
      x="690.06921"
      gorn="0.1.109"
      y="695.13898"
      height="9.7222004"
      id="connector23terminal"
      width="10"
      fill="none"
      stroke-width="0"
    />
    <text
      x="480.62524"
      gorn="0.1.110"
      y="709.72198"
      font-size="48.61109924"
      id="label23"
      font-family="'Droid Sans'"
      text-anchor="end"
      fill="#8c8c8c"
      stroke="none">24</text>
    <text
      id="text159"
      class="text"
      x="600.06921"
      y="685.41699"
      font-size="34.72219849"
      font-family="'Droid Sans'"
      text-anchor="middle"
      fill="#8c8c8c"
      stroke="none"
      stroke-width="0">24</text>
    <line
      id="line161"
      x2="695.20819"
      y2="800"
      x1="495.20825"
      y1="800"
      fill="none"
      stroke="#787878"
      stroke-width="9.72220039"
      stroke-linecap="round"
      stroke-linejoin="round"
    />
    <rect
      x="500.06924"
      gorn="0.1.113"
      y="795.13898"
      connectorname="23"
      height="9.7222004"
      id="connector22pin"
      width="200"
      fill="none"
      stroke-width="0"
    />
    <rect
      x="690.06921"
      gorn="0.1.114"
      y="795.13898"
      height="9.7222004"
      id="connector22terminal"
      width="10"
      fill="none"
      stroke-width="0"
    />
    <text
      x="480.62524"
      gorn="0.1.115"
      y="809.72198"
      font-size="48.61109924"
      id="label22"
      font-family="'Droid Sans'"
      text-anchor="end"
      fill="#8c8c8c"
      stroke="none">23</text>
    <text
      id="text166"
      class="text"
      x="600.06921"
      y="785.41699"
      font-size="34.72219849"
      font-family="'Droid Sans'"
      text-anchor="middle"
      fill="#8c8c8c"
      stroke="none"
      stroke-width="0">23</text>
    <line
      id="line168"
      x2="695.20819"
      y2="900"
      x1="495.20825"
      y1="900"
      fill="none"
      stroke="#787878"
      stroke-width="9.72220039"
      stroke-linecap="round"
      stroke-linejoin="round"
    />
    <rect
      x="500.06924"
      gorn="0.1.118"
      y="895.13898"
      connectorname="22"
      height="9.7222004"
      id="connector21pin"
      width="200"
      fill="none"
      stroke-width="0"
    />
    <rect
      x="690.06921"
      gorn="0.1.119"
      y="895.13898"
      height="9.7222004"
      id="connector21terminal"
      width="10"
      fill="none"
      stroke-width="0"
    />
    <text
      x="480.62524"
      gorn="0.1.120"
      y="909.72198"
      font-size="48.61109924"
      id="label21"
      font-family="'Droid Sans'"
      text-anchor="end"
      fill="#8c8c8c"
      stroke="none">22</text>
    <text
      id="text173"
      class="text"
      x="600.06921"
      y="885.41699"
      font-size="34.72219849"
      font-family="'Droid Sans'"
      text-anchor="middle"
      fill="#8c8c8c"
      stroke="none"
      stroke-width="0">22</text>
    <line
      id="line175"
      x2="695.20819"
      y2="1000"
      x1="495.20825"
      y1="1000"
      fill="none"
      stroke="#787878"
      stroke-width="9.72220039"
      stroke-linecap="round"
      stroke-linejoin="round"
    />
    <rect
      x="500.06924"
      gorn="0.1.123"
      y="995.13898"
      connectorname="21"
      height="9.7222004"
      id="connector20pin"
      width="200"
      fill="none"
      stroke-width="0"
    />
    <rect
      x="690.06921"
      gorn="0.1.124"
      y="995.13898"
      height="9.7222004"
      id="connector20terminal"
      width="10"
      fill="none"
      stroke-width="0"
    />
    <text
      x="480.62524"
      gorn="0.1.125"
      y="1009.72"
      font-size="48.61109924"
      id="label20"
      font-family="'Droid Sans'"
      text-anchor="end"
      fill="#8c8c8c"
      stroke="none">21</text>
    <text
      id="text180"
      class="text"
      x="600.06921"
      y="985.41699"
      font-size="34.72219849"
      font-family="'Droid Sans'"
      text-anchor="middle"
      fill="#8c8c8c"
      stroke="none"
      stroke-width="0">21</text>
    <line
      id="line182"
      x2="695.20819"
      y2="1100"
      x1="495.20825"
      y1="1100"
      fill="none"
      stroke="#787878"
      stroke-width="9.72220039"
      stroke-linecap="round"
      stroke-linejoin="round"
    />
    <rect
      x="500.06924"
      gorn="0.1.128"
      y="1095.14"
      connectorname="20"
      height="9.7222004"
      id="connector19pin"
      width="200"
      fill="none"
      stroke-width="0"
    />
    <rect
      x="690.06921"
      gorn="0.1.129"
      y="1095.14"
      height="9.7222004"
      id="connector19terminal"
      width="10"
      fill="none"
      stroke-width="0"
    />
    <text
      x="480.62524"
      gorn="0.1.130"
      y="1109.72"
      font-size="48.61109924"
      id="label19"
      font-family="'Droid Sans'"
      text-anchor="end"
      fill="#8c8c8c"
      stroke="none">20</text>
    <text
      id="text187"
      class="text"
      x="600.06921"
      y="1085.42"
      font-size="34.72219849"
      font-family="'Droid Sans'"
      text-anchor="middle"
      fill="#8c8c8c"
      stroke="none"
      stroke-width="0">20</text>
    <line
      id="line189"
      x2="695.20819"
      y2="1200"
      x1="495.20825"
      y1="1200"
      fill="none"
      stroke="#787878"
      stroke-width="9.72220039"
      stroke-linecap="round"
      stroke-linejoin="round"
    />
    <rect
      x="500.06924"
      gorn="0.1.133"
      y="1195.14"
      connectorname="19"
      height="9.7222004"
      id="connector18pin"
      width="200"
      fill="none"
      stroke-width="0"
    />
    <rect
      x="690.06921"
      gorn="0.1.134"
      y="1195.14"
      height="9.7222004"
      id="connector18terminal"
      width="10"
      fill="none"
      stroke-width="0"
    />
    <text
      x="480.62524"
      gorn="0.1.135"
      y="1209.72"
      font-size="48.61109924"
      id="label18"
      font-family="'Droid Sans'"
      text-anchor="end"
      fill="#8c8c8c"
      stroke="none">19</text>
    <text
      id="text194"
      class="text"
      x="600.06921"
      y="1185.42"
      font-size="34.72219849"
      font-family="'Droid Sans'"
      text-anchor="middle"
      fill="#8c8c8c"
      stroke="none"
      stroke-width="0">19</text>
    <line
      id="line196"
      x2="695.20819"
      y2="1300"
      x1="495.20825"
      y1="1300"
      fill="none"
      stroke="#787878"
      stroke-width="9.72220039"
      stroke-linecap="round"
      stroke-linejoin="round"
    />
    <rect
      x="500.06924"
      gorn="0.1.138"
      y="1295.14"
      connectorname="18"
      height="9.7222004"
      id="connector17pin"
      width="200"
      fill="none"
      stroke-width="0"
    />
    <rect
      x="690.06921"
      gorn="0.1.139"
      y="1295.14"
      height="9.7222004"
      id="connector17terminal"
      width="10"
      fill="none"
      stroke-width="0"
    />
    <text
      x="480.62524"
      gorn="0.1.140"
      y="1309.72"
      font-size="48.61109924"
      id="label17"
      font-family="'Droid Sans'"
      text-anchor="end"
      fill="#8c8c8c"
      stroke="none">18</text>
    <text
      id="text201"
      class="text"
      x="600.06921"
      y="1285.42"
      font-size="34.72219849"
      font-family="'Droid Sans'"
      text-anchor="middle"
      fill="#8c8c8c"
      stroke="none"
      stroke-width="0">18</text>
    <line
      id="line203"
      x2="695.20819"
      y2="1400"
      x1="495.20825"
      y1="1400"
      fill="none"
      stroke="#787878"
      stroke-width="9.72220039"
      stroke-linecap="round"
      stroke-linejoin="round"
    />
    <rect
      x="500.06924"
      gorn="0.1.143"
      y="1395.14"
      connectorname="17"
      height="9.7222004"
      id="connector16pin"
      width="200"
      fill="none"
      stroke-width="0"
    />
    <rect
      x="690.06921"
      gorn="0.1.144"
      y="1395.14"
      height="9.7222004"
      id="connector16terminal"
      width="10"
      fill="none"
      stroke-width="0"
    />
    <text
      x="480.62524"
      gorn="0.1.145"
      y="1409.72"
      font-size="48.61109924"
      id="label16"
      font-family="'Droid Sans'"
      text-anchor="end"
      fill="#8c8c8c"
      stroke="none">17</text>
    <text
      id="text208"
      class="text"
      x="600.06921"
      y="1385.42"
      font-size="34.72219849"
      font-family="'Droid Sans'"
      text-anchor="middle"
      fill="#8c8c8c"
      stroke="none"
      stroke-width="0">17</text>
    <line
      id="line210"
      x2="695.20819"
      y2="1500"
      x1="495.20825"
      y1="1500"
      fill="none"
      stroke="#787878"
      stroke-width="9.72220039"
      stroke-linecap="round"
      stroke-linejoin="round"
    />
    <rect
      x="500.06924"
      gorn="0.1.148"
      y="1495.14"
      connectorname="16"
      height="9.7222004"
      id="connector15pin"
      width="200"
      fill="none"
      stroke-width="0"
    />
    <rect
      x="690.06921"
      gorn="0.1.149"
      y="1495.14"
      height="9.7222004"
      id="connector15terminal"
      width="10"
      fill="none"
      stroke-width="0"
    />
    <text
      x="480.62524"
      gorn="0.1.150"
      y="1509.72"
      font-size="48.61109924"
      id="label15"
      font-family="'Droid Sans'"
      text-anchor="end"
      fill="#8c8c8c"
      stroke="none">16</text>
    <text
      id="text215"
      class="text"
      x="600.06921"
      y="1485.42"
      font-size="34.72219849"
      font-family="'Droid Sans'"
      text-anchor="middle"
      fill="#8c8c8c"
      stroke="none"
      stroke-width="0">16</text>
  </g>
</svg>
