<?xml version='1.0' encoding='UTF-8' standalone='no'?>
<svg
  xmlns:dc="http://purl.org/dc/elements/1.1/"
  xmlns:cc="http://creativecommons.org/ns#"
  xmlns:rdf="http://www.w3.org/1999/02/22-rdf-syntax-ns#"
  xmlns:svg="http://www.w3.org/2000/svg"
  xmlns="http://www.w3.org/2000/svg"
  shape-rendering="crispEdges"
  viewBox="0 0 2014.3543 2538.2085"
  x="0in"
  width="2.0143542in"
  height="2.5382085in"
  version="1.2"
  y="0in"
  id="svg2">
  <metadata
    id="metadata27">
    <rdf:RDF>
      <cc:Work
        rdf:about="">
        <dc:format>image/svg+xml</dc:format>
        <dc:type
          rdf:resource="http://purl.org/dc/dcmitype/StillImage"
        />
        <dc:title/>
      </cc:Work>
    </rdf:RDF>
  </metadata>
  <defs
    id="defs25"
  />
  <desc
    id="desc4">
    <referenceFile>olimex-esp32-gateway_1_pcb.svg</referenceFile>
  </desc>
  <g
    id="silkscreen">
    <rect
      y="43.208603"
      height="2490"
      width="2000.0001"
      x="8.9370079"
      gorn="0.1.0"
      id="upper"
      stroke="#000000"
      fill="none"
      stroke-width="10"
    />
    <rect
      id="rect7816"
      width="704.58331"
      height="998.09192"
      x="75.185005"
      y="46.666611"
      stroke="#000000"
      fill="none"
      stroke-width="10"
    />
    <rect
      id="rect7814"
      width="500.30414"
      height="532.30597"
      x="5"
      y="1565.4167"
      stroke="#000000"
      fill="none"
      stroke-width="10"
    />
    <rect
      id="rect7812"
      width="304.59979"
      height="261.76376"
      x="1704.7544"
      y="1026.6459"
      stroke="#000000"
      fill="none"
      stroke-width="10"
    />
    <rect
      id="rect5499"
      width="658.32306"
      height="926.21887"
      x="967.86523"
      y="4.9999399"
      stroke="#000000"
      fill="none"
      stroke-width="9.99988"
    />
    <circle
      id="path7818"
      cx="1842.8662"
      cy="207.17703"
      r="80"
      fill="#000000"
      stroke="none"
      stroke-width="0"
    />
    <circle
      id="circle7820"
      cx="146.60417"
      cy="2260.0522"
      r="80"
      fill="#000000"
      stroke="none"
      stroke-width="0"
    />
  </g>
  <g
    id="copper1">
    <g
      id="copper0">
      <rect
        id="rect9379"
        width="57.999996"
        height="57.999996"
        x="30.406651"
        y="2446.8528"
        fill="none"
        stroke="#f7bd13"
        stroke-width="20"
      />
      <circle
        id="connector0pin"
        cx="59.774265"
        cy="2475.6892"
        r="29"
        fill="#ffffff"
        stroke="#f7bd13"
        stroke-width="20"
      />
      <circle
        id="connector1pin"
        cx="159.40665"
        cy="2475.6892"
        r="29"
        fill="#ffffff"
        stroke="#f7bd13"
        stroke-width="20"
      />
      <circle
        id="connector2pin"
        cx="259.40662"
        cy="2475.6892"
        r="29"
        fill="#ffffff"
        stroke="#f7bd13"
        stroke-width="20"
      />
      <circle
        id="connector3pin"
        cx="359.40662"
        cy="2475.6892"
        r="29"
        fill="#ffffff"
        stroke="#f7bd13"
        stroke-width="20"
      />
      <circle
        id="connector4pin"
        cx="459.40662"
        cy="2475.6892"
        r="29"
        fill="#ffffff"
        stroke="#f7bd13"
        stroke-width="20"
      />
      <circle
        id="connector5pin"
        cx="559.40656"
        cy="2475.6892"
        r="29"
        fill="#ffffff"
        stroke="#f7bd13"
        stroke-width="20"
      />
      <circle
        id="connector6pin"
        cx="659.40656"
        cy="2475.6892"
        r="29"
        fill="#ffffff"
        stroke="#f7bd13"
        stroke-width="20"
      />
      <circle
        id="connector7pin"
        cx="759.40656"
        cy="2475.6892"
        r="29"
        fill="#ffffff"
        stroke="#f7bd13"
        stroke-width="20"
      />
      <circle
        id="connector8pin"
        cx="859.40656"
        cy="2475.6892"
        r="29"
        fill="#ffffff"
        stroke="#f7bd13"
        stroke-width="20"
      />
      <circle
        id="connector9pin"
        cx="959.40656"
        cy="2475.6892"
        r="29"
        fill="#ffffff"
        stroke="#f7bd13"
        stroke-width="20"
      />
      <circle
        id="connector10pin"
        cx="1059.4065"
        cy="2475.6892"
        r="29"
        fill="#ffffff"
        stroke="#f7bd13"
        stroke-width="20"
      />
      <circle
        id="connector11pin"
        cx="1159.4065"
        cy="2475.6892"
        r="29"
        fill="#ffffff"
        stroke="#f7bd13"
        stroke-width="20"
      />
      <circle
        id="connector12pin"
        cx="1259.4065"
        cy="2475.6892"
        r="29"
        fill="#ffffff"
        stroke="#f7bd13"
        stroke-width="20"
      />
      <circle
        id="connector13pin"
        cx="1359.4065"
        cy="2475.6892"
        r="29"
        fill="#ffffff"
        stroke="#f7bd13"
        stroke-width="20"
      />
      <circle
        id="connector14pin"
        cx="1459.4065"
        cy="2475.6892"
        r="29"
        fill="#ffffff"
        stroke="#f7bd13"
        stroke-width="20"
      />
      <circle
        id="connector15pin"
        cx="1559.4065"
        cy="2475.6892"
        r="29"
        fill="#ffffff"
        stroke="#f7bd13"
        stroke-width="20"
      />
      <circle
        id="connector16pin"
        cx="1659.4065"
        cy="2475.6892"
        r="29"
        fill="#ffffff"
        stroke="#f7bd13"
        stroke-width="20"
      />
      <circle
        id="connector17pin"
        cx="1759.4065"
        cy="2475.6892"
        r="29"
        fill="#ffffff"
        stroke="#f7bd13"
        stroke-width="20"
      />
      <circle
        id="connector18pin"
        cx="1859.4065"
        cy="2475.6892"
        r="29"
        fill="#ffffff"
        stroke="#f7bd13"
        stroke-width="20"
      />
      <circle
        id="connector19pin"
        cx="1959.4065"
        cy="2475.6892"
        r="29"
        fill="#ffffff"
        stroke="#f7bd13"
        stroke-width="20"
      />
    </g>
  </g>
</svg>
