<?xml version='1.0' encoding='UTF-8' standalone='no'?>
<svg
  xmlns:dc="http://purl.org/dc/elements/1.1/"
  xmlns:cc="http://creativecommons.org/ns#"
  xmlns:rdf="http://www.w3.org/1999/02/22-rdf-syntax-ns#"
  xmlns:svg="http://www.w3.org/2000/svg"
  xmlns="http://www.w3.org/2000/svg"
  id="svg2"
  y="0in"
  version="1.2"
  height="0.51000005in"
  width="0.80966109in"
  x="0in"
  viewBox="0 0 809.66111 510.00004">
  <metadata
    id="metadata41">
    <rdf:RDF>
      <cc:Work
        rdf:about="">
        <dc:format>image/svg+xml</dc:format>
        <dc:type
          rdf:resource="http://purl.org/dc/dcmitype/StillImage"
        />
        <dc:title/>
      </cc:Work>
    </rdf:RDF>
  </metadata>
  <defs
    id="defs39"
  />
  <desc
    id="desc4">
    <referenceFile>ac-light-dimmer-3terminal_1_schematic.svg</referenceFile>
  </desc>
  <g
    id="schematic">
    <rect
      stroke-linecap="round"
      stroke-width="10"
      stroke="#000000"
      fill="none"
      x="105.06967"
      width="600.00006"
      height="500.00003"
      y="5"
      id="rect7"
    />
    <text
      font-size="60"
      y="133.11499"
      x="404.23828"
      id="label"
      font-family="'Droid Sans'"
      text-anchor="middle"
      fill="#000000">AC</text>
    <text
      fill="#555555"
      text-anchor="start"
      font-family="'Droid Sans'"
      id="label0"
      x="134.92879"
      y="122.84821"
      font-size="49">OUT</text>
    <text
      fill="#555555"
      text-anchor="start"
      font-family="'Droid Sans'"
      id="label1"
      x="130.58423"
      y="222.5"
      font-size="49">N</text>
    <text
      fill="#555555"
      text-anchor="end"
      font-family="'Droid Sans'"
      font-size="49"
      y="222.5"
      x="678.03131"
      id="text79">Z-C</text>
    <text
      fill="#555555"
      text-anchor="end"
      font-family="'Droid Sans'"
      font-size="49"
      y="122.49999"
      x="676.30865"
      id="text81">PSM</text>
    <text
      fill="#555555"
      text-anchor="start"
      font-family="'Droid Sans'"
      id="text42"
      x="130.72169"
      y="322.32837"
      font-size="49.0516"
      transform="scale(0.99894841,1.0010527)"
      stroke-width="1">IN</text>
    <text
      fill="#555555"
      text-anchor="end"
      font-family="'Droid Sans'"
      font-size="49"
      y="422.85379"
      x="678.03131"
      id="text50">VCC</text>
    <text
      fill="#555555"
      text-anchor="end"
      font-family="'Droid Sans'"
      font-size="49"
      y="322.85376"
      x="676.30865"
      id="text54">GND</text>
    <text
      font-size="60"
      y="233.11496"
      x="404.23828"
      id="text66"
      font-family="'Droid Sans'"
      text-anchor="middle"
      fill="#000000">Light</text>
    <text
      font-size="60"
      y="333.25366"
      x="404.23828"
      id="text68"
      font-family="'Droid Sans'"
      text-anchor="middle"
      fill="#000000">Dimmer</text>
    <text
      font-size="60"
      y="432.87674"
      x="404.23828"
      id="text70"
      font-family="'Droid Sans'"
      text-anchor="middle"
      fill="#000000">Module</text>
    <line
      id="connector0pin"
      x1="709.66107"
      x2="804.66107"
      y2="405.02148"
      y1="405.02148"
      fill="none"
      stroke="#555555"
      stroke-width="10"
      stroke-linecap="round"
    />
    <rect
      y="400.02148"
      height="10"
      width="10"
      x="799.66107"
      id="connector0terminal"
      fill="none"
      stroke-width="0"
    />
    <line
      id="connector1pin"
      x1="709.66107"
      x2="804.66107"
      y2="305.02148"
      y1="305.02148"
      fill="none"
      stroke="#555555"
      stroke-width="10"
      stroke-linecap="round"
    />
    <rect
      y="301.02148"
      height="10"
      width="10"
      x="799.66107"
      id="connector1terminal"
      fill="none"
      stroke-width="0"
    />
    <line
      id="connector2pin"
      x1="709.66107"
      x2="804.66107"
      y2="204.66769"
      y1="204.66769"
      fill="none"
      stroke="#555555"
      stroke-width="10"
      stroke-linecap="round"
    />
    <rect
      y="199.66769"
      height="10"
      width="10"
      x="799.66107"
      id="connector2terminal"
      fill="none"
      stroke-width="0"
    />
    <line
      id="connector3pin"
      x1="709.66107"
      x2="804.66107"
      y2="104.6677"
      y1="104.6677"
      fill="none"
      stroke="#555555"
      stroke-width="10"
      stroke-linecap="round"
    />
    <rect
      y="100.6677"
      height="10"
      width="10"
      x="799.66107"
      id="connector3terminal"
      fill="none"
      stroke-width="0"
    />
    <line
      stroke-linecap="round"
      stroke-width="10"
      stroke="#555555"
      fill="none"
      y1="105.13842"
      y2="105.13842"
      x2="100.18991"
      x1="5"
      id="connector4pin"
    />
    <rect
      stroke-width="0"
      fill="none"
      id="connector4terminal"
      x="0.069665879"
      width="10"
      height="10"
      y="100.27781"
    />
    <line
      stroke-linecap="round"
      stroke-width="10"
      stroke="#555555"
      fill="none"
      y1="205.13843"
      y2="205.13843"
      x2="100.18991"
      x1="5.0000005"
      id="connector5pin"
    />
    <rect
      stroke-width="0"
      fill="none"
      id="connector5terminal"
      x="0.069665879"
      width="10"
      height="10"
      y="200"
    />
    <line
      stroke-linecap="round"
      stroke-width="10"
      stroke="#555555"
      fill="none"
      y1="305.2695"
      y2="305.2695"
      x2="100.18991"
      x1="5.0000005"
      id="connector6pin"
    />
    <rect
      stroke-width="0"
      fill="none"
      id="connector6terminal"
      x="0.069665879"
      width="10"
      height="10.021065"
      y="300.12027"
    />
  </g>
</svg>
