<?xml version="1.0" encoding="utf-8"?>
<!-- Generator: Adobe Illustrator 16.0.0, SVG Export Plug-In . SVG Version: 6.00 Build 0)  -->
<!DOCTYPE svg PUBLIC "-//W3C//DTD SVG 1.1//EN" "http://www.w3.org/Graphics/SVG/1.1/DTD/svg11.dtd">
<svg version="1.1"
	 id="Layer_1" xmlns:inkscape="http://www.inkscape.org/namespaces/inkscape" xmlns:sodipodi="http://sodipodi.sourceforge.net/DTD/sodipodi-0.dtd" xmlns:rdf="http://www.w3.org/1999/02/22-rdf-syntax-ns#" xmlns:cc="http://creativecommons.org/ns#" xmlns:dc="http://purl.org/dc/elements/1.1/" xmlns:svg="http://www.w3.org/2000/svg" sodipodi:docname="svg.pcb.AG-USBA_7b58b9737e8d0a66302fd57638ef439e_2_pcb.svg" inkscape:version="0.92.4 (5da689c313, 2019-01-14)"
	 xmlns="http://www.w3.org/2000/svg" xmlns:xlink="http://www.w3.org/1999/xlink" x="0px" y="0px" width="20.128px"
	 height="41.468px" viewBox="0 0.106 20.128 41.468" enable-background="new 0 0.106 20.128 41.468" xml:space="preserve">
<g id="copper1">
	<rect id="connector2pad" x="13.042" y="22.272" fill="#F7BD13" stroke="none" width="7.085" height="2.834"/>
	<rect id="connector3pad" x="13.042" y="16.574" fill="#F7BD13" stroke="none" width="7.085" height="2.835"/>
	<rect id="connector4pad" x="13.043" y="29.076" fill="#F7BD13" stroke="none" width="7.085" height="2.834"/>
	<rect id="connector5pad" x="13.042" y="9.771" fill="#F7BD13" stroke="none" width="7.085" height="2.835"/>
	<g id="copper0">
		<g id="connector6pad">
			<circle fill="none" stroke="#F7BD13" stroke-width="1.5" cx="8.812" cy="4.399" r="3.543"/>
			<path fill="none" stroke="#F7BD13" stroke-width="1.5" d="M12.356,4.399c0,1.174-0.952,2.126-2.126,2.126H7.395
				c-1.174,0-2.126-0.952-2.126-2.126l0,0c0-1.174,0.952-2.126,2.126-2.126h2.834C11.404,2.273,12.356,3.225,12.356,4.399
				L12.356,4.399z"/>
		</g>
		<g id="connector7pad">
			<circle fill="none" stroke="#F7BD13" stroke-width="1.5" cx="8.812" cy="37.28" r="3.543"/>
			<path fill="none" stroke="#F7BD13" stroke-width="1.5" d="M12.356,37.28c0,1.175-0.952,2.126-2.126,2.126H7.395
				c-1.174,0-2.126-0.951-2.126-2.126l0,0c0-1.175,0.952-2.126,2.126-2.126h2.834C11.404,35.154,12.356,36.105,12.356,37.28
				L12.356,37.28z"/>
		</g>
	</g>
</g>
<g id="silkscreen">
	<g id="g12">
		
			<line id="line4" fill="none" stroke="#F0F0F0" stroke-width="0.576" stroke-linecap="round" x1="0.288" y1="3.832" x2="0.288" y2="37.849"/>
		
			<line id="line6" fill="none" stroke="#F0F0F0" stroke-width="0.576" stroke-linecap="round" x1="0.288" y1="3.832" x2="3.123" y2="3.832"/>
		
			<line id="line8" fill="none" stroke="#F0F0F0" stroke-width="0.576" stroke-linecap="round" x1="0.288" y1="37.849" x2="3.123" y2="37.849"/>
		
			<line id="line10" fill="none" stroke="#F0F0F0" stroke-width="0.576" stroke-linecap="round" x1="11.625" y1="32.181" x2="11.625" y2="9.501"/>
		<circle id="path845" fill="#F0F0F0" cx="8.124" cy="27.219" r="1.417"/>
		<circle id="circle847" fill="#F0F0F0" cx="8.124" cy="14.433" r="1.417"/>
	</g>
</g>
</svg>
