<?xml version='1.0' encoding='UTF-8' standalone='no'?>
<svg
  xmlns:dc="http://purl.org/dc/elements/1.1/"
  xmlns:cc="http://creativecommons.org/ns#"
  xmlns:rdf="http://www.w3.org/1999/02/22-rdf-syntax-ns#"
  xmlns:svg="http://www.w3.org/2000/svg"
  xmlns="http://www.w3.org/2000/svg"
  viewBox="0 0 463.88194 904.90908"
  x="0in"
  width="0.46388197in"
  height="0.90490913in"
  version="1.2"
  y="0in"
  id="svg2">
  <metadata
    id="metadata24">
    <rdf:RDF>
      <cc:Work
        rdf:about="">
        <dc:format>image/svg+xml</dc:format>
        <dc:type
          rdf:resource="http://purl.org/dc/dcmitype/StillImage"
        />
        <dc:title/>
      </cc:Work>
    </rdf:RDF>
  </metadata>
  <defs
    id="defs22"
  />
  <desc
    id="desc4">
    <referenceFile>AK-FST-433mhz-transmitter_1_breadboard.svg</referenceFile>
  </desc>
  <g
    id="breadboard">
    <rect
      id="upper"
      gorn="0.1.0"
      x="52.46463"
      width="411.4173"
      height="600.39368"
      y="52.06958"
      fill="#008000"
      stroke-width="0"
    />
    <circle
      id="path1172"
      cx="195"
      cy="195"
      r="180"
      fill="#e6e6e6"
      stroke="#666666"
      stroke-width="30"
    />
    <polygon
      id="polygon7"
      points="217.113,0 217.113,0 0,217.113 0,782.747 217.113,1000 782.747,1000 1000,782.747 1000,217.113 782.747,0 "
      transform="matrix(-0.1,0,0,-0.1,354.82733,642.26895)"
      fill="#404040"
    />
    <polygon
      id="polygon23"
      points="1217.11,0 1217.11,0 1000,217.113 1000,782.747 1217.11,1000 1782.75,1000 2000,782.747 2000,217.113 1782.75,0 "
      transform="matrix(-0.1,0,0,-0.1,354.82733,642.26895)"
      fill="#404040"
    />
    <polygon
      id="polygon39-2"
      points="2217.11,0 2217.11,0 2000,217.113 2000,782.747 2217.11,1000 2782.75,1000 3000,782.747 3000,217.113 2782.75,0 "
      transform="matrix(-0.1,0,0,-0.1,354.82733,642.26895)"
      fill="#404040"
    />
    <polygon
      id="polygon33"
      points="1659.67,340.463 1659.67,659.674 1582.03,582.025 1582.03,417.974 "
      transform="matrix(0.19251476,-0.02924925,0.05130482,0.05099884,-233.02379,904.17855)"
      fill="#aa8800"
    />
    <rect
      id="rect3422"
      width="8.8936434"
      height="8.5491524"
      x="-671.06506"
      y="-657.28577"
      transform="matrix(-0.81476956,-0.57978493,0.66526599,-0.74660643,0,0)"
      fill="#d4aa00"
      fill-opacity="1"
      stroke-width="0.09999917"
    />
    <rect
      id="rect29"
      x="871.51221"
      height="9.4534826"
      y="-102.03055"
      width="16.4189"
      transform="rotate(90)"
      fill="#ffffff"
      stroke-width="0.09999926"
    />
    <polygon
      id="polygon35"
      points="1659.67,659.674 1340.46,659.674 1417.97,582.025 1582.03,582.025 "
      transform="matrix(-0.09999851,0,0.0521716,-0.1239789,241.24929,961.34055)"
      fill="#d4aa00"
    />
    <rect
      id="rect43"
      x="-142.65932"
      height="31.921101"
      y="-609.98657"
      width="31.920624"
      transform="scale(-1)"
      fill="#8d8c8c"
      stroke-width="0.09999926"
    />
    <rect
      id="rect45"
      x="-134.90843"
      height="16.4189"
      y="-602.23547"
      width="16.418655"
      transform="scale(-1)"
      fill="#8c8663"
      stroke-width="0.09999926"
    />
    <polygon
      id="polygon47"
      points="2340.46,340.463 2417.97,417.974 2582.03,417.974 2659.67,340.463 "
      transform="matrix(-0.09999851,0,0,-0.1,376.70183,644.03285)"
      fill="#b8af82"
    />
    <polygon
      id="polygon49"
      points="2582.03,582.025 2582.03,417.974 2659.67,340.463 2659.67,659.674 "
      transform="matrix(-0.09999851,0,0,-0.1,376.70183,644.03285)"
      fill="#80795b"
    />
    <polygon
      id="polygon51"
      points="2417.97,582.025 2582.03,582.025 2659.67,659.674 2340.46,659.674 "
      transform="matrix(-0.09999851,0,0,-0.1,376.70183,644.03285)"
      fill="#5e5b43"
    />
    <polygon
      id="polygon53-8"
      points="2340.46,340.463 2417.97,417.974 2417.97,582.025 2340.46,659.674 "
      transform="matrix(-0.09999851,0,0,-0.1,376.70183,644.03285)"
      fill="#9a916c"
    />
    <rect
      y="-874.57971"
      x="-109.90891"
      height="295.05212"
      width="8.0207138"
      id="rect3420"
      transform="scale(-1)"
      fill="#d4aa00"
      fill-opacity="1"
      stroke-width="0.09999926"
    />
    <rect
      id="rect3424"
      width="19.999704"
      height="28.838837"
      x="-103.13817"
      y="-608.88733"
      transform="scale(-1)"
      fill="#d4aa00"
      fill-opacity="1"
      stroke-width="0.09999926"
    />
    <rect
      id="rect27"
      x="-586.83264"
      height="17.44429"
      y="-583.64197"
      width="28.766558"
      transform="matrix(-0.7140099,-0.7001356,0.53240594,-0.84648917,0,0)"
      fill="#ffffff"
      stroke-width="0.09999941"
    />
    <rect
      y="-879.65784"
      x="-141.80948"
      height="300.00003"
      width="31.999523"
      id="rect3681"
      transform="scale(-1)"
      fill="#ffcc00"
      fill-opacity="1"
      stroke-width="0.09999926"
    />
    <polygon
      transform="matrix(0.19251476,-0.02924925,0.05130482,0.05099884,-132.85428,904.17855)"
      points="1659.67,659.674 1582.03,582.025 1582.03,417.974 1659.67,340.463 "
      id="polygon3444"
      fill="#aa8800"
    />
    <rect
      transform="matrix(-0.81476956,-0.57978493,0.66526599,-0.74660643,0,0)"
      y="-598.85974"
      x="-746.30188"
      height="8.5491524"
      width="8.8936434"
      id="rect3446"
      fill="#d4aa00"
      fill-opacity="1"
      stroke-width="0.09999917"
    />
    <rect
      transform="rotate(90)"
      width="16.4189"
      y="-202.20007"
      height="9.4534826"
      x="871.51221"
      id="rect3448"
      fill="#ffffff"
      stroke-width="0.09999926"
    />
    <polygon
      transform="matrix(-0.09999851,0,0.0521716,-0.1239789,341.4188,961.34055)"
      points="1340.46,659.674 1417.97,582.025 1582.03,582.025 1659.67,659.674 "
      id="polygon3450"
      fill="#d4aa00"
    />
    <rect
      width="31.920624"
      y="-609.98657"
      height="31.921101"
      x="-242.82883"
      id="rect3452"
      transform="scale(-1)"
      fill="#8d8c8c"
      stroke-width="0.09999926"
    />
    <rect
      width="16.418655"
      y="-602.23547"
      height="16.4189"
      x="-235.07794"
      id="rect3454"
      transform="scale(-1)"
      fill="#8c8663"
      stroke-width="0.09999926"
    />
    <polygon
      transform="matrix(-0.09999851,0,0,-0.1,476.87134,644.03285)"
      points="2417.97,417.974 2582.03,417.974 2659.67,340.463 2340.46,340.463 "
      id="polygon3456"
      fill="#b8af82"
    />
    <polygon
      transform="matrix(-0.09999851,0,0,-0.1,476.87134,644.03285)"
      points="2582.03,417.974 2659.67,340.463 2659.67,659.674 2582.03,582.025 "
      id="polygon3458"
      fill="#80795b"
    />
    <polygon
      transform="matrix(-0.09999851,0,0,-0.1,476.87134,644.03285)"
      points="2582.03,582.025 2659.67,659.674 2340.46,659.674 2417.97,582.025 "
      id="polygon3460"
      fill="#5e5b43"
    />
    <polygon
      transform="matrix(-0.09999851,0,0,-0.1,476.87134,644.03285)"
      points="2417.97,417.974 2417.97,582.025 2340.46,659.674 2340.46,340.463 "
      id="polygon3462"
      fill="#9a916c"
    />
    <rect
      id="rect3466"
      width="8.0207138"
      height="295.05212"
      x="-210.0784"
      y="-874.57971"
      transform="scale(-1)"
      fill="#d4aa00"
      fill-opacity="1"
      stroke-width="0.09999926"
    />
    <rect
      y="-608.88184"
      x="-203.30768"
      height="28.833332"
      width="19.999704"
      id="rect3468"
      transform="scale(-1)"
      fill="#d4aa00"
      fill-opacity="1"
      stroke-width="0.09999926"
    />
    <rect
      transform="matrix(-0.7140099,-0.7001356,0.53240594,-0.84648917,0,0)"
      width="28.766558"
      y="-511.87039"
      height="17.44429"
      x="-673.60706"
      id="rect3470"
      fill="#ffffff"
      stroke-width="0.09999941"
    />
    <rect
      id="rect3679"
      width="31.999523"
      height="300.00003"
      x="-241.97897"
      y="-879.65784"
      transform="scale(-1)"
      fill="#ffcc00"
      fill-opacity="1"
      stroke-width="0.09999926"
    />
    <polygon
      id="polygon3474"
      points="1659.67,659.674 1582.03,582.025 1582.03,417.974 1659.67,340.463 "
      transform="matrix(0.19251476,-0.02924925,0.05130482,0.05099884,-32.855761,903.93765)"
      fill="#aa8800"
    />
    <rect
      id="rect3476"
      width="8.8936434"
      height="8.5491524"
      x="-821.24915"
      y="-540.33606"
      transform="matrix(-0.81476956,-0.57978493,0.66526599,-0.74660643,0,0)"
      fill="#d4aa00"
      fill-opacity="1"
      stroke-width="0.09999917"
    />
    <rect
      id="rect3478"
      x="871.27136"
      height="9.4534826"
      y="-302.19858"
      width="16.4189"
      transform="rotate(90)"
      fill="#ffffff"
      stroke-width="0.09999926"
    />
    <polygon
      id="polygon3480"
      points="1340.46,659.674 1417.97,582.025 1582.03,582.025 1659.67,659.674 "
      transform="matrix(-0.09999851,0,0.0521716,-0.1239789,441.41732,961.09965)"
      fill="#d4aa00"
    />
    <rect
      id="rect3482"
      x="-342.82733"
      height="31.921101"
      y="-609.74573"
      width="31.920624"
      transform="scale(-1)"
      fill="#8d8c8c"
      stroke-width="0.09999926"
    />
    <rect
      id="rect3484"
      x="-335.07645"
      height="16.4189"
      y="-601.99463"
      width="16.418655"
      transform="scale(-1)"
      fill="#8c8663"
      stroke-width="0.09999926"
    />
    <polygon
      id="polygon3486"
      points="2417.97,417.974 2582.03,417.974 2659.67,340.463 2340.46,340.463 "
      transform="matrix(-0.09999851,0,0,-0.1,576.86986,643.79195)"
      fill="#b8af82"
    />
    <polygon
      id="polygon3488"
      points="2582.03,417.974 2659.67,340.463 2659.67,659.674 2582.03,582.025 "
      transform="matrix(-0.09999851,0,0,-0.1,576.86986,643.79195)"
      fill="#80795b"
    />
    <polygon
      id="polygon3490"
      points="2582.03,582.025 2659.67,659.674 2340.46,659.674 2417.97,582.025 "
      transform="matrix(-0.09999851,0,0,-0.1,576.86986,643.79195)"
      fill="#5e5b43"
    />
    <polygon
      id="polygon3492"
      points="2417.97,417.974 2417.97,582.025 2340.46,659.674 2340.46,340.463 "
      transform="matrix(-0.09999851,0,0,-0.1,576.86986,643.79195)"
      fill="#9a916c"
    />
    <rect
      y="-874.33887"
      x="-310.07693"
      height="295.05212"
      width="8.0207138"
      id="rect3496"
      transform="scale(-1)"
      fill="#d4aa00"
      fill-opacity="1"
      stroke-width="0.09999926"
    />
    <rect
      id="rect3498"
      width="19.999704"
      height="28.833332"
      x="-303.30621"
      y="-608.64087"
      transform="scale(-1)"
      fill="#d4aa00"
      fill-opacity="1"
      stroke-width="0.09999926"
    />
    <rect
      id="rect3500"
      x="-760.10217"
      height="17.44429"
      y="-440.0452"
      width="28.766558"
      transform="matrix(-0.7140099,-0.7001356,0.53240594,-0.84648917,0,0)"
      fill="#ffffff"
      stroke-width="0.09999941"
    />
    <rect
      y="-879.41699"
      x="-341.97751"
      height="300.00003"
      width="31.999523"
      id="rect3677"
      transform="scale(-1)"
      fill="#ffcc00"
      fill-opacity="1"
      stroke-width="0.09999926"
    />
    <text
      id="text3683"
      font-size="48.61102295"
      y="219.30591"
      x="-521.60742"
      transform="rotate(-90)"
      font-family="OCRA"
      fill="#ffffff">GND</text>
    <text
      x="-527.1427"
      y="117.10555"
      font-size="48.61102295"
      id="text3685"
      transform="rotate(-90)"
      font-family="OCRA"
      fill="#ffffff">ANT</text>
    <text
      x="-518.26636"
      y="426.67795"
      font-size="48.61102295"
      id="text3687"
      transform="rotate(-90)"
      font-family="OCRA"
      fill="#ffffff">VCC</text>
    <text
      transform="rotate(-90)"
      x="-521.60742"
      y="321.6666"
      font-size="48.61102295"
      id="text1185"
      font-family="OCRA"
      fill="#ffffff">TXD</text>
    <text
      transform="rotate(-90)"
      id="text1187"
      font-size="48.61102295"
      y="446.35162"
      x="-270.24463"
      font-family="OCRA"
      fill="#ffffff">AK-FST</text>
    <rect
      id="rect1189"
      width="40.7952"
      height="33.462162"
      x="459.54431"
      y="24.335592"
      transform="matrix(0.82284511,0.56826572,-0.52117133,0.85345208,0,0)"
      fill="#e6e6e6"
      stroke="none"
      stroke-width="0"
    />
    <polygon
      id="polygon7-4"
      points="1000,782.747 1000,217.113 782.747,0 217.113,0 0,217.113 0,782.747 217.113,1000 782.747,1000 "
      transform="matrix(-0.09999999,0,0,-0.09999999,454.61611,642.50995)"
      fill="#404040"
    />
    <polygon
      id="polygon3474-0"
      points="1582.03,417.974 1659.67,340.463 1659.67,659.674 1582.03,582.025 "
      transform="matrix(0.19251478,-0.02924927,0.05130479,0.05099885,66.93302,904.17865)"
      fill="#aa8800"
    />
    <rect
      id="rect3476-4"
      width="8.8936434"
      height="8.5491524"
      x="-896.36133"
      y="-482.32974"
      transform="matrix(-0.81476953,-0.57978497,0.66526601,-0.74660642,0,0)"
      fill="#d4aa00"
      fill-opacity="1"
      stroke-width="0.09999917"
    />
    <rect
      id="rect3478-5"
      x="871.51233"
      height="9.4534826"
      y="-401.98737"
      width="16.418901"
      transform="rotate(90)"
      fill="#ffffff"
      stroke-width="0.09999926"
    />
    <polygon
      id="polygon3480-2"
      points="1582.03,582.025 1659.67,659.674 1340.46,659.674 1417.97,582.025 "
      transform="matrix(-0.09999854,0,0.05217156,-0.12397895,541.20611,961.34075)"
      fill="#d4aa00"
    />
    <rect
      id="rect3482-2"
      x="-442.61615"
      height="31.921101"
      y="-609.98669"
      width="31.920624"
      transform="scale(-1)"
      fill="#8d8c8c"
      stroke-width="0.09999926"
    />
    <rect
      id="rect3484-3"
      x="-434.86523"
      height="16.418901"
      y="-602.2356"
      width="16.418655"
      transform="scale(-1)"
      fill="#8c8663"
      stroke-width="0.09999926"
    />
    <polygon
      id="polygon3486-0"
      points="2659.67,340.463 2340.46,340.463 2417.97,417.974 2582.03,417.974 "
      transform="matrix(-0.09999854,0,0,-0.09999999,676.65863,644.03295)"
      fill="#b8af82"
    />
    <polygon
      id="polygon3488-3"
      points="2659.67,659.674 2582.03,582.025 2582.03,417.974 2659.67,340.463 "
      transform="matrix(-0.09999854,0,0,-0.09999999,676.65863,644.03295)"
      fill="#80795b"
    />
    <polygon
      id="polygon3490-5"
      points="2340.46,659.674 2417.97,582.025 2582.03,582.025 2659.67,659.674 "
      transform="matrix(-0.09999854,0,0,-0.09999999,676.65863,644.03295)"
      fill="#5e5b43"
    />
    <polygon
      id="polygon3492-3"
      points="2340.46,659.674 2340.46,340.463 2417.97,417.974 2417.97,582.025 "
      transform="matrix(-0.09999854,0,0,-0.09999999,676.65863,644.03295)"
      fill="#9a916c"
    />
    <rect
      y="-874.57983"
      x="-409.86572"
      height="295.05212"
      width="8.0207138"
      id="rect3496-6"
      transform="scale(-1)"
      fill="#d4aa00"
      fill-opacity="1"
      stroke-width="0.09999926"
    />
    <rect
      id="rect3498-0"
      width="19.999704"
      height="28.833332"
      x="-403.09503"
      y="-608.88184"
      transform="scale(-1)"
      fill="#d4aa00"
      fill-opacity="1"
      stroke-width="0.09999926"
    />
    <rect
      id="rect3500-1"
      x="-846.67816"
      height="17.44429"
      y="-368.72238"
      width="28.766556"
      transform="matrix(-0.71400989,-0.70013562,0.53240589,-0.8464892,0,0)"
      fill="#ffffff"
      stroke-width="0.09999937"
    />
    <rect
      y="-879.65796"
      x="-441.7663"
      height="300.00006"
      width="31.999523"
      id="rect3677-4"
      transform="scale(-1)"
      fill="#ffcc00"
      fill-opacity="1"
      stroke-width="0.09999926"
    />
    <rect
      id="connector0pin"
      width="31.999523"
      height="100.00002"
      x="-141.80948"
      y="-879.65784"
      transform="scale(-1)"
      fill="#ffcc00"
      fill-opacity="1"
      stroke-width="0.09999926"
    />
    <rect
      id="connector0terminal"
      gorn="0.1.5"
      x="119.61613"
      width="10"
      height="10"
      y="869.41187"
      fill="#ffcc00"
      stroke="none"
      stroke-width="0"
    />
    <rect
      y="-879.65784"
      x="-241.97946"
      height="100.00002"
      width="32"
      id="connector1pin"
      transform="scale(-1)"
      fill="#ffcc00"
      fill-opacity="1"
      stroke-width="0.09999926"
    />
    <rect
      id="connector1terminal"
      gorn="0.1.7"
      x="219.61615"
      width="10"
      height="10"
      y="869.41199"
      fill="#ffcc00"
      stroke="none"
      stroke-width="0"
    />
    <rect
      id="connector2pin"
      width="31.999523"
      height="100.00002"
      x="-341.97751"
      y="-879.41699"
      transform="scale(-1)"
      fill="#ffcc00"
      fill-opacity="1"
      stroke-width="0.09999926"
    />
    <rect
      id="connector2terminal"
      gorn="0.1.9"
      x="319.61615"
      width="10"
      height="10"
      y="869.41199"
      fill="#ffcc00"
      stroke="none"
      stroke-width="0"
    />
    <rect
      id="connector3pin"
      width="31.999523"
      height="100.00003"
      x="-441.7663"
      y="-879.65796"
      transform="scale(-1)"
      fill="#ffcc00"
      fill-opacity="1"
      stroke-width="0.09999926"
    />
    <rect
      id="connector3terminal"
      gorn="0.1.9"
      x="419.40497"
      width="10"
      height="10"
      y="869.65295"
      fill="#ffcc00"
      stroke="none"
      stroke-width="0"
    />
  </g>
</svg>
