<?xml version='1.0' encoding='UTF-8' standalone='no'?>
<!-- Created with Fritzing (http://www.fritzing.org/) -->
  <svg
  xmlns="http://www.w3.org/2000/svg"
  xmlns:svg="http://www.w3.org/2000/svg"
  x="0in"
  y="0in"
  viewBox="0 0 2886.1899 1288.0548"
  width="2.8861899in"
  height="1.2880548in"
  version="1.2"
  id="svg201">
  <defs
    id="defs205"
  />
  <desc
    id="desc2">Fritzing
    footprint
    generated
    by
    brd2svg</desc>
  <g
    id="silkscreen">
    <path
      stroke-width="10"
      d="M 107.1478,1283.8636 A 49.159604,49.159604 0 0 1 54.134038,1230.8638 V 56.022163 A 48.002385,48.002385 0 0 1 105.99377,4.1722878 H 2828.4099 A 48.705161,48.705161 0 0 1 2880.9792,56.72355 V 1235.9193 a 44.083644,44.083644 0 0 1 -47.9582,47.9443 H 107.1478"
      fill="none"
      stroke="#000000"
      id="path4"
    />
    <line
      x1="27.499933"
      stroke-width="10"
      x2="2.499994"
      y2="481.42117"
      stroke-linecap="round"
      stroke="#000000"
      y1="506.42105"
      id="line34"
    />
    <line
      x1="2.499994"
      stroke-width="10"
      x2="2.499994"
      y2="831.42029"
      stroke-linecap="round"
      stroke="#000000"
      y1="481.42117"
      id="line36"
    />
    <line
      x1="2.499994"
      stroke-width="10"
      x2="27.499933"
      y2="806.42029"
      stroke-linecap="round"
      stroke="#000000"
      y1="831.42029"
      id="line38"
    />
    <line
      x1="27.499933"
      stroke-width="10"
      x2="27.499933"
      y2="781.42041"
      stroke-linecap="round"
      stroke="#000000"
      y1="531.42102"
      id="line40"
    />
    <line
      x1="27.499933"
      stroke-width="10"
      x2="202.49953"
      y2="506.42105"
      stroke-linecap="round"
      stroke="#000000"
      y1="506.42105"
      id="line42"
    />
    <path
      stroke-width="10"
      d="M 227.49945,531.42101 A 24.99994,24.99994 0 0 0 202.49951,506.42107"
      fill="none"
      stroke="#000000"
      id="path44"
    />
    <line
      x1="227.49944"
      stroke-width="10"
      x2="227.49944"
      y2="781.42041"
      stroke-linecap="round"
      stroke="#000000"
      y1="531.42102"
      id="line46"
    />
    <path
      stroke-width="10"
      d="m 202.49951,806.42035 a 24.99994,24.99994 0 0 0 24.99994,-24.99994"
      fill="none"
      stroke="#000000"
      id="path48"
    />
    <line
      x1="202.49953"
      stroke-width="10"
      x2="27.499933"
      y2="806.42029"
      stroke-linecap="round"
      stroke="#000000"
      y1="806.42029"
      id="line50"
    />
    <line
      x1="2631.48"
      stroke-width="10"
      x2="2867.6875"
      y2="300.47571"
      stroke-linecap="round"
      stroke="#000000"
      y1="300.47571"
      id="line68"
    />
    <line
      x1="2867.6875"
      stroke-width="10"
      x2="2867.6875"
      y2="1009.1282"
      stroke-linecap="round"
      stroke="#000000"
      y1="300.47571"
      id="line70"
    />
    <line
      x1="2867.6875"
      stroke-width="10"
      x2="2631.48"
      y2="1009.1282"
      stroke-linecap="round"
      stroke="#000000"
      y1="1009.1282"
      id="line72"
    />
    <line
      x1="2631.48"
      stroke-width="10"
      x2="2781.4795"
      y2="400.47552"
      stroke-linecap="round"
      stroke="#000000"
      y1="400.47552"
      id="line80"
    />
    <line
      x1="2781.4795"
      stroke-width="10"
      x2="2781.4795"
      y2="500.47659"
      stroke-linecap="round"
      stroke="#000000"
      y1="400.47552"
      id="line82"
    />
    <line
      x1="2781.4795"
      stroke-width="10"
      x2="2631.48"
      y2="500.47659"
      stroke-linecap="round"
      stroke="#000000"
      y1="500.47659"
      id="line84"
    />
    <line
      x1="2631.48"
      stroke-width="10"
      x2="2781.4795"
      y2="600.47644"
      stroke-linecap="round"
      stroke="#000000"
      y1="600.47644"
      id="line88"
    />
    <line
      x1="2781.4795"
      stroke-width="10"
      x2="2781.4795"
      y2="700.47614"
      stroke-linecap="round"
      stroke="#000000"
      y1="600.47644"
      id="line90"
    />
    <line
      x1="2781.4795"
      stroke-width="10"
      x2="2631.48"
      y2="700.47614"
      stroke-linecap="round"
      stroke="#000000"
      y1="700.47614"
      id="line92"
    />
    <line
      x1="2631.48"
      stroke-width="10"
      x2="2781.4795"
      y2="800.47595"
      stroke-linecap="round"
      stroke="#000000"
      y1="800.47595"
      id="line96"
    />
    <line
      x1="2781.4795"
      stroke-width="10"
      x2="2781.4795"
      y2="900.47559"
      stroke-linecap="round"
      stroke="#000000"
      y1="800.47595"
      id="line98"
    />
    <line
      x1="2781.4795"
      stroke-width="10"
      x2="2781.4795"
      y2="950.47552"
      stroke-linecap="round"
      stroke="#000000"
      y1="900.47559"
      id="line100"
    />
    <line
      x1="2781.4795"
      stroke-width="10"
      x2="2631.48"
      y2="950.47552"
      stroke-linecap="round"
      stroke="#000000"
      y1="950.47552"
      id="line102"
    />
    <line
      x1="2781.4795"
      stroke-width="10"
      x2="2631.48"
      y2="900.47559"
      stroke-linecap="round"
      stroke="#000000"
      y1="900.47559"
      id="line104"
    />
    <line
      x1="2605.9521"
      stroke-width="7.99998"
      x2="2882.1875"
      y2="295.27576"
      stroke-linecap="round"
      stroke="#000000"
      y1="295.27576"
      id="line122"
    />
    <line
      x1="2605.9521"
      stroke-width="7.99998"
      x2="2882.1875"
      y2="1013.9337"
      stroke-linecap="round"
      stroke="#000000"
      y1="1013.9337"
      id="line124"
    />
    <line
      x1="2882.1875"
      stroke-width="7.99998"
      x2="2882.1875"
      y2="1013.9337"
      stroke-linecap="round"
      stroke="#000000"
      y1="295.27576"
      id="line126"
    />
    <circle
      id="circle1492"
      cx="2808.189"
      cy="101"
      r="60"
      fill="#000000"
      stroke="none"
      stroke-width="0"
    />
    <circle
      id="circle1490"
      cx="2808.189"
      cy="1201"
      r="60"
      fill="#000000"
      stroke="none"
      stroke-width="0"
    />
    <circle
      id="circle1488"
      cx="125.94489"
      cy="1201"
      r="60"
      fill="#000000"
      stroke="none"
      stroke-width="0"
    />
    <circle
      id="path1406"
      cx="125.94489"
      cy="101.29829"
      r="60"
      fill="#000000"
      stroke="none"
      stroke-width="0"
    />
    <line
      x1="812.72168"
      stroke-width="10"
      x2="812.72168"
      y2="375.13528"
      stroke-linecap="round"
      stroke="#000000"
      y1="1280.6415"
      id="line148"
    />
    <line
      x1="1324.5371"
      stroke-width="10"
      x2="812.72168"
      y2="1280.6415"
      stroke-linecap="round"
      stroke="#000000"
      y1="1280.6415"
      id="line146"
    />
    <line
      x1="1324.5371"
      stroke-width="10"
      x2="1324.5371"
      y2="1280.6415"
      stroke-linecap="round"
      stroke="#000000"
      y1="375.13528"
      id="line144"
    />
    <line
      x1="1868.2456"
      stroke-width="7.99998"
      x2="1908.676"
      y2="1013.9337"
      stroke-linecap="round"
      stroke="#000000"
      y1="1013.9337"
      id="line120"
    />
    <line
      x1="1868.2456"
      stroke-width="7.99998"
      x2="1868.2456"
      y2="1013.9337"
      stroke-linecap="round"
      stroke="#000000"
      y1="904.60071"
      id="line118"
    />
    <line
      x1="1868.2456"
      stroke-width="7.99998"
      x2="1908.676"
      y2="295.27576"
      stroke-linecap="round"
      stroke="#000000"
      y1="295.27576"
      id="line116"
    />
    <line
      x1="1868.2456"
      stroke-width="7.99998"
      x2="1868.2456"
      y2="295.27576"
      stroke-linecap="round"
      stroke="#000000"
      y1="404.60608"
      id="line114"
    />
    <line
      x1="2631.48"
      stroke-width="10"
      x2="2631.48"
      y2="800.47595"
      stroke-linecap="round"
      stroke="#000000"
      y1="700.47614"
      id="line94"
    />
    <line
      x1="812.72168"
      stroke-width="10"
      x2="1324.5371"
      y2="375.13528"
      stroke-linecap="round"
      stroke="#000000"
      y1="375.13528"
      id="line150"
    />
    <line
      x1="2631.48"
      stroke-width="10"
      x2="2631.48"
      y2="600.47644"
      stroke-linecap="round"
      stroke="#000000"
      y1="500.47659"
      id="line86"
    />
    <line
      x1="1638.1627"
      stroke-width="10"
      x2="1659.0376"
      y2="1009.1282"
      stroke-linecap="round"
      stroke="#000000"
      y1="1009.1282"
      id="line78"
    />
    <line
      x1="1638.1627"
      stroke-width="10"
      x2="1659.0376"
      y2="300.47571"
      stroke-linecap="round"
      stroke="#000000"
      y1="300.47571"
      id="line76"
    />
    <line
      x1="1638.1627"
      stroke-width="10"
      x2="1638.1627"
      y2="1009.1282"
      stroke-linecap="round"
      stroke="#000000"
      y1="300.47571"
      id="line74"
    />
  </g>
  <g
    id="copper1">
    <g
      id="copper0">
      <rect
        x="2622.5771"
        y="1182.6"
        stroke-width="20"
        width="49.999878"
        height="49.999878"
        fill="none"
        stroke="#f7bd13"
        id="rect145"
      />
      <rect
        x="2622.5771"
        y="56.616562"
        stroke-width="20"
        width="49.999878"
        height="49.999878"
        fill="none"
        stroke="#f7bd13"
        id="rect1579"
      />
      <circle
        cy="81.616547"
        id="connector0pin"
        stroke-width="20"
        cx="2647.5771"
        connectorname="+3V3"
        r="29"
        fill="none"
        stroke="#f7bd13"
      />
      <circle
        cy="81.616547"
        id="connector1pin"
        stroke-width="20"
        cx="2547.5774"
        connectorname="GND"
        r="29"
        fill="none"
        stroke="#f7bd13"
      />
      <circle
        cy="81.616547"
        id="connector2pin"
        stroke-width="20"
        cx="2447.5774"
        connectorname="RESET"
        r="29"
        fill="none"
        stroke="#f7bd13"
      />
      <circle
        cy="81.616547"
        id="connector3pin"
        stroke-width="20"
        cx="2347.5776"
        connectorname="GND"
        r="29"
        fill="none"
        stroke="#f7bd13"
      />
      <circle
        cy="81.616547"
        id="connector4pin"
        stroke-width="20"
        cx="2247.5779"
        connectorname="IO2"
        r="29"
        fill="none"
        stroke="#f7bd13"
      />
      <circle
        cy="81.616547"
        id="connector5pin"
        stroke-width="20"
        cx="2147.5784"
        connectorname="IO12/MISO"
        r="29"
        fill="none"
        stroke="#f7bd13"
      />
      <circle
        cy="81.616547"
        id="connector6pin"
        stroke-width="20"
        cx="2047.5785"
        connectorname="IO13/MOSI"
        r="29"
        fill="none"
        stroke="#f7bd13"
      />
      <circle
        cy="81.616547"
        id="connector7pin"
        stroke-width="20"
        cx="1947.5786"
        connectorname="IO14/SCLK"
        r="29"
        fill="none"
        stroke="#f7bd13"
      />
      <circle
        cy="81.616547"
        id="connector8pin"
        stroke-width="20"
        cx="1847.5789"
        connectorname="IO15/NSS"
        r="29"
        fill="none"
        stroke="#f7bd13"
      />
      <circle
        cy="81.616547"
        id="connector9pin"
        stroke-width="20"
        cx="1747.5791"
        connectorname="IO18"
        r="29"
        fill="none"
        stroke="#f7bd13"
      />
      <circle
        cy="81.616547"
        id="connector10pin"
        stroke-width="20"
        cx="1647.5793"
        connectorname="IO19"
        r="29"
        fill="none"
        stroke="#f7bd13"
      />
      <circle
        cy="81.616547"
        id="connector11pin"
        stroke-width="20"
        cx="1547.5795"
        connectorname="IO25"
        r="29"
        fill="none"
        stroke="#f7bd13"
      />
      <circle
        cy="81.616547"
        id="connector12pin"
        stroke-width="20"
        cx="1447.5798"
        connectorname="IO26"
        r="29"
        fill="none"
        stroke="#f7bd13"
      />
      <circle
        cy="81.616547"
        id="connector13pin"
        stroke-width="20"
        cx="1347.5773"
        connectorname="IO27"
        r="29"
        fill="none"
        stroke="#f7bd13"
      />
      <circle
        cy="81.616547"
        id="connector14pin"
        stroke-width="20"
        cx="1247.5775"
        connectorname="IO32"
        r="29"
        fill="none"
        stroke="#f7bd13"
      />
      <circle
        cy="81.616547"
        id="connector15pin"
        stroke-width="20"
        cx="1147.5778"
        connectorname="IO33"
        r="29"
        fill="none"
        stroke="#f7bd13"
      />
      <circle
        cy="81.616547"
        id="connector16pin"
        stroke-width="20"
        cx="1047.578"
        connectorname="IO34"
        r="29"
        fill="none"
        stroke="#f7bd13"
      />
      <circle
        cy="81.616547"
        id="connector17pin"
        stroke-width="20"
        cx="947.5769"
        connectorname="IO35"
        r="29"
        fill="none"
        stroke="#f7bd13"
      />
      <circle
        cy="81.616547"
        id="connector18pin"
        stroke-width="20"
        cx="847.57715"
        connectorname="IO36/SVP"
        r="29"
        fill="none"
        stroke="#f7bd13"
      />
      <circle
        cy="81.616547"
        id="connector19pin"
        stroke-width="20"
        cx="747.57739"
        connectorname="IO39/SVN"
        r="29"
        fill="none"
        stroke="#f7bd13"
      />
      <circle
        cy="1207.6"
        id="connector20pin"
        stroke-width="20"
        cx="1547.5795"
        connectorname="IO23"
        r="29"
        fill="none"
        stroke="#f7bd13"
      />
      <circle
        cy="1207.6"
        id="connector21pin"
        stroke-width="20"
        cx="1647.5793"
        connectorname="IO22/DC"
        r="29"
        fill="none"
        stroke="#f7bd13"
      />
      <circle
        cy="1207.6"
        id="connector22pin"
        stroke-width="20"
        cx="1747.5791"
        connectorname="IO21/RES"
        r="29"
        fill="none"
        stroke="#f7bd13"
      />
      <circle
        cy="1207.6"
        id="connector23pin"
        stroke-width="20"
        cx="1847.5789"
        connectorname="IO17"
        r="29"
        fill="none"
        stroke="#f7bd13"
      />
      <circle
        cy="1207.6"
        id="connector24pin"
        stroke-width="20"
        cx="1947.5786"
        connectorname="IO16"
        r="29"
        fill="none"
        stroke="#f7bd13"
      />
      <circle
        cy="1207.6"
        id="connector25pin"
        stroke-width="20"
        cx="2047.5785"
        connectorname="IO5"
        r="29"
        fill="none"
        stroke="#f7bd13"
      />
      <circle
        cy="1207.6"
        id="connector26pin"
        stroke-width="20"
        cx="2147.5784"
        connectorname="IO4"
        r="29"
        fill="none"
        stroke="#f7bd13"
      />
      <circle
        cy="1207.6"
        id="connector27pin"
        stroke-width="20"
        cx="2247.5779"
        connectorname="IO0"
        r="29"
        fill="none"
        stroke="#f7bd13"
      />
      <circle
        cy="1207.6"
        id="connector28pin"
        stroke-width="20"
        cx="2347.5776"
        connectorname="TXD"
        r="29"
        fill="none"
        stroke="#f7bd13"
      />
      <circle
        cy="1207.6"
        id="connector29pin"
        stroke-width="20"
        cx="2447.5774"
        connectorname="RXD"
        r="29"
        fill="none"
        stroke="#f7bd13"
      />
      <circle
        cy="1207.6"
        id="connector30pin"
        stroke-width="20"
        cx="2547.5774"
        connectorname="GND"
        r="29"
        fill="none"
        stroke="#f7bd13"
      />
      <circle
        cy="1207.6"
        id="connector31pin"
        stroke-width="20"
        cx="2647.5771"
        connectorname="VDD5V"
        r="29"
        fill="none"
        stroke="#f7bd13"
      />
    </g>
  </g>
</svg>
