<?xml version='1.0' encoding='UTF-8' standalone='no'?>
<svg
  xmlns:dc="http://purl.org/dc/elements/1.1/"
  xmlns:cc="http://creativecommons.org/ns#"
  xmlns:rdf="http://www.w3.org/1999/02/22-rdf-syntax-ns#"
  xmlns:svg="http://www.w3.org/2000/svg"
  xmlns="http://www.w3.org/2000/svg"
  clip-path="url(#presentation_clip_path)"
  gorn="0"
  id="svg2"
  width="44.356831mm"
  viewBox="0 0 1746.3325 559.35437"
  preserveAspectRatio="xMidYMid"
  xml:space="preserve"
  height="14.207596mm"
  version="1.2"
  fill-rule="evenodd"
  stroke-width="28.22200012"
  stroke-linejoin="round">
  <desc
    id="desc2">
    <referenceFile>MAX485-Breakout_1_pcb.svg</referenceFile>
  </desc>
  <metadata
    id="metadata188">
    <rdf:RDF>
      <cc:Work
        rdf:about="">
        <dc:format>image/svg+xml</dc:format>
        <dc:type
          rdf:resource="http://purl.org/dc/dcmitype/StillImage"
        />
        <dc:title/>
      </cc:Work>
    </rdf:RDF>
  </metadata>
  <defs
    id="defs4"
  />
  <g
    id="silkscreen">
    <line
      id="line1"
      x1="8.3318634"
      x2="1740.6157"
      y2="5"
      y1="5"
      fill="none"
      stroke="#000000"
      stroke-width="10"
      stroke-linecap="butt"
    />
    <line
      y1="554.35437"
      y2="554.35437"
      x2="1732.2841"
      x1="-2.8421709e-14"
      id="line528"
      fill="none"
      stroke="#000000"
      stroke-width="10"
      stroke-linecap="butt"
    />
    <line
      id="line530"
      x1="5.2068634"
      x2="5.2068634"
      y2="555.39606"
      y1="4.2146988"
      fill="none"
      stroke="#000000"
      stroke-width="10"
      stroke-linecap="butt"
    />
    <line
      y1="4.2147522"
      y2="555.39606"
      x2="1741.3324"
      x1="1741.3324"
      id="line534"
      fill="none"
      stroke="#000000"
      stroke-width="10"
      stroke-linecap="butt"
    />
  </g>
  <g
    id="copper1">
    <g
      id="copper0">
      <circle
        id="connector0pin"
        cx="61.706863"
        cy="129.45837"
        r="29"
        fill="none"
        stroke="#f7bd13"
        stroke-width="20"
      />
      <circle
        r="29"
        cy="229.4584"
        cx="61.706863"
        id="connector1pin"
        fill="none"
        stroke="#f7bd13"
        stroke-width="20"
      />
      <circle
        id="connector2pin"
        cx="61.706863"
        cy="329.45844"
        r="29"
        fill="none"
        stroke="#f7bd13"
        stroke-width="20"
      />
      <circle
        r="29"
        cy="429.45847"
        cx="61.706863"
        id="connector3pin"
        fill="none"
        stroke="#f7bd13"
        stroke-width="20"
      />
      <circle
        id="connector4pin"
        cx="1685.1011"
        cy="429.45847"
        r="29"
        fill="none"
        stroke="#f7bd13"
        stroke-width="20"
      />
      <circle
        r="29"
        cy="329.45844"
        cx="1685.1011"
        id="connector5pin"
        fill="none"
        stroke="#f7bd13"
        stroke-width="20"
      />
      <circle
        id="connector6pin"
        cx="1685.1011"
        cy="229.4584"
        r="29"
        fill="none"
        stroke="#f7bd13"
        stroke-width="20"
      />
      <circle
        r="29"
        cy="129.45837"
        cx="1685.1011"
        id="connector7pin"
        fill="none"
        stroke="#f7bd13"
        stroke-width="20"
      />
    </g>
  </g>
</svg>
