<?xml version='1.0' encoding='UTF-8' standalone='no'?>
<svg xmlns="http://www.w3.org/2000/svg" id="svg1311"  viewBox="0 0 15.000133 14.007023" y="0in" x="0in" height="0.55145764in" version="1.2" width="0.59055644in" gorn="0">
    <metadata id="metadata1317" >
        <rdf:RDF xmlns:rdf="http://www.w3.org/1999/02/22-rdf-syntax-ns#">
            <cc:Work xmlns:rdf="http://www.w3.org/1999/02/22-rdf-syntax-ns#" xmlns:cc="http://creativecommons.org/ns#" rdf:about="">
                <dc:format xmlns:dc="http://purl.org/dc/elements/1.1/">image/svg+xml</dc:format>
                <dc:type xmlns:rdf="http://www.w3.org/1999/02/22-rdf-syntax-ns#" rdf:resource="http://purl.org/dc/dcmitype/StillImage" xmlns:dc="http://purl.org/dc/elements/1.1/"/>
                <dc:title xmlns:dc="http://purl.org/dc/elements/1.1/"/>
            </cc:Work>
        </rdf:RDF>
    </metadata>
    <defs id="defs1315" />
    <desc id="desc1256" >
        <referenceFile >sparkfun-displays_7-segment-4digit_pcb.svg</referenceFile>
    </desc>
    <g  transform="translate(-7.0143428,1.0968488)">
        <g >
            <g >
                <g id="copper1"  gorn="0.3.0.0.0">
                    <circle cy="10.986663" fill="none" connectorname="1" id="connector0pad"  stroke-width="0.48980001" style="display:inline;" cx="9.4344091" r="0.69489998" gorn="0.3.0.0.0.0" stroke="#f7bd13"/>
                    <circle cy="10.986663" fill="none" connectorname="2" id="connector1pad"  stroke-width="0.48980001" style="display:inline;" cx="11.974409" r="0.69489998" gorn="0.3.0.0.0.1" stroke="#f7bd13"/>
                    <circle cy="10.986663" fill="none" connectorname="3" id="connector2pad"  stroke-width="0.48980001" style="display:inline;" cx="14.514408" r="0.69489998" gorn="0.3.0.0.0.2" stroke="#f7bd13"/>
                    <circle cy="10.986663" fill="none" connectorname="4" id="connector3pad"  stroke-width="0.48980001" style="display:inline;" cx="17.054409" r="0.69489998" gorn="0.3.0.0.0.3" stroke="#f7bd13"/>
                    <circle cy="10.986663" fill="none" connectorname="5" id="connector4pad"  stroke-width="0.48980001" style="display:inline;" cx="19.594408" r="0.69489998" gorn="0.3.0.0.0.4" stroke="#f7bd13"/>
                    <circle cy="0.8266626" fill="none" connectorname="6" id="connector5pad"  stroke-width="0.48980001" style="display:inline;" cx="19.594408" r="0.69489998" gorn="0.3.0.0.0.5" stroke="#f7bd13"/>
                    <circle cy="0.8266626" fill="none" connectorname="7" id="connector6pad"  stroke-width="0.48980001" style="display:inline;" cx="17.054409" r="0.69489998" gorn="0.3.0.0.0.6" stroke="#f7bd13"/>
                    <circle cy="0.8266626" fill="none" connectorname="8" id="connector7pad"  stroke-width="0.48980001" style="display:inline;" cx="14.514409" r="0.69489998" gorn="0.3.0.0.0.7" stroke="#f7bd13"/>
                    <circle cy="0.8266626" fill="none" connectorname="9" id="connector8pad"  stroke-width="0.48980001" style="display:inline;" cx="11.974409" r="0.69489998" gorn="0.3.0.0.0.8" stroke="#f7bd13"/>
                    <circle cy="0.8266626" fill="none" connectorname="11" id="connector9pad"  stroke-width="0.48980001" style="display:inline;" cx="9.4344091" r="0.69489998" gorn="0.3.0.0.0.9" stroke="#f7bd13"/>
                    <g  transform="translate(-1.8685918,-0.59573773)">
                        <g >
                            <g >
                                <g id="copper0"  style="display:inline" gorn="0.3.0.0.0.10.0.0.0">
                                    <circle cy="11.5824" fill="none" connectorname="1" id="circle1272"  stroke-width="0.48980001" cx="11.303" r="0.69489998" gorn="0.3.0.0.0.10.0.0.0.0" stroke="#f7bd13"/>
                                    <circle cy="11.5824" fill="none" connectorname="2" id="circle1274"  stroke-width="0.48980001" cx="13.843" r="0.69489998" gorn="0.3.0.0.0.10.0.0.0.1" stroke="#f7bd13"/>
                                    <circle cy="11.5824" fill="none" connectorname="3" id="circle1276"  stroke-width="0.48980001" cx="16.382999" r="0.69489998" gorn="0.3.0.0.0.10.0.0.0.2" stroke="#f7bd13"/>
                                    <circle cy="11.5824" fill="none" connectorname="4" id="circle1278"  stroke-width="0.48980001" cx="18.923" r="0.69489998" gorn="0.3.0.0.0.10.0.0.0.3" stroke="#f7bd13"/>
                                    <circle cy="11.5824" fill="none" connectorname="5" id="circle1280"  stroke-width="0.48980001" cx="21.462999" r="0.69489998" gorn="0.3.0.0.0.10.0.0.0.4" stroke="#f7bd13"/>
                                    <circle cy="1.4224004" fill="none" connectorname="6" id="circle1282"  stroke-width="0.48980001" cx="21.463001" r="0.69489998" gorn="0.3.0.0.0.10.0.0.0.5" stroke="#f7bd13"/>
                                    <circle cy="1.4224004" fill="none" connectorname="7" id="circle1284"  stroke-width="0.48980001" cx="18.923" r="0.69489998" gorn="0.3.0.0.0.10.0.0.0.6" stroke="#f7bd13"/>
                                    <circle cy="1.4224004" fill="none" connectorname="8" id="circle1286"  stroke-width="0.48980001" cx="16.383001" r="0.69489998" gorn="0.3.0.0.0.10.0.0.0.7" stroke="#f7bd13"/>
                                    <circle cy="1.4224004" fill="none" connectorname="9" id="circle1288"  stroke-width="0.48980001" cx="13.843" r="0.69489998" gorn="0.3.0.0.0.10.0.0.0.8" stroke="#f7bd13"/>
                                    <circle cy="1.4224004" fill="none" connectorname="11" id="circle1290"  stroke-width="0.48980001" cx="11.303" r="0.69489998" gorn="0.3.0.0.0.10.0.0.0.9" stroke="#f7bd13"/>
                                </g>
                            </g>
                        </g>
                    </g>
                </g>
            </g>
        </g>
    </g>
    <g  transform="matrix(0.37139254,0,0,1.0768261,5.374187e-4,0.00155821)">
        <g >
            <g >
                <g id="silkscreen"  gorn="0.4.0.0.0">
                    <line class="other" id="line1302"  x1="0.1016" stroke-width="0.2032" y2="0.1016" style="stroke-linecap:round" y1="0.1016" gorn="0.4.0.0.0.0" stroke="#f0f0f0" x2="40.284401"/>
                    <line class="other" id="line1304"  x1="40.284401" stroke-width="0.2032" y2="12.9032" style="stroke-linecap:round" y1="0.1016" gorn="0.4.0.0.0.1" stroke="#f0f0f0" x2="40.284401"/>
                    <line class="other" id="line1306"  x1="40.284401" stroke-width="0.2032" y2="12.9032" style="stroke-linecap:round" y1="12.9032" gorn="0.4.0.0.0.2" stroke="#f0f0f0" x2="0.1016"/>
                    <line class="other" id="line1308"  x1="0.1016" stroke-width="0.2032" y2="0.1016" style="stroke-linecap:round" y1="12.9032" gorn="0.4.0.0.0.3" stroke="#f0f0f0" x2="0.1016"/>
                </g>
            </g>
        </g>
    </g>
</svg>
