<?xml version='1.0' encoding='UTF-8' standalone='no'?>
<svg
  xmlns:dc="http://purl.org/dc/elements/1.1/"
  xmlns:cc="http://creativecommons.org/ns#"
  xmlns:rdf="http://www.w3.org/1999/02/22-rdf-syntax-ns#"
  xmlns:svg="http://www.w3.org/2000/svg"
  xmlns="http://www.w3.org/2000/svg"
  shape-rendering="crispEdges"
  viewBox="0 0 537.72884 589.71261"
  x="0in"
  width="0.53772885in"
  height="0.58971262in"
  version="1.2"
  y="0in"
  id="svg2">
  <metadata
    id="metadata27">
    <rdf:RDF>
      <cc:Work
        rdf:about="">
        <dc:format>image/svg+xml</dc:format>
        <dc:type
          rdf:resource="http://purl.org/dc/dcmitype/StillImage"
        />
        <dc:title/>
      </cc:Work>
    </rdf:RDF>
  </metadata>
  <defs
    id="defs25"
  />
  <desc
    id="desc4">
    <referenceFile>b503-pot_1_pcb.svg</referenceFile>
  </desc>
  <g
    id="silkscreen">
    <path
      d="m 520.90312,269.25205 13.9114,11.3728 -14.6221,10.5604 12.9974,12.9975 -16.653,12.1953 10.1543,18.6838 -17.0592,9.7481 9.3419,15.4345 -16.6632,4.8741 6.5089,19.9125 -17.8816,4.4679 5.2904,18.2777 -19.0901,4.4781 4.0617,17.8715 -17.8816,0.8123 1.6348,18.6839 h -18.694 l 1.6247,17.0592 -22.7456,1.6348 -0.4062,17.0592 -18.2879,-3.2494 -4.4678,17.8716 -17.8716,-4.8639 -2.4471,15.4243 -20.3086,-4.874 -4.874,15.0283 -19.4962,-6.8948 -5.6864,14.216 -17.8716,-8.5296 -8.9459,13.7997 -18.6838,-10.1543 -17.0592,12.6015 -9.5552,-12.6015 -10.3574,11.7891 -10.5706,-14.6221 -12.1749,12.1851 -9.7481,-13.8098 -19.5064,7.3111 -7.7173,-14.6323 -16.653,6.4987 -4.4678,-14.2058 -19.1002,3.6453 -4.0516,-14.6221 -17.4857,2.4472 -4.4577,-15.8509 -17.8715,0.4062 -2.8432,-16.2468 H 86.320521 l -3.2494,-18.2879 -14.216,0.4062 -2.437,-19.4962 -15.4447,-2.8432 3.6556,-15.4447 -17.8715,-4.4577 4.8842,-17.8817 -15.4447,-2.437 4.8842,-20.3086 -15.0385,-4.8842 6.9049,-19.486 -14.2159002,-5.6966 8.5295002,-17.8715 -13.8098002,-8.9358 10.1543002,-18.694 -11.4845002,-17.8715 11.2814002,-17.0592 -10.1543002,-19.5064 13.8099002,-8.9357 -8.5296002,-17.8716 14.2160002,-5.6864 -6.905,-19.4962 15.0385,-4.8842 -4.874,-20.30849 15.4243,-2.437 -4.8639,-17.8817 17.8614,-4.4679 -3.6454,-15.4345 15.4243,-2.8432 2.4472,-19.496203 14.216,0.4062 3.2494,-18.2879 h 15.840699 l 2.8533,-16.2468 17.8715,0.4061 2.0309,-16.653 19.9125,3.2494 4.0617,-14.6323 19.0799,3.6657 4.478,-14.216 16.6531,6.4886 7.7172,-14.6222 19.4962,7.3111 9.7583,-13.8097997 12.1851,12.1952997 10.5605,-14.6322997 14.419,11.7788997 5.4935,-12.5912997 17.0592,12.5912997 18.6838,-10.1542997 8.9358,13.8098997 17.8817,-8.5195 5.6864,14.2059 19.4962,-6.9049 4.874,15.0384 20.3187,-4.8842 2.4371,15.4447 17.8715,-4.8741 4.4679,17.8715 18.2878,-3.2493 0.4062,17.0592 22.7456,1.6246 -1.6247,17.0694 h 18.6838 l -1.6246,18.683903 17.8816,0.8123 -4.0718,17.8715 19.1001,4.4679 -5.2802,18.2878 17.8614,4.4679 -6.4885,19.90239 16.6529,4.8842 -9.3419,15.4244 17.0592,9.7582 -10.1543,18.6839 16.653,12.1953 -12.9974,12.9873 14.6221,10.5706 z"
      id="path11952"
      fill="none"
      fill-opacity="1"
      fill-rule="nonzero"
      stroke="none"
      stroke-width="10.1543"
    />
    <path
      d="m 520.90312,269.25205 13.9114,11.3728 -14.6221,10.5604 12.9974,12.9975 -16.653,12.1953 10.1543,18.6838 -17.0592,9.7481 9.3419,15.4345 -16.6632,4.8741 6.5089,19.9125 -17.8816,4.4679 5.2904,18.2777 -19.0901,4.4781 4.0617,17.8715 -17.8816,0.8123 1.6348,18.6839 h -18.694 l 1.6247,17.0592 -22.7456,1.6348 -0.4062,17.0592 -18.2879,-3.2494 -4.4678,17.8716 -17.8716,-4.8639 -2.4471,15.4243 -20.3086,-4.874 -4.874,15.0283 -19.4962,-6.8948 -5.6864,14.216 -17.8716,-8.5296 -8.9459,13.7997 -18.6838,-10.1543 -17.0592,12.6015 -9.5552,-12.6015 -10.3574,11.7891 -10.5706,-14.6221 -12.1749,12.1851 -9.7481,-13.8098 -19.5064,7.3111 -7.7173,-14.6323 -16.653,6.4987 -4.4678,-14.2058 -19.1002,3.6453 -4.0516,-14.6221 -17.4857,2.4472 -4.4577,-15.8509 -17.8715,0.4062 -2.8432,-16.2468 H 86.320521 l -3.2494,-18.2879 -14.216,0.4062 -2.437,-19.4962 -15.4447,-2.8432 3.6556,-15.4447 -17.8715,-4.4577 4.8842,-17.8817 -15.4447,-2.437 4.8842,-20.3086 -15.0385,-4.8842 6.9049,-19.486 -14.2159002,-5.6966 8.5295002,-17.8715 -13.8098002,-8.9358 10.1543002,-18.694 -11.4845002,-17.8715 11.2814002,-17.0592 -10.1543002,-19.5064 13.8099002,-8.9357 -8.5296002,-17.8716 14.2160002,-5.6864 -6.905,-19.4962 15.0385,-4.8842 -4.874,-20.30849 15.4243,-2.437 -4.8639,-17.8817 17.8614,-4.4679 -3.6454,-15.4345 15.4243,-2.8432 2.4472,-19.496203 14.216,0.4062 3.2494,-18.2879 h 15.840699 l 2.8533,-16.2468 17.8715,0.4061 2.0309,-16.653 19.9125,3.2494 4.0617,-14.6323 19.0799,3.6657 4.478,-14.216 16.6531,6.4886 7.7172,-14.6222 19.4962,7.3111 9.7583,-13.8097997 12.1851,12.1952997 10.5605,-14.6322997 14.419,11.7788997 5.4935,-12.5912997 17.0592,12.5912997 18.6838,-10.1542997 8.9358,13.8098997 17.8817,-8.5195 5.6864,14.2059 19.4962,-6.9049 4.874,15.0384 20.3187,-4.8842 2.4371,15.4447 17.8715,-4.8741 4.4679,17.8715 18.2878,-3.2493 0.4062,17.0592 22.7456,1.6246 -1.6247,17.0694 h 18.6838 l -1.6246,18.683903 17.8816,0.8123 -4.0718,17.8715 19.1001,4.4679 -5.2802,18.2878 17.8614,4.4679 -6.4885,19.90239 16.6529,4.8842 -9.3419,15.4244 17.0592,9.7582 -10.1543,18.6839 16.653,12.1953 -12.9974,12.9873 14.6221,10.5706 z"
      id="path11954"
      fill="none"
      stroke="#000000"
      stroke-width="3.554"
      stroke-linecap="butt"
      stroke-linejoin="miter"
      stroke-miterlimit="4"
      stroke-dasharray="none"
      stroke-opacity="1"
    />
    <path
      d="m 489.48382,409.65925 v 108.8843 c 0,23.5579 -25.5989,25.5888 -25.5989,25.5888 H 66.426221 c -26.0051,0 -24.3804,-24.3703 -24.3804,-24.3703 v -115.0581"
      id="path11956"
      fill="none"
      stroke="#000000"
      stroke-width="3.554"
      stroke-linecap="butt"
      stroke-linejoin="miter"
      stroke-miterlimit="4"
      stroke-dasharray="none"
      stroke-opacity="1"
    />
    <path
      d="m 522.63852,336.69065 c 0,0 8.6921,2.0105 8.6921,9.3622 v 70.1559 c 0,0 -3.3509,10.0325 -14.7034,10.0325 h -27.3962"
      id="path11978"
      fill="none"
      stroke="#000000"
      stroke-width="3.554"
      stroke-linecap="butt"
      stroke-linejoin="miter"
      stroke-miterlimit="4"
      stroke-dasharray="none"
      stroke-opacity="1"
    />
  </g>
  <g
    id="copper1">
    <g
      id="copper0">
      <circle
        stroke-width="0"
        stroke="none"
        fill="#000000"
        id="nonconn0"
        gorn="0.2.0.3"
        cx="454.33038"
        cy="167.10765"
        r="23.622046"
      />
      <circle
        stroke-width="0"
        stroke="none"
        fill="#000000"
        id="nonconn1"
        gorn="0.2.0.3"
        cx="74.122116"
        cy="167.10765"
        r="23.622046"
      />
      <rect
        stroke-width="10"
        stroke="#ffbf00"
        fill="none"
        id="square"
        gorn="0.2.0.0"
        x="83.30632"
        height="47.992123"
        width="47.992123"
        y="535.62988"
      />
      <circle
        stroke-width="10"
        stroke="#ffbf00"
        fill="none"
        id="connector0pin"
        cx="107.30632"
        cy="560.67334"
        r="24"
      />
      <circle
        stroke-width="10"
        stroke="#ffbf00"
        fill="none"
        id="connector1pin"
        cx="186.04643"
        cy="560.71259"
        r="24"
      />
      <circle
        stroke-width="10"
        stroke="#ffbf00"
        fill="none"
        id="connector2pin"
        cx="264.77094"
        cy="560.71259"
        r="24"
      />
      <circle
        stroke-width="10"
        stroke="#ffbf00"
        fill="none"
        id="connector3pin"
        gorn="0.2.0.3"
        cx="343.52679"
        cy="560.71259"
        r="24"
      />
      <circle
        stroke-width="10"
        stroke="#ffbf00"
        fill="none"
        id="connector4pin"
        gorn="0.2.0.3"
        cx="422.26691"
        cy="560.71259"
        r="24"
      />
    </g>
  </g>
</svg>
