<?xml version='1.0' encoding='UTF-8' standalone='no'?>
<svg
  xmlns:dc="http://purl.org/dc/elements/1.1/"
  xmlns:cc="http://creativecommons.org/ns#"
  xmlns:rdf="http://www.w3.org/1999/02/22-rdf-syntax-ns#"
  xmlns:svg="http://www.w3.org/2000/svg"
  xmlns="http://www.w3.org/2000/svg"
  gorn="0"
  version="1.1"
  width="14.325865mm"
  viewBox="0 0 564.0106 687.5626"
  height="17.464085mm"
  id="svg16594">
  <desc
    id="desc2">
    <referenceFile>KY-012_c07624dc1b4216399ee34ca1e2c30642_1_pcb.svg</referenceFile>
  </desc>
  <defs
    id="defs16596">
                </defs>
  <metadata
    id="metadata16599">
    <rdf:RDF>
      <cc:Work
        rdf:about="">
        <dc:format>image/svg+xml</dc:format>
        <dc:type
          rdf:resource="http://purl.org/dc/dcmitype/StillImage"
        />
        <dc:title/>
      </cc:Work>
    </rdf:RDF>
  </metadata>
  <g
    id="silkscreen">
    <path
      d="M 5.6583486,685.41133 V 2.1511485"
      gorn="0.3.0.0.0"
      id="path20585"
      fill="none"
      fill-rule="evenodd"
      stroke="#000000"
      stroke-width="11.31669712"
      stroke-linecap="butt"
      stroke-linejoin="miter"
      stroke-opacity="1"
    />
    <path
      d="M 558.35225,685.41133 V 2.1511485"
      gorn="0.3.0.0.1"
      id="path20585-5"
      fill="none"
      fill-rule="evenodd"
      stroke="#000000"
      stroke-width="11.31669712"
      stroke-linecap="butt"
      stroke-linejoin="miter"
      stroke-opacity="1"
    />
    <path
      d="M 11.228456,5.6585712 H 555.58803"
      gorn="0.3.0.0.2"
      id="path20602"
      fill="none"
      fill-rule="evenodd"
      stroke="#000000"
      stroke-width="11.31714249"
      stroke-linecap="butt"
      stroke-linejoin="miter"
      stroke-opacity="1"
    />
    <path
      d="M 11.228456,681.90402 H 555.58803"
      gorn="0.3.0.0.3"
      id="path20602-6"
      fill="none"
      fill-rule="evenodd"
      stroke="#000000"
      stroke-width="11.31714249"
      stroke-linecap="butt"
      stroke-linejoin="miter"
      stroke-opacity="1"
    />
    <text
      id="tspan21169"
      x="153.9959"
      y="129.12154"
      gorn="0.3.0.0.4.0"
      transform="scale(0.99999641,1.0000036)"
      font-style="normal"
      font-variant="normal"
      font-weight="normal"
      font-stretch="normal"
      font-size="59.02793884"
      line-height="125%"
      font-family="OCRA"
      letter-spacing="0px"
      word-spacing="0px"
      fill="#000000"
      fill-opacity="1"
      stroke="none"
      stroke-width="11.11114216"
      stroke-linecap="butt"
      stroke-linejoin="miter"
      stroke-opacity="1">KY-012</text>
  </g>
  <g
    id="copper1">
    <g
      id="copper0">
      <rect
        id="rect58"
        width="58.097374"
        height="58.097374"
        x="357.95145"
        y="568.51392"
        fill="none"
        stroke="#f7bd13"
        stroke-width="19.90265274"
      />
      <circle
        cx="186.59286"
        id="connector0pin"
        gorn="0.4.0.2"
        cy="597.11884"
        r="29"
        fill="none"
        stroke="#f7bd13"
        stroke-width="20"
      />
      <circle
        cx="287.00009"
        id="connector1pin"
        gorn="0.4.0.1"
        cy="597.11884"
        r="29"
        fill="none"
        stroke="#f7bd13"
        stroke-width="20"
      />
      <circle
        r="29"
        cy="597.11884"
        gorn="0.4.0.1"
        id="connector2pin"
        cx="387.00012"
        fill="none"
        stroke="#f7bd13"
        stroke-width="20"
      />
    </g>
  </g>
</svg>
