<?xml version='1.0' encoding='UTF-8' standalone='no'?>
<svg xmlns="http://www.w3.org/2000/svg"  viewBox="0 0 65.5 119.4" x="0px" height="1.65833in" version="1.2" gorn="0" width="0.909722in" xmlns:xml="http://www.w3.org/XML/1998/namespace" id="svg471" y="0px" xml:space="preserve">
    <desc >
        <referenceFile >jdy-23_schematic.svg</referenceFile>
    </desc>
    <metadata  id="metadata477">
        <rdf:RDF xmlns:rdf="http://www.w3.org/1999/02/22-rdf-syntax-ns#">
            <cc:Work rdf:about="" xmlns:cc="http://creativecommons.org/ns#" xmlns:rdf="http://www.w3.org/1999/02/22-rdf-syntax-ns#">
                <dc:format xmlns:dc="http://purl.org/dc/elements/1.1/">image/svg+xml</dc:format>
                <dc:type rdf:resource="http://purl.org/dc/dcmitype/StillImage" xmlns:dc="http://purl.org/dc/elements/1.1/" xmlns:rdf="http://www.w3.org/1999/02/22-rdf-syntax-ns#"/>
                <dc:title xmlns:dc="http://purl.org/dc/elements/1.1/"/>
            </cc:Work>
        </rdf:RDF>
    </metadata>
    <defs  id="defs475"/>
    <desc  id="desc2"/>
    <rect stroke-width="0.9002"  x="7.6" fill="#FFFFFF" height="104.3" stroke="#050304" stroke-linecap="round" gorn="0.4" width="50.4" id="part_symbol" y="7.6"/>
    <line  x1="31.9" x2="31.9" y2="0.30000001" gorn="0.5" y1="7.5999999" style="fill:none;stroke:#545454;stroke-width:0.69999999;stroke-linecap:round;stroke-linejoin:round" id="connector1pin"/>
    <line  x1="57.799999" x2="65.099998" y2="21.9" gorn="0.6" y1="21.9" style="fill:none;stroke:#545454;stroke-width:0.69999999;stroke-linecap:round;stroke-linejoin:round" id="connector4pin"/>
    <line  x1="57.799999" x2="65.099998" y2="29.1" gorn="0.7" y1="29.1" style="fill:none;stroke:#545454;stroke-width:0.69999999;stroke-linecap:round;stroke-linejoin:round" id="connector5pin"/>
    <line  x1="0.30000001" x2="7.5999999" y2="21.9" gorn="0.8" y1="21.9" style="fill:none;stroke:#545454;stroke-width:0.69999999;stroke-linecap:round;stroke-linejoin:round" id="connector6pin"/>
    <line  x1="0.30000001" x2="7.5999999" y2="101.1" gorn="0.9" y1="101.1" style="fill:none;stroke:#545454;stroke-width:0.69999999;stroke-linecap:round;stroke-linejoin:round" id="connector7pin"/>
    <line  x1="58" x2="65.099998" y2="36.299999" gorn="0.10" y1="36.299999" style="fill:none;stroke:#545454;stroke-width:0.69999999;stroke-linecap:round;stroke-linejoin:round" id="connector8pin"/>
    <line  x1="58" x2="65.099998" y2="43.599998" gorn="0.11" y1="43.599998" style="fill:none;stroke:#545454;stroke-width:0.69999999;stroke-linecap:round;stroke-linejoin:round" id="connector9pin"/>
    <line  x1="58" x2="65.099998" y2="50.799999" gorn="0.12" y1="50.799999" style="fill:none;stroke:#545454;stroke-width:0.69999999;stroke-linecap:round;stroke-linejoin:round" id="connector10pin"/>
    <line  x1="0.30000001" x2="7.5999999" y2="93.900002" gorn="0.13" y1="93.900002" style="fill:none;stroke:#545454;stroke-width:0.69999999;stroke-linecap:round;stroke-linejoin:round" id="connector11pin"/>
    <line  x1="0.30000001" x2="7.5999999" y2="86.800003" gorn="0.14" y1="86.800003" style="fill:none;stroke:#545454;stroke-width:0.69999999;stroke-linecap:round;stroke-linejoin:round" id="connector12pin"/>
    <line  x1="58" x2="65.099998" y2="57.900002" gorn="0.15" y1="57.900002" style="fill:none;stroke:#545454;stroke-width:0.69999999;stroke-linecap:round;stroke-linejoin:round" id="connector13pin"/>
    <line  x1="58" x2="65.099998" y2="65.099998" gorn="0.16" y1="65.099998" style="fill:none;stroke:#545454;stroke-width:0.69999999;stroke-linecap:round;stroke-linejoin:round" id="connector14pin"/>
    <line  x1="0.30000001" x2="7.5999999" y2="79.599998" gorn="0.17" y1="79.599998" style="fill:none;stroke:#545454;stroke-width:0.69999999;stroke-linecap:round;stroke-linejoin:round" id="connector15pin"/>
    <line  x1="58" x2="65.099998" y2="93.599998" gorn="0.18" y1="93.599998" style="fill:none;stroke:#545454;stroke-width:0.69999999;stroke-linecap:round;stroke-linejoin:round" id="connector16pin"/>
    <line  x1="0.14784585" x2="7.6833234" y2="50.221233" gorn="0.19" y1="50.221233" style="fill:none;stroke:#545454;stroke-width:0.69999999;stroke-linecap:round;stroke-linejoin:round" id="connector17pin"/>
    <line  x1="0.30000001" x2="7.5999999" y2="72.300003" gorn="0.20" y1="72.300003" style="fill:none;stroke:#545454;stroke-width:0.69999999;stroke-linecap:round;stroke-linejoin:round" id="connector18pin"/>
    <line  x1="0.33901325" x2="7.6390123" y2="35.700569" gorn="0.21" y1="35.700569" style="fill:none;stroke:#545454;stroke-width:0.69999999;stroke-linecap:round;stroke-linejoin:round" id="connector19pin"/>
    <line  x1="0.18076731" x2="7.7162442" y2="42.900585" gorn="0.22" y1="42.900585" style="fill:none;stroke:#545454;stroke-width:0.69999999;stroke-linecap:round;stroke-linejoin:round" id="connector20pin"/>
    <line  x1="58" x2="65.099998" y2="86.400002" gorn="0.23" y1="86.400002" style="fill:none;stroke:#545454;stroke-width:0.69999999;stroke-linecap:round;stroke-linejoin:round" id="connector21pin"/>
    <line  x1="58" x2="65.099998" y2="100.8" gorn="0.24" y1="100.8" style="fill:none;stroke:#545454;stroke-width:0.69999999;stroke-linecap:round;stroke-linejoin:round" id="connector22pin"/>
    <line  x1="0.26315689" x2="7.5631537" y2="29.100033" gorn="0.25" y1="29.100033" style="fill:none;stroke:#545454;stroke-width:0.69999999;stroke-linecap:round;stroke-linejoin:round" id="connector23pin"/>
    <line  x1="32.099998" x2="32.099998" y2="119.1" gorn="0.26" y1="111.8" style="fill:none;stroke:#545454;stroke-width:0.69999999;stroke-linecap:round;stroke-linejoin:round" id="connector24pin"/>
    <text  x="60.332603" font-size="2.4" gorn="0.27" style="font-size:2.4000001px;font-family:DroidSans;fill:#545454" id="XMLID_81_" y="20.5341">4</text>
    <text  x="60.484501" font-size="2.4" gorn="0.28" style="font-size:2.4000001px;font-family:DroidSans;fill:#545454" id="XMLID_80_" y="27.829">5</text>
    <text  x="4.6242032" font-size="2.4" gorn="0.29" style="font-size:2.4000001px;font-family:DroidSans;fill:#545454" id="XMLID_79_" y="20.377501">6</text>
    <text  x="33.3596" font-size="2.4" gorn="0.30" style="font-size:2.4000001px;font-family:DroidSans;fill:#545454" id="XMLID_78_" y="4.1900001">1</text>
    <text  x="33.214699" font-size="2.4" gorn="0.31" style="font-size:2.4000001px;font-family:DroidSans;fill:#545454" id="XMLID_77_" y="115.4103">24</text>
    <text  x="27.8085" font-size="3.6" gorn="0.32" style="font-size:3.5999999px;font-family:DroidSans;fill:#545454" id="XMLID_74_" y="109.7951">GND</text>
    <text  x="28.709299" font-size="3.6" gorn="0.33" style="font-size:3.5999999px;font-family:DroidSans;fill:#545454" id="XMLID_73_" y="12.8522">V</text>
    <text  x="31.130199" font-size="3.6" gorn="0.34" style="font-size:3.5999999px;font-family:DroidSans;fill:#545454" id="XMLID_72_" y="12.8522">C</text>
    <text  x="33.214001" font-size="3.6" gorn="0.35" style="font-size:3.5999999px;font-family:DroidSans;fill:#545454" id="XMLID_71_" y="12.8522">C</text>
    <text  x="9.5691996" font-size="3.6" gorn="0.36" style="font-size:3.5999999px;font-family:DroidSans;fill:#545454" id="XMLID_70_" y="23.375601">STAT</text>
    <text  x="48.191502" font-size="3.6" gorn="0.37" style="font-size:3.5999999px;font-family:DroidSans;fill:#545454" id="XMLID_67_" y="23.0634">IO1</text>
    <text  x="48.191502" font-size="3.6" gorn="0.38" style="font-size:3.5999999px;font-family:DroidSans;fill:#545454" id="XMLID_66_" y="30.366199">IO2</text>
    <text  x="3.1242001" font-size="2.4" gorn="0.39" style="font-size:2.4000001px;font-family:DroidSans;fill:#545454" id="XMLID_53_" y="70.781799">18</text>
    <text  x="3.1242001" font-size="2.4" gorn="0.40" style="font-size:2.4000001px;font-family:DroidSans;fill:#545454" id="XMLID_52_" y="77.906799">15</text>
    <text  x="3.1245999" font-size="2.4" gorn="0.41" style="font-size:2.4000001px;font-family:DroidSans;fill:#545454" id="XMLID_51_" y="85.406799">12</text>
    <text  x="9.5691996" font-size="3.6" gorn="0.42" style="font-size:3.5999999px;font-family:DroidSans;fill:#545454" id="XMLID_50_" y="73.7799">IN3</text>
    <text  x="9.5691996" font-size="3.6" gorn="0.43" style="font-size:3.5999999px;font-family:DroidSans;fill:#545454" id="XMLID_49_" y="80.957603">IN4</text>
    <text  x="9.6097002" font-size="3.6" gorn="0.44" style="font-size:3.5999999px;font-family:DroidSans;fill:#545454" id="XMLID_48_" y="88.1651">IN5</text>
    <text  x="3.1242001" font-size="2.4" gorn="0.45" style="font-size:2.4000001px;font-family:DroidSans;fill:#545454" id="XMLID_46_" y="92.323502">11</text>
    <text  x="4.6246028" font-size="2.4" gorn="0.46" style="font-size:2.4000001px;font-family:DroidSans;fill:#545454" id="XMLID_45_" y="99.823502">7</text>
    <text  x="9.5691996" font-size="3.6" gorn="0.47" style="font-size:3.5999999px;font-family:DroidSans;fill:#545454" id="XMLID_44_" y="95.374298">IN6</text>
    <text  x="9.6097002" font-size="3.6" gorn="0.48" style="font-size:3.5999999px;font-family:DroidSans;fill:#545454" id="XMLID_43_" y="102.5818">IN7</text>
    <text  x="60.484501" font-size="2.4" gorn="0.49" style="font-size:2.4000001px;font-family:DroidSans;fill:#545454" id="XMLID_38_" y="34.908699">8</text>
    <text  x="60.484798" font-size="2.4" gorn="0.50" style="font-size:2.4000001px;font-family:DroidSans;fill:#545454" id="XMLID_37_" y="42.203602">9</text>
    <text  x="48.234501" font-size="3.6" gorn="0.51" style="font-size:3.5999999px;font-family:DroidSans;fill:#545454" id="XMLID_36_" y="37.438">IO3</text>
    <text  x="48.234501" font-size="3.6" gorn="0.52" style="font-size:3.5999999px;font-family:DroidSans;fill:#545454" id="XMLID_35_" y="44.7407">IO4</text>
    <text  x="58.832802" font-size="2.4" gorn="0.53" style="font-size:2.4000001px;font-family:DroidSans;fill:#545454" id="XMLID_30_" y="49.336201">10</text>
    <text  x="58.832401" font-size="2.4" gorn="0.54" style="font-size:2.4000001px;font-family:DroidSans;fill:#545454" id="XMLID_29_" y="56.6311">13</text>
    <text  x="48.2342" font-size="3.6" gorn="0.55" style="font-size:3.5999999px;font-family:DroidSans;fill:#545454" id="XMLID_28_" y="51.865501">IO5</text>
    <text  x="48.2342" font-size="3.6" gorn="0.56" style="font-size:3.5999999px;font-family:DroidSans;fill:#545454" id="XMLID_27_" y="59.168201">IO6</text>
    <text  x="58.984898" font-size="2.4" gorn="0.57" style="font-size:2.4000001px;font-family:DroidSans;fill:#545454" id="XMLID_24_" y="63.7108">14</text>
    <text  x="48.277199" font-size="3.6" gorn="0.58" style="font-size:3.5999999px;font-family:DroidSans;fill:#545454" id="XMLID_23_" y="66.240097">IO7</text>
    <text  x="60.485199" font-size="2.4" gorn="0.59" style="font-size:2.4000001px;font-family:DroidSans;fill:#545454" id="XMLID_18_" y="85.035103">21</text>
    <text  x="60.484299" font-size="2.4" gorn="0.60" style="font-size:2.4000001px;font-family:DroidSans;fill:#545454" id="XMLID_17_" y="92.330002">16</text>
    <text  x="47.845936" font-size="3.6" gorn="0.61" style="font-size:3.5999999px;font-family:DroidSans;fill:#545454" id="XMLID_16_" y="87.5644">INT1</text>
    <text  x="47.845936" font-size="3.6" gorn="0.62" style="font-size:3.5999999px;font-family:DroidSans;fill:#545454" id="XMLID_15_" y="94.867104">INT2</text>
    <text  x="60.484901" font-size="2.4" gorn="0.63" style="font-size:2.4000001px;font-family:DroidSans;fill:#545454" id="XMLID_12_" y="99.409698">22</text>
    <text  x="45.289295" font-size="3.6" gorn="0.64" style="font-size:3.5999999px;font-family:DroidSans;fill:#545454" id="XMLID_11_" y="101.939">PWRC</text>
    <text  x="28.654303" font-size="3.08168" gorn="0.65" style="font-size:3.08168006px;font-family:DroidSans;fill:#050304" id="text409" y="58.765312">JDY-23</text>
    <text  x="21.754299" font-size="3.08168" gorn="0.66" style="font-size:3.08168006px;font-family:DroidSans;fill:#050304" id="XMLID_4_" y="57.365299"/>
    <text  x="26.154301" font-size="3.08168" gorn="0.67" style="font-size:3.08168006px;font-family:DroidSans;fill:#050304" id="XMLID_3_" y="61.965302"/>
    <text  x="3.023514" font-size="2.4" gorn="0.68" style="font-size:2.4000001px;font-family:DroidSans;fill:#545454" id="XMLID_80_-5" y="34.202396">19</text>
    <text  x="9.8962584" font-size="3.6" gorn="0.69" style="font-size:3.5999999px;font-family:DroidSans;fill:#545454" id="XMLID_66_-1" y="36.739594">TXD</text>
    <text  x="3.1007459" font-size="2.4" gorn="0.70" style="font-size:2.4000001px;font-family:DroidSans;fill:#545454" id="XMLID_38_-6" y="41.420547">20</text>
    <text  x="9.5323906" font-size="3.6" gorn="0.71" style="font-size:3.5999999px;font-family:DroidSans;fill:#545454" id="XMLID_36_-6" y="43.949848">RXD</text>
    <text  x="3.0873566" font-size="2.4" gorn="0.72" style="font-size:2.4000001px;font-family:DroidSans;fill:#545454" id="XMLID_79_-2" y="27.829081">23</text>
    <text  x="9.5323553" font-size="3.6" gorn="0.73" style="font-size:3.5999999px;font-family:DroidSans;fill:#545454" id="XMLID_70_-7" y="29.477711">RST</text>
    <text  x="3.0022144" font-size="2.4" gorn="0.74" style="font-size:2.4000001px;font-family:DroidSans;fill:#545454" id="XMLID_60_-8" y="48.661301">17</text>
    <text  x="9.4873114" font-size="3.6" gorn="0.75" style="font-size:3.5999999px;font-family:DroidSans;fill:#545454" id="XMLID_57_-6" y="51.419598">ALED</text>
</svg>
