<?xml version='1.0' encoding='UTF-8' standalone='no'?>
<svg
  xmlns:dc="http://purl.org/dc/elements/1.1/"
  xmlns:cc="http://creativecommons.org/ns#"
  xmlns:rdf="http://www.w3.org/1999/02/22-rdf-syntax-ns#"
  xmlns:svg="http://www.w3.org/2000/svg"
  xmlns="http://www.w3.org/2000/svg"
  gorn="0"
  viewBox="0 0 728.34666 832.67739"
  id="svg928"
  height="21.15mm"
  width="18.5mm"
  version="1.1">
  <desc
    id="desc2">
    <referenceFile>PAM8403_1_breadboard.svg</referenceFile>
  </desc>
  <defs
    id="defs922"
  />
  <metadata
    id="metadata925">
    <rdf:RDF>
      <cc:Work
        rdf:about="">
        <dc:format>image/svg+xml</dc:format>
        <dc:type
          rdf:resource="http://purl.org/dc/dcmitype/StillImage"
        />
        <dc:title/>
      </cc:Work>
    </rdf:RDF>
  </metadata>
  <g
    id="breadboard">
    <rect
      transform="rotate(-90)"
      gorn="0.3.0.0.0.0.0"
      y="1.9567223e-12"
      x="-832.67834"
      rx="14.180658"
      id="rect2262"
      height="728.34399"
      ry="14.886685"
      width="832.67737"
      color="#000000"
      clip-rule="nonzero"
      display="inline"
      overflow="visible"
      visibility="visible"
      opacity="1"
      isolation="auto"
      mix-blend-mode="normal"
      color-interpolation="sRGB"
      color-interpolation-filters="linearRGB"
      solid-color="#000000"
      solid-opacity="1"
      vector-effect="none"
      fill="#007600"
      fill-opacity="1"
      fill-rule="nonzero"
      stroke="none"
      stroke-width="110.23604584"
      stroke-linecap="round"
      stroke-linejoin="round"
      stroke-miterlimit="4"
      stroke-dasharray="none"
      stroke-dashoffset="0"
      stroke-opacity="1"
      color-rendering="auto"
      image-rendering="auto"
      shape-rendering="auto"
      text-rendering="auto"
      enable-background="accumulate"
    />
    <rect
      width="110.23171"
      height="49.54895"
      id="rect1513-7-2-3-5-5-3-4-2"
      x="571.44318"
      y="587.22327"
      gorn="0.3.0.0.1.0.0.0.0.0"
      color="#000000"
      clip-rule="nonzero"
      display="inline"
      overflow="visible"
      visibility="visible"
      opacity="1"
      isolation="auto"
      mix-blend-mode="normal"
      color-interpolation="sRGB"
      color-interpolation-filters="linearRGB"
      solid-color="#000000"
      solid-opacity="1"
      vector-effect="none"
      fill="#d8d8d8"
      fill-opacity="1"
      fill-rule="nonzero"
      stroke="none"
      stroke-width="110.23603821"
      stroke-linecap="round"
      stroke-linejoin="round"
      stroke-miterlimit="4"
      stroke-dasharray="none"
      stroke-dashoffset="0"
      stroke-opacity="1"
      color-rendering="auto"
      image-rendering="auto"
      shape-rendering="auto"
      text-rendering="auto"
      enable-background="accumulate"
    />
    <rect
      width="51.384472"
      height="49.020344"
      id="rect1513-7-4-0-1-1-3-0"
      x="600.85626"
      y="587.48761"
      gorn="0.3.0.0.1.0.0.1.0.0"
      color="#000000"
      clip-rule="nonzero"
      display="inline"
      overflow="visible"
      visibility="visible"
      opacity="1"
      isolation="auto"
      mix-blend-mode="normal"
      color-interpolation="sRGB"
      color-interpolation-filters="linearRGB"
      solid-color="#000000"
      solid-opacity="1"
      vector-effect="none"
      fill="#bd8d4a"
      fill-opacity="1"
      fill-rule="nonzero"
      stroke="none"
      stroke-width="110.23603821"
      stroke-linecap="round"
      stroke-linejoin="round"
      stroke-miterlimit="4"
      stroke-dasharray="none"
      stroke-dashoffset="0"
      stroke-opacity="1"
      color-rendering="auto"
      image-rendering="auto"
      shape-rendering="auto"
      text-rendering="auto"
      enable-background="accumulate"
    />
    <rect
      width="110.23171"
      height="49.54895"
      id="rect1513-7-2-3-5-5-3-4-2-8"
      x="41.183376"
      y="587.22327"
      gorn="0.3.0.0.2.0.0.0.0.0"
      color="#000000"
      clip-rule="nonzero"
      display="inline"
      overflow="visible"
      visibility="visible"
      opacity="1"
      isolation="auto"
      mix-blend-mode="normal"
      color-interpolation="sRGB"
      color-interpolation-filters="linearRGB"
      solid-color="#000000"
      solid-opacity="1"
      vector-effect="none"
      fill="#d8d8d8"
      fill-opacity="1"
      fill-rule="nonzero"
      stroke="none"
      stroke-width="110.23603821"
      stroke-linecap="round"
      stroke-linejoin="round"
      stroke-miterlimit="4"
      stroke-dasharray="none"
      stroke-dashoffset="0"
      stroke-opacity="1"
      color-rendering="auto"
      image-rendering="auto"
      shape-rendering="auto"
      text-rendering="auto"
      enable-background="accumulate"
    />
    <rect
      width="51.384472"
      height="49.020344"
      id="rect1513-7-4-0-1-1-3-0-8"
      x="70.596481"
      y="587.48761"
      gorn="0.3.0.0.2.0.0.1.0.0"
      color="#000000"
      clip-rule="nonzero"
      display="inline"
      overflow="visible"
      visibility="visible"
      opacity="1"
      isolation="auto"
      mix-blend-mode="normal"
      color-interpolation="sRGB"
      color-interpolation-filters="linearRGB"
      solid-color="#000000"
      solid-opacity="1"
      vector-effect="none"
      fill="#bd8d4a"
      fill-opacity="1"
      fill-rule="nonzero"
      stroke="none"
      stroke-width="110.23603821"
      stroke-linecap="round"
      stroke-linejoin="round"
      stroke-miterlimit="4"
      stroke-dasharray="none"
      stroke-dashoffset="0"
      stroke-opacity="1"
      color-rendering="auto"
      image-rendering="auto"
      shape-rendering="auto"
      text-rendering="auto"
      enable-background="accumulate"
    />
    <rect
      transform="rotate(-90)"
      width="78.61232"
      ry="16.61311"
      height="78.62178"
      id="rect1513-5"
      rx="16.611107"
      x="-819.91626"
      y="123.99967"
      gorn="0.3.0.0.3.0.0.0.0.0"
      color="#000000"
      clip-rule="nonzero"
      display="inline"
      overflow="visible"
      visibility="visible"
      opacity="1"
      isolation="auto"
      mix-blend-mode="normal"
      color-interpolation="sRGB"
      color-interpolation-filters="linearRGB"
      solid-color="#000000"
      solid-opacity="1"
      vector-effect="none"
      fill="#d8d8d8"
      fill-opacity="1"
      fill-rule="nonzero"
      stroke="none"
      stroke-width="110.23603821"
      stroke-linecap="round"
      stroke-linejoin="round"
      stroke-miterlimit="4"
      stroke-dasharray="none"
      stroke-dashoffset="0"
      stroke-opacity="1"
      color-rendering="auto"
      image-rendering="auto"
      shape-rendering="auto"
      text-rendering="auto"
      enable-background="accumulate"
    />
    <rect
      transform="rotate(-90)"
      width="78.62207"
      ry="16.61311"
      height="78.62178"
      id="rect1513-5-5"
      rx="16.613169"
      x="-819.91626"
      y="24.000017"
      gorn="0.3.0.0.4.0.0.0.0.0"
      color="#000000"
      clip-rule="nonzero"
      display="inline"
      overflow="visible"
      visibility="visible"
      opacity="1"
      isolation="auto"
      mix-blend-mode="normal"
      color-interpolation="sRGB"
      color-interpolation-filters="linearRGB"
      solid-color="#000000"
      solid-opacity="1"
      vector-effect="none"
      fill="#d8d8d8"
      fill-opacity="1"
      fill-rule="nonzero"
      stroke="none"
      stroke-width="110.23603821"
      stroke-linecap="round"
      stroke-linejoin="round"
      stroke-miterlimit="4"
      stroke-dasharray="none"
      stroke-dashoffset="0"
      stroke-opacity="1"
      color-rendering="auto"
      image-rendering="auto"
      shape-rendering="auto"
      text-rendering="auto"
      enable-background="accumulate"
    />
    <rect
      transform="rotate(-90)"
      width="78.61232"
      ry="16.61311"
      height="78.62178"
      id="rect1513"
      rx="16.611107"
      x="-819.91626"
      y="223.99931"
      gorn="0.3.0.0.5.0.0.0.0.0"
      color="#000000"
      clip-rule="nonzero"
      display="inline"
      overflow="visible"
      visibility="visible"
      opacity="1"
      isolation="auto"
      mix-blend-mode="normal"
      color-interpolation="sRGB"
      color-interpolation-filters="linearRGB"
      solid-color="#000000"
      solid-opacity="1"
      vector-effect="none"
      fill="#d8d8d8"
      fill-opacity="1"
      fill-rule="nonzero"
      stroke="none"
      stroke-width="110.23603821"
      stroke-linecap="round"
      stroke-linejoin="round"
      stroke-miterlimit="4"
      stroke-dasharray="none"
      stroke-dashoffset="0"
      stroke-opacity="1"
      color-rendering="auto"
      image-rendering="auto"
      shape-rendering="auto"
      text-rendering="auto"
      enable-background="accumulate"
    />
    <rect
      transform="rotate(-90)"
      width="78.61232"
      ry="16.61311"
      height="78.62178"
      id="rect1513-5-2"
      rx="16.611107"
      x="-819.91626"
      y="523.99841"
      gorn="0.3.0.0.6.0.0.0.0.0"
      color="#000000"
      clip-rule="nonzero"
      display="inline"
      overflow="visible"
      visibility="visible"
      opacity="1"
      isolation="auto"
      mix-blend-mode="normal"
      color-interpolation="sRGB"
      color-interpolation-filters="linearRGB"
      solid-color="#000000"
      solid-opacity="1"
      vector-effect="none"
      fill="#d8d8d8"
      fill-opacity="1"
      fill-rule="nonzero"
      stroke="none"
      stroke-width="110.23603821"
      stroke-linecap="round"
      stroke-linejoin="round"
      stroke-miterlimit="4"
      stroke-dasharray="none"
      stroke-dashoffset="0"
      stroke-opacity="1"
      color-rendering="auto"
      image-rendering="auto"
      shape-rendering="auto"
      text-rendering="auto"
      enable-background="accumulate"
    />
    <rect
      transform="rotate(-90)"
      width="78.61232"
      ry="16.61311"
      height="78.62178"
      id="rect1513-5-2-2"
      rx="16.611107"
      x="-819.91626"
      y="623.99805"
      gorn="0.3.0.0.7.0.0.0.0.0"
      color="#000000"
      clip-rule="nonzero"
      display="inline"
      overflow="visible"
      visibility="visible"
      opacity="1"
      isolation="auto"
      mix-blend-mode="normal"
      color-interpolation="sRGB"
      color-interpolation-filters="linearRGB"
      solid-color="#000000"
      solid-opacity="1"
      vector-effect="none"
      fill="#d8d8d8"
      fill-opacity="1"
      fill-rule="nonzero"
      stroke="none"
      stroke-width="110.23603821"
      stroke-linecap="round"
      stroke-linejoin="round"
      stroke-miterlimit="4"
      stroke-dasharray="none"
      stroke-dashoffset="0"
      stroke-opacity="1"
      color-rendering="auto"
      image-rendering="auto"
      shape-rendering="auto"
      text-rendering="auto"
      enable-background="accumulate"
    />
    <rect
      transform="rotate(-90)"
      width="78.61232"
      ry="16.61311"
      height="78.62178"
      id="rect1513-5-2-9"
      rx="16.611107"
      x="-94.676643"
      y="523.53754"
      gorn="0.3.0.0.8.0.0.0.0.0"
      color="#000000"
      clip-rule="nonzero"
      display="inline"
      overflow="visible"
      visibility="visible"
      opacity="1"
      isolation="auto"
      mix-blend-mode="normal"
      color-interpolation="sRGB"
      color-interpolation-filters="linearRGB"
      solid-color="#000000"
      solid-opacity="1"
      vector-effect="none"
      fill="#d8d8d8"
      fill-opacity="1"
      fill-rule="nonzero"
      stroke="none"
      stroke-width="110.23603821"
      stroke-linecap="round"
      stroke-linejoin="round"
      stroke-miterlimit="4"
      stroke-dasharray="none"
      stroke-dashoffset="0"
      stroke-opacity="1"
      color-rendering="auto"
      image-rendering="auto"
      shape-rendering="auto"
      text-rendering="auto"
      enable-background="accumulate"
    />
    <rect
      transform="rotate(-90)"
      width="78.61232"
      ry="16.61311"
      height="78.62178"
      id="rect1513-5-2-2-0"
      rx="16.611107"
      x="-94.676643"
      y="623.53723"
      gorn="0.3.0.0.9.0.0.0.0.0"
      color="#000000"
      clip-rule="nonzero"
      display="inline"
      overflow="visible"
      visibility="visible"
      opacity="1"
      isolation="auto"
      mix-blend-mode="normal"
      color-interpolation="sRGB"
      color-interpolation-filters="linearRGB"
      solid-color="#000000"
      solid-opacity="1"
      vector-effect="none"
      fill="#d8d8d8"
      fill-opacity="1"
      fill-rule="nonzero"
      stroke="none"
      stroke-width="110.23603821"
      stroke-linecap="round"
      stroke-linejoin="round"
      stroke-miterlimit="4"
      stroke-dasharray="none"
      stroke-dashoffset="0"
      stroke-opacity="1"
      color-rendering="auto"
      image-rendering="auto"
      shape-rendering="auto"
      text-rendering="auto"
      enable-background="accumulate"
    />
    <rect
      transform="rotate(-90)"
      width="78.61232"
      ry="16.61311"
      height="78.62178"
      id="rect1513-5-2-9-6"
      rx="16.611107"
      x="-94.676643"
      y="24.000017"
      gorn="0.3.0.0.10.0.0.0.0.0"
      color="#000000"
      clip-rule="nonzero"
      display="inline"
      overflow="visible"
      visibility="visible"
      opacity="1"
      isolation="auto"
      mix-blend-mode="normal"
      color-interpolation="sRGB"
      color-interpolation-filters="linearRGB"
      solid-color="#000000"
      solid-opacity="1"
      vector-effect="none"
      fill="#d8d8d8"
      fill-opacity="1"
      fill-rule="nonzero"
      stroke="none"
      stroke-width="110.23603821"
      stroke-linecap="round"
      stroke-linejoin="round"
      stroke-miterlimit="4"
      stroke-dasharray="none"
      stroke-dashoffset="0"
      stroke-opacity="1"
      color-rendering="auto"
      image-rendering="auto"
      shape-rendering="auto"
      text-rendering="auto"
      enable-background="accumulate"
    />
    <rect
      transform="rotate(-90)"
      width="78.61232"
      ry="16.61311"
      height="78.62178"
      id="rect1513-5-2-2-0-0"
      rx="16.611107"
      x="-94.676643"
      y="123.53891"
      gorn="0.3.0.0.11.0.0.0.0.0"
      color="#000000"
      clip-rule="nonzero"
      display="inline"
      overflow="visible"
      visibility="visible"
      opacity="1"
      isolation="auto"
      mix-blend-mode="normal"
      color-interpolation="sRGB"
      color-interpolation-filters="linearRGB"
      solid-color="#000000"
      solid-opacity="1"
      vector-effect="none"
      fill="#d8d8d8"
      fill-opacity="1"
      fill-rule="nonzero"
      stroke="none"
      stroke-width="110.23603821"
      stroke-linecap="round"
      stroke-linejoin="round"
      stroke-miterlimit="4"
      stroke-dasharray="none"
      stroke-dashoffset="0"
      stroke-opacity="1"
      color-rendering="auto"
      image-rendering="auto"
      shape-rendering="auto"
      text-rendering="auto"
      enable-background="accumulate"
    />
    <path
      id="path15591"
      d="m 579.63444,110.23177 v 23.64489 h 24.3744 v 12.15512 h -24.3744 v 23.64528 H 567.26271 V 146.03178 H 542.8883 v -12.15512 h 24.37441 v -23.64489 z"
      gorn="0.3.0.0.12.0.0.0"
      font-style="normal"
      font-weight="bold"
      font-size="0.66437203"
      line-height="125%"
      font-family="'Droid Sans'"
      letter-spacing="0px"
      word-spacing="0px"
      fill="#ffffff"
      fill-opacity="1"
      stroke="none"
      stroke-width="2.93981028"
      stroke-linecap="butt"
      stroke-linejoin="miter"
      stroke-opacity="1"
    />
    <path
      id="path15565"
      d="m 572.2619,669.49135 v 23.9941 h 24.9524 v 12.33465 h -24.9524 v 23.9941 h -12.66539 v -23.9941 h -24.95239 v -12.33465 h 24.95239 v -23.9941 z"
      gorn="0.3.0.0.13.0.0.0"
      font-style="normal"
      font-weight="bold"
      font-size="0.67714798"
      line-height="125%"
      font-family="'Droid Sans'"
      letter-spacing="0px"
      word-spacing="0px"
      fill="#ffffff"
      fill-opacity="1"
      stroke="none"
      stroke-width="2.93981028"
      stroke-linecap="butt"
      stroke-linejoin="miter"
      stroke-opacity="1"
    />
    <path
      id="path15568"
      d="m 466.41927,792.83626 q 0,3.8937 -1.32165,7.25 -1.29212,3.32284 -3.78266,5.70591 -2.76259,2.55118 -6.36431,3.79134 -3.57086,1.20866 -8.16564,1.20866 -5.37349,-0.0335 -9.09607,-0.97244 -3.69369,-0.90551 -6.03404,-2.04724 v -11.04292 h 1.2622 q 2.73306,1.81102 5.88396,3.01969 3.15353,1.20866 6.27458,1.20866 1.89134,0 4.08263,-0.46851 2.22282,-0.50393 3.51101,-1.77952 1.02007,-1.03938 1.53031,-2.11418 0.53976,-1.0748 0.53976,-3.32283 0,-1.7441 -0.72244,-2.98819 -0.68897,-1.27559 -1.80196,-2.04725 -1.61968,-1.1063 -3.90274,-1.44488 -2.28228,-0.35433 -4.14259,-0.35433 -2.70314,0 -5.19368,0.53543 -2.46102,0.50394 -4.32278,1.00788 h -1.32165 v -28.1945 h 31.79166 v 9.56615 h -20.95418 v 8.1563 q 0.93071,-0.0787 2.34212,-0.0787 1.44094,-0.0787 2.52086,-0.0787 3.69369,0 6.57466,0.80708 2.9118,0.77166 5.01345,2.18111 2.73306,1.84645 4.26286,4.90039 1.53031,3.01969 1.53031,7.61929 z"
      gorn="0.3.0.0.14.0.0.0"
      font-style="normal"
      font-weight="bold"
      font-size="0.46602201"
      line-height="125%"
      font-family="'Droid Sans'"
      letter-spacing="0px"
      word-spacing="0px"
      fill="#ffffff"
      fill-opacity="1"
      stroke="none"
      stroke-width="2.93981028"
      stroke-linecap="butt"
      stroke-linejoin="miter"
      stroke-opacity="1"
    />
    <path
      id="path15570"
      d="M 516.67347,759.77484 500.37234,809.7528 H 487.46353 L 471.1624,759.77484 h 12.09823 l 10.80737,35.10867 10.80732,-35.10867 z"
      gorn="0.3.0.0.14.0.0.1"
      font-style="normal"
      font-weight="bold"
      font-size="0.46602201"
      line-height="125%"
      font-family="'Droid Sans'"
      letter-spacing="0px"
      word-spacing="0px"
      fill="#ffffff"
      fill-opacity="1"
      stroke="none"
      stroke-width="2.93981028"
      stroke-linecap="butt"
      stroke-linejoin="miter"
      stroke-opacity="1"
    />
    <path
      id="path15588"
      d="m 700.72529,145.56445 h -55.16395 v -11.47559 h 55.16395 z"
      gorn="0.3.0.0.15.0.0.0"
      font-style="normal"
      font-weight="bold"
      font-size="0.78796101"
      line-height="125%"
      font-family="'Droid Sans'"
      letter-spacing="0px"
      word-spacing="0px"
      fill="#ffffff"
      fill-opacity="1"
      stroke="none"
      stroke-width="2.93981028"
      stroke-linecap="butt"
      stroke-linejoin="miter"
      stroke-opacity="1"
    />
    <path
      id="path15582"
      d="m 146.91115,102.72901 v 25.47402 h -25.28078 v 13.09528 h 25.28078 v 25.47402 h 12.8317 v -25.47402 h 25.28078 v -13.09528 h -25.28078 v -25.47402 z"
      gorn="0.3.0.0.16.0.0.0"
      font-style="normal"
      font-weight="bold"
      font-size="0.70229101"
      line-height="125%"
      font-family="'Droid Sans'"
      letter-spacing="0px"
      word-spacing="0px"
      fill="#ffffff"
      fill-opacity="1"
      stroke="none"
      stroke-width="2.93981028"
      stroke-linecap="butt"
      stroke-linejoin="miter"
      stroke-opacity="1"
    />
    <path
      id="path15585"
      d="m 26.7486,141.28493 h 58.507306 v -12.4567 H 26.7486 Z"
      gorn="0.3.0.0.17.0.0.0"
      font-style="normal"
      font-weight="bold"
      font-size="0.84548301"
      line-height="125%"
      font-family="'Droid Sans'"
      letter-spacing="0px"
      word-spacing="0px"
      fill="#ffffff"
      fill-opacity="1"
      stroke="none"
      stroke-width="2.93981028"
      stroke-linecap="butt"
      stroke-linejoin="miter"
      stroke-opacity="1"
    />
    <path
      id="path15579"
      d="M 82.684269,729.51144 H 47.458263 v -60.16379 h 12.594729 v 48.52718 h 22.631277 z"
      gorn="0.3.0.0.18.0.0.0"
      font-style="normal"
      font-weight="bold"
      font-size="0.53444803"
      line-height="125%"
      font-family="'Droid Sans'"
      letter-spacing="0px"
      word-spacing="0px"
      fill="#ffffff"
      fill-opacity="1"
      stroke="none"
      stroke-width="2.93981028"
      stroke-linecap="butt"
      stroke-linejoin="miter"
      stroke-opacity="1"
    />
    <path
      id="path15573"
      d="m 269.73012,687.77285 q 0,-2.26378 -0.71456,-3.87795 -0.71457,-1.61418 -2.4544,-2.54331 -1.21169,-0.64567 -2.82724,-0.76772 -1.61554,-0.15748 -3.75896,-0.15748 h -4.31788 v 16.20237 h 3.66542 q 2.85829,0 4.78422,-0.35433 1.92625,-0.35433 3.23113,-1.65748 1.24275,-1.25197 1.80196,-2.74804 0.59032,-1.53543 0.59032,-4.0807 z m 18.60768,41.73859 h -14.56945 l -12.61213,-22.06142 h -5.49845 v 22.06142 h -11.86683 v -60.1634 h 20.00577 q 4.10036,0 7.05154,0.6063 2.95152,0.6063 5.52952,2.62599 2.60975,2.01968 4.13178,5.25236 1.55342,3.19292 1.55342,8.04095 0,6.66693 -2.39227,10.8689 -2.36122,4.20236 -6.77227,6.99016 z"
      gorn="0.3.0.0.19.0.0.0"
      font-style="normal"
      font-weight="bold"
      font-size="0.520127"
      line-height="125%"
      font-family="'Droid Sans'"
      letter-spacing="0px"
      word-spacing="0px"
      fill="#ffffff"
      fill-opacity="1"
      stroke="none"
      stroke-width="2.93981028"
      stroke-linecap="butt"
      stroke-linejoin="miter"
      stroke-opacity="1"
    />
    <path
      id="path15576"
      d="m 183.86062,719.63349 h -14.44529 v -43.6634 h -11.92875 v 43.6634 h -14.4453 v 10.47047 h 40.81934 z"
      gorn="0.3.0.0.20.0.0.0"
      font-style="normal"
      font-weight="bold"
      font-size="0.49337399"
      line-height="125%"
      font-family="'Droid Sans'"
      letter-spacing="0px"
      word-spacing="0px"
      fill="#ffffff"
      fill-opacity="1"
      stroke="none"
      stroke-width="2.93981028"
      stroke-linecap="butt"
      stroke-linejoin="miter"
      stroke-opacity="1"
    />
    <path
      id="path15597"
      d="M 244.44294,77.949084 H 209.21702 V 22.140409 h 12.59445 v 45.014578 h 22.63147 z"
      gorn="0.3.0.0.21.0.0.0"
      font-style="normal"
      font-weight="bold"
      font-size="0.514741"
      line-height="125%"
      font-family="'Droid Sans'"
      letter-spacing="0px"
      word-spacing="0px"
      fill="#ffffff"
      fill-opacity="1"
      stroke="none"
      stroke-width="2.93981028"
      stroke-linecap="butt"
      stroke-linejoin="miter"
      stroke-opacity="1"
    />
    <path
      id="path15594"
      d="m 500.93774,39.061279 q 0,-2.094488 -0.71417,-3.586615 -0.71417,-1.496063 -2.45472,-2.354331 -1.21299,-0.598425 -2.82794,-0.712599 -1.61496,-0.15748 -3.75865,-0.15748 h -4.31818 v 14.990555 h 3.66574 q 2.85668,0 4.784,-0.354331 1.92716,-0.354331 3.22991,-1.531496 1.24173,-1.157481 1.80157,-2.543308 0.58858,-1.42126 0.58858,-3.775592 z m 18.60781,38.616545 H 504.97599 L 492.36383,57.266402 h -5.49857 V 77.677824 H 474.99849 V 22.014425 h 20.00568 q 4.1007,0 7.05187,0.559055 2.94999,0.559055 5.52947,2.429134 2.60905,1.87008 4.13156,4.859844 1.55393,2.952757 1.55393,7.438978 0,6.168112 -2.39369,10.055908 -2.36141,3.889765 -6.77191,6.467325 z"
      gorn="0.3.0.0.22.0.0.0"
      font-style="normal"
      font-weight="bold"
      font-size="0.50029498"
      line-height="125%"
      font-family="'Droid Sans'"
      letter-spacing="0px"
      word-spacing="0px"
      fill="#ffffff"
      fill-opacity="1"
      stroke="none"
      stroke-width="2.93981028"
      stroke-linecap="butt"
      stroke-linejoin="miter"
      stroke-opacity="1"
    />
    <path
      id="path15600"
      d="m 330.00021,50.064038 q 0,13.34331 -7.1049,21.214178 -7.10527,7.833466 -19.64329,7.833466 -12.50347,0 -19.60837,-7.833466 -7.10526,-7.870868 -7.10526,-21.214178 0,-13.455515 7.10526,-21.25158 7.1049,-7.833467 19.60837,-7.833467 12.46857,0 19.60838,7.833467 7.13981,7.796065 7.13981,21.25158 z m -17.72789,14.130318 q 1.9507,-2.547245 2.89192,-5.996852 0.94118,-3.484253 0.94118,-8.170868 0,-5.022442 -1.07783,-8.545671 -1.07783,-3.523623 -2.81979,-5.696852 -1.77614,-2.248032 -4.10977,-3.259843 -2.29987,-1.011811 -4.80655,-1.011811 -2.54275,0 -4.80617,0.972441 -2.22774,0.976378 -4.10976,3.22441 -1.74196,2.098426 -2.85392,5.80945 -1.07783,3.673229 -1.07783,8.545671 0,4.985041 1.04365,8.507877 1.07784,3.484252 2.8198,5.697245 1.74196,2.212599 4.07484,3.259843 2.334,1.051182 4.91053,1.051182 2.57689,0 4.91092,-1.051182 2.33401,-1.086614 4.07485,-3.334646 z"
      gorn="0.3.0.0.23.0.0.0"
      font-style="normal"
      font-weight="bold"
      font-size="0.53042799"
      line-height="125%"
      font-family="'Droid Sans'"
      letter-spacing="0px"
      word-spacing="0px"
      fill="#ffffff"
      fill-opacity="1"
      stroke="none"
      stroke-width="2.93981028"
      stroke-linecap="butt"
      stroke-linejoin="miter"
      stroke-opacity="1"
    />
    <path
      id="path15602"
      d="m 385.58618,57.747504 q 0,10.344885 -5.85098,15.854335 -5.85135,5.509843 -17.2402,5.509843 -11.38885,0 -17.24021,-5.509843 -5.81606,-5.50945 -5.81606,-15.81654 V 22.140803 h 13.44355 v 34.819693 q 0,5.80945 2.2657,8.65827 2.2657,2.850394 7.34892,2.850394 5.01528,0 7.314,-2.736221 2.33401,-2.736221 2.33401,-8.770474 V 22.142378 h 13.44354 z"
      gorn="0.3.0.0.23.0.0.1"
      font-style="normal"
      font-weight="bold"
      font-size="0.53042799"
      line-height="125%"
      font-family="'Droid Sans'"
      letter-spacing="0px"
      word-spacing="0px"
      fill="#ffffff"
      fill-opacity="1"
      stroke="none"
      stroke-width="2.93981028"
      stroke-linecap="butt"
      stroke-linejoin="miter"
      stroke-opacity="1"
    />
    <path
      id="path15604"
      d="M 438.69964,32.935294 H 422.50422 V 77.949871 H 409.13014 V 32.935294 H 392.93509 V 22.140803 h 45.76455 z"
      gorn="0.3.0.0.23.0.0.2"
      font-style="normal"
      font-weight="bold"
      font-size="0.53042799"
      line-height="125%"
      font-family="'Droid Sans'"
      letter-spacing="0px"
      word-spacing="0px"
      fill="#ffffff"
      fill-opacity="1"
      stroke="none"
      stroke-width="2.93981028"
      stroke-linecap="butt"
      stroke-linejoin="miter"
      stroke-opacity="1"
    />
    <ellipse
      transform="rotate(-90)"
      cx="-617.54382"
      gorn="0.3.0.0.24.0.0"
      rx="10.185781"
      id="path2138"
      ry="10.69291"
      cy="359.22491"
      color="#000000"
      clip-rule="nonzero"
      display="inline"
      overflow="visible"
      visibility="visible"
      opacity="1"
      isolation="auto"
      mix-blend-mode="normal"
      color-interpolation="sRGB"
      color-interpolation-filters="linearRGB"
      solid-color="#000000"
      solid-opacity="1"
      vector-effect="none"
      fill="#f5a623"
      fill-opacity="1"
      fill-rule="nonzero"
      stroke="none"
      stroke-width="110.23604584"
      stroke-linecap="round"
      stroke-linejoin="round"
      stroke-miterlimit="4"
      stroke-dasharray="none"
      stroke-dashoffset="0"
      stroke-opacity="1"
      color-rendering="auto"
      image-rendering="auto"
      shape-rendering="auto"
      text-rendering="auto"
      enable-background="accumulate"
    />
    <ellipse
      transform="rotate(-90)"
      cx="-676.50281"
      gorn="0.3.0.0.25.0.0"
      rx="10.185781"
      id="path2138-3"
      ry="10.69291"
      cy="451.36365"
      color="#000000"
      clip-rule="nonzero"
      display="inline"
      overflow="visible"
      visibility="visible"
      opacity="1"
      isolation="auto"
      mix-blend-mode="normal"
      color-interpolation="sRGB"
      color-interpolation-filters="linearRGB"
      solid-color="#000000"
      solid-opacity="1"
      vector-effect="none"
      fill="#f5a623"
      fill-opacity="1"
      fill-rule="nonzero"
      stroke="none"
      stroke-width="110.23604584"
      stroke-linecap="round"
      stroke-linejoin="round"
      stroke-miterlimit="4"
      stroke-dasharray="none"
      stroke-dashoffset="0"
      stroke-opacity="1"
      color-rendering="auto"
      image-rendering="auto"
      shape-rendering="auto"
      text-rendering="auto"
      enable-background="accumulate"
    />
    <ellipse
      transform="rotate(-90)"
      cx="-647.07135"
      gorn="0.3.0.0.26.0.0"
      rx="10.185781"
      id="path2138-5"
      ry="10.69291"
      cy="168.03354"
      color="#000000"
      clip-rule="nonzero"
      display="inline"
      overflow="visible"
      visibility="visible"
      opacity="1"
      isolation="auto"
      mix-blend-mode="normal"
      color-interpolation="sRGB"
      color-interpolation-filters="linearRGB"
      solid-color="#000000"
      solid-opacity="1"
      vector-effect="none"
      fill="#f5a623"
      fill-opacity="1"
      fill-rule="nonzero"
      stroke="none"
      stroke-width="110.23604584"
      stroke-linecap="round"
      stroke-linejoin="round"
      stroke-miterlimit="4"
      stroke-dasharray="none"
      stroke-dashoffset="0"
      stroke-opacity="1"
      color-rendering="auto"
      image-rendering="auto"
      shape-rendering="auto"
      text-rendering="auto"
      enable-background="accumulate"
    />
    <ellipse
      transform="rotate(-90)"
      cx="-666.1004"
      gorn="0.3.0.0.27.0.0"
      rx="10.185781"
      id="path2138-2"
      ry="10.69291"
      cy="100.7365"
      color="#000000"
      clip-rule="nonzero"
      display="inline"
      overflow="visible"
      visibility="visible"
      opacity="1"
      isolation="auto"
      mix-blend-mode="normal"
      color-interpolation="sRGB"
      color-interpolation-filters="linearRGB"
      solid-color="#000000"
      solid-opacity="1"
      vector-effect="none"
      fill="#f5a623"
      fill-opacity="1"
      fill-rule="nonzero"
      stroke="none"
      stroke-width="110.23604584"
      stroke-linecap="round"
      stroke-linejoin="round"
      stroke-miterlimit="4"
      stroke-dasharray="none"
      stroke-dashoffset="0"
      stroke-opacity="1"
      color-rendering="auto"
      image-rendering="auto"
      shape-rendering="auto"
      text-rendering="auto"
      enable-background="accumulate"
    />
    <ellipse
      transform="rotate(-90)"
      cx="-146.85451"
      gorn="0.3.0.0.28.0.0"
      rx="10.185781"
      id="path2138-29"
      ry="10.69291"
      cy="266.37549"
      color="#000000"
      clip-rule="nonzero"
      display="inline"
      overflow="visible"
      visibility="visible"
      opacity="1"
      isolation="auto"
      mix-blend-mode="normal"
      color-interpolation="sRGB"
      color-interpolation-filters="linearRGB"
      solid-color="#000000"
      solid-opacity="1"
      vector-effect="none"
      fill="#ffffff"
      fill-opacity="1"
      fill-rule="nonzero"
      stroke="none"
      stroke-width="110.23604584"
      stroke-linecap="round"
      stroke-linejoin="round"
      stroke-miterlimit="4"
      stroke-dasharray="none"
      stroke-dashoffset="0"
      stroke-opacity="1"
      color-rendering="auto"
      image-rendering="auto"
      shape-rendering="auto"
      text-rendering="auto"
      enable-background="accumulate"
    />
    <rect
      transform="rotate(-90)"
      gorn="0.3.0.0.29.0.0"
      y="226.60547"
      x="-193.80113"
      rx="14.180658"
      id="rect2173"
      height="287.3999"
      ry="13.905931"
      width="19.429825"
      color="#000000"
      clip-rule="nonzero"
      display="inline"
      overflow="visible"
      visibility="visible"
      opacity="1"
      isolation="auto"
      mix-blend-mode="normal"
      color-interpolation="sRGB"
      color-interpolation-filters="linearRGB"
      solid-color="#000000"
      solid-opacity="1"
      vector-effect="none"
      fill="#d8d8d8"
      fill-opacity="1"
      fill-rule="nonzero"
      stroke="none"
      stroke-width="110.23604584"
      stroke-linecap="round"
      stroke-linejoin="round"
      stroke-miterlimit="4"
      stroke-dasharray="none"
      stroke-dashoffset="0"
      stroke-opacity="1"
      color-rendering="auto"
      image-rendering="auto"
      shape-rendering="auto"
      text-rendering="auto"
      enable-background="accumulate"
    />
    <rect
      transform="rotate(-90)"
      gorn="0.3.0.0.30.0.0"
      y="226.60606"
      x="-535.66296"
      rx="14.180658"
      id="rect2173-6"
      height="287.3999"
      ry="13.905931"
      width="19.429825"
      color="#000000"
      clip-rule="nonzero"
      display="inline"
      overflow="visible"
      visibility="visible"
      opacity="1"
      isolation="auto"
      mix-blend-mode="normal"
      color-interpolation="sRGB"
      color-interpolation-filters="linearRGB"
      solid-color="#000000"
      solid-opacity="1"
      vector-effect="none"
      fill="#d8d8d8"
      fill-opacity="1"
      fill-rule="nonzero"
      stroke="none"
      stroke-width="110.23604584"
      stroke-linecap="round"
      stroke-linejoin="round"
      stroke-miterlimit="4"
      stroke-dasharray="none"
      stroke-dashoffset="0"
      stroke-opacity="1"
      color-rendering="auto"
      image-rendering="auto"
      shape-rendering="auto"
      text-rendering="auto"
      enable-background="accumulate"
    />
    <rect
      transform="rotate(-90)"
      gorn="0.3.0.0.31.0.0"
      y="226.60606"
      x="-242.63887"
      rx="14.180658"
      id="rect2173-3"
      height="287.3999"
      ry="13.905931"
      width="19.429825"
      color="#000000"
      clip-rule="nonzero"
      display="inline"
      overflow="visible"
      visibility="visible"
      opacity="1"
      isolation="auto"
      mix-blend-mode="normal"
      color-interpolation="sRGB"
      color-interpolation-filters="linearRGB"
      solid-color="#000000"
      solid-opacity="1"
      vector-effect="none"
      fill="#d8d8d8"
      fill-opacity="1"
      fill-rule="nonzero"
      stroke="none"
      stroke-width="110.23604584"
      stroke-linecap="round"
      stroke-linejoin="round"
      stroke-miterlimit="4"
      stroke-dasharray="none"
      stroke-dashoffset="0"
      stroke-opacity="1"
      color-rendering="auto"
      image-rendering="auto"
      shape-rendering="auto"
      text-rendering="auto"
      enable-background="accumulate"
    />
    <rect
      transform="rotate(-90)"
      gorn="0.3.0.0.32.0.0"
      y="226.60606"
      x="-291.47662"
      rx="14.180658"
      id="rect2173-5"
      height="287.3999"
      ry="13.905931"
      width="19.429825"
      color="#000000"
      clip-rule="nonzero"
      display="inline"
      overflow="visible"
      visibility="visible"
      opacity="1"
      isolation="auto"
      mix-blend-mode="normal"
      color-interpolation="sRGB"
      color-interpolation-filters="linearRGB"
      solid-color="#000000"
      solid-opacity="1"
      vector-effect="none"
      fill="#d8d8d8"
      fill-opacity="1"
      fill-rule="nonzero"
      stroke="none"
      stroke-width="110.23604584"
      stroke-linecap="round"
      stroke-linejoin="round"
      stroke-miterlimit="4"
      stroke-dasharray="none"
      stroke-dashoffset="0"
      stroke-opacity="1"
      color-rendering="auto"
      image-rendering="auto"
      shape-rendering="auto"
      text-rendering="auto"
      enable-background="accumulate"
    />
    <rect
      transform="rotate(-90)"
      gorn="0.3.0.0.33.0.0"
      y="226.60606"
      x="-340.31436"
      rx="14.180658"
      id="rect2173-7"
      height="287.3999"
      ry="13.905931"
      width="19.429825"
      color="#000000"
      clip-rule="nonzero"
      display="inline"
      overflow="visible"
      visibility="visible"
      opacity="1"
      isolation="auto"
      mix-blend-mode="normal"
      color-interpolation="sRGB"
      color-interpolation-filters="linearRGB"
      solid-color="#000000"
      solid-opacity="1"
      vector-effect="none"
      fill="#d8d8d8"
      fill-opacity="1"
      fill-rule="nonzero"
      stroke="none"
      stroke-width="110.23604584"
      stroke-linecap="round"
      stroke-linejoin="round"
      stroke-miterlimit="4"
      stroke-dasharray="none"
      stroke-dashoffset="0"
      stroke-opacity="1"
      color-rendering="auto"
      image-rendering="auto"
      shape-rendering="auto"
      text-rendering="auto"
      enable-background="accumulate"
    />
    <rect
      transform="rotate(-90)"
      gorn="0.3.0.0.34.0.0"
      y="226.60606"
      x="-389.15213"
      rx="14.180658"
      id="rect2173-8"
      height="287.3999"
      ry="13.905931"
      width="19.429825"
      color="#000000"
      clip-rule="nonzero"
      display="inline"
      overflow="visible"
      visibility="visible"
      opacity="1"
      isolation="auto"
      mix-blend-mode="normal"
      color-interpolation="sRGB"
      color-interpolation-filters="linearRGB"
      solid-color="#000000"
      solid-opacity="1"
      vector-effect="none"
      fill="#d8d8d8"
      fill-opacity="1"
      fill-rule="nonzero"
      stroke="none"
      stroke-width="110.23604584"
      stroke-linecap="round"
      stroke-linejoin="round"
      stroke-miterlimit="4"
      stroke-dasharray="none"
      stroke-dashoffset="0"
      stroke-opacity="1"
      color-rendering="auto"
      image-rendering="auto"
      shape-rendering="auto"
      text-rendering="auto"
      enable-background="accumulate"
    />
    <rect
      transform="rotate(-90)"
      gorn="0.3.0.0.35.0.0"
      y="226.60606"
      x="-437.98987"
      rx="14.180658"
      id="rect2173-37"
      height="287.3999"
      ry="13.905931"
      width="19.429825"
      color="#000000"
      clip-rule="nonzero"
      display="inline"
      overflow="visible"
      visibility="visible"
      opacity="1"
      isolation="auto"
      mix-blend-mode="normal"
      color-interpolation="sRGB"
      color-interpolation-filters="linearRGB"
      solid-color="#000000"
      solid-opacity="1"
      vector-effect="none"
      fill="#d8d8d8"
      fill-opacity="1"
      fill-rule="nonzero"
      stroke="none"
      stroke-width="110.23604584"
      stroke-linecap="round"
      stroke-linejoin="round"
      stroke-miterlimit="4"
      stroke-dasharray="none"
      stroke-dashoffset="0"
      stroke-opacity="1"
      color-rendering="auto"
      image-rendering="auto"
      shape-rendering="auto"
      text-rendering="auto"
      enable-background="accumulate"
    />
    <rect
      transform="rotate(-90)"
      gorn="0.3.0.0.36.0.0"
      y="226.60606"
      x="-486.82523"
      rx="14.180658"
      id="rect2173-0"
      height="287.3999"
      ry="13.905931"
      width="19.429825"
      color="#000000"
      clip-rule="nonzero"
      display="inline"
      overflow="visible"
      visibility="visible"
      opacity="1"
      isolation="auto"
      mix-blend-mode="normal"
      color-interpolation="sRGB"
      color-interpolation-filters="linearRGB"
      solid-color="#000000"
      solid-opacity="1"
      vector-effect="none"
      fill="#d8d8d8"
      fill-opacity="1"
      fill-rule="nonzero"
      stroke="none"
      stroke-width="110.23604584"
      stroke-linecap="round"
      stroke-linejoin="round"
      stroke-miterlimit="4"
      stroke-dasharray="none"
      stroke-dashoffset="0"
      stroke-opacity="1"
      color-rendering="auto"
      image-rendering="auto"
      shape-rendering="auto"
      text-rendering="auto"
      enable-background="accumulate"
    />
    <rect
      transform="rotate(-90)"
      gorn="0.3.0.0.37.0.0"
      y="288.04892"
      x="-551.97424"
      rx="14.718427"
      id="rect1513-5-0"
      height="157.47978"
      ry="14.298993"
      width="393.70087"
      color="#000000"
      clip-rule="nonzero"
      display="inline"
      overflow="visible"
      visibility="visible"
      opacity="1"
      isolation="auto"
      mix-blend-mode="normal"
      color-interpolation="sRGB"
      color-interpolation-filters="linearRGB"
      solid-color="#000000"
      solid-opacity="1"
      vector-effect="none"
      fill="#000000"
      fill-opacity="1"
      fill-rule="nonzero"
      stroke="none"
      stroke-width="110.23603821"
      stroke-linecap="round"
      stroke-linejoin="round"
      stroke-miterlimit="4"
      stroke-dasharray="none"
      stroke-dashoffset="0"
      stroke-opacity="1"
      color-rendering="auto"
      image-rendering="auto"
      shape-rendering="auto"
      text-rendering="auto"
      enable-background="accumulate"
    />
    <rect
      transform="matrix(0,-1,-1,0,0,0)"
      width="105.00378"
      height="52.015892"
      id="rect1513-7-2-3"
      x="-489.8866"
      y="-174.03645"
      gorn="0.3.0.0.38.0.0.0.0.0"
      color="#000000"
      clip-rule="nonzero"
      display="inline"
      overflow="visible"
      visibility="visible"
      opacity="1"
      isolation="auto"
      mix-blend-mode="normal"
      color-interpolation="sRGB"
      color-interpolation-filters="linearRGB"
      solid-color="#000000"
      solid-opacity="1"
      vector-effect="none"
      fill="#d8d8d8"
      fill-opacity="1"
      fill-rule="nonzero"
      stroke="none"
      stroke-width="110.23603821"
      stroke-linecap="round"
      stroke-linejoin="round"
      stroke-miterlimit="4"
      stroke-dasharray="none"
      stroke-dashoffset="0"
      stroke-opacity="1"
      color-rendering="auto"
      image-rendering="auto"
      shape-rendering="auto"
      text-rendering="auto"
      enable-background="accumulate"
    />
    <rect
      transform="matrix(0,-1,-1,0,0,0)"
      width="48.947472"
      height="51.460968"
      id="rect1513-7-4"
      x="-461.86807"
      y="-173.75899"
      gorn="0.3.0.0.38.0.0.1.0.0"
      color="#000000"
      clip-rule="nonzero"
      display="inline"
      overflow="visible"
      visibility="visible"
      opacity="1"
      isolation="auto"
      mix-blend-mode="normal"
      color-interpolation="sRGB"
      color-interpolation-filters="linearRGB"
      solid-color="#000000"
      solid-opacity="1"
      vector-effect="none"
      fill="#000000"
      fill-opacity="1"
      fill-rule="nonzero"
      stroke="none"
      stroke-width="110.23603821"
      stroke-linecap="round"
      stroke-linejoin="round"
      stroke-miterlimit="4"
      stroke-dasharray="none"
      stroke-dashoffset="0"
      stroke-opacity="1"
      color-rendering="auto"
      image-rendering="auto"
      shape-rendering="auto"
      text-rendering="auto"
      enable-background="accumulate"
    />
    <rect
      transform="matrix(0,-1,-1,0,0,0)"
      width="105.00378"
      height="52.015892"
      id="rect1513-7-2-3-5-5-3"
      x="-489.8866"
      y="-81.495819"
      gorn="0.3.0.0.39.0.0.0.0.0"
      color="#000000"
      clip-rule="nonzero"
      display="inline"
      overflow="visible"
      visibility="visible"
      opacity="1"
      isolation="auto"
      mix-blend-mode="normal"
      color-interpolation="sRGB"
      color-interpolation-filters="linearRGB"
      solid-color="#000000"
      solid-opacity="1"
      vector-effect="none"
      fill="#d8d8d8"
      fill-opacity="1"
      fill-rule="nonzero"
      stroke="none"
      stroke-width="110.23603821"
      stroke-linecap="round"
      stroke-linejoin="round"
      stroke-miterlimit="4"
      stroke-dasharray="none"
      stroke-dashoffset="0"
      stroke-opacity="1"
      color-rendering="auto"
      image-rendering="auto"
      shape-rendering="auto"
      text-rendering="auto"
      enable-background="accumulate"
    />
    <rect
      transform="matrix(0,-1,-1,0,0,0)"
      width="48.947472"
      height="51.460968"
      id="rect1513-7-4-0-1-1"
      x="-461.86807"
      y="-81.218353"
      gorn="0.3.0.0.39.0.0.1.0.0"
      color="#000000"
      clip-rule="nonzero"
      display="inline"
      overflow="visible"
      visibility="visible"
      opacity="1"
      isolation="auto"
      mix-blend-mode="normal"
      color-interpolation="sRGB"
      color-interpolation-filters="linearRGB"
      solid-color="#000000"
      solid-opacity="1"
      vector-effect="none"
      fill="#bd8d4a"
      fill-opacity="1"
      fill-rule="nonzero"
      stroke="none"
      stroke-width="110.23603821"
      stroke-linecap="round"
      stroke-linejoin="round"
      stroke-miterlimit="4"
      stroke-dasharray="none"
      stroke-dashoffset="0"
      stroke-opacity="1"
      color-rendering="auto"
      image-rendering="auto"
      shape-rendering="auto"
      text-rendering="auto"
      enable-background="accumulate"
    />
    <rect
      transform="matrix(0,-1,-1,0,0,0)"
      width="105.00378"
      height="52.015892"
      id="rect1513-7-2-3-5-5"
      x="-302.28995"
      y="-81.495819"
      gorn="0.3.0.0.40.0.0.0.0.0"
      color="#000000"
      clip-rule="nonzero"
      display="inline"
      overflow="visible"
      visibility="visible"
      opacity="1"
      isolation="auto"
      mix-blend-mode="normal"
      color-interpolation="sRGB"
      color-interpolation-filters="linearRGB"
      solid-color="#000000"
      solid-opacity="1"
      vector-effect="none"
      fill="#d8d8d8"
      fill-opacity="1"
      fill-rule="nonzero"
      stroke="none"
      stroke-width="110.23603821"
      stroke-linecap="round"
      stroke-linejoin="round"
      stroke-miterlimit="4"
      stroke-dasharray="none"
      stroke-dashoffset="0"
      stroke-opacity="1"
      color-rendering="auto"
      image-rendering="auto"
      shape-rendering="auto"
      text-rendering="auto"
      enable-background="accumulate"
    />
    <rect
      transform="matrix(0,-1,-1,0,0,0)"
      width="48.947472"
      height="51.460968"
      id="rect1513-7-4-0-1"
      x="-274.27142"
      y="-81.218353"
      gorn="0.3.0.0.40.0.0.1.0.0"
      color="#000000"
      clip-rule="nonzero"
      display="inline"
      overflow="visible"
      visibility="visible"
      opacity="1"
      isolation="auto"
      mix-blend-mode="normal"
      color-interpolation="sRGB"
      color-interpolation-filters="linearRGB"
      solid-color="#000000"
      solid-opacity="1"
      vector-effect="none"
      fill="#bd8d4a"
      fill-opacity="1"
      fill-rule="nonzero"
      stroke="none"
      stroke-width="110.23603821"
      stroke-linecap="round"
      stroke-linejoin="round"
      stroke-miterlimit="4"
      stroke-dasharray="none"
      stroke-dashoffset="0"
      stroke-opacity="1"
      color-rendering="auto"
      image-rendering="auto"
      shape-rendering="auto"
      text-rendering="auto"
      enable-background="accumulate"
    />
    <rect
      transform="rotate(-90)"
      width="105.00378"
      height="52.015892"
      id="rect1513-7-2-3-2"
      x="-489.8866"
      y="555.11719"
      gorn="0.3.0.0.41.0.0.0.0.0"
      color="#000000"
      clip-rule="nonzero"
      display="inline"
      overflow="visible"
      visibility="visible"
      opacity="1"
      isolation="auto"
      mix-blend-mode="normal"
      color-interpolation="sRGB"
      color-interpolation-filters="linearRGB"
      solid-color="#000000"
      solid-opacity="1"
      vector-effect="none"
      fill="#d8d8d8"
      fill-opacity="1"
      fill-rule="nonzero"
      stroke="none"
      stroke-width="110.23603821"
      stroke-linecap="round"
      stroke-linejoin="round"
      stroke-miterlimit="4"
      stroke-dasharray="none"
      stroke-dashoffset="0"
      stroke-opacity="1"
      color-rendering="auto"
      image-rendering="auto"
      shape-rendering="auto"
      text-rendering="auto"
      enable-background="accumulate"
    />
    <rect
      transform="rotate(-90)"
      width="48.947472"
      height="51.460968"
      id="rect1513-7-4-09"
      x="-461.86807"
      y="555.39465"
      gorn="0.3.0.0.41.0.0.1.0.0"
      color="#000000"
      clip-rule="nonzero"
      display="inline"
      overflow="visible"
      visibility="visible"
      opacity="1"
      isolation="auto"
      mix-blend-mode="normal"
      color-interpolation="sRGB"
      color-interpolation-filters="linearRGB"
      solid-color="#000000"
      solid-opacity="1"
      vector-effect="none"
      fill="#000000"
      fill-opacity="1"
      fill-rule="nonzero"
      stroke="none"
      stroke-width="110.23603821"
      stroke-linecap="round"
      stroke-linejoin="round"
      stroke-miterlimit="4"
      stroke-dasharray="none"
      stroke-dashoffset="0"
      stroke-opacity="1"
      color-rendering="auto"
      image-rendering="auto"
      shape-rendering="auto"
      text-rendering="auto"
      enable-background="accumulate"
    />
    <rect
      transform="rotate(-90)"
      width="105.00378"
      height="52.015892"
      id="rect1513-7-2-3-5-5-3-4"
      x="-489.8866"
      y="647.65778"
      gorn="0.3.0.0.42.0.0.0.0.0"
      color="#000000"
      clip-rule="nonzero"
      display="inline"
      overflow="visible"
      visibility="visible"
      opacity="1"
      isolation="auto"
      mix-blend-mode="normal"
      color-interpolation="sRGB"
      color-interpolation-filters="linearRGB"
      solid-color="#000000"
      solid-opacity="1"
      vector-effect="none"
      fill="#d8d8d8"
      fill-opacity="1"
      fill-rule="nonzero"
      stroke="none"
      stroke-width="110.23603821"
      stroke-linecap="round"
      stroke-linejoin="round"
      stroke-miterlimit="4"
      stroke-dasharray="none"
      stroke-dashoffset="0"
      stroke-opacity="1"
      color-rendering="auto"
      image-rendering="auto"
      shape-rendering="auto"
      text-rendering="auto"
      enable-background="accumulate"
    />
    <rect
      transform="rotate(-90)"
      width="48.947472"
      height="51.460968"
      id="rect1513-7-4-0-1-1-3"
      x="-461.86807"
      y="647.93524"
      gorn="0.3.0.0.42.0.0.1.0.0"
      color="#000000"
      clip-rule="nonzero"
      display="inline"
      overflow="visible"
      visibility="visible"
      opacity="1"
      isolation="auto"
      mix-blend-mode="normal"
      color-interpolation="sRGB"
      color-interpolation-filters="linearRGB"
      solid-color="#000000"
      solid-opacity="1"
      vector-effect="none"
      fill="#bd8d4a"
      fill-opacity="1"
      fill-rule="nonzero"
      stroke="none"
      stroke-width="110.23603821"
      stroke-linecap="round"
      stroke-linejoin="round"
      stroke-miterlimit="4"
      stroke-dasharray="none"
      stroke-dashoffset="0"
      stroke-opacity="1"
      color-rendering="auto"
      image-rendering="auto"
      shape-rendering="auto"
      text-rendering="auto"
      enable-background="accumulate"
    />
    <path
      id="path15562"
      d="m 694.18279,703.54293 h -55.16403 v -9.66653 h 55.16403 z"
      gorn="0.3.0.0.43.0.0.0"
      font-style="normal"
      font-weight="bold"
      font-size="0.72320801"
      line-height="125%"
      font-family="'Droid Sans'"
      letter-spacing="0px"
      word-spacing="0px"
      fill="#ffffff"
      fill-opacity="1"
      stroke="none"
      stroke-width="2.93981028"
      stroke-linecap="butt"
      stroke-linejoin="miter"
      stroke-opacity="1"
    />
    <ellipse
      transform="rotate(-90)"
      cx="-501.87976"
      gorn="0.3.0.0.44.0.0"
      rx="10.185781"
      id="path2138-5-1"
      ry="10.69291"
      cy="54.776463"
      color="#000000"
      clip-rule="nonzero"
      display="inline"
      overflow="visible"
      visibility="visible"
      opacity="1"
      isolation="auto"
      mix-blend-mode="normal"
      color-interpolation="sRGB"
      color-interpolation-filters="linearRGB"
      solid-color="#000000"
      solid-opacity="1"
      vector-effect="none"
      fill="#f5a623"
      fill-opacity="1"
      fill-rule="nonzero"
      stroke="none"
      stroke-width="110.23604584"
      stroke-linecap="round"
      stroke-linejoin="round"
      stroke-miterlimit="4"
      stroke-dasharray="none"
      stroke-dashoffset="0"
      stroke-opacity="1"
      color-rendering="auto"
      image-rendering="auto"
      shape-rendering="auto"
      text-rendering="auto"
      enable-background="accumulate"
    />
    <ellipse
      transform="rotate(-90)"
      cx="-668.45288"
      gorn="0.3.0.0.45.0.0"
      rx="13.004848"
      id="path2138-6"
      ry="13.652331"
      cy="360.25397"
      color="#000000"
      clip-rule="nonzero"
      display="inline"
      overflow="visible"
      visibility="visible"
      opacity="1"
      isolation="auto"
      mix-blend-mode="normal"
      color-interpolation="sRGB"
      color-interpolation-filters="linearRGB"
      solid-color="#000000"
      solid-opacity="1"
      vector-effect="none"
      fill="#d8d8d8"
      fill-opacity="1"
      fill-rule="nonzero"
      stroke="none"
      stroke-width="110.23603821"
      stroke-linecap="round"
      stroke-linejoin="round"
      stroke-miterlimit="4"
      stroke-dasharray="none"
      stroke-dashoffset="0"
      stroke-opacity="1"
      color-rendering="auto"
      image-rendering="auto"
      shape-rendering="auto"
      text-rendering="auto"
      enable-background="accumulate"
    />
    <ellipse
      transform="rotate(-90)"
      cx="-307.08145"
      gorn="0.3.0.0.46.0.0"
      rx="10.185781"
      id="path2138-5-1-6"
      ry="10.69291"
      cy="151.00864"
      color="#000000"
      clip-rule="nonzero"
      display="inline"
      overflow="visible"
      visibility="visible"
      opacity="1"
      isolation="auto"
      mix-blend-mode="normal"
      color-interpolation="sRGB"
      color-interpolation-filters="linearRGB"
      solid-color="#000000"
      solid-opacity="1"
      vector-effect="none"
      fill="#f5a623"
      fill-opacity="1"
      fill-rule="nonzero"
      stroke="none"
      stroke-width="110.23604584"
      stroke-linecap="round"
      stroke-linejoin="round"
      stroke-miterlimit="4"
      stroke-dasharray="none"
      stroke-dashoffset="0"
      stroke-opacity="1"
      color-rendering="auto"
      image-rendering="auto"
      shape-rendering="auto"
      text-rendering="auto"
      enable-background="accumulate"
    />
    <rect
      transform="matrix(0,-1,-1,0,0,0)"
      width="105.00378"
      height="52.015892"
      id="rect1513-7-2-3-5"
      x="-302.28995"
      y="-174.03645"
      gorn="0.3.0.0.47.0.0.0.0.0"
      color="#000000"
      clip-rule="nonzero"
      display="inline"
      overflow="visible"
      visibility="visible"
      opacity="1"
      isolation="auto"
      mix-blend-mode="normal"
      color-interpolation="sRGB"
      color-interpolation-filters="linearRGB"
      solid-color="#000000"
      solid-opacity="1"
      vector-effect="none"
      fill="#d8d8d8"
      fill-opacity="1"
      fill-rule="nonzero"
      stroke="none"
      stroke-width="110.23603821"
      stroke-linecap="round"
      stroke-linejoin="round"
      stroke-miterlimit="4"
      stroke-dasharray="none"
      stroke-dashoffset="0"
      stroke-opacity="1"
      color-rendering="auto"
      image-rendering="auto"
      shape-rendering="auto"
      text-rendering="auto"
      enable-background="accumulate"
    />
    <rect
      transform="matrix(0,-1,-1,0,0,0)"
      width="48.947472"
      height="51.460968"
      id="rect1513-7-4-0"
      x="-274.27142"
      y="-173.75899"
      gorn="0.3.0.0.47.0.0.1.0.0"
      color="#000000"
      clip-rule="nonzero"
      display="inline"
      overflow="visible"
      visibility="visible"
      opacity="1"
      isolation="auto"
      mix-blend-mode="normal"
      color-interpolation="sRGB"
      color-interpolation-filters="linearRGB"
      solid-color="#000000"
      solid-opacity="1"
      vector-effect="none"
      fill="#bd8d4a"
      fill-opacity="1"
      fill-rule="nonzero"
      stroke="none"
      stroke-width="110.23603821"
      stroke-linecap="round"
      stroke-linejoin="round"
      stroke-miterlimit="4"
      stroke-dasharray="none"
      stroke-dashoffset="0"
      stroke-opacity="1"
      color-rendering="auto"
      image-rendering="auto"
      shape-rendering="auto"
      text-rendering="auto"
      enable-background="accumulate"
    />
    <ellipse
      transform="rotate(-90)"
      cx="-207.90891"
      gorn="0.3.0.0.48.0.0"
      rx="10.185781"
      id="path2138-5-1-9"
      ry="10.69291"
      cy="113.30694"
      color="#000000"
      clip-rule="nonzero"
      display="inline"
      overflow="visible"
      visibility="visible"
      opacity="1"
      isolation="auto"
      mix-blend-mode="normal"
      color-interpolation="sRGB"
      color-interpolation-filters="linearRGB"
      solid-color="#000000"
      solid-opacity="1"
      vector-effect="none"
      fill="#f5a623"
      fill-opacity="1"
      fill-rule="nonzero"
      stroke="none"
      stroke-width="110.23604584"
      stroke-linecap="round"
      stroke-linejoin="round"
      stroke-miterlimit="4"
      stroke-dasharray="none"
      stroke-dashoffset="0"
      stroke-opacity="1"
      color-rendering="auto"
      image-rendering="auto"
      shape-rendering="auto"
      text-rendering="auto"
      enable-background="accumulate"
    />
    <ellipse
      transform="rotate(-90)"
      cx="-308.01138"
      gorn="0.3.0.0.49.0.0"
      rx="10.185781"
      id="path2138-5-1-5"
      ry="10.69291"
      cy="577.90485"
      color="#000000"
      clip-rule="nonzero"
      display="inline"
      overflow="visible"
      visibility="visible"
      opacity="1"
      isolation="auto"
      mix-blend-mode="normal"
      color-interpolation="sRGB"
      color-interpolation-filters="linearRGB"
      solid-color="#000000"
      solid-opacity="1"
      vector-effect="none"
      fill="#f5a623"
      fill-opacity="1"
      fill-rule="nonzero"
      stroke="none"
      stroke-width="110.23604584"
      stroke-linecap="round"
      stroke-linejoin="round"
      stroke-miterlimit="4"
      stroke-dasharray="none"
      stroke-dashoffset="0"
      stroke-opacity="1"
      color-rendering="auto"
      image-rendering="auto"
      shape-rendering="auto"
      text-rendering="auto"
      enable-background="accumulate"
    />
    <ellipse
      transform="rotate(-90)"
      cx="-211.28506"
      gorn="0.3.0.0.50.0.0"
      rx="10.185781"
      id="path2138-5-1-3"
      ry="10.69291"
      cy="641.14868"
      color="#000000"
      clip-rule="nonzero"
      display="inline"
      overflow="visible"
      visibility="visible"
      opacity="1"
      isolation="auto"
      mix-blend-mode="normal"
      color-interpolation="sRGB"
      color-interpolation-filters="linearRGB"
      solid-color="#000000"
      solid-opacity="1"
      vector-effect="none"
      fill="#f5a623"
      fill-opacity="1"
      fill-rule="nonzero"
      stroke="none"
      stroke-width="110.23604584"
      stroke-linecap="round"
      stroke-linejoin="round"
      stroke-miterlimit="4"
      stroke-dasharray="none"
      stroke-dashoffset="0"
      stroke-opacity="1"
      color-rendering="auto"
      image-rendering="auto"
      shape-rendering="auto"
      text-rendering="auto"
      enable-background="accumulate"
    />
    <rect
      transform="rotate(-90)"
      width="105.00378"
      height="52.015892"
      id="rect1513-7-2-3-5-5-4"
      x="-302.28995"
      y="647.65778"
      gorn="0.3.0.0.51.0.0.0.0.0"
      color="#000000"
      clip-rule="nonzero"
      display="inline"
      overflow="visible"
      visibility="visible"
      opacity="1"
      isolation="auto"
      mix-blend-mode="normal"
      color-interpolation="sRGB"
      color-interpolation-filters="linearRGB"
      solid-color="#000000"
      solid-opacity="1"
      vector-effect="none"
      fill="#d8d8d8"
      fill-opacity="1"
      fill-rule="nonzero"
      stroke="none"
      stroke-width="110.23603821"
      stroke-linecap="round"
      stroke-linejoin="round"
      stroke-miterlimit="4"
      stroke-dasharray="none"
      stroke-dashoffset="0"
      stroke-opacity="1"
      color-rendering="auto"
      image-rendering="auto"
      shape-rendering="auto"
      text-rendering="auto"
      enable-background="accumulate"
    />
    <rect
      transform="rotate(-90)"
      width="48.947472"
      height="51.460968"
      id="rect1513-7-4-0-1-6"
      x="-274.27142"
      y="647.93524"
      gorn="0.3.0.0.51.0.0.1.0.0"
      color="#000000"
      clip-rule="nonzero"
      display="inline"
      overflow="visible"
      visibility="visible"
      opacity="1"
      isolation="auto"
      mix-blend-mode="normal"
      color-interpolation="sRGB"
      color-interpolation-filters="linearRGB"
      solid-color="#000000"
      solid-opacity="1"
      vector-effect="none"
      fill="#bd8d4a"
      fill-opacity="1"
      fill-rule="nonzero"
      stroke="none"
      stroke-width="110.23603821"
      stroke-linecap="round"
      stroke-linejoin="round"
      stroke-miterlimit="4"
      stroke-dasharray="none"
      stroke-dashoffset="0"
      stroke-opacity="1"
      color-rendering="auto"
      image-rendering="auto"
      shape-rendering="auto"
      text-rendering="auto"
      enable-background="accumulate"
    />
    <rect
      transform="rotate(-90)"
      width="105.00378"
      height="52.015892"
      id="rect1513-7-2-3-5-2"
      x="-302.28995"
      y="555.11719"
      gorn="0.3.0.0.52.0.0.0.0.0"
      color="#000000"
      clip-rule="nonzero"
      display="inline"
      overflow="visible"
      visibility="visible"
      opacity="1"
      isolation="auto"
      mix-blend-mode="normal"
      color-interpolation="sRGB"
      color-interpolation-filters="linearRGB"
      solid-color="#000000"
      solid-opacity="1"
      vector-effect="none"
      fill="#d8d8d8"
      fill-opacity="1"
      fill-rule="nonzero"
      stroke="none"
      stroke-width="110.23603821"
      stroke-linecap="round"
      stroke-linejoin="round"
      stroke-miterlimit="4"
      stroke-dasharray="none"
      stroke-dashoffset="0"
      stroke-opacity="1"
      color-rendering="auto"
      image-rendering="auto"
      shape-rendering="auto"
      text-rendering="auto"
      enable-background="accumulate"
    />
    <rect
      transform="rotate(-90)"
      width="48.947472"
      height="51.460968"
      id="rect1513-7-4-0-4"
      x="-274.27142"
      y="555.39465"
      gorn="0.3.0.0.52.0.0.1.0.0"
      color="#000000"
      clip-rule="nonzero"
      display="inline"
      overflow="visible"
      visibility="visible"
      opacity="1"
      isolation="auto"
      mix-blend-mode="normal"
      color-interpolation="sRGB"
      color-interpolation-filters="linearRGB"
      solid-color="#000000"
      solid-opacity="1"
      vector-effect="none"
      fill="#bd8d4a"
      fill-opacity="1"
      fill-rule="nonzero"
      stroke="none"
      stroke-width="110.23603821"
      stroke-linecap="round"
      stroke-linejoin="round"
      stroke-miterlimit="4"
      stroke-dasharray="none"
      stroke-dashoffset="0"
      stroke-opacity="1"
      color-rendering="auto"
      image-rendering="auto"
      shape-rendering="auto"
      text-rendering="auto"
      enable-background="accumulate"
    />
    <circle
      r="27"
      transform="rotate(-90)"
      cy="63.310497"
      id="connector0pin"
      gorn="0.3.0.0.4.0.0.1.0.0"
      cx="-780.60626"
      color="#000000"
      clip-rule="nonzero"
      display="inline"
      overflow="visible"
      visibility="visible"
      opacity="1"
      isolation="auto"
      mix-blend-mode="normal"
      color-interpolation="sRGB"
      color-interpolation-filters="linearRGB"
      solid-color="#000000"
      solid-opacity="1"
      vector-effect="none"
      fill="#ffffff"
      fill-opacity="1"
      fill-rule="nonzero"
      stroke="none"
      stroke-width="110.23603821"
      stroke-linecap="round"
      stroke-linejoin="round"
      stroke-miterlimit="4"
      stroke-dasharray="none"
      stroke-dashoffset="0"
      stroke-opacity="1"
      color-rendering="auto"
      image-rendering="auto"
      shape-rendering="auto"
      text-rendering="auto"
      enable-background="accumulate"
    />
    <circle
      r="27"
      transform="rotate(-90)"
      cy="163.31073"
      id="connector1pin"
      gorn="0.3.0.0.3.0.0.1.0.0"
      cx="-780.61102"
      color="#000000"
      clip-rule="nonzero"
      display="inline"
      overflow="visible"
      visibility="visible"
      opacity="1"
      isolation="auto"
      mix-blend-mode="normal"
      color-interpolation="sRGB"
      color-interpolation-filters="linearRGB"
      solid-color="#000000"
      solid-opacity="1"
      vector-effect="none"
      fill="#ffffff"
      fill-opacity="1"
      fill-rule="nonzero"
      stroke="none"
      stroke-width="110.23603821"
      stroke-linecap="round"
      stroke-linejoin="round"
      stroke-miterlimit="4"
      stroke-dasharray="none"
      stroke-dashoffset="0"
      stroke-opacity="1"
      color-rendering="auto"
      image-rendering="auto"
      shape-rendering="auto"
      text-rendering="auto"
      enable-background="accumulate"
    />
    <ellipse
      transform="rotate(-90)"
      cy="263.31039"
      ry="27.079739"
      id="connector2pin"
      rx="27.076479"
      gorn="0.3.0.0.5.0.0.1.0.0"
      cx="-780.61102"
      color="#000000"
      clip-rule="nonzero"
      display="inline"
      overflow="visible"
      visibility="visible"
      opacity="1"
      isolation="auto"
      mix-blend-mode="normal"
      color-interpolation="sRGB"
      color-interpolation-filters="linearRGB"
      solid-color="#000000"
      solid-opacity="1"
      vector-effect="none"
      fill="#ffffff"
      fill-opacity="1"
      fill-rule="nonzero"
      stroke="none"
      stroke-width="110.23603821"
      stroke-linecap="round"
      stroke-linejoin="round"
      stroke-miterlimit="4"
      stroke-dasharray="none"
      stroke-dashoffset="0"
      stroke-opacity="1"
      color-rendering="auto"
      image-rendering="auto"
      shape-rendering="auto"
      text-rendering="auto"
      enable-background="accumulate"
    />
    <circle
      r="27"
      transform="rotate(-90)"
      cy="663.30902"
      id="connector3pin"
      gorn="0.3.0.0.7.0.0.1.0.0"
      cx="-780.61102"
      color="#000000"
      clip-rule="nonzero"
      display="inline"
      overflow="visible"
      visibility="visible"
      opacity="1"
      isolation="auto"
      mix-blend-mode="normal"
      color-interpolation="sRGB"
      color-interpolation-filters="linearRGB"
      solid-color="#000000"
      solid-opacity="1"
      vector-effect="none"
      fill="#ffffff"
      fill-opacity="1"
      fill-rule="nonzero"
      stroke="none"
      stroke-width="110.23603821"
      stroke-linecap="round"
      stroke-linejoin="round"
      stroke-miterlimit="4"
      stroke-dasharray="none"
      stroke-dashoffset="0"
      stroke-opacity="1"
      color-rendering="auto"
      image-rendering="auto"
      shape-rendering="auto"
      text-rendering="auto"
      enable-background="accumulate"
    />
    <circle
      r="27"
      transform="rotate(-90)"
      cy="63.311687"
      id="connector4pin"
      gorn="0.3.0.0.10.0.0.1.0.0"
      cx="-55.371437"
      color="#000000"
      clip-rule="nonzero"
      display="inline"
      overflow="visible"
      visibility="visible"
      opacity="1"
      isolation="auto"
      mix-blend-mode="normal"
      color-interpolation="sRGB"
      color-interpolation-filters="linearRGB"
      solid-color="#000000"
      solid-opacity="1"
      vector-effect="none"
      fill="#ffffff"
      fill-opacity="1"
      fill-rule="nonzero"
      stroke="none"
      stroke-width="110.23603821"
      stroke-linecap="round"
      stroke-linejoin="round"
      stroke-miterlimit="4"
      stroke-dasharray="none"
      stroke-dashoffset="0"
      stroke-opacity="1"
      color-rendering="auto"
      image-rendering="auto"
      shape-rendering="auto"
      text-rendering="auto"
      enable-background="accumulate"
    />
    <circle
      r="27"
      transform="rotate(-90)"
      cy="162.84938"
      id="connector5pin"
      gorn="0.3.0.0.11.0.0.1.0.0"
      cx="-55.371437"
      color="#000000"
      clip-rule="nonzero"
      display="inline"
      overflow="visible"
      visibility="visible"
      opacity="1"
      isolation="auto"
      mix-blend-mode="normal"
      color-interpolation="sRGB"
      color-interpolation-filters="linearRGB"
      solid-color="#000000"
      solid-opacity="1"
      vector-effect="none"
      fill="#ffffff"
      fill-opacity="1"
      fill-rule="nonzero"
      stroke="none"
      stroke-width="110.23603821"
      stroke-linecap="round"
      stroke-linejoin="round"
      stroke-miterlimit="4"
      stroke-dasharray="none"
      stroke-dashoffset="0"
      stroke-opacity="1"
      color-rendering="auto"
      image-rendering="auto"
      shape-rendering="auto"
      text-rendering="auto"
      enable-background="accumulate"
    />
    <circle
      r="27"
      transform="rotate(-90)"
      cy="662.84827"
      id="connector6pin"
      gorn="0.3.0.0.9.0.0.1.0.0"
      cx="-55.371437"
      color="#000000"
      clip-rule="nonzero"
      display="inline"
      overflow="visible"
      visibility="visible"
      opacity="1"
      isolation="auto"
      mix-blend-mode="normal"
      color-interpolation="sRGB"
      color-interpolation-filters="linearRGB"
      solid-color="#000000"
      solid-opacity="1"
      vector-effect="none"
      fill="#ffffff"
      fill-opacity="1"
      fill-rule="nonzero"
      stroke="none"
      stroke-width="110.23603821"
      stroke-linecap="round"
      stroke-linejoin="round"
      stroke-miterlimit="4"
      stroke-dasharray="none"
      stroke-dashoffset="0"
      stroke-opacity="1"
      color-rendering="auto"
      image-rendering="auto"
      shape-rendering="auto"
      text-rendering="auto"
      enable-background="accumulate"
    />
    <ellipse
      transform="rotate(-90)"
      cy="562.84924"
      ry="27.079739"
      id="connector7pin"
      rx="27.076479"
      gorn="0.3.0.0.8.0.0.1.0.0"
      cx="-55.371437"
      color="#000000"
      clip-rule="nonzero"
      display="inline"
      overflow="visible"
      visibility="visible"
      opacity="1"
      isolation="auto"
      mix-blend-mode="normal"
      color-interpolation="sRGB"
      color-interpolation-filters="linearRGB"
      solid-color="#000000"
      solid-opacity="1"
      vector-effect="none"
      fill="#ffffff"
      fill-opacity="1"
      fill-rule="nonzero"
      stroke="none"
      stroke-width="110.23603821"
      stroke-linecap="round"
      stroke-linejoin="round"
      stroke-miterlimit="4"
      stroke-dasharray="none"
      stroke-dashoffset="0"
      stroke-opacity="1"
      color-rendering="auto"
      image-rendering="auto"
      shape-rendering="auto"
      text-rendering="auto"
      enable-background="accumulate"
    />
    <circle
      r="27"
      transform="rotate(-90)"
      cy="563.31006"
      id="connector8pin"
      gorn="0.3.0.0.6.0.0.1.0.0"
      cx="-780.61102"
      color="#000000"
      clip-rule="nonzero"
      display="inline"
      overflow="visible"
      visibility="visible"
      opacity="1"
      isolation="auto"
      mix-blend-mode="normal"
      color-interpolation="sRGB"
      color-interpolation-filters="linearRGB"
      solid-color="#000000"
      solid-opacity="1"
      vector-effect="none"
      fill="#ffffff"
      fill-opacity="1"
      fill-rule="nonzero"
      stroke="none"
      stroke-width="110.23603821"
      stroke-linecap="round"
      stroke-linejoin="round"
      stroke-miterlimit="4"
      stroke-dasharray="none"
      stroke-dashoffset="0"
      stroke-opacity="1"
      color-rendering="auto"
      image-rendering="auto"
      shape-rendering="auto"
      text-rendering="auto"
      enable-background="accumulate"
    />
  </g>
</svg>
