<?xml version='1.0' encoding='UTF-8' standalone='no'?>
<svg
  xmlns:dc="http://purl.org/dc/elements/1.1/"
  xmlns:cc="http://creativecommons.org/ns#"
  xmlns:rdf="http://www.w3.org/1999/02/22-rdf-syntax-ns#"
  xmlns:svg="http://www.w3.org/2000/svg"
  xmlns="http://www.w3.org/2000/svg"
  id="svg2"
  y="0in"
  version="1.2"
  height="1.6984369in"
  width="2.4239786in"
  x="0in"
  viewBox="0 0 2423.9784 1698.4368">
  <metadata
    id="metadata24">
    <rdf:RDF>
      <cc:Work
        rdf:about="">
        <dc:format>image/svg+xml</dc:format>
        <dc:type
          rdf:resource="http://purl.org/dc/dcmitype/StillImage"
        />
        <dc:title/>
      </cc:Work>
    </rdf:RDF>
  </metadata>
  <defs
    id="defs22"
  />
  <desc
    id="desc4">
    <referenceFile>gm66-barcode-scanner_1_breadboard.svg</referenceFile>
  </desc>
  <g
    id="breadboard">
    <rect
      id="rect349"
      width="1544.7013"
      height="836.03992"
      x="10.699287"
      y="857.18842"
      fill="#333333"
      stroke="#999999"
      stroke-width="10.4167"
    />
    <rect
      id="rect351"
      width="429.32758"
      height="88.767204"
      x="1018.1336"
      y="1452.2389"
      fill="#b3b3b3"
      stroke="#999999"
      stroke-width="10.4167"
    />
    <rect
      id="rect355"
      width="199.99998"
      height="144.64644"
      x="281.75989"
      y="1398.8954"
      fill="#ececec"
      stroke="#999999"
      stroke-width="10.4167"
    />
    <rect
      id="rect357"
      width="1544.7013"
      height="1197.8809"
      x="890.27893"
      y="30.301697"
      transform="matrix(1,0,-0.71616362,0.69793243,0,0)"
      fill="#333333"
      stroke="#999999"
      stroke-width="12.4688"
    />
    <rect
      id="rect361"
      width="1214.9249"
      height="815.50134"
      x="2185.8328"
      y="2408.4048"
      transform="matrix(0.70911241,-0.70509545,0,1,0,0)"
      fill="#333333"
      stroke="#999999"
      stroke-width="12.37"
    />
    <rect
      id="connector0pin"
      width="19.999998"
      height="19.999998"
      x="1076.7599"
      y="1493.8954"
      fill="none"
      stroke="none"
      stroke-width="0"
    />
    <rect
      id="connector1pin"
      width="19.999998"
      height="19.999998"
      x="1176.7599"
      y="1493.8954"
      fill="none"
      stroke="none"
      stroke-width="0"
    />
    <rect
      id="connector2pin"
      width="19.999998"
      height="19.999998"
      x="1276.7598"
      y="1493.8954"
      fill="none"
      stroke="none"
      stroke-width="0"
    />
    <rect
      id="connector3pin"
      width="19.999998"
      height="19.999998"
      x="1376.7598"
      y="1493.8954"
      fill="none"
      stroke="none"
      stroke-width="0"
    />
  </g>
</svg>
