<?xml version='1.0' encoding='UTF-8' standalone='no'?>
<svg
  xmlns:dc="http://purl.org/dc/elements/1.1/"
  xmlns:cc="http://creativecommons.org/ns#"
  xmlns:rdf="http://www.w3.org/1999/02/22-rdf-syntax-ns#"
  xmlns:svg="http://www.w3.org/2000/svg"
  xmlns="http://www.w3.org/2000/svg"
  width="0.079996742in"
  viewBox="0 0 79.996743 54.016118"
  height="0.054016117in"
  version="1.2"
  id="svg25">
  <metadata
    id="metadata31">
    <rdf:RDF>
      <cc:Work
        rdf:about="">
        <dc:format>image/svg+xml</dc:format>
        <dc:type
          rdf:resource="http://purl.org/dc/dcmitype/StillImage"
        />
        <dc:title/>
      </cc:Work>
    </rdf:RDF>
  </metadata>
  <defs
    id="defs29"
  />
  <desc
    id="desc2">
    <referenceFile>oblong-via_1_pcb.svg</referenceFile>
  </desc>
  <desc
    id="desc4">Fritzing
    footprint
    SVG</desc>
  <g
    id="copper1">
    <g
      id="copper0">
      <path
        id="path88"
        d="M 19.999187,0 C 8.922204,0 0,12.12504 0,27.01823 0,41.91153 8.922204,54.01612 19.999187,54.01612 h 39.998374 c 11.07692,0 19.999186,-12.10459 19.999186,-26.99789 C 79.996747,12.50938 71.539903,0.55927 60.770672,0 Z M 39.916994,8.01596 A 19,19 0 0 1 58.919272,27.01823 19,19 0 0 1 39.916994,46.00017 19,19 0 0 1 20.914714,27.01823 19,19 0 0 1 39.916994,8.01596 Z"
        fill="#f7bd13"
        stroke="none"
        stroke-width="0"
      />
      <circle
        r="23"
        cx="40.005695"
        cy="27.016104"
        id="connector0pin"
        gorn="0.2.0.0"
        fill="none"
        stroke="#ffbf00"
        stroke-width="8"
      />
    </g>
  </g>
</svg>
