<?xml version='1.0' encoding='UTF-8' standalone='no'?>
<svg
  xmlns:dc="http://purl.org/dc/elements/1.1/"
  xmlns:cc="http://creativecommons.org/ns#"
  xmlns:rdf="http://www.w3.org/1999/02/22-rdf-syntax-ns#"
  xmlns:svg="http://www.w3.org/2000/svg"
  xmlns="http://www.w3.org/2000/svg"
  id="svg2"
  y="0in"
  version="1.2"
  height="0.60999995in"
  width="0.91022402in"
  x="0in"
  viewBox="0 0 910.22403 609.99993">
  <metadata
    id="metadata41">
    <rdf:RDF>
      <cc:Work
        rdf:about="">
        <dc:format>image/svg+xml</dc:format>
        <dc:type
          rdf:resource="http://purl.org/dc/dcmitype/StillImage"
        />
        <dc:title/>
      </cc:Work>
    </rdf:RDF>
  </metadata>
  <defs
    id="defs39"
  />
  <desc
    id="desc4">
    <referenceFile>Atlas-inline-voltage-isolator_1_schematic.svg</referenceFile>
  </desc>
  <g
    id="schematic">
    <rect
      stroke-linecap="round"
      stroke-width="9.99977"
      stroke="#000000"
      fill="none"
      x="104.92878"
      width="700.00024"
      height="600.00018"
      y="4.9998851"
      id="rect7"
    />
    <text
      fill="#000000"
      text-anchor="middle"
      font-family="'Droid Sans'"
      font-size="60"
      y="177.58586"
      x="455.67685"
      id="label10">Inline</text>
    <text
      fill="#555555"
      text-anchor="start"
      font-family="'Droid Sans'"
      id="label0"
      x="135.98383"
      y="123.34472"
      font-size="49">VCC</text>
    <text
      fill="#555555"
      text-anchor="start"
      font-family="'Droid Sans'"
      x="56.886795"
      y="84.34417"
      font-size="35"
      id="text15">1</text>
    <text
      fill="#555555"
      text-anchor="start"
      font-family="'Droid Sans'"
      id="label1"
      x="130.92999"
      y="223.34471"
      font-size="49">EN</text>
    <text
      fill="#555555"
      text-anchor="start"
      font-family="'Droid Sans'"
      x="58.288162"
      y="184.34416"
      font-size="35"
      id="text22">2</text>
    <text
      fill="#555555"
      text-anchor="start"
      font-family="'Droid Sans'"
      font-size="49"
      y="322.86621"
      x="132.93806"
      id="text44">GND</text>
    <text
      fill="#555555"
      text-anchor="start"
      font-family="'Droid Sans'"
      id="text46"
      font-size="35"
      y="285.34418"
      x="58.52742">3</text>
    <text
      fill="#555555"
      text-anchor="start"
      font-family="'Droid Sans'"
      font-size="49"
      y="423.34467"
      x="130.92999"
      id="text48">A</text>
    <text
      fill="#555555"
      text-anchor="start"
      font-family="'Droid Sans'"
      id="text50"
      font-size="35"
      y="385.34418"
      x="59.535721">4</text>
    <text
      fill="#555555"
      text-anchor="start"
      font-family="'Droid Sans'"
      font-size="49"
      y="523.34467"
      x="131.16756"
      id="text60">B</text>
    <text
      fill="#555555"
      text-anchor="start"
      font-family="'Droid Sans'"
      id="text62"
      font-size="35"
      y="485.34418"
      x="57.690018">5</text>
    <text
      fill="#555555"
      text-anchor="start"
      font-family="'Droid Sans'"
      id="text145"
      font-size="35"
      y="85.237709"
      x="833.58209">10</text>
    <text
      fill="#555555"
      text-anchor="start"
      font-family="'Droid Sans'"
      id="text147"
      font-size="35"
      y="184.8959"
      x="833.58209">9</text>
    <text
      fill="#555555"
      text-anchor="start"
      font-family="'Droid Sans'"
      x="833.58209"
      y="285.34418"
      font-size="35"
      id="text149">8</text>
    <text
      fill="#555555"
      text-anchor="start"
      font-family="'Droid Sans'"
      x="833.58209"
      y="385.34424"
      font-size="35"
      id="text151">7</text>
    <text
      fill="#555555"
      text-anchor="start"
      font-family="'Droid Sans'"
      x="833.58209"
      y="484.98529"
      font-size="35"
      id="text153">6</text>
    <text
      fill="#555555"
      text-anchor="end"
      font-family="'Droid Sans'"
      font-size="49"
      y="123.23772"
      x="774.98639"
      id="text193">3.9V</text>
    <text
      fill="#555555"
      text-anchor="end"
      font-family="'Droid Sans'"
      font-size="49"
      y="223.2377"
      x="775.07233"
      id="text195">EN</text>
    <text
      fill="#555555"
      text-anchor="end"
      font-family="'Droid Sans'"
      font-size="49"
      y="323.48956"
      x="774.98639"
      id="text2125">GND</text>
    <text
      fill="#555555"
      text-anchor="end"
      font-family="'Droid Sans'"
      font-size="49"
      y="423.48956"
      x="775.07233"
      id="text2127">A</text>
    <text
      fill="#555555"
      text-anchor="end"
      font-family="'Droid Sans'"
      font-size="49"
      y="523.0965"
      x="774.98639"
      id="text2139">B</text>
    <text
      fill="#000000"
      text-anchor="middle"
      font-family="'Droid Sans'"
      font-size="60"
      y="277.85773"
      x="455.67685"
      id="text154">Voltage</text>
    <text
      fill="#000000"
      text-anchor="middle"
      font-family="'Droid Sans'"
      font-size="60"
      y="377.85773"
      x="455.67685"
      id="text156">Isolator</text>
    <line
      y1="105.34405"
      y2="105.34405"
      x2="99.93"
      x1="5"
      id="connector0pin"
      fill="none"
      stroke="#555555"
      stroke-width="10"
      stroke-linecap="round"
    />
    <rect
      stroke-width="0"
      fill="none"
      id="connector0terminal"
      x="0.072006673"
      width="10"
      height="10"
      y="100.34417"
    />
    <line
      stroke-linecap="round"
      stroke-width="10"
      stroke="#555555"
      fill="none"
      y1="205.34416"
      y2="205.34416"
      x2="99.93"
      x1="5"
      id="connector1pin"
    />
    <rect
      stroke-width="0"
      fill="none"
      id="connector1terminal"
      x="0.072006673"
      width="10"
      height="10"
      y="200.34465"
    />
    <line
      stroke-linecap="round"
      stroke-width="10"
      stroke="#555555"
      fill="none"
      id="connector2pin"
      x1="5"
      x2="99.93"
      y2="305.34424"
      y1="305.34424"
    />
    <rect
      stroke-width="0"
      fill="none"
      y="300.34424"
      height="10"
      width="10"
      x="0.072006673"
      id="connector2terminal"
    />
    <line
      stroke-linecap="round"
      stroke-width="10"
      stroke="#555555"
      fill="none"
      id="connector3pin"
      x1="5"
      x2="99.93"
      y2="405.34412"
      y1="405.34412"
    />
    <rect
      stroke-width="0"
      fill="none"
      y="400.34412"
      height="10"
      width="10"
      x="0.072006673"
      id="connector3terminal"
    />
    <line
      stroke-linecap="round"
      stroke-width="10"
      stroke="#555555"
      fill="none"
      id="connector4pin"
      x1="5"
      x2="99.93"
      y2="505.34412"
      y1="505.34412"
    />
    <rect
      stroke-width="0"
      fill="none"
      y="500.34412"
      height="10"
      width="10"
      x="0.072006673"
      id="connector4terminal"
    />
    <line
      stroke-linecap="round"
      stroke-width="10"
      stroke="#555555"
      fill="none"
      y1="505.3266"
      y2="505.3266"
      x2="905.224"
      x1="810.29388"
      id="connector5pin"
    />
    <rect
      stroke-width="0"
      fill="none"
      id="connector5terminal"
      x="900.22266"
      width="10"
      height="10"
      y="500.32709"
    />
    <line
      stroke-linecap="round"
      stroke-width="10"
      stroke="#555555"
      fill="none"
      y1="405.34375"
      y2="405.34375"
      x2="905.224"
      x1="810.29388"
      id="connector6pin"
    />
    <rect
      stroke-width="0"
      fill="none"
      id="connector6terminal"
      x="900.22266"
      width="10"
      height="10"
      y="400.34424"
    />
    <line
      stroke-linecap="round"
      stroke-width="10"
      stroke="#555555"
      fill="none"
      y1="305.34375"
      y2="305.34375"
      x2="905.224"
      x1="810.29388"
      id="connector7pin"
    />
    <rect
      stroke-width="0"
      fill="none"
      id="connector7terminal"
      x="900.22266"
      width="10"
      height="10"
      y="300.34418"
    />
    <line
      stroke-linecap="round"
      stroke-width="10"
      stroke="#555555"
      fill="none"
      id="connector8pin"
      x1="809.29388"
      x2="904.224"
      y2="205.23721"
      y1="205.23721"
    />
    <rect
      stroke-width="0"
      fill="none"
      y="200.2377"
      height="10"
      width="10"
      x="900.22266"
      id="connector8terminal"
    />
    <line
      stroke-linecap="round"
      stroke-width="10"
      stroke="#555555"
      fill="none"
      id="connector9pin"
      x1="810.29388"
      x2="905.224"
      y2="105.23722"
      y1="105.23722"
    />
    <rect
      stroke-width="0"
      fill="none"
      y="100.23772"
      height="10"
      width="10"
      x="900.22266"
      id="connector9terminal"
    />
  </g>
</svg>
