<?xml version='1.0' encoding='UTF-8' standalone='no'?>
<svg xmlns="http://www.w3.org/2000/svg" viewBox="0 0 262 160" gorn="0" version="1.1" id="svg575" height="160"  width="262">
    <desc >
        <referenceFile >LM2678_0_schematic.svg</referenceFile>
    </desc>
    <metadata id="metadata581" >
        <rdf:RDF xmlns:rdf="http://www.w3.org/1999/02/22-rdf-syntax-ns#">
            <cc:Work xmlns:rdf="http://www.w3.org/1999/02/22-rdf-syntax-ns#" xmlns:cc="http://creativecommons.org/ns#" rdf:about="">
                <dc:format xmlns:dc="http://purl.org/dc/elements/1.1/">image/svg+xml</dc:format>
                <dc:type xmlns:rdf="http://www.w3.org/1999/02/22-rdf-syntax-ns#" rdf:resource="http://purl.org/dc/dcmitype/StillImage" xmlns:dc="http://purl.org/dc/elements/1.1/"/>
                <dc:title xmlns:dc="http://purl.org/dc/elements/1.1/"/>
            </cc:Work>
        </rdf:RDF>
    </metadata>
    <defs id="defs579" />
    <g transform="translate(-0.24144483,0.25665402)" >
        <g >
            <g >
                <g gorn="0.3.0.0.0" id="g583" >
                    <rect gorn="0.3.0.0.0.0" y="11.697719" id="rect723" height="96.63118"  style="fill:#000000" width="164.37262" x="49.30418"/>
                    <g fill-opacity="1" gorn="0.3.0.0.0.1" id="text589"  style="font-style:normal;font-weight:normal;line-height:1.25;font-family:Droid Sans;" xml:space="preserve" stroke="none" xmlns:xml="http://www.w3.org/XML/1998/namespace" fill="#000000" font-size="40">
                        <text gorn="0.3.0.0.0.1.0" y="52.051331" id="tspan587"  style="font-size:8px" x="21.667299">S_O</text>
                    </g>
                    <rect gorn="0.3.0.0.0.2" y="14.188213" id="rect725" height="91.899231"  style="fill:#ffffff" width="160.38783" x="51.047527"/>
                    <g fill-opacity="1" gorn="0.3.0.0.0.3" id="text593"  style="font-style:normal;font-weight:normal;line-height:1.25;font-family:Droid Sans;" xml:space="preserve" stroke="none" xmlns:xml="http://www.w3.org/XML/1998/namespace" fill="#000000" font-size="21.3333">
                        <text gorn="0.3.0.0.0.3.0" y="43.085552" id="tspan591"  style="font-size:21.3333px" x="90.653999">LM2678</text>
                    </g>
                    <g transform="rotate(-90)" >
                        <g >
                            <g >
                                <g fill-opacity="1" gorn="0.3.0.0.0.4.0.0.0" id="text597"  style="font-style:normal;font-weight:normal;line-height:1.25;font-family:Droid Sans;" xml:space="preserve" stroke="none" xmlns:xml="http://www.w3.org/XML/1998/namespace" fill="#000000" font-size="8">
                                    <text gorn="0.3.0.0.0.4.0.0.0.0" y="86.417419" id="tspan595"  style="font-size:8px" x="-137.13524">IN</text>
                                </g>
                            </g>
                        </g>
                    </g>
                    <g transform="rotate(-90)" >
                        <g >
                            <g >
                                <g fill-opacity="1" gorn="0.3.0.0.0.5.0.0.0" id="text597-9"  style="font-style:normal;font-weight:normal;line-height:1.25;font-family:Droid Sans;" xml:space="preserve" stroke="none" xmlns:xml="http://www.w3.org/XML/1998/namespace" fill="#000000" font-size="8">
                                    <text gorn="0.3.0.0.0.5.0.0.0.0" y="107.0717" id="tspan595-9"  style="font-size:8px" x="-137.04724">CB</text>
                                </g>
                            </g>
                        </g>
                    </g>
                    <g transform="rotate(-90)" >
                        <g >
                            <g >
                                <g fill-opacity="1" gorn="0.3.0.0.0.6.0.0.0" id="text597-7"  style="font-style:normal;font-weight:normal;line-height:1.25;font-family:Droid Sans;" xml:space="preserve" stroke="none" xmlns:xml="http://www.w3.org/XML/1998/namespace" fill="#000000" font-size="8">
                                    <text gorn="0.3.0.0.0.6.0.0.0.0" y="128.00705" id="tspan595-1"  style="font-size:8px" x="-141.03203">GND</text>
                                </g>
                            </g>
                        </g>
                    </g>
                    <g transform="rotate(-90)" >
                        <g >
                            <g >
                                <g fill-opacity="1" gorn="0.3.0.0.0.7.0.0.0" id="text597-0"  style="font-style:normal;font-weight:normal;line-height:1.25;font-family:Droid Sans;" xml:space="preserve" stroke="none" xmlns:xml="http://www.w3.org/XML/1998/namespace" fill="#000000" font-size="8">
                                    <text gorn="0.3.0.0.0.7.0.0.0.0" y="148.67818" id="tspan595-2"  style="font-size:8px" x="-137.05484">NC</text>
                                </g>
                            </g>
                        </g>
                    </g>
                    <g transform="rotate(-90)" >
                        <g >
                            <g >
                                <g fill-opacity="1" gorn="0.3.0.0.0.8.0.0.0" id="text597-1"  style="font-style:normal;font-weight:normal;line-height:1.25;font-family:Droid Sans;" xml:space="preserve" stroke="none" xmlns:xml="http://www.w3.org/XML/1998/namespace" fill="#000000" font-size="8">
                                    <text gorn="0.3.0.0.0.8.0.0.0.0" y="170.60213" id="tspan595-96"  style="font-size:8px" x="-137.05484">FB</text>
                                </g>
                            </g>
                        </g>
                    </g>
                    <g fill-opacity="1" gorn="0.3.0.0.0.9" id="text589-8"  style="font-style:normal;font-weight:normal;line-height:1.25;font-family:Droid Sans;" xml:space="preserve" stroke="none" xmlns:xml="http://www.w3.org/XML/1998/namespace" fill="#000000" font-size="40">
                        <text gorn="0.3.0.0.0.9.0" y="52.192699" id="tspan587-7"  style="font-size:8px" x="224.16824">O/F</text>
                    </g>
                    <rect gorn="0.3.0.0.0.10" y="58.269962" id="connector3pin" height="2.4904943"  style="fill:#000000" width="42.587452" x="7.7129278"/>
                    <rect gorn="0.3.0.0.0.11" y="58.519012" id="connector9pin" height="2.4904943"  style="fill:#000000" width="42.587452" x="212.45532"/>
                    <g transform="rotate(90)" >
                        <g >
                            <g >
                                <rect gorn="0.3.0.0.0.12.0.0.0" y="-90.646385" id="connector4pin" height="2.4904943"  style="fill:#000000" width="42.587452" x="108.20438"/>
                            </g>
                        </g>
                    </g>
                    <g transform="rotate(90)" >
                        <g >
                            <g >
                                <rect gorn="0.3.0.0.0.13.0.0.0" y="-111.13688" id="connector5pin" height="2.4904943"  style="fill:#000000" width="42.587452" x="108.20438"/>
                            </g>
                        </g>
                    </g>
                    <g transform="rotate(90)" >
                        <g >
                            <g >
                                <rect gorn="0.3.0.0.0.14.0.0.0" y="-131.62738" id="connector6pin" height="2.4904943"  style="fill:#000000" width="42.587452" x="108.20438"/>
                            </g>
                        </g>
                    </g>
                    <g transform="rotate(90)" >
                        <g >
                            <g >
                                <rect gorn="0.3.0.0.0.15.0.0.0" y="-152.11787" id="connector7pin" height="2.4904943"  style="fill:#000000" width="42.587452" x="108.20437"/>
                            </g>
                        </g>
                    </g>
                    <g transform="rotate(90)" >
                        <g >
                            <g >
                                <rect gorn="0.3.0.0.0.16.0.0.0" y="-174.60837" id="connector8pin" height="2.4904943"  style="fill:#000000" width="42.587452" x="108.20437"/>
                            </g>
                        </g>
                    </g>
                </g>
            </g>
        </g>
    </g>
</svg>
