<?xml version='1.0' encoding='UTF-8' standalone='no'?>
<svg
  xmlns:dc="http://purl.org/dc/elements/1.1/"
  xmlns:cc="http://creativecommons.org/ns#"
  xmlns:rdf="http://www.w3.org/1999/02/22-rdf-syntax-ns#"
  xmlns:svg="http://www.w3.org/2000/svg"
  xmlns="http://www.w3.org/2000/svg"
  x="0in"
  y="0in"
  viewBox="0 0 378.0001 100.00004"
  height="0.1in"
  gorn="0"
  id="svg45"
  version="1.2"
  width="0.37799999in">
  <desc
    id="desc2">
    <referenceFile>roboswamp_e576c2d58d4db11a80d7b8463b063b7d_2_pcb.svg</referenceFile>
  </desc>
  <metadata
    id="metadata51">
    <rdf:RDF>
      <cc:Work
        rdf:about="">
        <dc:format>image/svg+xml</dc:format>
        <dc:type
          rdf:resource="http://purl.org/dc/dcmitype/StillImage"
        />
        <dc:title/>
      </cc:Work>
    </rdf:RDF>
  </metadata>
  <defs
    id="defs49"
  />
  <g
    id="silkscreen">
    <line
      stroke="#000000"
      stroke-width="10"
      stroke-linecap="butt"
      gorn="0.3.0"
      id="line28"
      y1="50.000019"
      y2="50.000019"
      x1="83.000031"
      x2="96.000038"
      fill="none"
    />
    <line
      stroke="#000000"
      stroke-width="10"
      stroke-linecap="butt"
      gorn="0.3.1"
      id="line30"
      y1="50.000019"
      y2="50.000019"
      x1="291.00009"
      x2="298.00009"
      fill="none"
    />
    <line
      stroke="#000000"
      stroke-width="10"
      stroke-linecap="butt"
      gorn="0.3.2"
      id="line32"
      y1="5.0000019"
      y2="5.0000019"
      x1="96.000038"
      x2="291.00009"
      fill="none"
    />
    <line
      stroke="#000000"
      stroke-width="10"
      stroke-linecap="butt"
      gorn="0.3.3"
      id="line34"
      y1="5.0000019"
      y2="95.000038"
      x1="291.00009"
      x2="291.00009"
      fill="none"
    />
    <line
      stroke="#000000"
      stroke-width="10"
      stroke-linecap="butt"
      gorn="0.3.4"
      id="line36"
      y1="95.000038"
      y2="95.000038"
      x1="291.00009"
      x2="96.000038"
      fill="none"
    />
    <line
      stroke="#000000"
      stroke-width="10"
      stroke-linecap="butt"
      gorn="0.3.5"
      id="line38"
      y1="95.000038"
      y2="5.0000019"
      x1="96.000038"
      x2="96.000038"
      fill="none"
    />
    <line
      stroke="#000000"
      stroke-width="20"
      stroke-linecap="butt"
      gorn="0.3.6"
      id="line40"
      y1="95.000038"
      y2="5.0000019"
      x1="116.00005"
      x2="116.00005"
      fill="none"
    />
  </g>
  <g
    id="copper1">
    <g
      id="copper0">
      <rect
        stroke="#ffbf00"
        x="10.000004"
        y="20.0000"
        height="58.000015"
        stroke-width="20"
        gorn="0.4.0.0"
        id="rect10"
        fill="none"
        width="58.000015"
      />
      <circle
        stroke="#ffbf00"
        stroke-width="20"
        gorn="0.4.0.1"
        id="connector0pin"
        r="29.000008"
        cx="39.000011"
        fill="none"
        cy="49.000015"
      />
      <circle
        stroke="#ffbf00"
        stroke-width="20"
        gorn="0.4.0.2"
        id="connector1pin"
        r="29.00000"
        cx="339.00012"
        fill="none"
        cy="49.000015"
      />
    </g>
  </g>
</svg>
