<?xml version='1.0' encoding='UTF-8' standalone='no'?>
<!-- Generator: Adobe Illustrator 13.0.1, SVG Export Plug-In . SVG Version: 6.00 Build 14948)  -->
  <svg
  xmlns="http://www.w3.org/2000/svg"
  x="0px"
  y="0px"
  baseProfile="tiny"
  gorn="0"
  height="1.80075in"
  version="1.2"
  xml:space="preserve"
  id="Schematic"
  width="1.1135in"
  viewBox="0 0 80.172 129.654">
  <desc>
    <referenceFile>HeltecWirelessStick0000_1_schematic.svg</referenceFile>
  </desc>
  <rect
    x="7.648"
    stroke="#373435"
    gorn="0.1"
    height="129.654"
    id="outline"
    fill="#FCFCFC"
    width="64.907"
    stroke-width="0.9"
  />
  <g
    gorn="0.2"
    id="pins">
    <line
      stroke="#555555"
      gorn="0.2.0"
      stroke-linecap="round"
      id="connector33pin"
      fill="none"
      y1="122.4"
      y2="122.4"
      x1="7.336"
      stroke-width="0.7"
      x2="0.473"
    />
    <rect
      stroke="none"
      x="0.115437"
      y="122.399"
      gorn="0.2.1"
      height="0.0014"
      id="connector33terminal"
      fill="none"
      width="0.015126"
      stroke-width="0"
    />
    <line
      stroke="#555555"
      gorn="0.2.2"
      stroke-linecap="round"
      id="connector32pin"
      fill="none"
      y1="115.219"
      y2="115.219"
      x1="7.343"
      stroke-width="0.7"
      x2="0.507"
    />
    <rect
      stroke="none"
      x="0.149464"
      y="115.218"
      gorn="0.2.3"
      height="0.0014"
      id="connector32terminal"
      fill="none"
      width="0.015072"
      stroke-width="0"
    />
    <line
      stroke="#555555"
      gorn="0.2.4"
      stroke-linecap="round"
      id="connector31pin"
      fill="none"
      y1="108.002"
      y2="108.002"
      x1="0.507"
      stroke-width="0.7"
      x2="7.372"
    />
    <rect
      stroke="none"
      x="0.149435"
      y="108.001"
      gorn="0.2.5"
      height="0.0014"
      id="connector31terminal"
      fill="none"
      width="0.01513"
      stroke-width="0"
    />
    <line
      stroke="#555555"
      gorn="0.2.6"
      stroke-linecap="round"
      id="connector30pin"
      fill="none"
      y1="100.82"
      y2="100.82"
      x1="7.385"
      stroke-width="0.7"
      x2="0.488"
    />
    <rect
      stroke="none"
      x="0.130403"
      y="100.819"
      gorn="0.2.7"
      height="0.0014"
      id="connector30terminal"
      fill="none"
      width="0.015194"
      stroke-width="0"
    />
    <line
      stroke="#555555"
      gorn="0.2.8"
      stroke-linecap="round"
      id="connector29pin"
      fill="none"
      y1="93.619"
      y2="93.619"
      x1="7.369"
      stroke-width="0.7"
      x2="0.474"
    />
    <rect
      stroke="none"
      x="0.116405"
      y="93.6183"
      gorn="0.2.9"
      height="0.0014"
      id="connector29terminal"
      fill="none"
      width="0.01519"
      stroke-width="0"
    />
    <line
      stroke="#555555"
      gorn="0.2.10"
      stroke-linecap="round"
      id="connector28pin"
      fill="none"
      y1="86.419"
      y2="86.419"
      x1="7.369"
      stroke-width="0.7"
      x2="0.474"
    />
    <rect
      stroke="none"
      x="0.116405"
      y="86.4183"
      gorn="0.2.11"
      height="0.0014"
      id="connector28terminal"
      fill="none"
      width="0.01519"
      stroke-width="0"
    />
    <line
      stroke="#555555"
      gorn="0.2.12"
      stroke-linecap="round"
      id="connector27pin"
      fill="none"
      y1="79.22"
      y2="79.22"
      x1="0.474"
      stroke-width="0.7"
      x2="7.369"
    />
    <rect
      stroke="none"
      x="0.116405"
      y="79.2193"
      gorn="0.2.13"
      height="0.0014"
      id="connector27terminal"
      fill="none"
      width="0.01519"
      stroke-width="0"
    />
    <line
      stroke="#555555"
      gorn="0.2.14"
      stroke-linecap="round"
      id="connector26pin"
      fill="none"
      y1="72.019"
      y2="72.019"
      x1="7.385"
      stroke-width="0.7"
      x2="0.488"
    />
    <rect
      stroke="none"
      x="0.130403"
      y="72.0183"
      gorn="0.2.15"
      height="0.0014"
      id="connector26terminal"
      fill="none"
      width="0.015194"
      stroke-width="0"
    />
    <line
      stroke="#555555"
      gorn="0.2.16"
      stroke-linecap="round"
      id="connector25pin"
      fill="none"
      y1="64.802"
      y2="64.802"
      x1="7.354"
      stroke-width="0.7"
      x2="0.49"
    />
    <rect
      stroke="none"
      x="0.132436"
      y="64.8013"
      gorn="0.2.17"
      height="0.0014"
      id="connector25terminal"
      fill="none"
      width="0.015128"
      stroke-width="0"
    />
    <line
      stroke="#555555"
      gorn="0.2.18"
      stroke-linecap="round"
      id="connector24pin"
      fill="none"
      y1="57.6"
      y2="57.6"
      x1="7.372"
      stroke-width="0.7"
      x2="0.507"
    />
    <rect
      stroke="none"
      x="0.149435"
      y="57.5993"
      gorn="0.2.19"
      height="0.0014"
      id="connector24terminal"
      fill="none"
      width="0.01513"
      stroke-width="0"
    />
    <line
      stroke="#555555"
      gorn="0.2.20"
      stroke-linecap="round"
      id="connector23pin"
      fill="none"
      y1="50.419"
      y2="50.419"
      x1="7.385"
      stroke-width="0.7"
      x2="0.488"
    />
    <rect
      stroke="none"
      x="0.130403"
      y="50.4183"
      gorn="0.2.21"
      height="0.0014"
      id="connector23terminal"
      fill="none"
      width="0.015194"
      stroke-width="0"
    />
    <line
      stroke="#555555"
      gorn="0.2.22"
      stroke-linecap="round"
      id="connector22pin"
      fill="none"
      y1="43.201"
      y2="43.201"
      x1="7.372"
      stroke-width="0.7"
      x2="0.507"
    />
    <rect
      stroke="none"
      x="0.149435"
      y="43.2003"
      gorn="0.2.23"
      height="0.0014"
      id="connector22terminal"
      fill="none"
      width="0.01513"
      stroke-width="0"
    />
    <line
      stroke="#555555"
      gorn="0.2.24"
      stroke-linecap="round"
      id="connector21pin"
      fill="none"
      y1="36"
      y2="36"
      x1="7.372"
      stroke-width="0.7"
      x2="0.507"
    />
    <rect
      stroke="none"
      x="0.149435"
      y="35.9993"
      gorn="0.2.25"
      height="0.0014"
      id="connector21terminal"
      fill="none"
      width="0.01513"
      stroke-width="0"
    />
    <line
      stroke="#555555"
      gorn="0.2.26"
      stroke-linecap="round"
      id="connector20pin"
      fill="none"
      y1="28.818"
      y2="28.818"
      x1="7.385"
      stroke-width="0.7"
      x2="0.488"
    />
    <rect
      stroke="none"
      x="0.130403"
      y="28.8173"
      gorn="0.2.27"
      height="0.0014"
      id="connector20terminal"
      fill="none"
      width="0.015194"
      stroke-width="0"
    />
    <line
      stroke="#555555"
      gorn="0.2.28"
      stroke-linecap="round"
      id="connector19pin"
      fill="none"
      y1="21.618"
      y2="21.618"
      x1="0.473"
      stroke-width="0.7"
      x2="7.336"
    />
    <rect
      stroke="none"
      x="0.115437"
      y="21.6173"
      gorn="0.2.29"
      height="0.0014"
      id="connector19terminal"
      fill="none"
      width="0.015126"
      stroke-width="0"
    />
    <line
      stroke="#555555"
      gorn="0.2.30"
      stroke-linecap="round"
      id="connector18pin"
      fill="none"
      y1="14.418"
      y2="14.418"
      x1="7.336"
      stroke-width="0.7"
      x2="0.473"
    />
    <rect
      stroke="none"
      x="0.115437"
      y="14.4173"
      gorn="0.2.31"
      height="0.0014"
      id="connector18terminal"
      fill="none"
      width="0.015126"
      stroke-width="0"
    />
    <line
      stroke="#555555"
      gorn="0.2.32"
      stroke-linecap="round"
      id="connector17pin"
      fill="none"
      y1="7.164"
      y2="7.164"
      x1="0.486"
      stroke-width="0.7"
      x2="7.35"
    />
    <rect
      stroke="none"
      x="0.128436"
      y="7.1633"
      gorn="0.2.33"
      height="0.0014"
      id="connector17terminal"
      fill="none"
      width="0.015128"
      stroke-width="0"
    />
    <line
      stroke="#555555"
      gorn="0.2.34"
      stroke-linecap="round"
      id="connector16pin"
      fill="none"
      y1="7.145"
      y2="7.145"
      x1="79.709"
      stroke-width="0.7"
      x2="72.844"
    />
    <rect
      stroke="none"
      x="80.0514"
      y="7.1443"
      gorn="0.2.35"
      height="0.0014"
      id="connector16terminal"
      fill="none"
      width="0.01513"
      stroke-width="0"
    />
    <line
      stroke="#555555"
      gorn="0.2.36"
      stroke-linecap="round"
      id="connector15pin"
      fill="none"
      y1="14.345"
      y2="14.345"
      x1="79.709"
      stroke-width="0.7"
      x2="72.844"
    />
    <rect
      stroke="none"
      x="80.0514"
      y="14.3443"
      gorn="0.2.37"
      height="0.0014"
      id="connector15terminal"
      fill="none"
      width="0.01513"
      stroke-width="0"
    />
    <line
      stroke="#555555"
      gorn="0.2.38"
      stroke-linecap="round"
      id="connector14pin"
      fill="none"
      y1="21.547"
      y2="21.547"
      x1="79.709"
      stroke-width="0.7"
      x2="72.844"
    />
    <rect
      stroke="none"
      x="80.0514"
      y="21.5463"
      gorn="0.2.39"
      height="0.0014"
      id="connector14terminal"
      fill="none"
      width="0.01513"
      stroke-width="0"
    />
    <line
      stroke="#555555"
      gorn="0.2.40"
      stroke-linecap="round"
      id="connector13pin"
      fill="none"
      y1="28.745"
      y2="28.745"
      x1="79.709"
      stroke-width="0.7"
      x2="72.844"
    />
    <rect
      stroke="none"
      x="80.0514"
      y="28.7443"
      gorn="0.2.41"
      height="0.0014"
      id="connector13terminal"
      fill="none"
      width="0.01513"
      stroke-width="0"
    />
    <line
      stroke="#555555"
      gorn="0.2.42"
      stroke-linecap="round"
      id="connector12pin"
      fill="none"
      y1="35.965"
      y2="35.965"
      x1="72.844"
      stroke-width="0.7"
      x2="79.68"
    />
    <rect
      stroke="none"
      x="80.0225"
      y="35.9643"
      gorn="0.2.43"
      height="0.0014"
      id="connector12terminal"
      fill="none"
      width="0.015072"
      stroke-width="0"
    />
    <line
      stroke="#555555"
      gorn="0.2.44"
      stroke-linecap="round"
      id="connector11pin"
      fill="none"
      y1="43.145"
      y2="43.145"
      x1="72.844"
      stroke-width="0.7"
      x2="79.709"
    />
    <rect
      stroke="none"
      x="80.0514"
      y="43.1443"
      gorn="0.2.45"
      height="0.0014"
      id="connector11terminal"
      fill="none"
      width="0.01513"
      stroke-width="0"
    />
    <line
      stroke="#555555"
      gorn="0.2.46"
      stroke-linecap="round"
      id="connector10pin"
      fill="none"
      y1="50.346"
      y2="50.346"
      x1="72.844"
      stroke-width="0.7"
      x2="79.709"
    />
    <rect
      stroke="none"
      x="80.0514"
      y="50.3453"
      gorn="0.2.47"
      height="0.0014"
      id="connector10terminal"
      fill="none"
      width="0.01513"
      stroke-width="0"
    />
    <line
      stroke="#555555"
      gorn="0.2.48"
      stroke-linecap="round"
      id="connector9pin"
      fill="none"
      y1="57.547"
      y2="57.547"
      x1="72.844"
      stroke-width="0.7"
      x2="79.709"
    />
    <rect
      stroke="none"
      x="80.0514"
      y="57.5463"
      gorn="0.2.49"
      height="0.0014"
      id="connector9terminal"
      fill="none"
      width="0.01513"
      stroke-width="0"
    />
    <line
      stroke="#555555"
      gorn="0.2.50"
      stroke-linecap="round"
      id="connector8pin"
      fill="none"
      y1="64.745"
      y2="64.745"
      x1="79.709"
      stroke-width="0.7"
      x2="72.844"
    />
    <rect
      stroke="none"
      x="80.0514"
      y="64.7443"
      gorn="0.2.51"
      height="0.0014"
      id="connector8terminal"
      fill="none"
      width="0.01513"
      stroke-width="0"
    />
    <line
      stroke="#555555"
      gorn="0.2.52"
      stroke-linecap="round"
      id="connector7pin"
      fill="none"
      y1="71.946"
      y2="71.946"
      x1="79.709"
      stroke-width="0.7"
      x2="72.844"
    />
    <rect
      stroke="none"
      x="80.0514"
      y="71.9453"
      gorn="0.2.53"
      height="0.0014"
      id="connector7terminal"
      fill="none"
      width="0.01513"
      stroke-width="0"
    />
    <line
      stroke="#555555"
      gorn="0.2.54"
      stroke-linecap="round"
      id="connector6pin"
      fill="none"
      y1="79.146"
      y2="79.146"
      x1="79.709"
      stroke-width="0.7"
      x2="72.844"
    />
    <rect
      stroke="none"
      x="80.0514"
      y="79.1453"
      gorn="0.2.55"
      height="0.0014"
      id="connector6terminal"
      fill="none"
      width="0.01513"
      stroke-width="0"
    />
    <line
      stroke="#555555"
      gorn="0.2.56"
      stroke-linecap="round"
      id="connector5pin"
      fill="none"
      y1="86.345"
      y2="86.345"
      x1="79.709"
      stroke-width="0.7"
      x2="72.844"
    />
    <rect
      stroke="none"
      x="80.0514"
      y="86.3443"
      gorn="0.2.57"
      height="0.0014"
      id="connector5terminal"
      fill="none"
      width="0.01513"
      stroke-width="0"
    />
    <line
      stroke="#555555"
      gorn="0.2.58"
      stroke-linecap="round"
      id="connector4pin"
      fill="none"
      y1="93.564"
      y2="93.564"
      x1="72.844"
      stroke-width="0.7"
      x2="79.68"
    />
    <rect
      stroke="none"
      x="80.0225"
      y="93.5633"
      gorn="0.2.59"
      height="0.0014"
      id="connector4terminal"
      fill="none"
      width="0.015072"
      stroke-width="0"
    />
    <line
      stroke="#555555"
      gorn="0.2.60"
      stroke-linecap="round"
      id="connector3pin"
      fill="none"
      y1="100.746"
      y2="100.746"
      x1="72.848"
      stroke-width="0.7"
      x2="79.743"
    />
    <rect
      stroke="none"
      x="80.0854"
      y="100.745"
      gorn="0.2.61"
      height="0.0014"
      id="connector3terminal"
      fill="none"
      width="0.01519"
      stroke-width="0"
    />
    <line
      stroke="#555555"
      gorn="0.2.62"
      stroke-linecap="round"
      id="connector2pin"
      fill="none"
      y1="108"
      y2="108"
      x1="79.709"
      stroke-width="0.7"
      x2="72.844"
    />
    <rect
      stroke="none"
      x="80.0514"
      y="107.999"
      gorn="0.2.63"
      height="0.0014"
      id="connector2terminal"
      fill="none"
      width="0.01513"
      stroke-width="0"
    />
    <line
      stroke="#555555"
      gorn="0.2.64"
      stroke-linecap="round"
      id="connector1pin"
      fill="none"
      y1="115.2"
      y2="115.2"
      x1="79.709"
      stroke-width="0.7"
      x2="72.844"
    />
    <rect
      stroke="none"
      x="80.0514"
      y="115.199"
      gorn="0.2.65"
      height="0.0014"
      id="connector1terminal"
      fill="none"
      width="0.01513"
      stroke-width="0"
    />
    <line
      stroke="#555555"
      gorn="0.2.66"
      stroke-linecap="round"
      id="connector0pin"
      fill="none"
      y1="122.4"
      y2="122.4"
      x1="72.844"
      stroke-width="0.7"
      x2="79.68"
    />
    <rect
      stroke="none"
      x="80.0225"
      y="122.399"
      gorn="0.2.67"
      height="0.0014"
      id="connector0terminal"
      fill="none"
      width="0.015072"
      stroke-width="0"
    />
  </g>
  <g
    gorn="0.3"
    id="pin_numbers">
    <g
      transform="matrix(1 0 0 1 2.1318 121.1104)">
      <g>
        <g>
          <text
            font-size="2.5"
            gorn="0.3.0.0.0.0"
            font-family="DroidSans"
            id="_x33_4"
            fill="#555555">34</text>
        </g>
      </g>
    </g>
    <g
      transform="matrix(1 0 0 1 2.1318 113.9072)">
      <g>
        <g>
          <text
            font-size="2.5"
            gorn="0.3.1.0.0.0"
            font-family="DroidSans"
            id="_x33_3"
            fill="#555555">33</text>
        </g>
      </g>
    </g>
    <g
      transform="matrix(1.026 0 0 1 2.0459 106.7051)">
      <g>
        <g>
          <text
            font-size="2.5"
            gorn="0.3.2.0.0.0"
            font-family="DroidSans"
            id="_x33_2"
            fill="#555555">32</text>
        </g>
      </g>
    </g>
    <g
      transform="matrix(1 0 0 1 2.1323 99.5049)">
      <g>
        <g>
          <text
            font-size="2.5"
            gorn="0.3.3.0.0.0"
            font-family="DroidSans"
            id="_x33_1"
            fill="#555555">31</text>
        </g>
      </g>
    </g>
    <g
      transform="matrix(1 0 0 1 2.1323 92.3018)">
      <g>
        <g>
          <text
            font-size="2.5"
            gorn="0.3.4.0.0.0"
            font-family="DroidSans"
            id="_x33_0"
            fill="#555555">30</text>
        </g>
      </g>
    </g>
    <g
      transform="matrix(1 0 0 1 2.1323 85.1025)">
      <g>
        <g>
          <text
            font-size="2.5"
            gorn="0.3.5.0.0.0"
            font-family="DroidSans"
            id="_x32_9"
            fill="#555555">29</text>
        </g>
      </g>
    </g>
    <g
      transform="matrix(1 0 0 1 2.1323 77.8994)">
      <g>
        <g>
          <text
            font-size="2.5"
            gorn="0.3.6.0.0.0"
            font-family="DroidSans"
            id="_x32_8"
            fill="#555555">28</text>
        </g>
      </g>
    </g>
    <g
      transform="matrix(1 0 0 1 2.1323 70.6963)">
      <g>
        <g>
          <text
            font-size="2.5"
            gorn="0.3.7.0.0.0"
            font-family="DroidSans"
            id="_x32_7"
            fill="#555555">27</text>
        </g>
      </g>
    </g>
    <g
      transform="matrix(1 0 0 1 2.1313 63.4971)">
      <g>
        <g>
          <text
            font-size="2.5"
            gorn="0.3.8.0.0.0"
            font-family="DroidSans"
            id="_x32_6"
            fill="#555555">26</text>
        </g>
      </g>
    </g>
    <g
      transform="matrix(1 0 0 1 2.1313 56.2939)">
      <g>
        <g>
          <text
            font-size="2.5"
            gorn="0.3.9.0.0.0"
            font-family="DroidSans"
            id="_x32_5"
            fill="#555555">25</text>
        </g>
      </g>
    </g>
    <g
      transform="matrix(1 0 0 1 2.1313 49.0908)">
      <g>
        <g>
          <text
            font-size="2.5"
            gorn="0.3.10.0.0.0"
            font-family="DroidSans"
            id="_x32_4"
            fill="#555555">24</text>
        </g>
      </g>
    </g>
    <g
      transform="matrix(1 0 0 1 2.1313 41.8916)">
      <g>
        <g>
          <text
            font-size="2.5"
            gorn="0.3.11.0.0.0"
            font-family="DroidSans"
            id="_x32_3"
            fill="#555555">23</text>
        </g>
      </g>
    </g>
    <g
      transform="matrix(1 0 0 1 2.1313 34.6885)">
      <g>
        <g>
          <text
            font-size="2.5"
            gorn="0.3.12.0.0.0"
            font-family="DroidSans"
            id="_x32_2"
            fill="#555555">22</text>
        </g>
      </g>
    </g>
    <g
      transform="matrix(1 0 0 1 2.1313 27.4854)">
      <g>
        <g>
          <text
            font-size="2.5"
            gorn="0.3.13.0.0.0"
            font-family="DroidSans"
            id="_x32_1"
            fill="#555555">21</text>
        </g>
      </g>
    </g>
    <g
      transform="matrix(1 0 0 1 2.1318 20.2803)">
      <g>
        <g>
          <text
            font-size="2.5"
            gorn="0.3.14.0.0.0"
            font-family="DroidSans"
            id="_x32_0"
            fill="#555555">20</text>
        </g>
      </g>
    </g>
    <g
      transform="matrix(1 0 0 1 2.1318 13.0811)">
      <g>
        <g>
          <text
            font-size="2.5"
            gorn="0.3.15.0.0.0"
            font-family="DroidSans"
            id="_x31_9"
            fill="#555555">19</text>
        </g>
      </g>
    </g>
    <g
      transform="matrix(1 0 0 1 2.1318 5.8779)">
      <g>
        <g>
          <text
            font-size="2.5"
            gorn="0.3.16.0.0.0"
            font-family="DroidSans"
            id="_x31_8"
            fill="#555555">18</text>
        </g>
      </g>
    </g>
    <g
      transform="matrix(1 0 0 1 74.9458 5.835)">
      <g>
        <g>
          <text
            font-size="2.5"
            gorn="0.3.17.0.0.0"
            font-family="DroidSans"
            id="_x31_7"
            fill="#555555">17</text>
        </g>
      </g>
    </g>
    <g
      transform="matrix(1 0 0 1 74.9458 13.0381)">
      <g>
        <g>
          <text
            font-size="2.5"
            gorn="0.3.18.0.0.0"
            font-family="DroidSans"
            id="_x31_6"
            fill="#555555">16</text>
        </g>
      </g>
    </g>
    <g
      transform="matrix(1 0 0 1 74.9458 20.2412)">
      <g>
        <g>
          <text
            font-size="2.5"
            gorn="0.3.19.0.0.0"
            font-family="DroidSans"
            id="_x31_5"
            fill="#555555">15</text>
        </g>
      </g>
    </g>
    <g
      transform="matrix(1 0 0 1 74.9458 27.4404)">
      <g>
        <g>
          <text
            font-size="2.5"
            gorn="0.3.20.0.0.0"
            font-family="DroidSans"
            id="_x31_4"
            fill="#555555">14</text>
        </g>
      </g>
    </g>
    <g
      transform="matrix(1 0 0 1 74.9458 34.6436)">
      <g>
        <g>
          <text
            font-size="2.5"
            gorn="0.3.21.0.0.0"
            font-family="DroidSans"
            id="_x31_3"
            fill="#555555">13</text>
        </g>
      </g>
    </g>
    <g
      transform="matrix(1 0 0 1 74.9458 41.8467)">
      <g>
        <g>
          <text
            font-size="2.5"
            gorn="0.3.22.0.0.0"
            font-family="DroidSans"
            id="_x31_2"
            fill="#555555">12</text>
        </g>
      </g>
    </g>
    <g
      transform="matrix(1 0 0 1 74.9458 49.0459)">
      <g>
        <g>
          <text
            font-size="2.5"
            gorn="0.3.23.0.0.0"
            font-family="DroidSans"
            id="_x31_1"
            fill="#555555">11</text>
        </g>
      </g>
    </g>
    <g
      transform="matrix(1 0 0 1 74.9458 56.249)">
      <g>
        <g>
          <text
            font-size="2.5"
            gorn="0.3.24.0.0.0"
            font-family="DroidSans"
            id="_x31_0"
            fill="#555555">10</text>
        </g>
      </g>
    </g>
    <g
      transform="matrix(1 0 0 1 76.5981 63.4521)">
      <g>
        <g>
          <text
            font-size="2.5"
            gorn="0.3.25.0.0.0"
            font-family="DroidSans"
            id="_x39_"
            fill="#555555">9</text>
        </g>
      </g>
    </g>
    <g
      transform="matrix(1 0 0 1 76.5981 70.6514)">
      <g>
        <g>
          <text
            font-size="2.5"
            gorn="0.3.26.0.0.0"
            font-family="DroidSans"
            id="_x38_"
            fill="#555555">8</text>
        </g>
      </g>
    </g>
    <g
      transform="matrix(1 0 0 1 76.5981 77.8545)">
      <g>
        <g>
          <text
            font-size="2.5"
            gorn="0.3.27.0.0.0"
            font-family="DroidSans"
            id="_x37_"
            fill="#555555">7</text>
        </g>
      </g>
    </g>
    <g
      transform="matrix(1 0 0 1 76.5981 85.0576)">
      <g>
        <g>
          <text
            font-size="2.5"
            gorn="0.3.28.0.0.0"
            font-family="DroidSans"
            id="_x36_"
            fill="#555555">6</text>
        </g>
      </g>
    </g>
    <g
      transform="matrix(1 0 0 1 76.5981 92.2568)">
      <g>
        <g>
          <text
            font-size="2.5"
            gorn="0.3.29.0.0.0"
            font-family="DroidSans"
            id="_x35_"
            fill="#555555">5</text>
        </g>
      </g>
    </g>
    <g
      transform="matrix(1 0 0 1 76.5981 99.46)">
      <g>
        <g>
          <text
            font-size="2.5"
            gorn="0.3.30.0.0.0"
            font-family="DroidSans"
            id="_x34_"
            fill="#555555">4</text>
        </g>
      </g>
    </g>
    <g
      transform="matrix(1 0 0 1 76.5981 106.6631)">
      <g>
        <g>
          <text
            font-size="2.5"
            gorn="0.3.31.0.0.0"
            font-family="DroidSans"
            id="_x33_"
            fill="#555555">3</text>
        </g>
      </g>
    </g>
    <g
      transform="matrix(1 0 0 1 76.5981 113.8623)">
      <g>
        <g>
          <text
            font-size="2.5"
            gorn="0.3.32.0.0.0"
            font-family="DroidSans"
            id="_x32_"
            fill="#555555">2</text>
        </g>
      </g>
    </g>
    <g
      transform="matrix(1 0 0 1 76.5981 121.0654)">
      <g>
        <g>
          <text
            font-size="2.5"
            gorn="0.3.33.0.0.0"
            font-family="DroidSans"
            id="_x31_"
            fill="#555555">1</text>
        </g>
      </g>
    </g>
  </g>
  <g
    gorn="0.4"
    id="pin_labels">
    <g
      transform="matrix(1 0 0 1 10.2671 123.3174)">
      <g>
        <g>
          <text
            font-size="3.5"
            font-family="DroidSans"
            fill="#555555">G</text>
        </g>
      </g>
    </g>
    <g
      transform="matrix(1 0 0 1 12.6821 123.3174)">
      <g>
        <g>
          <text
            font-size="3.5"
            font-family="DroidSans"
            fill="#555555">P</text>
        </g>
      </g>
    </g>
    <g
      transform="matrix(1 0 0 1 14.6987 123.3174)">
      <g>
        <g>
          <text
            font-size="3.5"
            font-family="DroidSans"
            fill="#555555">I</text>
        </g>
      </g>
    </g>
    <g
      transform="matrix(1 0 0 1 15.8506 123.3174)">
      <g>
        <g>
          <text
            font-size="3.5"
            font-family="DroidSans"
            fill="#555555">O</text>
        </g>
      </g>
    </g>
    <g
      transform="matrix(1 0 0 1 18.4482 123.3174)">
      <g>
        <g>
          <text
            font-size="3.5"
            font-family="DroidSans"
            fill="#555555">3</text>
        </g>
      </g>
    </g>
    <g
      transform="matrix(1 0 0 1 20.376 123.3174)">
      <g>
        <g>
          <text
            font-size="3.5"
            font-family="DroidSans"
            fill="#555555">9</text>
        </g>
      </g>
    </g>
    <g
      transform="matrix(1 0 0 1 10.2671 116.1338)">
      <g>
        <g>
          <text
            font-size="3.5"
            font-family="DroidSans"
            fill="#555555">G</text>
        </g>
      </g>
    </g>
    <g
      transform="matrix(1 0 0 1 12.6821 116.1338)">
      <g>
        <g>
          <text
            font-size="3.5"
            font-family="DroidSans"
            fill="#555555">P</text>
        </g>
      </g>
    </g>
    <g
      transform="matrix(1 0 0 1 14.6987 116.1338)">
      <g>
        <g>
          <text
            font-size="3.5"
            font-family="DroidSans"
            fill="#555555">I</text>
        </g>
      </g>
    </g>
    <g
      transform="matrix(1 0 0 1 15.8506 116.1338)">
      <g>
        <g>
          <text
            font-size="3.5"
            font-family="DroidSans"
            fill="#555555">O</text>
        </g>
      </g>
    </g>
    <g
      transform="matrix(1 0 0 1 18.4482 116.1338)">
      <g>
        <g>
          <text
            font-size="3.5"
            font-family="DroidSans"
            fill="#555555">3</text>
        </g>
      </g>
    </g>
    <g
      transform="matrix(1 0 0 1 20.376 116.1338)">
      <g>
        <g>
          <text
            font-size="3.5"
            font-family="DroidSans"
            fill="#555555">8</text>
        </g>
      </g>
    </g>
    <g
      transform="matrix(1 0 0 1 10.2671 108.9502)">
      <g>
        <g>
          <text
            font-size="3.5"
            font-family="DroidSans"
            fill="#555555">G</text>
        </g>
      </g>
    </g>
    <g
      transform="matrix(1 0 0 1 12.6821 108.9502)">
      <g>
        <g>
          <text
            font-size="3.5"
            font-family="DroidSans"
            fill="#555555">P</text>
        </g>
      </g>
    </g>
    <g
      transform="matrix(1 0 0 1 14.6987 108.9502)">
      <g>
        <g>
          <text
            font-size="3.5"
            font-family="DroidSans"
            fill="#555555">I</text>
        </g>
      </g>
    </g>
    <g
      transform="matrix(1 0 0 1 15.8506 108.9502)">
      <g>
        <g>
          <text
            font-size="3.5"
            font-family="DroidSans"
            fill="#555555">O</text>
        </g>
      </g>
    </g>
    <g
      transform="matrix(1 0 0 1 18.4482 108.9502)">
      <g>
        <g>
          <text
            font-size="3.5"
            font-family="DroidSans"
            fill="#555555">3</text>
        </g>
      </g>
    </g>
    <g
      transform="matrix(1 0 0 1 20.376 108.9502)">
      <g>
        <g>
          <text
            font-size="3.5"
            font-family="DroidSans"
            fill="#555555">7</text>
        </g>
      </g>
    </g>
    <g
      transform="matrix(1 0 0 1 10.2671 101.7666)">
      <g>
        <g>
          <text
            font-size="3.5"
            font-family="DroidSans"
            fill="#555555">G</text>
        </g>
      </g>
    </g>
    <g
      transform="matrix(1 0 0 1 12.6821 101.7666)">
      <g>
        <g>
          <text
            font-size="3.5"
            font-family="DroidSans"
            fill="#555555">P</text>
        </g>
      </g>
    </g>
    <g
      transform="matrix(1 0 0 1 14.6987 101.7666)">
      <g>
        <g>
          <text
            font-size="3.5"
            font-family="DroidSans"
            fill="#555555">I</text>
        </g>
      </g>
    </g>
    <g
      transform="matrix(1 0 0 1 15.8506 101.7666)">
      <g>
        <g>
          <text
            font-size="3.5"
            font-family="DroidSans"
            fill="#555555">O</text>
        </g>
      </g>
    </g>
    <g
      transform="matrix(1 0 0 1 18.4482 101.7666)">
      <g>
        <g>
          <text
            font-size="3.5"
            font-family="DroidSans"
            fill="#555555">3</text>
        </g>
      </g>
    </g>
    <g
      transform="matrix(1 0 0 1 20.376 101.7666)">
      <g>
        <g>
          <text
            font-size="3.5"
            font-family="DroidSans"
            fill="#555555">6</text>
        </g>
      </g>
    </g>
    <g
      transform="matrix(1 0 0 1 10.2671 94.5811)">
      <g>
        <g>
          <text
            font-size="3.5"
            font-family="DroidSans"
            fill="#555555">G</text>
        </g>
      </g>
    </g>
    <g
      transform="matrix(1 0 0 1 12.6821 94.5811)">
      <g>
        <g>
          <text
            font-size="3.5"
            font-family="DroidSans"
            fill="#555555">P</text>
        </g>
      </g>
    </g>
    <g
      transform="matrix(1 0 0 1 14.6987 94.5811)">
      <g>
        <g>
          <text
            font-size="3.5"
            font-family="DroidSans"
            fill="#555555">I</text>
        </g>
      </g>
    </g>
    <g
      transform="matrix(1 0 0 1 15.8506 94.5811)">
      <g>
        <g>
          <text
            font-size="3.5"
            font-family="DroidSans"
            fill="#555555">O</text>
        </g>
      </g>
    </g>
    <g
      transform="matrix(1 0 0 1 18.4482 94.5811)">
      <g>
        <g>
          <text
            font-size="3.5"
            font-family="DroidSans"
            fill="#555555">1</text>
        </g>
      </g>
    </g>
    <g
      transform="matrix(1 0 0 1 20.376 94.5811)">
      <g>
        <g>
          <text
            font-size="3.5"
            font-family="DroidSans"
            fill="#555555">7</text>
        </g>
      </g>
    </g>
    <g
      transform="matrix(1 0 0 1 10.2671 87.3975)">
      <g>
        <g>
          <text
            font-size="3.5"
            font-family="DroidSans"
            fill="#555555">G</text>
        </g>
      </g>
    </g>
    <g
      transform="matrix(1 0 0 1 12.6821 87.3975)">
      <g>
        <g>
          <text
            font-size="3.5"
            font-family="DroidSans"
            fill="#555555">P</text>
        </g>
      </g>
    </g>
    <g
      transform="matrix(1 0 0 1 14.6987 87.3975)">
      <g>
        <g>
          <text
            font-size="3.5"
            font-family="DroidSans"
            fill="#555555">I</text>
        </g>
      </g>
    </g>
    <g
      transform="matrix(1 0 0 1 15.8506 87.3975)">
      <g>
        <g>
          <text
            font-size="3.5"
            font-family="DroidSans"
            fill="#555555">O</text>
        </g>
      </g>
    </g>
    <g
      transform="matrix(1 0 0 1 18.4482 87.3975)">
      <g>
        <g>
          <text
            font-size="3.5"
            font-family="DroidSans"
            fill="#555555">1</text>
        </g>
      </g>
    </g>
    <g
      transform="matrix(1 0 0 1 20.376 87.3975)">
      <g>
        <g>
          <text
            font-size="3.5"
            font-family="DroidSans"
            fill="#555555">9</text>
        </g>
      </g>
    </g>
    <g
      transform="matrix(1 0 0 1 10.2671 80.2139)">
      <g>
        <g>
          <text
            font-size="3.5"
            font-family="DroidSans"
            fill="#555555">G</text>
        </g>
      </g>
    </g>
    <g
      transform="matrix(1 0 0 1 12.6821 80.2139)">
      <g>
        <g>
          <text
            font-size="3.5"
            font-family="DroidSans"
            fill="#555555">P</text>
        </g>
      </g>
    </g>
    <g
      transform="matrix(1 0 0 1 14.6987 80.2139)">
      <g>
        <g>
          <text
            font-size="3.5"
            font-family="DroidSans"
            fill="#555555">I</text>
        </g>
      </g>
    </g>
    <g
      transform="matrix(1 0 0 1 15.8506 80.2139)">
      <g>
        <g>
          <text
            font-size="3.5"
            font-family="DroidSans"
            fill="#555555">O</text>
        </g>
      </g>
    </g>
    <g
      transform="matrix(1 0 0 1 18.4482 80.2139)">
      <g>
        <g>
          <text
            font-size="3.5"
            font-family="DroidSans"
            fill="#555555">5</text>
        </g>
      </g>
    </g>
    <g
      transform="matrix(1 0 0 1 10.2671 73.0283)">
      <g>
        <g>
          <text
            font-size="3.5"
            font-family="DroidSans"
            fill="#555555">G</text>
        </g>
      </g>
    </g>
    <g
      transform="matrix(1 0 0 1 12.6821 73.0283)">
      <g>
        <g>
          <text
            font-size="3.5"
            font-family="DroidSans"
            fill="#555555">P</text>
        </g>
      </g>
    </g>
    <g
      transform="matrix(1 0 0 1 14.6987 73.0283)">
      <g>
        <g>
          <text
            font-size="3.5"
            font-family="DroidSans"
            fill="#555555">I</text>
        </g>
      </g>
    </g>
    <g
      transform="matrix(1 0 0 1 15.8506 73.0283)">
      <g>
        <g>
          <text
            font-size="3.5"
            font-family="DroidSans"
            fill="#555555">O</text>
        </g>
      </g>
    </g>
    <g
      transform="matrix(1 0 0 1 18.4482 73.0283)">
      <g>
        <g>
          <text
            font-size="3.5"
            font-family="DroidSans"
            fill="#555555">3</text>
        </g>
      </g>
    </g>
    <g
      transform="matrix(1 0 0 1 20.376 73.0283)">
      <g>
        <g>
          <text
            font-size="3.5"
            font-family="DroidSans"
            fill="#555555">4</text>
        </g>
      </g>
    </g>
    <g
      transform="matrix(1 0 0 1 10.2671 65.8447)">
      <g>
        <g>
          <text
            font-size="3.5"
            font-family="DroidSans"
            fill="#555555">G</text>
        </g>
      </g>
    </g>
    <g
      transform="matrix(1 0 0 1 12.6821 65.8447)">
      <g>
        <g>
          <text
            font-size="3.5"
            font-family="DroidSans"
            fill="#555555">P</text>
        </g>
      </g>
    </g>
    <g
      transform="matrix(1 0 0 1 14.6987 65.8447)">
      <g>
        <g>
          <text
            font-size="3.5"
            font-family="DroidSans"
            fill="#555555">I</text>
        </g>
      </g>
    </g>
    <g
      transform="matrix(1 0 0 1 15.8506 65.8447)">
      <g>
        <g>
          <text
            font-size="3.5"
            font-family="DroidSans"
            fill="#555555">O</text>
        </g>
      </g>
    </g>
    <g
      transform="matrix(1 0 0 1 18.4482 65.8447)">
      <g>
        <g>
          <text
            font-size="3.5"
            font-family="DroidSans"
            fill="#555555">3</text>
        </g>
      </g>
    </g>
    <g
      transform="matrix(1 0 0 1 20.376 65.8447)">
      <g>
        <g>
          <text
            font-size="3.5"
            font-family="DroidSans"
            fill="#555555">5</text>
        </g>
      </g>
    </g>
    <g
      transform="matrix(1 0 0 1 10.2671 58.6611)">
      <g>
        <g>
          <text
            font-size="3.5"
            font-family="DroidSans"
            fill="#555555">G</text>
        </g>
      </g>
    </g>
    <g
      transform="matrix(1 0 0 1 12.6821 58.6611)">
      <g>
        <g>
          <text
            font-size="3.5"
            font-family="DroidSans"
            fill="#555555">P</text>
        </g>
      </g>
    </g>
    <g
      transform="matrix(1 0 0 1 14.6987 58.6611)">
      <g>
        <g>
          <text
            font-size="3.5"
            font-family="DroidSans"
            fill="#555555">I</text>
        </g>
      </g>
    </g>
    <g
      transform="matrix(1 0 0 1 15.8501 58.6611)">
      <g>
        <g>
          <text
            font-size="3.5"
            font-family="DroidSans"
            fill="#555555">O</text>
        </g>
      </g>
    </g>
    <g
      transform="matrix(1 0 0 1 18.4478 58.6611)">
      <g>
        <g>
          <text
            font-size="3.5"
            font-family="DroidSans"
            fill="#555555">2</text>
        </g>
      </g>
    </g>
    <g
      transform="matrix(1 0 0 1 20.3755 58.6611)">
      <g>
        <g>
          <text
            font-size="3.5"
            font-family="DroidSans"
            fill="#555555">3</text>
        </g>
      </g>
    </g>
    <g
      transform="matrix(1 0 0 1 10.2671 51.4756)">
      <g>
        <g>
          <text
            font-size="3.5"
            font-family="DroidSans"
            fill="#555555">G</text>
        </g>
      </g>
    </g>
    <g
      transform="matrix(1 0 0 1 12.6821 51.4756)">
      <g>
        <g>
          <text
            font-size="3.5"
            font-family="DroidSans"
            fill="#555555">P</text>
        </g>
      </g>
    </g>
    <g
      transform="matrix(1 0 0 1 14.6987 51.4756)">
      <g>
        <g>
          <text
            font-size="3.5"
            font-family="DroidSans"
            fill="#555555">I</text>
        </g>
      </g>
    </g>
    <g
      transform="matrix(1 0 0 1 15.8501 51.4756)">
      <g>
        <g>
          <text
            font-size="3.5"
            font-family="DroidSans"
            fill="#555555">O</text>
        </g>
      </g>
    </g>
    <g
      transform="matrix(1 0 0 1 18.4478 51.4756)">
      <g>
        <g>
          <text
            font-size="3.5"
            font-family="DroidSans"
            fill="#555555">1</text>
        </g>
      </g>
    </g>
    <g
      transform="matrix(1 0 0 1 20.3755 51.4756)">
      <g>
        <g>
          <text
            font-size="3.5"
            font-family="DroidSans"
            fill="#555555">8</text>
        </g>
      </g>
    </g>
    <g
      transform="matrix(1 0 0 1 10.2671 44.292)">
      <g>
        <g>
          <text
            font-size="3.5"
            font-family="DroidSans"
            fill="#555555">G</text>
        </g>
      </g>
    </g>
    <g
      transform="matrix(1 0 0 1 12.6821 44.292)">
      <g>
        <g>
          <text
            font-size="3.5"
            font-family="DroidSans"
            fill="#555555">P</text>
        </g>
      </g>
    </g>
    <g
      transform="matrix(1 0 0 1 14.6987 44.292)">
      <g>
        <g>
          <text
            font-size="3.5"
            font-family="DroidSans"
            fill="#555555">I</text>
        </g>
      </g>
    </g>
    <g
      transform="matrix(1 0 0 1 15.8501 44.292)">
      <g>
        <g>
          <text
            font-size="3.5"
            font-family="DroidSans"
            fill="#555555">O</text>
        </g>
      </g>
    </g>
    <g
      transform="matrix(1 0 0 1 18.4478 44.292)">
      <g>
        <g>
          <text
            font-size="3.5"
            font-family="DroidSans"
            fill="#555555">2</text>
        </g>
      </g>
    </g>
    <g
      transform="matrix(1 0 0 1 20.3755 44.292)">
      <g>
        <g>
          <text
            font-size="3.5"
            font-family="DroidSans"
            fill="#555555">1</text>
        </g>
      </g>
    </g>
    <g
      transform="matrix(1 0 0 1 10.2671 37.1084)">
      <g>
        <g>
          <text
            font-size="3.5"
            gorn="0.4.71.0.0.0"
            font-family="DroidSans"
            id="pin22-TX"
            fill="#555555">TX</text>
        </g>
      </g>
    </g>
    <g
      transform="matrix(1 0 0 1 10.2671 29.9229)">
      <g>
        <g>
          <text
            font-size="3.5"
            gorn="0.4.72.0.0.0"
            font-family="DroidSans"
            id="pin21-RX"
            fill="#555555">RX</text>
        </g>
      </g>
    </g>
    <g
      transform="matrix(1 0 0 1 10.2671 22.7393)">
      <g>
        <g>
          <text
            font-size="3.5"
            font-family="DroidSans"
            fill="#555555">G</text>
        </g>
      </g>
    </g>
    <g
      transform="matrix(1 0 0 1 12.6821 22.7393)">
      <g>
        <g>
          <text
            font-size="3.5"
            font-family="DroidSans"
            fill="#555555">P</text>
        </g>
      </g>
    </g>
    <g
      transform="matrix(1 0 0 1 14.6987 22.7393)">
      <g>
        <g>
          <text
            font-size="3.5"
            font-family="DroidSans"
            fill="#555555">I</text>
        </g>
      </g>
    </g>
    <g
      transform="matrix(1 0 0 1 15.8511 22.7393)">
      <g>
        <g>
          <text
            font-size="3.5"
            font-family="DroidSans"
            fill="#555555">O</text>
        </g>
      </g>
    </g>
    <g
      transform="matrix(1 0 0 1 18.4487 22.7393)">
      <g>
        <g>
          <text
            font-size="3.5"
            font-family="DroidSans"
            fill="#555555">2</text>
        </g>
      </g>
    </g>
    <g
      transform="matrix(1 0 0 1 20.3765 22.7393)">
      <g>
        <g>
          <text
            font-size="3.5"
            font-family="DroidSans"
            fill="#555555">2</text>
        </g>
      </g>
    </g>
    <g
      transform="matrix(1 0 0 1 10.2671 15.5557)">
      <g>
        <g>
          <text
            font-size="3.5"
            gorn="0.4.79.0.0.0"
            font-family="DroidSans"
            id="pin19-GND"
            fill="#555555">GND</text>
        </g>
      </g>
    </g>
    <g
      transform="matrix(1 0 0 1 10.2681 8.3721)">
      <g>
        <g>
          <text
            font-size="3.5"
            font-family="DroidSans"
            fill="#555555">V</text>
        </g>
      </g>
    </g>
    <g
      transform="matrix(1 0 0 1 12.1509 8.3721)">
      <g>
        <g>
          <text
            font-size="3.5"
            font-family="DroidSans"
            fill="#555555">e</text>
        </g>
      </g>
    </g>
    <g
      transform="matrix(1 0 0 1 14.0239 8.3721)">
      <g>
        <g>
          <text
            font-size="3.5"
            font-family="DroidSans"
            fill="#555555">x</text>
        </g>
      </g>
    </g>
    <g
      transform="matrix(1 0 0 1 15.7739 8.3721)">
      <g>
        <g>
          <text
            font-size="3.5"
            font-family="DroidSans"
            fill="#555555">t</text>
        </g>
      </g>
    </g>
    <g
      transform="matrix(0.9957 0 0 1 66.0669 8.3721)">
      <g>
        <g>
          <text
            font-size="3.5"
            gorn="0.4.84.0.0.0"
            font-family="DroidSans"
            id="pin17-5V"
            fill="#555555">5V</text>
        </g>
      </g>
    </g>
    <g
      transform="matrix(1.0032 0 0 1 64.106 15.5562)">
      <g>
        <g>
          <text
            font-size="3.5"
            gorn="0.4.85.0.0.0"
            font-family="DroidSans"
            id="pin16-3V3"
            fill="#555555">3V3</text>
        </g>
      </g>
    </g>
    <g
      transform="matrix(1 0 0 1 62.606 22.7393)">
      <g>
        <g>
          <text
            font-size="3.5"
            gorn="0.4.86.0.0.0"
            font-family="DroidSans"
            id="pin15-GND"
            fill="#555555">GND</text>
        </g>
      </g>
    </g>
    <g
      transform="matrix(0.9957 0 0 1 57.9829 29.9248)">
      <g>
        <g>
          <text
            font-size="3.5"
            font-family="DroidSans"
            fill="#555555">G</text>
        </g>
      </g>
    </g>
    <g
      transform="matrix(0.9957 0 0 1 60.3872 29.9248)">
      <g>
        <g>
          <text
            font-size="3.5"
            font-family="DroidSans"
            fill="#555555">P</text>
        </g>
      </g>
    </g>
    <g
      transform="matrix(0.9957 0 0 1 62.395 29.9248)">
      <g>
        <g>
          <text
            font-size="3.5"
            font-family="DroidSans"
            fill="#555555">I</text>
        </g>
      </g>
    </g>
    <g
      transform="matrix(0.9957 0 0 1 63.5415 29.9248)">
      <g>
        <g>
          <text
            font-size="3.5"
            font-family="DroidSans"
            fill="#555555">O</text>
        </g>
      </g>
    </g>
    <g
      transform="matrix(0.9957 0 0 1 66.1284 29.9248)">
      <g>
        <g>
          <text
            font-size="3.5"
            font-family="DroidSans"
            fill="#555555">1</text>
        </g>
      </g>
    </g>
    <g
      transform="matrix(0.9957 0 0 1 68.0474 29.9248)">
      <g>
        <g>
          <text
            font-size="3.5"
            font-family="DroidSans"
            fill="#555555">6</text>
        </g>
      </g>
    </g>
    <g
      transform="matrix(1 0 0 1 59.8589 37.1084)">
      <g>
        <g>
          <text
            font-size="3.5"
            font-family="DroidSans"
            fill="#555555">G</text>
        </g>
      </g>
    </g>
    <g
      transform="matrix(1 0 0 1 62.2739 37.1084)">
      <g>
        <g>
          <text
            font-size="3.5"
            font-family="DroidSans"
            fill="#555555">P</text>
        </g>
      </g>
    </g>
    <g
      transform="matrix(1 0 0 1 64.2905 37.1084)">
      <g>
        <g>
          <text
            font-size="3.5"
            font-family="DroidSans"
            fill="#555555">I</text>
        </g>
      </g>
    </g>
    <g
      transform="matrix(1 0 0 1 65.4419 37.1084)">
      <g>
        <g>
          <text
            font-size="3.5"
            font-family="DroidSans"
            fill="#555555">O</text>
        </g>
      </g>
    </g>
    <g
      transform="matrix(1 0 0 1 68.0396 37.1084)">
      <g>
        <g>
          <text
            font-size="3.5"
            font-family="DroidSans"
            fill="#555555">4</text>
        </g>
      </g>
    </g>
    <g
      transform="matrix(1.0032 0 0 1 59.8267 44.2925)">
      <g>
        <g>
          <text
            font-size="3.5"
            font-family="DroidSans"
            fill="#555555">G</text>
        </g>
      </g>
    </g>
    <g
      transform="matrix(1.0032 0 0 1 62.2485 44.2925)">
      <g>
        <g>
          <text
            font-size="3.5"
            font-family="DroidSans"
            fill="#555555">P</text>
        </g>
      </g>
    </g>
    <g
      transform="matrix(1.0032 0 0 1 64.272 44.2925)">
      <g>
        <g>
          <text
            font-size="3.5"
            font-family="DroidSans"
            fill="#555555">I</text>
        </g>
      </g>
    </g>
    <g
      transform="matrix(1.0032 0 0 1 65.4272 44.2925)">
      <g>
        <g>
          <text
            font-size="3.5"
            font-family="DroidSans"
            fill="#555555">O</text>
        </g>
      </g>
    </g>
    <g
      transform="matrix(1.0032 0 0 1 68.0337 44.2925)">
      <g>
        <g>
          <text
            font-size="3.5"
            font-family="DroidSans"
            fill="#555555">0</text>
        </g>
      </g>
    </g>
    <g
      transform="matrix(1 0 0 1 59.8589 51.4756)">
      <g>
        <g>
          <text
            font-size="3.5"
            font-family="DroidSans"
            fill="#555555">G</text>
        </g>
      </g>
    </g>
    <g
      transform="matrix(1 0 0 1 62.2739 51.4756)">
      <g>
        <g>
          <text
            font-size="3.5"
            font-family="DroidSans"
            fill="#555555">P</text>
        </g>
      </g>
    </g>
    <g
      transform="matrix(1 0 0 1 64.2905 51.4756)">
      <g>
        <g>
          <text
            font-size="3.5"
            font-family="DroidSans"
            fill="#555555">I</text>
        </g>
      </g>
    </g>
    <g
      transform="matrix(1 0 0 1 65.4429 51.4756)">
      <g>
        <g>
          <text
            font-size="3.5"
            font-family="DroidSans"
            fill="#555555">O</text>
        </g>
      </g>
    </g>
    <g
      transform="matrix(1 0 0 1 68.0405 51.4756)">
      <g>
        <g>
          <text
            font-size="3.5"
            font-family="DroidSans"
            fill="#555555">2</text>
        </g>
      </g>
    </g>
    <g
      transform="matrix(1 0 0 1 57.9302 58.6611)">
      <g>
        <g>
          <text
            font-size="3.5"
            font-family="DroidSans"
            fill="#555555">G</text>
        </g>
      </g>
    </g>
    <g
      transform="matrix(1 0 0 1 60.3452 58.6611)">
      <g>
        <g>
          <text
            font-size="3.5"
            font-family="DroidSans"
            fill="#555555">P</text>
        </g>
      </g>
    </g>
    <g
      transform="matrix(1 0 0 1 62.3618 58.6611)">
      <g>
        <g>
          <text
            font-size="3.5"
            font-family="DroidSans"
            fill="#555555">I</text>
        </g>
      </g>
    </g>
    <g
      transform="matrix(1 0 0 1 63.5132 58.6611)">
      <g>
        <g>
          <text
            font-size="3.5"
            font-family="DroidSans"
            fill="#555555">O</text>
        </g>
      </g>
    </g>
    <g
      transform="matrix(1 0 0 1 66.1108 58.6611)">
      <g>
        <g>
          <text
            font-size="3.5"
            font-family="DroidSans"
            fill="#555555">1</text>
        </g>
      </g>
    </g>
    <g
      transform="matrix(1 0 0 1 68.0386 58.6611)">
      <g>
        <g>
          <text
            font-size="3.5"
            font-family="DroidSans"
            fill="#555555">5</text>
        </g>
      </g>
    </g>
    <g
      transform="matrix(1.0002 0 0 1 57.9282 65.8438)">
      <g>
        <g>
          <text
            font-size="3.5"
            font-family="DroidSans"
            fill="#555555">G</text>
        </g>
      </g>
    </g>
    <g
      transform="matrix(1.0002 0 0 1 60.3433 65.8438)">
      <g>
        <g>
          <text
            font-size="3.5"
            font-family="DroidSans"
            fill="#555555">P</text>
        </g>
      </g>
    </g>
    <g
      transform="matrix(1.0002 0 0 1 62.3599 65.8438)">
      <g>
        <g>
          <text
            font-size="3.5"
            font-family="DroidSans"
            fill="#555555">I</text>
        </g>
      </g>
    </g>
    <g
      transform="matrix(1.0002 0 0 1 63.5122 65.8438)">
      <g>
        <g>
          <text
            font-size="3.5"
            font-family="DroidSans"
            fill="#555555">O</text>
        </g>
      </g>
    </g>
    <g
      transform="matrix(1.0002 0 0 1 66.1099 65.8438)">
      <g>
        <g>
          <text
            font-size="3.5"
            font-family="DroidSans"
            fill="#555555">2</text>
        </g>
      </g>
    </g>
    <g
      transform="matrix(1.0002 0 0 1 68.0386 65.8438)">
      <g>
        <g>
          <text
            font-size="3.5"
            font-family="DroidSans"
            fill="#555555">7</text>
        </g>
      </g>
    </g>
    <g
      transform="matrix(1 0 0 1 57.9302 73.0283)">
      <g>
        <g>
          <text
            font-size="3.5"
            font-family="DroidSans"
            fill="#555555">G</text>
        </g>
      </g>
    </g>
    <g
      transform="matrix(1 0 0 1 60.3452 73.0283)">
      <g>
        <g>
          <text
            font-size="3.5"
            font-family="DroidSans"
            fill="#555555">P</text>
        </g>
      </g>
    </g>
    <g
      transform="matrix(1 0 0 1 62.3618 73.0283)">
      <g>
        <g>
          <text
            font-size="3.5"
            font-family="DroidSans"
            fill="#555555">I</text>
        </g>
      </g>
    </g>
    <g
      transform="matrix(1 0 0 1 63.5132 73.0283)">
      <g>
        <g>
          <text
            font-size="3.5"
            font-family="DroidSans"
            fill="#555555">O</text>
        </g>
      </g>
    </g>
    <g
      transform="matrix(1 0 0 1 66.1108 73.0283)">
      <g>
        <g>
          <text
            font-size="3.5"
            font-family="DroidSans"
            fill="#555555">3</text>
        </g>
      </g>
    </g>
    <g
      transform="matrix(1 0 0 1 68.0386 73.0283)">
      <g>
        <g>
          <text
            font-size="3.5"
            font-family="DroidSans"
            fill="#555555">2</text>
        </g>
      </g>
    </g>
    <g
      transform="matrix(1.0021 0 0 1 57.9058 80.2134)">
      <g>
        <g>
          <text
            font-size="3.5"
            font-family="DroidSans"
            fill="#555555">G</text>
        </g>
      </g>
    </g>
    <g
      transform="matrix(1.0021 0 0 1 60.3257 80.2134)">
      <g>
        <g>
          <text
            font-size="3.5"
            font-family="DroidSans"
            fill="#555555">P</text>
        </g>
      </g>
    </g>
    <g
      transform="matrix(1.0021 0 0 1 62.3462 80.2134)">
      <g>
        <g>
          <text
            font-size="3.5"
            font-family="DroidSans"
            fill="#555555">I</text>
        </g>
      </g>
    </g>
    <g
      transform="matrix(1.0021 0 0 1 63.5005 80.2134)">
      <g>
        <g>
          <text
            font-size="3.5"
            font-family="DroidSans"
            fill="#555555">O</text>
        </g>
      </g>
    </g>
    <g
      transform="matrix(1.0021 0 0 1 66.104 80.2134)">
      <g>
        <g>
          <text
            font-size="3.5"
            font-family="DroidSans"
            fill="#555555">3</text>
        </g>
      </g>
    </g>
    <g
      transform="matrix(1.0021 0 0 1 68.0356 80.2134)">
      <g>
        <g>
          <text
            font-size="3.5"
            font-family="DroidSans"
            fill="#555555">3</text>
        </g>
      </g>
    </g>
    <g
      transform="matrix(1 0 0 1 57.9302 87.3975)">
      <g>
        <g>
          <text
            font-size="3.5"
            font-family="DroidSans"
            fill="#555555">G</text>
        </g>
      </g>
    </g>
    <g
      transform="matrix(1 0 0 1 60.3452 87.3975)">
      <g>
        <g>
          <text
            font-size="3.5"
            font-family="DroidSans"
            fill="#555555">P</text>
        </g>
      </g>
    </g>
    <g
      transform="matrix(1 0 0 1 62.3618 87.3975)">
      <g>
        <g>
          <text
            font-size="3.5"
            font-family="DroidSans"
            fill="#555555">I</text>
        </g>
      </g>
    </g>
    <g
      transform="matrix(1 0 0 1 63.5132 87.3975)">
      <g>
        <g>
          <text
            font-size="3.5"
            font-family="DroidSans"
            fill="#555555">O</text>
        </g>
      </g>
    </g>
    <g
      transform="matrix(1 0 0 1 66.1108 87.3975)">
      <g>
        <g>
          <text
            font-size="3.5"
            font-family="DroidSans"
            fill="#555555">1</text>
        </g>
      </g>
    </g>
    <g
      transform="matrix(1 0 0 1 68.0386 87.3975)">
      <g>
        <g>
          <text
            font-size="3.5"
            font-family="DroidSans"
            fill="#555555">3</text>
        </g>
      </g>
    </g>
    <g
      transform="matrix(1 0 0 1 57.9302 94.5811)">
      <g>
        <g>
          <text
            font-size="3.5"
            font-family="DroidSans"
            fill="#555555">G</text>
        </g>
      </g>
    </g>
    <g
      transform="matrix(1 0 0 1 60.3452 94.5811)">
      <g>
        <g>
          <text
            font-size="3.5"
            font-family="DroidSans"
            fill="#555555">P</text>
        </g>
      </g>
    </g>
    <g
      transform="matrix(1 0 0 1 62.3618 94.5811)">
      <g>
        <g>
          <text
            font-size="3.5"
            font-family="DroidSans"
            fill="#555555">I</text>
        </g>
      </g>
    </g>
    <g
      transform="matrix(1 0 0 1 63.5132 94.5811)">
      <g>
        <g>
          <text
            font-size="3.5"
            font-family="DroidSans"
            fill="#555555">O</text>
        </g>
      </g>
    </g>
    <g
      transform="matrix(1 0 0 1 66.1108 94.5811)">
      <g>
        <g>
          <text
            font-size="3.5"
            font-family="DroidSans"
            fill="#555555">1</text>
        </g>
      </g>
    </g>
    <g
      transform="matrix(1 0 0 1 68.0386 94.5811)">
      <g>
        <g>
          <text
            font-size="3.5"
            font-family="DroidSans"
            fill="#555555">2</text>
        </g>
      </g>
    </g>
    <g
      transform="matrix(1 0 0 1 64.27 101.7666)">
      <g>
        <g>
          <text
            font-size="3.5"
            gorn="0.4.144.0.0.0"
            font-family="DroidSans"
            id="pin4-RST"
            fill="#555555">RST</text>
        </g>
      </g>
    </g>
    <g
      transform="matrix(1 0 0 1 57.9312 108.9502)">
      <g>
        <g>
          <text
            font-size="3.5"
            font-family="DroidSans"
            fill="#555555">G</text>
        </g>
      </g>
    </g>
    <g
      transform="matrix(1 0 0 1 60.3452 108.9502)">
      <g>
        <g>
          <text
            font-size="3.5"
            font-family="DroidSans"
            fill="#555555">P</text>
        </g>
      </g>
    </g>
    <g
      transform="matrix(1 0 0 1 62.3618 108.9502)">
      <g>
        <g>
          <text
            font-size="3.5"
            font-family="DroidSans"
            fill="#555555">I</text>
        </g>
      </g>
    </g>
    <g
      transform="matrix(1 0 0 1 63.5142 108.9502)">
      <g>
        <g>
          <text
            font-size="3.5"
            font-family="DroidSans"
            fill="#555555">O</text>
        </g>
      </g>
    </g>
    <g
      transform="matrix(1 0 0 1 66.1118 108.9502)">
      <g>
        <g>
          <text
            font-size="3.5"
            font-family="DroidSans"
            fill="#555555">1</text>
        </g>
      </g>
    </g>
    <g
      transform="matrix(1 0 0 1 68.0396 108.9502)">
      <g>
        <g>
          <text
            font-size="3.5"
            font-family="DroidSans"
            fill="#555555">4</text>
        </g>
      </g>
    </g>
    <g
      transform="matrix(1 0 0 1 57.9302 116.1338)">
      <g>
        <g>
          <text
            font-size="3.5"
            font-family="DroidSans"
            fill="#555555">G</text>
        </g>
      </g>
    </g>
    <g
      transform="matrix(1 0 0 1 60.3452 116.1338)">
      <g>
        <g>
          <text
            font-size="3.5"
            font-family="DroidSans"
            fill="#555555">P</text>
        </g>
      </g>
    </g>
    <g
      transform="matrix(1 0 0 1 62.3618 116.1338)">
      <g>
        <g>
          <text
            font-size="3.5"
            font-family="DroidSans"
            fill="#555555">I</text>
        </g>
      </g>
    </g>
    <g
      transform="matrix(1 0 0 1 63.5132 116.1338)">
      <g>
        <g>
          <text
            font-size="3.5"
            font-family="DroidSans"
            fill="#555555">O</text>
        </g>
      </g>
    </g>
    <g
      transform="matrix(1 0 0 1 66.1108 116.1338)">
      <g>
        <g>
          <text
            font-size="3.5"
            font-family="DroidSans"
            fill="#555555">2</text>
        </g>
      </g>
    </g>
    <g
      transform="matrix(1 0 0 1 68.0386 116.1338)">
      <g>
        <g>
          <text
            font-size="3.5"
            font-family="DroidSans"
            fill="#555555">6</text>
        </g>
      </g>
    </g>
    <g
      transform="matrix(1 0 0 1 57.9302 123.3174)">
      <g>
        <g>
          <text
            font-size="3.5"
            font-family="DroidSans"
            fill="#555555">G</text>
        </g>
      </g>
    </g>
    <g
      transform="matrix(1 0 0 1 60.3452 123.3174)">
      <g>
        <g>
          <text
            font-size="3.5"
            font-family="DroidSans"
            fill="#555555">P</text>
        </g>
      </g>
    </g>
    <g
      transform="matrix(1 0 0 1 62.3618 123.3174)">
      <g>
        <g>
          <text
            font-size="3.5"
            font-family="DroidSans"
            fill="#555555">I</text>
        </g>
      </g>
    </g>
    <g
      transform="matrix(1 0 0 1 63.5132 123.3174)">
      <g>
        <g>
          <text
            font-size="3.5"
            font-family="DroidSans"
            fill="#555555">O</text>
        </g>
      </g>
    </g>
    <g
      transform="matrix(1 0 0 1 66.1108 123.3174)">
      <g>
        <g>
          <text
            font-size="3.5"
            font-family="DroidSans"
            fill="#555555">2</text>
        </g>
      </g>
    </g>
    <g
      transform="matrix(1 0 0 1 68.0386 123.3174)">
      <g>
        <g>
          <text
            font-size="3.5"
            font-family="DroidSans"
            fill="#555555">5</text>
        </g>
      </g>
    </g>
  </g>
  <g
    transform="matrix(0 -1 1 0 42.1021 84.3774)">
    <g>
      <g>
        <text
          font-size="4.25"
          gorn="0.5.0.0.0"
          font-family="DroidSans"
          id="Name">Heltec Wireless Stick</text>
      </g>
    </g>
  </g>
</svg>
