<?xml version='1.0' encoding='UTF-8' standalone='no'?>
<svg
  xmlns:dc="http://purl.org/dc/elements/1.1/"
  xmlns:cc="http://creativecommons.org/ns#"
  xmlns:rdf="http://www.w3.org/1999/02/22-rdf-syntax-ns#"
  xmlns:svg="http://www.w3.org/2000/svg"
  xmlns="http://www.w3.org/2000/svg"
  version="1.2"
  height="0.53000003in"
  id="svg23"
  viewBox="0 0 462.12501 530.00006"
  gorn="0"
  width="0.462125in">
  <metadata
    id="metadata29">
    <rdf:RDF>
      <cc:Work
        rdf:about="">
        <dc:format>image/svg+xml</dc:format>
        <dc:type
          rdf:resource="http://purl.org/dc/dcmitype/StillImage"
        />
        <dc:title/>
      </cc:Work>
    </rdf:RDF>
  </metadata>
  <defs
    id="defs27"
  />
  <desc
    id="desc2">
    <referenceFile>taiway-100-dp1-t100b1m2qe_1_pcb.svg</referenceFile>
  </desc>
  <desc
    id="desc4">Fritzing
    footprint
    SVG</desc>
  <g
    id="silkscreen">
    <line
      y1="4.1666718"
      x1="4.999999"
      y2="525"
      id="line6"
      gorn="0.4.0"
      x2="4.999999"
      fill="#000000"
      stroke="#000000"
      stroke-width="9.99999809"
    />
    <line
      x2="455.29166"
      gorn="0.4.1"
      id="line8"
      y2="525"
      x1="6.2916594"
      y1="525"
      fill="#000000"
      stroke="#000000"
      stroke-width="10"
    />
    <line
      x2="457.125"
      gorn="0.4.2"
      id="line10"
      y2="6.2500153"
      x1="457.125"
      y1="525"
      fill="#000000"
      stroke="#000000"
      stroke-width="10.00000095"
    />
    <line
      x2="6.0416594"
      gorn="0.4.3"
      id="line12"
      y2="5"
      x1="455.04166"
      y1="5"
      fill="#000000"
      stroke="#000000"
      stroke-width="10"
    />
  </g>
  <g
    id="copper1">
    <g
      id="copper0">
      <circle
        cx="134.62216"
        cy="77.5"
        r="46.5"
        gorn="0.5.0.1"
        id="connector0pin"
        fill="none"
        stroke="#ffbf00"
        stroke-width="20"
      />
      <circle
        cx="139.8764"
        cy="262.5"
        r="46.5"
        gorn="0.5.0.2"
        id="connector1pin"
        fill="none"
        stroke="#ffbf00"
        stroke-width="20"
      />
      <circle
        id="connector2pin"
        gorn="0.5.0.2"
        r="46.5"
        cy="447.41531"
        cx="138.56285"
        fill="none"
        stroke="#ffbf00"
        stroke-width="20"
      />
      <circle
        id="connector3pin"
        gorn="0.5.0.1"
        cy="77.5"
        cx="327.79166"
        r="46.5"
        fill="none"
        stroke="#ffbf00"
        stroke-width="20"
      />
      <circle
        id="connector4pin"
        gorn="0.5.0.2"
        r="46.5"
        cy="262.5"
        cx="327.79166"
        fill="none"
        stroke="#ffbf00"
        stroke-width="20"
      />
      <circle
        r="46.5"
        cx="327.79166"
        cy="452.93225"
        gorn="0.5.0.2"
        id="connector5pin"
        fill="none"
        stroke="#ffbf00"
        stroke-width="20"
      />
    </g>
  </g>
</svg>
