<?xml version='1.0' encoding='UTF-8' standalone='no'?>
<svg
  xmlns:dc="http://purl.org/dc/elements/1.1/"
  xmlns:cc="http://creativecommons.org/ns#"
  xmlns:rdf="http://www.w3.org/1999/02/22-rdf-syntax-ns#"
  xmlns:svg="http://www.w3.org/2000/svg"
  xmlns="http://www.w3.org/2000/svg"
  version="1.2"
  x="0in"
  y="0in"
  viewBox="0 0 1500.9167 1496.584"
  height="1.4965841in"
  width="1.5009167in"
  id="svg70">
  <metadata
    id="metadata76">
    <rdf:RDF>
      <cc:Work
        rdf:about="">
        <dc:format>image/svg+xml</dc:format>
        <dc:type
          rdf:resource="http://purl.org/dc/dcmitype/StillImage"
        />
        <dc:title/>
      </cc:Work>
    </rdf:RDF>
  </metadata>
  <defs
    id="defs74"
  />
  <desc
    id="desc2">
    <referenceFile>PCB-LQFP64_a752d63e28d887bbc8cd54f2caf8f11f_2_pcb.svg</referenceFile>
  </desc>
  <g
    id="silkscreen">
    <rect
      y="5"
      x="5"
      height="1486.584"
      width="1490.9166"
      id="rect207"
      fill="none"
      stroke="#000000"
      stroke-width="10"
    />
    <circle
      r="25"
      cy="1399.9106"
      cx="263.07834"
      id="path213"
      fill="#000000"
      stroke="none"
      stroke-width="0"
    />
  </g>
  <g
    id="copper1">
    <g
      id="copper0">
      <circle
        r="25"
        id="connector63pin"
        gorn="0.1.0.0"
        cy="1096.5826"
        cx="200"
        display="inline"
        stroke-miterlimit="4"
        fill="none"
        stroke="#f7db13"
        stroke-width="20"
      />
      <circle
        r="25"
        id="connector62pin"
        gorn="0.1.0.1"
        cy="1096.5826"
        cx="100"
        display="inline"
        stroke-miterlimit="4"
        fill="none"
        stroke="#f7db13"
        stroke-width="20"
      />
      <circle
        r="25"
        id="connector61pin"
        gorn="0.1.0.2"
        cy="996.58557"
        cx="200"
        display="inline"
        stroke-miterlimit="4"
        fill="none"
        stroke="#f7db13"
        stroke-width="20"
      />
      <circle
        r="25"
        id="connector60pin"
        gorn="0.1.0.3"
        cy="996.58557"
        cx="100"
        display="inline"
        stroke-miterlimit="4"
        fill="none"
        stroke="#f7db13"
        stroke-width="20"
      />
      <circle
        r="25"
        id="connector59pin"
        gorn="0.1.0.4"
        cy="896.58557"
        cx="200"
        display="inline"
        stroke-miterlimit="4"
        fill="none"
        stroke="#f7db13"
        stroke-width="20"
      />
      <circle
        r="25"
        id="connector58pin"
        gorn="0.1.0.5"
        cy="896.58557"
        cx="100"
        display="inline"
        stroke-miterlimit="4"
        fill="none"
        stroke="#f7db13"
        stroke-width="20"
      />
      <circle
        r="25"
        id="connector57pin"
        gorn="0.1.0.6"
        cy="796.58557"
        cx="200"
        display="inline"
        stroke-miterlimit="4"
        fill="none"
        stroke="#f7db13"
        stroke-width="20"
      />
      <circle
        r="25"
        id="connector56pin"
        gorn="0.1.0.7"
        cy="796.58557"
        cx="100"
        display="inline"
        stroke-miterlimit="4"
        fill="none"
        stroke="#f7db13"
        stroke-width="20"
      />
      <circle
        r="25"
        id="connector55pin"
        gorn="0.1.0.8"
        cy="696.58557"
        cx="200"
        display="inline"
        stroke-miterlimit="4"
        fill="none"
        stroke="#f7db13"
        stroke-width="20"
      />
      <circle
        r="25"
        id="connector54pin"
        gorn="0.1.0.9"
        cy="696.58557"
        cx="100"
        display="inline"
        stroke-miterlimit="4"
        fill="none"
        stroke="#f7db13"
        stroke-width="20"
      />
      <circle
        r="25"
        id="connector53pin"
        gorn="0.1.0.10"
        cy="596.58557"
        cx="200"
        display="inline"
        stroke-miterlimit="4"
        fill="none"
        stroke="#f7db13"
        stroke-width="20"
      />
      <circle
        r="25"
        id="connector52pin"
        gorn="0.1.0.11"
        cy="596.58557"
        cx="100"
        display="inline"
        stroke-miterlimit="4"
        fill="none"
        stroke="#f7db13"
        stroke-width="20"
      />
      <circle
        r="25"
        id="connector51pin"
        gorn="0.1.0.12"
        cy="496.58554"
        cx="200"
        display="inline"
        stroke-miterlimit="4"
        fill="none"
        stroke="#f7db13"
        stroke-width="20"
      />
      <circle
        r="25"
        id="connector50pin"
        gorn="0.1.0.13"
        cy="496.58554"
        cx="100"
        display="inline"
        stroke-miterlimit="4"
        fill="none"
        stroke="#f7db13"
        stroke-width="20"
      />
      <circle
        r="25"
        id="connector49pin"
        gorn="0.1.0.14"
        cy="396.58554"
        cx="200"
        display="inline"
        stroke-miterlimit="4"
        fill="none"
        stroke="#f7db13"
        stroke-width="20"
      />
      <circle
        r="25"
        id="connector48pin"
        gorn="0.1.0.15"
        cy="396.58554"
        cx="100"
        display="inline"
        stroke-miterlimit="4"
        fill="none"
        stroke="#f7db13"
        stroke-width="20"
      />
      <circle
        id="connector47pin"
        gorn="0.1.0.16"
        cy="196.58556"
        cx="400"
        display="inline"
        stroke-miterlimit="4"
        r="25"
        fill="none"
        stroke="#f7db13"
        stroke-width="20"
      />
      <circle
        r="25"
        id="connector46pin"
        gorn="0.1.0.17"
        cy="96.585556"
        cx="400"
        display="inline"
        stroke-miterlimit="4"
        fill="none"
        stroke="#f7db13"
        stroke-width="20"
      />
      <circle
        id="connector45pin"
        gorn="0.1.0.18"
        cy="196.36855"
        cx="499.78299"
        display="inline"
        stroke-miterlimit="4"
        r="25"
        fill="none"
        stroke="#f7db13"
        stroke-width="20"
      />
      <circle
        r="25"
        id="connector44pin"
        gorn="0.1.0.19"
        cy="96.585556"
        cx="500"
        display="inline"
        stroke-miterlimit="4"
        fill="none"
        stroke="#f7db13"
        stroke-width="20"
      />
      <circle
        id="connector43pin"
        gorn="0.1.0.20"
        cy="196.36855"
        cx="599.78302"
        display="inline"
        stroke-miterlimit="4"
        r="25"
        fill="none"
        stroke="#f7db13"
        stroke-width="20"
      />
      <circle
        r="25"
        id="connector42pin"
        gorn="0.1.0.21"
        cy="96.585556"
        cx="600"
        display="inline"
        stroke-miterlimit="4"
        fill="none"
        stroke="#f7db13"
        stroke-width="20"
      />
      <circle
        id="connector41pin"
        gorn="0.1.0.22"
        cy="196.36855"
        cx="699.78302"
        display="inline"
        stroke-miterlimit="4"
        r="25"
        fill="none"
        stroke="#f7db13"
        stroke-width="20"
      />
      <circle
        r="25"
        id="connector40pin"
        gorn="0.1.0.23"
        cy="96.585556"
        cx="700"
        display="inline"
        stroke-miterlimit="4"
        fill="none"
        stroke="#f7db13"
        stroke-width="20"
      />
      <circle
        id="connector39pin"
        gorn="0.1.0.24"
        cy="196.36855"
        cx="799.78302"
        display="inline"
        stroke-miterlimit="4"
        r="25"
        fill="none"
        stroke="#f7db13"
        stroke-width="20"
      />
      <circle
        r="25"
        id="connector38pin"
        gorn="0.1.0.25"
        cy="96.585556"
        cx="800"
        display="inline"
        stroke-miterlimit="4"
        fill="none"
        stroke="#f7db13"
        stroke-width="20"
      />
      <circle
        id="connector37pin"
        gorn="0.1.0.26"
        cy="196.36855"
        cx="899.78302"
        display="inline"
        stroke-miterlimit="4"
        r="25"
        fill="none"
        stroke="#f7db13"
        stroke-width="20"
      />
      <circle
        r="25"
        id="connector36pin"
        gorn="0.1.0.27"
        cy="96.585556"
        cx="900"
        display="inline"
        stroke-miterlimit="4"
        fill="none"
        stroke="#f7db13"
        stroke-width="20"
      />
      <circle
        id="connector35pin"
        gorn="0.1.0.28"
        cy="196.36855"
        cx="999.78302"
        display="inline"
        stroke-miterlimit="4"
        r="25"
        fill="none"
        stroke="#f7db13"
        stroke-width="20"
      />
      <circle
        r="25"
        id="connector34pin"
        gorn="0.1.0.29"
        cy="96.585556"
        cx="1000"
        display="inline"
        stroke-miterlimit="4"
        fill="none"
        stroke="#f7db13"
        stroke-width="20"
      />
      <circle
        id="connector33pin"
        gorn="0.1.0.30"
        cy="196.36955"
        cx="1099.78"
        display="inline"
        stroke-miterlimit="4"
        r="25"
        fill="none"
        stroke="#f7db13"
        stroke-width="20"
      />
      <circle
        r="25"
        id="connector32pin"
        gorn="0.1.0.31"
        cy="96.585556"
        cx="1100"
        display="inline"
        stroke-miterlimit="4"
        fill="none"
        stroke="#f7db13"
        stroke-width="20"
      />
      <circle
        r="25"
        id="connector31pin"
        gorn="0.1.0.32"
        cy="396.58554"
        cx="1300"
        display="inline"
        stroke-miterlimit="4"
        fill="none"
        stroke="#f7db13"
        stroke-width="20"
      />
      <circle
        r="25"
        id="connector30pin"
        gorn="0.1.0.33"
        cy="396.58554"
        cx="1400"
        display="inline"
        stroke-miterlimit="4"
        fill="none"
        stroke="#f7db13"
        stroke-width="20"
      />
      <circle
        r="25"
        id="connector29pin"
        gorn="0.1.0.34"
        cy="496.58554"
        cx="1300"
        display="inline"
        stroke-miterlimit="4"
        fill="none"
        stroke="#f7db13"
        stroke-width="20"
      />
      <circle
        r="25"
        id="connector28pin"
        gorn="0.1.0.35"
        cy="496.58554"
        cx="1400"
        display="inline"
        stroke-miterlimit="4"
        fill="none"
        stroke="#f7db13"
        stroke-width="20"
      />
      <circle
        r="25"
        id="connector27pin"
        gorn="0.1.0.36"
        cy="596.58557"
        cx="1300"
        display="inline"
        stroke-miterlimit="4"
        fill="none"
        stroke="#f7db13"
        stroke-width="20"
      />
      <circle
        r="25"
        id="connector26pin"
        gorn="0.1.0.37"
        cy="596.58557"
        cx="1400"
        display="inline"
        stroke-miterlimit="4"
        fill="none"
        stroke="#f7db13"
        stroke-width="20"
      />
      <circle
        r="25"
        id="connector25pin"
        gorn="0.1.0.38"
        cy="696.58557"
        cx="1300"
        display="inline"
        stroke-miterlimit="4"
        fill="none"
        stroke="#f7db13"
        stroke-width="20"
      />
      <circle
        r="25"
        id="connector24pin"
        gorn="0.1.0.39"
        cy="696.58557"
        cx="1400"
        display="inline"
        stroke-miterlimit="4"
        fill="none"
        stroke="#f7db13"
        stroke-width="20"
      />
      <circle
        r="25"
        id="connector23pin"
        gorn="0.1.0.40"
        cy="796.58557"
        cx="1300"
        display="inline"
        stroke-miterlimit="4"
        fill="none"
        stroke="#f7db13"
        stroke-width="20"
      />
      <circle
        r="25"
        id="connector22pin"
        gorn="0.1.0.41"
        cy="796.58557"
        cx="1400"
        display="inline"
        stroke-miterlimit="4"
        fill="none"
        stroke="#f7db13"
        stroke-width="20"
      />
      <circle
        r="25"
        id="connector21pin"
        gorn="0.1.0.42"
        cy="896.58557"
        cx="1300"
        display="inline"
        stroke-miterlimit="4"
        fill="none"
        stroke="#f7db13"
        stroke-width="20"
      />
      <circle
        r="25"
        id="connector20pin"
        gorn="0.1.0.43"
        cy="896.58557"
        cx="1400"
        display="inline"
        stroke-miterlimit="4"
        fill="none"
        stroke="#f7db13"
        stroke-width="20"
      />
      <circle
        r="25"
        id="connector19pin"
        gorn="0.1.0.44"
        cy="996.58557"
        cx="1300"
        display="inline"
        stroke-miterlimit="4"
        fill="none"
        stroke="#f7db13"
        stroke-width="20"
      />
      <circle
        r="25"
        id="connector18pin"
        gorn="0.1.0.45"
        cy="996.58557"
        cx="1400"
        display="inline"
        stroke-miterlimit="4"
        fill="none"
        stroke="#f7db13"
        stroke-width="20"
      />
      <circle
        r="25"
        id="connector17pin"
        gorn="0.1.0.46"
        cy="1096.5826"
        cx="1300"
        display="inline"
        stroke-miterlimit="4"
        fill="none"
        stroke="#f7db13"
        stroke-width="20"
      />
      <circle
        r="25"
        id="connector16pin"
        gorn="0.1.0.47"
        cy="1096.5826"
        cx="1400"
        display="inline"
        stroke-miterlimit="4"
        fill="none"
        stroke="#f7db13"
        stroke-width="20"
      />
      <circle
        r="25"
        id="connector15pin"
        gorn="0.1.0.48"
        cy="1296.5826"
        cx="1100"
        display="inline"
        stroke-miterlimit="4"
        fill="none"
        stroke="#f7db13"
        stroke-width="20"
      />
      <circle
        r="25"
        id="connector14pin"
        gorn="0.1.0.49"
        cy="1396.5826"
        cx="1100"
        display="inline"
        stroke-miterlimit="4"
        fill="none"
        stroke="#f7db13"
        stroke-width="20"
      />
      <circle
        r="25"
        id="connector13pin"
        gorn="0.1.0.50"
        cy="1296.5826"
        cx="1000"
        display="inline"
        stroke-miterlimit="4"
        fill="none"
        stroke="#f7db13"
        stroke-width="20"
      />
      <circle
        r="25"
        id="connector12pin"
        gorn="0.1.0.51"
        cy="1396.5826"
        cx="1000"
        display="inline"
        stroke-miterlimit="4"
        fill="none"
        stroke="#f7db13"
        stroke-width="20"
      />
      <circle
        r="25"
        id="connector11pin"
        gorn="0.1.0.52"
        cy="1296.5826"
        cx="900"
        display="inline"
        stroke-miterlimit="4"
        fill="none"
        stroke="#f7db13"
        stroke-width="20"
      />
      <circle
        r="25"
        id="connector10pin"
        gorn="0.1.0.53"
        cy="1396.5826"
        cx="900"
        display="inline"
        stroke-miterlimit="4"
        fill="none"
        stroke="#f7db13"
        stroke-width="20"
      />
      <circle
        r="25"
        id="connector9pin"
        gorn="0.1.0.54"
        cy="1296.5826"
        cx="800"
        display="inline"
        stroke-miterlimit="4"
        fill="none"
        stroke="#f7db13"
        stroke-width="20"
      />
      <circle
        r="25"
        id="connector8pin"
        gorn="0.1.0.55"
        cy="1396.5826"
        cx="800"
        display="inline"
        stroke-miterlimit="4"
        fill="none"
        stroke="#f7db13"
        stroke-width="20"
      />
      <circle
        r="25"
        id="connector7pin"
        gorn="0.1.0.56"
        cy="1296.5826"
        cx="700"
        display="inline"
        stroke-miterlimit="4"
        fill="none"
        stroke="#f7db13"
        stroke-width="20"
      />
      <circle
        r="25"
        id="connector6pin"
        gorn="0.1.0.57"
        cy="1396.5826"
        cx="700"
        display="inline"
        stroke-miterlimit="4"
        fill="none"
        stroke="#f7db13"
        stroke-width="20"
      />
      <circle
        r="25"
        id="connector5pin"
        gorn="0.1.0.58"
        cy="1296.5826"
        cx="600"
        display="inline"
        stroke-miterlimit="4"
        fill="none"
        stroke="#f7db13"
        stroke-width="20"
      />
      <circle
        r="25"
        id="connector4pin"
        gorn="0.1.0.59"
        cy="1396.5826"
        cx="600"
        display="inline"
        stroke-miterlimit="4"
        fill="none"
        stroke="#f7db13"
        stroke-width="20"
      />
      <circle
        r="25"
        id="connector3pin"
        gorn="0.1.0.60"
        cy="1296.5826"
        cx="500"
        display="inline"
        stroke-miterlimit="4"
        fill="none"
        stroke="#f7db13"
        stroke-width="20"
      />
      <circle
        r="25"
        id="connector2pin"
        gorn="0.1.0.61"
        cy="1396.5826"
        cx="500"
        display="inline"
        stroke-miterlimit="4"
        fill="none"
        stroke="#f7db13"
        stroke-width="20"
      />
      <circle
        r="25"
        id="connector1pin"
        gorn="0.1.0.62"
        cy="1296.5826"
        cx="400"
        display="inline"
        stroke-miterlimit="4"
        fill="none"
        stroke="#f7db13"
        stroke-width="20"
      />
      <circle
        r="25"
        id="connector0pin"
        gorn="0.1.0.63"
        cy="1396.5826"
        cx="400"
        display="inline"
        stroke-miterlimit="4"
        fill="none"
        stroke="#f7db13"
        stroke-width="20"
      />
      <rect
        y="1371.584"
        x="374.99997"
        height="49.999996"
        width="49.999996"
        id="rect209"
        fill="none"
        stroke="#f7db13"
        stroke-width="20"
      />
    </g>
  </g>
</svg>
