<?xml version='1.0' encoding='UTF-8' standalone='no'?>
<!-- Created with Fritzing (http://www.fritzing.org/) -->
  <svg
  xmlns:dc="http://purl.org/dc/elements/1.1/"
  xmlns:cc="http://creativecommons.org/ns#"
  xmlns:rdf="http://www.w3.org/1999/02/22-rdf-syntax-ns#"
  xmlns:svg="http://www.w3.org/2000/svg"
  xmlns="http://www.w3.org/2000/svg"
  xmlns:sodipodi="http://sodipodi.sourceforge.net/DTD/sodipodi-0.dtd"
  xmlns:inkscape="http://www.inkscape.org/namespaces/inkscape"
  viewBox="0 0 31.238529 64.130978"
  x="0in"
  y="0in"
  height="2.5248415in"
  version="1.2"
  width="1.2298634in"
  id="svg548"
  sodipodi:docname="svg.schematic.atmega32_db7fcdc5bcf121325cddcb2eeec6bd02_1_schematic.svg"
  inkscape:version="0.92.3 (2405546, 2018-03-11)">
  <metadata
    id="metadata554">
    <rdf:RDF>
      <cc:Work
        rdf:about="">
        <dc:format>image/svg+xml</dc:format>
        <dc:type
          rdf:resource="http://purl.org/dc/dcmitype/StillImage"
        />
        <dc:title/>
      </cc:Work>
    </rdf:RDF>
  </metadata>
  <defs
    id="defs552">
    <inkscape:perspective
      sodipodi:type="inkscape:persp3d"
      inkscape:vp_x="0 : 32.065489 : 1"
      inkscape:vp_y="0 : 1000 : 0"
      inkscape:vp_z="31.238529 : 32.065489 : 1"
      inkscape:persp3d-origin="15.619264 : 21.376993 : 1"
      id="perspective1469"
    />
  </defs>
  <sodipodi:namedview
    pagecolor="#ffffff"
    bordercolor="#666666"
    borderopacity="1"
    objecttolerance="10"
    gridtolerance="10"
    guidetolerance="10"
    inkscape:pageopacity="0"
    inkscape:pageshadow="2"
    inkscape:window-width="1539"
    inkscape:window-height="845"
    id="namedview550"
    showgrid="false"
    inkscape:zoom="2.3289629"
    inkscape:cx="26.601405"
    inkscape:cy="105.48947"
    inkscape:window-x="1981"
    inkscape:window-y="27"
    inkscape:window-maximized="1"
    inkscape:current-layer="svg548"
    fit-margin-top="0"
    fit-margin-left="0"
    fit-margin-right="0"
    fit-margin-bottom="0"
    inkscape:measure-start="127.29,39.4699"
    inkscape:measure-end="106.015,35.3872"
    inkscape:snap-midpoints="true"
  />
  <desc
    id="desc302">
    <referenceFile>svg.schematic.atmega32_db7fcdc5bcf121325cddcb2eeec6bd02_1_schematic.svg</referenceFile>
  </desc>
  <g
    id="schematic">
    <rect
      x="5.5525093"
      y="5.5924501"
      height="53.022499"
      class="interior rect"
      width="20.002501"
      id="rect304"
      fill="#ffffff"
      stroke="#000000"
      stroke-width="0.3175"
      stroke-linecap="round"
    />
    <text
      transform="rotate(-90)"
      x="-6.0317116"
      y="15.820776"
      class="text"
      font-size="1.23471999"
      id="text357"
      font-family="'Droid Sans'"
      text-anchor="end"
      fill="#8c8c8c"
      stroke="none"
      stroke-width="0">AREF</text>
    <line
      y1="5.3771486"
      x2="15.396894"
      x1="15.396894"
      class="pin"
      y2="0.29714876"
      id="connector31pin"
      gorn="0.0.33"
      fill="none"
      stroke="#787878"
      stroke-width="0.246944"
      stroke-linecap="round"
    />
    <rect
      transform="rotate(-90)"
      x="-0.29714873"
      y="15.255967"
      height="0.246944"
      class="terminal"
      id="connector31terminal"
      width="0.246944"
      gorn="0.0.36"
      fill="none"
      stroke="none"
      stroke-width="0"
    />
    <line
      y1="58.755814"
      x2="15.553759"
      x1="15.553759"
      class="pin"
      y2="63.835815"
      id="connector30pin"
      gorn="0.0.37"
      fill="none"
      stroke="#787878"
      stroke-width="0.246944"
      stroke-linecap="round"
    />
    <text
      transform="rotate(90)"
      x="58.261913"
      y="-15.104304"
      class="text"
      font-size="1.23471999"
      id="text363"
      font-family="'Droid Sans'"
      text-anchor="end"
      fill="#8c8c8c"
      stroke="none"
      stroke-width="0">GND</text>
    <rect
      transform="rotate(90)"
      x="63.835815"
      y="-15.677231"
      height="0.246944"
      class="terminal"
      id="connector30terminal"
      width="0.246944"
      gorn="0.0.40"
      fill="none"
      stroke="none"
      stroke-width="0"
    />
    <text
      transform="rotate(-90)"
      x="-6.2224989"
      y="18.400568"
      class="text"
      font-size="1.23471999"
      id="text369"
      font-family="'Droid Sans'"
      text-anchor="end"
      fill="#8c8c8c"
      stroke="none"
      stroke-width="0">AVCC</text>
    <line
      y1="5.326942"
      x2="18.031445"
      x1="18.031445"
      class="pin"
      y2="0.246944"
      id="connector29pin"
      gorn="0.0.41"
      fill="none"
      stroke="#787878"
      stroke-width="0.246944"
      stroke-linecap="round"
    />
    <rect
      transform="rotate(-90)"
      x="-0.246944"
      y="17.907972"
      height="0.246944"
      class="terminal"
      id="connector29terminal"
      width="0.246944"
      gorn="0.0.44"
      fill="none"
      stroke="none"
      stroke-width="0"
    />
    <line
      y1="8.6010504"
      x2="5.5172296"
      x1="0.43723106"
      class="pin"
      y2="8.6010504"
      id="connector8pin"
      gorn="0.0.113"
      fill="none"
      stroke="#787878"
      stroke-width="0.246944"
      stroke-linecap="round"
    />
    <text
      x="6.0111194"
      y="9.0505056"
      class="text"
      font-size="1.23471999"
      id="text477"
      font-family="'Droid Sans'"
      text-anchor="start"
      fill="#8c8c8c"
      stroke="none"
      stroke-width="0">RESET</text>
    <rect
      x="0.19028708"
      y="8.4775782"
      height="0.246944"
      class="terminal"
      id="connector8terminal"
      width="0.246944"
      gorn="0.0.116"
      fill="none"
      stroke="none"
      stroke-width="0"
    />
    <text
      transform="rotate(-90)"
      x="-8.7751589"
      y="13.114024"
      class="text"
      font-size="1.23471999"
      id="text483"
      font-family="'Droid Sans'"
      text-anchor="start"
      fill="#8c8c8c"
      stroke="none"
      stroke-width="0">VCC</text>
    <line
      y1="0.28736883"
      x2="12.7449"
      x1="12.7449"
      class="pin"
      y2="5.3673668"
      id="connector9pin"
      gorn="0.0.117"
      fill="none"
      stroke="#787878"
      stroke-width="0.246944"
      stroke-linecap="round"
    />
    <rect
      transform="rotate(90)"
      x="0.040424868"
      y="-12.868372"
      height="0.246944"
      class="terminal"
      id="connector9terminal"
      width="0.246944"
      gorn="0.0.120"
      fill="none"
      stroke="none"
      stroke-width="0"
    />
    <line
      y1="63.884029"
      x2="15.553759"
      x1="15.553759"
      class="pin"
      y2="58.804031"
      id="connector10pin"
      gorn="0.0.121"
      fill="none"
      stroke="none"
      stroke-width="0.246944"
      stroke-linecap="round"
    />
    <rect
      transform="rotate(-90)"
      x="-64.130974"
      y="15.430288"
      height="0.246944"
      class="terminal"
      id="connector10terminal"
      width="0.246944"
      gorn="0.0.124"
      fill="none"
      stroke="none"
      stroke-width="0"
    />
    <line
      y1="8.6010504"
      x2="25.539551"
      x1="30.619549"
      class="pin"
      y2="8.6010504"
      id="connector11pin"
      gorn="0.0.125"
      fill="none"
      stroke="#787878"
      stroke-width="0.246944"
      stroke-linecap="round"
    />
    <text
      x="21.113411"
      y="8.9282808"
      class="text"
      font-size="1.23471999"
      id="text495"
      font-family="'Droid Sans'"
      text-anchor="start"
      fill="#8c8c8c"
      stroke="none"
      stroke-width="0">XTAL2</text>
    <rect
      transform="scale(-1,1)"
      x="-30.866493"
      y="8.4775782"
      height="0.246944"
      class="terminal"
      id="connector11terminal"
      width="0.246944"
      gorn="0.0.128"
      fill="none"
      stroke="none"
      stroke-width="0"
    />
    <line
      y1="11.141051"
      x2="25.539551"
      x1="30.619549"
      class="pin"
      y2="11.141051"
      id="connector12pin"
      gorn="0.0.129"
      fill="none"
      stroke="#787878"
      stroke-width="0.246944"
      stroke-linecap="round"
    />
    <text
      x="21.113411"
      y="11.46828"
      class="text"
      font-size="1.23471999"
      id="text501"
      font-family="'Droid Sans'"
      text-anchor="start"
      fill="#8c8c8c"
      stroke="none"
      stroke-width="0">XTAL1</text>
    <rect
      transform="scale(-1,1)"
      x="-30.866493"
      y="11.01755"
      height="0.246944"
      class="terminal"
      id="connector12terminal"
      width="0.246944"
      gorn="0.0.132"
      fill="none"
      stroke="none"
      stroke-width="0"
    />
    <text
      transform="rotate(-90)"
      x="-34.443268"
      y="16.188681"
      class="text"
      id="label"
      gorn="0.0.161"
      font-size="1.49931002"
      font-family="'Droid Sans'"
      text-anchor="middle"
      fill="#000000"
      stroke="none"
      stroke-width="0">ATMEGA32</text>
    <line
      y1="16.202192"
      x2="5.4368982"
      x1="0.35689977"
      class="pin"
      y2="16.202192"
      id="connector0pin"
      gorn="0.0.81"
      fill="none"
      stroke="#787878"
      stroke-width="0.246944"
      stroke-linecap="round"
    />
    <text
      x="5.930788"
      y="16.603113"
      class="text"
      font-size="1.23471999"
      id="text429"
      font-family="'Droid Sans'"
      text-anchor="start"
      fill="#8c8c8c"
      stroke="none"
      stroke-width="0">XCK/T0</text>
    <rect
      x="0.10995581"
      y="16.07872"
      height="0.246944"
      class="terminal"
      id="connector0terminal"
      width="0.246944"
      gorn="0.0.84"
      fill="none"
      stroke="none"
      stroke-width="0"
    />
    <line
      y1="18.742191"
      x2="5.4368982"
      x1="0.35689977"
      class="pin"
      y2="18.742191"
      id="connector1pin"
      gorn="0.0.85"
      fill="none"
      stroke="#787878"
      stroke-width="0.246944"
      stroke-linecap="round"
    />
    <text
      x="5.930788"
      y="19.192249"
      class="text"
      font-size="1.23471999"
      id="text435"
      font-family="'Droid Sans'"
      text-anchor="start"
      fill="#8c8c8c"
      stroke="none"
      stroke-width="0">T1</text>
    <rect
      x="0.10995581"
      y="18.618719"
      height="0.246944"
      class="terminal"
      id="connector1terminal"
      width="0.246944"
      gorn="0.0.88"
      fill="none"
      stroke="none"
      stroke-width="0"
    />
    <line
      y1="21.28219"
      x2="5.4368982"
      x1="0.35689977"
      class="pin"
      y2="21.28219"
      id="connector2pin"
      gorn="0.0.89"
      fill="none"
      stroke="#787878"
      stroke-width="0.246944"
      stroke-linecap="round"
    />
    <text
      x="5.930788"
      y="21.683113"
      class="text"
      font-size="1.23471999"
      id="text441"
      font-family="'Droid Sans'"
      text-anchor="start"
      fill="#8c8c8c"
      stroke="none"
      stroke-width="0">INT2/AIN0</text>
    <rect
      x="0.10995581"
      y="21.15872"
      height="0.246944"
      class="terminal"
      id="connector2terminal"
      width="0.246944"
      gorn="0.0.92"
      fill="none"
      stroke="none"
      stroke-width="0"
    />
    <line
      y1="23.822191"
      x2="5.4368982"
      x1="0.35689977"
      class="pin"
      y2="23.822191"
      id="connector3pin"
      gorn="0.0.93"
      fill="none"
      stroke="#787878"
      stroke-width="0.246944"
      stroke-linecap="round"
    />
    <text
      x="5.930788"
      y="24.223114"
      class="text"
      font-size="1.23471999"
      id="text447"
      font-family="'Droid Sans'"
      text-anchor="start"
      fill="#8c8c8c"
      stroke="none"
      stroke-width="0">OC0/AIN1</text>
    <rect
      x="0.10995581"
      y="23.698719"
      height="0.246944"
      class="terminal"
      id="connector3terminal"
      width="0.246944"
      gorn="0.0.96"
      fill="none"
      stroke="none"
      stroke-width="0"
    />
    <line
      y1="26.36219"
      x2="5.4368982"
      x1="0.35689977"
      class="pin"
      y2="26.36219"
      id="connector4pin"
      gorn="0.0.97"
      fill="none"
      stroke="#787878"
      stroke-width="0.246944"
      stroke-linecap="round"
    />
    <text
      x="5.930788"
      y="26.811646"
      class="text"
      font-size="1.23471999"
      id="text453"
      font-family="'Droid Sans'"
      text-anchor="start"
      fill="#8c8c8c"
      stroke="none"
      stroke-width="0">SS</text>
    <rect
      x="0.10995581"
      y="26.238718"
      height="0.246944"
      class="terminal"
      id="connector4terminal"
      width="0.246944"
      gorn="0.0.100"
      fill="none"
      stroke="none"
      stroke-width="0"
    />
    <line
      y1="28.902191"
      x2="5.4368982"
      x1="0.35689977"
      class="pin"
      y2="28.902191"
      id="connector5pin"
      gorn="0.0.101"
      fill="none"
      stroke="#787878"
      stroke-width="0.246944"
      stroke-linecap="round"
    />
    <text
      x="5.930788"
      y="29.351646"
      class="text"
      font-size="1.23471999"
      id="text459"
      font-family="'Droid Sans'"
      text-anchor="start"
      fill="#8c8c8c"
      stroke="none"
      stroke-width="0">MOSI</text>
    <rect
      x="0.10995581"
      y="28.778719"
      height="0.246944"
      class="terminal"
      id="connector5terminal"
      width="0.246944"
      gorn="0.0.104"
      fill="none"
      stroke="none"
      stroke-width="0"
    />
    <line
      y1="31.442192"
      x2="5.4368982"
      x1="0.35689977"
      class="pin"
      y2="31.442192"
      id="connector6pin"
      gorn="0.0.105"
      fill="none"
      stroke="#787878"
      stroke-width="0.246944"
      stroke-linecap="round"
    />
    <text
      x="5.930788"
      y="31.891647"
      class="text"
      font-size="1.23471999"
      id="text465"
      font-family="'Droid Sans'"
      text-anchor="start"
      fill="#8c8c8c"
      stroke="none"
      stroke-width="0">MISO</text>
    <rect
      x="0.10995581"
      y="31.31872"
      height="0.246944"
      class="terminal"
      id="connector6terminal"
      width="0.246944"
      gorn="0.0.108"
      fill="none"
      stroke="none"
      stroke-width="0"
    />
    <line
      y1="33.982189"
      x2="5.4368982"
      x1="0.35689977"
      class="pin"
      y2="33.982189"
      id="connector7pin"
      gorn="0.0.109"
      fill="none"
      stroke="#787878"
      stroke-width="0.246944"
      stroke-linecap="round"
    />
    <text
      x="5.930788"
      y="34.431644"
      class="text"
      font-size="1.23471999"
      id="text471"
      font-family="'Droid Sans'"
      text-anchor="start"
      fill="#8c8c8c"
      stroke="none"
      stroke-width="0">SCK</text>
    <rect
      x="0.10995581"
      y="33.858719"
      height="0.246944"
      class="terminal"
      id="connector7terminal"
      width="0.246944"
      gorn="0.0.112"
      fill="none"
      stroke="none"
      stroke-width="0"
    />
    <path
      inkscape:connector-curvature="0"
      id="path5513"
      d="m 11.233684,14.772533 h 1.306464 v 20.619424 h -1.195276"
      fill="none"
      stroke="#000000"
      stroke-width="0.07403506"
      stroke-linecap="butt"
      stroke-linejoin="miter"
      stroke-miterlimit="4"
      stroke-dasharray="none"
      stroke-opacity="1"
    />
    <text
      transform="rotate(90)"
      x="22.993555"
      y="-13.065198"
      class="text"
      font-size="1.23471999"
      id="text477-8"
      font-family="'Droid Sans'"
      text-anchor="start"
      fill="#8c8c8c"
      stroke="none"
      stroke-width="0">PORT
      B</text>
    <line
      y1="54.764256"
      x2="0.293926"
      x1="5.2799625"
      class="pin"
      y2="54.764256"
      id="connector20pin"
      gorn="0.0.77"
      fill="none"
      stroke="#787878"
      stroke-width="0.24464948"
      stroke-linecap="round"
    />
    <text
      x="8.6040049"
      y="55.252182"
      class="text"
      font-size="1.23471999"
      id="text423"
      font-family="'Droid Sans'"
      text-anchor="end"
      fill="#8c8c8c"
      stroke="none"
      stroke-width="0">OC2</text>
    <rect
      transform="scale(-1,1)"
      x="-0.246944"
      y="54.640785"
      height="0.246944"
      class="terminal"
      id="connector20terminal"
      width="0.246944"
      gorn="0.0.80"
      fill="none"
      stroke="none"
      stroke-width="0"
    />
    <line
      y1="36.953686"
      x2="5.4368982"
      x1="0.3568998"
      class="pin"
      y2="36.953686"
      id="connector13pin"
      gorn="0.0.133"
      fill="none"
      stroke="#787878"
      stroke-width="0.246944"
      stroke-linecap="round"
    />
    <text
      x="5.930788"
      y="37.403744"
      class="text"
      font-size="1.23471999"
      id="text507"
      font-family="'Droid Sans'"
      text-anchor="start"
      fill="#8c8c8c"
      stroke="none"
      stroke-width="0">RXD</text>
    <rect
      x="0.1099558"
      y="36.830212"
      height="0.246944"
      class="terminal"
      id="connector13terminal"
      width="0.246944"
      gorn="0.0.136"
      fill="none"
      stroke="none"
      stroke-width="0"
    />
    <line
      y1="39.493683"
      x2="5.4368982"
      x1="0.3568998"
      class="pin"
      y2="39.493683"
      id="connector14pin"
      gorn="0.0.137"
      fill="none"
      stroke="#787878"
      stroke-width="0.246944"
      stroke-linecap="round"
    />
    <text
      x="6.0555863"
      y="39.943741"
      class="text"
      font-size="1.23471999"
      id="text513"
      font-family="'Droid Sans'"
      text-anchor="start"
      fill="#8c8c8c"
      stroke="none"
      stroke-width="0">TXD</text>
    <rect
      x="0.1099558"
      y="39.370213"
      height="0.246944"
      class="terminal"
      id="connector14terminal"
      width="0.246944"
      gorn="0.0.140"
      fill="none"
      stroke="none"
      stroke-width="0"
    />
    <line
      y1="42.033684"
      x2="5.4368982"
      x1="0.3568998"
      class="pin"
      y2="42.033684"
      id="connector15pin"
      gorn="0.0.141"
      fill="none"
      stroke="#787878"
      stroke-width="0.246944"
      stroke-linecap="round"
    />
    <text
      x="5.930788"
      y="42.483139"
      class="text"
      font-size="1.23471999"
      id="text519"
      font-family="'Droid Sans'"
      text-anchor="start"
      fill="#8c8c8c"
      stroke="none"
      stroke-width="0">INT0</text>
    <rect
      x="0.1099558"
      y="41.910213"
      height="0.246944"
      class="terminal"
      id="connector15terminal"
      width="0.246944"
      gorn="0.0.144"
      fill="none"
      stroke="none"
      stroke-width="0"
    />
    <line
      y1="44.573685"
      x2="5.4368982"
      x1="0.3568998"
      class="pin"
      y2="44.573685"
      id="connector16pin"
      gorn="0.0.145"
      fill="none"
      stroke="#787878"
      stroke-width="0.246944"
      stroke-linecap="round"
    />
    <text
      x="5.930788"
      y="45.023743"
      class="text"
      font-size="1.23471999"
      id="text525"
      font-family="'Droid Sans'"
      text-anchor="start"
      fill="#8c8c8c"
      stroke="none"
      stroke-width="0">INT1</text>
    <rect
      x="0.1099558"
      y="44.450214"
      height="0.246944"
      class="terminal"
      id="connector16terminal"
      width="0.246944"
      gorn="0.0.148"
      fill="none"
      stroke="none"
      stroke-width="0"
    />
    <line
      y1="47.113686"
      x2="5.4368982"
      x1="0.3568998"
      class="pin"
      y2="47.113686"
      id="connector17pin"
      gorn="0.0.149"
      fill="none"
      stroke="#787878"
      stroke-width="0.246944"
      stroke-linecap="round"
    />
    <text
      x="5.9826365"
      y="47.563141"
      class="text"
      font-size="1.23471999"
      id="text531"
      font-family="'Droid Sans'"
      text-anchor="start"
      fill="#8c8c8c"
      stroke="none"
      stroke-width="0">OC1B</text>
    <rect
      x="0.1099558"
      y="46.990215"
      height="0.246944"
      class="terminal"
      id="connector17terminal"
      width="0.246944"
      gorn="0.0.152"
      fill="none"
      stroke="none"
      stroke-width="0"
    />
    <line
      y1="49.653683"
      x2="5.4368982"
      x1="0.3568998"
      class="pin"
      y2="49.653683"
      id="connector18pin"
      gorn="0.0.153"
      fill="none"
      stroke="#787878"
      stroke-width="0.246944"
      stroke-linecap="round"
    />
    <text
      x="5.9826365"
      y="50.103138"
      class="text"
      font-size="1.23471999"
      id="text537"
      font-family="'Droid Sans'"
      text-anchor="start"
      fill="#8c8c8c"
      stroke="none"
      stroke-width="0">OC1A</text>
    <rect
      x="0.1099558"
      y="49.530212"
      height="0.246944"
      class="terminal"
      id="connector18terminal"
      width="0.246944"
      gorn="0.0.156"
      fill="none"
      stroke="none"
      stroke-width="0"
    />
    <line
      y1="52.228203"
      x2="5.4368982"
      x1="0.3568998"
      class="pin"
      y2="52.228203"
      id="connector19pin"
      gorn="0.0.157"
      fill="none"
      stroke="#787878"
      stroke-width="0.246944"
      stroke-linecap="round"
    />
    <text
      x="5.930788"
      y="52.677658"
      class="text"
      font-size="1.23471999"
      id="text543"
      font-family="'Droid Sans'"
      text-anchor="start"
      fill="#8c8c8c"
      stroke="none"
      stroke-width="0">ICP1</text>
    <rect
      x="0.1099558"
      y="52.104733"
      height="0.246944"
      class="terminal"
      id="connector19terminal"
      width="0.246944"
      gorn="0.0.160"
      fill="none"
      stroke="none"
      stroke-width="0"
    />
    <path
      inkscape:connector-curvature="0"
      id="path5513-2"
      d="m 11.233684,35.346532 h 1.306464 v 20.619425 h -1.195276"
      fill="none"
      stroke="#000000"
      stroke-width="0.07403506"
      stroke-linecap="butt"
      stroke-linejoin="miter"
      stroke-miterlimit="4"
      stroke-dasharray="none"
      stroke-opacity="1"
    />
    <text
      transform="rotate(90)"
      x="42.285038"
      y="-13.126538"
      class="text"
      font-size="1.23471999"
      id="text477-8-6"
      font-family="'Droid Sans'"
      text-anchor="start"
      fill="#8c8c8c"
      stroke="none"
      stroke-width="0">PORT
      D</text>
    <line
      y1="16.29553"
      x2="30.670259"
      x1="25.59026"
      class="pin"
      y2="16.29553"
      id="connector39pin"
      gorn="0.0.1"
      fill="none"
      stroke="#787878"
      stroke-width="0.246944"
      stroke-linecap="round"
    />
    <rect
      x="30.670259"
      y="16.17206"
      height="0.246944"
      class="terminal"
      id="connector39terminal"
      width="0.246944"
      gorn="0.0.4"
      fill="none"
      stroke="none"
      stroke-width="0"
    />
    <text
      x="25.096359"
      y="16.542469"
      class="text"
      font-size="1.23471999"
      id="text309"
      font-family="'Droid Sans'"
      text-anchor="end"
      fill="#8c8c8c"
      stroke="none"
      stroke-width="0">ADCO</text>
    <line
      y1="18.835529"
      x2="30.670259"
      x1="25.59026"
      class="pin"
      y2="18.835529"
      id="connector38pin"
      gorn="0.0.5"
      fill="none"
      stroke="#787878"
      stroke-width="0.246944"
      stroke-linecap="round"
    />
    <rect
      x="30.670259"
      y="18.712061"
      height="0.246944"
      class="terminal"
      id="connector38terminal"
      width="0.246944"
      gorn="0.0.8"
      fill="none"
      stroke="none"
      stroke-width="0"
    />
    <text
      x="25.096359"
      y="19.08247"
      class="text"
      font-size="1.23471999"
      id="text315"
      font-family="'Droid Sans'"
      text-anchor="end"
      fill="#8c8c8c"
      stroke="none"
      stroke-width="0">ADC1</text>
    <line
      y1="21.37553"
      x2="30.670259"
      x1="25.59026"
      class="pin"
      y2="21.37553"
      id="connector37pin"
      gorn="0.0.9"
      fill="none"
      stroke="#787878"
      stroke-width="0.246944"
      stroke-linecap="round"
    />
    <rect
      x="30.670259"
      y="21.25206"
      height="0.246944"
      class="terminal"
      id="connector37terminal"
      width="0.246944"
      gorn="0.0.12"
      fill="none"
      stroke="none"
      stroke-width="0"
    />
    <text
      x="25.096359"
      y="21.622471"
      class="text"
      font-size="1.23471999"
      id="text321"
      font-family="'Droid Sans'"
      text-anchor="end"
      fill="#8c8c8c"
      stroke="none"
      stroke-width="0">ADC2</text>
    <line
      y1="23.915529"
      x2="30.670259"
      x1="25.59026"
      class="pin"
      y2="23.915529"
      id="connector36pin"
      gorn="0.0.13"
      fill="none"
      stroke="#787878"
      stroke-width="0.246944"
      stroke-linecap="round"
    />
    <text
      x="25.096359"
      y="24.16243"
      class="text"
      font-size="1.23471999"
      id="text327"
      font-family="'Droid Sans'"
      text-anchor="end"
      fill="#8c8c8c"
      stroke="none"
      stroke-width="0">ADC3</text>
    <rect
      x="30.670259"
      y="23.79203"
      height="0.246944"
      class="terminal"
      id="connector36terminal"
      width="0.246944"
      gorn="0.0.16"
      fill="none"
      stroke="none"
      stroke-width="0"
    />
    <line
      y1="26.45553"
      x2="30.670259"
      x1="25.59026"
      class="pin"
      y2="26.45553"
      id="connector35pin"
      gorn="0.0.17"
      fill="none"
      stroke="#787878"
      stroke-width="0.246944"
      stroke-linecap="round"
    />
    <rect
      x="30.670259"
      y="26.332029"
      height="0.246944"
      class="terminal"
      id="connector35terminal"
      width="0.246944"
      gorn="0.0.20"
      fill="none"
      stroke="none"
      stroke-width="0"
    />
    <text
      x="25.096359"
      y="26.702431"
      class="text"
      font-size="1.23471999"
      id="text333"
      font-family="'Droid Sans'"
      text-anchor="end"
      fill="#8c8c8c"
      stroke="none"
      stroke-width="0">ADC4</text>
    <line
      y1="28.995529"
      x2="30.670259"
      x1="25.59026"
      class="pin"
      y2="28.995529"
      id="connector34pin"
      gorn="0.0.21"
      fill="none"
      stroke="#787878"
      stroke-width="0.246944"
      stroke-linecap="round"
    />
    <text
      x="25.096359"
      y="29.24243"
      class="text"
      font-size="1.23471999"
      id="text339"
      font-family="'Droid Sans'"
      text-anchor="end"
      fill="#8c8c8c"
      stroke="none"
      stroke-width="0">ADC5</text>
    <rect
      x="30.670259"
      y="28.87203"
      height="0.246944"
      class="terminal"
      id="connector34terminal"
      width="0.246944"
      gorn="0.0.24"
      fill="none"
      stroke="none"
      stroke-width="0"
    />
    <line
      y1="31.535528"
      x2="30.670259"
      x1="25.59026"
      class="pin"
      y2="31.535528"
      id="connector33pin"
      gorn="0.0.25"
      fill="none"
      stroke="#787878"
      stroke-width="0.246944"
      stroke-linecap="round"
    />
    <text
      x="25.096359"
      y="31.782427"
      class="text"
      font-size="1.23471999"
      id="text345"
      font-family="'Droid Sans'"
      text-anchor="end"
      fill="#8c8c8c"
      stroke="none"
      stroke-width="0">ADC6</text>
    <rect
      x="30.670259"
      y="31.412027"
      height="0.246944"
      class="terminal"
      id="connector33terminal"
      width="0.246944"
      gorn="0.0.28"
      fill="none"
      stroke="none"
      stroke-width="0"
    />
    <line
      y1="34.075523"
      x2="30.670259"
      x1="25.59026"
      class="pin"
      y2="34.075523"
      id="connector32pin"
      gorn="0.0.29"
      fill="none"
      stroke="#787878"
      stroke-width="0.246944"
      stroke-linecap="round"
    />
    <text
      x="25.096359"
      y="34.322426"
      class="text"
      font-size="1.23471999"
      id="text351"
      font-family="'Droid Sans'"
      text-anchor="end"
      fill="#8c8c8c"
      stroke="none"
      stroke-width="0">ADC7</text>
    <rect
      x="30.670259"
      y="33.952026"
      height="0.246944"
      class="terminal"
      id="connector32terminal"
      width="0.246944"
      gorn="0.0.32"
      fill="none"
      stroke="none"
      stroke-width="0"
    />
    <path
      inkscape:connector-curvature="0"
      id="path5513-6"
      d="m 20.05799,14.772532 h -1.306464 v 20.619425 h 1.195276"
      fill="none"
      stroke="#000000"
      stroke-width="0.07403506"
      stroke-linecap="butt"
      stroke-linejoin="miter"
      stroke-miterlimit="4"
      stroke-dasharray="none"
      stroke-opacity="1"
    />
    <text
      transform="rotate(-90)"
      x="-27.545982"
      y="18.202677"
      class="text"
      font-size="1.23471999"
      id="text477-8-4"
      font-family="'Droid Sans'"
      text-anchor="start"
      fill="#8c8c8c"
      stroke="none"
      stroke-width="0">PORT
      A</text>
    <line
      y1="54.768112"
      x2="30.58993"
      x1="25.509928"
      class="pin"
      y2="54.768112"
      id="connector28pin"
      gorn="0.0.45"
      fill="none"
      stroke="#787878"
      stroke-width="0.246944"
      stroke-linecap="round"
    />
    <text
      x="25.134193"
      y="55.217567"
      class="text"
      font-size="1.23471999"
      id="text375"
      font-family="'Droid Sans'"
      text-anchor="end"
      fill="#8c8c8c"
      stroke="none"
      stroke-width="0">TOSC2</text>
    <rect
      x="30.670261"
      y="54.644642"
      height="0.246944"
      class="terminal"
      id="connector28terminal"
      width="0.246944"
      gorn="0.0.48"
      fill="none"
      stroke="none"
      stroke-width="0"
    />
    <line
      y1="52.166908"
      x2="30.58993"
      x1="25.509928"
      class="pin"
      y2="52.166908"
      id="connector27pin"
      gorn="0.0.49"
      fill="none"
      stroke="#787878"
      stroke-width="0.246944"
      stroke-linecap="round"
    />
    <text
      x="25.124548"
      y="52.616364"
      class="text"
      font-size="1.23471999"
      id="text381"
      font-family="'Droid Sans'"
      text-anchor="end"
      fill="#8c8c8c"
      stroke="none"
      stroke-width="0">TOSC1</text>
    <rect
      x="30.830923"
      y="52.043438"
      height="0.246944"
      class="terminal"
      id="connector27terminal"
      width="0.246944"
      gorn="0.0.52"
      fill="none"
      stroke="none"
      stroke-width="0"
    />
    <line
      y1="49.565704"
      x2="30.58993"
      x1="25.509928"
      class="pin"
      y2="49.565704"
      id="connector26pin"
      gorn="0.0.53"
      fill="none"
      stroke="#787878"
      stroke-width="0.246944"
      stroke-linecap="round"
    />
    <text
      x="25.13118"
      y="50.015762"
      class="text"
      font-size="1.23471999"
      id="text387"
      font-family="'Droid Sans'"
      text-anchor="end"
      fill="#8c8c8c"
      stroke="none"
      stroke-width="0">TDI</text>
    <rect
      x="30.58993"
      y="49.442234"
      height="0.246944"
      class="terminal"
      id="connector26terminal"
      width="0.246944"
      gorn="0.0.56"
      fill="none"
      stroke="none"
      stroke-width="0"
    />
    <line
      y1="46.9645"
      x2="30.58993"
      x1="25.509928"
      class="pin"
      y2="46.9645"
      id="connector25pin"
      gorn="0.0.57"
      fill="none"
      stroke="#787878"
      stroke-width="0.246944"
      stroke-linecap="round"
    />
    <text
      x="25.07933"
      y="47.413956"
      class="text"
      font-size="1.23471999"
      id="text393"
      font-family="'Droid Sans'"
      text-anchor="end"
      fill="#8c8c8c"
      stroke="none"
      stroke-width="0">TDO</text>
    <rect
      x="30.830923"
      y="46.84103"
      height="0.246944"
      class="terminal"
      id="connector25terminal"
      width="0.246944"
      gorn="0.0.60"
      fill="none"
      stroke="none"
      stroke-width="0"
    />
    <line
      y1="44.363297"
      x2="30.58993"
      x1="25.509928"
      class="pin"
      y2="44.363297"
      id="connector24pin"
      gorn="0.0.61"
      fill="none"
      stroke="#787878"
      stroke-width="0.246944"
      stroke-linecap="round"
    />
    <text
      x="25.078728"
      y="44.529865"
      class="text"
      font-size="1.23471999"
      id="text399"
      font-family="'Droid Sans'"
      text-anchor="end"
      fill="#8c8c8c"
      stroke="none"
      stroke-width="0">TMS</text>
    <rect
      x="30.991587"
      y="44.239826"
      height="0.246944"
      class="terminal"
      id="connector24terminal"
      width="0.246944"
      gorn="0.0.64"
      fill="none"
      stroke="none"
      stroke-width="0"
    />
    <line
      y1="41.762093"
      x2="30.58993"
      x1="25.509928"
      class="pin"
      y2="41.762093"
      id="connector23pin"
      gorn="0.0.65"
      fill="none"
      stroke="#787878"
      stroke-width="0.246944"
      stroke-linecap="round"
    />
    <text
      x="24.984676"
      y="42.089321"
      class="text"
      font-size="1.23471999"
      id="text405"
      font-family="'Droid Sans'"
      text-anchor="end"
      fill="#8c8c8c"
      stroke="none"
      stroke-width="0">TCK</text>
    <rect
      x="30.670261"
      y="41.638622"
      height="0.246944"
      class="terminal"
      id="connector23terminal"
      width="0.246944"
      gorn="0.0.68"
      fill="none"
      stroke="none"
      stroke-width="0"
    />
    <line
      y1="39.160885"
      x2="30.58993"
      x1="25.509928"
      class="pin"
      y2="39.160885"
      id="connector22pin"
      gorn="0.0.69"
      fill="none"
      stroke="#787878"
      stroke-width="0.246944"
      stroke-linecap="round"
    />
    <text
      x="25.019646"
      y="39.488117"
      class="text"
      font-size="1.23471999"
      id="text411"
      font-family="'Droid Sans'"
      text-anchor="end"
      fill="#8c8c8c"
      stroke="none"
      stroke-width="0">SDA</text>
    <rect
      x="30.911255"
      y="39.037415"
      height="0.246944"
      class="terminal"
      id="connector22terminal"
      width="0.246944"
      gorn="0.0.72"
      fill="none"
      stroke="none"
      stroke-width="0"
    />
    <line
      y1="36.559681"
      x2="30.58993"
      x1="25.509928"
      class="pin"
      y2="36.559681"
      id="connector21pin"
      gorn="0.0.73"
      fill="none"
      stroke="#787878"
      stroke-width="0.246944"
      stroke-linecap="round"
    />
    <text
      x="25.016027"
      y="36.806583"
      class="text"
      font-size="1.23471999"
      id="text417"
      font-family="'Droid Sans'"
      text-anchor="end"
      fill="#8c8c8c"
      stroke="none"
      stroke-width="0">SCL</text>
    <rect
      x="30.58993"
      y="36.436207"
      height="0.246944"
      class="terminal"
      id="connector21terminal"
      width="0.246944"
      gorn="0.0.76"
      fill="none"
      stroke="none"
      stroke-width="0"
    />
    <path
      inkscape:connector-curvature="0"
      id="path5513-6-4"
      d="m 20.05799,35.346532 h -1.306464 v 20.619425 h 1.195276"
      fill="none"
      stroke="#000000"
      stroke-width="0.07403506"
      stroke-linecap="butt"
      stroke-linejoin="miter"
      stroke-miterlimit="4"
      stroke-dasharray="none"
      stroke-opacity="1"
    />
    <text
      transform="rotate(-90)"
      x="-46.96225"
      y="18.122345"
      class="text"
      font-size="1.23471999"
      id="text477-8-4-9"
      font-family="'Droid Sans'"
      text-anchor="start"
      fill="#8c8c8c"
      stroke="none"
      stroke-width="0">PORT
      C</text>
  </g>
</svg>
