<?xml version='1.0' encoding='UTF-8' standalone='no'?>
<svg xmlns="http://www.w3.org/2000/svg" height="1.01in"  width="1.3096533in" gorn="0" version="1.2" y="0in" x="0in" id="svg2" viewBox="0 0 1309.6533 1010">
    <metadata  id="metadata41">
        <rdf:RDF xmlns:rdf="http://www.w3.org/1999/02/22-rdf-syntax-ns#">
            <cc:Work xmlns:rdf="http://www.w3.org/1999/02/22-rdf-syntax-ns#" xmlns:cc="http://creativecommons.org/ns#" rdf:about="">
                <dc:format xmlns:dc="http://purl.org/dc/elements/1.1/">image/svg+xml</dc:format>
                <dc:type xmlns:rdf="http://www.w3.org/1999/02/22-rdf-syntax-ns#" xmlns:dc="http://purl.org/dc/elements/1.1/" rdf:resource="http://purl.org/dc/dcmitype/StillImage"/>
                <dc:title xmlns:dc="http://purl.org/dc/elements/1.1/"/>
            </cc:Work>
        </rdf:RDF>
    </metadata>
    <defs  id="defs39"/>
    <desc  id="desc4">
        <referenceFile >sv17f_1_schematic.svg</referenceFile>
    </desc>
    <g  gorn="0.3" id="schematic">
        <rect stroke="#000000" height="1000"  width="1100" stroke-linecap="round" stroke-linejoin="round" stroke-width="10" gorn="0.3.0" y="5" x="105" fill="none" id="symbol"/>
        <text  font-size="60" gorn="0.3.1" y="405.44727" x="705" text-anchor="middle" font-family="'Droid Sans'" fill="#000000" id="label">DY-SV17F</text>
        <text  font-size="35" gorn="0.3.2" y="85" x="75" text-anchor="end" font-family="'Droid Sans'" fill="#555555" id="pin0num">1</text>
        <text  font-size="49" gorn="0.3.3" y="117" x="125" text-anchor="start" font-family="'Droid Sans'" fill="#555555" id="pin0label">TX/IO0</text>
        <text  font-size="35" gorn="0.3.4" y="185" x="75" text-anchor="end" font-family="'Droid Sans'" fill="#555555" id="pin1num">2</text>
        <text  font-size="49" gorn="0.3.5" y="217" x="125" text-anchor="start" font-family="'Droid Sans'" fill="#555555" id="pin1label">RX/IO1</text>
        <text  font-size="35" gorn="0.3.6" y="285" x="75" text-anchor="end" font-family="'Droid Sans'" fill="#555555" id="pin2num">3</text>
        <text  font-size="49" gorn="0.3.7" y="317" x="125" text-anchor="start" font-family="'Droid Sans'" fill="#555555" id="pin2label">IO2</text>
        <text  font-size="35" gorn="0.3.8" y="385" x="75" text-anchor="end" font-family="'Droid Sans'" fill="#555555" id="pin3num">4</text>
        <text  font-size="49" gorn="0.3.9" y="417" x="125" text-anchor="start" font-family="'Droid Sans'" fill="#555555" id="pin3label">IO3</text>
        <text  font-size="35" gorn="0.3.10" y="485" x="75" text-anchor="end" font-family="'Droid Sans'" fill="#555555" id="pin4num">5</text>
        <text  font-size="49" gorn="0.3.11" y="517" x="125" text-anchor="start" font-family="'Droid Sans'" fill="#555555" id="pin4label">ONE_LINE/IO4</text>
        <text  font-size="35" gorn="0.3.12" y="585" x="75" text-anchor="end" font-family="'Droid Sans'" fill="#555555" id="pin5num">6</text>
        <text  font-size="49" gorn="0.3.13" y="617" x="125" text-anchor="start" font-family="'Droid Sans'" fill="#555555" id="pin5label">IO5</text>
        <text  font-size="35" gorn="0.3.14" y="685" x="75" text-anchor="end" font-family="'Droid Sans'" fill="#555555" id="pin6num">7</text>
        <text  font-size="49" gorn="0.3.15" y="717" x="125" text-anchor="start" font-family="'Droid Sans'" fill="#555555" id="pin6label">IO6</text>
        <text  font-size="35" gorn="0.3.16" y="785" x="75" text-anchor="end" font-family="'Droid Sans'" fill="#555555" id="pin7num">8</text>
        <text  font-size="49" gorn="0.3.17" y="817" x="125" text-anchor="start" font-family="'Droid Sans'" fill="#555555" id="pin7label">IO7</text>
        <text  font-size="35" gorn="0.3.18" y="885" x="75" text-anchor="end" font-family="'Droid Sans'" fill="#555555" id="pin8num">9</text>
        <text  font-size="49" gorn="0.3.19" y="917" x="125" text-anchor="start" font-family="'Droid Sans'" fill="#555555" id="pin8label">GND</text>
        <text  font-size="35" gorn="0.3.20" y="885" x="1234.6533" text-anchor="start" font-family="'Droid Sans'" fill="#555555" id="pin9num">10</text>
        <text  font-size="49" gorn="0.3.21" y="917" x="1184.6533" text-anchor="end" font-family="'Droid Sans'" fill="#555555" id="pin9label">CON1</text>
        <text  font-size="35" gorn="0.3.22" y="785" x="1234.6533" text-anchor="start" font-family="'Droid Sans'" fill="#555555" id="pin10num">11</text>
        <text  font-size="49" gorn="0.3.23" y="817" x="1184.6533" text-anchor="end" font-family="'Droid Sans'" fill="#555555" id="pin10label">CON2</text>
        <text  font-size="35" gorn="0.3.24" y="685" x="1234.6533" text-anchor="start" font-family="'Droid Sans'" fill="#555555" id="pin11num">12</text>
        <text  font-size="49" gorn="0.3.25" y="717" x="1184.6533" text-anchor="end" font-family="'Droid Sans'" fill="#555555" id="pin11label">CON3/BUSY</text>
        <text  font-size="35" gorn="0.3.26" y="585" x="1234.6533" text-anchor="start" font-family="'Droid Sans'" fill="#555555" id="pin12num">13</text>
        <text  font-size="49" gorn="0.3.27" y="617" x="1184.6533" text-anchor="end" font-family="'Droid Sans'" fill="#555555" id="pin12label">V5</text>
        <text  font-size="35" gorn="0.3.28" y="485" x="1234.6533" text-anchor="start" font-family="'Droid Sans'" fill="#555555" id="pin13num">14</text>
        <text  font-size="49" gorn="0.3.29" y="517" x="1184.6533" text-anchor="end" font-family="'Droid Sans'" fill="#555555" id="pin13label">V33</text>
        <text  font-size="35" gorn="0.3.30" y="385" x="1234.6533" text-anchor="start" font-family="'Droid Sans'" fill="#555555" id="pin14num">15</text>
        <text  font-size="49" gorn="0.3.31" y="417" x="1184.6533" text-anchor="end" font-family="'Droid Sans'" fill="#555555" id="pin14label">DACR</text>
        <text  font-size="35" gorn="0.3.32" y="285" x="1234.6533" text-anchor="start" font-family="'Droid Sans'" fill="#555555" id="pin15num">16</text>
        <text  font-size="49" gorn="0.3.33" y="317" x="1184.6533" text-anchor="end" font-family="'Droid Sans'" fill="#555555" id="pin15label">DACL</text>
        <text  font-size="35" gorn="0.3.34" y="185" x="1234.6533" text-anchor="start" font-family="'Droid Sans'" fill="#555555" id="pin16num">17</text>
        <text  font-size="49" gorn="0.3.35" y="217" x="1184.6533" text-anchor="end" font-family="'Droid Sans'" fill="#555555" id="pin16label">SPK-</text>
        <text  font-size="35" gorn="0.3.36" y="85" x="1234.6533" text-anchor="start" font-family="'Droid Sans'" fill="#555555" id="pin17num">18</text>
        <text  font-size="49" gorn="0.3.37" y="117" x="1184.6533" text-anchor="end" font-family="'Droid Sans'" fill="#555555" id="pin17label">SPK+</text>
        <line stroke="#555555"  x2="5" stroke-linecap="round" y2="105" stroke-width="10" x1="105" gorn="0.3.38" y1="105" fill="none" id="connector0pin"/>
        <rect stroke="none" height="10"  width="10" stroke-width="0" gorn="0.3.39" y="100" x="0" fill="none" id="connector0terminal"/>
        <line stroke="#555555"  x2="5" stroke-linecap="round" y2="205" stroke-width="10" x1="105" gorn="0.3.40" y1="205" fill="none" id="connector1pin"/>
        <rect stroke="none" height="10"  width="10" stroke-width="0" gorn="0.3.41" y="200" x="0" fill="none" id="connector1terminal"/>
        <line stroke="#555555"  x2="5" stroke-linecap="round" y2="305" stroke-width="10" x1="105" gorn="0.3.42" y1="305" fill="none" id="connector2pin"/>
        <rect stroke="none" height="10"  width="10" stroke-width="0" gorn="0.3.43" y="300" x="0" fill="none" id="connector2terminal"/>
        <line stroke="#555555"  x2="5" stroke-linecap="round" y2="405" stroke-width="10" x1="105" gorn="0.3.44" y1="405" fill="none" id="connector3pin"/>
        <rect stroke="none" height="10"  width="10" stroke-width="0" gorn="0.3.45" y="400" x="0" fill="none" id="connector3terminal"/>
        <line stroke="#555555"  x2="5" stroke-linecap="round" y2="505" stroke-width="10" x1="105" gorn="0.3.46" y1="505" fill="none" id="connector4pin"/>
        <rect stroke="none" height="10"  width="10" stroke-width="0" gorn="0.3.47" y="500" x="0" fill="none" id="connector4terminal"/>
        <line stroke="#555555"  x2="5" stroke-linecap="round" y2="605" stroke-width="10" x1="105" gorn="0.3.48" y1="605" fill="none" id="connector5pin"/>
        <rect stroke="none" height="10"  width="10" stroke-width="0" gorn="0.3.49" y="600" x="0" fill="none" id="connector5terminal"/>
        <line stroke="#555555"  x2="5" stroke-linecap="round" y2="705" stroke-width="10" x1="105" gorn="0.3.50" y1="705" fill="none" id="connector6pin"/>
        <rect stroke="none" height="10"  width="10" stroke-width="0" gorn="0.3.51" y="700" x="0" fill="none" id="connector6terminal"/>
        <line stroke="#555555"  x2="5" stroke-linecap="round" y2="805" stroke-width="10" x1="105" gorn="0.3.52" y1="805" fill="none" id="connector7pin"/>
        <rect stroke="none" height="10"  width="10" stroke-width="0" gorn="0.3.53" y="800" x="0" fill="none" id="connector7terminal"/>
        <line stroke="#555555"  x2="5" stroke-linecap="round" y2="905" stroke-width="10" x1="105" gorn="0.3.54" y1="905" fill="none" id="connector8pin"/>
        <rect stroke="none" height="10"  width="10" stroke-width="0" gorn="0.3.55" y="900" x="0" fill="none" id="connector8terminal"/>
        <line stroke="#555555"  x2="1304.6533" stroke-linecap="round" y2="905" stroke-width="10" x1="1204.6533" gorn="0.3.56" y1="905" fill="none" id="connector9pin"/>
        <rect stroke="none" height="10"  width="10" stroke-width="0" gorn="0.3.57" y="900" x="1299.6533" fill="none" id="connector9terminal"/>
        <line stroke="#555555"  x2="1304.6533" stroke-linecap="round" y2="805" stroke-width="10" x1="1204.6533" gorn="0.3.58" y1="805" fill="none" id="connector10pin"/>
        <rect stroke="none" height="10"  width="10" stroke-width="0" gorn="0.3.59" y="800" x="1299.6533" fill="none" id="connector10terminal"/>
        <line stroke="#555555"  x2="1304.6533" stroke-linecap="round" y2="705" stroke-width="10" x1="1204.6533" gorn="0.3.60" y1="705" fill="none" id="connector11pin"/>
        <rect stroke="none" height="10"  width="10" stroke-width="0" gorn="0.3.61" y="700" x="1299.6533" fill="none" id="connector11terminal"/>
        <line stroke="#555555"  x2="1304.6533" stroke-linecap="round" y2="605" stroke-width="10" x1="1204.6533" gorn="0.3.62" y1="605" fill="none" id="connector12pin"/>
        <rect stroke="none" height="10"  width="10" stroke-width="0" gorn="0.3.63" y="600" x="1299.6533" fill="none" id="connector12terminal"/>
        <line stroke="#555555"  x2="1304.6533" stroke-linecap="round" y2="505" stroke-width="10" x1="1204.6533" gorn="0.3.64" y1="505" fill="none" id="connector13pin"/>
        <rect stroke="none" height="10"  width="10" stroke-width="0" gorn="0.3.65" y="500" x="1299.6533" fill="none" id="connector13terminal"/>
        <line stroke="#555555"  x2="1304.6533" stroke-linecap="round" y2="405" stroke-width="10" x1="1204.6533" gorn="0.3.66" y1="405" fill="none" id="connector14pin"/>
        <rect stroke="none" height="10"  width="10" stroke-width="0" gorn="0.3.67" y="400" x="1299.6533" fill="none" id="connector14terminal"/>
        <line stroke="#555555"  x2="1304.6533" stroke-linecap="round" y2="305" stroke-width="10" x1="1204.6533" gorn="0.3.68" y1="305" fill="none" id="connector15pin"/>
        <rect stroke="none" height="10"  width="10" stroke-width="0" gorn="0.3.69" y="300" x="1299.6533" fill="none" id="connector15terminal"/>
        <line stroke="#555555"  x2="1304.6533" stroke-linecap="round" y2="205" stroke-width="10" x1="1204.6533" gorn="0.3.70" y1="205" fill="none" id="connector16pin"/>
        <rect stroke="none" height="10"  width="10" stroke-width="0" gorn="0.3.71" y="200" x="1299.6533" fill="none" id="connector16terminal"/>
        <line stroke="#555555"  x2="1304.6533" stroke-linecap="round" y2="105" stroke-width="10" x1="1204.6533" gorn="0.3.72" y1="105" fill="none" id="connector17pin"/>
        <rect stroke="none" height="10"  width="10" stroke-width="0" gorn="0.3.73" y="100" x="1299.6533" fill="none" id="connector17terminal"/>
        <text  font-size="60" gorn="0.3.74" y="505.89453" x="705" text-anchor="middle" font-family="'Droid Sans'" fill="#000000" id="text414">AUDIO</text>
        <text  font-size="60" gorn="0.3.75" y="605.95312" x="705" text-anchor="middle" font-family="'Droid Sans'" fill="#000000" id="text416">MP3 Player</text>
    </g>
</svg>
