<?xml version="1.0" encoding="UTF-8" standalone="no"?>
<!-- Generator: Adobe Illustrator 16.0.0, SVG Export Plug-In . SVG Version: 6.00 Build 0)  -->

<svg
   xmlns:dc="http://purl.org/dc/elements/1.1/"
   xmlns:cc="http://creativecommons.org/ns#"
   xmlns:rdf="http://www.w3.org/1999/02/22-rdf-syntax-ns#"
   xmlns:svg="http://www.w3.org/2000/svg"
   xmlns="http://www.w3.org/2000/svg"
   xmlns:sodipodi="http://sodipodi.sourceforge.net/DTD/sodipodi-0.dtd"
   xmlns:inkscape="http://www.inkscape.org/namespaces/inkscape"
   version="1.1"
   id="Layer_1"
   x="0px"
   y="0px"
   width="16.091px"
   height="16.091px"
   viewBox="0 0 16.091 16.091"
   enable-background="new 0 0 16.091 16.091"
   xml:space="preserve"
   sodipodi:docname="svg.pcb.AG_Inductor 0507.svg"
   inkscape:version="0.92.4 (5da689c313, 2019-01-14)"><metadata
   id="metadata16"><rdf:RDF><cc:Work
       rdf:about=""><dc:format>image/svg+xml</dc:format><dc:type
         rdf:resource="http://purl.org/dc/dcmitype/StillImage" /></cc:Work></rdf:RDF></metadata><defs
   id="defs14" /><sodipodi:namedview
   pagecolor="#ffffff"
   bordercolor="#666666"
   borderopacity="1"
   objecttolerance="10"
   gridtolerance="10"
   guidetolerance="10"
   inkscape:pageopacity="0"
   inkscape:pageshadow="2"
   inkscape:window-width="1366"
   inkscape:window-height="716"
   id="namedview12"
   showgrid="false"
   inkscape:zoom="14.666584"
   inkscape:cx="-6.6136736"
   inkscape:cy="8.0454998"
   inkscape:window-x="-8"
   inkscape:window-y="-8"
   inkscape:window-maximized="1"
   inkscape:current-layer="Layer_1" />
<g
   id="g9">
	<g
   id="silkscreen">
		<circle
   cx="8.0450001"
   cy="8.0450001"
   r="7.7950001"
   id="circle2"
   style="fill:none;stroke:#000000;stroke-width:0.5" />
	</g>
	<g
   id="copper1">
		<g
   id="copper0">
			<circle
   id="connector0pin"
   cx="11.589"
   cy="8.0439997"
   r="2.0880001"
   style="fill:none;stroke:#ffbf00;stroke-width:1.44000006" />
			<circle
   id="connector1pin"
   cx="4.5019999"
   cy="8.0450001"
   r="2.0880001"
   style="fill:none;stroke:#ffbf00;stroke-width:1.44000006" />
		</g>
	</g>
</g>
</svg>