<?xml version='1.0' encoding='UTF-8' standalone='no'?>
<!-- Generator: Adobe Illustrator 15.0.0, SVG Export Plug-In . SVG Version: 6.00 Build 0)  -->
<svg xmlns="http://www.w3.org/2000/svg" width="184.7462" x="0px" version="1.1" y="0px" gorn="0"  height="101.13533" viewBox="0 0 184.7462 101.13533" xmlns:xml="http://www.w3.org/XML/1998/namespace" enable-background="new 0 0 141 72" id="Layer_1" xml:space="preserve">
    <desc >
        <referenceFile >LuaNode32_ESP32_Fritzing_PCB.svg</referenceFile>
    </desc>
    <metadata  id="metadata369">
        <rdf:RDF xmlns:rdf="http://www.w3.org/1999/02/22-rdf-syntax-ns#">
            <cc:Work xmlns:rdf="http://www.w3.org/1999/02/22-rdf-syntax-ns#" xmlns:cc="http://creativecommons.org/ns#" rdf:about="">
                <dc:format xmlns:dc="http://purl.org/dc/elements/1.1/">image/svg+xml</dc:format>
                <dc:type xmlns:rdf="http://www.w3.org/1999/02/22-rdf-syntax-ns#" rdf:resource="http://purl.org/dc/dcmitype/StillImage" xmlns:dc="http://purl.org/dc/elements/1.1/"/>
                <dc:title xmlns:dc="http://purl.org/dc/elements/1.1/"/>
            </cc:Work>
        </rdf:RDF>
    </metadata>
    <defs  id="defs367"/>
    <g gorn="0.3"  id="g1181">
        <g  transform="matrix(0.93884925,0,0,0.93884925,1.876436,0.30485741)">
            <g >
                <g >
                    <g >
                        <g >
                            <g gorn="0.3.0.0.0.0.0.0"  id="silkscreen">
                                <path stroke-opacity="1" fill="none" gorn="0.3.0.0.0.0.0.0.0"  stroke="#000000" fill-opacity="1" style="stroke-miterlimit:4;stroke-dasharray:none;" id="rect4922" stroke-width="0.75" d="m 185.39208,107.02294 c 4.99414,0 9.01367,-4.01495 9.01367,-9.00195 V 9.0522401 c 0,-4.987004 -4.01953,-9.00195401 -9.01367,-9.00195401 H 9.0659063 c -4.9941302,0 -9.01562021,4.01495001 -9.01562021,9.00195401 V 98.02099 c 0,4.987 4.02149001,9.00195 9.01562021,9.00195 z m -0.41797,-4.18359 a 5.4914861,5.4914861 0 0 1 -5.49218,-5.49219 5.4914861,5.4914861 0 0 1 5.49218,-5.49219 5.4914861,5.4914861 0 0 1 5.49024,5.49219 5.4914861,5.4914861 0 0 1 -5.49024,5.49219 z m -176.2753837,0 a 5.4914861,5.4914861 0 0 1 -5.4921902,-5.49219 5.4914861,5.4914861 0 0 1 5.4921902,-5.49219 5.4914861,5.4914861 0 0 1 5.4902297,5.49219 5.4914861,5.4914861 0 0 1 -5.4902297,5.49219 z M 184.97411,14.56982 a 5.4914861,5.4914861 0 0 1 -5.49218,-5.4921899 5.4914861,5.4914861 0 0 1 5.49218,-5.490234 5.4914861,5.4914861 0 0 1 5.49024,5.490234 5.4914861,5.4914861 0 0 1 -5.49024,5.4921899 z m -176.2753837,0 A 5.4914861,5.4914861 0 0 1 3.2065361,9.0776301 5.4914861,5.4914861 0 0 1 8.6987263,3.5873961 5.4914861,5.4914861 0 0 1 14.188956,9.0776301 5.4914861,5.4914861 0 0 1 8.6987263,14.56982 Z"/>
                                <g  transform="scale(-1)">
                                    <g >
                                        <g >
                                            <g >
                                                <g >
                                                    <rect width="21.518311" x="-19.894655" stroke-opacity="1" y="-67.51265" fill="none" gorn="0.3.0.0.0.0.0.0.1.0.0.0.0.0"  height="28.563658" stroke="#000000" fill-opacity="1" style="stroke-miterlimit:4;stroke-dasharray:none;" id="rect304-8-1" stroke-width="0.75"/>
                                                </g>
                                            </g>
                                        </g>
                                    </g>
                                </g>
                                <g  transform="scale(-1)">
                                    <g >
                                        <g >
                                            <g >
                                                <g >
                                                    <circle stroke-opacity="1" fill="#000000" cx="-11.990648" gorn="0.3.0.0.0.0.0.0.2.0.0.0.0.0"  cy="-84.245163" stroke="none" fill-opacity="1" style="stroke-miterlimit:4;stroke-dasharray:none;" r="4.091269" id="circle308-9-8" stroke-width="0.75"/>
                                                </g>
                                            </g>
                                        </g>
                                    </g>
                                </g>
                                <g  transform="rotate(90)">
                                    <g >
                                        <g >
                                            <g >
                                                <g >
                                                    <g stroke-opacity="1" fill="#000000" gorn="0.3.0.0.0.0.0.0.3.0.0.0.0.0"  stroke="none" fill-opacity="1" style="font-style:normal;font-variant:normal;font-weight:normal;font-stretch:normal;font-family:OCRA;-inkscape-font-specification:'OCRA, Normal';font-variant-ligatures:normal;font-variant-caps:normal;font-variant-numeric:normal;font-feature-settings:normal;text-align:center;writing-mode:lr-tb;text-anchor:middle;" id="text314-1-6" stroke-width="1.97043443" font-size="4.92611">
                                                        <text x="84.74543" stroke-opacity="1" y="-23.157635" fill="#000000" gorn="0.3.0.0.0.0.0.0.3.0.0.0.0.0.0"  stroke="none" fill-opacity="1" id="tspan6471" stroke-width="1.97043443">BOOT</text>
                                                        <text x="84.74543" stroke-opacity="1" y="-17" fill="#000000" gorn="0.3.0.0.0.0.0.0.3.0.0.0.0.0.1"  stroke="none" fill-opacity="1" id="tspan6473" stroke-width="1.97043443">(FLASH)</text>
                                                    </g>
                                                </g>
                                            </g>
                                        </g>
                                    </g>
                                </g>
                                <g  transform="rotate(90)">
                                    <g >
                                        <g >
                                            <g >
                                                <g >
                                                    <g stroke-opacity="1" fill="#000000" gorn="0.3.0.0.0.0.0.0.4.0.0.0.0.0"  stroke="none" fill-opacity="1" style="font-style:normal;font-variant:normal;font-weight:normal;font-stretch:normal;font-family:OCRA;-inkscape-font-specification:'OCRA, Normal';font-variant-ligatures:normal;font-variant-caps:normal;font-variant-numeric:normal;font-feature-settings:normal;text-align:center;writing-mode:lr-tb;text-anchor:middle;" id="text316-6-2" stroke-width="1.97043681" font-size="4.92611">
                                                        <text x="22.9189" stroke-opacity="1" y="-23.157635" fill="#000000" gorn="0.3.0.0.0.0.0.0.4.0.0.0.0.0.0"  stroke="none" fill-opacity="1" id="tspan6467" stroke-width="1.97043681">EN</text>
                                                        <text x="22.9189" stroke-opacity="1" y="-17" fill="#000000" gorn="0.3.0.0.0.0.0.0.4.0.0.0.0.0.1"  stroke="none" fill-opacity="1" id="tspan6469" stroke-width="1.97043681">(RESET)</text>
                                                    </g>
                                                </g>
                                            </g>
                                        </g>
                                    </g>
                                </g>
                                <g  transform="scale(-1)">
                                    <g >
                                        <g >
                                            <g >
                                                <g >
                                                    <circle stroke-opacity="1" fill="#000000" cx="-11.990648" gorn="0.3.0.0.0.0.0.0.5.0.0.0.0.0"  cy="-22.462294" stroke="none" fill-opacity="1" style="stroke-miterlimit:4;stroke-dasharray:none;" r="4.091269" id="circle5766" stroke-width="0.75"/>
                                                </g>
                                            </g>
                                        </g>
                                    </g>
                                </g>
                                <text x="33.620117" y="15.33882" fill="#000000" gorn="0.3.0.0.0.0.0.0.6"  style="font-family:OCRA;" id="text5979" stroke-width="1.3316853" font-size="3.32921">Vin</text>
                                <text x="43.139557" y="15.33882" fill="#000000" gorn="0.3.0.0.0.0.0.0.7"  style="font-family:OCRA;" id="text5981" stroke-width="1.3316853" font-size="3.32921">GND</text>
                                <text x="52.659088" y="15.33882" fill="#000000" gorn="0.3.0.0.0.0.0.0.8"  style="font-family:OCRA;" id="text5983" stroke-width="1.3316853" font-size="3.32921">D13</text>
                                <text x="62.263397" y="15.33882" fill="#000000" gorn="0.3.0.0.0.0.0.0.9"  style="font-family:OCRA;" id="text5985" stroke-width="1.3316853" font-size="3.32921">D12</text>
                                <text x="71.697906" y="15.33882" fill="#000000" gorn="0.3.0.0.0.0.0.0.10"  style="font-family:OCRA;" id="text5987" stroke-width="1.3316853" font-size="3.32921">D14</text>
                                <text x="81.217468" y="15.33882" fill="#000000" gorn="0.3.0.0.0.0.0.0.11"  style="font-family:OCRA;" id="text5989" stroke-width="1.3316853" font-size="3.32921">D27</text>
                                <text x="90.736885" y="15.33882" fill="#000000" gorn="0.3.0.0.0.0.0.0.12"  style="font-family:OCRA;" id="text5991" stroke-width="1.3316853" font-size="3.32921">D26</text>
                                <text x="100.25645" y="15.33882" fill="#000000" gorn="0.3.0.0.0.0.0.0.13"  style="font-family:OCRA;" id="text5993" stroke-width="1.3316853" font-size="3.32921">D25</text>
                                <text x="109.7784" y="15.33882" fill="#000000" gorn="0.3.0.0.0.0.0.0.14"  style="font-family:OCRA;" id="text5995" stroke-width="1.3316853" font-size="3.32921">D33</text>
                                <text x="119.29796" y="15.33882" fill="#000000" gorn="0.3.0.0.0.0.0.0.15"  style="font-family:OCRA;" id="text5997" stroke-width="1.3316853" font-size="3.32921">D32</text>
                                <text x="128.81738" y="15.33882" fill="#000000" gorn="0.3.0.0.0.0.0.0.16"  style="font-family:OCRA;" id="text5999" stroke-width="1.3316853" font-size="3.32921">D35</text>
                                <text x="138.33693" y="15.33882" fill="#000000" gorn="0.3.0.0.0.0.0.0.17"  style="font-family:OCRA;" id="text6001" stroke-width="1.3316853" font-size="3.32921">D34</text>
                                <text x="149.98849" y="15.33882" fill="#000000" gorn="0.3.0.0.0.0.0.0.18"  style="font-family:OCRA;" id="text6003" stroke-width="1.3316853" font-size="3.32921">VN</text>
                                <text x="159.50792" y="15.33882" fill="#000000" gorn="0.3.0.0.0.0.0.0.19"  style="font-family:OCRA;" id="text6005" stroke-width="1.3316853" font-size="3.32921">VP</text>
                                <text x="168.33887" y="15.33882" fill="#000000" gorn="0.3.0.0.0.0.0.0.20"  style="font-family:OCRA;" id="text6007" stroke-width="1.3316853" font-size="3.32921">EN</text>
                                <text x="168.36188" y="94.672531" fill="#000000" gorn="0.3.0.0.0.0.0.0.21"  style="font-family:OCRA;" id="text6298" stroke-width="1.33292079" font-size="3.3323">D23</text>
                                <text x="158.64407" y="94.675186" fill="#000000" gorn="0.3.0.0.0.0.0.0.22"  style="font-family:OCRA;" id="text6300" stroke-width="1.33292079" font-size="3.3323">D22</text>
                                <text x="148.92575" y="94.675186" fill="#000000" gorn="0.3.0.0.0.0.0.0.23"  style="font-family:OCRA;" id="text6302" stroke-width="1.33292079" font-size="3.3323">TX0</text>
                                <text x="139.20808" y="94.675186" fill="#000000" gorn="0.3.0.0.0.0.0.0.24"  style="font-family:OCRA;" id="text6304" stroke-width="1.33292079" font-size="3.3323">RX0</text>
                                <text x="129.49043" y="94.675186" fill="#000000" gorn="0.3.0.0.0.0.0.0.25"  style="font-family:OCRA;" id="text6306" stroke-width="1.33292079" font-size="3.3323">D21</text>
                                <text x="120.07739" y="94.675186" fill="#000000" gorn="0.3.0.0.0.0.0.0.26"  style="font-family:OCRA;" id="text6308" stroke-width="1.33292079" font-size="3.3323">D19</text>
                                <text x="110.50951" y="94.675186" fill="#000000" gorn="0.3.0.0.0.0.0.0.27"  style="font-family:OCRA;" id="text6310" stroke-width="1.33292079" font-size="3.3323">D18</text>
                                <text x="102.23508" y="94.672531" fill="#000000" gorn="0.3.0.0.0.0.0.0.28"  style="font-family:OCRA;" id="text6312" stroke-width="1.33292079" font-size="3.3323">D5</text>
                                <text x="91.428467" y="94.675186" fill="#000000" gorn="0.3.0.0.0.0.0.0.29"  style="font-family:OCRA;" id="text6314" stroke-width="1.33292079" font-size="3.3323">TX2</text>
                                <text x="81.560242" y="94.672531" fill="#000000" gorn="0.3.0.0.0.0.0.0.30"  style="font-family:OCRA;" id="text6316" stroke-width="1.33292079" font-size="3.3323">RX2</text>
                                <text x="73.253876" y="94.675186" fill="#000000" gorn="0.3.0.0.0.0.0.0.31"  style="font-family:OCRA;" id="text6318" stroke-width="1.33292079" font-size="3.3323">D4</text>
                                <text x="63.873322" y="94.672531" fill="#000000" gorn="0.3.0.0.0.0.0.0.32"  style="font-family:OCRA;" id="text6320" stroke-width="1.33292079" font-size="3.3323">D2</text>
                                <text x="53.185913" y="94.675186" fill="#000000" gorn="0.3.0.0.0.0.0.0.33"  style="font-family:OCRA;" id="text6322" stroke-width="1.33292079" font-size="3.3323">D15</text>
                                <text x="43.233902" y="94.672531" fill="#000000" gorn="0.3.0.0.0.0.0.0.34"  style="font-family:OCRA;" id="text6324" stroke-width="1.33292079" font-size="3.3323">GND</text>
                                <text x="33.515579" y="94.675186" fill="#000000" gorn="0.3.0.0.0.0.0.0.35"  style="font-family:OCRA;" id="text6326" stroke-width="1.33292079" font-size="3.3323">3V3</text>
                                <g  transform="scale(-1)">
                                    <g >
                                        <g >
                                            <g >
                                                <g >
                                                    <rect width="73.036224" x="-169.91791" stroke-opacity="1" y="-87.270554" fill="none" gorn="0.3.0.0.0.0.0.0.36.0.0.0.0.0"  height="67.740097" stroke="#000000" style="stroke-miterlimit:4;stroke-dasharray:none;" id="rect5780" stroke-width="0.75"/>
                                                </g>
                                            </g>
                                        </g>
                                    </g>
                                </g>
                                <path stroke-opacity="1" fill="#000000" gorn="0.3.0.0.0.0.0.0.37"  stroke="none" fill-opacity="1" style="color:#000000;font-style:normal;font-variant:normal;font-weight:normal;font-stretch:normal;line-height:normal;font-family:Droid Sans;font-variant-ligatures:normal;font-variant-position:normal;font-variant-caps:normal;font-variant-numeric:normal;font-variant-alternates:normal;font-feature-settings:normal;text-indent:0;text-align:start;text-decoration:none;text-decoration-line:none;text-decoration-style:solid;text-decoration-color:#000000;letter-spacing:normal;word-spacing:normal;text-transform:none;writing-mode:lr-tb;direction:ltr;text-orientation:mixed;dominant-baseline:auto;baseline-shift:baseline;text-anchor:start;white-space:normal;shape-padding:0;clip-rule:nonzero;display:inline;overflow:visible;visibility:visible;opacity:1;isolation:auto;mix-blend-mode:normal;color-interpolation:sRGB;color-interpolation-filters:linearRGB;solid-color:#000000;solid-opacity:1;vector-effect:none;fill-rule:nonzero;stroke-linecap:butt;stroke-linejoin:miter;stroke-miterlimit:4;stroke-dasharray:none;stroke-dashoffset:0;color-rendering:auto;image-rendering:auto;shape-rendering:auto;text-rendering:auto;enable-background:accumulate" id="path6453" stroke-width="2.00000024" d="M 190.97884,80.5357 V 61.40094 h -10.33593 v -7.96289 h 10.40625 V 43.05719 h -10.3125 v -8.98633 h 10.33593 v -9.82227 h -17.48047 v 2 h 15.48047 v 5.82227 h -10.33593 v 12.98633 h 10.3125 v 6.38086 h -10.40625 v 11.96289 h 10.33593 v 6.7539 h -18.46093 v 2 h 18.46093 v 6.38086 h -18.74023 v 2 z" font-size="medium"/>
                                <g  transform="rotate(90)">
                                    <g >
                                        <g >
                                            <g >
                                                <g >
                                                    <text x="23.096123" stroke-opacity="1" y="-158.63936" fill="#000000" gorn="0.3.0.0.0.0.0.0.38.0.0.0.0.0"  stroke="none" style="font-family:OCRA;" id="text6420" stroke-width="1.78586292" font-size="7.14345">ESP-WROOM-32</text>
                                                </g>
                                            </g>
                                        </g>
                                    </g>
                                </g>
                                <g  transform="rotate(90)">
                                    <g >
                                        <g >
                                            <g >
                                                <g >
                                                    <text x="30.680351" stroke-opacity="1" y="-139.89543" fill="#000000" gorn="0.3.0.0.0.0.0.0.39.0.0.0.0.0"  stroke="none" style="font-family:OCRA;" id="text6422" stroke-width="1.94506943" font-size="7.78028">TD-er.nl</text>
                                                </g>
                                            </g>
                                        </g>
                                    </g>
                                </g>
                                <g  transform="rotate(90)">
                                    <g >
                                        <g >
                                            <g >
                                                <g >
                                                    <g stroke-opacity="1" fill="#000000" gorn="0.3.0.0.0.0.0.0.40.0.0.0.0.0"  stroke="none" style="font-style:normal;font-variant:normal;font-weight:normal;font-stretch:normal;font-family:OCRA;-inkscape-font-specification:'OCRA, Normal';font-variant-ligatures:normal;font-variant-caps:normal;font-variant-numeric:normal;font-feature-settings:normal;text-align:start;writing-mode:lr-tb;text-anchor:start;" id="text6426" stroke-width="0.81605506" font-size="9.79295">
                                                        <text x="21.530205" stroke-opacity="1" y="-112.63461" fill="#000000" gorn="0.3.0.0.0.0.0.0.40.0.0.0.0.0.0"  stroke="none" id="tspan6434" stroke-width="0.81605506">LuaNode32</text>
                                                        <text x="21.530205" stroke-opacity="1" y="-100.39342" fill="#000000" gorn="0.3.0.0.0.0.0.0.40.0.0.0.0.0.1"  stroke="none" id="tspan6436" stroke-width="0.81605506">ESP32</text>
                                                    </g>
                                                </g>
                                            </g>
                                        </g>
                                    </g>
                                </g>
                            </g>
                        </g>
                    </g>
                </g>
            </g>
        </g>
        <g gorn="0.3.1"  id="copper1">
            <g gorn="0.3.1.0"  id="copper0">
                <path stroke-opacity="1" fill="none" gorn="0.3.1.0.0"  stroke="#ffbf00" style="stroke-linecap:butt;stroke-linejoin:miter;stroke-miterlimit:4;stroke-dasharray:none;" id="connector15pad" stroke-width="1.75752664" d="m 36.756569,93.146937 c 1.356431,0 2.456035,1.099608 2.456035,2.456029 0,1.356431 -1.099604,2.45603 -2.456035,2.45603 -1.35643,0 -2.456035,-1.099599 -2.456035,-2.45603 0,-1.356421 1.099605,-2.456029 2.456035,-2.456029 z"/>
                <path stroke-opacity="1" fill="none" gorn="0.3.1.0.1"  stroke="#ffbf00" style="stroke-linecap:butt;stroke-linejoin:miter;stroke-miterlimit:4;stroke-dasharray:none;" id="connector16pad" stroke-width="1.75752664" d="m 45.769522,93.146937 c 1.356431,0 2.456035,1.099608 2.456035,2.456029 0,1.356431 -1.099604,2.45603 -2.456035,2.45603 -1.35643,0 -2.456035,-1.099599 -2.456035,-2.45603 0,-1.356421 1.099605,-2.456029 2.456035,-2.456029 z"/>
                <path stroke-opacity="1" fill="none" gorn="0.3.1.0.2"  stroke="#ffbf00" style="stroke-linecap:butt;stroke-linejoin:miter;stroke-miterlimit:4;stroke-dasharray:none;" id="connector17pad" stroke-width="1.75752664" d="m 54.782475,93.146937 c 1.356431,0 2.456034,1.099608 2.456034,2.456029 0,1.356431 -1.099603,2.45603 -2.456034,2.45603 -1.356431,0 -2.456035,-1.099599 -2.456035,-2.45603 0,-1.356421 1.099604,-2.456029 2.456035,-2.456029 z"/>
                <path stroke-opacity="1" fill="none" gorn="0.3.1.0.3"  stroke="#ffbf00" style="stroke-linecap:butt;stroke-linejoin:miter;stroke-miterlimit:4;stroke-dasharray:none;" id="connector18pad" stroke-width="1.75752664" d="m 63.795428,93.146937 c 1.35643,0 2.456034,1.099608 2.456034,2.456029 0,1.356431 -1.099604,2.45603 -2.456034,2.45603 -1.356431,0 -2.456035,-1.099599 -2.456035,-2.45603 0,-1.356421 1.099604,-2.456029 2.456035,-2.456029 z"/>
                <path stroke-opacity="1" fill="none" gorn="0.3.1.0.4"  stroke="#ffbf00" style="stroke-linecap:butt;stroke-linejoin:miter;stroke-miterlimit:4;stroke-dasharray:none;" id="connector19pad" stroke-width="1.75752664" d="m 72.808381,93.146937 c 1.35643,0 2.456034,1.099608 2.456034,2.456029 0,1.356431 -1.099604,2.45603 -2.456034,2.45603 -1.356431,0 -2.456036,-1.099599 -2.456036,-2.45603 0,-1.356421 1.099605,-2.456029 2.456036,-2.456029 z"/>
                <path stroke-opacity="1" fill="none" gorn="0.3.1.0.5"  stroke="#ffbf00" style="stroke-linecap:butt;stroke-linejoin:miter;stroke-miterlimit:4;stroke-dasharray:none;" id="connector33pin" stroke-width="1.75752664" d="m 81.821333,93.146937 c 1.356431,0 2.456035,1.099608 2.456035,2.456029 0,1.356431 -1.099604,2.45603 -2.456035,2.45603 -1.35643,0 -2.456035,-1.099599 -2.456035,-2.45603 0,-1.356421 1.099605,-2.456029 2.456035,-2.456029 z"/>
                <path stroke-opacity="1" fill="none" gorn="0.3.1.0.6"  stroke="#ffbf00" style="stroke-linecap:butt;stroke-linejoin:miter;stroke-miterlimit:4;stroke-dasharray:none;" id="connector34pin" stroke-width="1.75752664" d="m 90.834286,93.146937 c 1.356431,0 2.456035,1.099608 2.456035,2.456029 0,1.356431 -1.099604,2.45603 -2.456035,2.45603 -1.35643,0 -2.456035,-1.099599 -2.456035,-2.45603 0,-1.356421 1.099605,-2.456029 2.456035,-2.456029 z"/>
                <path stroke-opacity="1" fill="none" gorn="0.3.1.0.7"  stroke="#ffbf00" style="stroke-linecap:butt;stroke-linejoin:miter;stroke-miterlimit:4;stroke-dasharray:none;" id="connector35pin" stroke-width="1.75752664" d="m 99.847239,93.146937 c 1.356431,0 2.456041,1.099608 2.456041,2.456029 0,1.356431 -1.09961,2.45603 -2.456041,2.45603 -1.356431,0 -2.456039,-1.099599 -2.456039,-2.45603 0,-1.356421 1.099608,-2.456029 2.456039,-2.456029 z"/>
                <path stroke-opacity="1" fill="none" gorn="0.3.1.0.8"  stroke="#ffbf00" style="stroke-linecap:butt;stroke-linejoin:miter;stroke-miterlimit:4;stroke-dasharray:none;" id="connector36pin" stroke-width="1.75752664" d="m 108.86019,93.146937 c 1.35643,0 2.45603,1.099608 2.45603,2.456029 0,1.356431 -1.0996,2.45603 -2.45603,2.45603 -1.35643,0 -2.45604,-1.099599 -2.45604,-2.45603 0,-1.356421 1.09961,-2.456029 2.45604,-2.456029 z"/>
                <path stroke-opacity="1" fill="none" gorn="0.3.1.0.9"  stroke="#ffbf00" style="stroke-linecap:butt;stroke-linejoin:miter;stroke-miterlimit:4;stroke-dasharray:none;" id="connector37pin" stroke-width="1.75752664" d="m 117.87314,93.146937 c 1.35644,0 2.45603,1.099608 2.45603,2.456029 0,1.356431 -1.09959,2.45603 -2.45603,2.45603 -1.35643,0 -2.45603,-1.099599 -2.45603,-2.45603 0,-1.356421 1.0996,-2.456029 2.45603,-2.456029 z"/>
                <path stroke-opacity="1" fill="none" gorn="0.3.1.0.10"  stroke="#ffbf00" style="stroke-linecap:butt;stroke-linejoin:miter;stroke-miterlimit:4;stroke-dasharray:none;" id="connector38pin" stroke-width="1.75752664" d="m 126.8861,93.146937 c 1.35643,0 2.45603,1.099608 2.45603,2.456029 0,1.356431 -1.0996,2.45603 -2.45603,2.45603 -1.35643,0 -2.45604,-1.099599 -2.45604,-2.45603 0,-1.356421 1.09961,-2.456029 2.45604,-2.456029 z"/>
                <path stroke-opacity="1" fill="none" gorn="0.3.1.0.11"  stroke="#ffbf00" style="stroke-linecap:butt;stroke-linejoin:miter;stroke-miterlimit:4;stroke-dasharray:none;" id="connector39pin" stroke-width="1.75752664" d="m 135.89905,93.146937 c 1.35643,0 2.45603,1.099608 2.45603,2.456029 0,1.356431 -1.0996,2.45603 -2.45603,2.45603 -1.35643,0 -2.45604,-1.099599 -2.45604,-2.45603 0,-1.356421 1.09961,-2.456029 2.45604,-2.456029 z"/>
                <path stroke-opacity="1" fill="none" gorn="0.3.1.0.12"  stroke="#ffbf00" style="stroke-linecap:butt;stroke-linejoin:miter;stroke-miterlimit:4;stroke-dasharray:none;" id="connector40pin" stroke-width="1.75752664" d="m 144.912,93.146937 c 1.35643,0 2.45603,1.099608 2.45603,2.456029 0,1.356431 -1.0996,2.45603 -2.45603,2.45603 -1.35643,0 -2.45604,-1.099599 -2.45604,-2.45603 0,-1.356421 1.09961,-2.456029 2.45604,-2.456029 z"/>
                <path stroke-opacity="1" fill="none" gorn="0.3.1.0.13"  stroke="#ffbf00" style="stroke-linecap:butt;stroke-linejoin:miter;stroke-miterlimit:4;stroke-dasharray:none;" id="connector41pin" stroke-width="1.75752664" d="m 153.92496,93.146937 c 1.35643,0 2.45603,1.099608 2.45603,2.456029 0,1.356431 -1.0996,2.45603 -2.45603,2.45603 -1.35643,0 -2.45604,-1.099599 -2.45604,-2.45603 0,-1.356421 1.09961,-2.456029 2.45604,-2.456029 z"/>
                <path stroke-opacity="1" fill="none" gorn="0.3.1.0.14"  stroke="#ffbf00" style="stroke-linecap:butt;stroke-linejoin:miter;stroke-miterlimit:4;stroke-dasharray:none;" id="connector42pin" stroke-width="1.75752664" d="m 162.93791,93.146937 c 1.35643,0 2.45603,1.099608 2.45603,2.456029 0,1.356431 -1.0996,2.45603 -2.45603,2.45603 -1.35643,0 -2.45604,-1.099599 -2.45604,-2.45603 0,-1.356421 1.09961,-2.456029 2.45604,-2.456029 z"/>
                <path stroke-opacity="1" fill="none" gorn="0.3.1.0.15"  stroke="#ffbf00" style="stroke-linecap:butt;stroke-linejoin:miter;stroke-miterlimit:4;stroke-dasharray:none;" id="connector14pad" stroke-width="1.75752664" d="m 36.756569,3.0173994 c 1.356431,0 2.456035,1.0996084 2.456035,2.4560297 0,1.3564306 -1.099604,2.4560296 -2.456035,2.4560296 -1.35643,0 -2.456035,-1.099599 -2.456035,-2.4560296 0,-1.3564213 1.099605,-2.4560297 2.456035,-2.4560297 z"/>
                <path stroke-opacity="1" fill="none" gorn="0.3.1.0.16"  stroke="#ffbf00" style="stroke-linecap:butt;stroke-linejoin:miter;stroke-miterlimit:4;stroke-dasharray:none;" id="connector13pad" stroke-width="1.75752664" d="m 45.769522,3.0173994 c 1.356431,0 2.456035,1.0996084 2.456035,2.4560297 0,1.3564306 -1.099604,2.4560296 -2.456035,2.4560296 -1.35643,0 -2.456035,-1.099599 -2.456035,-2.4560296 0,-1.3564213 1.099605,-2.4560297 2.456035,-2.4560297 z"/>
                <path stroke-opacity="1" fill="none" gorn="0.3.1.0.17"  stroke="#ffbf00" style="stroke-linecap:butt;stroke-linejoin:miter;stroke-miterlimit:4;stroke-dasharray:none;" id="connector12pad" stroke-width="1.75752664" d="m 54.782475,3.0173994 c 1.356431,0 2.456034,1.0996084 2.456034,2.4560297 0,1.3564306 -1.099603,2.4560296 -2.456034,2.4560296 -1.356431,0 -2.456035,-1.099599 -2.456035,-2.4560296 0,-1.3564213 1.099604,-2.4560297 2.456035,-2.4560297 z"/>
                <path stroke-opacity="1" fill="none" gorn="0.3.1.0.18"  stroke="#ffbf00" style="stroke-linecap:butt;stroke-linejoin:miter;stroke-miterlimit:4;stroke-dasharray:none;" id="connector11pad" stroke-width="1.75752664" d="m 63.795428,3.0173994 c 1.35643,0 2.456034,1.0996084 2.456034,2.4560297 0,1.3564306 -1.099604,2.4560296 -2.456034,2.4560296 -1.356431,0 -2.456035,-1.099599 -2.456035,-2.4560296 0,-1.3564213 1.099604,-2.4560297 2.456035,-2.4560297 z"/>
                <path stroke-opacity="1" fill="none" gorn="0.3.1.0.19"  stroke="#ffbf00" style="stroke-linecap:butt;stroke-linejoin:miter;stroke-miterlimit:4;stroke-dasharray:none;" id="connector10pad" stroke-width="1.75752664" d="m 72.808381,3.0173994 c 1.35643,0 2.456034,1.0996084 2.456034,2.4560297 0,1.3564306 -1.099604,2.4560296 -2.456034,2.4560296 -1.356431,0 -2.456036,-1.099599 -2.456036,-2.4560296 0,-1.3564213 1.099605,-2.4560297 2.456036,-2.4560297 z"/>
                <path stroke-opacity="1" fill="none" gorn="0.3.1.0.20"  stroke="#ffbf00" style="stroke-linecap:butt;stroke-linejoin:miter;stroke-miterlimit:4;stroke-dasharray:none;" id="connector9pad" stroke-width="1.75752664" d="m 81.821333,3.0173994 c 1.356431,0 2.456035,1.0996084 2.456035,2.4560297 0,1.3564306 -1.099604,2.4560296 -2.456035,2.4560296 -1.35643,0 -2.456035,-1.099599 -2.456035,-2.4560296 0,-1.3564213 1.099605,-2.4560297 2.456035,-2.4560297 z"/>
                <path stroke-opacity="1" fill="none" gorn="0.3.1.0.21"  stroke="#ffbf00" style="stroke-linecap:butt;stroke-linejoin:miter;stroke-miterlimit:4;stroke-dasharray:none;" id="connector8pad" stroke-width="1.75752664" d="m 90.834286,3.0173994 c 1.356431,0 2.456035,1.0996084 2.456035,2.4560297 0,1.3564306 -1.099604,2.4560296 -2.456035,2.4560296 -1.35643,0 -2.456035,-1.099599 -2.456035,-2.4560296 0,-1.3564213 1.099605,-2.4560297 2.456035,-2.4560297 z"/>
                <path stroke-opacity="1" fill="none" gorn="0.3.1.0.22"  stroke="#ffbf00" style="stroke-linecap:butt;stroke-linejoin:miter;stroke-miterlimit:4;stroke-dasharray:none;" id="connector7pad" stroke-width="1.75752664" d="m 99.847239,3.0173994 c 1.356431,0 2.456041,1.0996084 2.456041,2.4560297 0,1.3564306 -1.09961,2.4560296 -2.456041,2.4560296 -1.356431,0 -2.456039,-1.099599 -2.456039,-2.4560296 0,-1.3564213 1.099608,-2.4560297 2.456039,-2.4560297 z"/>
                <path stroke-opacity="1" fill="none" gorn="0.3.1.0.23"  stroke="#ffbf00" style="stroke-linecap:butt;stroke-linejoin:miter;stroke-miterlimit:4;stroke-dasharray:none;" id="connector6pad" stroke-width="1.75752664" d="m 108.86019,3.0173994 c 1.35643,0 2.45603,1.0996084 2.45603,2.4560297 0,1.3564306 -1.0996,2.4560296 -2.45603,2.4560296 -1.35643,0 -2.45604,-1.099599 -2.45604,-2.4560296 0,-1.3564213 1.09961,-2.4560297 2.45604,-2.4560297 z"/>
                <path stroke-opacity="1" fill="none" gorn="0.3.1.0.24"  stroke="#ffbf00" style="stroke-linecap:butt;stroke-linejoin:miter;stroke-miterlimit:4;stroke-dasharray:none;" id="connector5pad" stroke-width="1.75752664" d="m 117.87314,3.0173994 c 1.35644,0 2.45603,1.0996084 2.45603,2.4560297 0,1.3564306 -1.09959,2.4560296 -2.45603,2.4560296 -1.35643,0 -2.45603,-1.099599 -2.45603,-2.4560296 0,-1.3564213 1.0996,-2.4560297 2.45603,-2.4560297 z"/>
                <path stroke-opacity="1" fill="none" gorn="0.3.1.0.25"  stroke="#ffbf00" style="stroke-linecap:butt;stroke-linejoin:miter;stroke-miterlimit:4;stroke-dasharray:none;" id="connector4pad" stroke-width="1.75752664" d="m 126.8861,3.0173994 c 1.35643,0 2.45603,1.0996084 2.45603,2.4560297 0,1.3564306 -1.0996,2.4560296 -2.45603,2.4560296 -1.35643,0 -2.45604,-1.099599 -2.45604,-2.4560296 0,-1.3564213 1.09961,-2.4560297 2.45604,-2.4560297 z"/>
                <path stroke-opacity="1" fill="none" gorn="0.3.1.0.26"  stroke="#ffbf00" style="stroke-linecap:butt;stroke-linejoin:miter;stroke-miterlimit:4;stroke-dasharray:none;" id="connector3pad" stroke-width="1.75752664" d="m 135.89905,3.0173994 c 1.35643,0 2.45603,1.0996084 2.45603,2.4560297 0,1.3564306 -1.0996,2.4560296 -2.45603,2.4560296 -1.35643,0 -2.45604,-1.099599 -2.45604,-2.4560296 0,-1.3564213 1.09961,-2.4560297 2.45604,-2.4560297 z"/>
                <path stroke-opacity="1" fill="none" gorn="0.3.1.0.27"  stroke="#ffbf00" style="stroke-linecap:butt;stroke-linejoin:miter;stroke-miterlimit:4;stroke-dasharray:none;" id="connector2pad" stroke-width="1.75752664" d="m 144.912,3.0173994 c 1.35643,0 2.45603,1.0996084 2.45603,2.4560297 0,1.3564306 -1.0996,2.4560296 -2.45603,2.4560296 -1.35643,0 -2.45604,-1.099599 -2.45604,-2.4560296 0,-1.3564213 1.09961,-2.4560297 2.45604,-2.4560297 z"/>
                <path stroke-opacity="1" fill="none" gorn="0.3.1.0.28"  stroke="#ffbf00" style="stroke-linecap:butt;stroke-linejoin:miter;stroke-miterlimit:4;stroke-dasharray:none;" id="connector1pad" stroke-width="1.75752664" d="m 153.92496,3.0173994 c 1.35643,0 2.45603,1.0996084 2.45603,2.4560297 0,1.3564306 -1.0996,2.4560296 -2.45603,2.4560296 -1.35643,0 -2.45604,-1.099599 -2.45604,-2.4560296 0,-1.3564213 1.09961,-2.4560297 2.45604,-2.4560297 z"/>
                <path stroke-opacity="1" fill="none" gorn="0.3.1.0.29"  stroke="#ffbf00" style="stroke-linecap:butt;stroke-linejoin:miter;stroke-miterlimit:4;stroke-dasharray:none;" id="connector0pad" stroke-width="1.75752664" d="m 162.93791,3.0173994 c 1.35643,0 2.45603,1.0996084 2.45603,2.4560297 0,1.3564306 -1.0996,2.4560296 -2.45603,2.4560296 -1.35643,0 -2.45604,-1.099599 -2.45604,-2.4560296 0,-1.3564213 1.09961,-2.4560297 2.45604,-2.4560297 z"/>
            </g>
        </g>
    </g>
</svg>
