<?xml version='1.0' encoding='UTF-8' standalone='no'?>
<svg
  xmlns:dc="http://purl.org/dc/elements/1.1/"
  xmlns:cc="http://creativecommons.org/ns#"
  xmlns:rdf="http://www.w3.org/1999/02/22-rdf-syntax-ns#"
  xmlns:svg="http://www.w3.org/2000/svg"
  xmlns="http://www.w3.org/2000/svg"
  viewBox="0 0 2647.0031 2323.1853"
  version="1.1"
  height="59.008888mm"
  x="0px"
  y="0px"
  enable-background="new 0 0 241.818 159.695"
  id="Layer_1"
  width="67.233856mm">
  <metadata
    id="metadata52">
    <rdf:RDF>
      <cc:Work
        rdf:about="">
        <dc:format>image/svg+xml</dc:format>
        <dc:type
          rdf:resource="http://purl.org/dc/dcmitype/StillImage"
        />
        <dc:title/>
      </cc:Work>
    </rdf:RDF>
  </metadata>
  <defs
    id="defs50"
  />
  <desc
    id="desc3">
    <referenceFile>sim7600-4G-HAT_1_pcb.svg</referenceFile>
  </desc>
  <g
    id="silkscreen">
    <path
      id="upper"
      d="M 118.92784,40.9811 C 164.8308,0.22679982 184.46484,7.3830998 213.67237,5.0012998 H 2516.3794 c 29.42,-0.097 58.84,4.9312 88.26,30.4444002 33.2246,32.6345 32.2354,69.5457 37.3636,105.6922 v 1922.1515 c -3.1241,37.2931 -0.551,75.2984 -31.8283,109.0724 -28.4059,34.5941 -68.7599,39.3179 -111.7852,37.3636 H 217.82389 c -38.96298,2.7692 -67.72279,-9.7664 -91.97686,-29.0606 -31.991278,-20.0303 -35.745328,-60.2301 -42.898988,-98.0016 V 136.9864 c 2.3532,-34.4118 4.80244,-68.7996 35.979798,-96.0053 z"
      fill="none"
      stroke="#000000"
      stroke-width="10"
    />
    <circle
      id="path4155"
      cx="212.71024"
      cy="2082.0413"
      r="60"
      fill-opacity="1"
      fill="#000000"
      stroke="none"
      stroke-width="0"
    />
    <circle
      id="circle1184"
      cx="212.71024"
      cy="133.22984"
      r="60"
      fill-opacity="1"
      fill="#000000"
      stroke="none"
      stroke-width="0"
    />
    <circle
      id="circle4510"
      cx="2513.137"
      cy="2082.0413"
      r="60"
      fill-opacity="1"
      fill="#000000"
      stroke="none"
      stroke-width="0"
    />
    <rect
      id="rect5590"
      width="268.00009"
      height="79.975418"
      x="398.93408"
      y="2210.0837"
      fill="none"
      stroke="#000000"
      stroke-width="10"
    />
    <rect
      id="rect5592"
      width="186.75037"
      height="108.1042"
      x="2067.6885"
      y="2210.0813"
      fill="none"
      stroke="#000000"
      stroke-width="9.99975"
    />
    <rect
      id="rect8771"
      width="268.00009"
      height="79.975418"
      x="777.70349"
      y="-84.975418"
      transform="rotate(90)"
      fill="none"
      stroke="#000000"
      stroke-width="10"
    />
    <circle
      id="circle4508"
      cx="2513.137"
      cy="133.22984"
      r="60"
      fill-opacity="1"
      fill="#000000"
      stroke="none"
      stroke-width="0"
    />
  </g>
  <g
    id="copper1">
    <g
      id="copper0">
      <path
        d="m 379.54832,221.24044 c 0,11.077 12.125,19.9992 27.0183,19.9992 14.8933,0 26.9979,-8.9222 26.9979,-19.9992 v -39.9984 c 0,-11.0769 -12.1046,-19.9992 -26.9979,-19.9992 -14.5089,0 -26.459,8.4569 -27.0183,19.2261 z m 8.016,-19.9178 a 19.000006,19.000006 0 0 1 19.0023,-19.0023 19.000006,19.000006 0 0 1 18.9819,19.0023 19.000006,19.000006 0 0 1 -18.9819,19.0023 19.000006,19.000006 0 0 1 -19.0023,-19.0023 z"
        id="path44"
        fill="#f7bd13"
        stroke="none"
        stroke-width="0"
      />
      <path
        id="path284"
        d="m 479.09423,221.24044 c 0,11.077 12.125,19.9992 27.0183,19.9992 14.8933,0 26.9979,-8.9222 26.9979,-19.9992 v -39.9984 c 0,-11.0769 -12.1046,-19.9992 -26.9979,-19.9992 -14.5089,0 -26.459,8.4569 -27.0183,19.2261 z m 8.016,-19.9178 a 19.000006,19.000006 0 0 1 19.0023,-19.0023 19.000006,19.000006 0 0 1 18.9819,19.0023 19.000006,19.000006 0 0 1 -18.9819,19.0023 19.000006,19.000006 0 0 1 -19.0023,-19.0023 z"
        fill="#f7bd13"
        stroke="none"
        stroke-width="0"
      />
      <path
        d="m 579.09426,221.24044 c 0,11.077 12.125,19.9992 27.0183,19.9992 14.8933,0 26.9979,-8.9222 26.9979,-19.9992 v -39.9984 c 0,-11.0769 -12.1046,-19.9992 -26.9979,-19.9992 -14.5089,0 -26.459,8.4569 -27.0183,19.2261 z m 8.016,-19.9178 a 19.000006,19.000006 0 0 1 19.0023,-19.0023 19.000006,19.000006 0 0 1 18.9819,19.0023 19.000006,19.000006 0 0 1 -18.9819,19.0023 19.000006,19.000006 0 0 1 -19.0023,-19.0023 z"
        id="path288"
        fill="#f7bd13"
        stroke="none"
        stroke-width="0"
      />
      <path
        id="path292"
        d="m 679.0943,221.24044 c 0,11.077 12.125,19.9992 27.0183,19.9992 14.8933,0 26.9979,-8.9222 26.9979,-19.9992 v -39.9984 c 0,-11.0769 -12.1046,-19.9992 -26.9979,-19.9992 -14.5089,0 -26.459,8.4569 -27.0183,19.2261 z m 8.016,-19.9178 a 19.000006,19.000006 0 0 1 19.0023,-19.0023 19.000006,19.000006 0 0 1 18.9819,19.0023 19.000006,19.000006 0 0 1 -18.9819,19.0023 19.000006,19.000006 0 0 1 -19.0023,-19.0023 z"
        fill="#f7bd13"
        stroke="none"
        stroke-width="0"
      />
      <path
        d="m 779.09433,221.24044 c 0,11.077 12.125,19.9992 27.0183,19.9992 14.8933,0 26.9979,-8.9222 26.9979,-19.9992 v -39.9984 c 0,-11.0769 -12.1046,-19.9992 -26.9979,-19.9992 -14.5089,0 -26.459,8.4569 -27.0183,19.2261 z m 8.016,-19.9178 a 19.000006,19.000006 0 0 1 19.0023,-19.0023 19.000006,19.000006 0 0 1 18.9819,19.0023 19.000006,19.000006 0 0 1 -18.9819,19.0023 19.000006,19.000006 0 0 1 -19.0023,-19.0023 z"
        id="path296"
        fill="#f7bd13"
        stroke="none"
        stroke-width="0"
      />
      <path
        id="path300"
        d="m 879.09436,221.24044 c 0,11.077 12.125,19.9992 27.0183,19.9992 14.8933,0 26.9979,-8.9222 26.9979,-19.9992 v -39.9984 c 0,-11.0769 -12.1046,-19.9992 -26.9979,-19.9992 -14.5089,0 -26.459,8.4569 -27.0183,19.2261 z m 8.016,-19.9178 a 19.000006,19.000006 0 0 1 19.0023,-19.0023 19.000006,19.000006 0 0 1 18.9819,19.0023 19.000006,19.000006 0 0 1 -18.9819,19.0023 19.000006,19.000006 0 0 1 -19.0023,-19.0023 z"
        fill="#f7bd13"
        stroke="none"
        stroke-width="0"
      />
      <path
        d="m 979.09439,221.24044 c 0,11.077 12.125,19.9992 27.01831,19.9992 14.8933,0 26.9979,-8.9222 26.9979,-19.9992 v -39.9984 c 0,-11.0769 -12.1046,-19.9992 -26.9979,-19.9992 -14.50891,0 -26.45901,8.4569 -27.01831,19.2261 z m 8.016,-19.9178 a 19.000006,19.000006 0 0 1 19.00231,-19.0023 19.000006,19.000006 0 0 1 18.9819,19.0023 19.000006,19.000006 0 0 1 -18.9819,19.0023 19.000006,19.000006 0 0 1 -19.00231,-19.0023 z"
        id="path304"
        fill="#f7bd13"
        stroke="none"
        stroke-width="0"
      />
      <path
        id="path308"
        d="m 1079.0944,221.24044 c 0,11.077 12.125,19.9992 27.0183,19.9992 14.8933,0 26.9979,-8.9222 26.9979,-19.9992 v -39.9984 c 0,-11.0769 -12.1046,-19.9992 -26.9979,-19.9992 -14.5089,0 -26.459,8.4569 -27.0183,19.2261 z m 8.016,-19.9178 a 19.000006,19.000006 0 0 1 19.0023,-19.0023 19.000006,19.000006 0 0 1 18.9819,19.0023 19.000006,19.000006 0 0 1 -18.9819,19.0023 19.000006,19.000006 0 0 1 -19.0023,-19.0023 z"
        fill="#f7bd13"
        stroke="none"
        stroke-width="0"
      />
      <path
        d="m 1179.0945,221.24044 c 0,11.077 12.125,19.9992 27.0183,19.9992 14.8933,0 26.9979,-8.9222 26.9979,-19.9992 v -39.9984 c 0,-11.0769 -12.1046,-19.9992 -26.9979,-19.9992 -14.5089,0 -26.459,8.4569 -27.0183,19.2261 z m 8.016,-19.9178 a 19.000006,19.000006 0 0 1 19.0023,-19.0023 19.000006,19.000006 0 0 1 18.9819,19.0023 19.000006,19.000006 0 0 1 -18.9819,19.0023 19.000006,19.000006 0 0 1 -19.0023,-19.0023 z"
        id="path312"
        fill="#f7bd13"
        stroke="none"
        stroke-width="0"
      />
      <path
        id="path316"
        d="m 1279.0945,221.24044 c 0,11.077 12.125,19.9992 27.0183,19.9992 14.8933,0 26.9979,-8.9222 26.9979,-19.9992 v -39.9984 c 0,-11.0769 -12.1046,-19.9992 -26.9979,-19.9992 -14.5089,0 -26.459,8.4569 -27.0183,19.2261 z m 8.016,-19.9178 a 19.000006,19.000006 0 0 1 19.0023,-19.0023 19.000006,19.000006 0 0 1 18.9819,19.0023 19.000006,19.000006 0 0 1 -18.9819,19.0023 19.000006,19.000006 0 0 1 -19.0023,-19.0023 z"
        fill="#f7bd13"
        stroke="none"
        stroke-width="0"
      />
      <path
        d="m 1379.0945,221.24044 c 0,11.077 12.125,19.9992 27.0183,19.9992 14.8933,0 26.9979,-8.9222 26.9979,-19.9992 v -39.9984 c 0,-11.0769 -12.1046,-19.9992 -26.9979,-19.9992 -14.5089,0 -26.459,8.4569 -27.0183,19.2261 z m 8.016,-19.9178 a 19.000006,19.000006 0 0 1 19.0023,-19.0023 19.000006,19.000006 0 0 1 18.9819,19.0023 19.000006,19.000006 0 0 1 -18.9819,19.0023 19.000006,19.000006 0 0 1 -19.0023,-19.0023 z"
        id="path320"
        fill="#f7bd13"
        stroke="none"
        stroke-width="0"
      />
      <path
        id="path324"
        d="m 1479.0946,221.24044 c 0,11.077 12.125,19.9992 27.0183,19.9992 14.8933,0 26.9979,-8.9222 26.9979,-19.9992 v -39.9984 c 0,-11.0769 -12.1046,-19.9992 -26.9979,-19.9992 -14.5089,0 -26.459,8.4569 -27.0183,19.2261 z m 8.016,-19.9178 a 19.000006,19.000006 0 0 1 19.0023,-19.0023 19.000006,19.000006 0 0 1 18.9819,19.0023 19.000006,19.000006 0 0 1 -18.9819,19.0023 19.000006,19.000006 0 0 1 -19.0023,-19.0023 z"
        fill="#f7bd13"
        stroke="none"
        stroke-width="0"
      />
      <path
        d="m 1579.0946,221.24044 c 0,11.077 12.125,19.9992 27.0183,19.9992 14.8933,0 26.9979,-8.9222 26.9979,-19.9992 v -39.9984 c 0,-11.0769 -12.1046,-19.9992 -26.9979,-19.9992 -14.5089,0 -26.459,8.4569 -27.0183,19.2261 z m 8.016,-19.9178 a 19.000006,19.000006 0 0 1 19.0023,-19.0023 19.000006,19.000006 0 0 1 18.9819,19.0023 19.000006,19.000006 0 0 1 -18.9819,19.0023 19.000006,19.000006 0 0 1 -19.0023,-19.0023 z"
        id="path328"
        fill="#f7bd13"
        stroke="none"
        stroke-width="0"
      />
      <path
        id="path332"
        d="m 1679.0946,221.24044 c 0,11.077 12.125,19.9992 27.0183,19.9992 14.8933,0 26.9979,-8.9222 26.9979,-19.9992 v -39.9984 c 0,-11.0769 -12.1046,-19.9992 -26.9979,-19.9992 -14.5089,0 -26.459,8.4569 -27.0183,19.2261 z m 8.016,-19.9178 a 19.000006,19.000006 0 0 1 19.0023,-19.0023 19.000006,19.000006 0 0 1 18.9819,19.0023 19.000006,19.000006 0 0 1 -18.9819,19.0023 19.000006,19.000006 0 0 1 -19.0023,-19.0023 z"
        fill="#f7bd13"
        stroke="none"
        stroke-width="0"
      />
      <path
        d="m 1779.0947,221.24044 c 0,11.077 12.125,19.9992 27.0183,19.9992 14.8933,0 26.9979,-8.9222 26.9979,-19.9992 v -39.9984 c 0,-11.0769 -12.1046,-19.9992 -26.9979,-19.9992 -14.5089,0 -26.459,8.4569 -27.0183,19.2261 z m 8.016,-19.9178 a 19.000006,19.000006 0 0 1 19.0023,-19.0023 19.000006,19.000006 0 0 1 18.9819,19.0023 19.000006,19.000006 0 0 1 -18.9819,19.0023 19.000006,19.000006 0 0 1 -19.0023,-19.0023 z"
        id="path336"
        fill="#f7bd13"
        stroke="none"
        stroke-width="0"
      />
      <path
        id="path340"
        d="m 1879.0947,221.24044 c 0,11.077 12.125,19.9992 27.0183,19.9992 14.8933,0 26.9979,-8.9222 26.9979,-19.9992 v -39.9984 c 0,-11.0769 -12.1046,-19.9992 -26.9979,-19.9992 -14.5089,0 -26.459,8.4569 -27.0183,19.2261 z m 8.016,-19.9178 a 19.000006,19.000006 0 0 1 19.0023,-19.0023 19.000006,19.000006 0 0 1 18.9819,19.0023 19.000006,19.000006 0 0 1 -18.9819,19.0023 19.000006,19.000006 0 0 1 -19.0023,-19.0023 z"
        fill="#f7bd13"
        stroke="none"
        stroke-width="0"
      />
      <path
        d="m 1979.0947,221.24044 c 0,11.077 12.125,19.9992 27.0183,19.9992 14.8933,0 26.9979,-8.9222 26.9979,-19.9992 v -39.9984 c 0,-11.0769 -12.1046,-19.9992 -26.9979,-19.9992 -14.5089,0 -26.459,8.4569 -27.0183,19.2261 z m 8.016,-19.9178 a 19.000006,19.000006 0 0 1 19.0023,-19.0023 19.000006,19.000006 0 0 1 18.9819,19.0023 19.000006,19.000006 0 0 1 -18.9819,19.0023 19.000006,19.000006 0 0 1 -19.0023,-19.0023 z"
        id="path344"
        fill="#f7bd13"
        stroke="none"
        stroke-width="0"
      />
      <path
        id="path348"
        d="m 2079.0948,221.24044 c 0,11.077 12.125,19.9992 27.0183,19.9992 14.8933,0 26.9979,-8.9222 26.9979,-19.9992 v -39.9984 c 0,-11.0769 -12.1046,-19.9992 -26.9979,-19.9992 -14.5089,0 -26.459,8.4569 -27.0183,19.2261 z m 8.016,-19.9178 a 19.000006,19.000006 0 0 1 19.0023,-19.0023 19.000006,19.000006 0 0 1 18.9819,19.0023 19.000006,19.000006 0 0 1 -18.9819,19.0023 19.000006,19.000006 0 0 1 -19.0023,-19.0023 z"
        fill="#f7bd13"
        stroke="none"
        stroke-width="0"
      />
      <path
        d="m 2179.0948,221.24044 c 0,11.077 12.125,19.9992 27.0183,19.9992 14.8933,0 26.9979,-8.9222 26.9979,-19.9992 v -39.9984 c 0,-11.0769 -12.1046,-19.9992 -26.9979,-19.9992 -14.5089,0 -26.459,8.4569 -27.0183,19.2261 z m 8.016,-19.9178 a 19.000006,19.000006 0 0 1 19.0023,-19.0023 19.000006,19.000006 0 0 1 18.9819,19.0023 19.000006,19.000006 0 0 1 -18.9819,19.0023 19.000006,19.000006 0 0 1 -19.0023,-19.0023 z"
        id="path352"
        fill="#f7bd13"
        stroke="none"
        stroke-width="0"
      />
      <path
        id="path356"
        d="m 2279.0948,221.24044 c 0,11.077 12.125,19.9992 27.0183,19.9992 14.8933,0 26.9979,-8.9222 26.9979,-19.9992 v -39.9984 c 0,-11.0769 -12.1046,-19.9992 -26.9979,-19.9992 -14.5089,0 -26.459,8.4569 -27.0183,19.2261 z m 8.016,-19.9178 a 19.000006,19.000006 0 0 1 19.0023,-19.0023 19.000006,19.000006 0 0 1 18.9819,19.0023 19.000006,19.000006 0 0 1 -18.9819,19.0023 19.000006,19.000006 0 0 1 -19.0023,-19.0023 z"
        fill="#f7bd13"
        stroke="none"
        stroke-width="0"
      />
      <path
        id="path360"
        d="m 379.54832,120.75083 c 0,11.07699 12.125,19.99919 27.0183,19.99919 14.8933,0 26.9979,-8.9222 26.9979,-19.99919 V 80.752428 c 0,-11.0769 -12.1046,-19.9992 -26.9979,-19.9992 -14.5089,0 -26.459,8.4569 -27.0183,19.2261 z m 8.016,-19.9178 a 19.000006,19.000006 0 0 1 19.0023,-19.002302 19.000006,19.000006 0 0 1 18.9819,19.002302 19.000006,19.000006 0 0 1 -18.9819,19.0023 19.000006,19.000006 0 0 1 -19.0023,-19.0023 z"
        fill="#f7bd13"
        stroke="none"
        stroke-width="0"
      />
      <path
        d="m 479.09423,120.75083 c 0,11.07699 12.125,19.99919 27.0183,19.99919 14.8933,0 26.9979,-8.9222 26.9979,-19.99919 V 80.752428 c 0,-11.0769 -12.1046,-19.9992 -26.9979,-19.9992 -14.5089,0 -26.459,8.4569 -27.0183,19.2261 z m 8.016,-19.9178 a 19.000006,19.000006 0 0 1 19.0023,-19.002302 19.000006,19.000006 0 0 1 18.9819,19.002302 19.000006,19.000006 0 0 1 -18.9819,19.0023 19.000006,19.000006 0 0 1 -19.0023,-19.0023 z"
        id="path364"
        fill="#f7bd13"
        stroke="none"
        stroke-width="0"
      />
      <path
        id="path368"
        d="m 579.09426,120.75083 c 0,11.07699 12.125,19.99919 27.0183,19.99919 14.8933,0 26.9979,-8.9222 26.9979,-19.99919 V 80.752428 c 0,-11.0769 -12.1046,-19.9992 -26.9979,-19.9992 -14.5089,0 -26.459,8.4569 -27.0183,19.2261 z m 8.016,-19.9178 a 19.000006,19.000006 0 0 1 19.0023,-19.002302 19.000006,19.000006 0 0 1 18.9819,19.002302 19.000006,19.000006 0 0 1 -18.9819,19.0023 19.000006,19.000006 0 0 1 -19.0023,-19.0023 z"
        fill="#f7bd13"
        stroke="none"
        stroke-width="0"
      />
      <path
        d="m 679.0943,120.75083 c 0,11.07699 12.125,19.99919 27.0183,19.99919 14.8933,0 26.9979,-8.9222 26.9979,-19.99919 V 80.752428 c 0,-11.0769 -12.1046,-19.9992 -26.9979,-19.9992 -14.5089,0 -26.459,8.4569 -27.0183,19.2261 z m 8.016,-19.9178 a 19.000006,19.000006 0 0 1 19.0023,-19.002302 19.000006,19.000006 0 0 1 18.9819,19.002302 19.000006,19.000006 0 0 1 -18.9819,19.0023 19.000006,19.000006 0 0 1 -19.0023,-19.0023 z"
        id="path372"
        fill="#f7bd13"
        stroke="none"
        stroke-width="0"
      />
      <path
        id="path376"
        d="m 779.09433,120.75083 c 0,11.07699 12.125,19.99919 27.0183,19.99919 14.8933,0 26.9979,-8.9222 26.9979,-19.99919 V 80.752428 c 0,-11.0769 -12.1046,-19.9992 -26.9979,-19.9992 -14.5089,0 -26.459,8.4569 -27.0183,19.2261 z m 8.016,-19.9178 a 19.000006,19.000006 0 0 1 19.0023,-19.002302 19.000006,19.000006 0 0 1 18.9819,19.002302 19.000006,19.000006 0 0 1 -18.9819,19.0023 19.000006,19.000006 0 0 1 -19.0023,-19.0023 z"
        fill="#f7bd13"
        stroke="none"
        stroke-width="0"
      />
      <path
        d="m 879.09436,120.75083 c 0,11.07699 12.125,19.99919 27.0183,19.99919 14.8933,0 26.9979,-8.9222 26.9979,-19.99919 V 80.752428 c 0,-11.0769 -12.1046,-19.9992 -26.9979,-19.9992 -14.5089,0 -26.459,8.4569 -27.0183,19.2261 z m 8.016,-19.9178 a 19.000006,19.000006 0 0 1 19.0023,-19.002302 19.000006,19.000006 0 0 1 18.9819,19.002302 19.000006,19.000006 0 0 1 -18.9819,19.0023 19.000006,19.000006 0 0 1 -19.0023,-19.0023 z"
        id="path380"
        fill="#f7bd13"
        stroke="none"
        stroke-width="0"
      />
      <path
        id="path386"
        d="m 979.09439,120.75083 c 0,11.07699 12.125,19.99919 27.01831,19.99919 14.8933,0 26.9979,-8.9222 26.9979,-19.99919 V 80.752428 c 0,-11.0769 -12.1046,-19.9992 -26.9979,-19.9992 -14.50891,0 -26.45901,8.4569 -27.01831,19.2261 z m 8.016,-19.9178 a 19.000006,19.000006 0 0 1 19.00231,-19.002302 19.000006,19.000006 0 0 1 18.9819,19.002302 19.000006,19.000006 0 0 1 -18.9819,19.0023 19.000006,19.000006 0 0 1 -19.00231,-19.0023 z"
        fill="#f7bd13"
        stroke="none"
        stroke-width="0"
      />
      <path
        d="m 1079.0944,120.75083 c 0,11.07699 12.125,19.99919 27.0183,19.99919 14.8933,0 26.9979,-8.9222 26.9979,-19.99919 V 80.752428 c 0,-11.0769 -12.1046,-19.9992 -26.9979,-19.9992 -14.5089,0 -26.459,8.4569 -27.0183,19.2261 z m 8.016,-19.9178 a 19.000006,19.000006 0 0 1 19.0023,-19.002302 19.000006,19.000006 0 0 1 18.9819,19.002302 19.000006,19.000006 0 0 1 -18.9819,19.0023 19.000006,19.000006 0 0 1 -19.0023,-19.0023 z"
        id="path392"
        fill="#f7bd13"
        stroke="none"
        stroke-width="0"
      />
      <path
        id="path396"
        d="m 1179.0945,120.75083 c 0,11.07699 12.125,19.99919 27.0183,19.99919 14.8933,0 26.9979,-8.9222 26.9979,-19.99919 V 80.752428 c 0,-11.0769 -12.1046,-19.9992 -26.9979,-19.9992 -14.5089,0 -26.459,8.4569 -27.0183,19.2261 z m 8.016,-19.9178 a 19.000006,19.000006 0 0 1 19.0023,-19.002302 19.000006,19.000006 0 0 1 18.9819,19.002302 19.000006,19.000006 0 0 1 -18.9819,19.0023 19.000006,19.000006 0 0 1 -19.0023,-19.0023 z"
        fill="#f7bd13"
        stroke="none"
        stroke-width="0"
      />
      <path
        d="m 1279.0945,120.75083 c 0,11.07699 12.125,19.99919 27.0183,19.99919 14.8933,0 26.9979,-8.9222 26.9979,-19.99919 V 80.752428 c 0,-11.0769 -12.1046,-19.9992 -26.9979,-19.9992 -14.5089,0 -26.459,8.4569 -27.0183,19.2261 z m 8.016,-19.9178 a 19.000006,19.000006 0 0 1 19.0023,-19.002302 19.000006,19.000006 0 0 1 18.9819,19.002302 19.000006,19.000006 0 0 1 -18.9819,19.0023 19.000006,19.000006 0 0 1 -19.0023,-19.0023 z"
        id="path400"
        fill="#f7bd13"
        stroke="none"
        stroke-width="0"
      />
      <path
        id="path404"
        d="m 1379.0945,120.75083 c 0,11.07699 12.125,19.99919 27.0183,19.99919 14.8933,0 26.9979,-8.9222 26.9979,-19.99919 V 80.752428 c 0,-11.0769 -12.1046,-19.9992 -26.9979,-19.9992 -14.5089,0 -26.459,8.4569 -27.0183,19.2261 z m 8.016,-19.9178 a 19.000006,19.000006 0 0 1 19.0023,-19.002302 19.000006,19.000006 0 0 1 18.9819,19.002302 19.000006,19.000006 0 0 1 -18.9819,19.0023 19.000006,19.000006 0 0 1 -19.0023,-19.0023 z"
        fill="#f7bd13"
        stroke="none"
        stroke-width="0"
      />
      <path
        d="m 1479.0946,120.75083 c 0,11.07699 12.125,19.99919 27.0183,19.99919 14.8933,0 26.9979,-8.9222 26.9979,-19.99919 V 80.752428 c 0,-11.0769 -12.1046,-19.9992 -26.9979,-19.9992 -14.5089,0 -26.459,8.4569 -27.0183,19.2261 z m 8.016,-19.9178 a 19.000006,19.000006 0 0 1 19.0023,-19.002302 19.000006,19.000006 0 0 1 18.9819,19.002302 19.000006,19.000006 0 0 1 -18.9819,19.0023 19.000006,19.000006 0 0 1 -19.0023,-19.0023 z"
        id="path408"
        fill="#f7bd13"
        stroke="none"
        stroke-width="0"
      />
      <path
        id="path412"
        d="m 1579.0946,120.75083 c 0,11.07699 12.125,19.99919 27.0183,19.99919 14.8933,0 26.9979,-8.9222 26.9979,-19.99919 V 80.752428 c 0,-11.0769 -12.1046,-19.9992 -26.9979,-19.9992 -14.5089,0 -26.459,8.4569 -27.0183,19.2261 z m 8.016,-19.9178 a 19.000006,19.000006 0 0 1 19.0023,-19.002302 19.000006,19.000006 0 0 1 18.9819,19.002302 19.000006,19.000006 0 0 1 -18.9819,19.0023 19.000006,19.000006 0 0 1 -19.0023,-19.0023 z"
        fill="#f7bd13"
        stroke="none"
        stroke-width="0"
      />
      <path
        d="m 1679.0946,120.75083 c 0,11.07699 12.125,19.99919 27.0183,19.99919 14.8933,0 26.9979,-8.9222 26.9979,-19.99919 V 80.752428 c 0,-11.0769 -12.1046,-19.9992 -26.9979,-19.9992 -14.5089,0 -26.459,8.4569 -27.0183,19.2261 z m 8.016,-19.9178 a 19.000006,19.000006 0 0 1 19.0023,-19.002302 19.000006,19.000006 0 0 1 18.9819,19.002302 19.000006,19.000006 0 0 1 -18.9819,19.0023 19.000006,19.000006 0 0 1 -19.0023,-19.0023 z"
        id="path416"
        fill="#f7bd13"
        stroke="none"
        stroke-width="0"
      />
      <path
        id="path420"
        d="m 1779.0947,120.75083 c 0,11.07699 12.125,19.99919 27.0183,19.99919 14.8933,0 26.9979,-8.9222 26.9979,-19.99919 V 80.752428 c 0,-11.0769 -12.1046,-19.9992 -26.9979,-19.9992 -14.5089,0 -26.459,8.4569 -27.0183,19.2261 z m 8.016,-19.9178 a 19.000006,19.000006 0 0 1 19.0023,-19.002302 19.000006,19.000006 0 0 1 18.9819,19.002302 19.000006,19.000006 0 0 1 -18.9819,19.0023 19.000006,19.000006 0 0 1 -19.0023,-19.0023 z"
        fill="#f7bd13"
        stroke="none"
        stroke-width="0"
      />
      <path
        d="m 1879.0947,120.75083 c 0,11.07699 12.125,19.99919 27.0183,19.99919 14.8933,0 26.9979,-8.9222 26.9979,-19.99919 V 80.752428 c 0,-11.0769 -12.1046,-19.9992 -26.9979,-19.9992 -14.5089,0 -26.459,8.4569 -27.0183,19.2261 z m 8.016,-19.9178 a 19.000006,19.000006 0 0 1 19.0023,-19.002302 19.000006,19.000006 0 0 1 18.9819,19.002302 19.000006,19.000006 0 0 1 -18.9819,19.0023 19.000006,19.000006 0 0 1 -19.0023,-19.0023 z"
        id="path424"
        fill="#f7bd13"
        stroke="none"
        stroke-width="0"
      />
      <path
        id="path428"
        d="m 1979.0947,120.75083 c 0,11.07699 12.125,19.99919 27.0183,19.99919 14.8933,0 26.9979,-8.9222 26.9979,-19.99919 V 80.752428 c 0,-11.0769 -12.1046,-19.9992 -26.9979,-19.9992 -14.5089,0 -26.459,8.4569 -27.0183,19.2261 z m 8.016,-19.9178 a 19.000006,19.000006 0 0 1 19.0023,-19.002302 19.000006,19.000006 0 0 1 18.9819,19.002302 19.000006,19.000006 0 0 1 -18.9819,19.0023 19.000006,19.000006 0 0 1 -19.0023,-19.0023 z"
        fill="#f7bd13"
        stroke="none"
        stroke-width="0"
      />
      <path
        d="m 2079.0948,120.75083 c 0,11.07699 12.125,19.99919 27.0183,19.99919 14.8933,0 26.9979,-8.9222 26.9979,-19.99919 V 80.752428 c 0,-11.0769 -12.1046,-19.9992 -26.9979,-19.9992 -14.5089,0 -26.459,8.4569 -27.0183,19.2261 z m 8.016,-19.9178 a 19.000006,19.000006 0 0 1 19.0023,-19.002302 19.000006,19.000006 0 0 1 18.9819,19.002302 19.000006,19.000006 0 0 1 -18.9819,19.0023 19.000006,19.000006 0 0 1 -19.0023,-19.0023 z"
        id="path432"
        fill="#f7bd13"
        stroke="none"
        stroke-width="0"
      />
      <path
        id="path438"
        d="m 2179.0948,120.75083 c 0,11.07699 12.125,19.99919 27.0183,19.99919 14.8933,0 26.9979,-8.9222 26.9979,-19.99919 V 80.752428 c 0,-11.0769 -12.1046,-19.9992 -26.9979,-19.9992 -14.5089,0 -26.459,8.4569 -27.0183,19.2261 z m 8.016,-19.9178 a 19.000006,19.000006 0 0 1 19.0023,-19.002302 19.000006,19.000006 0 0 1 18.9819,19.002302 19.000006,19.000006 0 0 1 -18.9819,19.0023 19.000006,19.000006 0 0 1 -19.0023,-19.0023 z"
        fill="#f7bd13"
        stroke="none"
        stroke-width="0"
      />
      <path
        d="m 2279.0948,120.75083 c 0,11.07699 12.125,19.99919 27.0183,19.99919 14.8933,0 26.9979,-8.9222 26.9979,-19.99919 V 80.752428 c 0,-11.0769 -12.1046,-19.9992 -26.9979,-19.9992 -14.5089,0 -26.459,8.4569 -27.0183,19.2261 z m 8.016,-19.9178 a 19.000006,19.000006 0 0 1 19.0023,-19.002302 19.000006,19.000006 0 0 1 18.9819,19.002302 19.000006,19.000006 0 0 1 -18.9819,19.0023 19.000006,19.000006 0 0 1 -19.0023,-19.0023 z"
        id="path442"
        fill="#f7bd13"
        stroke="none"
        stroke-width="0"
      />
      <circle
        gorn="0.2.0.0"
        id="connector0pin"
        cy="201.23888"
        cx="406.56842"
        r="23.000008"
        fill="none"
        stroke="#ffbf00"
        stroke-width="8"
      />
      <circle
        r="23.000008"
        cx="406.56842"
        cy="100.74925"
        id="connector1pin"
        gorn="0.2.0.0"
        fill="none"
        stroke="#ffbf00"
        stroke-width="8"
      />
      <circle
        r="23.000008"
        cx="506.11432"
        cy="201.23888"
        id="connector2pin"
        gorn="0.2.0.0"
        fill="none"
        stroke="#ffbf00"
        stroke-width="8"
      />
      <circle
        gorn="0.2.0.0"
        id="connector3pin"
        cy="100.74925"
        cx="506.11432"
        r="23.000008"
        fill="none"
        stroke="#ffbf00"
        stroke-width="8"
      />
      <circle
        gorn="0.2.0.0"
        id="connector4pin"
        cy="201.23888"
        cx="606.11438"
        r="23.000008"
        fill="none"
        stroke="#ffbf00"
        stroke-width="8"
      />
      <circle
        r="23.000008"
        cx="606.11438"
        cy="100.74925"
        id="connector5pin"
        gorn="0.2.0.0"
        fill="none"
        stroke="#ffbf00"
        stroke-width="8"
      />
      <circle
        r="23.000008"
        cx="706.11438"
        cy="201.23888"
        id="connector6pin"
        gorn="0.2.0.0"
        fill="none"
        stroke="#ffbf00"
        stroke-width="8"
      />
      <circle
        gorn="0.2.0.0"
        id="connector7pin"
        cy="100.74925"
        cx="706.11438"
        r="23.000008"
        fill="none"
        stroke="#ffbf00"
        stroke-width="8"
      />
      <circle
        gorn="0.2.0.0"
        id="connector8pin"
        cy="201.23888"
        cx="806.11444"
        r="23.000008"
        fill="none"
        stroke="#ffbf00"
        stroke-width="8"
      />
      <circle
        r="23.000008"
        cx="806.11444"
        cy="100.74925"
        id="connector9pin"
        gorn="0.2.0.0"
        fill="none"
        stroke="#ffbf00"
        stroke-width="8"
      />
      <circle
        r="23.000008"
        cx="906.11444"
        cy="201.23888"
        id="connector10pin"
        gorn="0.2.0.0"
        fill="none"
        stroke="#ffbf00"
        stroke-width="8"
      />
      <circle
        gorn="0.2.0.0"
        id="connector11pin"
        cy="100.74925"
        cx="906.11444"
        r="23.000008"
        fill="none"
        stroke="#ffbf00"
        stroke-width="8"
      />
      <circle
        gorn="0.2.0.0"
        id="connector12pin"
        cy="201.23888"
        cx="1006.1145"
        r="23.000008"
        fill="none"
        stroke="#ffbf00"
        stroke-width="8"
      />
      <circle
        r="23.000008"
        cx="1006.1145"
        cy="100.74925"
        id="connector13pin"
        gorn="0.2.0.0"
        fill="none"
        stroke="#ffbf00"
        stroke-width="8"
      />
      <circle
        r="23.000008"
        cx="1106.1146"
        cy="201.23888"
        id="connector14pin"
        gorn="0.2.0.0"
        fill="none"
        stroke="#ffbf00"
        stroke-width="8"
      />
      <circle
        gorn="0.2.0.0"
        id="connector15pin"
        cy="100.74925"
        cx="1106.1146"
        r="23.000008"
        fill="none"
        stroke="#ffbf00"
        stroke-width="8"
      />
      <circle
        gorn="0.2.0.0"
        id="connector16pin"
        cy="201.23888"
        cx="1206.1146"
        r="23.000008"
        fill="none"
        stroke="#ffbf00"
        stroke-width="8"
      />
      <circle
        r="23.000008"
        cx="1206.1146"
        cy="100.74925"
        id="connector17pin"
        gorn="0.2.0.0"
        fill="none"
        stroke="#ffbf00"
        stroke-width="8"
      />
      <circle
        r="23.000008"
        cx="1306.1146"
        cy="201.23888"
        id="connector18pin"
        gorn="0.2.0.0"
        fill="none"
        stroke="#ffbf00"
        stroke-width="8"
      />
      <circle
        gorn="0.2.0.0"
        id="connector19pin"
        cy="100.74925"
        cx="1306.1146"
        r="23.000008"
        fill="none"
        stroke="#ffbf00"
        stroke-width="8"
      />
      <circle
        gorn="0.2.0.0"
        id="connector20pin"
        cy="201.23888"
        cx="1406.1147"
        r="23.000008"
        fill="none"
        stroke="#ffbf00"
        stroke-width="8"
      />
      <circle
        r="23.000008"
        cx="1406.1147"
        cy="100.74925"
        id="connector21pin"
        gorn="0.2.0.0"
        fill="none"
        stroke="#ffbf00"
        stroke-width="8"
      />
      <circle
        r="23.000008"
        cx="1506.1149"
        cy="201.23888"
        id="connector22pin"
        gorn="0.2.0.0"
        fill="none"
        stroke="#ffbf00"
        stroke-width="8"
      />
      <circle
        gorn="0.2.0.0"
        id="connector23pin"
        cy="100.74925"
        cx="1506.1149"
        r="23.000008"
        fill="none"
        stroke="#ffbf00"
        stroke-width="8"
      />
      <circle
        gorn="0.2.0.0"
        id="connector24pin"
        cy="201.23888"
        cx="1606.1149"
        r="23.000008"
        fill="none"
        stroke="#ffbf00"
        stroke-width="8"
      />
      <circle
        r="23.000008"
        cx="1606.1149"
        cy="100.74925"
        id="connector25pin"
        gorn="0.2.0.0"
        fill="none"
        stroke="#ffbf00"
        stroke-width="8"
      />
      <circle
        r="23.000008"
        cx="1706.1149"
        cy="201.23888"
        id="connector26pin"
        gorn="0.2.0.0"
        fill="none"
        stroke="#ffbf00"
        stroke-width="8"
      />
      <circle
        gorn="0.2.0.0"
        id="connector27pin"
        cy="100.74925"
        cx="1706.1149"
        r="23.000008"
        fill="none"
        stroke="#ffbf00"
        stroke-width="8"
      />
      <circle
        gorn="0.2.0.0"
        id="connector28pin"
        cy="201.23888"
        cx="1806.115"
        r="23.000008"
        fill="none"
        stroke="#ffbf00"
        stroke-width="8"
      />
      <circle
        r="23.000008"
        cx="1806.115"
        cy="100.74925"
        id="connector29pin"
        gorn="0.2.0.0"
        fill="none"
        stroke="#ffbf00"
        stroke-width="8"
      />
      <circle
        r="23.000008"
        cx="1906.115"
        cy="201.23888"
        id="connector30pin"
        gorn="0.2.0.0"
        fill="none"
        stroke="#ffbf00"
        stroke-width="8"
      />
      <circle
        gorn="0.2.0.0"
        id="connector31pin"
        cy="100.74925"
        cx="1906.115"
        r="23.000008"
        fill="none"
        stroke="#ffbf00"
        stroke-width="8"
      />
      <circle
        gorn="0.2.0.0"
        id="connector32pin"
        cy="201.23888"
        cx="2006.115"
        r="23.000008"
        fill="none"
        stroke="#ffbf00"
        stroke-width="8"
      />
      <circle
        r="23.000008"
        cx="2006.115"
        cy="100.74925"
        id="connector33pin"
        gorn="0.2.0.0"
        fill="none"
        stroke="#ffbf00"
        stroke-width="8"
      />
      <circle
        r="23.000008"
        cx="2106.115"
        cy="201.23888"
        id="connector34pin"
        gorn="0.2.0.0"
        fill="none"
        stroke="#ffbf00"
        stroke-width="8"
      />
      <circle
        gorn="0.2.0.0"
        id="connector35pin"
        cy="100.74925"
        cx="2106.115"
        r="23.000008"
        fill="none"
        stroke="#ffbf00"
        stroke-width="8"
      />
      <circle
        gorn="0.2.0.0"
        id="connector36pin"
        cy="201.23888"
        cx="2206.115"
        r="23.000008"
        fill="none"
        stroke="#ffbf00"
        stroke-width="8"
      />
      <circle
        r="23.000008"
        cx="2206.115"
        cy="100.74925"
        id="connector37pin"
        gorn="0.2.0.0"
        fill="none"
        stroke="#ffbf00"
        stroke-width="8"
      />
      <circle
        r="23.000008"
        cx="2306.115"
        cy="201.23888"
        id="connector38pin"
        gorn="0.2.0.0"
        fill="none"
        stroke="#ffbf00"
        stroke-width="8"
      />
      <circle
        gorn="0.2.0.0"
        id="connector39pin"
        cy="100.74925"
        cx="2306.115"
        r="23.000008"
        fill="none"
        stroke="#ffbf00"
        stroke-width="8"
      />
      <circle
        gorn="0.2.0.0"
        id="connector40pin"
        cy="350.86249"
        cx="2580.6169"
        r="29"
        fill="none"
        stroke="#ffbf00"
        stroke-width="20"
      />
      <circle
        gorn="0.2.0.0"
        id="connector41pin"
        cy="451.00012"
        cx="2580.6169"
        r="29"
        fill="none"
        stroke="#ffbf00"
        stroke-width="20"
      />
      <circle
        gorn="0.2.0.0"
        id="connector42pin"
        cy="551.00012"
        cx="2580.6169"
        r="29"
        fill="none"
        stroke="#ffbf00"
        stroke-width="20"
      />
      <circle
        gorn="0.2.0.0"
        id="connector43pin"
        cy="651.00018"
        cx="2580.6169"
        r="29"
        fill="none"
        stroke="#ffbf00"
        stroke-width="20"
      />
      <circle
        gorn="0.2.0.0"
        id="connector44pin"
        cy="751.00018"
        cx="2580.6169"
        r="29"
        fill="none"
        stroke="#ffbf00"
        stroke-width="20"
      />
      <circle
        gorn="0.2.0.0"
        id="connector45pin"
        cy="851.00024"
        cx="2580.6169"
        r="29"
        fill="none"
        stroke="#ffbf00"
        stroke-width="20"
      />
      <circle
        gorn="0.2.0.0"
        id="connector46pin"
        cy="951.00024"
        cx="2580.6169"
        r="29"
        fill="none"
        stroke="#ffbf00"
        stroke-width="20"
      />
      <circle
        gorn="0.2.0.0"
        id="connector47pin"
        cy="1051.0002"
        cx="2580.6169"
        r="29"
        fill="none"
        stroke="#ffbf00"
        stroke-width="20"
      />
      <circle
        gorn="0.2.0.0"
        id="connector48pin"
        cy="1151.0004"
        cx="2580.6169"
        r="29"
        fill="none"
        stroke="#ffbf00"
        stroke-width="20"
      />
      <circle
        gorn="0.2.0.0"
        id="connector49pin"
        cy="1251.0004"
        cx="2580.6169"
        r="29"
        fill="none"
        stroke="#ffbf00"
        stroke-width="20"
      />
      <circle
        gorn="0.2.0.0"
        id="connector50pin"
        cy="1351.0004"
        cx="2580.6169"
        r="29"
        fill="none"
        stroke="#ffbf00"
        stroke-width="20"
      />
      <circle
        gorn="0.2.0.0"
        id="connector51pin"
        cy="1451.0004"
        cx="2580.6169"
        r="29"
        fill="none"
        stroke="#ffbf00"
        stroke-width="20"
      />
      <circle
        gorn="0.2.0.0"
        id="connector52pin"
        cy="1551.0005"
        cx="2580.6169"
        r="29"
        fill="none"
        stroke="#ffbf00"
        stroke-width="20"
      />
      <circle
        gorn="0.2.0.0"
        id="connector53pin"
        cy="1651.0005"
        cx="2580.6169"
        r="29"
        fill="none"
        stroke="#ffbf00"
        stroke-width="20"
      />
      <circle
        gorn="0.2.0.0"
        id="connector54pin"
        cy="1751.0005"
        cx="2580.6169"
        r="29"
        fill="none"
        stroke="#ffbf00"
        stroke-width="20"
      />
      <circle
        gorn="0.2.0.0"
        id="connector55pin"
        cy="1851.0005"
        cx="2580.6169"
        r="29"
        fill="none"
        stroke="#ffbf00"
        stroke-width="20"
      />
    </g>
  </g>
</svg>
