<?xml version='1.0' encoding='UTF-8' standalone='no'?>
<svg xmlns="http://www.w3.org/2000/svg" y="0in" id="svg1333" x="0in" viewBox="0 0 42.65802 57.057982" height="0.79247218in" gorn="0"  width="0.5924722in" version="1.2">
    <desc >
        <referenceFile >TMC2209_pcb.svg</referenceFile>
    </desc>
    <metadata id="metadata1339" >
        <rdf:RDF xmlns:rdf="http://www.w3.org/1999/02/22-rdf-syntax-ns#">
            <cc:Work xmlns:cc="http://creativecommons.org/ns#" rdf:about="" xmlns:rdf="http://www.w3.org/1999/02/22-rdf-syntax-ns#">
                <dc:format xmlns:dc="http://purl.org/dc/elements/1.1/">image/svg+xml</dc:format>
                <dc:type rdf:resource="http://purl.org/dc/dcmitype/StillImage" xmlns:rdf="http://www.w3.org/1999/02/22-rdf-syntax-ns#" xmlns:dc="http://purl.org/dc/elements/1.1/"/>
                <dc:title xmlns:dc="http://purl.org/dc/elements/1.1/"/>
            </cc:Work>
        </rdf:RDF>
    </metadata>
    <defs id="defs1337" >
        <rect y="12.135118" id="rect2001" x="0" height="34.664886" gorn="0.2.0"  width="23.202345"/>
    </defs>
    <g transform="translate(-3.8719964,-3.8710007)" >
        <g >
            <g >
                <g >
                    <g >
                        <g id="copper0" gorn="0.3.0.0.0.0.0" >
                            <g id="copper1" gorn="0.3.0.0.0.0.0.0" >
                                <circle cx="7.2009964" fill="none" id="connector130" stroke="#f7bd13" cy="7.2000008" r="1.984" stroke-width="1.25" gorn="0.3.0.0.0.0.0.0.0" />
                                <circle cx="7.2009964" fill="none" id="connector131" stroke="#f7bd13" cy="14.400002" r="1.984" stroke-width="1.25" gorn="0.3.0.0.0.0.0.0.1" />
                                <circle cx="7.2009964" fill="none" id="connector132" stroke="#f7bd13" cy="21.600002" r="1.984" stroke-width="1.25" gorn="0.3.0.0.0.0.0.0.2" />
                                <circle cx="7.2009964" fill="none" id="connector133" stroke="#f7bd13" cy="28.800003" r="1.984" stroke-width="1.25" gorn="0.3.0.0.0.0.0.0.3" />
                                <circle cx="7.2009964" fill="none" id="connector134" stroke="#f7bd13" cy="36.000004" r="1.984" stroke-width="1.25" gorn="0.3.0.0.0.0.0.0.4" />
                                <circle cx="7.2009964" fill="none" id="connector135" stroke="#f7bd13" cy="43.200005" r="1.984" stroke-width="1.25" gorn="0.3.0.0.0.0.0.0.5" />
                                <circle cx="7.2009964" fill="none" id="connector136" stroke="#f7bd13" cy="50.400005" r="1.984" stroke-width="1.25" gorn="0.3.0.0.0.0.0.0.6" />
                                <circle cx="7.2009964" fill="none" id="connector137" stroke="#f7bd13" cy="57.600006" r="1.984" stroke-width="1.25" gorn="0.3.0.0.0.0.0.0.7" />
                                <circle cx="43.201" fill="none" id="connector140" stroke="#f7bd13" cy="7.2000008" r="1.984" stroke-width="1.25" gorn="0.3.0.0.0.0.0.0.8" />
                                <circle cx="43.201" fill="none" id="connector141" stroke="#f7bd13" cy="14.400002" r="1.984" stroke-width="1.25" gorn="0.3.0.0.0.0.0.0.9" />
                                <circle cx="43.201" fill="none" id="connector143" stroke="#f7bd13" cy="21.600002" r="1.984" stroke-width="1.25" gorn="0.3.0.0.0.0.0.0.10" />
                                <circle cx="43.201" fill="none" id="connector144" stroke="#f7bd13" cy="28.800003" r="1.984" stroke-width="1.25" gorn="0.3.0.0.0.0.0.0.11" />
                                <circle cx="43.201" fill="none" id="connector145" stroke="#f7bd13" cy="36.000004" r="1.984" stroke-width="1.25" gorn="0.3.0.0.0.0.0.0.12" />
                                <circle cx="43.201" fill="none" id="connector142" stroke="#f7bd13" cy="43.200005" r="1.984" stroke-width="1.25" gorn="0.3.0.0.0.0.0.0.13" />
                                <circle cx="43.201" fill="none" id="connector146" stroke="#f7bd13" cy="50.400005" r="1.984" stroke-width="1.25" gorn="0.3.0.0.0.0.0.0.14" />
                                <circle cx="43.201" fill="none" id="connector147" stroke="#f7bd13" cy="57.600006" r="1.984" stroke-width="1.25" gorn="0.3.0.0.0.0.0.0.15" />
                                <circle cx="14.400997" fill="none" id="connector149pin" stroke="#f7bd13" cy="7.2000008" r="1.984" stroke-width="1.25" gorn="0.3.0.0.0.0.0.0.16" />
                                <circle cx="21.600998" fill="none" id="connector148pin" stroke="#f7bd13" cy="7.2000008" r="1.984" stroke-width="1.25" gorn="0.3.0.0.0.0.0.0.17" />
                                <circle cx="18.000998" fill="none" id="connector19" stroke="#f7bd13" cy="11.972978" r="1.984" stroke-width="1.25" gorn="0.3.0.0.0.0.0.0.18" />
                            </g>
                        </g>
                    </g>
                </g>
            </g>
        </g>
    </g>
    <g id="silkscreen" gorn="0.4" >
        <g fill="#f7bd13" id="text2269" fill-opacity="1" font-size="5" xml:space="preserve" style="line-height:1.25;font-family:OCRA;-inkscape-font-specification:'OCRA, Normal';letter-spacing:0px;word-spacing:0px;writing-mode:lr-tb;" stroke-width="0.75" gorn="0.4.0"  xmlns:xml="http://www.w3.org/XML/1998/namespace">
            <text y="55.392635" fill="#f7bd13" id="tspan2267" fill-opacity="1" x="8.8000889" font-size="5" stroke-width="0.75" gorn="0.4.0.0" >TMC2209</text>
        </g>
    </g>
</svg>
