<?xml version='1.0' encoding='UTF-8' standalone='no'?>
<svg xmlns="http://www.w3.org/2000/svg" y="0in" id="svg1285" viewBox="0 0 43.199997 71.999984" x="0in" height="1in" gorn="0"  width="0.60000002in" version="1.2">
    <desc >
        <referenceFile >TMC2209_schemIS.svg</referenceFile>
    </desc>
    <metadata id="metadata1291" >
        <rdf:RDF xmlns:rdf="http://www.w3.org/1999/02/22-rdf-syntax-ns#">
            <cc:Work xmlns:cc="http://creativecommons.org/ns#" rdf:about="" xmlns:rdf="http://www.w3.org/1999/02/22-rdf-syntax-ns#">
                <dc:format xmlns:dc="http://purl.org/dc/elements/1.1/">image/svg+xml</dc:format>
                <dc:type rdf:resource="http://purl.org/dc/dcmitype/StillImage" xmlns:rdf="http://www.w3.org/1999/02/22-rdf-syntax-ns#" xmlns:dc="http://purl.org/dc/elements/1.1/"/>
                <dc:title xmlns:dc="http://purl.org/dc/elements/1.1/"/>
            </cc:Work>
        </rdf:RDF>
    </metadata>
    <defs id="defs1289" />
    <path fill="none" id="path2146" stroke="#000000" style="stroke-linecap:butt;stroke-linejoin:miter;" stroke-width="0.490606" gorn="0.3"  d="m 14.431518,7.1999992 0.09569,-3.5999995" stroke-opacity="1"/>
    <path fill="none" id="path2148" stroke="#000000" style="stroke-linecap:butt;stroke-linejoin:miter;" stroke-width="0.490606" gorn="0.4"  d="M 21.727203,7.1999992 V 3.5999997" stroke-opacity="1"/>
    <path fill="none" id="path2150" stroke="#000000" style="stroke-linecap:butt;stroke-linejoin:miter;" stroke-width="0.490606" gorn="0.5"  d="M 28.927202,7.1999992 V 3.5999997" stroke-opacity="1"/>
    <rect y="7.4223337" fill="none" id="rect2152" x="7.3272042" stroke="#000000" style="stroke-linecap:square;stroke-miterlimit:4;stroke-dasharray:none;paint-order:fill markers stroke" stroke-width="0.525334" height="60.977657" gorn="0.6"  width="28.799995" stroke-opacity="1"/>
    <path fill="none" id="path2156" stroke="#000000" style="stroke-linecap:butt;stroke-linejoin:miter;" stroke-width="0.626079" gorn="0.7"  d="M 7.3272045,14.356585 H 4.3425905" stroke-opacity="1"/>
    <path fill="none" id="path2156-0" stroke="#000000" style="stroke-linecap:butt;stroke-linejoin:miter;" stroke-width="0.626079" gorn="0.8"  d="M 7.199999,21.599997 H 4.215385" stroke-opacity="1"/>
    <path fill="none" id="path2156-07" stroke="#000000" style="stroke-linecap:butt;stroke-linejoin:miter;" stroke-width="0.626079" gorn="0.9"  d="M 7.199999,28.799997 H 4.215386" stroke-opacity="1"/>
    <path fill="none" id="path2156-00" stroke="#000000" style="stroke-linecap:butt;stroke-linejoin:miter;" stroke-width="0.626079" gorn="0.10"  d="M 7.199999,35.999995 H 4.215386" stroke-opacity="1"/>
    <path fill="none" id="path2156-1" stroke="#000000" style="stroke-linecap:butt;stroke-linejoin:miter;" stroke-width="0.626079" gorn="0.11"  d="M 7.199999,43.199994 H 4.215386" stroke-opacity="1"/>
    <path fill="none" id="path2156-08" stroke="#000000" style="stroke-linecap:butt;stroke-linejoin:miter;" stroke-width="0.626079" gorn="0.12"  d="M 7.199999,50.399993 H 4.215385" stroke-opacity="1"/>
    <path fill="none" id="path2156-2" stroke="#000000" style="stroke-linecap:butt;stroke-linejoin:miter;" stroke-width="0.626079" gorn="0.13"  d="M 7.199999,57.599992 H 4.215385" stroke-opacity="1"/>
    <path fill="none" id="path2156-03" stroke="#000000" style="stroke-linecap:butt;stroke-linejoin:miter;" stroke-width="0.626079" gorn="0.14"  d="M 7.199999,64.799991 H 4.215385" stroke-opacity="1"/>
    <path fill="none" id="path2156-6" stroke="#000000" style="stroke-linecap:butt;stroke-linejoin:miter;" stroke-width="0.626079" gorn="0.15"  d="M 39.104638,14.399998 H 36.120025" stroke-opacity="1"/>
    <path fill="none" id="path2156-0-0" stroke="#000000" style="stroke-linecap:butt;stroke-linejoin:miter;" stroke-width="0.626079" gorn="0.16"  d="M 38.984608,21.599996 H 35.999994" stroke-opacity="1"/>
    <path fill="none" id="path2156-07-0" stroke="#000000" style="stroke-linecap:butt;stroke-linejoin:miter;" stroke-width="0.626079" gorn="0.17"  d="M 38.984607,28.799995 H 35.999994" stroke-opacity="1"/>
    <path fill="none" id="path2156-00-7" stroke="#000000" style="stroke-linecap:butt;stroke-linejoin:miter;" stroke-width="0.626079" gorn="0.18"  d="M 38.984607,35.999994 H 35.999994" stroke-opacity="1"/>
    <path fill="none" id="path2156-1-6" stroke="#000000" style="stroke-linecap:butt;stroke-linejoin:miter;" stroke-width="0.626079" gorn="0.19"  d="M 38.984607,43.199993 H 35.999994" stroke-opacity="1"/>
    <path fill="none" id="path2156-08-9" stroke="#000000" style="stroke-linecap:butt;stroke-linejoin:miter;" stroke-width="0.626079" gorn="0.20"  d="M 38.984607,50.399991 H 35.999994" stroke-opacity="1"/>
    <path fill="none" id="path2156-2-8" stroke="#000000" style="stroke-linecap:butt;stroke-linejoin:miter;" stroke-width="0.626079" gorn="0.21"  d="M 38.984607,57.59999 H 35.999994" stroke-opacity="1"/>
    <path fill="none" id="path2156-03-8" stroke="#000000" style="stroke-linecap:butt;stroke-linejoin:miter;" stroke-width="0.626079" gorn="0.22"  d="M 38.984608,64.799989 H 35.999994" stroke-opacity="1"/>
    <path fill="none" id="connector130" stroke="#ff0000" style="stroke-linecap:butt;stroke-linejoin:miter;" stroke-width="0.626079" gorn="0.23"  d="M 4.3425905,14.356585 H 1.3579771" stroke-opacity="1"/>
    <rect y="14.356" fill="none" id="connector130terminal" x="1.04133" stroke="none" stroke-width="0" height="0.00125216" gorn="0.24"  width="0.00722138"/>
    <path fill="none" id="connector149pin" stroke="#ff0000" style="stroke-linecap:butt;stroke-linejoin:miter;stroke-miterlimit:4;stroke-dasharray:none;" stroke-width="0.501511" gorn="0.25"  d="M 14.527204,3.5999997 V 1.7466172e-7" stroke-opacity="1"/>
    <rect y="-0.254857" fill="none" id="connector149terminal" x="14.5267" stroke="none" stroke-width="0" height="0.00820302" gorn="0.26"  width="0.00100302"/>
    <path fill="none" id="connector150pin" stroke="#ff0000" style="stroke-linecap:butt;stroke-linejoin:miter;stroke-miterlimit:4;stroke-dasharray:none;" stroke-width="0.501511" gorn="0.27"  d="M 21.727203,3.5999997 V 1.7466172e-7" stroke-opacity="1"/>
    <rect y="-0.254857" fill="none" id="connector150terminal" x="21.7267" stroke="none" stroke-width="0" height="0.00820302" gorn="0.28"  width="0.00100302"/>
    <path fill="none" id="connector148pin" stroke="#ff0000" style="stroke-linecap:butt;stroke-linejoin:miter;stroke-miterlimit:4;stroke-dasharray:none;" stroke-width="0.501511" gorn="0.29"  d="M 28.927202,3.5999997 V -2.1692219e-8" stroke-opacity="1"/>
    <rect y="-0.254857" fill="none" id="connector148terminal" x="28.9267" stroke="none" stroke-width="0" height="0.00820302" gorn="0.30"  width="0.00100302"/>
    <path fill="none" id="connector131" stroke="#ff0000" style="stroke-linecap:butt;stroke-linejoin:miter;" stroke-width="0.626079" gorn="0.31"  d="M 4.215385,21.599997 H 1.2307716" stroke-opacity="1"/>
    <rect y="21.5994" fill="none" id="connector131terminal" x="0.914121" stroke="none" stroke-width="0" height="0.00125216" gorn="0.32"  width="0.00722138"/>
    <path fill="none" id="connector132" stroke="#ff0000" style="stroke-linecap:butt;stroke-linejoin:miter;" stroke-width="0.626079" gorn="0.33"  d="M 4.215385,28.799997 H 1.2307714" stroke-opacity="1"/>
    <rect y="28.7994" fill="none" id="connector132terminal" x="0.914121" stroke="none" stroke-width="0" height="0.00125216" gorn="0.34"  width="0.00722139"/>
    <path fill="none" id="connector133" stroke="#ff0000" style="stroke-linecap:butt;stroke-linejoin:miter;" stroke-width="0.626079" gorn="0.35"  d="M 4.215385,35.999995 H 1.2307714" stroke-opacity="1"/>
    <rect y="35.9994" fill="none" id="connector133terminal" x="0.914121" stroke="none" stroke-width="0" height="0.00125216" gorn="0.36"  width="0.00722139"/>
    <path fill="none" id="connector134" stroke="#ff0000" style="stroke-linecap:butt;stroke-linejoin:miter;" stroke-width="0.626079" gorn="0.37"  d="M 4.215385,43.199994 H 1.2307716" stroke-opacity="1"/>
    <rect y="43.1994" fill="none" id="connector134terminal" x="0.914121" stroke="none" stroke-width="0" height="0.00125216" gorn="0.38"  width="0.00722138"/>
    <path fill="none" id="connector135" stroke="#ff0000" style="stroke-linecap:butt;stroke-linejoin:miter;" stroke-width="0.626079" gorn="0.39"  d="M 4.215385,50.399993 H 1.2307719" stroke-opacity="1"/>
    <rect y="50.3994" fill="none" id="connector135terminal" x="0.914122" stroke="none" stroke-width="0" height="0.00125216" gorn="0.40"  width="0.00722138"/>
    <path fill="none" id="connector136" stroke="#ff0000" style="stroke-linecap:butt;stroke-linejoin:miter;" stroke-width="0.626079" gorn="0.41"  d="M 4.215385,57.599992 H 1.2307717" stroke-opacity="1"/>
    <rect y="57.5994" fill="none" id="connector136terminal" x="0.914122" stroke="none" stroke-width="0" height="0.00125216" gorn="0.42"  width="0.00722138"/>
    <path fill="none" id="connector137" stroke="#ff0000" style="stroke-linecap:butt;stroke-linejoin:miter;" stroke-width="0.626079" gorn="0.43"  d="M 4.215385,64.799991 H 1.2307717" stroke-opacity="1"/>
    <rect y="64.7994" fill="none" id="connector137terminal" x="0.914122" stroke="none" stroke-width="0" height="0.00125216" gorn="0.44"  width="0.00722138"/>
    <path fill="none" id="connector140" stroke="#ff0000" style="stroke-linecap:butt;stroke-linejoin:miter;" stroke-width="0.626079" gorn="0.45"  d="M 42.089252,14.399998 H 39.104638" stroke-opacity="1"/>
    <rect y="14.3994" fill="none" id="connector140terminal" x="42.3987" stroke="none" stroke-width="0" height="0.00125216" gorn="0.46"  width="0.00722139"/>
    <path fill="none" id="connector141" stroke="#ff0000" style="stroke-linecap:butt;stroke-linejoin:miter;" stroke-width="0.626079" gorn="0.47"  d="M 41.969222,21.599996 H 38.984608" stroke-opacity="1"/>
    <rect y="21.5994" fill="none" id="connector141terminal" x="42.2787" stroke="none" stroke-width="0" height="0.00125216" gorn="0.48"  width="0.00722139"/>
    <path fill="none" id="connector143" stroke="#ff0000" style="stroke-linecap:butt;stroke-linejoin:miter;" stroke-width="0.626079" gorn="0.49"  d="M 41.969221,28.799995 H 38.984607" stroke-opacity="1"/>
    <rect y="28.7994" fill="none" id="connector143terminal" x="42.2786" stroke="none" stroke-width="0" height="0.00125216" gorn="0.50"  width="0.00722139"/>
    <path fill="none" id="connector144" stroke="#ff0000" style="stroke-linecap:butt;stroke-linejoin:miter;" stroke-width="0.626079" gorn="0.51"  d="M 41.969221,35.999994 H 38.984607" stroke-opacity="1"/>
    <rect y="35.9994" fill="none" id="connector144terminal" x="42.2786" stroke="none" stroke-width="0" height="0.00125216" gorn="0.52"  width="0.00722139"/>
    <path fill="none" id="connector145" stroke="#ff0000" style="stroke-linecap:butt;stroke-linejoin:miter;" stroke-width="0.626079" gorn="0.53"  d="M 41.969221,43.199993 H 38.984607" stroke-opacity="1"/>
    <rect y="43.1994" fill="none" id="connector145terminal" x="42.2786" stroke="none" stroke-width="0" height="0.00125216" gorn="0.54"  width="0.00722139"/>
    <path fill="none" id="connector142" stroke="#ff0000" style="stroke-linecap:butt;stroke-linejoin:miter;" stroke-width="0.626079" gorn="0.55"  d="M 41.969221,50.399991 H 38.984607" stroke-opacity="1"/>
    <rect y="50.3994" fill="none" id="connector142terminal" x="42.2786" stroke="none" stroke-width="0" height="0.00125216" gorn="0.56"  width="0.00722139"/>
    <path fill="none" id="connector146" stroke="#ff0000" style="stroke-linecap:butt;stroke-linejoin:miter;" stroke-width="0.626079" gorn="0.57"  d="M 41.969221,57.59999 H 38.984607" stroke-opacity="1"/>
    <rect y="57.5994" fill="none" id="connector146terminal" x="42.2786" stroke="none" stroke-width="0" height="0.00125216" gorn="0.58"  width="0.00722139"/>
    <path fill="none" id="connector147" stroke="#ff0000" style="stroke-linecap:butt;stroke-linejoin:miter;" stroke-width="0.626079" gorn="0.59"  d="M 41.969222,64.799989 H 38.984608" stroke-opacity="1"/>
    <rect y="64.7994" fill="none" id="connector147terminal" x="42.2787" stroke="none" stroke-width="0" height="0.00125216" gorn="0.60"  width="0.00722139"/>
    <g transform="scale(1.0090474,0.99103373)" >
        <g >
            <g >
                <g >
                    <g >
                        <g >
                            <g >
                                <g id="text2388-5" font-size="2.2407" xml:space="preserve" style="line-height:1.25;font-family:OCRA;-inkscape-font-specification:'OCRA, Normal';letter-spacing:0px;word-spacing:0px;writing-mode:lr-tb;" stroke-width="0.782599" gorn="0.61.0.0.0.0.0.0.0"  xmlns:xml="http://www.w3.org/XML/1998/namespace">
                                    <text y="15.62262" id="tspan2386-71" x="30.697922" stroke-width="0.782599" gorn="0.61.0.0.0.0.0.0.0.0" >MV</text>
                                </g>
                            </g>
                        </g>
                    </g>
                </g>
            </g>
        </g>
    </g>
    <g transform="scale(1.0090474,0.99103373)" >
        <g >
            <g >
                <g >
                    <g >
                        <g >
                            <g >
                                <g id="text2388" font-size="2.2407" xml:space="preserve" style="line-height:1.25;font-family:OCRA;-inkscape-font-specification:'OCRA, Normal';letter-spacing:0px;word-spacing:0px;writing-mode:lr-tb;" stroke-width="0.782599" gorn="0.62.0.0.0.0.0.0.0"  xmlns:xml="http://www.w3.org/XML/1998/namespace">
                                    <text y="15.578814" id="tspan2386" x="8.1161203" stroke-width="0.782599" gorn="0.62.0.0.0.0.0.0.0.0" >EN</text>
                                </g>
                            </g>
                        </g>
                    </g>
                </g>
            </g>
        </g>
    </g>
    <g transform="scale(1.0090474,0.99103373)" >
        <g >
            <g >
                <g >
                    <g >
                        <g >
                            <g >
                                <g id="text2388-2" font-size="2.2407" xml:space="preserve" style="line-height:1.25;font-family:OCRA;-inkscape-font-specification:'OCRA, Normal';letter-spacing:0px;word-spacing:0px;writing-mode:lr-tb;" stroke-width="0.782599" gorn="0.63.0.0.0.0.0.0.0"  xmlns:xml="http://www.w3.org/XML/1998/namespace">
                                    <text y="22.88776" id="tspan2386-1" x="7.9900556" stroke-width="0.782599" gorn="0.63.0.0.0.0.0.0.0.0" >MS1</text>
                                </g>
                            </g>
                        </g>
                    </g>
                </g>
            </g>
        </g>
    </g>
    <g transform="scale(1.0090474,0.99103373)" >
        <g >
            <g >
                <g >
                    <g >
                        <g >
                            <g >
                                <g id="text2388-9" font-size="2.2407" xml:space="preserve" style="line-height:1.25;font-family:OCRA;-inkscape-font-specification:'OCRA, Normal';letter-spacing:0px;word-spacing:0px;writing-mode:lr-tb;" stroke-width="0.782599" gorn="0.64.0.0.0.0.0.0.0"  xmlns:xml="http://www.w3.org/XML/1998/namespace">
                                    <text y="30.152899" id="tspan2386-6" x="7.9900556" stroke-width="0.782599" gorn="0.64.0.0.0.0.0.0.0.0" >MS2</text>
                                </g>
                            </g>
                        </g>
                    </g>
                </g>
            </g>
        </g>
    </g>
    <g transform="scale(1.0090474,0.99103373)" >
        <g >
            <g >
                <g >
                    <g >
                        <g >
                            <g >
                                <g id="text2388-22" font-size="2.2407" xml:space="preserve" style="line-height:1.25;font-family:OCRA;-inkscape-font-specification:'OCRA, Normal';letter-spacing:0px;word-spacing:0px;writing-mode:lr-tb;" stroke-width="0.782599" gorn="0.65.0.0.0.0.0.0.0"  xmlns:xml="http://www.w3.org/XML/1998/namespace">
                                    <text y="37.418037" id="tspan2386-3" x="7.9900556" stroke-width="0.782599" gorn="0.65.0.0.0.0.0.0.0.0" >PDN1</text>
                                </g>
                            </g>
                        </g>
                    </g>
                </g>
            </g>
        </g>
    </g>
    <g transform="scale(1.0090474,0.99103373)" >
        <g >
            <g >
                <g >
                    <g >
                        <g >
                            <g >
                                <g id="text2388-6" font-size="2.2407" xml:space="preserve" style="line-height:1.25;font-family:OCRA;-inkscape-font-specification:'OCRA, Normal';letter-spacing:0px;word-spacing:0px;writing-mode:lr-tb;" stroke-width="0.782599" gorn="0.66.0.0.0.0.0.0.0"  xmlns:xml="http://www.w3.org/XML/1998/namespace">
                                    <text y="44.683178" id="tspan2386-2" x="7.9900556" stroke-width="0.782599" gorn="0.66.0.0.0.0.0.0.0.0" >PDN2</text>
                                </g>
                            </g>
                        </g>
                    </g>
                </g>
            </g>
        </g>
    </g>
    <g transform="scale(1.0090474,0.99103373)" >
        <g >
            <g >
                <g >
                    <g >
                        <g >
                            <g >
                                <g id="text2388-1" font-size="2.2407" xml:space="preserve" style="line-height:1.25;font-family:OCRA;-inkscape-font-specification:'OCRA, Normal';letter-spacing:0px;word-spacing:0px;writing-mode:lr-tb;" stroke-width="0.782599" gorn="0.67.0.0.0.0.0.0.0"  xmlns:xml="http://www.w3.org/XML/1998/namespace">
                                    <text y="51.948322" id="tspan2386-9" x="7.9900565" stroke-width="0.782599" gorn="0.67.0.0.0.0.0.0.0.0" >CLK</text>
                                </g>
                            </g>
                        </g>
                    </g>
                </g>
            </g>
        </g>
    </g>
    <g transform="scale(1.0090474,0.99103373)" >
        <g >
            <g >
                <g >
                    <g >
                        <g >
                            <g >
                                <g id="text2388-19" font-size="2.2407" xml:space="preserve" style="line-height:1.25;font-family:OCRA;-inkscape-font-specification:'OCRA, Normal';letter-spacing:0px;word-spacing:0px;writing-mode:lr-tb;" stroke-width="0.782599" gorn="0.68.0.0.0.0.0.0.0"  xmlns:xml="http://www.w3.org/XML/1998/namespace">
                                    <text y="59.213455" id="tspan2386-19" x="7.9900565" stroke-width="0.782599" gorn="0.68.0.0.0.0.0.0.0.0" >STEP</text>
                                </g>
                            </g>
                        </g>
                    </g>
                </g>
            </g>
        </g>
    </g>
    <g transform="scale(1.0090474,0.99103373)" >
        <g >
            <g >
                <g >
                    <g >
                        <g >
                            <g >
                                <g id="text2388-92" font-size="2.2407" xml:space="preserve" style="line-height:1.25;font-family:OCRA;-inkscape-font-specification:'OCRA, Normal';letter-spacing:0px;word-spacing:0px;writing-mode:lr-tb;" stroke-width="0.782599" gorn="0.69.0.0.0.0.0.0.0"  xmlns:xml="http://www.w3.org/XML/1998/namespace">
                                    <text y="66.4786" id="tspan2386-7" x="7.9900565" stroke-width="0.782599" gorn="0.69.0.0.0.0.0.0.0.0" >DIR</text>
                                </g>
                            </g>
                        </g>
                    </g>
                </g>
            </g>
        </g>
    </g>
    <g transform="scale(1.0090474,0.99103373)" >
        <g >
            <g >
                <g >
                    <g >
                        <g >
                            <g >
                                <g id="text2388-56" font-size="1.6" xml:space="preserve" style="line-height:1.25;font-family:OCRA;-inkscape-font-specification:'OCRA, Normal';letter-spacing:0px;word-spacing:0px;writing-mode:lr-tb;" stroke-width="0.782599" gorn="0.70.0.0.0.0.0.0.0"  xmlns:xml="http://www.w3.org/XML/1998/namespace">
                                    <text y="9.9461889" id="tspan2386-18" x="28.193325" font-size="1.6" style="writing-mode:lr-tb;" stroke-width="0.782599" gorn="0.70.0.0.0.0.0.0.0.0" >DIAG</text>
                                </g>
                            </g>
                        </g>
                    </g>
                </g>
            </g>
        </g>
    </g>
    <g transform="scale(1.0090474,0.99103373)" >
        <g >
            <g >
                <g >
                    <g >
                        <g >
                            <g >
                                <g id="text2388-56-1" font-size="1.6" xml:space="preserve" style="line-height:1.25;font-family:OCRA;-inkscape-font-specification:'OCRA, Normal';letter-spacing:0px;word-spacing:0px;writing-mode:lr-tb;" stroke-width="0.782599" gorn="0.71.0.0.0.0.0.0.0"  xmlns:xml="http://www.w3.org/XML/1998/namespace">
                                    <text y="9.9461889" id="tspan2386-18-9" x="17.916393" font-size="1.6" style="writing-mode:lr-tb;" stroke-width="0.782599" gorn="0.71.0.0.0.0.0.0.0.0" >INDEX</text>
                                </g>
                            </g>
                        </g>
                    </g>
                </g>
            </g>
        </g>
    </g>
    <g transform="scale(1.0090474,0.99103373)" >
        <g >
            <g >
                <g >
                    <g >
                        <g >
                            <g >
                                <g id="text2388-56-7" font-size="1.6" xml:space="preserve" style="line-height:1.25;font-family:OCRA;-inkscape-font-specification:'OCRA, Normal';letter-spacing:0px;word-spacing:0px;writing-mode:lr-tb;" stroke-width="0.782599" gorn="0.72.0.0.0.0.0.0.0"  xmlns:xml="http://www.w3.org/XML/1998/namespace">
                                    <text y="9.9461889" id="tspan2386-18-7" x="9.0854588" font-size="1.6" style="writing-mode:lr-tb;" stroke-width="0.782599" gorn="0.72.0.0.0.0.0.0.0.0" >VREF</text>
                                </g>
                            </g>
                        </g>
                    </g>
                </g>
            </g>
        </g>
    </g>
    <g transform="scale(1.0090474,0.99103373)" >
        <g >
            <g >
                <g >
                    <g >
                        <g >
                            <g >
                                <g id="text2388-2-5" font-size="2.2407" xml:space="preserve" style="line-height:1.25;font-family:OCRA;-inkscape-font-specification:'OCRA, Normal';letter-spacing:0px;word-spacing:0px;writing-mode:lr-tb;" stroke-width="0.782599" gorn="0.73.0.0.0.0.0.0.0"  xmlns:xml="http://www.w3.org/XML/1998/namespace">
                                    <text y="22.88776" id="tspan2386-1-4" x="28.553946" stroke-width="0.782599" gorn="0.73.0.0.0.0.0.0.0.0" >GND</text>
                                </g>
                            </g>
                        </g>
                    </g>
                </g>
            </g>
        </g>
    </g>
    <g transform="scale(1.0090474,0.99103373)" >
        <g >
            <g >
                <g >
                    <g >
                        <g >
                            <g >
                                <g id="text2388-9-9" font-size="2.2407" xml:space="preserve" style="line-height:1.25;font-family:OCRA;-inkscape-font-specification:'OCRA, Normal';letter-spacing:0px;word-spacing:0px;writing-mode:lr-tb;" stroke-width="0.782599" gorn="0.74.0.0.0.0.0.0.0"  xmlns:xml="http://www.w3.org/XML/1998/namespace">
                                    <text y="30.152899" id="tspan2386-6-3" x="30.57897" stroke-width="0.782599" gorn="0.74.0.0.0.0.0.0.0.0" >A2</text>
                                </g>
                            </g>
                        </g>
                    </g>
                </g>
            </g>
        </g>
    </g>
    <g transform="scale(1.0090474,0.99103373)" >
        <g >
            <g >
                <g >
                    <g >
                        <g >
                            <g >
                                <g id="text2388-22-3" font-size="2.2407" xml:space="preserve" style="line-height:1.25;font-family:OCRA;-inkscape-font-specification:'OCRA, Normal';letter-spacing:0px;word-spacing:0px;writing-mode:lr-tb;" stroke-width="0.782599" gorn="0.75.0.0.0.0.0.0.0"  xmlns:xml="http://www.w3.org/XML/1998/namespace">
                                    <text y="37.418041" id="tspan2386-3-7" x="30.578966" stroke-width="0.782599" gorn="0.75.0.0.0.0.0.0.0.0" >A1</text>
                                </g>
                            </g>
                        </g>
                    </g>
                </g>
            </g>
        </g>
    </g>
    <g transform="scale(1.0090474,0.99103373)" >
        <g >
            <g >
                <g >
                    <g >
                        <g >
                            <g >
                                <g id="text2388-6-8" font-size="2.2407" xml:space="preserve" style="line-height:1.25;font-family:OCRA;-inkscape-font-specification:'OCRA, Normal';letter-spacing:0px;word-spacing:0px;writing-mode:lr-tb;" stroke-width="0.782599" gorn="0.76.0.0.0.0.0.0.0"  xmlns:xml="http://www.w3.org/XML/1998/namespace">
                                    <text y="44.683178" id="tspan2386-2-5" x="30.578968" stroke-width="0.782599" gorn="0.76.0.0.0.0.0.0.0.0" >B1</text>
                                </g>
                            </g>
                        </g>
                    </g>
                </g>
            </g>
        </g>
    </g>
    <g transform="scale(1.0090474,0.99103373)" >
        <g >
            <g >
                <g >
                    <g >
                        <g >
                            <g >
                                <g id="text2388-1-1" font-size="2.2407" xml:space="preserve" style="line-height:1.25;font-family:OCRA;-inkscape-font-specification:'OCRA, Normal';letter-spacing:0px;word-spacing:0px;writing-mode:lr-tb;" stroke-width="0.782599" gorn="0.77.0.0.0.0.0.0.0"  xmlns:xml="http://www.w3.org/XML/1998/namespace">
                                    <text y="51.948315" id="tspan2386-9-4" x="30.578966" stroke-width="0.782599" gorn="0.77.0.0.0.0.0.0.0.0" >B2</text>
                                </g>
                            </g>
                        </g>
                    </g>
                </g>
            </g>
        </g>
    </g>
    <g transform="scale(1.0090474,0.99103373)" >
        <g >
            <g >
                <g >
                    <g >
                        <g >
                            <g >
                                <g id="text2388-19-4" font-size="2.2407" xml:space="preserve" style="line-height:1.25;font-family:OCRA;-inkscape-font-specification:'OCRA, Normal';letter-spacing:0px;word-spacing:0px;writing-mode:lr-tb;" stroke-width="0.782599" gorn="0.78.0.0.0.0.0.0.0"  xmlns:xml="http://www.w3.org/XML/1998/namespace">
                                    <text y="59.213455" id="tspan2386-19-8" x="28.553944" stroke-width="0.782599" gorn="0.78.0.0.0.0.0.0.0.0" >VDD</text>
                                </g>
                            </g>
                        </g>
                    </g>
                </g>
            </g>
        </g>
    </g>
    <g transform="scale(1.0090474,0.99103373)" >
        <g >
            <g >
                <g >
                    <g >
                        <g >
                            <g >
                                <g id="text2388-92-8" font-size="2.2407" xml:space="preserve" style="line-height:1.25;font-family:OCRA;-inkscape-font-specification:'OCRA, Normal';letter-spacing:0px;word-spacing:0px;writing-mode:lr-tb;" stroke-width="0.782599" gorn="0.79.0.0.0.0.0.0.0"  xmlns:xml="http://www.w3.org/XML/1998/namespace">
                                    <text y="66.4786" id="tspan2386-7-7" x="28.553944" stroke-width="0.782599" gorn="0.79.0.0.0.0.0.0.0.0" >GND</text>
                                </g>
                            </g>
                        </g>
                    </g>
                </g>
            </g>
        </g>
    </g>
</svg>
