<?xml version='1.0' encoding='UTF-8' standalone='no'?>
<!-- Created with Fritzing (http://www.fritzing.org/) -->
<svg xmlns="http://www.w3.org/2000/svg" width="0.7in" x="0in" baseProfile="tiny" height="0.5in" y="0in" viewBox="0 0 700 500" version="1.2" >
    <desc >
        <referenceFile >generic_ic_dip_8_schem.svg</referenceFile>
    </desc>
    <g gorn="0.1"  id="schematic">
        <rect fill="none" width="293.75" x="200" height="487.5" y="6.25" stroke-width="12.5"  stroke-linecap="round" stroke-linejoin="round" stroke="#000000"/>
        <text fill="#000000" font-size="48.6111" x="350" font-family="'Droid Sans'" y="151.389" gorn="0.1.1" text-anchor="middle"  id="label" stroke="none">IC</text>
        <line fill="none" y2="100" stroke-width="9.7222"  stroke-linecap="round" y1="100" stroke-linejoin="round" stroke="#787878" x1="4.8611" x2="200"/>
        <rect fill="none" width="200" x="0" connectorName="1" height="9.7222" y="95.1389" gorn="0.1.3" stroke-width="0"  id="connector0pin"/>
        <rect fill="none" width="0" x="0" height="9.7222" y="95.1389" gorn="0.1.4" stroke-width="0"  id="connector0terminal"/>
        <text fill="#8c8c8c" font-size="48.6111" x="219.444" font-family="'Droid Sans'" y="109.722" gorn="0.1.5" text-anchor="start"  id="label0" stroke="none">1</text>
        <text fill="#8c8c8c" font-size="34.7222" x="100" font-family="Droid Sans" y="85.4167" text-anchor="middle" stroke-width="0"  stroke="none" class="text">1</text>
        <line fill="none" y2="200" stroke-width="9.7222"  stroke-linecap="round" y1="200" stroke-linejoin="round" stroke="#787878" x1="4.8611" x2="200"/>
        <rect fill="none" width="200" x="0" connectorName="2" height="9.7222" y="195.139" gorn="0.1.8" stroke-width="0"  id="connector1pin"/>
        <rect fill="none" width="0" x="0" height="9.7222" y="195.139" gorn="0.1.9" stroke-width="0"  id="connector1terminal"/>
        <text fill="#8c8c8c" font-size="48.6111" x="219.444" font-family="'Droid Sans'" y="209.722" gorn="0.1.10" text-anchor="start"  id="label1" stroke="none">2</text>
        <text fill="#8c8c8c" font-size="34.7222" x="100" font-family="Droid Sans" y="185.417" text-anchor="middle" stroke-width="0"  stroke="none" class="text">2</text>
        <line fill="none" y2="300" stroke-width="9.7222"  stroke-linecap="round" y1="300" stroke-linejoin="round" stroke="#787878" x1="4.8611" x2="200"/>
        <rect fill="none" width="200" x="0" connectorName="3" height="9.7222" y="295.139" gorn="0.1.13" stroke-width="0"  id="connector2pin"/>
        <rect fill="none" width="0" x="0" height="9.7222" y="295.139" gorn="0.1.14" stroke-width="0"  id="connector2terminal"/>
        <text fill="#8c8c8c" font-size="48.6111" x="219.444" font-family="'Droid Sans'" y="309.722" gorn="0.1.15" text-anchor="start"  id="label2" stroke="none">3</text>
        <text fill="#8c8c8c" font-size="34.7222" x="100" font-family="Droid Sans" y="285.417" text-anchor="middle" stroke-width="0"  stroke="none" class="text">3</text>
        <line fill="none" y2="400" stroke-width="9.7222"  stroke-linecap="round" y1="400" stroke-linejoin="round" stroke="#787878" x1="4.8611" x2="200"/>
        <rect fill="none" width="200" x="0" connectorName="4" height="9.7222" y="395.139" gorn="0.1.18" stroke-width="0"  id="connector3pin"/>
        <rect fill="none" width="0" x="0" height="9.7222" y="395.139" gorn="0.1.19" stroke-width="0"  id="connector3terminal"/>
        <text fill="#8c8c8c" font-size="48.6111" x="219.444" font-family="'Droid Sans'" y="409.722" gorn="0.1.20" text-anchor="start"  id="label3" stroke="none">4</text>
        <text fill="#8c8c8c" font-size="34.7222" x="100" font-family="Droid Sans" y="385.417" text-anchor="middle" stroke-width="0"  stroke="none" class="text">4</text>
        <line fill="none" y2="100" stroke-width="9.7222"  stroke-linecap="round" y1="100" stroke-linejoin="round" stroke="#787878" x1="495.139" x2="695.139"/>
        <rect fill="none" width="200" x="500" connectorname="8" height="9.7222" y="95.1389" gorn="0.1.23" stroke-width="0"  id="connector7pin"/>
        <rect fill="none" width="0" x="700" height="9.7222" y="95.1389" gorn="0.1.24" stroke-width="0"  id="connector7terminal"/>
        <text fill="#8c8c8c" font-size="48.6111" x="480.556" font-family="'Droid Sans'" y="109.722" gorn="0.1.25" text-anchor="end"  id="label7" stroke="none">8</text>
        <text fill="#8c8c8c" font-size="34.7222" x="600" font-family="Droid Sans" y="85.4167" text-anchor="middle" stroke-width="0"  stroke="none" class="text">8</text>
        <line fill="none" y2="200" stroke-width="9.7222"  stroke-linecap="round" y1="200" stroke-linejoin="round" stroke="#787878" x1="495.139" x2="695.139"/>
        <rect fill="none" width="200" x="500" connectorname="7" height="9.7222" y="195.139" gorn="0.1.28" stroke-width="0"  id="connector6pin"/>
        <rect fill="none" width="0" x="700" height="9.7222" y="195.139" gorn="0.1.29" stroke-width="0"  id="connector6terminal"/>
        <text fill="#8c8c8c" font-size="48.6111" x="480.556" font-family="'Droid Sans'" y="209.722" gorn="0.1.30" text-anchor="end"  id="label6" stroke="none">7</text>
        <text fill="#8c8c8c" font-size="34.7222" x="600" font-family="Droid Sans" y="185.417" text-anchor="middle" stroke-width="0"  stroke="none" class="text">7</text>
        <line fill="none" y2="300" stroke-width="9.7222"  stroke-linecap="round" y1="300" stroke-linejoin="round" stroke="#787878" x1="495.139" x2="695.139"/>
        <rect fill="none" width="200" x="500" connectorname="6" height="9.7222" y="295.139" gorn="0.1.33" stroke-width="0"  id="connector5pin"/>
        <rect fill="none" width="0" x="700" height="9.7222" y="295.139" gorn="0.1.34" stroke-width="0"  id="connector5terminal"/>
        <text fill="#8c8c8c" font-size="48.6111" x="480.556" font-family="'Droid Sans'" y="309.722" gorn="0.1.35" text-anchor="end"  id="label5" stroke="none">6</text>
        <text fill="#8c8c8c" font-size="34.7222" x="600" font-family="Droid Sans" y="285.417" text-anchor="middle" stroke-width="0"  stroke="none" class="text">6</text>
        <line fill="none" y2="400" stroke-width="9.7222"  stroke-linecap="round" y1="400" stroke-linejoin="round" stroke="#787878" x1="495.139" x2="695.139"/>
        <rect fill="none" width="200" x="500" connectorname="5" height="9.7222" y="395.139" gorn="0.1.38" stroke-width="0"  id="connector4pin"/>
        <rect fill="none" width="0" x="700" height="9.7222" y="395.139" gorn="0.1.39" stroke-width="0"  id="connector4terminal"/>
        <text fill="#8c8c8c" font-size="48.6111" x="480.556" font-family="'Droid Sans'" y="409.722" gorn="0.1.40" text-anchor="end"  id="label4" stroke="none">5</text>
        <text fill="#8c8c8c" font-size="34.7222" x="600" font-family="Droid Sans" y="385.417" text-anchor="middle" stroke-width="0"  stroke="none" class="text">5</text>
    </g>
</svg>
