<?xml version='1.0' encoding='UTF-8' standalone='no'?>
<svg
  xmlns="http://www.w3.org/2000/svg"
  x="0in"
  gorn="0"
  height="0.82in"
  viewBox="0 0 420 820"
  version="1.2"
  width="0.42in"
  y="0in"
  id="svg2090">
  <metadata
    id="metadata2096">
    <rdf:RDF
      xmlns:rdf="http://www.w3.org/1999/02/22-rdf-syntax-ns#">
      <cc:Work
        xmlns:cc="http://creativecommons.org/ns#"
        xmlns:rdf="http://www.w3.org/1999/02/22-rdf-syntax-ns#"
        rdf:about="">
        <dc:format
          xmlns:dc="http://purl.org/dc/elements/1.1/">image/svg+xml</dc:format>
        <dc:type
          xmlns:dc="http://purl.org/dc/elements/1.1/"
          xmlns:rdf="http://www.w3.org/1999/02/22-rdf-syntax-ns#"
          rdf:resource="http://purl.org/dc/dcmitype/StillImage"
        />
        <dc:title
          xmlns:dc="http://purl.org/dc/elements/1.1/"
        />
      </cc:Work>
    </rdf:RDF>
  </metadata>
  <defs
    id="defs2094"
  />
  <desc
    id="desc2058">
    <referenceFile>CD4060BE_dip16_300mil_oblong_pcb.svg</referenceFile>
  </desc>
  <desc
    id="desc4056">Fritzing
    footprint
    SVG</desc>
  <g
    gorn="0.4"
    id="silkscreen">
    <line
      stroke-width="10"
      gorn="0.4.0"
      stroke="#000000"
      y1="802.5"
      stroke-linecap="round"
      fill="none"
      x2="90"
      y2="815"
      x1="90"
      id="line2058"
    />
    <line
      stroke-width="10"
      gorn="0.4.1"
      stroke="#000000"
      y1="702.5"
      stroke-linecap="round"
      fill="none"
      x2="90"
      y2="717.5"
      x1="90"
      id="line20581"
    />
    <line
      stroke-width="10"
      gorn="0.4.2"
      stroke="#000000"
      y1="602.5"
      stroke-linecap="round"
      fill="none"
      x2="90"
      y2="617.5"
      x1="90"
      id="line20582"
    />
    <line
      stroke-width="10"
      gorn="0.4.3"
      stroke="#000000"
      y1="502.5"
      stroke-linecap="round"
      fill="none"
      x2="90"
      y2="517.5"
      x1="90"
      id="line20583"
    />
    <line
      stroke-width="10"
      gorn="0.4.4"
      stroke="#000000"
      y1="402.5"
      stroke-linecap="round"
      fill="none"
      x2="90"
      y2="417.5"
      x1="90"
      id="line20584"
    />
    <line
      stroke-width="10"
      gorn="0.4.5"
      stroke="#000000"
      y1="302.5"
      stroke-linecap="round"
      fill="none"
      x2="90"
      y2="317.5"
      x1="90"
      id="line20585"
    />
    <line
      stroke-width="10"
      gorn="0.4.6"
      stroke="#000000"
      y1="202.5"
      stroke-linecap="round"
      fill="none"
      x2="90"
      y2="217.5"
      x1="90"
      id="line20586"
    />
    <line
      stroke-width="10"
      gorn="0.4.7"
      stroke="#000000"
      y1="102.5"
      stroke-linecap="round"
      fill="none"
      x2="90"
      y2="117.5"
      x1="90"
      id="line20587"
    />
    <line
      stroke-width="10"
      gorn="0.4.8"
      stroke="#000000"
      y1="5"
      stroke-linecap="round"
      fill="none"
      x2="90"
      y2="17.5"
      x1="90"
      id="line2058-4"
    />
    <line
      stroke-width="10"
      gorn="0.4.9"
      stroke="#000000"
      y1="5"
      stroke-linecap="round"
      fill="none"
      x2="160"
      y2="5"
      x1="90"
      id="line2060"
    />
    <line
      stroke-width="10"
      gorn="0.4.10"
      stroke="#000000"
      y1="815"
      stroke-linecap="round"
      fill="none"
      x2="330"
      y2="815"
      x1="90"
      id="line2062"
    />
    <line
      stroke-width="10"
      gorn="0.4.11"
      stroke="#000000"
      y1="815"
      stroke-linecap="round"
      fill="none"
      x2="330"
      y2="802.5"
      x1="330"
      id="line2064"
    />
    <line
      stroke-width="10"
      gorn="0.4.12"
      stroke="#000000"
      y1="702.5"
      stroke-linecap="round"
      fill="none"
      x2="330"
      y2="717.5"
      x1="330"
      id="line205811"
    />
    <line
      stroke-width="10"
      gorn="0.4.13"
      stroke="#000000"
      y1="602.5"
      stroke-linecap="round"
      fill="none"
      x2="330"
      y2="617.5"
      x1="330"
      id="line205821"
    />
    <line
      stroke-width="10"
      gorn="0.4.14"
      stroke="#000000"
      y1="502.5"
      stroke-linecap="round"
      fill="none"
      x2="330"
      y2="517.5"
      x1="330"
      id="line205831"
    />
    <line
      stroke-width="10"
      gorn="0.4.15"
      stroke="#000000"
      y1="402.5"
      stroke-linecap="round"
      fill="none"
      x2="330"
      y2="417.5"
      x1="330"
      id="line205841"
    />
    <line
      stroke-width="10"
      gorn="0.4.16"
      stroke="#000000"
      y1="302.5"
      stroke-linecap="round"
      fill="none"
      x2="330"
      y2="317.5"
      x1="330"
      id="line205851"
    />
    <line
      stroke-width="10"
      gorn="0.4.17"
      stroke="#000000"
      y1="202.5"
      stroke-linecap="round"
      fill="none"
      x2="330"
      y2="217.5"
      x1="330"
      id="line205861"
    />
    <line
      stroke-width="10"
      gorn="0.4.18"
      stroke="#000000"
      y1="102.5"
      stroke-linecap="round"
      fill="none"
      x2="330"
      y2="117.5"
      x1="330"
      id="line205871"
    />
    <line
      stroke-width="10"
      gorn="0.4.19"
      stroke="#000000"
      y1="17.5"
      stroke-linecap="round"
      fill="none"
      x2="330"
      y2="5"
      x1="330"
      id="line2066"
    />
    <line
      stroke-width="10"
      gorn="0.4.20"
      stroke="#000000"
      y1="5"
      stroke-linecap="round"
      fill="none"
      x2="330"
      y2="5"
      x1="260"
      id="line2068"
    />
    <path
      stroke-width="10"
      gorn="0.4.21"
      stroke="#000000"
      fill="none"
      id="path2150"
      d="M 260,5 A 50,50 0 0 1 210,55 50,50 0 0 1 160,5"
    />
  </g>
  <g
    gorn="0.5"
    id="copper1">
    <g
      gorn="0.5.0"
      id="copper0">
      <path
        stroke-width="12.5"
        opacity="1"
        stroke-dashoffset="0"
        gorn="0.5.0.0"
        stroke="#f7bd13"
        stroke-linejoin="round"
        fill-opacity="1"
        stroke-linecap="round"
        fill-rule="evenodd"
        fill="#f7bd13"
        stroke-opacity="1"
        stroke-dasharray="none"
        stroke-miterlimit="4"
        id="rect0"
        d="M 81.25,60 A 21.25,21.25 0 0 1 60,81.25 21.25,21.25 0 0 1 38.75,60 21.25,21.25 0 0 1 60,38.75 21.25,21.25 0 0 1 81.25,60 Z M 28.75,38.75 h 62.5 c 6.925,0 12.5,5.575 12.5,12.5 v 17.5 c 0,6.925 -5.575,12.5 -12.5,12.5 h -62.5 c -6.925,0 -12.5,-5.575 -12.5,-12.5 v -17.5 c 0,-6.925 5.575,-12.5 12.5,-12.5 z"
      />
      <circle
        stroke-width="12.5"
        gorn="0.5.0.1"
        stroke="#f7bd13"
        fill="none"
        r="21.25"
        cx="60"
        id="connector0pin"
        cy="60"
      />
      <path
        stroke-width="12.5"
        opacity="1"
        stroke-dashoffset="0"
        gorn="0.5.0.2"
        stroke="#f7bd13"
        stroke-linejoin="round"
        fill-opacity="1"
        stroke-linecap="round"
        fill-rule="evenodd"
        fill="#f7bd13"
        stroke-opacity="1"
        stroke-dasharray="none"
        stroke-miterlimit="4"
        id="rect1"
        d="M 81.25,160 A 21.25,21.25 0 0 1 60,181.25 21.25,21.25 0 0 1 38.75,160 21.25,21.25 0 0 1 60,138.75 21.25,21.25 0 0 1 81.25,160 Z M 37.5,138.75 h 45 c 11.7725,0 21.25,9.4775 21.25,21.25 0,11.7725 -9.4775,21.25 -21.25,21.25 h -45 c -11.7725,0 -21.25,-9.4775 -21.25,-21.25 0,-11.7725 9.4775,-21.25 21.25,-21.25 z"
      />
      <circle
        stroke-width="12.5"
        gorn="0.5.0.3"
        stroke="#f7bd13"
        fill-rule="nonzero"
        fill="none"
        r="21.25"
        cx="60"
        stroke-dasharray="none"
        stroke-miterlimit="4"
        cy="160"
        id="connector1pin"
      />
      <path
        stroke-width="12.5"
        opacity="1"
        stroke-dashoffset="0"
        gorn="0.5.0.4"
        stroke="#f7bd13"
        stroke-linejoin="round"
        fill-opacity="1"
        stroke-linecap="round"
        fill-rule="evenodd"
        fill="#f7bd13"
        stroke-opacity="1"
        stroke-dasharray="none"
        stroke-miterlimit="4"
        id="rect2"
        d="M 81.25,260 A 21.25,21.25 0 0 1 60,281.25 21.25,21.25 0 0 1 38.75,260 21.25,21.25 0 0 1 60,238.75 21.25,21.25 0 0 1 81.25,260 Z M 37.5,238.75 h 45 c 11.7725,0 21.25,9.4775 21.25,21.25 0,11.7725 -9.4775,21.25 -21.25,21.25 h -45 c -11.7725,0 -21.25,-9.4775 -21.25,-21.25 0,-11.7725 9.4775,-21.25 21.25,-21.25 z"
      />
      <circle
        stroke-width="12.5"
        gorn="0.5.0.5"
        stroke="#f7bd13"
        fill-rule="nonzero"
        fill="none"
        r="21.25"
        cx="60"
        id="connector2pin"
        cy="260"
      />
      <path
        stroke-width="12.5"
        opacity="1"
        stroke-dashoffset="0"
        gorn="0.5.0.6"
        stroke="#f7bd13"
        stroke-linejoin="round"
        fill-opacity="1"
        stroke-linecap="round"
        fill-rule="evenodd"
        fill="#f7bd13"
        stroke-opacity="1"
        stroke-dasharray="none"
        stroke-miterlimit="4"
        d="M 81.25,360 A 21.25,21.25 0 0 1 60,381.25 21.25,21.25 0 0 1 38.75,360 21.25,21.25 0 0 1 60,338.75 21.25,21.25 0 0 1 81.25,360 Z M 37.5,338.75 h 45 c 11.7725,0 21.25,9.4775 21.25,21.25 0,11.7725 -9.4775,21.25 -21.25,21.25 h -45 c -11.7725,0 -21.25,-9.4775 -21.25,-21.25 0,-11.7725 9.4775,-21.25 21.25,-21.25 z"
        id="rect3"
      />
      <circle
        stroke-width="12.5"
        gorn="0.5.0.7"
        stroke="#f7bd13"
        fill-rule="nonzero"
        fill="none"
        r="21.25"
        cx="60"
        cy="360"
        id="connector3pin"
      />
      <path
        stroke-width="12.5"
        opacity="1"
        stroke-dashoffset="0"
        gorn="0.5.0.8"
        stroke="#f7bd13"
        stroke-linejoin="round"
        fill-opacity="1"
        stroke-linecap="round"
        fill-rule="evenodd"
        fill="#f7bd13"
        stroke-opacity="1"
        stroke-dasharray="none"
        stroke-miterlimit="4"
        id="rect4"
        d="M 81.25,460 A 21.25,21.25 0 0 1 60,481.25 21.25,21.25 0 0 1 38.75,460 21.25,21.25 0 0 1 60,438.75 21.25,21.25 0 0 1 81.25,460 Z M 37.5,438.75 h 45 c 11.7725,0 21.25,9.4775 21.25,21.25 0,11.7725 -9.4775,21.25 -21.25,21.25 h -45 c -11.7725,0 -21.25,-9.4775 -21.25,-21.25 0,-11.7725 9.4775,-21.25 21.25,-21.25 z"
      />
      <circle
        stroke-width="12.5"
        gorn="0.5.0.9"
        stroke="#f7bd13"
        fill-rule="nonzero"
        fill="none"
        r="21.25"
        cx="60"
        id="connector4pin"
        cy="460"
      />
      <path
        stroke-width="12.5"
        opacity="1"
        stroke-dashoffset="0"
        gorn="0.5.0.10"
        stroke="#f7bd13"
        stroke-linejoin="round"
        fill-opacity="1"
        stroke-linecap="round"
        fill-rule="evenodd"
        fill="#f7bd13"
        stroke-opacity="1"
        stroke-dasharray="none"
        stroke-miterlimit="4"
        d="M 81.25,560 A 21.25,21.25 0 0 1 60,581.25 21.25,21.25 0 0 1 38.75,560 21.25,21.25 0 0 1 60,538.75 21.25,21.25 0 0 1 81.25,560 Z M 37.5,538.75 h 45 c 11.7725,0 21.25,9.4775 21.25,21.25 0,11.7725 -9.4775,21.25 -21.25,21.25 h -45 c -11.7725,0 -21.25,-9.4775 -21.25,-21.25 0,-11.7725 9.4775,-21.25 21.25,-21.25 z"
        id="rect5"
      />
      <circle
        stroke-width="12.5"
        gorn="0.5.0.11"
        stroke="#f7bd13"
        fill-rule="nonzero"
        fill="none"
        r="21.25"
        cx="60"
        cy="560"
        id="connector5pin"
      />
      <path
        stroke-width="12.5"
        opacity="1"
        stroke-dashoffset="0"
        gorn="0.5.0.12"
        stroke="#f7bd13"
        stroke-linejoin="round"
        fill-opacity="1"
        stroke-linecap="round"
        fill-rule="evenodd"
        fill="#f7bd13"
        stroke-opacity="1"
        stroke-dasharray="none"
        stroke-miterlimit="4"
        id="rect6"
        d="M 81.25,660 A 21.25,21.25 0 0 1 60,681.25 21.25,21.25 0 0 1 38.75,660 21.25,21.25 0 0 1 60,638.75 21.25,21.25 0 0 1 81.25,660 Z M 37.5,638.75 h 45 c 11.7725,0 21.25,9.4775 21.25,21.25 0,11.7725 -9.4775,21.25 -21.25,21.25 h -45 c -11.7725,0 -21.25,-9.4775 -21.25,-21.25 0,-11.7725 9.4775,-21.25 21.25,-21.25 z"
      />
      <circle
        stroke-width="12.5"
        gorn="0.5.0.13"
        stroke="#f7bd13"
        fill-rule="nonzero"
        fill="none"
        r="21.25"
        cx="60"
        id="connector6pin"
        cy="660"
      />
      <path
        stroke-width="12.5"
        opacity="1"
        stroke-dashoffset="0"
        gorn="0.5.0.14"
        stroke="#f7bd13"
        stroke-linejoin="round"
        fill-opacity="1"
        stroke-linecap="round"
        fill-rule="evenodd"
        fill="#f7bd13"
        stroke-opacity="1"
        stroke-dasharray="none"
        stroke-miterlimit="4"
        d="M 81.25,760 A 21.25,21.25 0 0 1 60,781.25 21.25,21.25 0 0 1 38.75,760 21.25,21.25 0 0 1 60,738.75 21.25,21.25 0 0 1 81.25,760 Z M 37.5,738.75 h 45 c 11.7725,0 21.25,9.4775 21.25,21.25 0,11.7725 -9.4775,21.25 -21.25,21.25 h -45 c -11.7725,0 -21.25,-9.4775 -21.25,-21.25 0,-11.7725 9.4775,-21.25 21.25,-21.25 z"
        id="rect7"
      />
      <circle
        stroke-width="12.5"
        gorn="0.5.0.15"
        stroke="#f7bd13"
        fill-rule="nonzero"
        fill="none"
        r="21.25"
        cx="60"
        cy="760"
        id="connector7pin"
      />
      <path
        stroke-width="12.5"
        opacity="1"
        stroke-dashoffset="0"
        gorn="0.5.0.16"
        stroke="#f7bd13"
        stroke-linejoin="round"
        fill-opacity="1"
        stroke-linecap="round"
        fill-rule="evenodd"
        fill="#f7bd13"
        stroke-opacity="1"
        stroke-dasharray="none"
        stroke-miterlimit="4"
        id="rect8"
        d="M 381.25,760 A 21.25,21.25 0 0 1 360,781.25 21.25,21.25 0 0 1 338.75,760 21.25,21.25 0 0 1 360,738.75 21.25,21.25 0 0 1 381.25,760 Z M 337.5,738.75 h 45 c 11.7725,0 21.25,9.4775 21.25,21.25 0,11.7725 -9.4775,21.25 -21.25,21.25 h -45 c -11.7725,0 -21.25,-9.4775 -21.25,-21.25 0,-11.7725 9.4775,-21.25 21.25,-21.25 z"
      />
      <circle
        stroke-width="12.5"
        gorn="0.5.0.17"
        stroke="#f7bd13"
        fill="none"
        r="21.25"
        cx="360"
        id="connector8pin"
        cy="760"
      />
      <path
        stroke-width="12.5"
        opacity="1"
        stroke-dashoffset="0"
        gorn="0.5.0.18"
        stroke="#f7bd13"
        stroke-linejoin="round"
        fill-opacity="1"
        stroke-linecap="round"
        fill-rule="evenodd"
        fill="#f7bd13"
        stroke-opacity="1"
        stroke-dasharray="none"
        stroke-miterlimit="4"
        d="M 381.25,660 A 21.25,21.25 0 0 1 360,681.25 21.25,21.25 0 0 1 338.75,660 21.25,21.25 0 0 1 360,638.75 21.25,21.25 0 0 1 381.25,660 Z M 337.5,638.75 h 45 c 11.7725,0 21.25,9.4775 21.25,21.25 0,11.7725 -9.4775,21.25 -21.25,21.25 h -45 c -11.7725,0 -21.25,-9.4775 -21.25,-21.25 0,-11.7725 9.4775,-21.25 21.25,-21.25 z"
        id="rect9"
      />
      <circle
        stroke-width="12.5"
        gorn="0.5.0.19"
        stroke="#f7bd13"
        fill="none"
        r="21.25"
        cx="360"
        cy="660"
        id="connector9pin"
      />
      <path
        stroke-width="12.5"
        opacity="1"
        stroke-dashoffset="0"
        gorn="0.5.0.20"
        stroke="#f7bd13"
        stroke-linejoin="round"
        fill-opacity="1"
        stroke-linecap="round"
        fill-rule="evenodd"
        fill="#f7bd13"
        stroke-opacity="1"
        stroke-dasharray="none"
        stroke-miterlimit="4"
        id="rect10"
        d="M 381.25,560 A 21.25,21.25 0 0 1 360,581.25 21.25,21.25 0 0 1 338.75,560 21.25,21.25 0 0 1 360,538.75 21.25,21.25 0 0 1 381.25,560 Z M 337.5,538.75 h 45 c 11.7725,0 21.25,9.4775 21.25,21.25 0,11.7725 -9.4775,21.25 -21.25,21.25 h -45 c -11.7725,0 -21.25,-9.4775 -21.25,-21.25 0,-11.7725 9.4775,-21.25 21.25,-21.25 z"
      />
      <circle
        stroke-width="12.5"
        gorn="0.5.0.21"
        stroke="#f7bd13"
        fill="none"
        r="21.25"
        cx="360"
        id="connector10pin"
        cy="560"
      />
      <path
        stroke-width="12.5"
        opacity="1"
        stroke-dashoffset="0"
        gorn="0.5.0.22"
        stroke="#f7bd13"
        stroke-linejoin="round"
        fill-opacity="1"
        stroke-linecap="round"
        fill-rule="evenodd"
        fill="#f7bd13"
        stroke-opacity="1"
        stroke-dasharray="none"
        stroke-miterlimit="4"
        d="M 381.25,460 A 21.25,21.25 0 0 1 360,481.25 21.25,21.25 0 0 1 338.75,460 21.25,21.25 0 0 1 360,438.75 21.25,21.25 0 0 1 381.25,460 Z M 337.5,438.75 h 45 c 11.7725,0 21.25,9.4775 21.25,21.25 0,11.7725 -9.4775,21.25 -21.25,21.25 h -45 c -11.7725,0 -21.25,-9.4775 -21.25,-21.25 0,-11.7725 9.4775,-21.25 21.25,-21.25 z"
        id="rect11"
      />
      <circle
        stroke-width="12.5"
        gorn="0.5.0.23"
        stroke="#f7bd13"
        fill="none"
        r="21.25"
        cx="360"
        cy="460"
        id="connector11pin"
      />
      <path
        stroke-width="12.5"
        opacity="1"
        stroke-dashoffset="0"
        gorn="0.5.0.24"
        stroke="#f7bd13"
        stroke-linejoin="round"
        fill-opacity="1"
        stroke-linecap="round"
        fill-rule="evenodd"
        fill="#f7bd13"
        stroke-opacity="1"
        stroke-dasharray="none"
        stroke-miterlimit="4"
        id="rect12"
        d="M 381.25,360 A 21.25,21.25 0 0 1 360,381.25 21.25,21.25 0 0 1 338.75,360 21.25,21.25 0 0 1 360,338.75 21.25,21.25 0 0 1 381.25,360 Z M 337.5,338.75 h 45 c 11.7725,0 21.25,9.4775 21.25,21.25 0,11.7725 -9.4775,21.25 -21.25,21.25 h -45 c -11.7725,0 -21.25,-9.4775 -21.25,-21.25 0,-11.7725 9.4775,-21.25 21.25,-21.25 z"
      />
      <circle
        stroke-width="12.5"
        gorn="0.5.0.25"
        stroke="#f7bd13"
        fill="none"
        r="21.25"
        cx="360"
        id="connector12pin"
        cy="360"
      />
      <path
        stroke-width="12.5"
        opacity="1"
        stroke-dashoffset="0"
        gorn="0.5.0.26"
        stroke="#f7bd13"
        stroke-linejoin="round"
        fill-opacity="1"
        stroke-linecap="round"
        fill-rule="evenodd"
        fill="#f7bd13"
        stroke-opacity="1"
        stroke-dasharray="none"
        stroke-miterlimit="4"
        d="M 381.25,260 A 21.25,21.25 0 0 1 360,281.25 21.25,21.25 0 0 1 338.75,260 21.25,21.25 0 0 1 360,238.75 21.25,21.25 0 0 1 381.25,260 Z M 337.5,238.75 h 45 c 11.7725,0 21.25,9.4775 21.25,21.25 0,11.7725 -9.4775,21.25 -21.25,21.25 h -45 c -11.7725,0 -21.25,-9.4775 -21.25,-21.25 0,-11.7725 9.4775,-21.25 21.25,-21.25 z"
        id="rect13"
      />
      <circle
        stroke-width="12.5"
        gorn="0.5.0.27"
        stroke="#f7bd13"
        fill="none"
        r="21.25"
        cx="360"
        cy="260"
        id="connector13pin"
      />
      <path
        stroke-width="12.5"
        opacity="1"
        stroke-dashoffset="0"
        gorn="0.5.0.28"
        stroke="#f7bd13"
        stroke-linejoin="round"
        fill-opacity="1"
        stroke-linecap="round"
        fill-rule="evenodd"
        fill="#f7bd13"
        stroke-opacity="1"
        stroke-dasharray="none"
        stroke-miterlimit="4"
        id="rect14"
        d="M 381.25,160 A 21.25,21.25 0 0 1 360,181.25 21.25,21.25 0 0 1 338.75,160 21.25,21.25 0 0 1 360,138.75 21.25,21.25 0 0 1 381.25,160 Z M 337.5,138.75 h 45 c 11.7725,0 21.25,9.4775 21.25,21.25 0,11.7725 -9.4775,21.25 -21.25,21.25 h -45 c -11.7725,0 -21.25,-9.4775 -21.25,-21.25 0,-11.7725 9.4775,-21.25 21.25,-21.25 z"
      />
      <circle
        stroke-width="12.5"
        gorn="0.5.0.29"
        stroke="#f7bd13"
        fill="none"
        r="21.25"
        cx="360"
        id="connector14pin"
        cy="160"
      />
      <path
        stroke-width="12.5"
        opacity="1"
        stroke-dashoffset="0"
        gorn="0.5.0.30"
        stroke="#f7bd13"
        stroke-linejoin="round"
        fill-opacity="1"
        stroke-linecap="round"
        fill-rule="evenodd"
        fill="#f7bd13"
        stroke-opacity="1"
        stroke-dasharray="none"
        stroke-miterlimit="4"
        d="M 381.25,60 A 21.25,21.25 0 0 1 360,81.25 21.25,21.25 0 0 1 338.75,60 21.25,21.25 0 0 1 360,38.75 21.25,21.25 0 0 1 381.25,60 Z M 337.5,38.75 h 45 c 11.7725,0 21.25,9.4775 21.25,21.25 0,11.7725 -9.4775,21.25 -21.25,21.25 h -45 c -11.7725,0 -21.25,-9.4775 -21.25,-21.25 0,-11.7725 9.4775,-21.25 21.25,-21.25 z"
        id="rect15"
      />
      <circle
        stroke-width="12.5"
        gorn="0.5.0.31"
        stroke="#f7bd13"
        fill="none"
        r="21.25"
        cx="360"
        cy="60"
        id="connector15pin"
      />
    </g>
  </g>
</svg>
