<?xml version='1.0' encoding='UTF-8' standalone='no'?>
<svg
  xmlns:dc="http://purl.org/dc/elements/1.1/"
  xmlns:cc="http://creativecommons.org/ns#"
  xmlns:rdf="http://www.w3.org/1999/02/22-rdf-syntax-ns#"
  xmlns:svg="http://www.w3.org/2000/svg"
  xmlns="http://www.w3.org/2000/svg"
  shape-rendering="crispEdges"
  viewBox="0 0 310.00001 310"
  x="0in"
  width="0.31in"
  height="0.31in"
  version="1.2"
  y="0in"
  id="svg2">
  <metadata
    id="metadata27">
    <rdf:RDF>
      <cc:Work
        rdf:about="">
        <dc:format>image/svg+xml</dc:format>
        <dc:type
          rdf:resource="http://purl.org/dc/dcmitype/StillImage"
        />
        <dc:title/>
      </cc:Work>
    </rdf:RDF>
  </metadata>
  <defs
    id="defs25"
  />
  <desc
    id="desc4">
    <referenceFile>top-view-banana-plug-black_1_pcb.svg</referenceFile>
  </desc>
  <g
    id="silkscreen">
    <circle
      stroke-width="10"
      stroke="#000000"
      fill="none"
      id="circle32"
      gorn="0.2.0.1"
      cx="155"
      cy="155"
      r="150"
    />
  </g>
  <g
    id="copper1">
    <g
      id="copper0">
      <circle
        stroke-width="40"
        stroke="#ffbf00"
        fill="none"
        id="connector0pin"
        gorn="0.2.0.1"
        cx="155"
        cy="155"
        r="85"
      />
      <circle
        stroke-width="40"
        stroke="#ffbf00"
        fill="none"
        id="connector1pin"
        gorn="0.2.0.1"
        cx="155"
        cy="155"
        r="85"
      />
    </g>
  </g>
</svg>
