<?xml version='1.0' encoding='UTF-8' standalone='no'?>
<svg
  xmlns:dc="http://purl.org/dc/elements/1.1/"
  xmlns:cc="http://creativecommons.org/ns#"
  xmlns:rdf="http://www.w3.org/1999/02/22-rdf-syntax-ns#"
  xmlns:svg="http://www.w3.org/2000/svg"
  xmlns="http://www.w3.org/2000/svg"
  width="32.000031mm"
  height="32.000034mm"
  version="1.1"
  id="svg8"
  viewBox="0 0 1259.8442 1259.8444"
  gorn="0">
  <desc
    id="desc2">
    <referenceFile>robotdyn-max7219-LED-matrix_1_breadboard.svg</referenceFile>
  </desc>
  <defs
    id="defs2"
  />
  <metadata
    id="metadata5">
    <rdf:RDF>
      <cc:Work
        rdf:about="">
        <dc:format>image/svg+xml</dc:format>
        <dc:type
          rdf:resource="http://purl.org/dc/dcmitype/StillImage"
        />
        <dc:title/>
      </cc:Work>
    </rdf:RDF>
  </metadata>
  <g
    id="breadboard">
    <path
      stroke-opacity="0.78431373"
      stroke-dasharray="none"
      stroke-width="54.81040955"
      stroke="none"
      fill-opacity="1"
      fill="#e62c2e"
      opacity="1"
      gorn="0.3.0.0.0.0.0.0"
      id="background-rect"
      d="m 0,0 v 177.14395 h 177.16431 c 32.62006,-0.004 59.06519,26.44068 59.06156,59.06156 0.004,32.62082 -26.44156,59.06585 -59.06156,59.0614 H 0 v 669.28985 h 177.16431 c 32.62008,0 59.06522,26.4407 59.06156,59.06164 0.003,32.6208 -26.4416,59.0657 -59.06156,59.0613 H 0 v 177.1646 h 1259.8442 v -177.1646 h -177.1643 c -32.62,0 -59.0651,-26.4405 -59.0616,-59.0613 0,-32.62094 26.4415,-59.06614 59.0616,-59.06164 h 177.1643 V 295.26691 h -177.1643 c -32.62,0.004 -59.0651,-26.44057 -59.0616,-59.0614 0,-32.62089 26.4415,-59.06603 59.0616,-59.06156 h 177.1643 V 0 Z m 679.9098,118.08244 c 10.87871,-0.005 19.69888,8.81522 19.69394,19.69393 -0.006,10.87077 -8.82317,19.67855 -19.69394,19.67361 -10.86285,-0.006 -19.66737,-8.81076 -19.67365,-19.67361 -0.005,-10.87078 8.80287,-19.68767 19.67365,-19.69393 z m -399.98285,0.0208 c 10.87079,0.006 19.67859,8.82318 19.67363,19.69397 -0.006,10.86284 -8.81079,19.66734 -19.67363,19.67361 -10.87078,0.005 -19.68767,-8.80283 -19.69396,-19.67361 -0.005,-10.87873 8.81523,-19.69893 19.69396,-19.69397 z m 99.99571,0 c 10.87079,0.006 19.67859,8.82318 19.67363,19.69397 -0.006,10.86284 -8.81079,19.66734 -19.67363,19.67361 -10.87078,0.005 -19.68768,-8.80283 -19.69397,-19.67361 -0.005,-10.87873 8.81524,-19.69893 19.69397,-19.69397 z m 99.99573,0 c 10.87872,-0.005 19.6989,8.81525 19.69394,19.69397 -0.006,10.87077 -8.82317,19.67855 -19.69394,19.67361 -10.86285,-0.006 -19.66738,-8.81076 -19.67366,-19.67361 -0.005,-10.8708 8.80286,-19.68771 19.67366,-19.69397 z m 99.99569,0 c 10.87873,-0.005 19.69893,8.81524 19.69397,19.69397 -0.006,10.87078 -8.82319,19.67857 -19.69397,19.67361 -10.86284,-0.006 -19.66734,-8.81077 -19.67362,-19.67361 -0.005,-10.87079 8.80283,-19.68769 19.67362,-19.69397 z m 200.01176,0 c 10.87079,0.006 19.67858,8.82318 19.67362,19.69397 -0.006,10.86284 -8.81078,19.66733 -19.67362,19.67361 -10.87078,0.005 -19.68768,-8.80283 -19.69397,-19.67361 -0.005,-10.87873 8.81524,-19.69893 19.69397,-19.69397 z m 99.99573,0 c 10.87079,0.006 19.67858,8.82318 19.67362,19.69397 -0.006,10.86284 -8.81078,19.66733 -19.67362,19.67361 -10.87079,0.005 -19.68769,-8.80282 -19.69398,-19.67361 -0.005,-10.87874 8.81524,-19.69894 19.69398,-19.69397 z m 99.99568,0 c 10.87873,-0.005 19.69893,8.81524 19.69393,19.69397 -0.01,10.87078 -8.82315,19.67857 -19.69393,19.67361 -10.86284,-0.006 -19.66734,-8.81077 -19.67362,-19.67361 -0.005,-10.87079 8.80283,-19.68769 19.67362,-19.69397 z M 679.9098,1102.3332 c 10.87862,0 19.69875,8.8151 19.69394,19.6937 -0.006,10.8709 -8.82306,19.6788 -19.69394,19.6739 -10.86296,-0.01 -19.66753,-8.8109 -19.67365,-19.6739 -0.005,-10.8707 8.80296,-19.6874 19.67365,-19.6937 z m -399.98285,0.021 c 10.8708,0.01 19.67861,8.8232 19.67363,19.694 -0.006,10.8628 -8.81079,19.6673 -19.67363,19.6736 -10.87078,0 -19.68767,-8.8028 -19.69396,-19.6736 -0.005,-10.8787 8.81522,-19.699 19.69396,-19.694 z m 99.99571,0 c 10.8708,0.01 19.67861,8.8232 19.67363,19.694 -0.006,10.8628 -8.81079,19.6673 -19.67363,19.6736 -10.87078,0 -19.68768,-8.8028 -19.69397,-19.6736 -0.005,-10.8787 8.81522,-19.699 19.69397,-19.694 z m 99.99573,0 c 10.87873,0 19.69892,8.8153 19.69394,19.694 -0.006,10.8708 -8.82317,19.6785 -19.69394,19.6736 -10.86285,-0.01 -19.66737,-8.8108 -19.67366,-19.6736 -0.005,-10.8708 8.80285,-19.6877 19.67366,-19.694 z m 99.99569,0 c 10.87875,-0.01 19.69895,8.8153 19.69397,19.694 -0.006,10.8708 -8.82319,19.6786 -19.69397,19.6736 -10.86283,-0.01 -19.66733,-8.8108 -19.67362,-19.6736 -0.005,-10.8708 8.80282,-19.6877 19.67362,-19.694 z m 200.01176,0 c 10.8708,0.01 19.6786,8.8232 19.67362,19.694 -0.006,10.8628 -8.81079,19.6673 -19.67362,19.6736 -10.87078,0 -19.68768,-8.8028 -19.69397,-19.6736 -0.005,-10.8787 8.81522,-19.699 19.69397,-19.694 z m 99.99573,0 c 10.8708,0.01 19.6786,8.8232 19.67362,19.694 -0.006,10.8628 -8.81079,19.6673 -19.67362,19.6736 -10.87078,0 -19.68769,-8.8028 -19.69398,-19.6736 -0.005,-10.8787 8.81523,-19.699 19.69398,-19.694 z m 99.99568,0 c 10.87875,-0.01 19.69893,8.8153 19.69393,19.694 -0.01,10.8708 -8.82315,19.6786 -19.69393,19.6736 -10.86283,-0.01 -19.66733,-8.8108 -19.67362,-19.6736 -0.005,-10.8708 8.80282,-19.6877 19.67362,-19.694 z"
      stroke-miterlimit="4"
    />
    <path
      stroke-opacity="0.78431373"
      stroke-dasharray="none"
      stroke-width="55.69820786"
      stroke="none"
      fill-opacity="1"
      fill="#9a916c"
      opacity="1"
      stroke-miterlimit="4"
      display="inline"
      d="m 279.92695,107.68251 a 29.527494,29.52749 0 0 0 -29.54095,29.5206 29.527494,29.52749 0 0 0 29.54095,29.5206 29.527494,29.52749 0 0 0 29.52061,-29.5206 29.527494,29.52749 0 0 0 -29.52061,-29.5206 z m 0,9.82663 a 19.684996,19.684994 0 0 1 19.67363,19.69397 19.684996,19.684994 0 0 1 -19.67363,19.67362 19.684996,19.684994 0 0 1 -19.69396,-19.67362 19.684996,19.684994 0 0 1 19.69396,-19.69397 z"
      id="matrix-pin-1"
      gorn="0.5.10"
    />
    <path
      stroke-opacity="0.78431373"
      stroke-dasharray="none"
      stroke-width="55.69820786"
      stroke="none"
      fill-opacity="1"
      fill="#9a916c"
      opacity="1"
      stroke-miterlimit="4"
      display="inline"
      d="m 379.92266,107.68251 a 29.527494,29.52749 0 0 0 -29.5206,29.5206 29.527494,29.52749 0 0 0 29.5206,29.5206 29.527494,29.52749 0 0 0 29.52061,-29.5206 29.527494,29.52749 0 0 0 -29.52061,-29.5206 z m 0,9.82663 a 19.684996,19.684994 0 0 1 19.67363,19.69397 19.684996,19.684994 0 0 1 -19.67363,19.67362 19.684996,19.684994 0 0 1 -19.69397,-19.67362 19.684996,19.684994 0 0 1 19.69397,-19.69397 z"
      id="matrix-pin-2"
      gorn="0.5.11"
    />
    <path
      stroke-opacity="0.78431373"
      stroke-dasharray="none"
      stroke-width="55.69820786"
      stroke="none"
      fill-opacity="1"
      fill="#9a916c"
      opacity="1"
      stroke-miterlimit="4"
      display="inline"
      d="m 479.91839,107.68251 a 29.527494,29.52749 0 0 0 -29.52064,29.5206 29.527494,29.52749 0 0 0 29.52064,29.5206 29.527494,29.52749 0 0 0 29.52057,-29.5206 29.527494,29.52749 0 0 0 -29.52057,-29.5206 z m 0,9.82663 a 19.684996,19.684994 0 0 1 19.69394,19.69397 19.684996,19.684994 0 0 1 -19.69394,19.67362 19.684996,19.684994 0 0 1 -19.67366,-19.67362 19.684996,19.684994 0 0 1 19.67366,-19.69397 z"
      id="matrix-pin-3"
      gorn="0.5.12"
    />
    <path
      stroke-opacity="0.78431373"
      stroke-dasharray="none"
      stroke-width="55.69820786"
      stroke="none"
      fill-opacity="1"
      fill="#9a916c"
      opacity="1"
      stroke-miterlimit="4"
      display="inline"
      d="m 579.91408,107.68251 a 29.527494,29.52749 0 0 0 -29.52061,29.5206 29.527494,29.52749 0 0 0 29.52061,29.5206 29.527494,29.52749 0 0 0 29.54096,-29.5206 29.527494,29.52749 0 0 0 -29.54096,-29.5206 z m 0,9.82663 a 19.684996,19.684994 0 0 1 19.69397,19.69397 19.684996,19.684994 0 0 1 -19.69397,19.67362 19.684996,19.684994 0 0 1 -19.67362,-19.67362 19.684996,19.684994 0 0 1 19.67362,-19.69397 z"
      id="matrix-pin-4"
      gorn="0.5.13"
    />
    <path
      stroke-opacity="0.78431373"
      stroke-dasharray="none"
      stroke-width="55.69820786"
      stroke="none"
      fill-opacity="1"
      fill="#9a916c"
      opacity="1"
      stroke-miterlimit="4"
      display="inline"
      d="m 679.9098,107.64184 a 29.527494,29.52749 0 0 0 -29.5206,29.54092 29.527494,29.52749 0 0 0 29.5206,29.5206 29.527494,29.52749 0 0 0 29.54096,-29.5206 29.527494,29.52749 0 0 0 -29.54096,-29.54092 z m 0,9.84699 a 19.684996,19.684994 0 0 1 19.69394,19.69393 19.684996,19.684994 0 0 1 -19.69394,19.67361 19.684996,19.684994 0 0 1 -19.67365,-19.67361 19.684996,19.684994 0 0 1 19.67365,-19.69393 z"
      id="matrix-pin-5"
      gorn="0.5.14"
    />
    <path
      stroke-opacity="0.78431373"
      stroke-dasharray="none"
      stroke-width="55.69820786"
      stroke="none"
      fill-opacity="1"
      fill="#9a916c"
      opacity="1"
      stroke-miterlimit="4"
      display="inline"
      d="m 779.92584,107.68251 a 29.527494,29.52749 0 0 0 -29.54096,29.5206 29.527494,29.52749 0 0 0 29.54096,29.5206 29.527494,29.52749 0 0 0 29.52061,-29.5206 29.527494,29.52749 0 0 0 -29.52061,-29.5206 z m 0,9.82663 a 19.684996,19.684994 0 0 1 19.67362,19.69397 19.684996,19.684994 0 0 1 -19.67362,19.67362 19.684996,19.684994 0 0 1 -19.69397,-19.67362 19.684996,19.684994 0 0 1 19.69397,-19.69397 z"
      id="matrix-pin-6"
      gorn="0.5.15"
    />
    <path
      stroke-opacity="0.78431373"
      stroke-dasharray="none"
      stroke-width="55.69820786"
      stroke="none"
      fill-opacity="1"
      fill="#9a916c"
      opacity="1"
      stroke-miterlimit="4"
      display="inline"
      d="m 879.92157,107.68251 a 29.527494,29.52749 0 0 0 -29.52061,29.5206 29.527494,29.52749 0 0 0 29.52061,29.5206 29.527494,29.52749 0 0 0 29.5206,-29.5206 29.527494,29.52749 0 0 0 -29.5206,-29.5206 z m 0,9.82663 a 19.684996,19.684994 0 0 1 19.67362,19.69397 19.684996,19.684994 0 0 1 -19.67362,19.67362 19.684996,19.684994 0 0 1 -19.69398,-19.67362 19.684996,19.684994 0 0 1 19.69398,-19.69397 z"
      id="matrix-pin-7"
      gorn="0.5.16"
    />
    <path
      stroke-opacity="0.78431373"
      stroke-dasharray="none"
      stroke-width="55.69820786"
      stroke="none"
      fill-opacity="1"
      fill="#9a916c"
      opacity="1"
      stroke-miterlimit="4"
      display="inline"
      d="m 979.91725,107.68251 a 29.527494,29.52749 0 0 0 -29.5206,29.5206 29.527494,29.52749 0 0 0 29.5206,29.5206 29.527494,29.52749 0 0 0 29.52065,-29.5206 29.527494,29.52749 0 0 0 -29.52065,-29.5206 z m 0,9.82663 a 19.684996,19.684994 0 0 1 19.69397,19.69397 19.684996,19.684994 0 0 1 -19.69397,19.67362 19.684996,19.684994 0 0 1 -19.67362,-19.67362 19.684996,19.684994 0 0 1 19.67362,-19.69397 z"
      id="matrix-pin-8"
      gorn="0.5.17"
    />
    <path
      stroke-opacity="0.78431373"
      stroke-dasharray="none"
      stroke-width="55.69820786"
      stroke="none"
      fill-opacity="1"
      fill="#9a916c"
      opacity="1"
      stroke-miterlimit="4"
      display="inline"
      d="m 279.9341,1091.9372 a 29.527494,29.52749 0 0 0 -29.54096,29.5208 29.527494,29.52749 0 0 0 29.54096,29.5204 29.527494,29.52749 0 0 0 29.5206,-29.5204 29.527494,29.52749 0 0 0 -29.5206,-29.5208 z m 0,9.8267 a 19.684996,19.684994 0 0 1 19.67362,19.6941 19.684996,19.684994 0 0 1 -19.67362,19.6735 19.684996,19.684994 0 0 1 -19.69397,-19.6735 19.684996,19.684994 0 0 1 19.69397,-19.6941 z"
      id="matrix-pin-9"
      gorn="0.5.18"
    />
    <path
      stroke-opacity="0.78431373"
      stroke-dasharray="none"
      stroke-width="55.69820786"
      stroke="none"
      fill-opacity="1"
      fill="#9a916c"
      opacity="1"
      stroke-miterlimit="4"
      display="inline"
      d="m 379.92981,1091.9372 a 29.527494,29.52749 0 0 0 -29.52061,29.5208 29.527494,29.52749 0 0 0 29.52061,29.5204 29.527494,29.52749 0 0 0 29.52059,-29.5204 29.527494,29.52749 0 0 0 -29.52059,-29.5208 z m 0,9.8267 a 19.684996,19.684994 0 0 1 19.6736,19.6941 19.684996,19.684994 0 0 1 -19.6736,19.6735 19.684996,19.684994 0 0 1 -19.69397,-19.6735 19.684996,19.684994 0 0 1 19.69397,-19.6941 z"
      id="matrix-pin-10"
      gorn="0.5.19"
    />
    <path
      stroke-opacity="0.78431373"
      stroke-dasharray="none"
      stroke-width="55.69820786"
      stroke="none"
      fill-opacity="1"
      fill="#9a916c"
      opacity="1"
      stroke-miterlimit="4"
      display="inline"
      d="m 479.92552,1091.9372 a 29.527494,29.52749 0 0 0 -29.52061,29.5208 29.527494,29.52749 0 0 0 29.52061,29.5204 29.527494,29.52749 0 0 0 29.5206,-29.5204 29.527494,29.52749 0 0 0 -29.5206,-29.5208 z m 0,9.8267 a 19.684996,19.684994 0 0 1 19.69397,19.6941 19.684996,19.684994 0 0 1 -19.69397,19.6735 19.684996,19.684994 0 0 1 -19.67362,-19.6735 19.684996,19.684994 0 0 1 19.67362,-19.6941 z"
      id="matrix-pin-11"
      gorn="0.5.20"
    />
    <path
      stroke-opacity="0.78431373"
      stroke-dasharray="none"
      stroke-width="55.69820786"
      stroke="none"
      fill-opacity="1"
      fill="#9a916c"
      opacity="1"
      stroke-miterlimit="4"
      display="inline"
      d="m 579.92124,1091.9372 a 29.527494,29.52749 0 0 0 -29.5206,29.5208 29.527494,29.52749 0 0 0 29.5206,29.5204 29.527494,29.52749 0 0 0 29.54092,-29.5204 29.527494,29.52749 0 0 0 -29.54092,-29.5208 z m 0,9.8267 a 19.684996,19.684994 0 0 1 19.69394,19.6941 19.684996,19.684994 0 0 1 -19.69394,19.6735 19.684996,19.684994 0 0 1 -19.67365,-19.6735 19.684996,19.684994 0 0 1 19.67365,-19.6941 z"
      id="matrix-pin-12"
      gorn="0.5.21"
    />
    <path
      stroke-opacity="0.78431373"
      stroke-dasharray="none"
      stroke-width="55.69820786"
      stroke="none"
      fill-opacity="1"
      fill="#9a916c"
      opacity="1"
      stroke-miterlimit="4"
      display="inline"
      d="m 679.91693,1091.8966 a 29.527494,29.52749 0 0 0 -29.52061,29.5409 29.527494,29.52749 0 0 0 29.52061,29.5208 29.527494,29.52749 0 0 0 29.54096,-29.5208 29.527494,29.52749 0 0 0 -29.54096,-29.5409 z m 0,9.8468 a 19.684996,19.684994 0 0 1 19.69397,19.6941 19.684996,19.684994 0 0 1 -19.69397,19.6736 19.684996,19.684994 0 0 1 -19.67362,-19.6736 19.684996,19.684994 0 0 1 19.67362,-19.6941 z"
      id="matrix-pin-13"
      gorn="0.5.22"
    />
    <path
      stroke-opacity="0.78431373"
      stroke-dasharray="none"
      stroke-width="55.69820786"
      stroke="none"
      fill-opacity="1"
      fill="#9a916c"
      opacity="1"
      stroke-miterlimit="4"
      display="inline"
      d="m 779.93301,1091.9372 a 29.527494,29.52749 0 0 0 -29.54096,29.5208 29.527494,29.52749 0 0 0 29.54096,29.5204 29.527494,29.52749 0 0 0 29.5206,-29.5204 29.527494,29.52749 0 0 0 -29.5206,-29.5208 z m 0,9.8267 a 19.684996,19.684994 0 0 1 19.67362,19.6941 19.684996,19.684994 0 0 1 -19.67362,19.6735 19.684996,19.684994 0 0 1 -19.69397,-19.6735 19.684996,19.684994 0 0 1 19.69397,-19.6941 z"
      id="matrix-pin-14"
      gorn="0.5.23"
    />
    <path
      stroke-opacity="0.78431373"
      stroke-dasharray="none"
      stroke-width="55.69820786"
      stroke="none"
      fill-opacity="1"
      fill="#9a916c"
      opacity="1"
      stroke-miterlimit="4"
      display="inline"
      d="m 879.92869,1091.9372 a 29.527494,29.52749 0 0 0 -29.5206,29.5208 29.527494,29.52749 0 0 0 29.5206,29.5204 29.527494,29.52749 0 0 0 29.52061,-29.5204 29.527494,29.52749 0 0 0 -29.52061,-29.5208 z m 0,9.8267 a 19.684996,19.684994 0 0 1 19.67362,19.6941 19.684996,19.684994 0 0 1 -19.67362,19.6735 19.684996,19.684994 0 0 1 -19.69397,-19.6735 19.684996,19.684994 0 0 1 19.69397,-19.6941 z"
      id="matrix-pin-15"
      gorn="0.5.24"
    />
    <path
      stroke-opacity="0.78431373"
      stroke-dasharray="none"
      stroke-width="55.69820786"
      stroke="none"
      fill-opacity="1"
      fill="#9a916c"
      opacity="1"
      stroke-miterlimit="4"
      display="inline"
      d="m 979.92442,1091.9372 a 29.527494,29.52749 0 0 0 -29.52061,29.5208 29.527494,29.52749 0 0 0 29.52061,29.5204 29.527494,29.52749 0 0 0 29.52058,-29.5204 29.527494,29.52749 0 0 0 -29.52058,-29.5208 z m 0,9.8267 a 19.684996,19.684994 0 0 1 19.69397,19.6941 19.684996,19.684994 0 0 1 -19.69397,19.6735 19.684996,19.684994 0 0 1 -19.67362,-19.6735 19.684996,19.684994 0 0 1 19.67362,-19.6941 z"
      id="matrix-pin-16"
      gorn="0.5.25"
    />
    <text
      stroke-width="3.93699884"
      fill="#ffffff"
      text-anchor="end"
      font-family="OCRA"
      id="text168"
      x="1030.5901"
      y="937.66711"
      gorn="0.4.0"
      font-size="60"
      text-align="start">OUT</text>
    <text
      stroke-width="3.93699884"
      fill="#ffffff"
      text-anchor="start"
      font-family="OCRA"
      gorn="0.4.0"
      y="937.66711"
      x="231.793"
      id="text166"
      text-align="start"
      font-size="60">IN</text>
    <text
      stroke-width="3.93699884"
      fill="#ffffff"
      text-anchor="start"
      font-family="OCRA"
      id="text905"
      x="188.03931"
      y="451.87625"
      gorn="0.4.0"
      font-size="60">5V</text>
    <text
      stroke-width="3.93699884"
      fill="#ffffff"
      text-anchor="start"
      font-family="OCRA"
      text-align="start"
      id="text907"
      x="188.03931"
      y="551.85486"
      xml:space="preserve"
      gorn="0.4.1"
      font-size="60">GND</text>
    <text
      stroke-width="3.93699884"
      fill="#ffffff"
      text-anchor="start"
      font-family="OCRA"
      id="text909"
      x="188.31056"
      y="651.8606"
      xml:space="preserve"
      gorn="0.4.2"
      font-size="60"
      text-align="start">CS</text>
    <text
      stroke-width="3.93699884"
      fill="#ffffff"
      text-anchor="start"
      font-family="OCRA"
      id="text911"
      x="188.31056"
      y="751.85614"
      xml:space="preserve"
      gorn="0.4.3"
      font-size="60"
      text-align="start">SCL</text>
    <text
      stroke-width="3.93699884"
      fill="#ffffff"
      text-anchor="start"
      font-family="OCRA"
      id="text913"
      x="188.10712"
      y="851.86194"
      xml:space="preserve"
      gorn="0.4.4"
      font-size="60"
      text-align="start">SDI</text>
    <text
      stroke-width="3.93699884"
      fill="#ffffff"
      text-anchor="end"
      font-family="OCRA"
      id="text915"
      x="1074.7308"
      y="451.8685"
      xml:space="preserve"
      gorn="0.4.5"
      font-size="60"
      text-align="start">5V</text>
    <text
      stroke-width="3.93699884"
      fill="#ffffff"
      text-anchor="end"
      font-family="OCRA"
      id="text917"
      x="1073.2985"
      y="551.84406"
      xml:space="preserve"
      gorn="0.4.6"
      font-size="60"
      text-align="start">GND</text>
    <text
      stroke-width="3.93699884"
      fill="#ffffff"
      text-anchor="end"
      font-family="OCRA"
      id="text919"
      x="1074.7308"
      y="651.85284"
      xml:space="preserve"
      gorn="0.4.7"
      font-size="60"
      text-align="start">CS</text>
    <text
      stroke-width="3.93699884"
      fill="#ffffff"
      text-anchor="end"
      font-family="OCRA"
      id="text921"
      x="1073.316"
      y="751.83301"
      xml:space="preserve"
      gorn="0.4.8"
      transform="scale(0.99997871,1.0000213)"
      font-size="59.99872589"
      text-align="start">SCL</text>
    <text
      stroke-width="3.93699884"
      fill="#ffffff"
      text-anchor="end"
      font-family="OCRA"
      font-style="normal"
      id="text923"
      x="1073.2985"
      y="851.85461"
      xml:space="preserve"
      gorn="0.4.9"
      font-size="60"
      text-align="start">SDO</text>
    <circle
      stroke-width="20"
      stroke="#9a916c"
      fill="#ffffff"
      r="29"
      cy="429.84406"
      cx="119.08336"
      id="connector0pin"
    />
    <circle
      stroke-width="20"
      stroke="#9a916c"
      fill="#ffffff"
      id="connector1pin"
      cx="119.08336"
      cy="530.25031"
      r="29"
    />
    <circle
      stroke-width="20"
      stroke="#9a916c"
      fill="#ffffff"
      r="29"
      cy="630.25031"
      cx="119.08336"
      id="connector2pin"
    />
    <circle
      stroke-width="20"
      stroke="#9a916c"
      fill="#ffffff"
      id="connector3pin"
      cx="119.08336"
      cy="730.25037"
      r="29"
    />
    <circle
      stroke-width="20"
      stroke="#9a916c"
      fill="#ffffff"
      r="29"
      cy="830.25037"
      cx="119.08336"
      id="connector4pin"
    />
    <circle
      stroke-width="20"
      stroke="#9a916c"
      fill="#ffffff"
      id="connector5pin"
      cx="1119.0004"
      cy="430.47598"
      r="29"
    />
    <circle
      stroke-width="20"
      stroke="#9a916c"
      fill="#ffffff"
      r="29"
      cy="530.25031"
      cx="1119.0004"
      id="connector6pin"
    />
    <circle
      stroke-width="20"
      stroke="#9a916c"
      fill="#ffffff"
      id="connector7pin"
      cx="1119.0004"
      cy="630.25031"
      r="29"
    />
    <circle
      stroke-width="20"
      stroke="#9a916c"
      fill="#ffffff"
      r="29"
      cy="730.25037"
      cx="1119.0004"
      id="connector8pin"
    />
    <circle
      stroke-width="20"
      stroke="#9a916c"
      fill="#ffffff"
      id="connector9pin"
      cx="1119.0004"
      cy="830.25037"
      r="29"
    />
    <path
      stroke-width="11.11111355"
      gorn="0.2.0.0"
      id="0.2.0.0.0.0"
      d="m 369.9585,844.59296 v 82.1235 h 86.43148 v -4.3242 h 86.42846 v 4.3242 h 177.18043 v -4.3242 h 86.43148 v 4.3242 h 82.11101 v -82.1235 h 4.32051 l 0.003,-86.4448 h -3.61313 l -0.71043,-177.20755 h 4.32356 v -86.44168 h -4.32359 V 408.0542 h -82.11101 v -4.32117 h -86.43148 v 4.32117 H 542.81841 v -4.32117 h -86.42846 v 4.32117 h -86.43148 v 86.44168 h 4.32051 v 86.44473 h -4.32051 v 177.20755 h 4.32051 v 86.4448 h -4.32051 z"
    />
    <ellipse
      stroke-width="11.11111355"
      fill="#ffffff"
      gorn="0.2.0.1"
      id="0.2.0.1.0.0"
      cx="846.0722"
      cy="897.06287"
      ry="21.569252"
      rx="21.617781"
    />
    <ellipse
      stroke-width="11.11111355"
      fill="#ffffff"
      gorn="0.2.0.2"
      id="0.2.0.1.0.1"
      cx="780.06012"
      cy="897.06287"
      ry="21.569252"
      rx="21.611681"
    />
    <ellipse
      stroke-width="11.11111355"
      fill="#ffffff"
      gorn="0.2.0.3"
      id="0.2.0.1.0.2"
      cx="714.04517"
      cy="897.06287"
      ry="21.569252"
      rx="21.617781"
    />
    <ellipse
      stroke-width="11.11111355"
      fill="#ffffff"
      gorn="0.2.0.4"
      id="0.2.0.1.0.3"
      cx="648.03015"
      cy="897.06287"
      ry="21.569252"
      rx="21.611681"
    />
    <ellipse
      stroke-width="11.11111355"
      fill="#ffffff"
      gorn="0.2.0.5"
      id="0.2.0.1.0.4"
      cx="582.01208"
      cy="897.06287"
      ry="21.569252"
      rx="21.611681"
    />
    <ellipse
      stroke-width="11.11111355"
      fill="#ffffff"
      gorn="0.2.0.6"
      id="0.2.0.1.0.5"
      cx="516.00012"
      cy="897.06287"
      ry="21.569252"
      rx="21.608633"
    />
    <ellipse
      stroke-width="11.11111355"
      fill="#ffffff"
      gorn="0.2.0.7"
      id="0.2.0.1.0.6"
      cx="449.98505"
      cy="897.06287"
      ry="21.569252"
      rx="21.608633"
    />
    <ellipse
      stroke-width="11.11111355"
      fill="#ffffff"
      gorn="0.2.0.8"
      id="0.2.0.1.0.7"
      cx="383.97003"
      cy="897.06287"
      ry="21.569252"
      rx="21.611681"
    />
    <ellipse
      stroke-width="11.11111355"
      fill="#ffffff"
      gorn="0.2.0.9"
      id="0.2.0.1.1.0"
      cx="846.0722"
      cy="831.33655"
      ry="21.569252"
      rx="21.617781"
    />
    <ellipse
      stroke-width="11.11111355"
      fill="#ffffff"
      gorn="0.2.0.10"
      id="0.2.0.1.1.1"
      cx="780.06012"
      cy="831.33655"
      ry="21.569252"
      rx="21.611681"
    />
    <ellipse
      stroke-width="11.11111355"
      fill="#ffffff"
      gorn="0.2.0.11"
      id="0.2.0.1.1.2"
      cx="714.04517"
      cy="831.33655"
      ry="21.569252"
      rx="21.617781"
    />
    <ellipse
      stroke-width="11.11111355"
      fill="#ffffff"
      gorn="0.2.0.12"
      id="0.2.0.1.1.3"
      cx="648.03015"
      cy="831.33655"
      ry="21.569252"
      rx="21.611681"
    />
    <ellipse
      stroke-width="11.11111355"
      fill="#ffffff"
      gorn="0.2.0.13"
      id="0.2.0.1.1.4"
      cx="582.01208"
      cy="831.33655"
      ry="21.569252"
      rx="21.611681"
    />
    <ellipse
      stroke-width="11.11111355"
      fill="#ffffff"
      gorn="0.2.0.14"
      id="0.2.0.1.1.5"
      cx="516.00012"
      cy="831.33655"
      ry="21.569252"
      rx="21.608633"
    />
    <ellipse
      stroke-width="11.11111355"
      fill="#ffffff"
      gorn="0.2.0.15"
      id="0.2.0.1.1.6"
      cx="449.98505"
      cy="831.33655"
      ry="21.569252"
      rx="21.608633"
    />
    <ellipse
      stroke-width="11.11111355"
      fill="#ffffff"
      gorn="0.2.0.16"
      id="0.2.0.1.1.7"
      cx="383.97003"
      cy="831.33655"
      ry="21.569252"
      rx="21.611681"
    />
    <ellipse
      stroke-width="11.11111355"
      fill="#ffffff"
      gorn="0.2.0.17"
      id="0.2.0.1.2.0"
      cx="846.0722"
      cy="765.61035"
      ry="21.569252"
      rx="21.617781"
    />
    <ellipse
      stroke-width="11.11111355"
      fill="#ffffff"
      gorn="0.2.0.18"
      id="0.2.0.1.2.1"
      cx="780.06012"
      cy="765.61035"
      ry="21.569252"
      rx="21.611681"
    />
    <ellipse
      stroke-width="11.11111355"
      fill="#ffffff"
      gorn="0.2.0.19"
      id="0.2.0.1.2.2"
      cx="714.04517"
      cy="765.61035"
      ry="21.569252"
      rx="21.617781"
    />
    <ellipse
      stroke-width="11.11111355"
      fill="#ffffff"
      gorn="0.2.0.20"
      id="0.2.0.1.2.3"
      cx="648.03015"
      cy="765.61035"
      ry="21.569252"
      rx="21.611681"
    />
    <ellipse
      stroke-width="11.11111355"
      fill="#ffffff"
      gorn="0.2.0.21"
      id="0.2.0.1.2.4"
      cx="582.01208"
      cy="765.61035"
      ry="21.569252"
      rx="21.611681"
    />
    <ellipse
      stroke-width="11.11111355"
      fill="#ffffff"
      gorn="0.2.0.22"
      id="0.2.0.1.2.5"
      cx="516.00012"
      cy="765.61035"
      ry="21.569252"
      rx="21.608633"
    />
    <ellipse
      stroke-width="11.11111355"
      fill="#ffffff"
      gorn="0.2.0.23"
      id="0.2.0.1.2.6"
      cx="449.98505"
      cy="765.61035"
      ry="21.569252"
      rx="21.608633"
    />
    <ellipse
      stroke-width="11.11111355"
      fill="#ffffff"
      gorn="0.2.0.24"
      id="0.2.0.1.2.7"
      cx="383.97003"
      cy="765.61035"
      ry="21.569252"
      rx="21.611681"
    />
    <ellipse
      stroke-width="11.11111355"
      fill="#ffffff"
      gorn="0.2.0.25"
      id="0.2.0.1.3.0"
      cx="846.0722"
      cy="699.89014"
      ry="21.569252"
      rx="21.617781"
    />
    <ellipse
      stroke-width="11.11111355"
      fill="#ffffff"
      gorn="0.2.0.26"
      id="0.2.0.1.3.1"
      cx="780.06012"
      cy="699.89014"
      ry="21.569252"
      rx="21.611681"
    />
    <ellipse
      stroke-width="11.11111355"
      fill="#ffffff"
      gorn="0.2.0.27"
      id="0.2.0.1.3.2"
      cx="714.04517"
      cy="699.89014"
      ry="21.569252"
      rx="21.617781"
    />
    <ellipse
      stroke-width="11.11111355"
      fill="#ffffff"
      gorn="0.2.0.28"
      id="0.2.0.1.3.3"
      cx="648.03015"
      cy="699.89014"
      ry="21.569252"
      rx="21.611681"
    />
    <ellipse
      stroke-width="11.11111355"
      fill="#ffffff"
      gorn="0.2.0.29"
      id="0.2.0.1.3.4"
      cx="582.01208"
      cy="699.89014"
      ry="21.569252"
      rx="21.611681"
    />
    <ellipse
      stroke-width="11.11111355"
      fill="#ffffff"
      gorn="0.2.0.30"
      id="0.2.0.1.3.5"
      cx="516.00012"
      cy="699.89014"
      ry="21.569252"
      rx="21.608633"
    />
    <ellipse
      stroke-width="11.11111355"
      fill="#ffffff"
      gorn="0.2.0.31"
      id="0.2.0.1.3.6"
      cx="449.98505"
      cy="699.89014"
      ry="21.569252"
      rx="21.608633"
    />
    <ellipse
      stroke-width="11.11111355"
      fill="#ffffff"
      gorn="0.2.0.32"
      id="0.2.0.1.3.7"
      cx="383.97003"
      cy="699.89014"
      ry="21.569252"
      rx="21.611681"
    />
    <ellipse
      stroke-width="11.11111355"
      fill="#ffffff"
      gorn="0.2.0.33"
      id="0.2.0.1.4.0"
      cx="846.0722"
      cy="634.16998"
      ry="21.569252"
      rx="21.617781"
    />
    <ellipse
      stroke-width="11.11111355"
      fill="#ffffff"
      gorn="0.2.0.34"
      id="0.2.0.1.4.1"
      cx="780.06012"
      cy="634.16998"
      ry="21.569252"
      rx="21.611681"
    />
    <ellipse
      stroke-width="11.11111355"
      fill="#ffffff"
      gorn="0.2.0.35"
      id="0.2.0.1.4.2"
      cx="714.04517"
      cy="634.16998"
      ry="21.569252"
      rx="21.617781"
    />
    <ellipse
      stroke-width="11.11111355"
      fill="#ffffff"
      gorn="0.2.0.36"
      id="0.2.0.1.4.3"
      cx="648.03015"
      cy="634.16998"
      ry="21.569252"
      rx="21.611681"
    />
    <ellipse
      stroke-width="11.11111355"
      fill="#ffffff"
      gorn="0.2.0.37"
      id="0.2.0.1.4.4"
      cx="582.01208"
      cy="634.16998"
      ry="21.569252"
      rx="21.611681"
    />
    <ellipse
      stroke-width="11.11111355"
      fill="#ffffff"
      gorn="0.2.0.38"
      id="0.2.0.1.4.5"
      cx="516.00012"
      cy="634.16998"
      ry="21.569252"
      rx="21.608633"
    />
    <ellipse
      stroke-width="11.11111355"
      fill="#ffffff"
      gorn="0.2.0.39"
      id="0.2.0.1.4.6"
      cx="449.98505"
      cy="634.16998"
      ry="21.569252"
      rx="21.608633"
    />
    <ellipse
      stroke-width="11.11111355"
      fill="#ffffff"
      gorn="0.2.0.40"
      id="0.2.0.1.4.7"
      cx="383.97003"
      cy="634.16998"
      ry="21.569252"
      rx="21.611681"
    />
    <ellipse
      stroke-width="11.11111355"
      fill="#ffffff"
      gorn="0.2.0.41"
      id="0.2.0.1.5.0"
      cx="846.0722"
      cy="568.44977"
      ry="21.569252"
      rx="21.617781"
    />
    <ellipse
      stroke-width="11.11111355"
      fill="#ffffff"
      gorn="0.2.0.42"
      id="0.2.0.1.5.1"
      cx="780.06012"
      cy="568.44977"
      ry="21.569252"
      rx="21.611681"
    />
    <ellipse
      stroke-width="11.11111355"
      fill="#ffffff"
      gorn="0.2.0.43"
      id="0.2.0.1.5.2"
      cx="714.04517"
      cy="568.44977"
      ry="21.569252"
      rx="21.617781"
    />
    <ellipse
      stroke-width="11.11111355"
      fill="#ffffff"
      gorn="0.2.0.44"
      id="0.2.0.1.5.3"
      cx="648.03015"
      cy="568.44977"
      ry="21.569252"
      rx="21.611681"
    />
    <ellipse
      stroke-width="11.11111355"
      fill="#ffffff"
      gorn="0.2.0.45"
      id="0.2.0.1.5.4"
      cx="582.01208"
      cy="568.44977"
      ry="21.569252"
      rx="21.611681"
    />
    <ellipse
      stroke-width="11.11111355"
      fill="#ffffff"
      gorn="0.2.0.46"
      id="0.2.0.1.5.5"
      cx="516.00012"
      cy="568.44977"
      ry="21.569252"
      rx="21.608633"
    />
    <ellipse
      stroke-width="11.11111355"
      fill="#ffffff"
      gorn="0.2.0.47"
      id="0.2.0.1.5.6"
      cx="449.98505"
      cy="568.44977"
      ry="21.569252"
      rx="21.608633"
    />
    <ellipse
      stroke-width="11.11111355"
      fill="#ffffff"
      gorn="0.2.0.48"
      id="0.2.0.1.5.7"
      cx="383.97003"
      cy="568.44977"
      ry="21.569252"
      rx="21.611681"
    />
    <ellipse
      stroke-width="11.11111355"
      fill="#ffffff"
      gorn="0.2.0.49"
      id="0.2.0.1.6.0"
      cx="846.0722"
      cy="502.72043"
      ry="21.569252"
      rx="21.617781"
    />
    <ellipse
      stroke-width="11.11111355"
      fill="#ffffff"
      gorn="0.2.0.50"
      id="0.2.0.1.6.1"
      cx="780.06012"
      cy="502.72043"
      ry="21.569252"
      rx="21.611681"
    />
    <ellipse
      stroke-width="11.11111355"
      fill="#ffffff"
      gorn="0.2.0.51"
      id="0.2.0.1.6.2"
      cx="714.04517"
      cy="502.72043"
      ry="21.569252"
      rx="21.617781"
    />
    <ellipse
      stroke-width="11.11111355"
      fill="#ffffff"
      gorn="0.2.0.52"
      id="0.2.0.1.6.3"
      cx="648.03015"
      cy="502.72043"
      ry="21.569252"
      rx="21.611681"
    />
    <ellipse
      stroke-width="11.11111355"
      fill="#ffffff"
      gorn="0.2.0.53"
      id="0.2.0.1.6.4"
      cx="582.01208"
      cy="502.72043"
      ry="21.569252"
      rx="21.611681"
    />
    <ellipse
      stroke-width="11.11111355"
      fill="#ffffff"
      gorn="0.2.0.54"
      id="0.2.0.1.6.5"
      cx="516.00012"
      cy="502.72043"
      ry="21.569252"
      rx="21.608633"
    />
    <ellipse
      stroke-width="11.11111355"
      fill="#ffffff"
      gorn="0.2.0.55"
      id="0.2.0.1.6.6"
      cx="449.98505"
      cy="502.72043"
      ry="21.569252"
      rx="21.608633"
    />
    <ellipse
      stroke-width="11.11111355"
      fill="#ffffff"
      gorn="0.2.0.56"
      id="0.2.0.1.6.7"
      cx="383.97003"
      cy="502.72043"
      ry="21.569252"
      rx="21.611681"
    />
    <ellipse
      stroke-width="11.11111355"
      fill="#ffffff"
      gorn="0.2.0.57"
      id="0.2.0.1.7.0"
      cx="846.0722"
      cy="437.00021"
      ry="21.566202"
      rx="21.611681"
    />
    <ellipse
      stroke-width="11.11111355"
      fill="#ffffff"
      gorn="0.2.0.58"
      id="0.2.0.1.7.1"
      cx="780.06012"
      cy="437.00021"
      ry="21.566202"
      rx="21.608633"
    />
    <ellipse
      stroke-width="11.11111355"
      fill="#ffffff"
      gorn="0.2.0.59"
      id="0.2.0.1.7.2"
      cx="714.04517"
      cy="437.00021"
      ry="21.566202"
      rx="21.611681"
    />
    <ellipse
      stroke-width="11.11111355"
      fill="#ffffff"
      gorn="0.2.0.60"
      id="0.2.0.1.7.3"
      cx="648.03015"
      cy="437.00021"
      ry="21.566202"
      rx="21.611681"
    />
    <ellipse
      stroke-width="11.11111355"
      fill="#ffffff"
      gorn="0.2.0.61"
      id="0.2.0.1.7.4"
      cx="582.01208"
      cy="437.00021"
      ry="21.566202"
      rx="21.608633"
    />
    <ellipse
      stroke-width="11.11111355"
      fill="#ffffff"
      gorn="0.2.0.62"
      id="0.2.0.1.7.5"
      cx="516.00012"
      cy="437.00021"
      ry="21.566202"
      rx="21.605585"
    />
    <ellipse
      stroke-width="11.11111355"
      fill="#ffffff"
      gorn="0.2.0.63"
      id="0.2.0.1.7.6"
      cx="449.98505"
      cy="437.00021"
      ry="21.566202"
      rx="21.605585"
    />
    <ellipse
      stroke-width="11.11111355"
      fill="#ffffff"
      gorn="0.2.0.64"
      id="0.2.0.1.7.7"
      cx="383.97003"
      cy="437.00021"
      ry="21.566202"
      rx="21.608633"
    />
  </g>
</svg>
