<?xml version='1.0' encoding='UTF-8' standalone='no'?>
<svg
  xmlns:dc="http://purl.org/dc/elements/1.1/"
  xmlns:cc="http://creativecommons.org/ns#"
  xmlns:rdf="http://www.w3.org/1999/02/22-rdf-syntax-ns#"
  xmlns:svg="http://www.w3.org/2000/svg"
  xmlns="http://www.w3.org/2000/svg"
  gorn="0"
  viewBox="0 0 1269.8442 1269.8442"
  id="svg8"
  version="1.1"
  height="32.254032mm"
  width="32.254032mm">
  <desc
    id="desc2">
    <referenceFile>robotdyn-max7219-LED-matrix_1_pcb.svg</referenceFile>
  </desc>
  <defs
    id="defs2"
  />
  <metadata
    id="metadata5">
    <rdf:RDF>
      <cc:Work
        rdf:about="">
        <dc:format>image/svg+xml</dc:format>
        <dc:type
          rdf:resource="http://purl.org/dc/dcmitype/StillImage"
        />
        <dc:title/>
      </cc:Work>
    </rdf:RDF>
  </metadata>
  <g
    id="silkscreen">
    <path
      stroke-miterlimit="4"
      d="m 5,5 v 177.14395 h 177.16431 c 32.62006,-0.004 59.06519,26.44068 59.06156,59.06156 0.004,32.62082 -26.44156,59.06585 -59.06156,59.0614 H 5 v 669.28985 h 177.16431 c 32.62008,0 59.06522,26.4407 59.06156,59.06164 0.003,32.6208 -26.4416,59.0657 -59.06156,59.0613 H 5 v 177.1646 h 1259.8442 v -177.1646 h -177.1643 c -32.62,0 -59.0651,-26.4405 -59.0616,-59.0613 0,-32.62094 26.4415,-59.06614 59.0616,-59.06164 h 177.1643 V 300.26691 h -177.1643 c -32.62,0.004 -59.0651,-26.44057 -59.0616,-59.0614 0,-32.62089 26.4415,-59.06603 59.0616,-59.06156 h 177.1643 V 5 Z"
      id="background-rect"
      gorn="0.3.0.0.0.0.0.0"
      fill="none"
      stroke="#000000"
      stroke-width="10"
    />
  </g>
  <g
    id="copper1">
    <g
      id="copper0">
      <circle
        r="29"
        cy="443.67523"
        cx="157.00005"
        gorn="0.2.0.3"
        id="connector0pin"
        fill="none"
        stroke="#ffbf00"
        stroke-width="20"
      />
      <circle
        id="connector1pin"
        gorn="0.2.0.3"
        cx="157.00005"
        cy="543.67523"
        r="29"
        fill="none"
        stroke="#ffbf00"
        stroke-width="20"
      />
      <circle
        r="29"
        cy="643.67529"
        cx="157.00005"
        gorn="0.2.0.3"
        id="connector2pin"
        fill="none"
        stroke="#ffbf00"
        stroke-width="20"
      />
      <circle
        id="connector3pin"
        gorn="0.2.0.3"
        cx="157.00005"
        cy="743.67529"
        r="29"
        fill="none"
        stroke="#ffbf00"
        stroke-width="20"
      />
      <circle
        r="29"
        cy="843.67535"
        cx="157.00005"
        gorn="0.2.0.3"
        id="connector4pin"
        fill="none"
        stroke="#ffbf00"
        stroke-width="20"
      />
      <circle
        id="connector5pin"
        gorn="0.2.0.3"
        cx="1157.0004"
        cy="443.67523"
        r="29"
        fill="none"
        stroke="#ffbf00"
        stroke-width="20"
      />
      <circle
        r="29"
        cy="543.67523"
        cx="1157.0004"
        gorn="0.2.0.3"
        id="connector6pin"
        fill="none"
        stroke="#ffbf00"
        stroke-width="20"
      />
      <circle
        id="connector7pin"
        gorn="0.2.0.3"
        cx="1157.0004"
        cy="643.67529"
        r="29"
        fill="none"
        stroke="#ffbf00"
        stroke-width="20"
      />
      <circle
        r="29"
        cy="743.67529"
        cx="1157.0004"
        gorn="0.2.0.3"
        id="connector8pin"
        fill="none"
        stroke="#ffbf00"
        stroke-width="20"
      />
      <circle
        id="connector9pin"
        gorn="0.2.0.3"
        cx="1157.0004"
        cy="843.46698"
        r="29"
        fill="none"
        stroke="#ffbf00"
        stroke-width="20"
      />
    </g>
  </g>
</svg>
