<?xml version='1.0' encoding='UTF-8' standalone='no'?>
<svg xmlns="http://www.w3.org/2000/svg" id="svg946" gorn="0" width="25mm" height="22mm"  version="1.1" viewBox="0 0 984.25198 866.14174">
    <desc >
        <referenceFile >keypad_adapter_pcb.svg</referenceFile>
    </desc>
    <defs id="defs940" />
    <metadata id="metadata943" >
        <rdf:RDF xmlns:rdf="http://www.w3.org/1999/02/22-rdf-syntax-ns#">
            <cc:Work xmlns:rdf="http://www.w3.org/1999/02/22-rdf-syntax-ns#" xmlns:cc="http://creativecommons.org/ns#" rdf:about="">
                <dc:format xmlns:dc="http://purl.org/dc/elements/1.1/">image/svg+xml</dc:format>
                <dc:type xmlns:rdf="http://www.w3.org/1999/02/22-rdf-syntax-ns#" rdf:resource="http://purl.org/dc/dcmitype/StillImage" xmlns:dc="http://purl.org/dc/elements/1.1/"/>
                <dc:title xmlns:dc="http://purl.org/dc/elements/1.1/"/>
            </cc:Work>
        </rdf:RDF>
    </metadata>
    <g transform="matrix(1.0363476,0,0,1.019316,-0.14013831,-25.620741)" >
        <g >
            <g >
                <g >
                    <g >
                        <g >
                            <g id="silkscreen" gorn="0.3.0.0.0.0.0.0" style="display:inline;" stroke-opacity="1" stroke-width="0.972955"  stroke="#000000">
                                <path id="path2917" d="M 60.836206,30.005351 A 55.856816,55.786734 0 0 0 5.0038337,85.772678 V 814.24086 A 55.856816,55.786734 0 0 0 60.836206,870.00819 H 889.15382 a 55.856816,55.786734 0 0 0 55.852,-55.76733 V 85.772678 a 55.856816,55.786734 0 0 0 -55.852,-55.767327 z" font-size="medium" gorn="0.3.0.0.0.0.0.0.0" fill-opacity="1" fill="none" style="color:#000000;font-style:normal;font-variant:normal;font-weight:normal;font-stretch:normal;line-height:normal;font-family:Droid Sans;font-variant-ligatures:normal;font-variant-position:normal;font-variant-caps:normal;font-variant-numeric:normal;font-variant-alternates:normal;font-variant-east-asian:normal;font-feature-settings:normal;font-variation-settings:normal;text-indent:0;text-align:start;text-decoration:none;text-decoration-line:none;text-decoration-style:solid;text-decoration-color:#000000;letter-spacing:normal;word-spacing:normal;text-transform:none;writing-mode:lr-tb;direction:ltr;text-orientation:mixed;dominant-baseline:auto;baseline-shift:baseline;text-anchor:start;white-space:normal;shape-padding:0;shape-margin:0;inline-size:0;clip-rule:nonzero;display:inline;overflow:visible;visibility:visible;isolation:auto;mix-blend-mode:normal;color-interpolation:sRGB;color-interpolation-filters:linearRGB;solid-color:#000000;solid-opacity:1;vector-effect:none;fill-rule:nonzero;stroke-linecap:square;stroke-linejoin:round;stroke-miterlimit:4;stroke-dasharray:none;stroke-dashoffset:60.4724;paint-order:stroke fill markers;color-rendering:auto;image-rendering:auto;shape-rendering:auto;text-rendering:auto;enable-background:accumulate;stop-color:#000000" stroke-opacity="1" stroke-width="9.72955244"  stroke="#000000"/>
                                <ellipse id="path879" rx="63.380692" gorn="0.3.0.0.0.0.0.0.1" fill-opacity="1" cx="112.65942" fill="none" ry="64.523262" style="opacity:1;stroke-linecap:square;stroke-linejoin:bevel;stroke-miterlimit:4;stroke-dasharray:none;stroke-dashoffset:60.4724;paint-order:stroke fill markers" stroke-opacity="1" stroke-width="9.72955244"  cy="767.9137" stroke="#000000"/>
                                <ellipse id="ellipse883" rx="63.380692" gorn="0.3.0.0.0.0.0.0.2" fill-opacity="1" cx="845.85217" fill="none" ry="64.523262" style="opacity:1;stroke-linecap:square;stroke-linejoin:bevel;stroke-miterlimit:4;stroke-dasharray:none;stroke-dashoffset:60.4724;paint-order:stroke fill markers" stroke-opacity="1" stroke-width="9.99996"  cy="767.9137" stroke="#000000"/>
                            </g>
                        </g>
                    </g>
                </g>
            </g>
        </g>
    </g>
    <g id="copper1" gorn="0.4" >
        <g id="copper0" gorn="0.4.0" >
            <circle id="connector0pin" gorn="0.4.0.0" fill-opacity="1" cx="407" fill="none" r="29" style="opacity:1;stroke-linecap:square;stroke-linejoin:bevel;stroke-miterlimit:4;stroke-dasharray:none;stroke-dashoffset:60.4724;paint-order:stroke fill markers" stroke-opacity="1" stroke-width="20.00000031"  cy="591" stroke="#f7bd13"/>
            <circle id="connector1pin" gorn="0.4.0.1" fill-opacity="1" cx="507" fill="none" r="29" style="opacity:1;stroke-linecap:square;stroke-linejoin:bevel;stroke-miterlimit:4;stroke-dasharray:none;stroke-dashoffset:60.4724;paint-order:stroke fill markers" stroke-opacity="1" stroke-width="20"  cy="591" stroke="#f7bd13"/>
            <circle id="connector2pin" gorn="0.4.0.2" fill-opacity="1" cx="607" fill="none" r="29" style="opacity:1;stroke-linecap:square;stroke-linejoin:bevel;stroke-miterlimit:4;stroke-dasharray:none;stroke-dashoffset:60.4724;paint-order:stroke fill markers" stroke-opacity="1" stroke-width="20"  cy="591" stroke="#f7bd13"/>
        </g>
    </g>
</svg>
