<?xml version='1.0' encoding='UTF-8' standalone='no'?>
<svg
  xmlns:dc="http://purl.org/dc/elements/1.1/"
  xmlns:cc="http://creativecommons.org/ns#"
  xmlns:rdf="http://www.w3.org/1999/02/22-rdf-syntax-ns#"
  xmlns:svg="http://www.w3.org/2000/svg"
  xmlns="http://www.w3.org/2000/svg"
  id="svg2"
  y="0in"
  version="1.2"
  height="0.56118113in"
  width="0.17in"
  x="0in"
  viewBox="0 0 170 561.18112"
  shape-rendering="crispEdges">
  <metadata
    id="metadata27">
    <rdf:RDF>
      <cc:Work
        rdf:about="">
        <dc:format>image/svg+xml</dc:format>
        <dc:type
          rdf:resource="http://purl.org/dc/dcmitype/StillImage"
        />
        <dc:title/>
      </cc:Work>
    </rdf:RDF>
  </metadata>
  <defs
    id="defs25"
  />
  <desc
    id="desc4">
    <referenceFile>voltammeter_1_pcb.svg</referenceFile>
  </desc>
  <g
    id="silkscreen">
    <line
      id="line7"
      x1="5"
      x2="5"
      y2="556.18115"
      y1="4.9999995"
      stroke="#000000"
      stroke-width="10"
    />
    <line
      id="line9"
      x1="5"
      x2="165"
      y2="556.18115"
      y1="556.18115"
      stroke="#000000"
      stroke-width="9.99999905"
    />
    <line
      id="line11"
      x1="165"
      x2="165"
      y2="4.9999995"
      y1="556.18109"
      stroke="#000000"
      stroke-width="10"
    />
    <line
      id="line13"
      x1="165"
      x2="5"
      y2="4.9999995"
      y1="4.9999995"
      stroke="#000000"
      stroke-width="9.99999905"
    />
  </g>
  <g
    id="copper1">
    <g
      id="copper0">
      <rect
        id="square"
        gorn="0.2.0.0"
        x="46.485229"
        height="58"
        width="58"
        y="48.960716"
        fill="none"
        stroke="#ffbf00"
        stroke-width="20"
      />
      <circle
        id="connector0pin"
        gorn="0.2.0.1"
        cx="75.485229"
        cy="77.960716"
        r="29"
        fill="none"
        stroke="#ffbf00"
        stroke-width="20"
      />
      <circle
        id="connector1pin"
        gorn="0.2.0.2"
        cx="75.485229"
        cy="177.96072"
        r="29"
        fill="none"
        stroke="#ffbf00"
        stroke-width="20"
      />
      <circle
        id="connector2pin"
        gorn="0.2.0.3"
        cx="75.485229"
        cy="277.96072"
        r="29"
        fill="none"
        stroke="#ffbf00"
        stroke-width="20"
      />
      <circle
        r="29"
        cy="378.18109"
        cx="75.485229"
        gorn="0.2.0.3"
        id="connector3pin"
        fill="none"
        stroke="#ffbf00"
        stroke-width="20"
      />
      <circle
        id="connector4pin"
        gorn="0.2.0.3"
        cx="75.485229"
        cy="478.18106"
        r="29"
        fill="none"
        stroke="#ffbf00"
        stroke-width="20"
      />
    </g>
  </g>
</svg>
