<?xml version='1.0' encoding='UTF-8'?>
<!DOCTYPE svg>
<!-- Creator: CorelDRAW X6 -->
<svg xmlns="http://www.w3.org/2000/svg"  shape-rendering="geometricPrecision" viewBox="0 0 3198 4703" fill-rule="evenodd" image-rendering="optimizeQuality" text-rendering="geometricPrecision" xml:space="preserve" height="1.5748in" xmlns:xml="http://www.w3.org/XML/1998/namespace" width="1.07087in" version="1.1" clip-rule="evenodd">
    <desc >
        <referenceFile >breadboard.svg</referenceFile>
    </desc>
    <g id="Layer_x0020_1"  gorn="0.1">
        <metadata id="CorelCorpID_0Corel-Layer" />
        <rect  rx="336" ry="336" height="4703" width="3198" fill="#1A1A1A"/>
        <g id="_459547864"  gorn="0.1.2">
            <rect  x="2684" y="3548" height="364" width="364" fill="white"/>
            <circle  cx="2866" r="162" cy="3730" fill="#FFFF7D"/>
        </g>
        <polygon  fill-rule="nonzero" points="775,4599 775,4385 929,4385 929,4410 803,4410 803,4476 921,4476 921,4501 803,4501 803,4574 934,4574 934,4599 " fill="white"/>
        <path id="1"  d="M964 4530l27 -2c1,11 4,20 9,27 5,7 12,12 22,17 10,4 21,6 33,6 11,0 20,-2 29,-5 8,-3 14,-8 18,-13 4,-6 6,-12 6,-18 0,-7 -2,-12 -6,-18 -4,-5 -10,-9 -19,-13 -6,-2 -18,-6 -38,-10 -20,-5 -33,-9 -41,-13 -10,-5 -18,-12 -23,-20 -5,-8 -8,-17 -8,-27 0,-11 3,-21 9,-30 6,-9 15,-17 27,-21 12,-5 25,-7 39,-7 16,0 30,3 42,8 12,5 21,13 28,23 7,10 10,21 11,34l-27 2c-1,-13 -6,-24 -15,-31 -8,-7 -21,-10 -37,-10 -17,0 -30,3 -37,9 -8,6 -12,14 -12,23 0,8 3,14 8,19 5,5 20,10 43,15 23,5 39,10 47,14 12,6 22,13 28,22 6,9 9,19 9,30 0,11 -3,22 -10,32 -7,10 -16,18 -28,23 -12,6 -26,8 -41,8 -19,0 -36,-3 -49,-8 -13,-6 -23,-14 -31,-25 -7,-11 -11,-24 -12,-38z" fill-rule="nonzero" gorn="0.1.4" fill="white"/>
        <path id="2"  d="M1173 4599l0 -214 81 0c14,0 25,1 33,2 11,2 19,5 26,10 7,5 13,12 17,21 4,9 6,19 6,29 0,18 -6,34 -17,46 -12,13 -33,19 -63,19l-55 0 0 87 -28 0zm28 -112l55 0c18,0 31,-3 39,-10 8,-7 12,-16 12,-29 0,-9 -2,-17 -7,-23 -5,-6 -11,-11 -18,-13 -5,-1 -14,-2 -26,-2l-55 0 0 77z" fill-rule="nonzero" gorn="0.1.5" fill="white"/>
        <path id="3"  d="M1362 4542l26 -4c3,15 8,26 15,32 7,7 16,10 27,10 12,0 23,-4 31,-13 8,-9 13,-19 13,-32 0,-12 -4,-22 -12,-30 -8,-8 -18,-12 -30,-12 -5,0 -11,1 -19,3l3 -23c2,0 3,0 4,0 11,0 21,-3 30,-9 9,-6 13,-15 13,-27 0,-10 -3,-18 -10,-24 -7,-6 -15,-9 -25,-9 -10,0 -19,3 -26,10 -7,6 -11,16 -13,29l-26 -5c3,-18 11,-31 22,-41 11,-10 26,-15 42,-15 12,0 22,2 32,8 10,5 17,12 23,20 5,9 8,18 8,28 0,9 -2,18 -7,25 -5,8 -12,14 -22,18 13,3 22,9 29,18 7,9 10,21 10,35 0,19 -7,35 -20,48 -14,13 -31,19 -52,19 -19,0 -34,-6 -47,-17 -12,-11 -20,-26 -21,-44z" fill-rule="nonzero" gorn="0.1.6" fill="white"/>
        <path id="4"  d="M1666 4574l0 25 -142 0c0,-6 1,-12 3,-18 4,-10 9,-19 17,-28 8,-9 19,-20 34,-32 23,-19 39,-34 47,-45 8,-11 12,-22 12,-32 0,-10 -4,-19 -11,-26 -7,-7 -17,-11 -29,-11 -13,0 -23,4 -30,11 -8,8 -11,18 -12,31l-27 -3c2,-20 9,-35 21,-46 12,-11 28,-16 49,-16 21,0 37,6 49,17 12,11 18,26 18,42 0,9 -2,17 -5,25 -3,8 -9,17 -17,26 -8,9 -22,22 -41,38 -16,13 -26,22 -30,27 -4,5 -8,9 -11,14l105 0z" fill-rule="nonzero" gorn="0.1.7" fill="white"/>
        <polygon id="5"  fill-rule="nonzero" gorn="0.1.8" points="1691,4535 1691,4509 1772,4509 1772,4535 " fill="white"/>
        <path id="6"  d="M1957 4524l28 7c-6,23 -17,41 -32,53 -15,12 -34,18 -56,18 -23,0 -42,-5 -56,-14 -14,-9 -25,-23 -33,-41 -8,-18 -11,-37 -11,-57 0,-22 4,-42 13,-58 9,-17 21,-29 36,-38 16,-9 33,-13 52,-13 21,0 39,5 54,16 15,11 25,26 30,46l-28 7c-5,-16 -12,-27 -22,-34 -9,-7 -21,-11 -36,-11 -16,0 -30,4 -41,12 -11,8 -19,18 -23,32 -4,13 -7,27 -7,41 0,18 3,34 8,48 5,14 13,24 25,30 11,7 23,10 36,10 16,0 29,-5 40,-14 11,-9 18,-23 22,-41z" fill-rule="nonzero" gorn="0.1.9" fill="white"/>
        <path id="7"  d="M1997 4599l82 -214 31 0 87 214 -32 0 -25 -65 -90 0 -23 65 -30 0zm62 -88l73 0 -22 -59c-7,-18 -12,-33 -15,-45 -3,14 -7,28 -12,41l-23 63z" fill-rule="nonzero" gorn="0.1.10" fill="white"/>
        <path id="8"  d="M2219 4599l0 -214 42 0 51 151c5,14 8,25 10,32 2,-8 6,-19 11,-34l52 -149 38 0 0 214 -27 0 0 -179 -62 179 -26 0 -62 -182 0 182 -27 0z" fill-rule="nonzero" gorn="0.1.11" fill="white"/>
        <polygon  points="2422,1760 776,1760 776,0 1147,0 1303,69 2422,69 " fill="#E6E6E6"/>
        <rect  x="1290" y="1711" height="964" width="618" fill="#BF8C2E"/>
        <g id="_459546232"  gorn="0.1.14">
            <polygon  points="614,2724 653,2724 653,2844 703,2844 703,3013 852,3013 852,2963 2356,2963 2356,3013 2495,3013 2495,2844 2545,2844 2545,2724 2585,2724 2585,3312 614,3312 " fill="#FFF8DF"/>
            <polygon  points="2525,2834 2525,2674 673,2674 673,2824 723,2824 723,2943 882,2943 882,2844 2326,2844 2326,2903 2326,2933 2465,2933 2475,2933 2475,2834 " fill="#222222"/>
            <rect  x="2276" y="2874" height="90" width="30" fill="#A8A8A9"/>
            <g >
                <path  d="M2216 2874c10,0 20,0 30,0 0,30 0,60 0,90 -10,0 -20,0 -30,0 0,-30 0,-60 0,-90z" fill="#A8A8A9"/>
                <path  d="M2156 2874c10,0 20,0 30,0 0,30 0,60 0,90 -10,0 -20,0 -30,0 0,-30 0,-60 0,-90z" fill="#A8A8A9"/>
                <path  d="M2097 2874c10,0 20,0 30,0 0,30 0,60 0,90 -10,0 -20,0 -30,0 0,-30 0,-60 0,-90z" fill="#A8A8A9"/>
                <path  d="M2037 2874c10,0 20,0 30,0 0,30 0,60 0,90 -10,0 -20,0 -30,0 0,-30 0,-60 0,-90z" fill="#A8A8A9"/>
                <path  d="M1977 2874c10,0 20,0 30,0 0,30 0,60 0,90 -10,0 -20,0 -30,0 0,-30 0,-60 0,-90z" fill="#A8A8A9"/>
                <path  d="M1918 2874c10,0 20,0 30,0 0,30 0,60 0,90 -10,0 -20,0 -30,0 0,-30 0,-60 0,-90z" fill="#A8A8A9"/>
                <path  d="M1858 2874c10,0 20,0 30,0 0,30 0,60 0,90 -10,0 -20,0 -30,0 0,-30 0,-60 0,-90z" fill="#A8A8A9"/>
                <path  d="M1798 2874c10,0 20,0 30,0 0,30 0,60 0,90 -10,0 -20,0 -30,0 0,-30 0,-60 0,-90z" fill="#A8A8A9"/>
                <path  d="M1738 2874c10,0 20,0 30,0 0,30 0,60 0,90 -10,0 -20,0 -30,0 0,-30 0,-60 0,-90z" fill="#A8A8A9"/>
                <path  d="M1679 2874c10,0 20,0 30,0 0,30 0,60 0,90 -10,0 -20,0 -30,0 0,-30 0,-60 0,-90z" fill="#A8A8A9"/>
                <path  d="M1619 2874c10,0 20,0 30,0 0,30 0,60 0,90 -10,0 -20,0 -30,0 0,-30 0,-60 0,-90z" fill="#A8A8A9"/>
                <path  d="M1559 2874c10,0 20,0 30,0 0,30 0,60 0,90 -10,0 -20,0 -30,0 0,-30 0,-60 0,-90z" fill="#A8A8A9"/>
                <path  d="M1499 2874c10,0 20,0 30,0 0,30 0,60 0,90 -10,0 -20,0 -30,0 0,-30 0,-60 0,-90z" fill="#A8A8A9"/>
                <path  d="M1440 2874c10,0 20,0 30,0 0,30 0,60 0,90 -10,0 -20,0 -30,0 0,-30 0,-60 0,-90z" fill="#A8A8A9"/>
                <path  d="M1380 2874c10,0 20,0 30,0 0,30 0,60 0,90 -10,0 -20,0 -30,0 0,-30 0,-60 0,-90z" fill="#A8A8A9"/>
                <path  d="M1320 2874c10,0 20,0 30,0 0,30 0,60 0,90 -10,0 -20,0 -30,0 0,-30 0,-60 0,-90z" fill="#A8A8A9"/>
                <path  d="M1260 2874c10,0 20,0 30,0 0,30 0,60 0,90 -10,0 -20,0 -30,0 0,-30 0,-60 0,-90z" fill="#A8A8A9"/>
                <path  d="M1201 2874c10,0 20,0 30,0 0,30 0,60 0,90 -10,0 -20,0 -30,0 0,-30 0,-60 0,-90z" fill="#A8A8A9"/>
                <path  d="M1141 2874c10,0 20,0 30,0 0,30 0,60 0,90 -10,0 -20,0 -30,0 0,-30 0,-60 0,-90z" fill="#A8A8A9"/>
                <path  d="M1081 2874c10,0 20,0 30,0 0,30 0,60 0,90 -10,0 -20,0 -30,0 0,-30 0,-60 0,-90z" fill="#A8A8A9"/>
                <path  d="M1022 2874c10,0 20,0 30,0 0,30 0,60 0,90 -10,0 -20,0 -30,0 0,-30 0,-60 0,-90z" fill="#A8A8A9"/>
                <path  d="M962 2874c10,0 20,0 30,0 0,30 0,60 0,90 -10,0 -20,0 -30,0 0,-30 0,-60 0,-90z" fill="#A8A8A9"/>
            </g>
            <rect  x="902" y="2874" height="90" width="30" fill="#A8A8A9"/>
            <rect  x="2276" y="3312" height="90" width="30" fill="#A8A8A9"/>
            <g >
                <path  d="M2216 3312c10,0 20,0 30,0 0,30 0,60 0,90 -10,0 -20,0 -30,0 0,-30 0,-60 0,-90z" fill="#A8A8A9"/>
                <path  d="M2156 3312c10,0 20,0 30,0 0,30 0,60 0,90 -10,0 -20,0 -30,0 0,-30 0,-60 0,-90z" fill="#A8A8A9"/>
                <path  d="M2097 3312c10,0 20,0 30,0 0,30 0,60 0,90 -10,0 -20,0 -30,0 0,-30 0,-60 0,-90z" fill="#A8A8A9"/>
                <path  d="M2037 3312c10,0 20,0 30,0 0,30 0,60 0,90 -10,0 -20,0 -30,0 0,-30 0,-60 0,-90z" fill="#A8A8A9"/>
                <path  d="M1977 3312c10,0 20,0 30,0 0,30 0,60 0,90 -10,0 -20,0 -30,0 0,-30 0,-60 0,-90z" fill="#A8A8A9"/>
                <path  d="M1918 3312c10,0 20,0 30,0 0,30 0,60 0,90 -10,0 -20,0 -30,0 0,-30 0,-60 0,-90z" fill="#A8A8A9"/>
                <path  d="M1858 3312c10,0 20,0 30,0 0,30 0,60 0,90 -10,0 -20,0 -30,0 0,-30 0,-60 0,-90z" fill="#A8A8A9"/>
                <path  d="M1798 3312c10,0 20,0 30,0 0,30 0,60 0,90 -10,0 -20,0 -30,0 0,-30 0,-60 0,-90z" fill="#A8A8A9"/>
                <path  d="M1738 3312c10,0 20,0 30,0 0,30 0,60 0,90 -10,0 -20,0 -30,0 0,-30 0,-60 0,-90z" fill="#A8A8A9"/>
                <path  d="M1679 3312c10,0 20,0 30,0 0,30 0,60 0,90 -10,0 -20,0 -30,0 0,-30 0,-60 0,-90z" fill="#A8A8A9"/>
                <path  d="M1619 3312c10,0 20,0 30,0 0,30 0,60 0,90 -10,0 -20,0 -30,0 0,-30 0,-60 0,-90z" fill="#A8A8A9"/>
                <path  d="M1559 3312c10,0 20,0 30,0 0,30 0,60 0,90 -10,0 -20,0 -30,0 0,-30 0,-60 0,-90z" fill="#A8A8A9"/>
                <path  d="M1499 3312c10,0 20,0 30,0 0,30 0,60 0,90 -10,0 -20,0 -30,0 0,-30 0,-60 0,-90z" fill="#A8A8A9"/>
                <path  d="M1440 3312c10,0 20,0 30,0 0,30 0,60 0,90 -10,0 -20,0 -30,0 0,-30 0,-60 0,-90z" fill="#A8A8A9"/>
                <path  d="M1380 3312c10,0 20,0 30,0 0,30 0,60 0,90 -10,0 -20,0 -30,0 0,-30 0,-60 0,-90z" fill="#A8A8A9"/>
                <path  d="M1320 3312c10,0 20,0 30,0 0,30 0,60 0,90 -10,0 -20,0 -30,0 0,-30 0,-60 0,-90z" fill="#A8A8A9"/>
                <path  d="M1260 3312c10,0 20,0 30,0 0,30 0,60 0,90 -10,0 -20,0 -30,0 0,-30 0,-60 0,-90z" fill="#A8A8A9"/>
                <path  d="M1201 3312c10,0 20,0 30,0 0,30 0,60 0,90 -10,0 -20,0 -30,0 0,-30 0,-60 0,-90z" fill="#A8A8A9"/>
                <path  d="M1141 3312c10,0 20,0 30,0 0,30 0,60 0,90 -10,0 -20,0 -30,0 0,-30 0,-60 0,-90z" fill="#A8A8A9"/>
                <path  d="M1081 3312c10,0 20,0 30,0 0,30 0,60 0,90 -10,0 -20,0 -30,0 0,-30 0,-60 0,-90z" fill="#A8A8A9"/>
                <path  d="M1022 3312c10,0 20,0 30,0 0,30 0,60 0,90 -10,0 -20,0 -30,0 0,-30 0,-60 0,-90z" fill="#A8A8A9"/>
                <path  d="M962 3312c10,0 20,0 30,0 0,30 0,60 0,90 -10,0 -20,0 -30,0 0,-30 0,-60 0,-90z" fill="#A8A8A9"/>
            </g>
            <rect  x="902" y="3312" height="90" width="30" fill="#A8A8A9"/>
        </g>
        <g id="_459532336"  gorn="0.1.15">
            <rect  x="1051" y="2261" height="309" width="139" fill="#313131"/>
            <rect  x="942" y="2391" height="49" width="109" fill="#A8A8A9"/>
            <rect  x="1191" y="2281" height="52" width="100" fill="#A8A8A9"/>
            <rect  x="1191" y="2500" height="50" width="100" fill="#A8A8A9"/>
        </g>
        <g id="_459530224"  gorn="0.1.16">
            <g  transform="matrix(2.64845E-014 1 -1 2.64845E-014 526.935 2875.09)">
                <g >
                    <g >
                        <g >
                            <g >
                                <g >
                                    <g >
                                        <g >
                                            <g >
                                                <g >
                                                    <g >
                                                        <g >
                                                            <g >
                                                                <g >
                                                                    <g >
                                                                        <rect  height="309" width="139" fill="#313131"/>
                                                                    </g>
                                                                </g>
                                                            </g>
                                                        </g>
                                                    </g>
                                                </g>
                                            </g>
                                        </g>
                                    </g>
                                </g>
                            </g>
                        </g>
                    </g>
                </g>
            </g>
            <g  transform="matrix(3.23688E-014 1.22218 -1.22232 3.23726E-014 396.984 2765.59)">
                <g >
                    <g >
                        <g >
                            <g >
                                <g >
                                    <g >
                                        <g >
                                            <g >
                                                <g >
                                                    <g >
                                                        <g >
                                                            <g >
                                                                <g >
                                                                    <g >
                                                                        <rect  height="40" width="90" fill="#A8A8A9"/>
                                                                    </g>
                                                                </g>
                                                            </g>
                                                        </g>
                                                    </g>
                                                </g>
                                            </g>
                                        </g>
                                    </g>
                                </g>
                            </g>
                        </g>
                    </g>
                </g>
            </g>
            <g  transform="matrix(2.64845E-014 1 -1 2.64845E-014 507.03 3014.47)">
                <g >
                    <g >
                        <g >
                            <g >
                                <g >
                                    <g >
                                        <g >
                                            <g >
                                                <g >
                                                    <g >
                                                        <g >
                                                            <g >
                                                                <g >
                                                                    <g >
                                                                        <rect  height="52" width="100" fill="#A8A8A9"/>
                                                                    </g>
                                                                </g>
                                                            </g>
                                                        </g>
                                                    </g>
                                                </g>
                                            </g>
                                        </g>
                                    </g>
                                </g>
                            </g>
                        </g>
                    </g>
                </g>
            </g>
            <g  transform="matrix(2.40787E-014 0.909159 -1.04235 2.76063E-014 288.023 3014.46)">
                <g >
                    <g >
                        <g >
                            <g >
                                <g >
                                    <g >
                                        <g >
                                            <g >
                                                <g >
                                                    <g >
                                                        <g >
                                                            <g >
                                                                <g >
                                                                    <g >
                                                                        <rect  height="48" width="109" fill="#A8A8A9"/>
                                                                    </g>
                                                                </g>
                                                            </g>
                                                        </g>
                                                    </g>
                                                </g>
                                            </g>
                                        </g>
                                    </g>
                                </g>
                            </g>
                        </g>
                    </g>
                </g>
            </g>
        </g>
        <g id="_459528544"  gorn="0.1.17">
            <g  transform="matrix(2.64845E-014 1 -1 2.64845E-014 3035.5 3210.46)">
                <g >
                    <g >
                        <g >
                            <g >
                                <g >
                                    <g >
                                        <g >
                                            <g >
                                                <g >
                                                    <g >
                                                        <g >
                                                            <g >
                                                                <g >
                                                                    <g >
                                                                        <rect  height="309" width="139" fill="#313131"/>
                                                                    </g>
                                                                </g>
                                                            </g>
                                                        </g>
                                                    </g>
                                                </g>
                                            </g>
                                        </g>
                                    </g>
                                </g>
                            </g>
                        </g>
                    </g>
                </g>
            </g>
            <g  transform="matrix(3.23688E-014 1.22218 -1.22232 3.23726E-014 2905.55 3100.96)">
                <g >
                    <g >
                        <g >
                            <g >
                                <g >
                                    <g >
                                        <g >
                                            <g >
                                                <g >
                                                    <g >
                                                        <g >
                                                            <g >
                                                                <g >
                                                                    <g >
                                                                        <rect  height="40" width="90" fill="#A8A8A9"/>
                                                                    </g>
                                                                </g>
                                                            </g>
                                                        </g>
                                                    </g>
                                                </g>
                                            </g>
                                        </g>
                                    </g>
                                </g>
                            </g>
                        </g>
                    </g>
                </g>
            </g>
            <g  transform="matrix(2.64845E-014 1 -1 2.64845E-014 3015.59 3349.84)">
                <g >
                    <g >
                        <g >
                            <g >
                                <g >
                                    <g >
                                        <g >
                                            <g >
                                                <g >
                                                    <g >
                                                        <g >
                                                            <g >
                                                                <g >
                                                                    <g >
                                                                        <rect  height="52" width="100" fill="#A8A8A9"/>
                                                                    </g>
                                                                </g>
                                                            </g>
                                                        </g>
                                                    </g>
                                                </g>
                                            </g>
                                        </g>
                                    </g>
                                </g>
                            </g>
                        </g>
                    </g>
                </g>
            </g>
            <g  transform="matrix(2.40787E-014 0.909159 -1.04235 2.76063E-014 2796.59 3349.83)">
                <g >
                    <g >
                        <g >
                            <g >
                                <g >
                                    <g >
                                        <g >
                                            <g >
                                                <g >
                                                    <g >
                                                        <g >
                                                            <g >
                                                                <g >
                                                                    <g >
                                                                        <rect  height="48" width="109" fill="#A8A8A9"/>
                                                                    </g>
                                                                </g>
                                                            </g>
                                                        </g>
                                                    </g>
                                                </g>
                                            </g>
                                        </g>
                                    </g>
                                </g>
                            </g>
                        </g>
                    </g>
                </g>
            </g>
        </g>
        <g id="_459527824"  gorn="0.1.18">
            <rect  x="2493" y="1895" height="110" width="149" fill="#313131"/>
            <rect  x="2642" y="1895" height="110" width="50" fill="#A8A8A9"/>
            <rect  x="2443" y="1895" height="110" width="50" fill="#A8A8A9"/>
        </g>
        <g id="_459527584"  gorn="0.1.19">
            <rect  x="2493" y="2096" height="110" width="149" fill="#313131"/>
            <rect  x="2642" y="2096" height="110" width="50" fill="#A8A8A9"/>
            <rect  x="2443" y="2096" height="110" width="50" fill="#A8A8A9"/>
        </g>
        <g id="_459526264"  gorn="0.1.20">
            <rect  x="2493" y="2234" height="110" width="149" fill="#313131"/>
            <rect  x="2642" y="2234" height="110" width="50" fill="#A8A8A9"/>
            <rect  x="2443" y="2234" height="110" width="50" fill="#A8A8A9"/>
        </g>
        <g id="_459525256"  gorn="0.1.21">
            <rect  x="2493" y="2372" height="110" width="149" fill="#313131"/>
            <rect  x="2642" y="2372" height="110" width="50" fill="#A8A8A9"/>
            <rect  x="2443" y="2372" height="110" width="50" fill="#A8A8A9"/>
        </g>
        <g id="_459538552"  gorn="0.1.22">
            <g  transform="matrix(2.64845E-014 -1 1 2.64845E-014 1995.27 2104.28)">
                <g >
                    <g >
                        <g >
                            <g >
                                <g >
                                    <g >
                                        <g >
                                            <g >
                                                <g >
                                                    <g >
                                                        <g >
                                                            <g >
                                                                <g >
                                                                    <g >
                                                                        <rect  height="110" width="149" fill="#313131"/>
                                                                    </g>
                                                                </g>
                                                            </g>
                                                        </g>
                                                    </g>
                                                </g>
                                            </g>
                                        </g>
                                    </g>
                                </g>
                            </g>
                        </g>
                    </g>
                </g>
            </g>
            <g  transform="matrix(2.64845E-014 -1 1 2.64845E-014 1995.27 1954.96)">
                <g >
                    <g >
                        <g >
                            <g >
                                <g >
                                    <g >
                                        <g >
                                            <g >
                                                <g >
                                                    <g >
                                                        <g >
                                                            <g >
                                                                <g >
                                                                    <g >
                                                                        <rect  height="110" width="50" fill="#A8A8A9"/>
                                                                    </g>
                                                                </g>
                                                            </g>
                                                        </g>
                                                    </g>
                                                </g>
                                            </g>
                                        </g>
                                    </g>
                                </g>
                            </g>
                        </g>
                    </g>
                </g>
            </g>
            <g  transform="matrix(2.64845E-014 -1 1 2.64845E-014 1995.27 2154.04)">
                <g >
                    <g >
                        <g >
                            <g >
                                <g >
                                    <g >
                                        <g >
                                            <g >
                                                <g >
                                                    <g >
                                                        <g >
                                                            <g >
                                                                <g >
                                                                    <g >
                                                                        <rect  height="110" width="50" fill="#A8A8A9"/>
                                                                    </g>
                                                                </g>
                                                            </g>
                                                        </g>
                                                    </g>
                                                </g>
                                            </g>
                                        </g>
                                    </g>
                                </g>
                            </g>
                        </g>
                    </g>
                </g>
            </g>
        </g>
        <g id="_459582656"  gorn="0.1.23">
            <g  transform="matrix(2.64845E-014 -1 1 2.64845E-014 2133.38 2104.28)">
                <g >
                    <g >
                        <g >
                            <g >
                                <g >
                                    <g >
                                        <g >
                                            <g >
                                                <g >
                                                    <g >
                                                        <g >
                                                            <g >
                                                                <g >
                                                                    <g >
                                                                        <rect  height="110" width="149" fill="#313131"/>
                                                                    </g>
                                                                </g>
                                                            </g>
                                                        </g>
                                                    </g>
                                                </g>
                                            </g>
                                        </g>
                                    </g>
                                </g>
                            </g>
                        </g>
                    </g>
                </g>
            </g>
            <g  transform="matrix(2.64845E-014 -1 1 2.64845E-014 2133.38 1954.96)">
                <g >
                    <g >
                        <g >
                            <g >
                                <g >
                                    <g >
                                        <g >
                                            <g >
                                                <g >
                                                    <g >
                                                        <g >
                                                            <g >
                                                                <g >
                                                                    <g >
                                                                        <rect  height="110" width="50" fill="#A8A8A9"/>
                                                                    </g>
                                                                </g>
                                                            </g>
                                                        </g>
                                                    </g>
                                                </g>
                                            </g>
                                        </g>
                                    </g>
                                </g>
                            </g>
                        </g>
                    </g>
                </g>
            </g>
            <g  transform="matrix(2.64845E-014 -1 1 2.64845E-014 2133.38 2154.04)">
                <g >
                    <g >
                        <g >
                            <g >
                                <g >
                                    <g >
                                        <g >
                                            <g >
                                                <g >
                                                    <g >
                                                        <g >
                                                            <g >
                                                                <g >
                                                                    <g >
                                                                        <rect  height="110" width="50" fill="#A8A8A9"/>
                                                                    </g>
                                                                </g>
                                                            </g>
                                                        </g>
                                                    </g>
                                                </g>
                                            </g>
                                        </g>
                                    </g>
                                </g>
                            </g>
                        </g>
                    </g>
                </g>
            </g>
        </g>
        <g id="_459596816"  gorn="0.1.24">
            <g  transform="matrix(2.64845E-014 -1 1 2.64845E-014 2114.72 2462.64)">
                <g >
                    <g >
                        <g >
                            <g >
                                <g >
                                    <g >
                                        <g >
                                            <g >
                                                <g >
                                                    <g >
                                                        <g >
                                                            <g >
                                                                <g >
                                                                    <g >
                                                                        <rect  height="110" width="149" fill="#775F03"/>
                                                                    </g>
                                                                </g>
                                                            </g>
                                                        </g>
                                                    </g>
                                                </g>
                                            </g>
                                        </g>
                                    </g>
                                </g>
                            </g>
                        </g>
                    </g>
                </g>
            </g>
            <g  transform="matrix(2.64845E-014 -1 1 2.64845E-014 2114.72 2313.32)">
                <g >
                    <g >
                        <g >
                            <g >
                                <g >
                                    <g >
                                        <g >
                                            <g >
                                                <g >
                                                    <g >
                                                        <g >
                                                            <g >
                                                                <g >
                                                                    <g >
                                                                        <rect  height="110" width="50" fill="#A8A8A9"/>
                                                                    </g>
                                                                </g>
                                                            </g>
                                                        </g>
                                                    </g>
                                                </g>
                                            </g>
                                        </g>
                                    </g>
                                </g>
                            </g>
                        </g>
                    </g>
                </g>
            </g>
            <g  transform="matrix(2.64845E-014 -1 1 2.64845E-014 2114.72 2512.4)">
                <g >
                    <g >
                        <g >
                            <g >
                                <g >
                                    <g >
                                        <g >
                                            <g >
                                                <g >
                                                    <g >
                                                        <g >
                                                            <g >
                                                                <g >
                                                                    <g >
                                                                        <rect  height="110" width="50" fill="#A8A8A9"/>
                                                                    </g>
                                                                </g>
                                                            </g>
                                                        </g>
                                                    </g>
                                                </g>
                                            </g>
                                        </g>
                                    </g>
                                </g>
                            </g>
                        </g>
                    </g>
                </g>
            </g>
        </g>
        <g id="_459596792"  gorn="0.1.25">
            <rect  x="2264" y="2323" height="139" width="80" fill="#775F03"/>
            <rect  x="2264" y="2293" height="30" width="80" fill="#A8A8A9"/>
            <rect  x="2264" y="2463" height="30" width="80" fill="#A8A8A9"/>
        </g>
        <g id="_459595712"  gorn="0.1.26">
            <g >
                <rect  x="786" y="3584" height="149" width="100" fill="#313131"/>
                <rect  x="786" y="3544" height="40" width="100" fill="#A8A8A9"/>
                <rect  x="786" y="3733" height="40" width="100" fill="#A8A8A9"/>
            </g>
            <g >
                <rect  x="915" y="3584" height="149" width="100" fill="#313131"/>
                <rect  x="915" y="3544" height="40" width="100" fill="#A8A8A9"/>
                <rect  x="915" y="3733" height="40" width="100" fill="#A8A8A9"/>
            </g>
            <g >
                <rect  x="1045" y="3584" height="149" width="100" fill="#313131"/>
                <rect  x="1045" y="3544" height="40" width="100" fill="#A8A8A9"/>
                <rect  x="1045" y="3733" height="40" width="100" fill="#A8A8A9"/>
            </g>
            <g >
                <rect  x="1174" y="3584" height="149" width="100" fill="#775F03"/>
                <rect  x="1174" y="3544" height="40" width="100" fill="#A8A8A9"/>
                <rect  x="1174" y="3733" height="40" width="100" fill="#A8A8A9"/>
            </g>
            <g >
                <rect  x="1303" y="3584" height="149" width="100" fill="#313131"/>
                <rect  x="1303" y="3544" height="40" width="100" fill="#A8A8A9"/>
                <rect  x="1303" y="3733" height="40" width="100" fill="#A8A8A9"/>
            </g>
            <g >
                <rect  x="1433" y="3584" height="149" width="100" fill="#775F03"/>
                <rect  x="1433" y="3544" height="40" width="100" fill="#A8A8A9"/>
                <rect  x="1433" y="3733" height="40" width="100" fill="#A8A8A9"/>
            </g>
        </g>
        <g id="_459589616"  gorn="0.1.27">
            <g >
                <rect  x="298" y="3185" height="110" width="149" fill="#313131"/>
                <rect  x="447" y="3185" height="110" width="50" fill="#A8A8A9"/>
                <rect  x="248" y="3185" height="110" width="50" fill="#A8A8A9"/>
            </g>
            <g >
                <rect  x="298" y="3323" height="110" width="149" fill="#313131"/>
                <rect  x="447" y="3323" height="110" width="50" fill="#A8A8A9"/>
                <rect  x="248" y="3323" height="110" width="50" fill="#A8A8A9"/>
            </g>
        </g>
        <g id="_459587888"  gorn="0.1.28">
            <rect  x="646" y="2290" height="149" width="100" fill="#775F03"/>
            <rect  x="646" y="2250" height="40" width="100" fill="#A8A8A9"/>
            <rect  x="646" y="2439" height="40" width="100" fill="#A8A8A9"/>
        </g>
        <g id="_459586472"  gorn="0.1.29">
            <path  d="M2520 3793l15 24c2,3 3,6 4,10 1,3 0,7 -1,10 -1,3 -2,7 -5,9 -2,3 -5,5 -8,7l-80 43c-5,3 -11,4 -16,3 -5,-1 -10,-3 -14,-8 -2,-2 -4,-5 -5,-8 -1,-2 -1,-4 -2,-6l-16 0c0,0 0,0 -1,0 -2,2 -5,4 -7,6 -3,2 -6,4 -9,6 -3,2 -7,4 -11,5 -4,1 -7,3 -11,4 -4,1 -7,2 -11,2 -4,0 -8,1 -12,1 -4,0 -7,0 -11,-1 -4,0 -8,-1 -11,-2 -2,0 -4,-1 -5,-2 -1,0 -2,-1 -3,-1 -2,1 -3,2 -5,3 -3,1 -6,1 -8,1l-20 0c-1,0 -2,0 -3,0 -1,0 -2,0 -2,0 -3,1 -6,1 -8,2 -3,0 -6,1 -10,1 -4,0 -9,0 -13,-1 -4,-1 -8,-3 -12,-5 -5,-3 -9,-6 -12,-10 -1,-2 -3,-4 -4,-6l-5 8c0,0 0,0 0,0 -2,4 -5,7 -9,9 -4,2 -8,3 -12,3l-31 0c-1,0 -2,0 -2,0 -1,0 -1,0 -2,0 -2,1 -5,1 -7,1 -3,0 -5,0 -8,0 -4,0 -7,0 -11,-1 -4,-1 -7,-2 -11,-4 -1,-1 -2,-1 -4,-2 0,0 -1,-1 -1,-1 -2,1 -4,2 -6,3 -3,1 -6,2 -9,3 -4,1 -7,2 -11,2 -4,0 -8,1 -12,1 -4,0 -7,0 -11,-1 -4,0 -8,-1 -11,-2 -3,-1 -6,-2 -9,-3 -2,-1 -3,-2 -4,-3 -2,2 -4,3 -6,5 -3,2 -7,3 -11,3l-29 0c-4,0 -8,-1 -12,-3 -2,-1 -4,-3 -6,-5 -4,4 -9,7 -14,9 -6,3 -12,4 -19,4l-185 0c-7,0 -13,-2 -18,-5 -5,-3 -8,-7 -11,-11 -2,-5 -4,-10 -4,-15 0,-5 1,-10 3,-14l-71 0c-3,0 -5,-2 -5,-5l0 0c0,-3 2,-5 5,-5l75 0c0,0 1,0 1,0l16 -27 -70 0c-3,0 -5,-2 -5,-5 0,0 0,0 0,0 0,-3 2,-5 5,-5 25,0 50,0 75,0 0,0 1,0 1,0l16 -27 -70 0c-3,0 -5,-2 -5,-5 0,0 0,0 0,0 0,-3 2,-5 5,-5 25,0 50,0 75,0 0,0 1,0 1,0l16 -27 -70 0c-3,0 -5,-2 -5,-5 0,0 0,0 0,0 0,-3 2,-5 5,-5 25,0 50,0 75,0 0,0 1,0 1,0l16 -27 -70 0c-3,0 -5,-2 -5,-5 0,0 0,0 0,0 0,-3 2,-5 5,-5 25,0 50,0 75,0 0,0 1,0 1,0l16 -27 -70 0c-3,0 -5,-2 -5,-5l0 0c0,-3 2,-5 5,-5l75 0c0,0 1,0 1,0 4,-6 10,-12 17,-16 7,-4 16,-7 24,-7l185 0c5,0 9,1 13,2 4,1 7,3 9,6 0,0 1,0 1,0 1,0 2,0 3,0l31 0c5,0 9,1 13,3 4,2 7,5 9,9 1,2 2,3 2,5 0,0 0,0 0,1 4,-1 7,-2 11,-2 5,-1 9,-1 14,-1 5,0 11,0 16,1 5,1 11,3 16,6 1,1 2,1 3,2 0,0 1,0 1,1 1,-1 3,-1 5,-2 2,-1 5,-2 7,-3 5,-2 10,-3 15,-4 5,-1 11,-1 16,-1 5,0 11,0 16,1 5,1 9,2 14,4 2,-1 3,-2 5,-3 3,-1 5,-1 8,-1l30 0c1,0 2,0 3,0 1,0 1,0 2,0 2,0 4,-1 6,-1 2,0 4,-1 7,-1 2,0 4,0 5,0 1,0 3,1 4,1l28 0c1,0 2,0 3,0 1,0 1,0 2,0 2,-1 5,-1 7,-1 3,0 5,-1 8,-1 5,0 10,1 14,2 5,1 9,4 13,7 3,3 5,6 7,9 1,1 1,2 2,3l21 -26c2,-3 5,-5 9,-7 3,-2 7,-2 11,-2l45 0c4,0 8,1 12,3 4,2 7,5 9,8 1,1 2,3 2,4 0,0 0,1 0,1 2,0 5,-1 7,-1 4,0 7,-1 11,-1 4,0 8,0 12,1 4,0 8,1 12,2 5,1 9,4 13,6 3,3 6,6 9,10 2,4 4,8 4,13 1,4 0,9 -1,13 -1,2 -2,5 -3,7 -1,2 -2,4 -4,7l0 0 0 0 -3 4c-1,2 -3,4 -4,5 -1,1 -2,2 -4,3 0,3 -1,7 -2,10 -1,4 -3,7 -5,11 -2,4 -5,7 -8,11 -3,3 -6,7 -10,9 -3,3 -7,5 -11,7 -4,2 -8,4 -13,5 -4,1 -9,2 -13,3 -2,0 -5,1 -7,1zm9 28l-19 -29c0,-1 -1,-1 -1,-2 0,-2 2,-4 4,-4l1 0 0 0c4,0 8,0 12,-1 4,-1 8,-1 12,-2 4,-1 8,-3 11,-4 3,-2 7,-4 10,-6 3,-2 6,-5 9,-8 3,-3 5,-7 7,-10 2,-3 3,-6 5,-9 1,-3 2,-6 2,-9 0,-1 1,-3 2,-3 1,-1 3,-2 4,-3 1,-1 2,-2 3,-4l3 -4 0 0c1,-2 2,-4 3,-6 1,-2 2,-4 3,-6 1,-3 1,-7 1,-10 0,-3 -2,-7 -3,-10 -2,-3 -4,-6 -7,-8 -3,-2 -7,-4 -11,-5 -3,-1 -7,-2 -10,-2 -4,0 -7,-1 -11,-1 -4,0 -7,0 -10,1 -3,0 -7,1 -10,2 0,0 0,0 0,0 -2,0 -4,-1 -4,-3 0,-1 -1,-2 -1,-3 0,-1 -1,-2 -2,-3 -2,-3 -4,-5 -6,-6 -2,-1 -5,-2 -8,-2l-45 0c-3,0 -5,1 -8,2 -2,1 -4,3 -6,5l-25 32c-1,1 -1,1 -2,2 -2,0 -4,-1 -4,-3 0,-3 -1,-6 -3,-8 -1,-3 -3,-5 -6,-7 -3,-3 -7,-4 -10,-5 -4,-1 -8,-2 -12,-2 -2,0 -5,0 -7,0 -2,0 -4,1 -7,1 -1,0 -1,0 -2,0 -1,0 -1,0 -2,0 -1,0 -1,0 -2,0l-29 0 0 0c0,0 -1,0 -1,0 -1,0 -2,-1 -4,-1 -1,0 -3,0 -4,0 -2,0 -4,0 -6,1 -2,0 -4,1 -6,1 -1,0 -1,0 -2,0 -1,0 -1,0 -2,0 -1,0 -2,0 -2,0l-30 0c-2,0 -4,0 -6,1 -2,1 -4,2 -5,3l0 0c-1,1 -3,1 -4,0 -4,-2 -9,-4 -13,-4 -5,-1 -10,-1 -15,-1 -5,0 -10,0 -15,1 -5,1 -9,2 -14,3 -2,1 -4,2 -6,2 -2,1 -4,2 -6,3 -1,1 -3,1 -4,0 -1,-1 -2,-1 -2,-2 -1,-1 -2,-1 -3,-2 -4,-2 -9,-4 -13,-5 -5,-1 -10,-1 -15,-1 -4,0 -9,0 -13,1 -4,1 -8,2 -12,3 0,0 0,0 0,0l0 0c0,0 0,0 0,0l0 0c0,0 0,0 -1,0 -2,0 -4,-1 -4,-3 0,-1 0,-2 -1,-3 0,-1 -1,-2 -1,-3 -2,-3 -4,-5 -7,-7 -3,-2 -6,-2 -9,-2l-31 0c-1,0 -2,0 -3,0 -1,0 -1,0 -2,0 -1,0 -3,0 -4,-1 -2,-2 -5,-4 -8,-6 -3,-1 -7,-2 -11,-2l-185 0c-7,0 -14,2 -20,6 -7,4 -12,9 -16,16l0 0 -114 185c-3,5 -5,11 -5,16 0,4 1,8 3,12 2,3 5,6 8,9 4,2 9,4 14,4l185 0c5,0 11,-1 16,-4 5,-3 11,-6 15,-10l0 0c0,0 0,0 1,0 2,-1 4,-1 5,1 2,2 4,4 6,6 2,1 5,2 8,2l29 0c3,0 6,-1 8,-2 2,-1 5,-3 6,-5l0 0c0,0 0,0 0,0 1,-1 4,-2 5,0 2,2 4,3 6,4 2,1 5,2 7,3 3,1 7,1 10,2 3,0 7,0 11,0 4,0 7,0 11,-1 3,0 7,-1 10,-2 3,-1 5,-1 8,-2 3,-1 5,-2 7,-3 1,-1 3,-1 4,0 1,1 2,1 3,2 1,1 2,1 3,2 3,1 6,2 9,3 3,1 6,1 10,1 2,0 5,0 7,0 2,0 4,-1 7,-1l0 0c0,0 1,0 2,0 1,0 1,0 2,0 1,0 1,0 2,0l31 0c3,0 6,-1 9,-2 3,-1 5,-3 6,-6 0,0 0,0 0,0l9 -14 0 0c0,-1 1,-1 2,-2 2,0 4,1 4,3 1,4 3,7 5,11 3,3 6,6 10,8 3,2 7,3 10,4 4,1 7,1 11,1 3,0 6,0 9,-1 3,0 6,-1 8,-2 1,0 1,0 2,0 1,0 2,0 2,0 1,0 2,0 2,0l20 0c2,0 4,0 6,-1 2,-1 4,-2 5,-3l0 0c1,-1 3,-1 4,0 1,1 3,1 4,2 1,1 3,1 4,1 3,1 7,1 10,2 3,0 7,0 11,0 4,0 7,0 11,-1 3,0 7,-1 10,-2 4,-1 7,-2 10,-3 3,-1 7,-3 10,-5 3,-2 6,-3 8,-6 3,-2 5,-4 7,-7l0 0 0 0c1,-1 2,-1 3,-1 0,0 1,0 1,0 0,0 0,0 1,0l19 0 0 0c2,0 4,2 4,4 0,2 0,4 1,7 1,2 2,4 4,6 3,3 6,5 10,5 4,1 8,0 11,-2l80 -43c2,-1 4,-3 6,-5 1,-2 3,-4 3,-7 1,-3 1,-5 0,-7 0,-2 -1,-5 -3,-7z" fill-rule="nonzero" fill="white"/>
            <path  d="M1880 3681l64 0c7,0 9,6 5,13l-39 64c-4,7 -14,13 -21,13l-64 0c-7,0 -9,-6 -5,-13l40 -64c4,-7 14,-13 21,-13zm30 12l-33 54 14 0 -8 13 -37 0 41 -67 23 0z" fill="white"/>
            <path  d="M1976 3681l64 0c7,0 9,6 5,13l-39 64c-4,7 -14,13 -21,13l-64 0c-7,0 -9,-6 -5,-13l39 -64c4,-7 14,-13 21,-13zm41 12l-28 67 -24 0 6 -12 -8 0 -9 12 -24 0 53 -67 34 0zm-39 43c4,-8 8,-17 14,-28 -10,13 -17,22 -22,28l8 0z" fill="white"/>
            <path  d="M1821 3777l64 0c7,0 9,6 5,13l-40 64c-4,7 -14,13 -21,13l-64 0c-7,0 -9,-6 -5,-13l39 -64c4,-7 14,-13 21,-13zm53 12l-43 43 -15 24 -22 0 15 -24 10 -43 21 0c-5,13 -8,22 -11,27 6,-7 13,-16 23,-27l21 0z" fill="white"/>
            <path  d="M1917 3777l64 0c7,0 9,6 5,13l-39 64c-4,7 -14,13 -21,13l-64 0c-7,0 -9,-6 -5,-13l39 -64c4,-7 14,-13 21,-13zm37 36l-23 0 4 -6c2,-4 4,-6 4,-7 0,-1 -1,-1 -2,-1 -1,0 -3,0 -4,1 -1,1 -3,3 -5,6l-20 32c-2,3 -3,5 -3,6 0,1 1,1 2,1 2,0 3,-1 4,-2 1,-1 3,-3 5,-6l5 -8 -5 0 6 -10 27 0 -22 36 -15 0 1 -5c-3,2 -6,4 -9,5 -3,1 -6,2 -10,2 -4,0 -7,-1 -10,-2 -3,-1 -4,-3 -5,-5 0,-2 0,-4 1,-7 1,-2 3,-6 6,-10l12 -20c4,-6 7,-11 10,-14 3,-3 7,-6 13,-8 6,-2 12,-4 19,-4 7,0 12,1 15,3 3,2 5,5 4,7 0,3 -2,7 -6,13l-2 3z" fill="white"/>
            <path  d="M1734 3875c0,-2 1,-5 3,-9l114 -185c3,-4 7,-9 12,-12l0 0c5,-3 10,-5 14,-5l185 0c2,0 4,1 6,1 1,1 2,2 3,3 1,1 1,2 1,4 0,2 -1,5 -3,9l-114 185c-3,4 -7,9 -12,12l0 0c-5,3 -10,5 -14,5l-185 0c-2,0 -4,-1 -6,-1 -1,-1 -2,-2 -3,-3 -1,-1 -1,-2 -1,-4zm324 -203l-185 0c-3,0 -6,1 -8,3l0 0c-3,2 -5,4 -7,7l-114 185c-1,2 -2,4 -2,5 0,1 0,2 1,2 0,1 1,1 1,2 1,1 2,1 3,1l185 0c3,0 6,-1 8,-3l0 0c3,-2 5,-4 7,-7l114 -185c1,-2 2,-4 2,-5 0,-1 0,-2 -1,-2 0,-1 -1,-1 -1,-2 -1,-1 -2,-1 -3,-1z" fill-rule="nonzero" fill="white"/>
            <path  d="M2119 3676l-44 72 19 0 -11 18 -50 0 55 -90 31 0zm60 55l-39 0 -10 16c-2,3 -3,6 -3,6 0,1 1,1 3,1 2,0 4,-1 6,-2 2,-1 3,-4 6,-7l6 -10 28 0 -3 5c-3,5 -5,8 -8,11 -2,2 -6,5 -10,8 -5,3 -9,5 -15,6 -5,1 -11,2 -18,2 -6,0 -12,-1 -16,-2 -4,-1 -7,-3 -8,-6 -1,-2 -1,-5 -1,-8 1,-3 3,-7 6,-13l13 -22c4,-6 8,-12 13,-15 5,-4 10,-7 17,-9 7,-2 13,-3 20,-3 8,0 15,1 19,4 4,2 6,6 6,10 0,4 -3,10 -7,17l-6 10zm-23 -12l3 -5c2,-4 4,-6 4,-7 0,-1 -1,-2 -2,-2 -2,0 -4,0 -5,1 -1,1 -3,4 -5,8l-3 5 9 0zm65 2l-28 0 3 -5c4,-6 7,-10 11,-13 4,-3 9,-6 16,-8 7,-2 14,-4 23,-4 10,0 17,1 20,4 4,3 5,6 3,10 -1,4 -6,12 -13,24l-23 37 -29 0 4 -7c-3,3 -7,5 -11,6 -4,1 -8,2 -12,2 -5,0 -9,-1 -12,-3 -3,-2 -2,-7 2,-15l4 -6c3,-6 7,-9 10,-11 4,-2 11,-4 22,-7 12,-3 18,-5 19,-6 1,-1 3,-3 5,-6 2,-4 4,-6 3,-8 0,-1 -1,-2 -3,-2 -2,0 -4,0 -5,1 -1,1 -3,4 -5,8l-5 8zm3 10c-6,3 -11,5 -12,7 -2,2 -4,4 -6,8 -2,4 -4,6 -4,7 0,1 1,2 3,2 2,0 3,0 5,-1 1,-1 3,-3 5,-7l9 -15zm94 -39l-7 10c9,-7 17,-11 26,-11l-16 26c-6,0 -10,1 -13,2 -3,1 -6,3 -8,5 -2,2 -5,7 -9,14l-18 29 -30 0 45 -74 30 0zm55 0l-5 7c4,-3 8,-5 12,-6 4,-1 8,-2 12,-2 5,0 9,1 11,3 2,2 3,4 2,7 -1,3 -3,7 -7,14l-32 52 -30 0 31 -51c3,-5 5,-8 5,-9 0,-1 -1,-2 -3,-2 -2,0 -4,1 -5,2 -1,1 -4,5 -7,10l-31 50 -30 0 45 -74 30 0zm141 -16l-37 90 -32 0 8 -16 -11 0 -12 16 -32 0 71 -90 45 0zm-52 58c5,-10 11,-23 19,-38 -14,17 -23,30 -29,38l11 0zm112 -18l-27 0 2 -4c2,-3 3,-6 3,-6 0,-1 -1,-1 -3,-1 -2,0 -3,0 -5,1 -1,1 -3,2 -4,4 -1,2 -2,4 -2,5 0,1 0,2 2,3 1,1 4,3 10,6 7,3 11,6 12,9 1,3 0,7 -3,12 -4,6 -8,11 -11,14 -4,3 -9,5 -15,7 -6,2 -12,2 -19,2 -8,0 -14,-1 -18,-3 -4,-2 -7,-4 -7,-7 0,-3 2,-8 5,-14l2 -4 27 0 -3 5c-2,4 -4,7 -4,8 0,1 1,2 3,2 2,0 4,0 5,-1 1,-1 3,-2 4,-5 2,-4 3,-6 2,-7 -1,-1 -5,-4 -13,-8 -7,-4 -10,-7 -10,-10 0,-3 1,-7 4,-11 4,-6 7,-10 11,-13 4,-3 9,-5 15,-6 6,-2 12,-2 19,-2 7,0 12,1 16,2 4,1 6,3 8,5 1,2 2,4 1,6 -1,2 -2,4 -4,8l-3 4zm-486 67l-58 58 -20 33 -29 0 20 -33 13 -58 29 0c-6,18 -11,29 -14,36 8,-10 18,-21 31,-36l29 0zm40 42l-11 18c-4,7 -8,12 -10,15 -3,3 -6,6 -11,9 -5,3 -10,5 -15,6 -5,1 -11,2 -17,2 -7,0 -12,-1 -16,-2 -4,-1 -7,-3 -8,-5 -1,-2 -1,-5 -1,-8 1,-3 3,-8 7,-14l12 -19c4,-7 9,-12 13,-16 4,-4 10,-7 16,-9 7,-2 14,-4 22,-4 7,0 12,1 16,2 4,2 6,3 8,6 1,2 1,5 1,7 -1,3 -3,6 -6,12zm-27 -6c2,-4 4,-6 4,-7 0,-1 -1,-1 -3,-1 -2,0 -3,0 -5,1 -1,1 -3,3 -5,7l-20 33c-2,4 -3,6 -3,7 0,1 1,2 3,2 2,0 3,0 4,-1 1,-1 3,-3 5,-6l21 -34zm121 -20l-45 74 -31 0 4 -6c-4,3 -7,4 -11,6 -4,1 -8,2 -12,2 -4,0 -8,-1 -10,-2 -2,-1 -3,-3 -4,-5 0,-2 0,-4 1,-6 1,-2 3,-6 7,-13l31 -50 30 0 -31 50c-4,6 -5,9 -6,10 0,1 1,2 3,2 2,0 4,-1 5,-2 1,-1 4,-5 7,-11l31 -50 30 0zm100 17l-31 0 5 -8c3,-5 5,-8 5,-10 0,-1 -1,-2 -3,-2 -2,0 -4,1 -5,2 -1,1 -3,4 -6,9l-27 43c-2,4 -4,7 -4,8 0,1 1,2 3,2 2,0 4,-1 6,-2 2,-1 4,-4 6,-8l7 -11 -6 0 8 -14 37 0 -30 48 -20 0 1 -6c-4,3 -8,5 -12,6 -4,1 -8,2 -13,2 -5,0 -10,-1 -13,-3 -3,-2 -5,-4 -6,-7 -1,-3 0,-6 1,-9 1,-3 4,-8 8,-14l16 -27c5,-9 10,-15 13,-19 4,-4 9,-7 17,-11 8,-3 16,-5 26,-5 9,0 16,1 20,4 4,3 6,6 6,10 -1,4 -3,10 -8,17l-2 4zm74 9l-11 18c-4,7 -8,12 -10,15 -3,3 -6,6 -11,9 -5,3 -10,5 -15,6 -5,1 -11,2 -17,2 -7,0 -12,-1 -16,-2 -4,-1 -7,-3 -8,-5 -1,-2 -1,-5 -1,-8 1,-3 3,-8 7,-14l12 -19c4,-7 9,-12 13,-16 4,-4 10,-7 16,-9 7,-2 14,-4 22,-4 7,0 12,1 16,2 4,2 6,3 8,6 1,2 1,5 1,7 -1,3 -3,6 -6,12zm-27 -6c2,-4 4,-6 4,-7 0,-1 -1,-1 -3,-1 -2,0 -3,0 -5,1 -1,1 -3,3 -5,7l-20 33c-2,4 -3,6 -3,7 0,1 1,2 3,2 2,0 3,0 4,-1 1,-1 3,-3 5,-6l21 -34z" fill-rule="nonzero" fill="white"/>
            <path  d="M2393 3852l54 0 -13 21 80 -43 -27 -43 -13 21 -54 0 -26 43zm27 0m20 11m33 -11m26 -43m-20 -11m-33 11m-40 21" fill-rule="nonzero" fill="white"/>
        </g>
        <g id="_459583472"  gorn="0.1.30">
            <rect  x="1129" y="770" height="941" width="941" fill="#191919"/>
            <circle  cx="1599" r="470" cy="1240" fill="#2F2F2F"/>
            <circle  cx="1599" r="87" cy="1240" fill="black"/>
            <path  d="M1659 774c-27,-5 -31,-4 -60,-4 -28,0 -33,-1 -60,4 4,42 16,56 60,56 43,0 56,-13 60,-56z" fill="black"/>
            <path  d="M1971 953c-16,-22 -20,-25 -39,-45 -20,-20 -23,-24 -45,-39 -27,32 -28,51 3,81 31,31 49,30 81,3z" fill="black"/>
            <path  d="M2066 1300c5,-27 4,-31 4,-60 0,-28 1,-33 -4,-60 -42,4 -56,16 -56,60 0,43 13,56 56,60z" fill="black"/>
            <path  d="M1887 1612c22,-16 25,-20 45,-39 20,-20 24,-23 39,-45 -32,-27 -51,-28 -81,3 -31,31 -30,49 -3,81z" fill="black"/>
            <path  d="M1539 1707c27,5 31,4 60,4 28,0 33,1 60,-4 -4,-42 -16,-56 -60,-56 -43,0 -56,13 -60,56z" fill="black"/>
            <path  d="M1227 1528c16,22 20,25 39,45 20,20 23,24 45,39 27,-32 28,-51 -3,-81 -31,-31 -49,-30 -81,-3z" fill="black"/>
            <path  d="M1132 1181c-5,27 -4,31 -4,60 0,28 -1,33 4,60 42,-4 56,-16 56,-60 0,-43 -13,-56 -56,-60z" fill="black"/>
            <path  d="M1311 868c-22,16 -25,20 -45,39 -20,20 -24,23 -39,45 32,27 51,28 81,-3 31,-31 30,-49 3,-81z" fill="black"/>
        </g>
        <rect  x="2422" y="1575" height="185" width="126" fill="#CCCCCC"/>
        <rect  x="650" y="1575" height="185" width="126" fill="#CCCCCC"/>
        <rect  x="2422" y="489" height="185" width="126" fill="#CCCCCC"/>
        <rect  x="650" y="489" height="185" width="126" fill="#CCCCCC"/>
        <g id="_459607256"  gorn="0.1.35">
            <g >
                <rect id="connector0pin"  gorn="0.1.35.0.0" x="251" y="447" height="116" width="116" fill="none"/>
                <rect id="connector0terminal"  gorn="0.1.35.0.1" x="264" y="458" height="94" width="90" fill="none"/>
                <rect  x="261" y="457" height="95" width="95" fill="#8D8C8C"/>
                <rect  x="284" y="480" height="49" width="49" fill="#A8A8A9"/>
                <polygon  points="261,457 284,480 333,480 356,457 " fill="#E6E6E6"/>
                <polygon  points="333,529 333,480 356,457 356,552 " fill="#B3B3B3"/>
                <polygon  points="284,529 333,529 356,552 261,552 " fill="#939393"/>
                <polygon  points="261,457 284,480 284,529 261,552 " fill="#9E9E9E"/>
            </g>
            <g >
                <rect id="connector1pin"  gorn="0.1.35.1.0" x="251" y="745" height="116" width="116" fill="none"/>
                <rect id="connector0terminal_1"  gorn="0.1.35.1.1" x="264" y="756" height="94" width="90" fill="none"/>
                <rect  x="261" y="756" height="95" width="95" fill="#8D8C8C"/>
                <rect  x="284" y="779" height="49" width="49" fill="#A8A8A9"/>
                <polygon  points="261,756 284,779 333,779 356,756 " fill="#E6E6E6"/>
                <polygon  points="333,828 333,779 356,756 356,851 " fill="#B3B3B3"/>
                <polygon  points="284,828 333,828 356,851 261,851 " fill="#939393"/>
                <polygon  points="261,756 284,779 284,828 261,851 " fill="#9E9E9E"/>
            </g>
            <g >
                <rect id="connector2pin"  gorn="0.1.35.2.0" x="251" y="1044" height="116" width="116" fill="none"/>
                <rect id="connector0terminal_3"  gorn="0.1.35.2.1" x="264" y="1055" height="94" width="90" fill="none"/>
                <rect  x="261" y="1054" height="95" width="95" fill="#8D8C8C"/>
                <rect  x="284" y="1077" height="49" width="49" fill="#A8A8A9"/>
                <polygon  points="261,1054 284,1077 333,1077 356,1054 " fill="#E6E6E6"/>
                <polygon  points="333,1126 333,1077 356,1054 356,1150 " fill="#B3B3B3"/>
                <polygon  points="284,1126 333,1126 356,1150 261,1150 " fill="#939393"/>
                <polygon  points="261,1054 284,1077 284,1126 261,1150 " fill="#9E9E9E"/>
            </g>
            <g >
                <rect id="connector3pin"  gorn="0.1.35.3.0" x="251" y="1343" height="116" width="116" fill="none"/>
                <rect id="connector0terminal_5"  gorn="0.1.35.3.1" x="264" y="1354" height="94" width="90" fill="none"/>
                <rect  x="261" y="1353" height="95" width="95" fill="#8D8C8C"/>
                <rect  x="284" y="1376" height="49" width="49" fill="#A8A8A9"/>
                <polygon  points="261,1353 284,1376 333,1376 356,1353 " fill="#E6E6E6"/>
                <polygon  points="333,1425 333,1376 356,1353 356,1448 " fill="#B3B3B3"/>
                <polygon  points="284,1425 333,1425 356,1448 261,1448 " fill="#939393"/>
                <polygon  points="261,1353 284,1376 284,1425 261,1448 " fill="#9E9E9E"/>
            </g>
            <g >
                <rect id="connector4pin"  gorn="0.1.35.4.0" x="251" y="1641" height="116" width="116" fill="none"/>
                <rect id="connector0terminal_7"  gorn="0.1.35.4.1" x="264" y="1652" height="94" width="90" fill="none"/>
                <rect  x="261" y="1652" height="95" width="95" fill="#8D8C8C"/>
                <rect  x="284" y="1675" height="49" width="49" fill="#A8A8A9"/>
                <polygon  points="261,1652 284,1675 333,1675 356,1652 " fill="#E6E6E6"/>
                <polygon  points="333,1724 333,1675 356,1652 356,1747 " fill="#B3B3B3"/>
                <polygon  points="284,1724 333,1724 356,1747 261,1747 " fill="#939393"/>
                <polygon  points="261,1652 284,1675 284,1724 261,1747 " fill="#9E9E9E"/>
            </g>
            <g >
                <rect id="connector5pin"  gorn="0.1.35.5.0" x="251" y="1940" height="116" width="116" fill="none"/>
                <rect id="connector0terminal_9"  gorn="0.1.35.5.1" x="264" y="1951" height="94" width="90" fill="none"/>
                <rect  x="261" y="1950" height="95" width="95" fill="#8D8C8C"/>
                <rect  x="284" y="1973" height="49" width="49" fill="#A8A8A9"/>
                <polygon  points="261,1950 284,1973 333,1973 356,1950 " fill="#E6E6E6"/>
                <polygon  points="333,2022 333,1973 356,1950 356,2046 " fill="#B3B3B3"/>
                <polygon  points="284,2022 333,2022 356,2046 261,2046 " fill="#939393"/>
                <polygon  points="261,1950 284,1973 284,2022 261,2046 " fill="#9E9E9E"/>
            </g>
            <g >
                <rect id="connector6pin"  gorn="0.1.35.6.0" x="251" y="2239" height="116" width="116" fill="none"/>
                <rect id="connector0terminal_11"  gorn="0.1.35.6.1" x="264" y="2250" height="94" width="90" fill="none"/>
                <rect  x="261" y="2249" height="95" width="95" fill="#8D8C8C"/>
                <rect  x="284" y="2272" height="49" width="49" fill="#A8A8A9"/>
                <polygon  points="261,2249 284,2272 333,2272 356,2249 " fill="#E6E6E6"/>
                <polygon  points="333,2321 333,2272 356,2249 356,2344 " fill="#B3B3B3"/>
                <polygon  points="284,2321 333,2321 356,2344 261,2344 " fill="#939393"/>
                <polygon  points="261,2249 284,2272 284,2321 261,2344 " fill="#9E9E9E"/>
            </g>
            <g >
                <rect id="connector7pin"  gorn="0.1.35.7.0" x="251" y="2537" height="116" width="116" fill="none"/>
                <rect id="connector0terminal_13"  gorn="0.1.35.7.1" x="264" y="2548" height="94" width="90" fill="none"/>
                <rect  x="261" y="2547" height="95" width="95" fill="#8D8C8C"/>
                <rect  x="284" y="2571" height="49" width="49" fill="#A8A8A9"/>
                <polygon  points="261,2547 284,2571 333,2571 356,2547 " fill="#E6E6E6"/>
                <polygon  points="333,2620 333,2571 356,2547 356,2643 " fill="#B3B3B3"/>
                <polygon  points="284,2620 333,2620 356,2643 261,2643 " fill="#939393"/>
                <polygon  points="261,2547 284,2571 284,2620 261,2643 " fill="#9E9E9E"/>
            </g>
            <g >
                <rect id="connector8pin"  gorn="0.1.35.8.0" x="2831" y="447" height="116" width="116" fill="none"/>
                <rect id="connector0terminal_15"  gorn="0.1.35.8.1" x="2844" y="458" height="94" width="90" fill="none"/>
                <rect  x="2842" y="457" height="95" width="95" fill="#8D8C8C"/>
                <rect  x="2865" y="480" height="49" width="49" fill="#A8A8A9"/>
                <polygon  points="2842,457 2865,480 2914,480 2937,457 " fill="#E6E6E6"/>
                <polygon  points="2914,529 2914,480 2937,457 2937,552 " fill="#B3B3B3"/>
                <polygon  points="2865,529 2914,529 2937,552 2842,552 " fill="#939393"/>
                <polygon  points="2842,457 2865,480 2865,529 2842,552 " fill="#9E9E9E"/>
            </g>
            <g >
                <rect id="connector9pin"  gorn="0.1.35.9.0" x="2831" y="745" height="116" width="116" fill="none"/>
                <rect id="connector0terminal_17"  gorn="0.1.35.9.1" x="2844" y="756" height="94" width="90" fill="none"/>
                <rect  x="2842" y="756" height="95" width="95" fill="#8D8C8C"/>
                <rect  x="2865" y="779" height="49" width="49" fill="#A8A8A9"/>
                <polygon  points="2842,756 2865,779 2914,779 2937,756 " fill="#E6E6E6"/>
                <polygon  points="2914,828 2914,779 2937,756 2937,851 " fill="#B3B3B3"/>
                <polygon  points="2865,828 2914,828 2937,851 2842,851 " fill="#939393"/>
                <polygon  points="2842,756 2865,779 2865,828 2842,851 " fill="#9E9E9E"/>
            </g>
            <g >
                <rect id="connector10pin"  gorn="0.1.35.10.0" x="2831" y="1044" height="116" width="116" fill="none"/>
                <rect id="connector0terminal_19"  gorn="0.1.35.10.1" x="2844" y="1055" height="94" width="90" fill="none"/>
                <rect  x="2842" y="1054" height="95" width="95" fill="#8D8C8C"/>
                <rect  x="2865" y="1077" height="49" width="49" fill="#A8A8A9"/>
                <polygon  points="2842,1054 2865,1077 2914,1077 2937,1054 " fill="#E6E6E6"/>
                <polygon  points="2914,1126 2914,1077 2937,1054 2937,1150 " fill="#B3B3B3"/>
                <polygon  points="2865,1126 2914,1126 2937,1150 2842,1150 " fill="#939393"/>
                <polygon  points="2842,1054 2865,1077 2865,1126 2842,1150 " fill="#9E9E9E"/>
            </g>
            <g >
                <rect id="connector11pin"  gorn="0.1.35.11.0" x="2831" y="1343" height="116" width="116" fill="none"/>
                <rect id="connector0terminal_21"  gorn="0.1.35.11.1" x="2844" y="1354" height="94" width="90" fill="none"/>
                <rect  x="2842" y="1353" height="95" width="95" fill="#8D8C8C"/>
                <rect  x="2865" y="1376" height="49" width="49" fill="#A8A8A9"/>
                <polygon  points="2842,1353 2865,1376 2914,1376 2937,1353 " fill="#E6E6E6"/>
                <polygon  points="2914,1425 2914,1376 2937,1353 2937,1448 " fill="#B3B3B3"/>
                <polygon  points="2865,1425 2914,1425 2937,1448 2842,1448 " fill="#939393"/>
                <polygon  points="2842,1353 2865,1376 2865,1425 2842,1448 " fill="#9E9E9E"/>
            </g>
            <g >
                <rect id="connector12pin"  gorn="0.1.35.12.0" x="2831" y="1641" height="116" width="116" fill="none"/>
                <rect id="connector0terminal_23"  gorn="0.1.35.12.1" x="2844" y="1652" height="94" width="90" fill="none"/>
                <rect  x="2842" y="1652" height="95" width="95" fill="#8D8C8C"/>
                <rect  x="2865" y="1675" height="49" width="49" fill="#A8A8A9"/>
                <polygon  points="2842,1652 2865,1675 2914,1675 2937,1652 " fill="#E6E6E6"/>
                <polygon  points="2914,1724 2914,1675 2937,1652 2937,1747 " fill="#B3B3B3"/>
                <polygon  points="2865,1724 2914,1724 2937,1747 2842,1747 " fill="#939393"/>
                <polygon  points="2842,1652 2865,1675 2865,1724 2842,1747 " fill="#9E9E9E"/>
            </g>
            <g >
                <rect id="connector13pin"  gorn="0.1.35.13.0" x="2831" y="1940" height="116" width="116" fill="none"/>
                <rect id="connector0terminal_25"  gorn="0.1.35.13.1" x="2844" y="1951" height="94" width="90" fill="none"/>
                <rect  x="2842" y="1950" height="95" width="95" fill="#8D8C8C"/>
                <rect  x="2865" y="1973" height="49" width="49" fill="#A8A8A9"/>
                <polygon  points="2842,1950 2865,1973 2914,1973 2937,1950 " fill="#E6E6E6"/>
                <polygon  points="2914,2022 2914,1973 2937,1950 2937,2046 " fill="#B3B3B3"/>
                <polygon  points="2865,2022 2914,2022 2937,2046 2842,2046 " fill="#939393"/>
                <polygon  points="2842,1950 2865,1973 2865,2022 2842,2046 " fill="#9E9E9E"/>
            </g>
            <g >
                <rect id="connector14pin"  gorn="0.1.35.14.0" x="2831" y="2239" height="116" width="116" fill="none"/>
                <rect id="connector0terminal_27"  gorn="0.1.35.14.1" x="2844" y="2250" height="94" width="90" fill="none"/>
                <rect  x="2842" y="2249" height="95" width="95" fill="#8D8C8C"/>
                <rect  x="2865" y="2272" height="49" width="49" fill="#A8A8A9"/>
                <polygon  points="2842,2249 2865,2272 2914,2272 2937,2249 " fill="#E6E6E6"/>
                <polygon  points="2914,2321 2914,2272 2937,2249 2937,2344 " fill="#B3B3B3"/>
                <polygon  points="2865,2321 2914,2321 2937,2344 2842,2344 " fill="#939393"/>
                <polygon  points="2842,2249 2865,2272 2865,2321 2842,2344 " fill="#9E9E9E"/>
            </g>
            <g >
                <rect id="connector15pin"  gorn="0.1.35.15.0" x="2831" y="2537" height="116" width="116" fill="none"/>
                <rect id="connector0terminal_29"  gorn="0.1.35.15.1" x="2844" y="2548" height="94" width="90" fill="none"/>
                <rect  x="2842" y="2547" height="95" width="95" fill="#8D8C8C"/>
                <rect  x="2865" y="2571" height="49" width="49" fill="#A8A8A9"/>
                <polygon  points="2842,2547 2865,2571 2914,2571 2937,2547 " fill="#E6E6E6"/>
                <polygon  points="2914,2620 2914,2571 2937,2547 2937,2643 " fill="#B3B3B3"/>
                <polygon  points="2865,2620 2914,2620 2937,2643 2842,2643 " fill="#939393"/>
                <polygon  points="2842,2547 2865,2571 2865,2620 2842,2643 " fill="#9E9E9E"/>
            </g>
        </g>
    </g>
</svg>
