<?xml version='1.0' encoding='UTF-8' standalone='no'?>
<svg
  xmlns:dc="http://purl.org/dc/elements/1.1/"
  xmlns:cc="http://creativecommons.org/ns#"
  xmlns:rdf="http://www.w3.org/1999/02/22-rdf-syntax-ns#"
  xmlns:svg="http://www.w3.org/2000/svg"
  xmlns="http://www.w3.org/2000/svg"
  id="svg2"
  y="0in"
  version="1.2"
  height="1.61in"
  width="0.6097796in"
  x="0in"
  viewBox="0 0 609.77961 1610">
  <metadata
    id="metadata41">
    <rdf:RDF>
      <cc:Work
        rdf:about="">
        <dc:format>image/svg+xml</dc:format>
        <dc:type
          rdf:resource="http://purl.org/dc/dcmitype/StillImage"
        />
        <dc:title/>
      </cc:Work>
    </rdf:RDF>
  </metadata>
  <defs
    id="defs39"
  />
  <desc
    id="desc4">
    <referenceFile>2x20W-amp-click_1_schematic.svg</referenceFile>
  </desc>
  <g
    id="schematic">
    <rect
      id="rect7"
      y="5"
      height="1600"
      width="400.00003"
      x="105.14088"
      fill="none"
      stroke="#000000"
      stroke-width="10"
      stroke-linecap="round"
    />
    <text
      id="label"
      x="313.68335"
      y="719.92639"
      font-size="60"
      font-family="'Droid Sans'"
      text-anchor="middle"
      fill="#000000">2x20W AMP</text>
    <text
      font-size="49"
      y="822.84814"
      x="135"
      id="label0"
      font-family="'Droid Sans'"
      text-anchor="start"
      fill="#555555">NC</text>
    <text
      font-size="49"
      y="922.49994"
      x="130.65544"
      id="label1"
      font-family="'Droid Sans'"
      text-anchor="start"
      fill="#555555">SHD</text>
    <text
      id="text79"
      x="478.07864"
      y="922.49994"
      font-size="49"
      font-family="'Droid Sans'"
      text-anchor="end"
      fill="#555555">ADDR2</text>
    <text
      id="text81"
      x="476.35599"
      y="822.49994"
      font-size="49"
      font-family="'Droid Sans'"
      text-anchor="end"
      fill="#555555">ADDR1</text>
    <text
      id="text42"
      x="135"
      y="1023.3481"
      font-size="49"
      font-family="'Droid Sans'"
      text-anchor="start"
      fill="#555555">MT</text>
    <text
      id="text46"
      x="130.65544"
      y="1122.9999"
      font-size="49"
      font-family="'Droid Sans'"
      text-anchor="start"
      fill="#555555">NC</text>
    <text
      id="text58"
      x="135"
      y="1222.848"
      font-size="49"
      font-family="'Droid Sans'"
      text-anchor="start"
      fill="#555555">NC</text>
    <text
      id="text62"
      x="130.65544"
      y="1322.4999"
      font-size="49"
      font-family="'Droid Sans'"
      text-anchor="start"
      fill="#555555">NC</text>
    <text
      font-size="49"
      y="1423.348"
      x="135"
      id="text74"
      font-family="'Droid Sans'"
      text-anchor="start"
      fill="#555555">3V3</text>
    <text
      font-size="49"
      y="1522.9999"
      x="130.65544"
      id="text78"
      font-family="'Droid Sans'"
      text-anchor="start"
      fill="#555555">GND</text>
    <text
      id="text90"
      x="135"
      y="321.99991"
      font-size="49"
      font-family="'Droid Sans'"
      text-anchor="start"
      fill="#555555">GND</text>
    <text
      id="text94"
      x="130.65544"
      y="522.15173"
      font-size="49"
      font-family="'Droid Sans'"
      text-anchor="start"
      fill="#555555">+EXT 5V</text>
    <text
      font-size="49"
      y="622.99994"
      x="135"
      id="text106"
      font-family="'Droid Sans'"
      text-anchor="start"
      fill="#555555">- EXT 5V</text>
    <text
      font-size="49"
      y="522.99994"
      x="478.07864"
      id="text114"
      font-family="'Droid Sans'"
      text-anchor="end"
      fill="#555555">GND</text>
    <text
      font-size="49"
      y="422.99988"
      x="476.35599"
      id="text118"
      font-family="'Droid Sans'"
      text-anchor="end"
      fill="#555555">LOUT</text>
    <text
      id="text130"
      x="478.07864"
      y="222.99988"
      font-size="49"
      font-family="'Droid Sans'"
      text-anchor="end"
      fill="#555555">GND</text>
    <text
      id="text134"
      x="476.35599"
      y="122.99989"
      font-size="49"
      font-family="'Droid Sans'"
      text-anchor="end"
      fill="#555555">ROUT</text>
    <text
      font-size="49"
      y="1122.9999"
      x="478.07864"
      id="text146"
      font-family="'Droid Sans'"
      text-anchor="end"
      fill="#555555">NC</text>
    <text
      font-size="49"
      y="1022.9999"
      x="476.35599"
      id="text150"
      font-family="'Droid Sans'"
      text-anchor="end"
      fill="#555555">NC</text>
    <text
      font-size="49"
      y="1322.4999"
      x="478.07864"
      id="text162"
      font-family="'Droid Sans'"
      text-anchor="end"
      fill="#555555">SDA</text>
    <text
      font-size="49"
      y="1222.4998"
      x="476.35599"
      id="text166"
      font-family="'Droid Sans'"
      text-anchor="end"
      fill="#555555">SCL</text>
    <text
      id="text178"
      x="478.07864"
      y="1522.9999"
      font-size="49"
      font-family="'Droid Sans'"
      text-anchor="end"
      fill="#555555">GND</text>
    <text
      id="text182"
      x="476.35599"
      y="1422.9999"
      font-size="49"
      font-family="'Droid Sans'"
      text-anchor="end"
      fill="#555555">5V</text>
    <text
      font-size="49"
      y="221.99991"
      x="135"
      id="text196"
      font-family="'Droid Sans'"
      text-anchor="start"
      fill="#555555">R IN</text>
    <text
      id="text204"
      x="135"
      y="121.99991"
      font-size="49"
      font-family="'Droid Sans'"
      text-anchor="start"
      fill="#555555">L IN</text>
    <line
      y1="504.79013"
      y2="504.79013"
      x2="100.26112"
      x1="5.0712128"
      id="connector0pin"
      fill="none"
      stroke="#555555"
      stroke-width="10"
      stroke-linecap="round"
    />
    <rect
      id="connector0terminal"
      x="0.14087877"
      width="10"
      height="10"
      y="499.6517"
      fill="none"
      stroke-width="0"
    />
    <line
      id="connector1pin"
      x1="5.0712123"
      x2="100.26112"
      y2="605.2901"
      y1="605.2901"
      fill="none"
      stroke="#555555"
      stroke-width="10"
      stroke-linecap="round"
    />
    <rect
      y="600.4295"
      height="10"
      width="10"
      x="0.14087877"
      id="connector1terminal"
      fill="none"
      stroke-width="0"
    />
    <line
      id="connector2pin"
      x1="5.0712123"
      x2="100.26112"
      y2="805.13837"
      y1="805.13837"
      fill="none"
      stroke="#555555"
      stroke-width="10"
      stroke-linecap="round"
    />
    <rect
      y="800.27777"
      height="10"
      width="10"
      x="0.14087877"
      id="connector2terminal"
      fill="none"
      stroke-width="0"
    />
    <line
      id="connector3pin"
      x1="5.0712128"
      x2="100.26112"
      y2="905.13837"
      y1="905.13837"
      fill="none"
      stroke="#555555"
      stroke-width="10"
      stroke-linecap="round"
    />
    <rect
      y="899.99994"
      height="10"
      width="10"
      x="0.14087877"
      id="connector3terminal"
      fill="none"
      stroke-width="0"
    />
    <line
      y1="1005.6384"
      y2="1005.6384"
      x2="100.26112"
      x1="5.0712123"
      id="connector4pin"
      fill="none"
      stroke="#555555"
      stroke-width="10"
      stroke-linecap="round"
    />
    <rect
      id="connector4terminal"
      x="0.14087877"
      width="10"
      height="10"
      y="1000.7778"
      fill="none"
      stroke-width="0"
    />
    <line
      y1="1105.6383"
      y2="1105.6383"
      x2="100.26112"
      x1="5.0712128"
      id="connector5pin"
      fill="none"
      stroke="#555555"
      stroke-width="10"
      stroke-linecap="round"
    />
    <rect
      id="connector5terminal"
      x="0.14087877"
      width="10"
      height="10"
      y="1100.4999"
      fill="none"
      stroke-width="0"
    />
    <line
      y1="1205.1382"
      y2="1205.1382"
      x2="100.26112"
      x1="5.0712123"
      id="connector6pin"
      fill="none"
      stroke="#555555"
      stroke-width="10"
      stroke-linecap="round"
    />
    <rect
      id="connector6terminal"
      x="0.14087877"
      width="10"
      height="10"
      y="1200.2776"
      fill="none"
      stroke-width="0"
    />
    <line
      y1="1305.1382"
      y2="1305.1382"
      x2="100.26112"
      x1="5.0712128"
      id="connector7pin"
      fill="none"
      stroke="#555555"
      stroke-width="10"
      stroke-linecap="round"
    />
    <rect
      id="connector7terminal"
      x="0.14087877"
      width="10"
      height="10"
      y="1299.9998"
      fill="none"
      stroke-width="0"
    />
    <line
      id="connector8pin"
      x1="5.0712123"
      x2="100.26112"
      y2="1405.6382"
      y1="1405.6382"
      fill="none"
      stroke="#555555"
      stroke-width="10"
      stroke-linecap="round"
    />
    <rect
      y="1400.7776"
      height="10"
      width="10"
      x="0.14087877"
      id="connector8terminal"
      fill="none"
      stroke-width="0"
    />
    <line
      id="connector9pin"
      x1="5.0712128"
      x2="100.26112"
      y2="1505.6383"
      y1="1505.6383"
      fill="none"
      stroke="#555555"
      stroke-width="10"
      stroke-linecap="round"
    />
    <rect
      y="1500.4999"
      height="10"
      width="10"
      x="0.14087877"
      id="connector9terminal"
      fill="none"
      stroke-width="0"
    />
    <line
      y1="1505.1676"
      y2="1505.1676"
      x2="604.70837"
      x1="509.70837"
      id="connector10pin"
      fill="none"
      stroke="#555555"
      stroke-width="10"
      stroke-linecap="round"
    />
    <rect
      id="connector10terminal"
      x="599.70837"
      width="10"
      height="10"
      y="1500.1676"
      fill="none"
      stroke-width="0"
    />
    <line
      y1="1405.1675"
      y2="1405.1675"
      x2="604.70837"
      x1="509.70837"
      id="connector11pin"
      fill="none"
      stroke="#555555"
      stroke-width="10"
      stroke-linecap="round"
    />
    <rect
      id="connector11terminal"
      x="599.70837"
      width="10"
      height="10"
      y="1401.1675"
      fill="none"
      stroke-width="0"
    />
    <line
      id="connector12pin"
      x1="509.70837"
      x2="604.70837"
      y2="1304.6675"
      y1="1304.6675"
      fill="none"
      stroke="#555555"
      stroke-width="10"
      stroke-linecap="round"
    />
    <rect
      y="1299.6675"
      height="10"
      width="10"
      x="599.70837"
      id="connector12terminal"
      fill="none"
      stroke-width="0"
    />
    <line
      id="connector13pin"
      x1="509.70837"
      x2="604.70837"
      y2="1204.6675"
      y1="1204.6675"
      fill="none"
      stroke="#555555"
      stroke-width="10"
      stroke-linecap="round"
    />
    <rect
      y="1200.6675"
      height="10"
      width="10"
      x="599.70837"
      id="connector13terminal"
      fill="none"
      stroke-width="0"
    />
    <line
      id="connector14pin"
      x1="509.70837"
      x2="604.70837"
      y2="1105.1676"
      y1="1105.1676"
      fill="none"
      stroke="#555555"
      stroke-width="10"
      stroke-linecap="round"
    />
    <rect
      y="1100.1676"
      height="10"
      width="10"
      x="599.70837"
      id="connector14terminal"
      fill="none"
      stroke-width="0"
    />
    <line
      id="connector15pin"
      x1="509.70837"
      x2="604.70837"
      y2="1005.1677"
      y1="1005.1677"
      fill="none"
      stroke="#555555"
      stroke-width="10"
      stroke-linecap="round"
    />
    <rect
      y="1001.1677"
      height="10"
      width="10"
      x="599.70837"
      id="connector15terminal"
      fill="none"
      stroke-width="0"
    />
    <line
      y1="904.66766"
      y2="904.66766"
      x2="604.70837"
      x1="509.70837"
      id="connector16pin"
      fill="none"
      stroke="#555555"
      stroke-width="10"
      stroke-linecap="round"
    />
    <rect
      id="connector16terminal"
      x="599.70837"
      width="10"
      height="10"
      y="899.66766"
      fill="none"
      stroke-width="0"
    />
    <line
      y1="804.66766"
      y2="804.66766"
      x2="604.70837"
      x1="509.70837"
      id="connector17pin"
      fill="none"
      stroke="#555555"
      stroke-width="10"
      stroke-linecap="round"
    />
    <rect
      id="connector17terminal"
      x="599.70837"
      width="10"
      height="10"
      y="800.66766"
      fill="none"
      stroke-width="0"
    />
    <line
      y1="104.29013"
      y2="104.29013"
      x2="100.26112"
      x1="5.0712123"
      id="connector18pin"
      fill="none"
      stroke="#555555"
      stroke-width="10"
      stroke-linecap="round"
    />
    <rect
      id="connector18terminal"
      x="0.14087877"
      width="10"
      height="10"
      y="99.429504"
      fill="none"
      stroke-width="0"
    />
    <line
      id="connector19pin"
      x1="5.0712123"
      x2="100.26112"
      y2="204.29013"
      y1="204.29013"
      fill="none"
      stroke="#555555"
      stroke-width="10"
      stroke-linecap="round"
    />
    <rect
      y="199.4295"
      height="10"
      width="10"
      x="0.14087877"
      id="connector19terminal"
      fill="none"
      stroke-width="0"
    />
    <line
      y1="304.29013"
      y2="304.29013"
      x2="100.26112"
      x1="5.0712123"
      id="connector20pin"
      fill="none"
      stroke="#555555"
      stroke-width="10"
      stroke-linecap="round"
    />
    <rect
      id="connector20terminal"
      x="0.14087877"
      width="10"
      height="10"
      y="299.4295"
      fill="none"
      stroke-width="0"
    />
    <line
      y1="105.16758"
      y2="105.16758"
      x2="604.70837"
      x1="509.70837"
      id="connector21pin"
      fill="none"
      stroke="#555555"
      stroke-width="10"
      stroke-linecap="round"
    />
    <rect
      id="connector21terminal"
      x="599.70837"
      width="10"
      height="10"
      y="101.16758"
      fill="none"
      stroke-width="0"
    />
    <line
      y1="205.16757"
      y2="205.16757"
      x2="604.70837"
      x1="509.70837"
      id="connector22pin"
      fill="none"
      stroke="#555555"
      stroke-width="10"
      stroke-linecap="round"
    />
    <rect
      id="connector22terminal"
      x="599.70837"
      width="10"
      height="10"
      y="200.16757"
      fill="none"
      stroke-width="0"
    />
    <line
      id="connector23pin"
      x1="509.70837"
      x2="604.70837"
      y2="405.1676"
      y1="405.1676"
      fill="none"
      stroke="#555555"
      stroke-width="10"
      stroke-linecap="round"
    />
    <rect
      y="401.1676"
      height="10"
      width="10"
      x="599.70837"
      id="connector23terminal"
      fill="none"
      stroke-width="0"
    />
    <line
      id="connector24pin"
      x1="509.70837"
      x2="604.70837"
      y2="505.16757"
      y1="505.16757"
      fill="none"
      stroke="#555555"
      stroke-width="10"
      stroke-linecap="round"
    />
    <rect
      y="500.16757"
      height="10"
      width="10"
      x="599.70837"
      id="connector24terminal"
      fill="none"
      stroke-width="0"
    />
  </g>
</svg>
