<?xml version='1.0' encoding='UTF-8' standalone='no'?>
<svg xmlns="http://www.w3.org/2000/svg" version="1.2" x="0in" y="0in" width="9mm" id="svg79" viewBox="0 0 25.511795 34.015835" gorn="0"  height="12mm">
    <desc >
        <referenceFile >Untitled Sketch 3_bb.svg</referenceFile>
    </desc>
    <metadata id="metadata85" >
        <rdf:RDF xmlns:rdf="http://www.w3.org/1999/02/22-rdf-syntax-ns#">
            <cc:Work xmlns:cc="http://creativecommons.org/ns#" xmlns:rdf="http://www.w3.org/1999/02/22-rdf-syntax-ns#" rdf:about="">
                <dc:format xmlns:dc="http://purl.org/dc/elements/1.1/">image/svg+xml</dc:format>
                <dc:type rdf:resource="http://purl.org/dc/dcmitype/StillImage" xmlns:rdf="http://www.w3.org/1999/02/22-rdf-syntax-ns#" xmlns:dc="http://purl.org/dc/elements/1.1/"/>
                <dc:title xmlns:dc="http://purl.org/dc/elements/1.1/"/>
            </cc:Work>
        </rdf:RDF>
    </metadata>
    <defs id="defs83" />
    <g id="g77" partID="866463160" gorn="0.3" >
        <rect x="-3.9909741e-05" y="0" fill="#1a1a1a" width="25.511875" id="rect179" gorn="0.3.0" stroke-width="1.05153" style="fill-rule:evenodd;"  height="29.763855"/>
        <rect x="1.4172865" y="8.5039587" fill="#333333" width="22.677223" id="rect181" gorn="0.3.1" stroke-width="0.936997"  height="17.007917"/>
        <rect x="4.2519393" y="8.5039587" fill="#808080" width="17.007917" id="rect187" gorn="0.3.2" stroke-width="0.750002"  height="17.007917"/>
        <ellipse stroke-opacity="1" fill="#1a1a1a" cy="17.00835" id="path189" stroke="#a2a2a2" gorn="0.3.3" stroke-width="3.40158" rx="6.8036022" cx="12.756333" ry="6.8036017" style="stroke-miterlimit:4;stroke-dasharray:none;" />
        <rect x="12.528952" stroke-opacity="1" y="30.670771" fill="#1a1a1a" width="0.45389345" id="rect1014" stroke="#a2a2a2" gorn="0.3.4" stroke-width="1.81383" style="stroke-miterlimit:4;stroke-dasharray:none;"  height="2.4381459"/>
        <g transform="scale(1,-1)" >
            <g >
                <rect x="11.451703" stroke-opacity="1" y="-26.107407" fill="#666666" width="2.6083882" id="connector2" stroke="#8c8c8c" gorn="0.3.5.0.0" stroke-width="1.64359" style="stroke-miterlimit:4;stroke-dasharray:none;"  height="0.057200532"/>
            </g>
        </g>
        <g transform="scale(1,-1)" >
            <g >
                <rect x="11.320238" stroke-opacity="1" y="-2.7112536" fill="#666666" width="2.87132" id="rect1019-0" stroke="#8c8c8c" gorn="0.3.6.0.0" stroke-width="1.38066" style="stroke-miterlimit:4;stroke-dasharray:none;"  height="0.03666712"/>
            </g>
        </g>
        <g transform="scale(1,-1)" >
            <g >
                <rect x="11.728099" stroke-opacity="1" y="-33.201107" fill="#666666" width="2.0555975" id="connector1" stroke="#8c8c8c" gorn="0.3.7.0.0" stroke-width="1.62945" style="stroke-miterlimit:4;stroke-dasharray:none;"  height="0.071339466"/>
            </g>
        </g>
    </g>
</svg>
