<?xml version='1.0' encoding='UTF-8' standalone='no'?>
<!-- Generator: Adobe Illustrator 15.0.0, SVG Export Plug-In . SVG Version: 6.00 Build 0)  -->
<svg xmlns="http://www.w3.org/2000/svg" enable-background="new -66.38 -5.38 99 144" viewBox="0 0 88.58268 170.07875" xmlns:xml="http://www.w3.org/XML/1998/namespace" version="1.1" id="Layer_1" width="2.5cm"  height="4.8000002cm" gorn="0" y="0px" xml:space="preserve" x="0px">
    <g  transform="translate(66.38,5.38)">
        <g >
            <g >
                <g >
                    <g >
                        <g >
                            <defs id="defs49" />
                            <g  transform="matrix(0.95516884,0,0,1.2395352,-6.4383757,-0.98001028)">
                                <g >
                                    <g >
                                        <g >
                                            <g >
                                                <g id="silkscreen">
                                                    <line id="line4"  stroke-width="0.75" stroke="#ffffff" fill="none" x1="-62.380" y1="-3.655"  x2="-62.380" y2="133.662" />
                                                    <line id="line6"  stroke-width="0.75" stroke="#ffffff" fill="none" x1="29.521"  y1="133.287" x2="29.521"  y2="-3.655"  />
                                                    <line id="line8"  stroke-width="0.75" stroke="#ffffff" fill="none" x1="-62.380" y1="133.287" x2="29.896"  y2="133.287" />
                                                    <line id="line10" stroke-width="0.75" stroke="#ffffff" fill="none" x1="-62.380" y1="-3.28"   x2="29.896"  y2="-3.28"   />
                                                </g>
                                            </g>
                                        </g>
                                    </g>
                                </g>
                            </g>
                            <g  transform="matrix(0.99705383,0,0,0.99847198,-6.8549812,12.657221)">
                                <g >
                                    <g >
                                        <g >
                                            <g >
                                                <g id="copper0">
                                                    <g id="copper1">
                                                        <circle id="connector1pin"  r="2.052" stroke-width="1.224" fill="none" cx="-55.796001" cy="2.036"     stroke="#ffbf00"/>
                                                        <circle id="connector2pin"  r="2.052" stroke-width="1.224" fill="none" cx="-55.796001" cy="11.036"    stroke="#ffbf00"/>
                                                        <circle id="connector3pin"  r="2.052" stroke-width="1.224" fill="none" cx="-55.796001" cy="20.035999" stroke="#ffbf00"/>
                                                        <circle id="connector4pin"  r="2.052" stroke-width="1.224" fill="none" cx="-55.796001" cy="29.035999" stroke="#ffbf00"/>
                                                        <circle id="connector5pin"  r="2.052" stroke-width="1.224" fill="none" cx="-55.796001" cy="38.035999" stroke="#ffbf00"/>
                                                        <circle id="connector6pin"  r="2.052" stroke-width="1.224" fill="none" cx="-55.796001" cy="47.035999" stroke="#ffbf00"/>
                                                        <circle id="connector7pin"  r="2.052" stroke-width="1.224" fill="none" cx="-55.796001" cy="56.035999" stroke="#ffbf00"/>
                                                        <circle id="connector8pin"  r="2.052" stroke-width="1.224" fill="none" cx="-55.796001" cy="65.036003" stroke="#ffbf00"/>
                                                        <circle id="connector9pin"  r="2.052" stroke-width="1.224" fill="none" cx="-55.796001" cy="74.036003" stroke="#ffbf00"/>
                                                        <circle id="connector10pin" r="2.052" stroke-width="1.224" fill="none" cx="-55.796001" cy="83.036003" stroke="#ffbf00"/>
                                                        <circle id="connector11pin" r="2.052" stroke-width="1.224" fill="none" cx="-55.796001" cy="92.036003" stroke="#ffbf00"/>
                                                        <circle id="connector12pin" r="2.052" stroke-width="1.224" fill="none" cx="-55.796001" cy="101.036"   stroke="#ffbf00"/>
                                                        <circle id="connector13pin" r="2.052" stroke-width="1.224" fill="none" cx="-55.796001" cy="110.036"   stroke="#ffbf00"/>
                                                        <circle id="connector14pin" r="2.052" stroke-width="1.224" fill="none" cx="-55.796001" cy="119.036"   stroke="#ffbf00"/>
                                                        <circle id="connector15pin" r="2.052" stroke-width="1.224" fill="none" cx="-55.796001" cy="128.036"   stroke="#ffbf00"/>

                                                        <circle id="connector16pin" r="2.052" stroke-width="1.224" fill="none" cx="25.204" cy="128.036"       stroke="#ffbf00"/>
                                                        <circle id="connector17pin" r="2.052" stroke-width="1.224" fill="none" cx="25.204" cy="119.036"       stroke="#ffbf00"/>
                                                        <circle id="connector18pin" r="2.052" stroke-width="1.224" fill="none" cx="25.204" cy="110.036"       stroke="#ffbf00"/>
                                                        <circle id="connector19pin" r="2.052" stroke-width="1.224" fill="none" cx="25.204" cy="101.036"       stroke="#ffbf00"/>
                                                        <circle id="connector20pin" r="2.052" stroke-width="1.224" fill="none" cx="25.204" cy="92.036003"     stroke="#ffbf00"/>
                                                        <circle id="connector21pin" r="2.052" stroke-width="1.224" fill="none" cx="25.204" cy="83.036003"     stroke="#ffbf00"/>
                                                        <circle id="connector22pin" r="2.052" stroke-width="1.224" fill="none" cx="25.204" cy="74.036003"     stroke="#ffbf00"/>
                                                        <circle id="connector23pin" r="2.052" stroke-width="1.224" fill="none" cx="25.204" cy="65.036003"     stroke="#ffbf00"/>
                                                        <circle id="connector24pin" r="2.052" stroke-width="1.224" fill="none" cx="25.204" cy="56.035999"     stroke="#ffbf00"/>
                                                        <circle id="connector25pin" r="2.052" stroke-width="1.224" fill="none" cx="25.204" cy="47.035999"     stroke="#ffbf00"/>
                                                        <circle id="connector26pin" r="2.052" stroke-width="1.224" fill="none" cx="25.204" cy="38.035999"     stroke="#ffbf00"/>
                                                        <circle id="connector27pin" r="2.052" stroke-width="1.224" fill="none" cx="25.204" cy="29.035999"     stroke="#ffbf00"/>
                                                        <circle id="connector28pin" r="2.052" stroke-width="1.224" fill="none" cx="25.204" cy="20.035999"     stroke="#ffbf00"/>
                                                        <circle id="connector29pin" r="2.052" stroke-width="1.224" fill="none" cx="25.204" cy="11.036"        stroke="#ffbf00"/>
                                                        <circle id="connector30pin" r="2.052" stroke-width="1.224" fill="none" cx="25.204" cy="2.036"         stroke="#ffbf00"/>
                                                    </g>
                                                </g>
                                            </g>
                                        </g>
                                    </g>
                                </g>
                            </g>
                            <g  transform="translate(0,26.078724)">
                                <g >
                                    <g >
                                        <g >
                                            <g >
                                                <g id="keepout"/>
                                            </g>
                                        </g>
                                    </g>
                                </g>
                            </g>
                            <g  transform="translate(0,26.078724)">
                                <g >
                                    <g >
                                        <g >
                                            <g >
                                                <g id="soldermask"/>
                                            </g>
                                        </g>
                                    </g>
                                </g>
                            </g>
                            <g  transform="translate(0,26.078724)">
                                <g >
                                    <g >
                                        <g >
                                            <g >
                                                <g id="outline"/>
                                            </g>
                                        </g>
                                    </g>
                                </g>
                            </g>
                        </g>
                    </g>
                </g>
            </g>
        </g>
    </g>
</svg>
