<?xml version='1.0' encoding='UTF-8' standalone='no'?>
<!-- Created with Fritzing (http://www.fritzing.org/) -->
  <svg
  xmlns="http://www.w3.org/2000/svg"
  xmlns:svg="http://www.w3.org/2000/svg"
  version="1.2"
  width="1.01in"
  x="0in"
  height="2.11in"
  y="0in"
  viewBox="0 0 1010.0 2110.0"
  id="svg248">
  <defs
    id="defs252"
  />
  <desc
    id="desc2">
    <referenceFile>prefix0000_e1332ac4e81ffddb62a47ab6b2419768_1_schematic.svg</referenceFile>
  </desc>
  <g
    id="schematic">
    <rect
      fill="none"
      height="2100.0"
      width="800.0"
      stroke-width="10"
      stroke="#000000"
      stroke-linejoin="round"
      stroke-linecap="round"
      id="symbol"
      x="105"
      y="5"
    />
    <text
      x="505.0"
      y="1055.0"
      font-family="Droid Sans"
      font-size="60"
      fill="#000000"
      id="label"
      text-anchor="middle">ATmega644</text>
    <text
      x="75"
      y="85"
      text-anchor="end"
      font-family="Droid Sans"
      font-size="35"
      fill="#555555"
      id="pin0num">1</text>
    <text
      x="125"
      y="117"
      text-anchor="start"
      font-family="Droid Sans"
      font-size="49"
      fill="#555555"
      id="pin0label">PB0</text>
    <text
      x="75"
      y="185"
      text-anchor="end"
      font-family="Droid Sans"
      font-size="35"
      fill="#555555"
      id="pin1num">2</text>
    <text
      x="125"
      y="217"
      text-anchor="start"
      font-family="Droid Sans"
      font-size="49"
      fill="#555555"
      id="pin1label">PB1</text>
    <text
      x="75"
      y="285"
      text-anchor="end"
      font-family="Droid Sans"
      font-size="35"
      fill="#555555"
      id="pin2num">3</text>
    <text
      x="125"
      y="317"
      text-anchor="start"
      font-family="Droid Sans"
      font-size="49"
      fill="#555555"
      id="pin2label">PB2</text>
    <text
      x="75"
      y="385"
      text-anchor="end"
      font-family="Droid Sans"
      font-size="35"
      fill="#555555"
      id="pin3num">4</text>
    <text
      x="125"
      y="417"
      text-anchor="start"
      font-family="Droid Sans"
      font-size="49"
      fill="#555555"
      id="pin3label">PB3</text>
    <text
      x="75"
      y="485"
      text-anchor="end"
      font-family="Droid Sans"
      font-size="35"
      fill="#555555"
      id="pin4num">5</text>
    <text
      x="125"
      y="517"
      text-anchor="start"
      font-family="Droid Sans"
      font-size="49"
      fill="#555555"
      id="pin4label">PB4</text>
    <text
      x="75"
      y="585"
      text-anchor="end"
      font-family="Droid Sans"
      font-size="35"
      fill="#555555"
      id="pin5num">6</text>
    <text
      x="125"
      y="617"
      text-anchor="start"
      font-family="Droid Sans"
      font-size="49"
      fill="#555555"
      id="pin5label">PB5</text>
    <text
      x="75"
      y="685"
      text-anchor="end"
      font-family="Droid Sans"
      font-size="35"
      fill="#555555"
      id="pin6num">7</text>
    <text
      x="125"
      y="717"
      text-anchor="start"
      font-family="Droid Sans"
      font-size="49"
      fill="#555555"
      id="pin6label">PB6</text>
    <text
      x="75"
      y="785"
      text-anchor="end"
      font-family="Droid Sans"
      font-size="35"
      fill="#555555"
      id="pin7num">8</text>
    <text
      x="125"
      y="817"
      text-anchor="start"
      font-family="Droid Sans"
      font-size="49"
      fill="#555555"
      id="pin7label">PB7</text>
    <text
      x="75"
      y="885"
      text-anchor="end"
      font-family="Droid Sans"
      font-size="35"
      fill="#555555"
      id="pin8num">9</text>
    <text
      x="125"
      y="917"
      text-anchor="start"
      font-family="Droid Sans"
      font-size="49"
      fill="#555555"
      id="pin8label">RESET</text>
    <text
      x="75"
      y="985"
      text-anchor="end"
      font-family="Droid Sans"
      font-size="35"
      fill="#555555"
      id="pin9num">10</text>
    <text
      x="125"
      y="1017"
      text-anchor="start"
      font-family="Droid Sans"
      font-size="49"
      fill="#555555"
      id="pin9label">VCC</text>
    <text
      x="75"
      y="1085"
      text-anchor="end"
      font-family="Droid Sans"
      font-size="35"
      fill="#555555"
      id="pin10num">11</text>
    <text
      x="125"
      y="1117"
      text-anchor="start"
      font-family="Droid Sans"
      font-size="49"
      fill="#555555"
      id="pin10label">GND</text>
    <text
      x="75"
      y="1185"
      text-anchor="end"
      font-family="Droid Sans"
      font-size="35"
      fill="#555555"
      id="pin11num">12</text>
    <text
      x="125"
      y="1217"
      text-anchor="start"
      font-family="Droid Sans"
      font-size="49"
      fill="#555555"
      id="pin11label">XTAL2</text>
    <text
      x="75"
      y="1285"
      text-anchor="end"
      font-family="Droid Sans"
      font-size="35"
      fill="#555555"
      id="pin12num">13</text>
    <text
      x="125"
      y="1317"
      text-anchor="start"
      font-family="Droid Sans"
      font-size="49"
      fill="#555555"
      id="pin12label">XTAL1</text>
    <text
      x="75"
      y="1385"
      text-anchor="end"
      font-family="Droid Sans"
      font-size="35"
      fill="#555555"
      id="pin13num">14</text>
    <text
      x="125"
      y="1417"
      text-anchor="start"
      font-family="Droid Sans"
      font-size="49"
      fill="#555555"
      id="pin13label">PD0</text>
    <text
      x="75"
      y="1485"
      text-anchor="end"
      font-family="Droid Sans"
      font-size="35"
      fill="#555555"
      id="pin14num">15</text>
    <text
      x="125"
      y="1517"
      text-anchor="start"
      font-family="Droid Sans"
      font-size="49"
      fill="#555555"
      id="pin14label">PD1</text>
    <text
      x="75"
      y="1585"
      text-anchor="end"
      font-family="Droid Sans"
      font-size="35"
      fill="#555555"
      id="pin15num">16</text>
    <text
      x="125"
      y="1617"
      text-anchor="start"
      font-family="Droid Sans"
      font-size="49"
      fill="#555555"
      id="pin15label">PD2</text>
    <text
      x="75"
      y="1685"
      text-anchor="end"
      font-family="Droid Sans"
      font-size="35"
      fill="#555555"
      id="pin16num">17</text>
    <text
      x="125"
      y="1717"
      text-anchor="start"
      font-family="Droid Sans"
      font-size="49"
      fill="#555555"
      id="pin16label">PD3</text>
    <text
      x="75"
      y="1785"
      text-anchor="end"
      font-family="Droid Sans"
      font-size="35"
      fill="#555555"
      id="pin17num">18</text>
    <text
      x="125"
      y="1817"
      text-anchor="start"
      font-family="Droid Sans"
      font-size="49"
      fill="#555555"
      id="pin17label">PD4</text>
    <text
      x="75"
      y="1885"
      text-anchor="end"
      font-family="Droid Sans"
      font-size="35"
      fill="#555555"
      id="pin18num">19</text>
    <text
      x="125"
      y="1917"
      text-anchor="start"
      font-family="Droid Sans"
      font-size="49"
      fill="#555555"
      id="pin18label">PD5</text>
    <text
      x="75"
      y="1985"
      text-anchor="end"
      font-family="Droid Sans"
      font-size="35"
      fill="#555555"
      id="pin19num">20</text>
    <text
      x="125"
      y="2017"
      text-anchor="start"
      font-family="Droid Sans"
      font-size="49"
      fill="#555555"
      id="pin19label">PD6</text>
    <text
      x="935.0"
      y="1985.0"
      text-anchor="start"
      font-family="Droid Sans"
      font-size="35"
      fill="#555555"
      id="pin20num">21</text>
    <text
      x="885.0"
      y="2017.0"
      text-anchor="end"
      font-family="Droid Sans"
      font-size="49"
      fill="#555555"
      id="pin20label">PD7</text>
    <text
      x="935.0"
      y="1885.0"
      text-anchor="start"
      font-family="Droid Sans"
      font-size="35"
      fill="#555555"
      id="pin21num">22</text>
    <text
      x="885.0"
      y="1917.0"
      text-anchor="end"
      font-family="Droid Sans"
      font-size="49"
      fill="#555555"
      id="pin21label">PC0</text>
    <text
      x="935.0"
      y="1785.0"
      text-anchor="start"
      font-family="Droid Sans"
      font-size="35"
      fill="#555555"
      id="pin22num">23</text>
    <text
      x="885.0"
      y="1817.0"
      text-anchor="end"
      font-family="Droid Sans"
      font-size="49"
      fill="#555555"
      id="pin22label">PC1</text>
    <text
      x="935.0"
      y="1685.0"
      text-anchor="start"
      font-family="Droid Sans"
      font-size="35"
      fill="#555555"
      id="pin23num">24</text>
    <text
      x="885.0"
      y="1717.0"
      text-anchor="end"
      font-family="Droid Sans"
      font-size="49"
      fill="#555555"
      id="pin23label">PC2</text>
    <text
      x="935.0"
      y="1585.0"
      text-anchor="start"
      font-family="Droid Sans"
      font-size="35"
      fill="#555555"
      id="pin24num">25</text>
    <text
      x="885.0"
      y="1617.0"
      text-anchor="end"
      font-family="Droid Sans"
      font-size="49"
      fill="#555555"
      id="pin24label">PC3</text>
    <text
      x="935.0"
      y="1485.0"
      text-anchor="start"
      font-family="Droid Sans"
      font-size="35"
      fill="#555555"
      id="pin25num">26</text>
    <text
      x="885.0"
      y="1517.0"
      text-anchor="end"
      font-family="Droid Sans"
      font-size="49"
      fill="#555555"
      id="pin25label">PC4</text>
    <text
      x="935.0"
      y="1385.0"
      text-anchor="start"
      font-family="Droid Sans"
      font-size="35"
      fill="#555555"
      id="pin26num">27</text>
    <text
      x="885.0"
      y="1417.0"
      text-anchor="end"
      font-family="Droid Sans"
      font-size="49"
      fill="#555555"
      id="pin26label">PC5</text>
    <text
      x="935.0"
      y="1285.0"
      text-anchor="start"
      font-family="Droid Sans"
      font-size="35"
      fill="#555555"
      id="pin27num">28</text>
    <text
      x="885.0"
      y="1317.0"
      text-anchor="end"
      font-family="Droid Sans"
      font-size="49"
      fill="#555555"
      id="pin27label">PC6</text>
    <text
      x="935.0"
      y="1185.0"
      text-anchor="start"
      font-family="Droid Sans"
      font-size="35"
      fill="#555555"
      id="pin28num">29</text>
    <text
      x="885.0"
      y="1217.0"
      text-anchor="end"
      font-family="Droid Sans"
      font-size="49"
      fill="#555555"
      id="pin28label">PC7</text>
    <text
      x="935.0"
      y="1085.0"
      text-anchor="start"
      font-family="Droid Sans"
      font-size="35"
      fill="#555555"
      id="pin29num">30</text>
    <text
      x="885.0"
      y="1117.0"
      text-anchor="end"
      font-family="Droid Sans"
      font-size="49"
      fill="#555555"
      id="pin29label">AVCC</text>
    <text
      x="935.0"
      y="985.0"
      text-anchor="start"
      font-family="Droid Sans"
      font-size="35"
      fill="#555555"
      id="pin30num">31</text>
    <text
      x="885.0"
      y="1017.0"
      text-anchor="end"
      font-family="Droid Sans"
      font-size="49"
      fill="#555555"
      id="pin30label">GND</text>
    <text
      x="935.0"
      y="885.0"
      text-anchor="start"
      font-family="Droid Sans"
      font-size="35"
      fill="#555555"
      id="pin31num">32</text>
    <text
      x="885.0"
      y="917.0"
      text-anchor="end"
      font-family="Droid Sans"
      font-size="49"
      fill="#555555"
      id="pin31label">AREF</text>
    <text
      x="935.0"
      y="785.0"
      text-anchor="start"
      font-family="Droid Sans"
      font-size="35"
      fill="#555555"
      id="pin32num">33</text>
    <text
      x="885.0"
      y="817.0"
      text-anchor="end"
      font-family="Droid Sans"
      font-size="49"
      fill="#555555"
      id="pin32label">PA7</text>
    <text
      x="935.0"
      y="685.0"
      text-anchor="start"
      font-family="Droid Sans"
      font-size="35"
      fill="#555555"
      id="pin33num">34</text>
    <text
      x="885.0"
      y="717.0"
      text-anchor="end"
      font-family="Droid Sans"
      font-size="49"
      fill="#555555"
      id="pin33label">PA6</text>
    <text
      x="935.0"
      y="585.0"
      text-anchor="start"
      font-family="Droid Sans"
      font-size="35"
      fill="#555555"
      id="pin34num">35</text>
    <text
      x="885.0"
      y="617.0"
      text-anchor="end"
      font-family="Droid Sans"
      font-size="49"
      fill="#555555"
      id="pin34label">PA5</text>
    <text
      x="935.0"
      y="485.0"
      text-anchor="start"
      font-family="Droid Sans"
      font-size="35"
      fill="#555555"
      id="pin35num">36</text>
    <text
      x="885.0"
      y="517.0"
      text-anchor="end"
      font-family="Droid Sans"
      font-size="49"
      fill="#555555"
      id="pin35label">PA4</text>
    <text
      x="935.0"
      y="385.0"
      text-anchor="start"
      font-family="Droid Sans"
      font-size="35"
      fill="#555555"
      id="pin36num">37</text>
    <text
      x="885.0"
      y="417.0"
      text-anchor="end"
      font-family="Droid Sans"
      font-size="49"
      fill="#555555"
      id="pin36label">PA3</text>
    <text
      x="935.0"
      y="285.0"
      text-anchor="start"
      font-family="Droid Sans"
      font-size="35"
      fill="#555555"
      id="pin37num">38</text>
    <text
      x="885.0"
      y="317.0"
      text-anchor="end"
      font-family="Droid Sans"
      font-size="49"
      fill="#555555"
      id="pin37label">PA2</text>
    <text
      x="935.0"
      y="185.0"
      text-anchor="start"
      font-family="Droid Sans"
      font-size="35"
      fill="#555555"
      id="pin38num">39</text>
    <text
      x="885.0"
      y="217.0"
      text-anchor="end"
      font-family="Droid Sans"
      font-size="49"
      fill="#555555"
      id="pin38label">PA1</text>
    <text
      x="935.0"
      y="85.0"
      text-anchor="start"
      font-family="Droid Sans"
      font-size="35"
      fill="#555555"
      id="pin39num">40</text>
    <text
      x="885.0"
      y="117.0"
      text-anchor="end"
      font-family="Droid Sans"
      font-size="49"
      fill="#555555"
      id="pin39label">PA0</text>
    <line
      fill="none"
      id="connector0pin"
      stroke="#555555"
      stroke-linecap="round"
      stroke-width="10"
      x1="105"
      x2="5"
      y1="105"
      y2="105"
    />
    <rect
      fill="none"
      id="connector0terminal"
      height="10"
      width="10"
      x="0"
      y="100"
      stroke="none"
      stroke-width="0"
    />
    <line
      fill="none"
      id="connector1pin"
      stroke="#555555"
      stroke-linecap="round"
      stroke-width="10"
      x1="105"
      x2="5"
      y1="205"
      y2="205"
    />
    <rect
      fill="none"
      id="connector1terminal"
      height="10"
      width="10"
      x="0"
      y="200"
      stroke="none"
      stroke-width="0"
    />
    <line
      fill="none"
      id="connector2pin"
      stroke="#555555"
      stroke-linecap="round"
      stroke-width="10"
      x1="105"
      x2="5"
      y1="305"
      y2="305"
    />
    <rect
      fill="none"
      id="connector2terminal"
      height="10"
      width="10"
      x="0"
      y="300"
      stroke="none"
      stroke-width="0"
    />
    <line
      fill="none"
      id="connector3pin"
      stroke="#555555"
      stroke-linecap="round"
      stroke-width="10"
      x1="105"
      x2="5"
      y1="405"
      y2="405"
    />
    <rect
      fill="none"
      id="connector3terminal"
      height="10"
      width="10"
      x="0"
      y="400"
      stroke="none"
      stroke-width="0"
    />
    <line
      fill="none"
      id="connector4pin"
      stroke="#555555"
      stroke-linecap="round"
      stroke-width="10"
      x1="105"
      x2="5"
      y1="505"
      y2="505"
    />
    <rect
      fill="none"
      id="connector4terminal"
      height="10"
      width="10"
      x="0"
      y="500"
      stroke="none"
      stroke-width="0"
    />
    <line
      fill="none"
      id="connector5pin"
      stroke="#555555"
      stroke-linecap="round"
      stroke-width="10"
      x1="105"
      x2="5"
      y1="605"
      y2="605"
    />
    <rect
      fill="none"
      id="connector5terminal"
      height="10"
      width="10"
      x="0"
      y="600"
      stroke="none"
      stroke-width="0"
    />
    <line
      fill="none"
      id="connector6pin"
      stroke="#555555"
      stroke-linecap="round"
      stroke-width="10"
      x1="105"
      x2="5"
      y1="705"
      y2="705"
    />
    <rect
      fill="none"
      id="connector6terminal"
      height="10"
      width="10"
      x="0"
      y="700"
      stroke="none"
      stroke-width="0"
    />
    <line
      fill="none"
      id="connector7pin"
      stroke="#555555"
      stroke-linecap="round"
      stroke-width="10"
      x1="105"
      x2="5"
      y1="805"
      y2="805"
    />
    <rect
      fill="none"
      id="connector7terminal"
      height="10"
      width="10"
      x="0"
      y="800"
      stroke="none"
      stroke-width="0"
    />
    <line
      fill="none"
      id="connector8pin"
      stroke="#555555"
      stroke-linecap="round"
      stroke-width="10"
      x1="105"
      x2="5"
      y1="905"
      y2="905"
    />
    <rect
      fill="none"
      id="connector8terminal"
      height="10"
      width="10"
      x="0"
      y="900"
      stroke="none"
      stroke-width="0"
    />
    <line
      fill="none"
      id="connector9pin"
      stroke="#555555"
      stroke-linecap="round"
      stroke-width="10"
      x1="105"
      x2="5"
      y1="1005"
      y2="1005"
    />
    <rect
      fill="none"
      id="connector9terminal"
      height="10"
      width="10"
      x="0"
      y="1000"
      stroke="none"
      stroke-width="0"
    />
    <line
      fill="none"
      id="connector10pin"
      stroke="#555555"
      stroke-linecap="round"
      stroke-width="10"
      x1="105"
      x2="5"
      y1="1105"
      y2="1105"
    />
    <rect
      fill="none"
      id="connector10terminal"
      height="10"
      width="10"
      x="0"
      y="1100"
      stroke="none"
      stroke-width="0"
    />
    <line
      fill="none"
      id="connector11pin"
      stroke="#555555"
      stroke-linecap="round"
      stroke-width="10"
      x1="105"
      x2="5"
      y1="1205"
      y2="1205"
    />
    <rect
      fill="none"
      id="connector11terminal"
      height="10"
      width="10"
      x="0"
      y="1200"
      stroke="none"
      stroke-width="0"
    />
    <line
      fill="none"
      id="connector12pin"
      stroke="#555555"
      stroke-linecap="round"
      stroke-width="10"
      x1="105"
      x2="5"
      y1="1305"
      y2="1305"
    />
    <rect
      fill="none"
      id="connector12terminal"
      height="10"
      width="10"
      x="0"
      y="1300"
      stroke="none"
      stroke-width="0"
    />
    <line
      fill="none"
      id="connector13pin"
      stroke="#555555"
      stroke-linecap="round"
      stroke-width="10"
      x1="105"
      x2="5"
      y1="1405"
      y2="1405"
    />
    <rect
      fill="none"
      id="connector13terminal"
      height="10"
      width="10"
      x="0"
      y="1400"
      stroke="none"
      stroke-width="0"
    />
    <line
      fill="none"
      id="connector14pin"
      stroke="#555555"
      stroke-linecap="round"
      stroke-width="10"
      x1="105"
      x2="5"
      y1="1505"
      y2="1505"
    />
    <rect
      fill="none"
      id="connector14terminal"
      height="10"
      width="10"
      x="0"
      y="1500"
      stroke="none"
      stroke-width="0"
    />
    <line
      fill="none"
      id="connector15pin"
      stroke="#555555"
      stroke-linecap="round"
      stroke-width="10"
      x1="105"
      x2="5"
      y1="1605"
      y2="1605"
    />
    <rect
      fill="none"
      id="connector15terminal"
      height="10"
      width="10"
      x="0"
      y="1600"
      stroke="none"
      stroke-width="0"
    />
    <line
      fill="none"
      id="connector16pin"
      stroke="#555555"
      stroke-linecap="round"
      stroke-width="10"
      x1="105"
      x2="5"
      y1="1705"
      y2="1705"
    />
    <rect
      fill="none"
      id="connector16terminal"
      height="10"
      width="10"
      x="0"
      y="1700"
      stroke="none"
      stroke-width="0"
    />
    <line
      fill="none"
      id="connector17pin"
      stroke="#555555"
      stroke-linecap="round"
      stroke-width="10"
      x1="105"
      x2="5"
      y1="1805"
      y2="1805"
    />
    <rect
      fill="none"
      id="connector17terminal"
      height="10"
      width="10"
      x="0"
      y="1800"
      stroke="none"
      stroke-width="0"
    />
    <line
      fill="none"
      id="connector18pin"
      stroke="#555555"
      stroke-linecap="round"
      stroke-width="10"
      x1="105"
      x2="5"
      y1="1905"
      y2="1905"
    />
    <rect
      fill="none"
      id="connector18terminal"
      height="10"
      width="10"
      x="0"
      y="1900"
      stroke="none"
      stroke-width="0"
    />
    <line
      fill="none"
      id="connector19pin"
      stroke="#555555"
      stroke-linecap="round"
      stroke-width="10"
      x1="105"
      x2="5"
      y1="2005"
      y2="2005"
    />
    <rect
      fill="none"
      id="connector19terminal"
      height="10"
      width="10"
      x="0"
      y="2000"
      stroke="none"
      stroke-width="0"
    />
    <line
      fill="none"
      id="connector20pin"
      stroke="#555555"
      stroke-linecap="round"
      stroke-width="10"
      x1="905.0"
      x2="1005.0"
      y1="2005.0"
      y2="2005.0"
    />
    <rect
      fill="none"
      id="connector20terminal"
      height="10"
      width="10"
      x="1000.0"
      y="2000.0"
      stroke="none"
      stroke-width="0"
    />
    <line
      fill="none"
      id="connector21pin"
      stroke="#555555"
      stroke-linecap="round"
      stroke-width="10"
      x1="905.0"
      x2="1005.0"
      y1="1905.0"
      y2="1905.0"
    />
    <rect
      fill="none"
      id="connector21terminal"
      height="10"
      width="10"
      x="1000.0"
      y="1900.0"
      stroke="none"
      stroke-width="0"
    />
    <line
      fill="none"
      id="connector22pin"
      stroke="#555555"
      stroke-linecap="round"
      stroke-width="10"
      x1="905.0"
      x2="1005.0"
      y1="1805.0"
      y2="1805.0"
    />
    <rect
      fill="none"
      id="connector22terminal"
      height="10"
      width="10"
      x="1000.0"
      y="1800.0"
      stroke="none"
      stroke-width="0"
    />
    <line
      fill="none"
      id="connector23pin"
      stroke="#555555"
      stroke-linecap="round"
      stroke-width="10"
      x1="905.0"
      x2="1005.0"
      y1="1705.0"
      y2="1705.0"
    />
    <rect
      fill="none"
      id="connector23terminal"
      height="10"
      width="10"
      x="1000.0"
      y="1700.0"
      stroke="none"
      stroke-width="0"
    />
    <line
      fill="none"
      id="connector24pin"
      stroke="#555555"
      stroke-linecap="round"
      stroke-width="10"
      x1="905.0"
      x2="1005.0"
      y1="1605.0"
      y2="1605.0"
    />
    <rect
      fill="none"
      id="connector24terminal"
      height="10"
      width="10"
      x="1000.0"
      y="1600.0"
      stroke="none"
      stroke-width="0"
    />
    <line
      fill="none"
      id="connector25pin"
      stroke="#555555"
      stroke-linecap="round"
      stroke-width="10"
      x1="905.0"
      x2="1005.0"
      y1="1505.0"
      y2="1505.0"
    />
    <rect
      fill="none"
      id="connector25terminal"
      height="10"
      width="10"
      x="1000.0"
      y="1500.0"
      stroke="none"
      stroke-width="0"
    />
    <line
      fill="none"
      id="connector26pin"
      stroke="#555555"
      stroke-linecap="round"
      stroke-width="10"
      x1="905.0"
      x2="1005.0"
      y1="1405.0"
      y2="1405.0"
    />
    <rect
      fill="none"
      id="connector26terminal"
      height="10"
      width="10"
      x="1000.0"
      y="1400.0"
      stroke="none"
      stroke-width="0"
    />
    <line
      fill="none"
      id="connector27pin"
      stroke="#555555"
      stroke-linecap="round"
      stroke-width="10"
      x1="905.0"
      x2="1005.0"
      y1="1305.0"
      y2="1305.0"
    />
    <rect
      fill="none"
      id="connector27terminal"
      height="10"
      width="10"
      x="1000.0"
      y="1300.0"
      stroke="none"
      stroke-width="0"
    />
    <line
      fill="none"
      id="connector28pin"
      stroke="#555555"
      stroke-linecap="round"
      stroke-width="10"
      x1="905.0"
      x2="1005.0"
      y1="1205.0"
      y2="1205.0"
    />
    <rect
      fill="none"
      id="connector28terminal"
      height="10"
      width="10"
      x="1000.0"
      y="1200.0"
      stroke="none"
      stroke-width="0"
    />
    <line
      fill="none"
      id="connector29pin"
      stroke="#555555"
      stroke-linecap="round"
      stroke-width="10"
      x1="905.0"
      x2="1005.0"
      y1="1105.0"
      y2="1105.0"
    />
    <rect
      fill="none"
      id="connector29terminal"
      height="10"
      width="10"
      x="1000.0"
      y="1100.0"
      stroke="none"
      stroke-width="0"
    />
    <line
      fill="none"
      id="connector30pin"
      stroke="#555555"
      stroke-linecap="round"
      stroke-width="10"
      x1="905.0"
      x2="1005.0"
      y1="1005.0"
      y2="1005.0"
    />
    <rect
      fill="none"
      id="connector30terminal"
      height="10"
      width="10"
      x="1000.0"
      y="1000.0"
      stroke="none"
      stroke-width="0"
    />
    <line
      fill="none"
      id="connector31pin"
      stroke="#555555"
      stroke-linecap="round"
      stroke-width="10"
      x1="905.0"
      x2="1005.0"
      y1="905.0"
      y2="905.0"
    />
    <rect
      fill="none"
      id="connector31terminal"
      height="10"
      width="10"
      x="1000.0"
      y="900.0"
      stroke="none"
      stroke-width="0"
    />
    <line
      fill="none"
      id="connector32pin"
      stroke="#555555"
      stroke-linecap="round"
      stroke-width="10"
      x1="905.0"
      x2="1005.0"
      y1="805.0"
      y2="805.0"
    />
    <rect
      fill="none"
      id="connector32terminal"
      height="10"
      width="10"
      x="1000.0"
      y="800.0"
      stroke="none"
      stroke-width="0"
    />
    <line
      fill="none"
      id="connector33pin"
      stroke="#555555"
      stroke-linecap="round"
      stroke-width="10"
      x1="905.0"
      x2="1005.0"
      y1="705.0"
      y2="705.0"
    />
    <rect
      fill="none"
      id="connector33terminal"
      height="10"
      width="10"
      x="1000.0"
      y="700.0"
      stroke="none"
      stroke-width="0"
    />
    <line
      fill="none"
      id="connector34pin"
      stroke="#555555"
      stroke-linecap="round"
      stroke-width="10"
      x1="905.0"
      x2="1005.0"
      y1="605.0"
      y2="605.0"
    />
    <rect
      fill="none"
      id="connector34terminal"
      height="10"
      width="10"
      x="1000.0"
      y="600.0"
      stroke="none"
      stroke-width="0"
    />
    <line
      fill="none"
      id="connector35pin"
      stroke="#555555"
      stroke-linecap="round"
      stroke-width="10"
      x1="905.0"
      x2="1005.0"
      y1="505.0"
      y2="505.0"
    />
    <rect
      fill="none"
      id="connector35terminal"
      height="10"
      width="10"
      x="1000.0"
      y="500.0"
      stroke="none"
      stroke-width="0"
    />
    <line
      fill="none"
      id="connector36pin"
      stroke="#555555"
      stroke-linecap="round"
      stroke-width="10"
      x1="905.0"
      x2="1005.0"
      y1="405.0"
      y2="405.0"
    />
    <rect
      fill="none"
      id="connector36terminal"
      height="10"
      width="10"
      x="1000.0"
      y="400.0"
      stroke="none"
      stroke-width="0"
    />
    <line
      fill="none"
      id="connector37pin"
      stroke="#555555"
      stroke-linecap="round"
      stroke-width="10"
      x1="905.0"
      x2="1005.0"
      y1="305.0"
      y2="305.0"
    />
    <rect
      fill="none"
      id="connector37terminal"
      height="10"
      width="10"
      x="1000.0"
      y="300.0"
      stroke="none"
      stroke-width="0"
    />
    <line
      fill="none"
      id="connector38pin"
      stroke="#555555"
      stroke-linecap="round"
      stroke-width="10"
      x1="905.0"
      x2="1005.0"
      y1="205.0"
      y2="205.0"
    />
    <rect
      fill="none"
      id="connector38terminal"
      height="10"
      width="10"
      x="1000.0"
      y="200.0"
      stroke="none"
      stroke-width="0"
    />
    <line
      fill="none"
      id="connector39pin"
      stroke="#555555"
      stroke-linecap="round"
      stroke-width="10"
      x1="905.0"
      x2="1005.0"
      y1="105.0"
      y2="105.0"
    />
    <rect
      fill="none"
      id="connector39terminal"
      height="10"
      width="10"
      x="1000.0"
      y="100.0"
      stroke="none"
      stroke-width="0"
    />
  </g>
</svg>
