<?xml version='1.0' encoding='utf-8'?>
<!DOCTYPE svg>
<!-- This document was made in 100dpi, i.e. 100 svg units should represent 1 inch of the part in the real world-->
<!-- This particular 1000 microFarad capacitor is measuring 13 mm diameter by 21 mm in height -->
<svg xmlns="http://www.w3.org/2000/svg" x="0"  y="0" viewBox="0 0 51.183 98.261" height="0.98261in" version="1.1" width="0.51183in">
    <desc >
        <referenceFile >electrolytic_capacitor_1000uF_35v_leg.svg</referenceFile>
    </desc>
    <g  id="breadboard" gorn="0.1">
        <g >
            <rect x="29.139"  y="93.261" id="connector1pin" gorn="0.1.0.0" height="1" width="3" fill="none"/>
            <rect x="19.139"  y="93.261" id="connector0pin" gorn="0.1.0.1" height="1" width="3" fill="none"/>
            <line  id="connector0leg" stroke="#8C8C8C" y1="98.261" stroke-linecap="round" y2="101.261" stroke-width="3" gorn="0.1.0.2" x1="20.639" x2="20.639" fill="none"/>
            <line  id="connector1leg" stroke="#8C8C8C" y1="98.261" stroke-linecap="round" y2="101.261" stroke-width="3" gorn="0.1.0.3" x1="30.639" x2="30.639" fill="none"/>
            <rect x="19.139"  y="76.261" height="22" width="3" fill="#8C8C8C"/>
            <rect x="29.139"  y="76.261" height="22" width="3" fill="#8C8C8C"/>
            <ellipse  cx="25.594" cy="76.258" fill="#0D0033" rx="25.589" ry="17.913"/>
            <rect  y="72.607" height="3.653" width="51.162" fill="#0D0033"/>
            <ellipse  cx="25.594" cy="73.358" fill="#100040" rx="25.589" ry="17.914"/>
            <ellipse  cx="25.594" cy="60.907" fill="#0D0033" rx="25.589" ry="17.914"/>
            <rect  y="18.182" height="42.726" width="51.18" fill="#0D0033"/>
            <ellipse  cx="25.594" cy="18.182" fill="#0D0033" rx="25.589" ry="17.913"/>
            <ellipse  cx="25.594" cy="16.594" fill="#100040" rx="23.703" ry="16.594"/>
            <ellipse  cx="25.594" cy="15.635" fill="#B2B2B2" rx="17.371" ry="12.163"/>
            <path  fill="#D2EEFF" d="M4.999,7.55C1.861,10.521,0,14.201,0,18.182v9.896h3.424v-0.955l0.041-0.358c0,0,0,0.187,0-0.481&#xa;&#x9;&#x9;&#x9;c0-1.197,0.568-1.969,1.533-2.352c0.929-0.367,0.859-6.918,0.859-6.918L4.999,7.55z"/>
            <path  fill="#D2EEFF" d="M8.223,15.635c0-2.157,0.807-4.178,2.212-5.933L4.999,7.54c-1.972,2.417-3.11,5.21-3.11,8.194&#xa;&#x9;&#x9;&#x9;c0,2.982,1.142,5.776,3.11,8.196l5.563-2.215C9.083,19.928,8.223,17.853,8.223,15.635z"/>
            <rect  y="26.766" height="34.142" width="3.465" fill="#D2EEFF"/>
            <rect  y="48.938" height="5.893" width="3.465" fill="#D2EEFF"/>
            <path  fill="#D2EEFF" d="M0,73.361v2.897c0,3.278,1.263,6.348,3.465,8.993v-2.897V67.261v-2.896C1.263,67.015,0,70.082,0,73.361z"/>
            <path  fill="#D2EEFF" d="M3.465,51.915C1.263,54.558,0,57.627,0,60.907c0,3.281,1.263,6.345,3.465,8.993V51.915z"/>
            <path  fill="#D2EEFF" d="M3.465,83.856c0,0,0-0.662,0-1.503c0-0.848,0.18-3.76,0.466-5.059c0.471-2.145,1.459-3.621,1.459-5.886&#xa;&#x9;&#x9;&#x9;c0-0.766-0.434-1.841-1.082-2.492c-0.645-0.642-0.858-1.647-0.858-2.7c0-1.056,0-2.396,0-2.396l-1.484,0.047l0.162,18.462&#xa;&#x9;&#x9;&#x9;L3.465,83.856z"/>
            <path  opacity="0.35" d="M25.594,4.047c9.457,0,17.129,5.295,17.35,11.876&#xa;&#x9;&#x9;&#x9;c0.005-0.097,0.028-0.189,0.028-0.288c0-6.716-7.781-12.163-17.374-12.163c-9.59,0-17.368,5.447-17.368,12.163&#xa;&#x9;&#x9;&#x9;c0,0.098,0.016,0.19,0.022,0.288C8.461,9.342,16.136,4.047,25.594,4.047z"/>
            <path  opacity="0.35" d="M33.067,36.289v7.483v21.536c0,0,0,11.037,0,11.48&#xa;&#x9;&#x9;&#x9;c0,0.437-0.145,0.801-0.322,1.144c-0.21,0.399-0.69,1.015-0.69,1.015c6.815-1.458,12.814-5.398,15.904-9.812&#xa;&#x9;&#x9;&#x9;c0.213-0.273,0.435-0.853,0.514-1.103c0.078-0.256,0.104-0.51,0.104-0.51v-2.214v-12.27V27.025&#xa;&#x9;&#x9;&#x9;C45.491,31.443,39.883,34.835,33.067,36.289z"/>
            <path  opacity="0.35" d="M48.183,79.565c-0.237-0.637-0.929-1.444-0.929-1.444&#xa;&#x9;&#x9;&#x9;c-3.088,4.414-8.476,6.77-15.295,8.223c0,0,0.615,1.039,0.881,1.928c0.258,0.882,0.228,2.219,0.228,2.219v2.901&#xa;&#x9;&#x9;&#x9;c6.817-1.454,12.429-4.851,15.514-9.267c0,0,0-2.018,0-2.547C48.583,80.982,48.388,80.094,48.183,79.565z"/>
            <path  opacity="0.2" fill="#FFFFFF" d="M24.443,85.006c-0.043-0.618-0.165-1.161-0.321-1.63&#xa;&#x9;&#x9;&#x9;C13.251,82.899,4.413,77.215,2.617,69.851c-0.344,0.273-0.739,0.646-0.977,1.069c-0.191,0.347-0.364,0.864-0.509,1.351&#xa;&#x9;&#x9;&#x9;c1.739,8.076,11.411,14.312,23.294,14.698C24.475,86.427,24.495,85.772,24.443,85.006z"/>
            <path  opacity="0.2" fill="#FFFFFF" d="M35.129,31.132c0.021-0.396-0.287-0.665-0.538-0.773&#xa;&#x9;&#x9;&#x9;c-0.266-0.114-0.703-0.292-1.527-0.073h-0.07c-2.32,0.574-4.801,0.905-7.401,0.905c-12.271,0-22.223-6.966-22.223-15.555&#xa;&#x9;&#x9;&#x9;c0-0.243,0.038-0.48,0.052-0.719c-0.001-0.023-0.023-0.034-0.023-0.06c0-0.386-0.15-0.881-0.475-0.934&#xa;&#x9;&#x9;&#x9;c-0.374-0.062-0.553,0.243-0.737,0.629c-0.093,0.193-0.16,0.464-0.212,0.782C1.97,15.378,1.96,15.42,1.956,15.459&#xa;&#x9;&#x9;&#x9;c-0.007,0.045-0.009,0.097-0.013,0.141c-0.037,0.331-0.059,0.66-0.059,0.994c0,9.166,10.613,16.595,23.704,16.595&#xa;&#x9;&#x9;&#x9;c3.285,0,6.387-0.503,9.225-1.35C35.086,31.703,35.115,31.473,35.129,31.132z"/>
            <path  fill="#FFFFFF" d="M1.641,70.92c-0.191,0.347-0.364,0.864-0.509,1.351c0.433,2.008,1.358,3.903,2.686,5.624&#xa;&#x9;&#x9;&#x9;c0.036-0.228,0.071-0.428,0.112-0.603c0.232-1.054,0.583-1.94,0.885-2.836c-1.036-1.432-1.802-2.979-2.194-4.607&#xa;&#x9;&#x9;&#x9;C2.273,70.122,1.88,70.5,1.641,70.92z"/>
            <path  fill="#FFFFFF" d="M3.371,15.635c0-0.243,0.038-0.48,0.052-0.719c-0.005-0.024-0.025-0.034-0.025-0.061&#xa;&#x9;&#x9;&#x9;c0-0.385-0.151-0.881-0.475-0.934c-0.372-0.062-0.552,0.243-0.736,0.63c-0.094,0.193-0.162,0.464-0.211,0.781&#xa;&#x9;&#x9;&#x9;c-0.007,0.043-0.017,0.085-0.021,0.125c-0.008,0.045-0.009,0.097-0.013,0.141c-0.036,0.33-0.056,0.66-0.056,0.993&#xa;&#x9;&#x9;&#x9;c0,2.743,0.967,5.32,2.646,7.596c0.145-0.093,0.291-0.189,0.464-0.257l1.352-0.541C4.467,21.108,3.371,18.465,3.371,15.635z"/>
        </g>
    </g>
</svg>
