<?xml version='1.0' encoding='UTF-8' standalone='no'?>
<svg xmlns="http://www.w3.org/2000/svg"  viewBox="0 0 42.75 67.500002" id="svg2" gorn="0" height="0.75in" version="1.1" width="0.47499999in">
    <desc >
        <referenceFile >100uf_horizontal_pcb.svg</referenceFile>
    </desc>
    <defs  id="defs4"/>
    <metadata  id="metadata7">
        <rdf:RDF xmlns:rdf="http://www.w3.org/1999/02/22-rdf-syntax-ns#">
            <cc:Work xmlns:rdf="http://www.w3.org/1999/02/22-rdf-syntax-ns#" xmlns:cc="http://creativecommons.org/ns#" rdf:about="">
                <dc:format xmlns:dc="http://purl.org/dc/elements/1.1/">image/svg+xml</dc:format>
                <dc:type xmlns:rdf="http://www.w3.org/1999/02/22-rdf-syntax-ns#" xmlns:dc="http://purl.org/dc/elements/1.1/" rdf:resource="http://purl.org/dc/dcmitype/StillImage"/>
                <dc:title xmlns:dc="http://purl.org/dc/elements/1.1/"/>
            </cc:Work>
        </rdf:RDF>
    </metadata>
    <g  id="copper1" gorn="0.3">
        <g  id="copper0" gorn="0.3.0">
            <rect x="9.8999996"  y="2.52" id="rect11" stroke="#ffbf00" stroke-width="1.79999995" gorn="0.3.0.0" height="5.5799999" width="5.5799999" fill="none"/>
            <circle  id="connector0pin" stroke="#ffbf00" cx="12.51" stroke-width="1.79999995" gorn="0.3.0.1" cy="5.4900026" style="stroke-linecap:round;stroke-linejoin:round;stroke-miterlimit:4;stroke-dasharray:none;stroke-dashoffset:0;" fill-opacity="1" stroke-opacity="1" r="2.6297414" fill="none"/>
            <circle  id="connector1pin" stroke="#ffbf00" cx="30.51" stroke-width="1.760517" gorn="0.3.0.2" cy="5.4900026" style="stroke-linecap:round;stroke-linejoin:round;stroke-miterlimit:4;stroke-dasharray:none;stroke-dashoffset:0;" fill-opacity="1" stroke-opacity="1" r="2.6297414" fill="none"/>
        </g>
    </g>
    <g  id="silkscreen" gorn="0.4">
        <path  id="path4731" stroke="#000000" stroke-width="1" gorn="0.4.0" style="fill-rule:evenodd;stroke-linecap:butt;stroke-linejoin:miter;" stroke-opacity="1" fill="none" d="m 8.9175977,16.535488 5.3594793,0"/>
        <rect x="5.0864615"  y="12.821904" id="rect4140" stroke="#000000" stroke-width="0.9" gorn="0.4.1" height="53.55619" style="stroke-linecap:round;stroke-linejoin:round;stroke-miterlimit:4;stroke-dasharray:none;stroke-dashoffset:0;" fill-opacity="1" stroke-opacity="1" width="32.577076" fill="none"/>
    </g>
</svg>
