<?xml version='1.0' encoding='UTF-8' standalone='no'?>
<svg
  xmlns:dc="http://purl.org/dc/elements/1.1/"
  xmlns:cc="http://creativecommons.org/ns#"
  xmlns:rdf="http://www.w3.org/1999/02/22-rdf-syntax-ns#"
  xmlns:svg="http://www.w3.org/2000/svg"
  xmlns="http://www.w3.org/2000/svg"
  gorn="0"
  x="0px"
  id="_x30_"
  viewBox="0 0 236.21882 504.00015"
  width="0.23621875in"
  enable-background="new 0 0 30 62"
  xml:space="preserve"
  version="1.1"
  height="0.50400001in"
  y="0px">
  <metadata
    id="metadata21">
    <rdf:RDF>
      <cc:Work
        rdf:about="">
        <dc:format>image/svg+xml</dc:format>
        <dc:type
          rdf:resource="http://purl.org/dc/dcmitype/StillImage"
        />
        <dc:title/>
      </cc:Work>
    </rdf:RDF>
  </metadata>
  <defs
    id="defs19">
    </defs>
  <desc
    id="0.0">
    <referenceFile
      id="0.0.0">TSOP382_1_breadboard.svg</referenceFile>
  </desc>
  <g
    id="breadboard">
    <rect
      gorn="0.1.1"
      x="38.312229"
      id="rect3744"
      width="29.874804"
      height="62.958626"
      y="259.91675"
      fill="#8c8c8c"
      stroke-width="6.09579849"
    />
    <rect
      y="259.91675"
      height="62.958626"
      width="29.874804"
      id="rect3746"
      x="104.97843"
      gorn="0.1.1"
      fill="#8c8c8c"
      stroke-width="6.09579849"
    />
    <rect
      gorn="0.1.1"
      x="166.43634"
      id="rect3748"
      width="29.874804"
      height="62.958626"
      y="259.91675"
      fill="#8c8c8c"
      stroke-width="6.09579849"
    />
    <polygon
      gorn="0.1.0"
      points="29.872,38.289 1.526,38.289 0,36.85 0,0 28.348,0 29.872,1.44 "
      id="_x30_.2"
      transform="scale(7.9077003,7.146267)"
    />
    <rect
      y="0.00013034575"
      x="3.2170402e-007"
      gorn="0.1.7"
      id="_x30_.6"
      width="224.16748"
      height="263.33994"
      fill="#303030"
      stroke-width="7.51734924"
    />
    <path
      gorn="0.1.8"
      d="m 105.98692,258.13028 c 51.56612,0 67.10474,5.1453 67.10474,5.1453 l 0.0153,-201.710527 c 0,-27.956123 -27.64532,-50.64555 -61.84613,-50.64555 -34.145453,0 -61.861942,22.64651 -61.861942,50.64555 l -0.03167,201.710527 c 0,0 5.05302,-5.1453 56.619132,-5.1453 z"
      id="color_path32_3_"
      stroke-width="7.51734924"
    />
    <path
      gorn="0.1.9"
      d="m 142.64701,37.739369 12.53371,-1.950844 c -7.36206,-8.082404 -18.1719,-13.97813 -30.9033,-15.986197 l 2.21417,7.717958 c 6.66617,1.929455 12.27274,5.574058 16.15542,10.219083 z"
      id="path34_1_"
      fill="#ffffff"
      stroke-width="7.51734924"
    />
    <path
      gorn="0.1.10"
      d="m 72.110324,259.16653 c 6.254991,-0.54306 9.236195,-0.54306 9.244102,-0.54306 L 81.046025,96.08871 V 61.593664 c 0,-10.51214 7.401607,-19.502188 18.100725,-23.93999 L 98.941154,37.274506 88.052251,26.476531 C 73.486267,33.636986 63.704442,46.643306 63.704442,61.578942 L 64.020746,259.9164 c 0,0 1.834586,-0.22084 8.089578,-0.75001 z"
      id="path38_1_"
      fill="#ffffff"
      stroke-width="7.51734924"
    />
    <path
      gorn="0.1.11"
      d="m 106.16089,257.99458 c 51.56611,0 67.09684,5.13808 67.09684,5.13808 l 0.0236,1.32918 -123.731796,0.14305 v -1.47931 c 0,0 5.053021,-5.131 56.611236,-5.131 z"
      id="color_path32_2_"
      stroke-width="7.51734924"
    />
    <rect
      y="-68.541176"
      height="62.95787"
      width="29.87516"
      id="rect3740"
      x="311.19379"
      gorn="0.1.1"
      transform="rotate(90)"
      fill="#8c8c8c"
      stroke-width="6.09579849"
    />
    <rect
      transform="rotate(90)"
      gorn="0.1.1"
      x="311.19379"
      id="rect3742"
      width="29.87516"
      height="62.95787"
      y="-228.9567"
      fill="#8c8c8c"
      stroke-width="6.09579849"
    />
    <rect
      gorn="0.1.1"
      x="5.583303"
      id="connector0pin"
      width="29.874804"
      height="192.45929"
      y="311.19379"
      fill="#8c8c8c"
      stroke-width="10.65791893"
    />
    <rect
      gorn="0.1.2"
      x="20.499868"
      id="connector0terminal"
      width="0.055555191"
      height="0.66667026"
      y="503.33347"
      fill="none"
      stroke-width="13.88887978"
    />
    <rect
      gorn="0.1.3"
      x="105.58264"
      id="connector1pin"
      width="29.874804"
      height="192.00096"
      y="311.65198"
      fill="#8c8c8c"
      stroke-width="10.64521885"
    />
    <rect
      gorn="0.1.4"
      x="120.48533"
      id="connector1terminal"
      width="0.055555191"
      height="0.66667026"
      y="503.33347"
      fill="none"
      stroke-width="13.88887978"
    />
    <rect
      gorn="0.1.5"
      x="205.54024"
      id="connector2pin"
      width="29.874804"
      height="192.00096"
      y="311.65198"
      fill="#8c8c8c"
      stroke-width="10.64521885"
    />
    <rect
      gorn="0.1.6"
      x="220.44292"
      id="connector2terminal"
      width="0.069443986"
      height="0.66667026"
      y="503.33347"
      fill="none"
      stroke-width="13.88887978"
    />
  </g>
</svg>
