<?xml version='1.0' encoding='UTF-8' standalone='no'?>
<svg xmlns="http://www.w3.org/2000/svg" xmlns:xml="http://www.w3.org/XML/1998/namespace"  id="svg214" height="21.0762mm" gorn="0" text-rendering="geometricPrecision" clip-rule="evenodd" image-rendering="optimizeQuality" fill-rule="evenodd" xml:space="preserve" version="1.1" shape-rendering="geometricPrecision" width="14.4762mm" viewBox="0 0 1.809 2.6337">
    <desc >
        <referenceFile >closed_cube_SHT35-D_breadboard_and_icon.svg</referenceFile>
    </desc>
    <metadata  id="metadata220">
        <rdf:RDF xmlns:rdf="http://www.w3.org/1999/02/22-rdf-syntax-ns#">
            <cc:Work xmlns:cc="http://creativecommons.org/ns#" xmlns:rdf="http://www.w3.org/1999/02/22-rdf-syntax-ns#" rdf:about="">
                <dc:format xmlns:dc="http://purl.org/dc/elements/1.1/">image/svg+xml</dc:format>
                <dc:type rdf:resource="http://purl.org/dc/dcmitype/StillImage" xmlns:dc="http://purl.org/dc/elements/1.1/" xmlns:rdf="http://www.w3.org/1999/02/22-rdf-syntax-ns#"/>
            </cc:Work>
        </rdf:RDF>
    </metadata>
    <defs  id="defs218"/>
    <g  id="Layer_x0020_1" gorn="0.3">
        <metadata  id="CorelCorpID_0Corel-Layer"/>
        <rect  stroke-width="0.0095" id="rect11" height="2.6242" stroke-miterlimit="22.9256" gorn="0.3.1" stroke="#2B2B2A" y="0.0048" x="0.0048" width="1.7994" fill="#E51C4C"/>
        <circle  stroke-width="0.0095" id="circle13" cy="0.2422" stroke-miterlimit="22.9256" gorn="0.3.2" stroke="#2B2B2A" cx="0.2547" fill="#FFF484" r="0.1874"/>
        <circle  stroke-width="0.0095" id="circle15" cy="0.2422" stroke-miterlimit="22.9256" gorn="0.3.3" stroke="#2B2B2A" cx="1.5543" fill="#FFF484" r="0.1874"/>
        <circle  stroke-width="0.0095" id="circle17" cy="0.2422" stroke-miterlimit="22.9256" gorn="0.3.4" stroke="#2B2B2A" cx="1.5543" fill="white" r="0.0812"/>
        <circle  stroke-width="0.0095" id="circle19" cy="0.2422" stroke-miterlimit="22.9256" gorn="0.3.5" stroke="#2B2B2A" cx="0.2547" fill="white" r="0.0812"/>
        <path  stroke-width="0.0044" id="path21" stroke-miterlimit="22.9256" gorn="0.3.6" stroke="#2B2B2A" d="M1.1859 1.4734c0,0.0209 0,0.0418 0,0.0627 0.0001,0.0156 0.0157,0.0313 0.0312,0.0313 0.0728,0 0.1456,0 0.2185,0 0.0156,0 0.0312,-0.0156 0.0312,-0.0314 0,-0.3541 0,-0.7089 0,-1.0629 0,-0.0166 -0.0152,-0.0312 -0.0312,-0.0312 -0.3541,0 -0.7081,0 -1.0622,0 -0.0156,0 -0.0312,0.0156 -0.0312,0.031 0,0.3544 0,0.7087 0,1.0631 0,0.0158 0.0156,0.0314 0.0312,0.0314 0.0729,0 0.1458,0 0.2187,0 0.0157,0 0.0313,-0.0156 0.0313,-0.0313 0,-0.0209 0,-0.0418 0,-0.0627 -0.0001,-0.0156 -0.0157,-0.0312 -0.0314,-0.0312l-0.1253 0 0 -0.8753 0.8747 0 0 0.8753c-0.0414,0 -0.0828,0 -0.1243,0 -0.0156,0 -0.0312,0.0156 -0.0313,0.0312z" fill="white"/>
        <rect  id="rect23" height="0.7748" gorn="0.3.7" y="0.6218" x="0.5199" width="0.7748" fill="#434342"/>
        <circle  id="circle25" cy="1.0092" gorn="0.3.8" cx="0.9073" fill="#2B2B2A" r="0.3499"/>
        <rect  id="rect27" height="1.1246" gorn="0.3.9" y="0.4404" x="0.0546" width="0.2335" fill="white"/>
        <rect  id="rect29" height="0.8606" gorn="0.3.10" y="0.7045" x="1.5222" width="0.2335" fill="white"/>
        <path  id="path31" gorn="0.3.11" fill-rule="nonzero" d="M0.1984 1.4026c0.0073,-0.0011 0.0126,-0.0031 0.0163,-0.0059 0.0064,-0.0055 0.0097,-0.0146 0.0097,-0.0276 0,-0.0079 -0.0009,-0.0143 -0.0026,-0.0192 -0.0033,-0.0093 -0.0093,-0.0139 -0.0183,-0.0139 -0.0053,0 -0.0093,0.0022 -0.0121,0.0068 -0.0029,0.0046 -0.0053,0.0119 -0.0075,0.0218l-0.0037 0.0167c-0.0037,0.0165 -0.0079,0.0278 -0.0121,0.0342 -0.0073,0.0108 -0.0187,0.0161 -0.0344,0.0161 -0.0143,0 -0.026,-0.0053 -0.0355,-0.0156 -0.0095,-0.0104 -0.0141,-0.0254 -0.0141,-0.0454 0,-0.0167 0.0044,-0.0311 0.0134,-0.0428 0.0088,-0.0117 0.0216,-0.0179 0.0386,-0.0185l0 0.0318c-0.0095,0.0006 -0.0163,0.0048 -0.0205,0.0126 -0.0026,0.0051 -0.004,0.0115 -0.004,0.0192 0,0.0086 0.0018,0.0154 0.0053,0.0205 0.0033,0.0051 0.0081,0.0077 0.0143,0.0077 0.0057,0 0.0099,-0.0026 0.0128,-0.0077 0.0018,-0.0033 0.004,-0.0101 0.0066,-0.0205l0.0064 -0.0273c0.0029,-0.0121 0.0068,-0.0212 0.0117,-0.0271 0.0073,-0.0095 0.0181,-0.0143 0.0324,-0.0143 0.0143,0 0.0264,0.0055 0.0359,0.0168 0.0097,0.011 0.0145,0.0267 0.0145,0.0469 0,0.0205 -0.0048,0.0368 -0.0143,0.0487 -0.0095,0.0117 -0.0223,0.0176 -0.0388,0.0176l0 -0.0315z" fill="#E51C4C"/>
        <polygon  id="1" gorn="0.3.12" points="0.2473,1.2799 0.0886,1.2799 0.0886,1.247 0.1492,1.247 0.1492,1.1851 0.0886,1.1851 0.0886,1.152 0.2473,1.152 0.2473,1.1851 0.1766,1.1851 0.1766,1.247 0.2473,1.247 " fill-rule="nonzero" fill="#E51C4C"/>
        <polygon  id="2" gorn="0.3.13" points="0.0886,1.0052 0.1168,1.0052 0.1168,1.0526 0.2473,1.0526 0.2473,1.0861 0.1168,1.0861 0.1168,1.1337 0.0886,1.1337 " fill-rule="nonzero" fill="#E51C4C"/>
        <path  id="3" gorn="0.3.14" fill-rule="nonzero" d="M0.1995 0.9667c0.0062,0 0.0112,-0.0011 0.0154,-0.0031 0.0075,-0.0037 0.0112,-0.0104 0.0112,-0.0203 0,-0.0059 -0.002,-0.0112 -0.0062,-0.0159 -0.0042,-0.0044 -0.0101,-0.0066 -0.0179,-0.0066 -0.0101,0 -0.017,0.0042 -0.0205,0.0126 -0.002,0.0046 -0.0029,0.0121 -0.0029,0.0223l-0.022 0c-0.0002,-0.0099 -0.0011,-0.017 -0.0029,-0.0209 -0.0029,-0.0068 -0.009,-0.0101 -0.0183,-0.0101 -0.0059,0 -0.0108,0.0018 -0.0145,0.0053 -0.0037,0.0033 -0.0055,0.0082 -0.0055,0.0145 0,0.0073 0.0022,0.0128 0.0068,0.0161 0.0046,0.0033 0.0108,0.0051 0.0185,0.0048l0 0.0287c-0.0077,-0.0002 -0.0152,-0.0015 -0.022,-0.004 -0.0062,-0.0024 -0.0119,-0.0064 -0.017,-0.0119 -0.0037,-0.004 -0.0064,-0.0088 -0.0084,-0.0143 -0.002,-0.0055 -0.0029,-0.0121 -0.0029,-0.0203 0,-0.015 0.0037,-0.0271 0.0115,-0.0362 0.0077,-0.009 0.0181,-0.0137 0.0311,-0.0137 0.009,0 0.0168,0.0026 0.0231,0.0082 0.004,0.0033 0.0066,0.007 0.0082,0.0108 0,-0.0029 0.0024,-0.0068 0.0073,-0.0121 0.0073,-0.0077 0.0172,-0.0117 0.0298,-0.0117 0.013,0 0.0247,0.0046 0.0346,0.0137 0.0101,0.009 0.0152,0.0227 0.0152,0.0405 0,0.0223 -0.0073,0.0375 -0.0218,0.0461 -0.0077,0.0046 -0.0176,0.007 -0.03,0.0077l0 -0.0302z" fill="#E51C4C"/>
        <path  id="4" gorn="0.3.15" fill-rule="nonzero" d="M0.2056 0.8437c0.0066,-0.0011 0.0117,-0.0035 0.0154,-0.0071 0.0035,-0.0033 0.0053,-0.0084 0.0053,-0.015 0,-0.0077 -0.0026,-0.0134 -0.0079,-0.0174 -0.0053,-0.004 -0.0121,-0.0059 -0.0203,-0.0059 -0.0079,0 -0.0146,0.0018 -0.0201,0.0055 -0.0055,0.0037 -0.0084,0.0097 -0.0084,0.0174 0,0.0037 0.0004,0.0071 0.0015,0.0097 0.0018,0.0048 0.0048,0.0086 0.0095,0.011l-0.0013 0.0276 -0.0862 -0.011 0 -0.086 0.026 0 0 0.0637 0.0342 0.0057c-0.0031,-0.0048 -0.0051,-0.0086 -0.0062,-0.0112 -0.0015,-0.0044 -0.0024,-0.0097 -0.0024,-0.0161 0,-0.013 0.0044,-0.0242 0.013,-0.0339 0.0086,-0.0095 0.0214,-0.0143 0.0379,-0.0143 0.0143,0 0.0273,0.0046 0.0386,0.0139 0.0115,0.0092 0.0172,0.0231 0.0172,0.0414 0,0.0148 -0.004,0.0271 -0.0121,0.0366 -0.0079,0.0095 -0.0192,0.015 -0.0337,0.0161l0 -0.0306z" fill="#E51C4C"/>
        <polygon  id="5" gorn="0.3.16" points="0.1713,0.7524 0.1713,0.6907 0.2004,0.6907 0.2004,0.7524 " fill-rule="nonzero" fill="#E51C4C"/>
        <path  id="6" gorn="0.3.17" fill-rule="nonzero" d="M0.1162 0.6352l0.1036 0 0 -0.0306c0,-0.0156 -0.0077,-0.0264 -0.0231,-0.0326 -0.0086,-0.0033 -0.0185,-0.0051 -0.0302,-0.0051 -0.0161,0 -0.0287,0.0024 -0.0373,0.0075 -0.0086,0.0051 -0.013,0.0152 -0.013,0.0302l0 0.0306zm-0.0276 -0.0362c0.0002,-0.0099 0.0013,-0.0181 0.0035,-0.0247 0.0037,-0.011 0.0104,-0.0201 0.0201,-0.0269 0.0079,-0.0055 0.0165,-0.0093 0.0256,-0.0112 0.0093,-0.002 0.0181,-0.0031 0.0265,-0.0031 0.0209,0 0.0388,0.0042 0.0536,0.0128 0.0196,0.0115 0.0295,0.0291 0.0295,0.0531l0 0.0683 -0.1587 0 0 -0.0683z" fill="#E51C4C"/>
        <path  id="path39" gorn="0.3.18" fill-rule="nonzero" d="M0.5525 0.0883c0,-0.0146 0.0032,-0.0247 0.0093,-0.0305 0.0063,-0.0058 0.0175,-0.0086 0.0333,-0.0086l0.015 0c0.0157,0 0.0268,0.0025 0.0333,0.0074 0.0063,0.0049 0.0095,0.0134 0.0095,0.0251l0 0.005 -0.0146 0 0 -0.0031c0,-0.0086 -0.0019,-0.0146 -0.006,-0.0178 -0.004,-0.0031 -0.0118,-0.0047 -0.0233,-0.0047l-0.0099 0c-0.0078,0 -0.0134,0.0005 -0.0169,0.0013 -0.0035,0.0008 -0.0065,0.0022 -0.0088,0.0042 -0.0023,0.002 -0.004,0.0046 -0.0049,0.0077 -0.0009,0.0031 -0.0014,0.0088 -0.0014,0.0171l0 0.0325c0,0.0083 0.0005,0.014 0.0014,0.0171 0.0009,0.0031 0.0026,0.0057 0.0049,0.0077 0.0023,0.002 0.0053,0.0034 0.0086,0.0042 0.0033,0.0008 0.009,0.0013 0.0171,0.0013l0.0099 0c0.0118,0 0.0197,-0.0017 0.0236,-0.005 0.0039,-0.0033 0.0058,-0.0096 0.0058,-0.019 0,-0.0014 0,-0.0025 0,-0.0033 0,-0.0008 0,-0.0016 -0.0002,-0.0022l0.0146 0 0 0.0075c0,0.0127 -0.0032,0.0215 -0.0093,0.0264 -0.0062,0.005 -0.0173,0.0075 -0.0335,0.0075l-0.015 0c-0.0159,0 -0.027,-0.0028 -0.0333,-0.0086 -0.0062,-0.0058 -0.0093,-0.0159 -0.0093,-0.0305l0 -0.0388z" fill="white"/>
        <polygon  id="polygon41" gorn="0.3.19" points="0.677,0.1649 0.677,0.0506 0.6909,0.0506 0.6909,0.1529 0.7636,0.1529 0.7636,0.1649 " fill-rule="nonzero" fill="white"/>
        <path  id="path43" gorn="0.3.20" fill-rule="nonzero" d="M0.8364 0.0611l-0.0079 0c-0.009,0 -0.0153,0.0005 -0.019,0.0013 -0.0037,0.0008 -0.0071,0.0023 -0.0097,0.0044 -0.0025,0.002 -0.0042,0.0045 -0.0053,0.0078 -0.001,0.0033 -0.0016,0.009 -0.0016,0.017l0 0.0324c0,0.008 0.0005,0.0135 0.0016,0.0168 0.0011,0.0033 0.0028,0.0058 0.0053,0.0079 0.0026,0.002 0.006,0.0036 0.0097,0.0044 0.0037,0.0008 0.01,0.0013 0.019,0.0013l0.0079 0c0.009,0 0.0155,-0.0005 0.0192,-0.0013 0.0037,-0.0008 0.007,-0.0024 0.0097,-0.0044 0.0025,-0.0019 0.0042,-0.0044 0.0053,-0.0075 0.0009,-0.0033 0.0014,-0.009 0.0014,-0.0171l0 -0.0325c0,-0.008 -0.0005,-0.0137 -0.0016,-0.017 -0.0009,-0.0033 -0.0026,-0.0058 -0.0053,-0.0079 -0.0026,-0.002 -0.0058,-0.0035 -0.0095,-0.0042 -0.0037,-0.0008 -0.0102,-0.0013 -0.0192,-0.0013zm-0.0582 0.0272c0,-0.0146 0.0033,-0.0247 0.0102,-0.0305 0.0067,-0.0058 0.0187,-0.0086 0.036,-0.0086l0.0162 0c0.0174,0 0.0294,0.0028 0.0361,0.0085 0.0067,0.0058 0.0101,0.016 0.0101,0.0307l0 0.0388c0,0.0146 -0.0034,0.0247 -0.0102,0.0305 -0.0069,0.0058 -0.0189,0.0086 -0.036,0.0086l-0.0162 0c-0.0173,0 -0.0293,-0.0028 -0.036,-0.0086 -0.0069,-0.0058 -0.0102,-0.0159 -0.0102,-0.0305l0 -0.0388z" fill="white"/>
        <path  id="path45" gorn="0.3.21" fill-rule="nonzero" d="M0.9102 0.1276l0.0143 0 0 0.0022c0,0.0068 0.0005,0.0118 0.0018,0.0151 0.001,0.0031 0.003,0.0053 0.0056,0.0068 0.0019,0.0011 0.0051,0.0017 0.0095,0.0022 0.0044,0.0005 0.0132,0.0006 0.0266,0.0006 0.0072,0 0.0129,-0.0005 0.0169,-0.0013 0.004,-0.0008 0.007,-0.0022 0.009,-0.0041 0.0011,-0.0011 0.0019,-0.0028 0.0025,-0.0052 0.0005,-0.0025 0.0007,-0.0058 0.0007,-0.0101 0,-0.0085 -0.0009,-0.0138 -0.0028,-0.016 -0.0019,-0.002 -0.0058,-0.0033 -0.0115,-0.0038l-0.0395 -0.0028c-0.0118,-0.0008 -0.0201,-0.0035 -0.0245,-0.0079 -0.0046,-0.0046 -0.0069,-0.0119 -0.0069,-0.0225 0,-0.0068 0.0007,-0.0121 0.0023,-0.016 0.0016,-0.0041 0.0039,-0.0074 0.0072,-0.0101 0.0026,-0.002 0.0062,-0.0036 0.0107,-0.0044 0.0048,-0.0008 0.0129,-0.0013 0.0247,-0.0013l0.0046 0c0.0132,0 0.0224,0.0006 0.0277,0.0017 0.0055,0.0011 0.0099,0.0031 0.0136,0.0058 0.0025,0.0019 0.0042,0.0045 0.0055,0.0078 0.0012,0.0035 0.0018,0.0077 0.0018,0.0127 0,0.0014 0,0.0027 0,0.0035 -0.0002,0.0008 -0.0002,0.0014 -0.0002,0.002l-0.0143 0 0 -0.0028c0,-0.0042 -0.0003,-0.0074 -0.0009,-0.0096 -0.0005,-0.0023 -0.0014,-0.0039 -0.0026,-0.005 -0.0018,-0.0016 -0.0049,-0.0027 -0.0095,-0.0033 -0.0046,-0.0006 -0.0132,-0.0009 -0.0259,-0.0009 -0.0132,0 -0.0215,0.0013 -0.0249,0.0039 -0.0033,0.0027 -0.0051,0.008 -0.0051,0.016 0,0.0064 0.0011,0.011 0.0033,0.0135 0.0023,0.0025 0.0065,0.0039 0.0127,0.0044l0.0404 0.003c0.0106,0.0008 0.018,0.0034 0.0222,0.0078 0.0042,0.0042 0.0063,0.0116 0.0063,0.0219 0,0.0074 -0.0005,0.013 -0.0016,0.0168 -0.001,0.0038 -0.0028,0.0069 -0.0055,0.0094 -0.003,0.0031 -0.0072,0.0053 -0.0125,0.0066 -0.0053,0.0012 -0.0148,0.0019 -0.0287,0.0019l-0.0063 0c-0.0118,0 -0.0203,-0.0005 -0.025,-0.0016 -0.0049,-0.0011 -0.009,-0.003 -0.0123,-0.0057 -0.0032,-0.0025 -0.0055,-0.0058 -0.007,-0.0101 -0.0016,-0.0042 -0.0023,-0.0094 -0.0023,-0.0159l0 -0.0057z" fill="white"/>
        <polygon  id="polygon47" gorn="0.3.22" points="1.0394,0.1649 1.0394,0.0506 1.1293,0.0506 1.1293,0.0627 1.0535,0.0627 1.0535,0.1001 1.1272,0.1001 1.1272,0.1117 1.0535,0.1117 1.0535,0.1529 1.1293,0.1529 1.1293,0.1649 " fill-rule="nonzero" fill="white"/>
        <path  id="path49" gorn="0.3.23" fill-rule="nonzero" d="M1.1521 0.1649l0 -0.1143 0.0619 0c0.016,0 0.0273,0.0028 0.0339,0.0085 0.0065,0.0057 0.0097,0.0156 0.0097,0.0297l0 0.0377c0,0.0141 -0.0032,0.0241 -0.0097,0.0299 -0.0065,0.0057 -0.0178,0.0085 -0.0339,0.0085l-0.0619 0zm0.0141 -0.0113l0.0455 0c0.0123,0 0.0206,-0.0019 0.0247,-0.0055 0.0042,-0.0038 0.0063,-0.0108 0.0063,-0.0214l0 -0.037c0,-0.011 -0.0021,-0.0184 -0.0062,-0.0222 -0.0042,-0.0038 -0.0125,-0.0057 -0.0249,-0.0057l-0.0455 0 0 0.0917z" fill="white"/>
        <path  id="path51" gorn="0.3.24" fill-rule="nonzero" d="M0.5556 0.2665c0,-0.0219 0.0048,-0.037 0.014,-0.0457 0.0095,-0.0087 0.0262,-0.013 0.05,-0.013l0.0225 0c0.0235,0 0.0402,0.0038 0.05,0.0111 0.0095,0.0073 0.0143,0.02 0.0143,0.0377l0 0.0075 -0.022 0 0 -0.0047c0,-0.013 -0.0029,-0.0219 -0.009,-0.0267 -0.0061,-0.0047 -0.0177,-0.0071 -0.0349,-0.0071l-0.0148 0c-0.0116,0 -0.0201,0.0007 -0.0254,0.0019 -0.0053,0.0012 -0.0098,0.0033 -0.0132,0.0064 -0.0034,0.0031 -0.0061,0.0068 -0.0074,0.0115 -0.0013,0.0047 -0.0021,0.0132 -0.0021,0.0257l0 0.0488c0,0.0125 0.0008,0.021 0.0021,0.0257 0.0013,0.0047 0.004,0.0085 0.0074,0.0115 0.0034,0.0031 0.0079,0.0052 0.013,0.0064 0.005,0.0012 0.0135,0.0019 0.0257,0.0019l0.0148 0c0.0177,0 0.0296,-0.0026 0.0355,-0.0076 0.0058,-0.0049 0.0087,-0.0144 0.0087,-0.0285 0,-0.0021 0,-0.0038 0,-0.0049 0,-0.0012 0,-0.0024 -0.0003,-0.0033l0.022 0 0 0.0113c0,0.0191 -0.0048,0.0323 -0.014,0.0396 -0.0093,0.0076 -0.0259,0.0113 -0.0503,0.0113l-0.0225 0c-0.0238,0 -0.0405,-0.0042 -0.05,-0.013 -0.0093,-0.0087 -0.014,-0.0238 -0.014,-0.0457l0 -0.0582z" fill="white"/>
        <path  id="7" gorn="0.3.25" fill-rule="nonzero" d="M0.7405 0.2099l0.0214 0 0 0.1125c0,0.0111 0.0008,0.0186 0.0021,0.0231 0.0013,0.0045 0.0034,0.008 0.0069,0.0106 0.0034,0.0028 0.0074,0.0047 0.0122,0.0059 0.005,0.0012 0.0132,0.0016 0.0249,0.0016l0.0201 0c0.0119,0 0.0201,-0.0005 0.0249,-0.0016 0.005,-0.0012 0.009,-0.0031 0.0124,-0.0059 0.0032,-0.0026 0.0056,-0.0061 0.0069,-0.0104 0.0013,-0.0045 0.0018,-0.0123 0.0018,-0.0234l0 -0.1125 0.0214 0 0 0.1148c0,0.0219 -0.0048,0.037 -0.0145,0.0457 -0.0098,0.0087 -0.0267,0.013 -0.0513,0.013l-0.0233 0c-0.0246,0 -0.0415,-0.0042 -0.0513,-0.013 -0.0098,-0.0087 -0.0145,-0.0238 -0.0145,-0.0457l0 -0.1148z" fill="white"/>
        <path  id="8" gorn="0.3.26" fill-rule="nonzero" d="M0.9616 0.2839l0.0693 0c0.0114,0 0.0188,-0.0019 0.0227,-0.0054 0.004,-0.0035 0.0058,-0.0115 0.0058,-0.0238 0,-0.0118 -0.0021,-0.0191 -0.0061,-0.0222 -0.0042,-0.0031 -0.0148,-0.0045 -0.0317,-0.0045l-0.06 0 0 0.0559zm0 0.0795l0.0701 0c0.0127,0 0.0212,-0.0016 0.0257,-0.0052 0.0045,-0.0035 0.0066,-0.0127 0.0066,-0.0274 0,-0.0122 -0.0024,-0.0203 -0.0074,-0.0241 -0.005,-0.0035 -0.0177,-0.0054 -0.0381,-0.0054l-0.0569 0 0 0.062zm-0.0209 0.0179l0 -0.1714 0.0894 0c0.0206,0 0.0344,0.0028 0.0413,0.0085 0.0066,0.0054 0.01,0.017 0.01,0.0342 0,0.0134 -0.0016,0.0226 -0.005,0.0281 -0.0034,0.0052 -0.0093,0.0087 -0.0175,0.0108 0.0103,0.0024 0.0172,0.0064 0.0212,0.0123 0.004,0.0059 0.0061,0.0158 0.0061,0.0297 0,0.0189 -0.0042,0.0316 -0.0124,0.038 -0.0085,0.0066 -0.0251,0.0099 -0.0503,0.0099l-0.0828 0z" fill="white"/>
        <polygon  id="9" gorn="0.3.27" points="1.1257,0.3813 1.1257,0.2099 1.2606,0.2099 1.2606,0.228 1.1468,0.228 1.1468,0.2842 1.2574,0.2842 1.2574,0.3016 1.1468,0.3016 1.1468,0.3634 1.2606,0.3634 1.2606,0.3813 " fill-rule="nonzero" fill="white"/>
        <polygon  id="polygon56" gorn="0.3.28" points="0.071,2.1271 0.0831,2.1271 0.1159,2.2091 0.1487,2.1271 0.1607,2.1271 0.1232,2.2186 0.1085,2.2186 " fill-rule="nonzero" fill="white"/>
        <path  id="path58" gorn="0.3.29" fill-rule="nonzero" d="M0.1749 2.2186l0 -0.0914 0.0495 0c0.0128,0 0.0219,0.0023 0.0271,0.0068 0.0052,0.0045 0.0078,0.0124 0.0078,0.0238l0 0.0302c0,0.0113 -0.0025,0.0193 -0.0078,0.0239 -0.0052,0.0045 -0.0142,0.0068 -0.0271,0.0068l-0.0495 0zm0.0113 -0.0091l0.0364 0c0.0099,0 0.0165,-0.0015 0.0198,-0.0044 0.0034,-0.003 0.0051,-0.0087 0.0051,-0.0171l0 -0.0296c0,-0.0088 -0.0017,-0.0147 -0.0049,-0.0177 -0.0034,-0.003 -0.01,-0.0045 -0.0199,-0.0045l-0.0364 0 0 0.0733z" fill="white"/>
        <path  id="path60" gorn="0.3.30" fill-rule="nonzero" d="M0.2807 2.2186l0 -0.0914 0.0495 0c0.0128,0 0.0219,0.0023 0.0271,0.0068 0.0052,0.0045 0.0078,0.0124 0.0078,0.0238l0 0.0302c0,0.0113 -0.0025,0.0193 -0.0078,0.0239 -0.0052,0.0045 -0.0142,0.0068 -0.0271,0.0068l-0.0495 0zm0.0113 -0.0091l0.0364 0c0.0099,0 0.0165,-0.0015 0.0198,-0.0044 0.0034,-0.003 0.0051,-0.0087 0.0051,-0.0171l0 -0.0296c0,-0.0088 -0.0017,-0.0147 -0.0049,-0.0177 -0.0034,-0.003 -0.01,-0.0045 -0.0199,-0.0045l-0.0364 0 0 0.0733z" fill="white"/>
        <path  id="path62" gorn="0.3.31" fill-rule="nonzero" d="M0.4485 2.1861l0.0444 0 -0.0205 -0.0493 -0.0037 0 -0.0203 0.0493zm-0.0251 0.0325l0.038 -0.0914 0.0186 0 0.0381 0.0914 -0.0117 0 -0.0097 -0.0234 -0.0519 0 -0.0096 0.0234 -0.0117 0z" fill="white"/>
        <polygon  id="polygon64" gorn="0.3.32" points="0.5318,2.2186 0.5318,2.1271 0.5429,2.1271 0.5429,2.209 0.6011,2.209 0.6011,2.2186 " fill-rule="nonzero" fill="white"/>
        <path  id="path66" gorn="0.3.33" fill-rule="nonzero" d="M0.6601 2.1368l-0.0327 0 0 0.0366 0.0327 0c0.0086,0 0.0141,-0.0009 0.0168,-0.0028 0.0027,-0.0019 0.0039,-0.0053 0.0039,-0.0102l0 -0.0107c0,-0.0049 -0.0013,-0.0083 -0.0038,-0.0102 -0.0025,-0.0019 -0.0082,-0.0028 -0.0169,-0.0028zm-0.044 0.0817l0 -0.0914 0.0463 0c0.0116,0 0.0195,0.0015 0.0238,0.0045 0.0044,0.0031 0.0065,0.0086 0.0065,0.0164l0 0.0138c0,0.0048 -0.0011,0.0085 -0.0032,0.0112 -0.0023,0.0028 -0.0056,0.0045 -0.01,0.0052 0.0049,0.001 0.0083,0.0029 0.0103,0.0057 0.002,0.0026 0.003,0.0069 0.003,0.0127l0 0.022 -0.0118 0 0 -0.0189c0,-0.0065 -0.0011,-0.0109 -0.0035,-0.0133 -0.0023,-0.0023 -0.0068,-0.0034 -0.0135,-0.0034l-0.0364 0 0 0.0356 -0.0113 0z" fill="white"/>
        <path  id="path68" gorn="0.3.34" fill-rule="nonzero" d="M0.7595 2.1888l0.0114 0 0 0.0018c0,0.0054 0.0004,0.0094 0.0014,0.0121 0.0008,0.0025 0.0024,0.0043 0.0045,0.0054 0.0015,0.0009 0.0041,0.0014 0.0076,0.0018 0.0035,0.0004 0.0106,0.0005 0.0213,0.0005 0.0058,0 0.0103,-0.0004 0.0135,-0.001 0.0032,-0.0006 0.0056,-0.0018 0.0072,-0.0033 0.0008,-0.0009 0.0015,-0.0023 0.002,-0.0041 0.0004,-0.002 0.0006,-0.0046 0.0006,-0.008 0,-0.0068 -0.0007,-0.0111 -0.0022,-0.0128 -0.0016,-0.0016 -0.0047,-0.0026 -0.0092,-0.003l-0.0316 -0.0023c-0.0094,-0.0006 -0.0161,-0.0028 -0.0196,-0.0063 -0.0037,-0.0036 -0.0055,-0.0096 -0.0055,-0.018 0,-0.0054 0.0006,-0.0097 0.0018,-0.0128 0.0013,-0.0033 0.0031,-0.0059 0.0058,-0.008 0.0021,-0.0016 0.0049,-0.0029 0.0086,-0.0035 0.0038,-0.0006 0.0103,-0.001 0.0197,-0.001l0.0037 0c0.0106,0 0.0179,0.0005 0.0221,0.0014 0.0044,0.0009 0.0079,0.0025 0.0109,0.0047 0.002,0.0015 0.0034,0.0037 0.0044,0.0063 0.001,0.0028 0.0014,0.0062 0.0014,0.0102 0,0.0011 0,0.0021 0,0.0028 -0.0001,0.0006 -0.0001,0.0011 -0.0001,0.0016l-0.0114 0 0 -0.0023c0,-0.0034 -0.0003,-0.0059 -0.0007,-0.0077 -0.0004,-0.0019 -0.0011,-0.0031 -0.0021,-0.004 -0.0014,-0.0013 -0.0039,-0.0021 -0.0076,-0.0026 -0.0037,-0.0005 -0.0106,-0.0007 -0.0207,-0.0007 -0.0106,0 -0.0172,0.001 -0.0199,0.0031 -0.0027,0.0021 -0.0041,0.0064 -0.0041,0.0128 0,0.0052 0.0008,0.0088 0.0027,0.0108 0.0018,0.002 0.0052,0.0031 0.0102,0.0035l0.0323 0.0024c0.0085,0.0006 0.0144,0.0028 0.0178,0.0063 0.0034,0.0034 0.0051,0.0093 0.0051,0.0175 0,0.0059 -0.0004,0.0104 -0.0013,0.0135 -0.0008,0.003 -0.0022,0.0055 -0.0044,0.0075 -0.0024,0.0025 -0.0058,0.0043 -0.01,0.0053 -0.0042,0.001 -0.0119,0.0015 -0.023,0.0015l-0.0051 0c-0.0094,0 -0.0162,-0.0004 -0.02,-0.0012 -0.0039,-0.0009 -0.0072,-0.0024 -0.0099,-0.0045 -0.0025,-0.002 -0.0044,-0.0047 -0.0056,-0.0081 -0.0013,-0.0034 -0.0018,-0.0075 -0.0018,-0.0127l0 -0.0045z" fill="white"/>
        <path  id="path70" gorn="0.3.35" fill-rule="nonzero" d="M0.8596 2.1573c0,-0.0117 0.0025,-0.0197 0.0075,-0.0244 0.0051,-0.0047 0.014,-0.0069 0.0267,-0.0069l0.012 0c0.0126,0 0.0214,0.002 0.0267,0.0059 0.0051,0.0039 0.0076,0.0107 0.0076,0.0201l0 0.004 -0.0117 0 0 -0.0025c0,-0.0069 -0.0016,-0.0117 -0.0048,-0.0142 -0.0032,-0.0025 -0.0095,-0.0038 -0.0186,-0.0038l-0.0079 0c-0.0062,0 -0.0107,0.0004 -0.0135,0.001 -0.0028,0.0006 -0.0052,0.0018 -0.0071,0.0034 -0.0018,0.0016 -0.0032,0.0036 -0.0039,0.0062 -0.0007,0.0025 -0.0011,0.007 -0.0011,0.0137l0 0.026c0,0.0067 0.0004,0.0112 0.0011,0.0137 0.0007,0.0025 0.0021,0.0045 0.0039,0.0062 0.0018,0.0016 0.0042,0.0028 0.0069,0.0034 0.0027,0.0006 0.0072,0.001 0.0137,0.001l0.0079 0c0.0094,0 0.0158,-0.0014 0.0189,-0.004 0.0031,-0.0026 0.0047,-0.0077 0.0047,-0.0152 0,-0.0011 0,-0.002 0,-0.0026 0,-0.0006 0,-0.0013 -0.0001,-0.0018l0.0117 0 0 0.006c0,0.0102 -0.0025,0.0172 -0.0075,0.0211 -0.0049,0.004 -0.0138,0.006 -0.0268,0.006l-0.012 0c-0.0127,0 -0.0216,-0.0023 -0.0267,-0.0069 -0.0049,-0.0047 -0.0075,-0.0127 -0.0075,-0.0244l0 -0.0311z" fill="white"/>
        <polygon  id="polygon72" gorn="0.3.36" points="0.9592,2.2186 0.9592,2.1271 0.9704,2.1271 0.9704,2.209 1.0285,2.209 1.0285,2.2186 " fill-rule="nonzero" fill="white"/>
        <path  id="path74" gorn="0.3.37" fill-rule="nonzero" d="M1.0883 2.1888l0.0114 0 0 0.0018c0,0.0054 0.0004,0.0094 0.0014,0.0121 0.0008,0.0025 0.0024,0.0043 0.0045,0.0054 0.0015,0.0009 0.0041,0.0014 0.0076,0.0018 0.0035,0.0004 0.0106,0.0005 0.0213,0.0005 0.0058,0 0.0103,-0.0004 0.0135,-0.001 0.0032,-0.0006 0.0056,-0.0018 0.0072,-0.0033 0.0008,-0.0009 0.0015,-0.0023 0.002,-0.0041 0.0004,-0.002 0.0006,-0.0046 0.0006,-0.008 0,-0.0068 -0.0007,-0.0111 -0.0022,-0.0128 -0.0016,-0.0016 -0.0047,-0.0026 -0.0092,-0.003l-0.0316 -0.0023c-0.0094,-0.0006 -0.0161,-0.0028 -0.0196,-0.0063 -0.0037,-0.0036 -0.0055,-0.0096 -0.0055,-0.018 0,-0.0054 0.0006,-0.0097 0.0018,-0.0128 0.0013,-0.0033 0.0031,-0.0059 0.0058,-0.008 0.0021,-0.0016 0.0049,-0.0029 0.0086,-0.0035 0.0038,-0.0006 0.0103,-0.001 0.0197,-0.001l0.0037 0c0.0106,0 0.0179,0.0005 0.0221,0.0014 0.0044,0.0009 0.0079,0.0025 0.0109,0.0047 0.002,0.0015 0.0034,0.0037 0.0044,0.0063 0.001,0.0028 0.0014,0.0062 0.0014,0.0102 0,0.0011 0,0.0021 0,0.0028 -0.0001,0.0006 -0.0001,0.0011 -0.0001,0.0016l-0.0114 0 0 -0.0023c0,-0.0034 -0.0003,-0.0059 -0.0007,-0.0077 -0.0004,-0.0019 -0.0011,-0.0031 -0.0021,-0.004 -0.0014,-0.0013 -0.0039,-0.0021 -0.0076,-0.0026 -0.0037,-0.0005 -0.0106,-0.0007 -0.0207,-0.0007 -0.0106,0 -0.0172,0.001 -0.0199,0.0031 -0.0027,0.0021 -0.0041,0.0064 -0.0041,0.0128 0,0.0052 0.0008,0.0088 0.0027,0.0108 0.0018,0.002 0.0052,0.0031 0.0102,0.0035l0.0323 0.0024c0.0085,0.0006 0.0144,0.0028 0.0178,0.0063 0.0034,0.0034 0.0051,0.0093 0.0051,0.0175 0,0.0059 -0.0004,0.0104 -0.0013,0.0135 -0.0008,0.003 -0.0022,0.0055 -0.0044,0.0075 -0.0024,0.0025 -0.0058,0.0043 -0.01,0.0053 -0.0042,0.001 -0.0119,0.0015 -0.023,0.0015l-0.0051 0c-0.0094,0 -0.0162,-0.0004 -0.02,-0.0012 -0.0039,-0.0009 -0.0072,-0.0024 -0.0099,-0.0045 -0.0025,-0.002 -0.0044,-0.0047 -0.0056,-0.0081 -0.0013,-0.0034 -0.0018,-0.0075 -0.0018,-0.0127l0 -0.0045z" fill="white"/>
        <path  id="10" gorn="0.3.38" fill-rule="nonzero" d="M1.1917 2.2186l0 -0.0914 0.0495 0c0.0128,0 0.0219,0.0023 0.0271,0.0068 0.0052,0.0045 0.0078,0.0124 0.0078,0.0238l0 0.0302c0,0.0113 -0.0025,0.0193 -0.0078,0.0239 -0.0052,0.0045 -0.0142,0.0068 -0.0271,0.0068l-0.0495 0zm0.0113 -0.0091l0.0364 0c0.0099,0 0.0165,-0.0015 0.0198,-0.0044 0.0034,-0.003 0.0051,-0.0087 0.0051,-0.0171l0 -0.0296c0,-0.0088 -0.0017,-0.0147 -0.0049,-0.0177 -0.0034,-0.003 -0.01,-0.0045 -0.0199,-0.0045l-0.0364 0 0 0.0733z" fill="white"/>
        <path  id="11" gorn="0.3.39" fill-rule="nonzero" d="M1.3092 2.1861l0.0444 0 -0.0205 -0.0493 -0.0037 0 -0.0203 0.0493zm-0.0251 0.0325l0.038 -0.0914 0.0186 0 0.0381 0.0914 -0.0117 0 -0.0097 -0.0234 -0.0519 0 -0.0096 0.0234 -0.0117 0z" fill="white"/>
        <path  id="12" gorn="0.3.40" fill-rule="nonzero" d="M1.4363 2.1573c0,-0.0117 0.0027,-0.0197 0.0082,-0.0244 0.0054,-0.0047 0.015,-0.0069 0.0288,-0.0069l0.013 0c0.0125,0 0.0219,0.0019 0.0279,0.0058 0.0061,0.0038 0.009,0.0097 0.009,0.0179l0 0.0039 -0.0117 0 0 -0.0011c0,-0.0063 -0.0018,-0.0107 -0.0054,-0.0132 -0.0035,-0.0024 -0.0104,-0.0036 -0.0206,-0.0036l-0.009 0c-0.0069,0 -0.012,0.0004 -0.0151,0.001 -0.0031,0.0006 -0.0058,0.0019 -0.0079,0.0035 -0.002,0.0015 -0.0034,0.0035 -0.0041,0.006 -0.0008,0.0026 -0.0013,0.0072 -0.0013,0.0137l0 0.026c0,0.0065 0.0004,0.0111 0.0013,0.0137 0.0007,0.0025 0.0021,0.0045 0.0041,0.006 0.0021,0.0016 0.0048,0.0029 0.0077,0.0035 0.003,0.0006 0.008,0.001 0.0152,0.001l0.009 0c0.0066,0 0.0111,-0.0003 0.0138,-0.0009 0.0027,-0.0006 0.0051,-0.0018 0.007,-0.0031 0.0018,-0.0014 0.0032,-0.0034 0.0039,-0.0058 0.0007,-0.0024 0.0011,-0.0064 0.0011,-0.0123l0 -0.0057 -0.0285 0 0 -0.0093 0.0402 0 0 0.0153c0,0.0117 -0.0027,0.0197 -0.0082,0.0244 -0.0054,0.0046 -0.015,0.0069 -0.0288,0.0069l-0.013 0c-0.0138,0 -0.0234,-0.0023 -0.0288,-0.0069 -0.0055,-0.0047 -0.0082,-0.0127 -0.0082,-0.0244l0 -0.0311z" fill="white"/>
        <polygon  id="13" gorn="0.3.41" points="1.5437,2.2186 1.5437,2.1271 1.5612,2.1271 1.6168,2.2088 1.6168,2.1271 1.6281,2.1271 1.6281,2.2186 1.6106,2.2186 1.555,2.1368 1.555,2.2186 " fill-rule="nonzero" fill="white"/>
        <path  id="14" gorn="0.3.42" fill-rule="nonzero" d="M1.6531 2.2186l0 -0.0914 0.0495 0c0.0128,0 0.0219,0.0023 0.0271,0.0068 0.0052,0.0045 0.0078,0.0124 0.0078,0.0238l0 0.0302c0,0.0113 -0.0025,0.0193 -0.0078,0.0239 -0.0052,0.0045 -0.0142,0.0068 -0.0271,0.0068l-0.0495 0zm0.0113 -0.0091l0.0364 0c0.0099,0 0.0165,-0.0015 0.0198,-0.0044 0.0034,-0.003 0.0051,-0.0087 0.0051,-0.0171l0 -0.0296c0,-0.0088 -0.0017,-0.0147 -0.0049,-0.0177 -0.0034,-0.003 -0.01,-0.0045 -0.0199,-0.0045l-0.0364 0 0 0.0733z" fill="white"/>
        <path  id="path81" gorn="0.3.43" fill-rule="nonzero" d="M0.1042 1.798l0.0076 0c0.0045,0 0.0078,-0.0002 0.0099,-0.0007 0.002,-0.0005 0.0038,-0.0015 0.0052,-0.0028 0.0013,-0.0013 0.0023,-0.0029 0.0029,-0.0048 0.0006,-0.0019 0.0008,-0.0053 0.0008,-0.0103l0 -0.0013 0 -0.0246c0,-0.005 -0.0002,-0.0084 -0.0008,-0.0103 -0.0006,-0.0019 -0.0015,-0.0035 -0.0029,-0.0048 -0.0014,-0.0014 -0.0032,-0.0022 -0.0055,-0.0027 -0.0021,-0.0005 -0.0053,-0.0008 -0.0096,-0.0008l-0.0076 0c-0.0046,0 -0.008,0.0002 -0.01,0.0007 -0.002,0.0005 -0.0038,0.0015 -0.0051,0.0028 -0.0013,0.0013 -0.0023,0.0029 -0.0029,0.0048 -0.0006,0.002 -0.0008,0.0054 -0.0008,0.0104l0 0.0013 0 0.0245c0,0.005 0.0002,0.0084 0.0008,0.0104 0.0006,0.0019 0.0015,0.0035 0.0029,0.0048 0.0013,0.0013 0.0031,0.0022 0.0051,0.0028 0.002,0.0005 0.0054,0.0007 0.01,0.0007zm-0.0003 0.008c-0.0106,0 -0.0179,-0.0019 -0.022,-0.0058 -0.0042,-0.0039 -0.0063,-0.0107 -0.0063,-0.0206l0 -0.0262c0,-0.0099 0.0021,-0.0167 0.0063,-0.0206 0.0042,-0.0039 0.0114,-0.0058 0.022,-0.0058l0.0083 0c0.0106,0 0.0179,0.0019 0.022,0.0058 0.0042,0.0039 0.0063,0.0107 0.0063,0.0206l0 0.0262c0,0.0099 -0.0021,0.0167 -0.0063,0.0206 -0.0042,0.0039 -0.0114,0.0058 -0.022,0.0058l-0.0083 0z" fill="white"/>
        <polygon  id="polygon83" gorn="0.3.44" points="0.1502,1.805 0.1734,1.7759 0.1532,1.7505 0.1634,1.7505 0.1782,1.7696 0.193,1.7505 0.2032,1.7505 0.1832,1.7759 0.2064,1.805 0.1962,1.805 0.1782,1.782 0.1606,1.805 " fill-rule="nonzero" fill="white"/>
        <path  id="path85" gorn="0.3.45" fill-rule="nonzero" d="M0.2244 1.7789l0.0367 0 0 -0.0425 -0.0367 0.0425zm-0.0094 0.0082l0 -0.0099 0.0424 -0.0493 0.0133 0 0 0.051 0.0132 0 0 0.0082 -0.0132 0 0 0.0179 -0.0096 0 0 -0.0179 -0.0461 0z" fill="white"/>
        <path  id="path87" gorn="0.3.46" fill-rule="nonzero" d="M0.297 1.7824l0.0096 0 0 0.0051c0,0.0041 0.0013,0.0069 0.0039,0.0083 0.0027,0.0015 0.0086,0.0022 0.0177,0.0022l0.003 0c0.005,0 0.0086,-0.0003 0.0107,-0.0009 0.0021,-0.0007 0.0039,-0.0019 0.0055,-0.0035 0.0008,-0.0009 0.0015,-0.0021 0.0019,-0.0035 0.0003,-0.0014 0.0005,-0.0038 0.0005,-0.0072l0 -0.0014 0 -0.0021c0,-0.0039 -0.0001,-0.0069 -0.0004,-0.0087 -0.0003,-0.0018 -0.0008,-0.0034 -0.0015,-0.0047 -0.0013,-0.0022 -0.0032,-0.0037 -0.0059,-0.0047 -0.0026,-0.0009 -0.007,-0.0014 -0.0132,-0.0014 -0.0079,0 -0.0132,0.0005 -0.0161,0.0017 -0.0028,0.0011 -0.0044,0.003 -0.0045,0.0057l-0.0095 0 0 -0.0395 0.0571 0 0 0.0082 -0.0476 0 0 0.0222c0.0018,-0.0021 0.004,-0.0036 0.0068,-0.0044 0.0027,-0.0008 0.0077,-0.0013 0.015,-0.0013 0.0063,0 0.0111,0.0003 0.0142,0.0009 0.0031,0.0005 0.0057,0.0016 0.0077,0.0031 0.0027,0.002 0.0048,0.0047 0.0059,0.0078 0.0012,0.0032 0.0018,0.0081 0.0018,0.0147 0,0.0063 -0.0005,0.0108 -0.0014,0.0139 -0.0009,0.0031 -0.0025,0.0056 -0.0047,0.0074 -0.0025,0.002 -0.0054,0.0035 -0.0088,0.0043 -0.0033,0.0008 -0.0086,0.0013 -0.0157,0.0013 -0.0089,0 -0.0151,-0.0004 -0.0187,-0.0014 -0.0036,-0.001 -0.0064,-0.0024 -0.0086,-0.0047 -0.0015,-0.0016 -0.0026,-0.0035 -0.0035,-0.0056 -0.0008,-0.0021 -0.0012,-0.0045 -0.0012,-0.0069l0 -0.005z" fill="white"/>
        <path  id="path89" gorn="0.3.47" fill-rule="nonzero" d="M0.4861 1.798l0.0076 0c0.0045,0 0.0078,-0.0002 0.0099,-0.0007 0.002,-0.0005 0.0038,-0.0015 0.0052,-0.0028 0.0013,-0.0013 0.0023,-0.0029 0.0029,-0.0048 0.0006,-0.0019 0.0008,-0.0053 0.0008,-0.0103l0 -0.0013 0 -0.0246c0,-0.005 -0.0002,-0.0084 -0.0008,-0.0103 -0.0006,-0.0019 -0.0015,-0.0035 -0.0029,-0.0048 -0.0014,-0.0014 -0.0032,-0.0022 -0.0055,-0.0027 -0.0021,-0.0005 -0.0053,-0.0008 -0.0096,-0.0008l-0.0076 0c-0.0046,0 -0.008,0.0002 -0.01,0.0007 -0.002,0.0005 -0.0038,0.0015 -0.0051,0.0028 -0.0013,0.0013 -0.0023,0.0029 -0.0029,0.0048 -0.0006,0.002 -0.0008,0.0054 -0.0008,0.0104l0 0.0013 0 0.0245c0,0.005 0.0002,0.0084 0.0008,0.0104 0.0006,0.0019 0.0015,0.0035 0.0029,0.0048 0.0013,0.0013 0.0031,0.0022 0.0051,0.0028 0.002,0.0005 0.0054,0.0007 0.01,0.0007zm-0.0003 0.008c-0.0106,0 -0.0179,-0.0019 -0.022,-0.0058 -0.0042,-0.0039 -0.0063,-0.0107 -0.0063,-0.0206l0 -0.0262c0,-0.0099 0.0021,-0.0167 0.0063,-0.0206 0.0042,-0.0039 0.0114,-0.0058 0.022,-0.0058l0.0083 0c0.0106,0 0.0179,0.0019 0.022,0.0058 0.0042,0.0039 0.0063,0.0107 0.0063,0.0206l0 0.0262c0,0.0099 -0.0021,0.0167 -0.0063,0.0206 -0.0042,0.0039 -0.0114,0.0058 -0.022,0.0058l-0.0083 0z" fill="white"/>
        <polygon  id="polygon91" gorn="0.3.48" points="0.5321,1.805 0.5553,1.7759 0.5351,1.7505 0.5453,1.7505 0.5601,1.7696 0.5748,1.7505 0.5851,1.7505 0.5651,1.7759 0.5883,1.805 0.578,1.805 0.5601,1.782 0.5424,1.805 " fill-rule="nonzero" fill="white"/>
        <path  id="path93" gorn="0.3.49" fill-rule="nonzero" d="M0.6062 1.7789l0.0367 0 0 -0.0425 -0.0367 0.0425zm-0.0094 0.0082l0 -0.0099 0.0424 -0.0493 0.0133 0 0 0.051 0.0132 0 0 0.0082 -0.0132 0 0 0.0179 -0.0096 0 0 -0.0179 -0.0461 0z" fill="white"/>
        <path  id="path95" gorn="0.3.50" fill-rule="nonzero" d="M0.6866 1.7789l0.0367 0 0 -0.0425 -0.0367 0.0425zm-0.0094 0.0082l0 -0.0099 0.0424 -0.0493 0.0133 0 0 0.051 0.0132 0 0 0.0082 -0.0132 0 0 0.0179 -0.0096 0 0 -0.0179 -0.0461 0z" fill="white"/>
        <path  id="path97" gorn="0.3.51" fill-rule="nonzero" d="M1.2008 1.7361l-0.0276 0 0 0.0309 0.0276 0c0.0073,0 0.0119,-0.0007 0.0142,-0.0023 0.0023,-0.0016 0.0033,-0.0044 0.0033,-0.0086l0 -0.009c0,-0.0041 -0.0011,-0.007 -0.0032,-0.0086 -0.0021,-0.0016 -0.0069,-0.0023 -0.0143,-0.0023zm-0.0371 0.069l0 -0.0771 0.039 0c0.0098,0 0.0164,0.0013 0.0201,0.0038 0.0037,0.0027 0.0055,0.0072 0.0055,0.0138l0 0.0117c0,0.004 -0.001,0.0072 -0.0027,0.0094 -0.0019,0.0023 -0.0048,0.0038 -0.0085,0.0043 0.0042,0.0008 0.007,0.0024 0.0087,0.0048 0.0017,0.0022 0.0025,0.0058 0.0025,0.0107l0 0.0186 -0.01 0 0 -0.0159c0,-0.0055 -0.001,-0.0092 -0.003,-0.0112 -0.0019,-0.0019 -0.0057,-0.0029 -0.0114,-0.0029l-0.0307 0 0 0.03 -0.0095 0z" fill="white"/>
        <path  id="path99" gorn="0.3.52" fill-rule="nonzero" d="M1.2451 1.805l0 -0.013c0,-0.004 0.0004,-0.0072 0.0011,-0.0096 0.0007,-0.0023 0.0019,-0.0043 0.0034,-0.006 0.0015,-0.0016 0.0034,-0.0029 0.0057,-0.004 0.0023,-0.0012 0.0061,-0.0023 0.0114,-0.0036l0.0195 -0.0048c0.003,-0.0007 0.0055,-0.0015 0.0074,-0.0024 0.002,-0.0008 0.0033,-0.0018 0.004,-0.0027 0.0006,-0.0007 0.0009,-0.0017 0.0012,-0.0029 0.0002,-0.0013 0.0004,-0.0037 0.0004,-0.0073 0,-0.0037 -0.0002,-0.0064 -0.0008,-0.0078 -0.0006,-0.0015 -0.0015,-0.0026 -0.0029,-0.0036 -0.0012,-0.0007 -0.0034,-0.0014 -0.0069,-0.0017 -0.0034,-0.0003 -0.0082,-0.0005 -0.0144,-0.0005 -0.0083,0 -0.0137,0.0008 -0.016,0.0024 -0.0023,0.0016 -0.0033,0.0051 -0.0033,0.0104l0 0.0046 -0.0099 0 0 -0.0051c0,-0.0076 0.002,-0.0129 0.0062,-0.0158 0.004,-0.003 0.0119,-0.0045 0.0236,-0.0045 0.0068,0 0.0118,0.0001 0.0151,0.0004 0.0034,0.0003 0.0059,0.0007 0.0076,0.0015 0.0042,0.0017 0.0071,0.0039 0.0088,0.0066 0.0015,0.0027 0.0024,0.0073 0.0024,0.0139 0,0.0073 -0.0012,0.0123 -0.0036,0.0152 -0.0025,0.0029 -0.007,0.0052 -0.0138,0.0069l-0.0242 0.006c-0.0052,0.0014 -0.0086,0.0027 -0.01,0.0042 -0.0015,0.0016 -0.0023,0.0038 -0.0023,0.0068l0 0.0085 0.0538 0 0 0.0081 -0.0637 0z" fill="white"/>
        <path  id="path101" gorn="0.3.53" fill-rule="nonzero" d="M1.6459 1.7361l-0.0276 0 0 0.0309 0.0276 0c0.0073,0 0.0119,-0.0007 0.0142,-0.0023 0.0023,-0.0016 0.0033,-0.0044 0.0033,-0.0086l0 -0.009c0,-0.0041 -0.0011,-0.007 -0.0032,-0.0086 -0.0021,-0.0016 -0.0069,-0.0023 -0.0143,-0.0023zm-0.0371 0.069l0 -0.0771 0.039 0c0.0098,0 0.0164,0.0013 0.0201,0.0038 0.0037,0.0027 0.0055,0.0072 0.0055,0.0138l0 0.0117c0,0.004 -0.001,0.0072 -0.0027,0.0094 -0.0019,0.0023 -0.0048,0.0038 -0.0085,0.0043 0.0042,0.0008 0.007,0.0024 0.0087,0.0048 0.0017,0.0022 0.0025,0.0058 0.0025,0.0107l0 0.0186 -0.01 0 0 -0.0159c0,-0.0055 -0.001,-0.0092 -0.003,-0.0112 -0.0019,-0.0019 -0.0057,-0.0029 -0.0114,-0.0029l-0.0307 0 0 0.03 -0.0095 0z" fill="white"/>
        <polygon  id="polygon103" gorn="0.3.54" points="1.724,1.805 1.724,1.7355 1.7037,1.7538 1.6977,1.7486 1.7209,1.7279 1.7334,1.7279 1.7334,1.805 " fill-rule="nonzero" fill="white"/>
        <polygon  id="polygon105" gorn="0.3.55" points="1.7151,1.2365 1.7151,1.2696 1.5564,1.2696 1.5564,1.2365 " fill-rule="nonzero" fill="#E51C4C"/>
        <path  id="path107" gorn="0.3.56" fill-rule="nonzero" d="M1.6371 1.1513c-0.0276,0 -0.0489,-0.0075 -0.0641,-0.0223 -0.013,-0.013 -0.0194,-0.0293 -0.0194,-0.0494 0,-0.0267 0.0088,-0.0461 0.0262,-0.0584 0.0099,-0.0068 0.0196,-0.0106 0.0295,-0.011l0 0.0331c-0.0077,0.0022 -0.0134,0.0051 -0.0172,0.0084 -0.0068,0.006 -0.0104,0.015 -0.0104,0.0269 0,0.0121 0.0048,0.0216 0.0146,0.0284 0.0097,0.0068 0.0234,0.0104 0.0412,0.0104 0.0179,0 0.0313,-0.0037 0.0401,-0.011 0.0088,-0.0073 0.0132,-0.0168 0.0132,-0.028 0,-0.0117 -0.0037,-0.0205 -0.0115,-0.0267 -0.004,-0.0033 -0.0101,-0.0062 -0.0183,-0.0084l0 -0.0328c0.0174,0.0029 0.0313,0.0104 0.0421,0.022 0.0108,0.0119 0.0163,0.0271 0.0163,0.0454 0,0.0227 -0.0073,0.0408 -0.022,0.0538 -0.0148,0.013 -0.0348,0.0196 -0.0604,0.0196z" fill="#E51C4C"/>
        <path  id="path109" gorn="0.3.57" fill-rule="nonzero" d="M1.6335 1.2191c-0.0056,-0.0001 -0.0107,-0.0013 -0.0153,-0.0036 -0.0052,-0.0022 -0.0107,-0.0074 -0.0165,-0.0155 -0.0051,-0.007 -0.0087,-0.0116 -0.0109,-0.0137 -0.0034,-0.0032 -0.007,-0.0048 -0.0111,-0.0048 -0.0033,0 -0.0061,0.0009 -0.0083,0.0027 -0.0022,0.0019 -0.0033,0.0045 -0.0033,0.0079 0,0.0046 0.0018,0.0078 0.0053,0.0095 0.002,0.001 0.0052,0.0015 0.0096,0.0018l0 0.0149c-0.0067,-0.0002 -0.012,-0.0014 -0.0161,-0.0036 -0.0078,-0.0041 -0.0117,-0.0113 -0.0117,-0.0218 0,-0.0083 0.0023,-0.0148 0.0068,-0.0196 0.0045,-0.005 0.0106,-0.0074 0.0182,-0.0074 0.0057,0 0.0108,0.0018 0.0153,0.0052 0.003,0.0023 0.0064,0.0059 0.01,0.0111l0.0043 0.0062c0.0027,0.0039 0.0047,0.0064 0.0059,0.0078 0.0012,0.0014 0.0025,0.0026 0.0042,0.0036l0 -0.0341 0.0136 0 0 0.0535z" fill="#E51C4C"/>
        <g  id="_105553492944896" gorn="0.3.58">
            <rect  id="connector0terminal" height="0.2749" gorn="0.3.58.0" y="2.2677" ry="0.0255" x="0.1366" width="0.2749" rx="0.023" fill="#727272"/>
            <rect  id="connector0pin" height="0.0625" gorn="0.3.58.1" y="2.3739" x="0.2428" width="0.0625" fill="#2B2B2A"/>
            <rect  id="connector1terminal" height="0.2749" gorn="0.3.58.2" y="2.2677" ry="0.0255" x="0.4539" width="0.2749" rx="0.023" fill="#727272"/>
            <rect  id="connector1pin" height="0.0625" gorn="0.3.58.3" y="2.3739" x="0.5601" width="0.0625" fill="#2B2B2A"/>
            <rect  id="connector3terminal" height="0.2749" gorn="0.3.58.4" y="2.2677" ry="0.0255" x="1.0883" width="0.2749" rx="0.023" fill="#727272"/>
            <rect  id="connector3pin" height="0.0625" gorn="0.3.58.5" y="2.3739" x="1.1945" width="0.0625" fill="#2B2B2A"/>
            <rect  id="connector4terminal" height="0.2749" gorn="0.3.58.6" y="2.2677" ry="0.0255" x="1.4056" width="0.2749" rx="0.023" fill="#727272"/>
            <rect  id="connector4pin" height="0.0625" gorn="0.3.58.7" y="2.3739" x="1.5118" width="0.0625" fill="#2B2B2A"/>
            <rect  id="connector2terminal" height="0.2749" gorn="0.3.58.8" y="2.2677" ry="0.0255" x="0.7711" width="0.2749" rx="0.023" fill="#727272"/>
            <rect  id="connector2pin" height="0.0625" gorn="0.3.58.9" y="2.3739" x="0.8773" width="0.0625" fill="#2B2B2A"/>
        </g>
        <rect  stroke-width="0.0095" id="rect132" height="0.2374" stroke-miterlimit="22.9256" gorn="0.3.59" stroke="white" y="1.8472" x="0.0812" width="0.6248" fill="none"/>
        <rect  stroke-width="0.0095" id="rect134" height="0.2374" stroke-miterlimit="22.9256" gorn="0.3.60" stroke="white" y="1.8472" x="0.9185" width="0.3846" fill="none"/>
        <g  id="_105553492943680" gorn="0.3.61">
            <rect  id="rect136" height="0.1862" gorn="0.3.61.0" y="1.8728" ry="0.0096" x="0.1233" width="0.064" rx="0.0092" fill="#898989"/>
            <rect  id="rect138" height="0.1862" gorn="0.3.61.1" y="1.8728" ry="0.0096" x="0.3616" width="0.064" rx="0.0092" fill="#898989"/>
            <rect  id="rect140" height="0.1862" gorn="0.3.61.2" y="1.8728" ry="0.0096" x="0.6" width="0.064" rx="0.0092" fill="#898989"/>
        </g>
        <g  id="_105553492942624" gorn="0.3.62">
            <rect  id="rect143" height="0.1862" gorn="0.3.62.0" y="1.8728" ry="0.0096" x="0.9596" width="0.064" rx="0.0092" fill="#898989"/>
            <rect  id="rect145" height="0.1862" gorn="0.3.62.1" y="1.8728" ry="0.0096" x="1.1979" width="0.064" rx="0.0092" fill="#898989"/>
        </g>
        <g  id="_105553492937120" gorn="0.3.63">
            <rect  id="rect148" height="0.1862" gorn="0.3.63.0" y="1.8748" ry="0.0096" x="1.3803" width="0.064" rx="0.0092" fill="#898989"/>
            <rect  id="rect150" height="0.1862" gorn="0.3.63.1" y="1.8748" ry="0.0096" x="1.6186" width="0.064" rx="0.0092" fill="#898989"/>
        </g>
        <g  id="_105553492948064" gorn="0.3.64">
            <rect  id="rect153" height="0.1491" gorn="0.3.64.0" y="1.4751" ry="0.0077" x="0.7847" width="0.0512" rx="0.0074" fill="#898989"/>
            <rect  id="rect155" height="0.1491" gorn="0.3.64.1" y="1.4751" ry="0.0077" x="0.9755" width="0.0512" rx="0.0074" fill="#898989"/>
        </g>
        <g  id="_105553492944704" gorn="0.3.65">
            <rect  id="rect158" height="0.1624" gorn="0.3.65.0" y="1.8846" ry="0.0049" x="0.1412" width="0.2624" rx="0.0034" fill="#2B2B2A"/>
            <rect  id="rect160" height="0.1624" gorn="0.3.65.1" y="1.8847" ry="0.0063" x="0.1412" width="0.0375" rx="0.0043" fill="#B3B3B4"/>
            <rect  id="rect162" height="0.1624" gorn="0.3.65.2" y="1.8847" ry="0.0063" x="0.3661" width="0.0375" rx="0.0043" fill="#B3B3B4"/>
            <path  id="path164" gorn="0.3.65.3" fill-rule="nonzero" d="M0.2723 1.9421c0.0059,0 0.0102,0.0024 0.013,0.0074 0.002,0.0038 0.0031,0.009 0.0031,0.0156 0,0.0063 -0.0009,0.0115 -0.0028,0.0156 -0.0027,0.0059 -0.0071,0.0089 -0.0133,0.0089 -0.0056,0 -0.0097,-0.0024 -0.0124,-0.0072 -0.0023,-0.004 -0.0034,-0.0095 -0.0034,-0.0162 0,-0.0053 0.0007,-0.0098 0.002,-0.0136 0.0026,-0.007 0.0071,-0.0105 0.0138,-0.0105zm-0.0001 0.0422c0.003,0 0.0053,-0.0013 0.0071,-0.004 0.0018,-0.0026 0.0027,-0.0076 0.0027,-0.0149 0,-0.0052 -0.0007,-0.0096 -0.0019,-0.013 -0.0013,-0.0034 -0.0038,-0.0051 -0.0075,-0.0051 -0.0034,0 -0.0059,0.0016 -0.0075,0.0048 -0.0016,0.0032 -0.0024,0.0079 -0.0024,0.0142 0,0.0047 0.0005,0.0085 0.0015,0.0114 0.0016,0.0044 0.0042,0.0065 0.008,0.0065z" fill="#DADADB"/>
        </g>
        <rect  stroke-width="0.0095" id="rect167" height="0.2374" stroke-miterlimit="22.9256" gorn="0.3.66" stroke="white" y="1.8472" x="1.3433" width="0.3846" fill="none"/>
        <rect  stroke-width="0.0095" id="rect169" height="0.1949" stroke-miterlimit="22.9256" gorn="0.3.67" stroke="white" y="1.4522" x="0.7479" width="0.3156" fill="none"/>
        <g  id="_105553493557920" gorn="0.3.68">
            <rect  id="rect171" height="0.1624" gorn="0.3.68.0" y="1.8846" ry="0.0049" x="0.9795" width="0.2624" rx="0.0034" fill="#2B2B2A"/>
            <rect  id="rect173" height="0.1624" gorn="0.3.68.1" y="1.8847" ry="0.0063" x="0.9797" width="0.0375" rx="0.0043" fill="#B3B3B4"/>
            <rect  id="rect175" height="0.1624" gorn="0.3.68.2" y="1.8847" ry="0.0063" x="1.2043" width="0.0375" rx="0.0043" fill="#B3B3B4"/>
            <path  id="path177" gorn="0.3.68.3" fill-rule="nonzero" d="M1.0418 1.9557l0 -0.0045c0.0042,-0.0004 0.0071,-0.001 0.0088,-0.002 0.0016,-0.0009 0.0028,-0.0032 0.0037,-0.0067l0.0046 0 0 0.046 -0.0062 0 0 -0.0327 -0.0108 0z" fill="#DADADB"/>
            <path  id="path179" gorn="0.3.68.4" fill-rule="nonzero" d="M1.0901 1.9422c0.0059,0 0.0102,0.0024 0.013,0.0074 0.002,0.0038 0.0031,0.009 0.0031,0.0156 0,0.0063 -0.0009,0.0115 -0.0028,0.0156 -0.0027,0.0059 -0.0071,0.0089 -0.0133,0.0089 -0.0056,0 -0.0097,-0.0024 -0.0124,-0.0072 -0.0023,-0.004 -0.0034,-0.0095 -0.0034,-0.0162 0,-0.0053 0.0007,-0.0098 0.002,-0.0136 0.0026,-0.007 0.0071,-0.0105 0.0138,-0.0105zm-0.0001 0.0422c0.003,0 0.0053,-0.0013 0.0071,-0.004 0.0018,-0.0026 0.0027,-0.0076 0.0027,-0.0149 0,-0.0052 -0.0007,-0.0096 -0.0019,-0.013 -0.0013,-0.0034 -0.0038,-0.0051 -0.0075,-0.0051 -0.0034,0 -0.0059,0.0016 -0.0075,0.0048 -0.0016,0.0032 -0.0024,0.0079 -0.0024,0.0142 0,0.0047 0.0005,0.0085 0.0015,0.0114 0.0016,0.0044 0.0042,0.0065 0.008,0.0065z" fill="#DADADB"/>
            <path  id="path181" gorn="0.3.68.5" fill-rule="nonzero" d="M1.1269 1.9422c0.0059,0 0.0102,0.0024 0.013,0.0074 0.002,0.0038 0.0031,0.009 0.0031,0.0156 0,0.0063 -0.0009,0.0115 -0.0028,0.0156 -0.0027,0.0059 -0.0071,0.0089 -0.0133,0.0089 -0.0056,0 -0.0097,-0.0024 -0.0124,-0.0072 -0.0023,-0.004 -0.0034,-0.0095 -0.0034,-0.0162 0,-0.0053 0.0007,-0.0098 0.002,-0.0136 0.0026,-0.007 0.0071,-0.0105 0.0138,-0.0105zm-0.0001 0.0422c0.003,0 0.0053,-0.0013 0.0071,-0.004 0.0018,-0.0026 0.0027,-0.0076 0.0027,-0.0149 0,-0.0052 -0.0007,-0.0096 -0.0019,-0.013 -0.0013,-0.0034 -0.0038,-0.0051 -0.0075,-0.0051 -0.0034,0 -0.0059,0.0016 -0.0075,0.0048 -0.0016,0.0032 -0.0024,0.0079 -0.0024,0.0142 0,0.0047 0.0005,0.0085 0.0015,0.0114 0.0016,0.0044 0.0042,0.0065 0.008,0.0065z" fill="#DADADB"/>
            <path  id="path183" gorn="0.3.68.6" fill-rule="nonzero" d="M1.1478 1.9884c0.0002,-0.004 0.0011,-0.0074 0.0025,-0.0104 0.0014,-0.003 0.0042,-0.0056 0.0083,-0.0081l0.0062 -0.0036c0.0028,-0.0016 0.0047,-0.003 0.0058,-0.0042 0.0018,-0.0018 0.0026,-0.0038 0.0026,-0.0061 0,-0.0027 -0.0008,-0.0048 -0.0024,-0.0064 -0.0016,-0.0016 -0.0038,-0.0024 -0.0065,-0.0024 -0.004,0 -0.0067,0.0015 -0.0083,0.0045 -0.0008,0.0016 -0.0013,0.0039 -0.0013,0.0067l-0.0059 0c0.0001,-0.004 0.0009,-0.0073 0.0022,-0.0099 0.0025,-0.0045 0.0069,-0.0067 0.0134,-0.0067 0.0053,0 0.0091,0.0014 0.0116,0.0043 0.0024,0.0028 0.0037,0.0061 0.0037,0.0096 0,0.0037 -0.0013,0.0069 -0.0039,0.0094 -0.0015,0.0015 -0.0042,0.0034 -0.0081,0.0056l-0.0044 0.0024c-0.0021,0.0012 -0.0038,0.0023 -0.0049,0.0034 -0.0022,0.0019 -0.0035,0.0039 -0.0041,0.0062l0.0253 0 0 0.0055 -0.0317 0z" fill="#DADADB"/>
        </g>
        <g  id="_105553493562400" gorn="0.3.69">
            <rect  id="rect186" height="0.1624" gorn="0.3.69.0" y="1.8846" ry="0.0049" x="1.4044" width="0.2624" rx="0.0034" fill="#2B2B2A"/>
            <rect  id="rect188" height="0.1624" gorn="0.3.69.1" y="1.8847" ry="0.0063" x="1.4045" width="0.0375" rx="0.0043" fill="#B3B3B4"/>
            <rect  id="rect190" height="0.1624" gorn="0.3.69.2" y="1.8847" ry="0.0063" x="1.6292" width="0.0375" rx="0.0043" fill="#B3B3B4"/>
            <path  id="path192" gorn="0.3.69.3" fill-rule="nonzero" d="M1.4666 1.9557l0 -0.0045c0.0042,-0.0004 0.0071,-0.001 0.0088,-0.002 0.0016,-0.0009 0.0028,-0.0032 0.0037,-0.0067l0.0046 0 0 0.046 -0.0062 0 0 -0.0327 -0.0108 0z" fill="#DADADB"/>
            <path  id="path194" gorn="0.3.69.4" fill-rule="nonzero" d="M1.515 1.9422c0.0059,0 0.0102,0.0024 0.013,0.0074 0.002,0.0038 0.0031,0.009 0.0031,0.0156 0,0.0063 -0.0009,0.0115 -0.0028,0.0156 -0.0027,0.0059 -0.0071,0.0089 -0.0133,0.0089 -0.0056,0 -0.0097,-0.0024 -0.0124,-0.0072 -0.0023,-0.004 -0.0034,-0.0095 -0.0034,-0.0162 0,-0.0053 0.0007,-0.0098 0.002,-0.0136 0.0026,-0.007 0.0071,-0.0105 0.0138,-0.0105zm-0.0001 0.0422c0.003,0 0.0053,-0.0013 0.0071,-0.004 0.0018,-0.0026 0.0027,-0.0076 0.0027,-0.0149 0,-0.0052 -0.0007,-0.0096 -0.0019,-0.013 -0.0013,-0.0034 -0.0038,-0.0051 -0.0075,-0.0051 -0.0034,0 -0.0059,0.0016 -0.0075,0.0048 -0.0016,0.0032 -0.0024,0.0079 -0.0024,0.0142 0,0.0047 0.0005,0.0085 0.0015,0.0114 0.0016,0.0044 0.0042,0.0065 0.008,0.0065z" fill="#DADADB"/>
            <path  id="path196" gorn="0.3.69.5" fill-rule="nonzero" d="M1.5517 1.9422c0.0059,0 0.0102,0.0024 0.013,0.0074 0.002,0.0038 0.0031,0.009 0.0031,0.0156 0,0.0063 -0.0009,0.0115 -0.0028,0.0156 -0.0027,0.0059 -0.0071,0.0089 -0.0133,0.0089 -0.0056,0 -0.0097,-0.0024 -0.0124,-0.0072 -0.0023,-0.004 -0.0034,-0.0095 -0.0034,-0.0162 0,-0.0053 0.0007,-0.0098 0.002,-0.0136 0.0026,-0.007 0.0071,-0.0105 0.0138,-0.0105zm-0.0001 0.0422c0.003,0 0.0053,-0.0013 0.0071,-0.004 0.0018,-0.0026 0.0027,-0.0076 0.0027,-0.0149 0,-0.0052 -0.0007,-0.0096 -0.0019,-0.013 -0.0013,-0.0034 -0.0038,-0.0051 -0.0075,-0.0051 -0.0034,0 -0.0059,0.0016 -0.0075,0.0048 -0.0016,0.0032 -0.0024,0.0079 -0.0024,0.0142 0,0.0047 0.0005,0.0085 0.0015,0.0114 0.0016,0.0044 0.0042,0.0065 0.008,0.0065z" fill="#DADADB"/>
            <path  id="path198" gorn="0.3.69.6" fill-rule="nonzero" d="M1.5726 1.9884c0.0002,-0.004 0.0011,-0.0074 0.0025,-0.0104 0.0014,-0.003 0.0042,-0.0056 0.0083,-0.0081l0.0062 -0.0036c0.0028,-0.0016 0.0047,-0.003 0.0058,-0.0042 0.0018,-0.0018 0.0026,-0.0038 0.0026,-0.0061 0,-0.0027 -0.0008,-0.0048 -0.0024,-0.0064 -0.0016,-0.0016 -0.0038,-0.0024 -0.0065,-0.0024 -0.004,0 -0.0067,0.0015 -0.0083,0.0045 -0.0008,0.0016 -0.0013,0.0039 -0.0013,0.0067l-0.0059 0c0.0001,-0.004 0.0009,-0.0073 0.0022,-0.0099 0.0025,-0.0045 0.0069,-0.0067 0.0134,-0.0067 0.0053,0 0.0091,0.0014 0.0116,0.0043 0.0024,0.0028 0.0037,0.0061 0.0037,0.0096 0,0.0037 -0.0013,0.0069 -0.0039,0.0094 -0.0015,0.0015 -0.0042,0.0034 -0.0081,0.0056l-0.0044 0.0024c-0.0021,0.0012 -0.0038,0.0023 -0.0049,0.0034 -0.0022,0.0019 -0.0035,0.0039 -0.0041,0.0062l0.0253 0 0 0.0055 -0.0317 0z" fill="#DADADB"/>
        </g>
        <g  id="_105553493569216" gorn="0.3.70">
            <rect  id="rect201" height="0.1062" gorn="0.3.70.0" y="1.4965" ry="0.0032" x="0.8057" width="0.1999" rx="0.0026" fill="#CC703D"/>
            <rect  id="rect203" height="0.1062" gorn="0.3.70.1" y="1.4965" ry="0.0041" x="0.8058" width="0.0286" rx="0.0033" fill="#B3B3B4"/>
            <rect  id="rect205" height="0.1062" gorn="0.3.70.2" y="1.4965" ry="0.0041" x="0.977" width="0.0286" rx="0.0033" fill="#B3B3B4"/>
        </g>
        <g  id="_105553493562848" gorn="0.3.71">
            <path  stroke-width="0.0132" id="path208" stroke-miterlimit="22.9256" gorn="0.3.71.0" stroke="white" d="M1.6471 0.6368c-0.0431,0 -0.0862,0 -0.1293,0 -0.0014,-0.0001 -0.002,-0.0008 -0.0021,-0.0022 0,-0.0389 0,-0.0777 0,-0.1166 -0,-0.0013 0.0006,-0.0019 0.0017,-0.002l0.1296 0" fill="none"/>
            <path  stroke-width="0.0132" id="path210" stroke-miterlimit="22.9256" gorn="0.3.71.1" stroke="white" d="M1.6014 0.4948c0.0516,0.0015 0.1033,0.003 0.155,0.0045 0.0018,0.0002 0.0022,0.0019 0.0023,0.0042 0,0.0488 0,0.0977 0,0.1465 0,0.0018 -0.0008,0.0034 -0.0026,0.0035l-0.1546 0.0045" fill="none"/>
        </g>
    </g>
</svg>
