<?xml version='1.0' encoding='UTF-8' standalone='no'?>
<svg
  xmlns="http://www.w3.org/2000/svg"
  xmlns:svg="http://www.w3.org/2000/svg"
  xmlns:rdf="http://www.w3.org/1999/02/22-rdf-syntax-ns#"
  xmlns:cc="http://creativecommons.org/ns#"
  xmlns:dc="http://purl.org/dc/elements/1.1/"
  id="svg2"
  y="0in"
  version="1.2"
  height="1.5251582in"
  width="1.2332622in"
  x="0in"
  viewBox="0 0 1233.2621 1525.1581">
  <metadata
    id="metadata24">
    <rdf:RDF>
      <cc:Work
        rdf:about="">
        <dc:format>image/svg+xml</dc:format>
        <dc:type
          rdf:resource="http://purl.org/dc/dcmitype/StillImage"
        />
      </cc:Work>
    </rdf:RDF>
  </metadata>
  <defs
    id="defs22"
  />
  <desc
    id="desc4">
    <referenceFile>lcd-1.3in-240-240-ips-st7789vw_1_breadboard.svg</referenceFile>
  </desc>
  <g
    id="breadboard">
    <text
      fill="#ffffff"
      font-family="OCRA"
      id="text380"
      font-size="70"
      y="1479.3556"
      x="339.12689"
      stroke-width="1.29758">IPS 240*240</text>
    <path
      id="rect393"
      d="M 11.64653,1517.9415 C 0.47799959,1501.6213 -1.4592904,1482.9932 0.87271959,1463.2978 V 102.20159 C 2.9136796,72.756256 8.4565596,47.513261 22.42047,32.375561 37.50081,11.859263 55.15426,-0.93760734 77.404,0.05374266 h 1089.5131 c 21.037,3.02453004 36.3283,11.79462034 46.5926,25.59178834 11.8691,11.290375 19.8208,26.106406 19.752,48.140745 l -9.876,1385.923824 c -0.6936,17.216 -3.2846,28.2025 -17.7788,47.6375 -8.4304,11.8277 -4.1011,10.4437 -38.6898,17.776 -337.31301,0.1999 -776.11898,-2.1905 -1100.28704,0 -22.95471,0.2497 -43.76569,-0.7272 -54.98353,-7.1843 z"
      fill="#003380"
      stroke="none"
      stroke-width="0"
    />
    <circle
      id="circle396"
      cx="-1432.8154"
      cy="99.852646"
      r="77.854813"
      fill="#ffffff"
      stroke="#999999"
      stroke-width="10"
      transform="rotate(-90)"
    />
    <ellipse
      id="circle398"
      cx="-1432.8153"
      cy="1128.2384"
      rx="77.854805"
      ry="77.854813"
      fill="#ffffff"
      stroke="#999999"
      stroke-width="10"
      transform="rotate(-90)"
    />
    <ellipse
      id="ellipse400"
      cx="-95.17765"
      cy="1128.2384"
      rx="77.854805"
      ry="77.854813"
      fill="#ffffff"
      stroke="#999999"
      stroke-width="10"
      transform="rotate(-90)"
    />
    <ellipse
      id="ellipse402"
      cx="-95.17765"
      cy="99.852646"
      rx="77.854805"
      ry="77.854813"
      fill="#ffffff"
      stroke="#999999"
      stroke-width="10"
      transform="rotate(-90)"
    />
    <rect
      id="rect404"
      width="995.61011"
      height="1159.3853"
      x="-1189.1816"
      y="40.630283"
      fill="#808080"
      stroke="#cccccc"
      stroke-width="9.99998"
      transform="rotate(-90)"
    />
    <rect
      id="rect406"
      width="110.82984"
      height="680.17889"
      x="-1305.2283"
      y="275.85278"
      fill="#4d4d4d"
      stroke="none"
      stroke-width="0"
      transform="rotate(-90)"
    />
    <text
      fill="#ffffff"
      font-family="OCRA"
      id="text3685"
      font-size="40"
      y="164.57899"
      x="265.46994"
      stroke-width="1.29758">GND</text>
    <text
      fill="#ffffff"
      font-family="OCRA"
      id="text419"
      font-size="40"
      y="164.58366"
      x="367.82159"
      transform="scale(1.0000284,0.9999716)"
      stroke-width="1.29758">VCC</text>
    <text
      fill="#ffffff"
      font-family="OCRA"
      id="text421"
      font-size="39.999"
      y="164.58157"
      x="466.26978"
      transform="scale(0.9999739,1.0000261)"
      stroke-width="1.29758">SCL</text>
    <text
      fill="#ffffff"
      font-family="OCRA"
      id="text423"
      font-size="39.9988"
      y="164.58086"
      x="564.69989"
      transform="scale(0.99996981,1.0000302)"
      stroke-width="1.29758">SDA</text>
    <text
      fill="#ffffff"
      font-family="OCRA"
      id="text425"
      font-size="40"
      y="164.58583"
      x="667.04474"
      stroke-width="1.29758">RES</text>
    <text
      fill="#ffffff"
      font-family="OCRA"
      id="text427"
      font-size="40"
      y="164.58583"
      x="781.21796"
      stroke-width="1.29758">DC</text>
    <text
      fill="#ffffff"
      font-family="OCRA"
      id="text429"
      font-size="39.999"
      y="164.58153"
      x="863.91791"
      transform="scale(0.9999739,1.0000261)"
      stroke-width="1.29758">BLK</text>
    <circle
      id="connector0pin"
      cx="-51.007915"
      cy="309.14743"
      fill="#ffffff"
      stroke="#999999"
      stroke-width="20"
      transform="rotate(-90)"
      r="29"
    />
    <circle
      id="connector1pin"
      cx="-51.007885"
      cy="409.25305"
      r="29"
      fill="#ffffff"
      stroke="#999999"
      stroke-width="20"
      transform="rotate(-90)"
    />
    <circle
      id="connector2pin"
      cx="-51.402264"
      cy="508.64746"
      r="29"
      fill="#ffffff"
      stroke="#999999"
      stroke-width="20"
      transform="rotate(-90)"
    />
    <ellipse
      id="connector3pin"
      cx="-51.402264"
      cy="609.64746"
      fill="#ffffff"
      stroke="#999999"
      stroke-width="20"
      transform="rotate(-90)"
      rx="29"
      ry="28.999998"
    />
    <circle
      id="connector4pin"
      cx="-51.402264"
      cy="709.64746"
      r="29"
      fill="#ffffff"
      stroke="#999999"
      stroke-width="20"
      transform="rotate(-90)"
    />
    <circle
      id="connector5pin"
      cx="-51.402264"
      cy="809.64746"
      r="29"
      fill="#ffffff"
      stroke="#999999"
      stroke-width="20"
      transform="rotate(-90)"
    />
    <circle
      id="connector6pin"
      cx="-51.402264"
      cy="909.64746"
      r="29"
      fill="#ffffff"
      stroke="#999999"
      stroke-width="20"
      transform="rotate(-90)"
    />
  </g>
</svg>
