<?xml version='1.0' encoding='UTF-8' standalone='no'?>
<svg
  xmlns:dc="http://purl.org/dc/elements/1.1/"
  xmlns:cc="http://creativecommons.org/ns#"
  xmlns:rdf="http://www.w3.org/1999/02/22-rdf-syntax-ns#"
  xmlns:svg="http://www.w3.org/2000/svg"
  xmlns="http://www.w3.org/2000/svg"
  viewBox="0 0 709.56199 310"
  x="0in"
  width="0.709562in"
  height="0.31in"
  version="1.2"
  y="0in"
  id="svg2">
  <metadata
    id="metadata41">
    <rdf:RDF>
      <cc:Work
        rdf:about="">
        <dc:format>image/svg+xml</dc:format>
        <dc:type
          rdf:resource="http://purl.org/dc/dcmitype/StillImage"
        />
        <dc:title/>
      </cc:Work>
    </rdf:RDF>
    <rdf:RDF>
      <cc:Work
        rdf:about="">
        <dc:title/>
      </cc:Work>
    </rdf:RDF>
  </metadata>
  <defs
    id="defs39"
  />
  <desc
    id="desc4">
    <referenceFile>0.9v-5V-booster-usb-output_1_schematic.svg</referenceFile>
  </desc>
  <g
    id="schematic">
    <rect
      fill="none"
      height="300"
      width="500"
      stroke-width="10"
      stroke="#000000"
      stroke-linejoin="round"
      stroke-linecap="round"
      id="symbol"
      x="105"
      y="5"
    />
    <text
      x="341.1694"
      y="83.582413"
      font-family="'Droid Sans'"
      font-size="60.055"
      fill="#000000"
      id="label"
      text-anchor="middle"
      transform="scale(1.0009168,0.99908403)"
      stroke-width="1">0.9-5V IN</text>
    <text
      x="75"
      y="85"
      text-anchor="end"
      font-family="'Droid Sans'"
      font-size="35"
      fill="#555555"
      id="pin0num">1</text>
    <text
      x="125"
      y="117"
      text-anchor="start"
      font-family="'Droid Sans'"
      font-size="49"
      fill="#555555"
      id="pin0label">-IN</text>
    <text
      x="75"
      y="185"
      text-anchor="end"
      font-family="'Droid Sans'"
      font-size="35"
      fill="#555555"
      id="pin1num">2</text>
    <text
      x="125"
      y="217"
      text-anchor="start"
      font-family="'Droid Sans'"
      font-size="49"
      fill="#555555"
      id="pin1label">+IN</text>
    <text
      x="634.56201"
      y="185"
      text-anchor="start"
      font-family="'Droid Sans'"
      font-size="35"
      fill="#555555"
      id="pin2num">3</text>
    <text
      x="584.56201"
      y="217"
      text-anchor="end"
      font-family="'Droid Sans'"
      font-size="49"
      fill="#555555"
      id="pin2label">+OUT</text>
    <text
      x="634.56201"
      y="85"
      text-anchor="start"
      font-family="'Droid Sans'"
      font-size="35"
      fill="#555555"
      id="pin3num">4</text>
    <text
      x="584.56201"
      y="117"
      text-anchor="end"
      font-family="'Droid Sans'"
      font-size="49"
      fill="#555555"
      id="pin3label">-OUT</text>
    <line
      fill="none"
      id="connector0pin"
      stroke="#555555"
      stroke-linecap="round"
      stroke-width="10"
      x1="105"
      x2="5"
      y1="105"
      y2="105"
    />
    <rect
      fill="none"
      id="connector0terminal"
      height="10"
      width="10"
      x="0"
      y="100"
      stroke="none"
      stroke-width="0"
    />
    <line
      fill="none"
      id="connector1pin"
      stroke="#555555"
      stroke-linecap="round"
      stroke-width="10"
      x1="105"
      x2="5"
      y1="205"
      y2="205"
    />
    <rect
      fill="none"
      id="connector1terminal"
      height="10"
      width="10"
      x="0"
      y="200"
      stroke="none"
      stroke-width="0"
    />
    <line
      fill="none"
      id="connector2pin"
      stroke="#555555"
      stroke-linecap="round"
      stroke-width="10"
      x1="604.56201"
      x2="704.56201"
      y1="205"
      y2="205"
    />
    <rect
      fill="none"
      id="connector2terminal"
      height="10"
      width="10"
      x="699.56201"
      y="200"
      stroke="none"
      stroke-width="0"
    />
    <line
      fill="none"
      id="connector3pin"
      stroke="#555555"
      stroke-linecap="round"
      stroke-width="10"
      x1="604.56201"
      x2="704.56201"
      y1="105"
      y2="105"
    />
    <rect
      fill="none"
      id="connector3terminal"
      height="10"
      width="10"
      x="699.56201"
      y="100"
      stroke="none"
      stroke-width="0"
    />
    <text
      x="341.1694"
      y="152.15108"
      font-family="'Droid Sans'"
      font-size="60.055"
      fill="#000000"
      id="text73"
      text-anchor="middle"
      transform="scale(1.0009168,0.99908403)"
      stroke-width="1">5V OUT</text>
    <text
      x="341.1694"
      y="211.53165"
      font-family="'Droid Sans'"
      font-size="60.055"
      fill="#000000"
      id="text75"
      text-anchor="middle"
      transform="scale(1.0009168,0.99908403)"
      stroke-width="1">Boost</text>
    <text
      x="341.1694"
      y="271.58667"
      font-family="'Droid Sans'"
      font-size="60.055"
      fill="#000000"
      id="text77"
      text-anchor="middle"
      transform="scale(1.0009168,0.99908403)"
      stroke-width="1">Inverter</text>
  </g>
</svg>
