<?xml version='1.0' encoding='UTF-8' standalone='no'?>
<svg xmlns="http://www.w3.org/2000/svg" x="0in" id="svg1774" y="0in"  gorn="0" viewBox="0 0 33.02 27.94" height="1.1in" version="1.1" width="1.3in">
    <desc >
        <referenceFile >WeMos-D1-mini_lite_schematic.svg</referenceFile>
    </desc>
    <metadata id="metadata1780" >
        <rdf:RDF xmlns:rdf="http://www.w3.org/1999/02/22-rdf-syntax-ns#">
            <cc:Work xmlns:rdf="http://www.w3.org/1999/02/22-rdf-syntax-ns#" xmlns:cc="http://creativecommons.org/ns#" rdf:about="">
                <dc:format xmlns:dc="http://purl.org/dc/elements/1.1/">image/svg+xml</dc:format>
                <dc:type xmlns:rdf="http://www.w3.org/1999/02/22-rdf-syntax-ns#" rdf:resource="http://purl.org/dc/dcmitype/StillImage" xmlns:dc="http://purl.org/dc/elements/1.1/"/>
                <dc:title xmlns:dc="http://purl.org/dc/elements/1.1/"/>
            </cc:Work>
        </rdf:RDF>
    </metadata>
    <defs id="defs1778" />
    <g id="g1043"  gorn="0.3">
        <line id="connector0pin-9" stroke-width="0.172663" y1="5.0428605"  y2="5.0428605" stroke="#000000" gorn="0.3.0" x1="2.6490858" x2="5.1222563" style="font-size:4px;font-family:Droid Sans;text-anchor:start;stroke-linecap:round;stroke:#000000;stroke-opacity:1"/>
        <line id="connector1pin-9" stroke-width="0.172663" y1="7.593473"  y2="7.593473" stroke="#000000" gorn="0.3.1" x1="2.6490858" x2="5.1222563" style="font-size:4px;font-family:Droid Sans;text-anchor:start;stroke-linecap:round;stroke:#000000;stroke-opacity:1"/>
        <line id="connector2pin-8" stroke-width="0.172663" y1="10.144084"  y2="10.144084" stroke="#000000" gorn="0.3.2" x1="2.6490858" x2="5.1222563" style="font-size:4px;font-family:Droid Sans;text-anchor:start;stroke-linecap:round;stroke:#000000;stroke-opacity:1"/>
        <line id="connector3pin-2" stroke-width="0.172663" y1="12.694695"  y2="12.694695" stroke="#000000" gorn="0.3.3" x1="2.6490858" x2="5.1222563" style="font-size:4px;font-family:Droid Sans;text-anchor:start;stroke-linecap:round;stroke:#000000;stroke-opacity:1"/>
        <line id="connector4pin-5" stroke-width="0.172663" y1="15.245307"  y2="15.245307" stroke="#000000" gorn="0.3.4" x1="2.6490858" x2="5.1222563" style="font-size:4px;font-family:Droid Sans;text-anchor:start;stroke-linecap:round;stroke:#000000;stroke-opacity:1"/>
        <line id="connector5pin-1" stroke-width="0.172663" y1="17.795918"  y2="17.795918" stroke="#000000" gorn="0.3.5" x1="2.6490858" x2="5.1222563" style="font-size:4px;font-family:Droid Sans;text-anchor:start;stroke-linecap:round;stroke:#000000;stroke-opacity:1"/>
        <line id="connector6pin-7" stroke-width="0.172663" y1="20.346531"  y2="20.346531" stroke="#000000" gorn="0.3.6" x1="2.6490858" x2="5.1222563" style="font-size:4px;font-family:Droid Sans;text-anchor:start;stroke-linecap:round;stroke:#000000;stroke-opacity:1"/>
        <line id="connector7pin-9" stroke-width="0.172663" y1="22.897141"  y2="22.897141" stroke="#000000" gorn="0.3.7" x1="2.6490858" x2="5.1222563" style="font-size:4px;font-family:Droid Sans;text-anchor:start;stroke-linecap:round;stroke:#000000;stroke-opacity:1"/>
    </g>
    <g  transform="translate(25.257654)">
        <g >
            <g >
                <g id="g1043-9"  gorn="0.4.0.0.0">
                    <line id="connector0pin-9-4" stroke-width="0.172663" y1="5.0428605"  stroke="#000000" y2="5.0428605" gorn="0.4.0.0.0.0" x1="2.6490858" x2="5.1222563" style="font-size:4px;font-family:Droid Sans;text-anchor:start;stroke:#000000;stroke-linecap:round;stroke-opacity:1"/>
                    <line id="connector1pin-9-0" stroke-width="0.172663" y1="7.593473"  stroke="#000000" y2="7.593473" gorn="0.4.0.0.0.1" x1="2.6490858" x2="5.1222563" style="font-size:4px;font-family:Droid Sans;text-anchor:start;stroke:#000000;stroke-linecap:round;stroke-opacity:1"/>
                    <line id="connector2pin-8-0" stroke-width="0.172663" y1="10.144084"  stroke="#000000" y2="10.144084" gorn="0.4.0.0.0.2" x1="2.6490858" x2="5.1222563" style="font-size:4px;font-family:Droid Sans;text-anchor:start;stroke:#000000;stroke-linecap:round;stroke-opacity:1"/>
                    <line id="connector3pin-2-8" stroke-width="0.172663" y1="12.694695"  stroke="#000000" y2="12.694695" gorn="0.4.0.0.0.3" x1="2.6490858" x2="5.1222563" style="font-size:4px;font-family:Droid Sans;text-anchor:start;stroke:#000000;stroke-linecap:round;stroke-opacity:1"/>
                    <line id="connector4pin-5-3" stroke-width="0.172663" y1="15.245307"  stroke="#000000" y2="15.245307" gorn="0.4.0.0.0.4" x1="2.6490858" x2="5.1222563" style="font-size:4px;font-family:Droid Sans;text-anchor:start;stroke:#000000;stroke-linecap:round;stroke-opacity:1"/>
                    <line id="connector5pin-1-9" stroke-width="0.172663" y1="17.795918"  stroke="#000000" y2="17.795918" gorn="0.4.0.0.0.5" x1="2.6490858" x2="5.1222563" style="font-size:4px;font-family:Droid Sans;text-anchor:start;stroke:#000000;stroke-linecap:round;stroke-opacity:1"/>
                    <line id="connector6pin-7-8" stroke-width="0.172663" y1="20.346531"  stroke="#000000" y2="20.346531" gorn="0.4.0.0.0.6" x1="2.6490858" x2="5.1222563" style="font-size:4px;font-family:Droid Sans;text-anchor:start;stroke:#000000;stroke-linecap:round;stroke-opacity:1"/>
                    <line id="connector7pin-9-7" stroke-width="0.172663" y1="22.897141"  stroke="#000000" y2="22.897141" gorn="0.4.0.0.0.7" x1="2.6490858" x2="5.1222563" style="font-size:4px;font-family:Droid Sans;text-anchor:start;stroke:#000000;stroke-linecap:round;stroke-opacity:1"/>
                </g>
            </g>
        </g>
    </g>
    <rect id="rect1695" x="5.23875" y="0.15875" class="interior rect" stroke-width="0.3175"  stroke="#000000" gorn="0.5" height="27.622499" fill="#ffffff" stroke-linecap="round" width="22.5425"/>
    <line id="connector0pin" stroke-width="0.172663" y1="5.0428596"  y2="5.0428596" stroke="#787878" gorn="0.6" x1="0.086331502" x2="2.5595019" style="font-size:4px;font-family:Droid Sans;text-anchor:start;stroke-linecap:round"/>
    <rect id="connector0terminal" x="0.197354" y="5.04269" stroke-width="0"  stroke="none" gorn="0.7" height="0.000345326" fill="none" width="0.00529167"/>
    <line id="connector1pin" stroke-width="0.172663" y1="7.5934711"  y2="7.5934711" stroke="#787878" gorn="0.8" x1="0.086331502" x2="2.5595019" style="font-size:4px;font-family:Droid Sans;text-anchor:start;stroke-linecap:round"/>
    <rect id="connector1terminal" x="0.197354" y="7.5933" stroke-width="0"  stroke="none" gorn="0.9" height="0.000345326" fill="none" width="0.00529167"/>
    <line id="connector2pin" stroke-width="0.172663" y1="10.144082"  y2="10.144082" stroke="#787878" gorn="0.10" x1="0.086331502" x2="2.5595019" style="font-size:4px;font-family:Droid Sans;text-anchor:start;stroke-linecap:round"/>
    <rect id="connector2terminal" x="0.197354" y="10.1439" stroke-width="0"  stroke="none" gorn="0.11" height="0.000345326" fill="none" width="0.00529167"/>
    <line id="connector3pin" stroke-width="0.172663" y1="12.694694"  y2="12.694694" stroke="#787878" gorn="0.12" x1="0.086331502" x2="2.5595019" style="font-size:4px;font-family:Droid Sans;text-anchor:start;stroke-linecap:round"/>
    <rect id="connector3terminal" x="0.197354" y="12.6945" stroke-width="0"  stroke="none" gorn="0.13" height="0.000345326" fill="none" width="0.00529167"/>
    <line id="connector4pin" stroke-width="0.172663" y1="15.245306"  y2="15.245306" stroke="#787878" gorn="0.14" x1="0.086331502" x2="2.5595019" style="font-size:4px;font-family:Droid Sans;text-anchor:start;stroke-linecap:round"/>
    <rect id="connector4terminal" x="0.197354" y="15.2451" stroke-width="0"  stroke="none" gorn="0.15" height="0.000345326" fill="none" width="0.00529167"/>
    <line id="connector5pin" stroke-width="0.172663" y1="17.795918"  y2="17.795918" stroke="#787878" gorn="0.16" x1="0.086331502" x2="2.5595019" style="font-size:4px;font-family:Droid Sans;text-anchor:start;stroke-linecap:round"/>
    <rect id="connector5terminal" x="0.197354" y="17.7957" stroke-width="0"  stroke="none" gorn="0.17" height="0.000345326" fill="none" width="0.00529167"/>
    <line id="connector6pin" stroke-width="0.172663" y1="20.346529"  y2="20.346529" stroke="#787878" gorn="0.18" x1="0.086331502" x2="2.5595019" style="font-size:4px;font-family:Droid Sans;text-anchor:start;stroke-linecap:round"/>
    <rect id="connector6terminal" x="0.197354" y="20.3464" stroke-width="0"  stroke="none" gorn="0.19" height="0.000345326" fill="none" width="0.00529167"/>
    <line id="connector7pin" stroke-width="0.172663" y1="22.897141"  y2="22.897141" stroke="#787878" gorn="0.20" x1="0.086331502" x2="2.5595019" style="font-size:4px;font-family:Droid Sans;text-anchor:start;stroke-linecap:round"/>
    <rect id="connector7terminal" x="0.197354" y="22.897" stroke-width="0"  stroke="none" gorn="0.21" height="0.000345326" fill="none" width="0.00529167"/>
    <line id="connector8pin" stroke-width="0.172663" y1="22.897141"  y2="22.897141" stroke="#787878" gorn="0.22" x1="30.460497" x2="32.933666" style="font-size:4px;font-family:Droid Sans;text-anchor:end;stroke-linecap:round"/>
    <rect id="connector8terminal" x="32.7715" y="22.897" stroke-width="0"  stroke="none" gorn="0.23" height="0.000345326" fill="none" width="0.00529166"/>
    <line id="connector9pin" stroke-width="0.172663" y1="20.346529"  y2="20.346529" stroke="#787878" gorn="0.24" x1="30.460497" x2="32.933666" style="font-size:4px;font-family:Droid Sans;text-anchor:end;stroke-linecap:round"/>
    <rect id="connector9terminal" x="32.7715" y="20.3464" stroke-width="0"  stroke="none" gorn="0.25" height="0.000345326" fill="none" width="0.00529166"/>
    <line id="connector10pin" stroke-width="0.172663" y1="17.795918"  y2="17.795918" stroke="#787878" gorn="0.26" x1="30.460497" x2="32.933666" style="font-size:4px;font-family:Droid Sans;text-anchor:end;stroke-linecap:round"/>
    <rect id="connector10terminal" x="32.7715" y="17.7957" stroke-width="0"  stroke="none" gorn="0.27" height="0.000345326" fill="none" width="0.00529166"/>
    <line id="connector11pin" stroke-width="0.172663" y1="15.245306"  y2="15.245306" stroke="#787878" gorn="0.28" x1="30.460497" x2="32.933666" style="font-size:4px;font-family:Droid Sans;text-anchor:end;stroke-linecap:round"/>
    <rect id="connector11terminal" x="32.7715" y="15.2451" stroke-width="0"  stroke="none" gorn="0.29" height="0.000345326" fill="none" width="0.00529166"/>
    <line id="connector12pin" stroke-width="0.172663" y1="12.694694"  y2="12.694694" stroke="#787878" gorn="0.30" x1="30.460497" x2="32.933666" style="font-size:4px;font-family:Droid Sans;text-anchor:end;stroke-linecap:round"/>
    <rect id="connector12terminal" x="32.7715" y="12.6945" stroke-width="0"  stroke="none" gorn="0.31" height="0.000345326" fill="none" width="0.00529166"/>
    <line id="connector13pin" stroke-width="0.172663" y1="10.144082"  y2="10.144082" stroke="#787878" gorn="0.32" x1="30.460497" x2="32.933666" style="font-size:4px;font-family:Droid Sans;text-anchor:end;stroke-linecap:round"/>
    <rect id="connector13terminal" x="32.7715" y="10.1439" stroke-width="0"  stroke="none" gorn="0.33" height="0.000345326" fill="none" width="0.00529166"/>
    <line id="connector14pin" stroke-width="0.172663" y1="7.5934711"  y2="7.5934711" stroke="#787878" gorn="0.34" x1="30.460497" x2="32.933666" style="font-size:4px;font-family:Droid Sans;text-anchor:end;stroke-linecap:round"/>
    <rect id="connector14terminal" x="32.7715" y="7.5933" stroke-width="0"  stroke="none" gorn="0.35" height="0.000345326" fill="none" width="0.00529166"/>
    <line id="connector15pin" stroke-width="0.172663" y1="5.0428596"  y2="5.0428596" stroke="#787878" gorn="0.36" x1="30.460497" x2="32.933666" style="font-size:4px;font-family:Droid Sans;text-anchor:end;stroke-linecap:round"/>
    <rect id="connector15terminal" x="32.7715" y="5.04269" stroke-width="0"  stroke="none" gorn="0.37" height="0.000345326" fill="none" width="0.00529166"/>
    <g id="g1102"  gorn="0.38">
        <text id="text1698" x="5.69736" y="5.3269" stroke-width="0"  stroke="none" gorn="0.38.0" font-size="1.12889" fill="#000000" style="font-family:Droid Sans;text-anchor:start;stroke-linecap:round">RST</text>
        <text id="text1702" x="5.69736" y="7.8669" stroke-width="0"  stroke="none" gorn="0.38.1" font-size="1.12889" fill="#000000" style="font-family:Droid Sans;text-anchor:start;stroke-linecap:round">A0</text>
        <text id="text1706" x="5.69736" y="10.4069" stroke-width="0"  stroke="none" gorn="0.38.2" font-size="1.12889" fill="#000000" style="font-family:Droid Sans;text-anchor:start;stroke-linecap:round">D0</text>
        <text id="text1710" x="5.69736" y="12.9469" stroke-width="0"  stroke="none" gorn="0.38.3" font-size="1.12889" fill="#000000" style="font-family:Droid Sans;text-anchor:start;stroke-linecap:round">D5</text>
        <text id="text1714" x="5.69736" y="15.4869" stroke-width="0"  stroke="none" gorn="0.38.4" font-size="1.12889" fill="#000000" style="font-family:Droid Sans;text-anchor:start;stroke-linecap:round">D6</text>
        <text id="text1718" x="5.69736" y="18.026899" stroke-width="0"  stroke="none" gorn="0.38.5" font-size="1.12889" fill="#000000" style="font-family:Droid Sans;text-anchor:start;stroke-linecap:round">D7</text>
        <text id="text1722" x="5.69736" y="20.5669" stroke-width="0"  stroke="none" gorn="0.38.6" font-size="1.12889" fill="#000000" style="font-family:Droid Sans;text-anchor:start;stroke-linecap:round">D8</text>
        <text id="text1726" x="5.69736" y="23.106899" stroke-width="0"  stroke="none" gorn="0.38.7" font-size="1.12889" fill="#000000" style="font-family:Droid Sans;text-anchor:start;stroke-linecap:round">3V3</text>
        <text id="text1732" x="27.322599" y="23.106899" stroke-width="0"  stroke="none" gorn="0.38.8" font-size="1.12889" fill="#000000" style="font-family:Droid Sans;text-anchor:end;stroke-linecap:round">5V</text>
        <text id="text1736" x="27.322599" y="20.5669" stroke-width="0"  stroke="none" gorn="0.38.9" font-size="1.12889" fill="#000000" style="font-family:Droid Sans;text-anchor:end;stroke-linecap:round">G</text>
        <text id="text1740" x="27.322599" y="18.026899" stroke-width="0"  stroke="none" gorn="0.38.10" font-size="1.12889" fill="#000000" style="font-family:Droid Sans;text-anchor:end;stroke-linecap:round">D4</text>
        <text id="text1744" x="27.322599" y="15.4869" stroke-width="0"  stroke="none" gorn="0.38.11" font-size="1.12889" fill="#000000" style="font-family:Droid Sans;text-anchor:end;stroke-linecap:round">D3</text>
        <text id="text1748" x="27.322599" y="12.9469" stroke-width="0"  stroke="none" gorn="0.38.12" font-size="1.12889" fill="#000000" style="font-family:Droid Sans;text-anchor:end;stroke-linecap:round">D2</text>
        <text id="text1752" x="27.322599" y="10.4069" stroke-width="0"  stroke="none" gorn="0.38.13" font-size="1.12889" fill="#000000" style="font-family:Droid Sans;text-anchor:end;stroke-linecap:round">D1</text>
        <text id="text1756" x="27.322599" y="7.8669" stroke-width="0"  stroke="none" gorn="0.38.14" font-size="1.12889" fill="#000000" style="font-family:Droid Sans;text-anchor:end;stroke-linecap:round">RX</text>
        <text id="text1760" x="27.322599" y="5.3269" stroke-width="0"  stroke="none" gorn="0.38.15" font-size="1.12889" fill="#000000" style="font-family:Droid Sans;text-anchor:end;stroke-linecap:round">TX</text>
        <g id="g1769" stroke-width="0"  stroke="none" gorn="0.38.16" font-size="1.12889" fill="#000000" style="font-family:Droid Sans;stroke-linecap:round" text-anchor="middle">
            <text id="text1767" x="16.52" y="14"  gorn="0.38.16.0">WeMos D1 mini Lite</text>
        </g>
    </g>
</svg>
