<?xml version='1.0' encoding='UTF-8' standalone='no'?>
<svg xmlns="http://www.w3.org/2000/svg" height="11.1mm" width="10.430124mm" gorn="0" viewBox="0 0 10.430124 11.1" id="svg1620"  version="1.1">
    <desc >
        <referenceFile >IV3A-SCH.svg</referenceFile>
    </desc>
    <defs id="defs1614" >
        <rect height="1.8965827" y="6.1888489" width="3.473741" gorn="0.1.0" id="rect231"  x="1.1179856"/>
        <rect height="1.6370504" y="143.57106" width="1.9365108" gorn="0.1.1" id="rect179"  x="93.047107"/>
        <rect height="3.5136691" y="140.63635" width="1.417446" gorn="0.1.2" id="rect173"  x="92.208618"/>
    </defs>
    <metadata id="metadata1617" >
        <rdf:RDF xmlns:rdf="http://www.w3.org/1999/02/22-rdf-syntax-ns#">
            <cc:Work xmlns:cc="http://creativecommons.org/ns#" rdf:about="" xmlns:rdf="http://www.w3.org/1999/02/22-rdf-syntax-ns#">
                <dc:format xmlns:dc="http://purl.org/dc/elements/1.1/">image/svg+xml</dc:format>
                <dc:type xmlns:dc="http://purl.org/dc/elements/1.1/" rdf:resource="http://purl.org/dc/dcmitype/StillImage" xmlns:rdf="http://www.w3.org/1999/02/22-rdf-syntax-ns#"/>
                <dc:title xmlns:dc="http://purl.org/dc/elements/1.1/"/>
            </cc:Work>
        </rdf:RDF>
    </metadata>
    <g transform="translate(-97.259517,-138.08095)" >
        <g >
            <g >
                <g >
                    <g >
                        <g >
                            <g >
                                <g gorn="0.3.0.0.0.0.0.0.0" id="layer1" >
                                    <circle stroke-opacity="1" fill="none" r="0.5" gorn="0.3.0.0.0.0.0.0.0.0" stroke="#000000" style="font-variation-settings:normal;vector-effect:none;fill-rule:evenodd;stroke-linecap:butt;stroke-linejoin:miter;stroke-miterlimit:4;stroke-dasharray:none;stroke-dashoffset:0;stop-color:#000000" cx="98.479393" id="connector7pin"  stroke-width="0.1" fill-opacity="1" cy="146.13095"/>
                                    <circle stroke-opacity="1" fill="none" r="0.5" stroke="#000000" style="font-variation-settings:normal;vector-effect:none;fill-rule:evenodd;stroke-linecap:butt;stroke-linejoin:miter;stroke-miterlimit:4;stroke-dasharray:none;stroke-dashoffset:0;stop-color:#000000" cx="100.30952"  stroke-width="0.1" fill-opacity="1" cy="147.96107"/>
                                    <circle stroke-opacity="1" fill="none" r="0.5" stroke="#000000" style="font-variation-settings:normal;vector-effect:none;fill-rule:evenodd;stroke-linecap:butt;stroke-linejoin:miter;stroke-miterlimit:4;stroke-dasharray:none;stroke-dashoffset:0;stop-color:#000000" cx="102.80952"  stroke-width="0.1" fill-opacity="1" cy="148.63095"/>
                                    <circle stroke-opacity="1" fill="none" r="0.5" stroke="#000000" style="font-variation-settings:normal;vector-effect:none;fill-rule:evenodd;stroke-linecap:butt;stroke-linejoin:miter;stroke-miterlimit:4;stroke-dasharray:none;stroke-dashoffset:0;stop-color:#000000" cx="97.809517"  stroke-width="0.1" fill-opacity="1" cy="143.63095"/>
                                    <circle stroke-opacity="1" fill="none" r="0.5" gorn="0.3.0.0.0.0.0.0.0.4" stroke="#000000" style="font-variation-settings:normal;vector-effect:none;fill-rule:evenodd;stroke-linecap:butt;stroke-linejoin:miter;stroke-miterlimit:4;stroke-dasharray:none;stroke-dashoffset:0;stop-color:#000000" cx="98.479393" id="connector5pin"  stroke-width="0.1" fill-opacity="1" cy="141.13095"/>
                                    <circle stroke-opacity="1" fill="none" r="0.5" stroke="#000000" style="font-variation-settings:normal;vector-effect:none;fill-rule:evenodd;stroke-linecap:butt;stroke-linejoin:miter;stroke-miterlimit:4;stroke-dasharray:none;stroke-dashoffset:0;stop-color:#000000" cx="100.30952"  stroke-width="0.1" fill-opacity="1" cy="139.30083"/>
                                    <circle stroke-opacity="1" fill="none" r="0.5" stroke="#000000" style="font-variation-settings:normal;vector-effect:none;fill-rule:evenodd;stroke-linecap:butt;stroke-linejoin:miter;stroke-miterlimit:4;stroke-dasharray:none;stroke-dashoffset:0;stop-color:#000000" cx="102.80952"  stroke-width="0.1" fill-opacity="1" cy="138.63095"/>
                                    <circle stroke-opacity="1" fill="none" r="0.5" stroke="#000000" style="font-variation-settings:normal;vector-effect:none;fill-rule:evenodd;stroke-linecap:butt;stroke-linejoin:miter;stroke-miterlimit:4;stroke-dasharray:none;stroke-dashoffset:0;stop-color:#000000" cx="105.30952"  stroke-width="0.1" fill-opacity="1" cy="139.30083"/>
                                    <circle stroke-opacity="1" fill="none" r="0.5" stroke="#000000" style="font-variation-settings:normal;vector-effect:none;fill-rule:evenodd;stroke-linecap:butt;stroke-linejoin:miter;stroke-miterlimit:4;stroke-dasharray:none;stroke-dashoffset:0;stop-color:#000000" cx="107.13964"  stroke-width="0.1" fill-opacity="1" cy="141.13095"/>
                                    <circle stroke-opacity="1" fill="none" r="0.5" gorn="0.3.0.0.0.0.0.0.0.9" stroke="#000000" style="font-variation-settings:normal;vector-effect:none;fill-rule:evenodd;stroke-linecap:butt;stroke-linejoin:miter;stroke-miterlimit:4;stroke-dasharray:none;stroke-dashoffset:0;stop-color:#000000" cx="107.13964" id="connector0pin"  stroke-width="0.1" fill-opacity="1" cy="146.13095"/>
                                    <circle stroke-opacity="1" fill="none" r="0.5" stroke="#000000" style="font-variation-settings:normal;vector-effect:none;fill-rule:evenodd;stroke-linecap:butt;stroke-linejoin:miter;stroke-miterlimit:4;stroke-dasharray:none;stroke-dashoffset:0;stop-color:#000000" cx="105.30952"  stroke-width="0.1" fill-opacity="1" cy="147.96107"/>
                                    <g xmlns:xml="http://www.w3.org/XML/1998/namespace" gorn="0.3.0.0.0.0.0.0.0.11" style="line-height:1.25;font-family:Droid Sans;-inkscape-font-specification:Droid Sans;font-weight:normal;font-style:normal;font-stretch:normal;font-variant:normal;" id="text2340"  stroke-width="0.132291" xml:space="preserve" font-size="0.199124"/>
                                    <g xmlns:xml="http://www.w3.org/XML/1998/namespace" gorn="0.3.0.0.0.0.0.0.0.12" style="line-height:1.25;font-family:Droid Sans;" id="text2344"  stroke-width="0.264583" xml:space="preserve" font-size="0.398247">
                                        <text y="147.07999" gorn="0.3.0.0.0.0.0.0.0.12.0" style="font-style:normal;font-variant:normal;font-weight:normal;font-stretch:normal;font-family:Droid Sans;-inkscape-font-specification:Droid Sans;" id="tspan2342"  stroke-width="0.264583" x="104.36868" font-size="0.398247">10 C</text>
                                    </g>
                                    <g xmlns:xml="http://www.w3.org/XML/1998/namespace" gorn="0.3.0.0.0.0.0.0.0.13" style="line-height:1.25;font-family:Droid Sans;" id="text2348"  stroke-width="0.264583" xml:space="preserve" font-size="0.398247">
                                        <text y="147.88318" gorn="0.3.0.0.0.0.0.0.0.13.0" style="font-style:normal;font-variant:normal;font-weight:normal;font-stretch:normal;font-family:Droid Sans;-inkscape-font-specification:Droid Sans;" id="tspan2346"  stroke-width="0.264583" x="101.81733" font-size="0.398247">9 GRI</text>
                                    </g>
                                    <g xmlns:xml="http://www.w3.org/XML/1998/namespace" gorn="0.3.0.0.0.0.0.0.0.14" style="line-height:1.25;font-family:Droid Sans;" id="text2352"  stroke-width="0.264583" xml:space="preserve" font-size="0.398247">
                                        <text y="147.12723" gorn="0.3.0.0.0.0.0.0.0.14.0" style="font-style:normal;font-variant:normal;font-weight:normal;font-stretch:normal;font-family:Droid Sans;-inkscape-font-specification:Droid Sans;" id="tspan2350"  stroke-width="0.264583" x="99.431366" font-size="0.398247">8 GND</text>
                                    </g>
                                    <g xmlns:xml="http://www.w3.org/XML/1998/namespace" gorn="0.3.0.0.0.0.0.0.0.15" style="font-style:normal;font-variant:normal;font-weight:normal;font-stretch:normal;line-height:1.25;font-family:Droid Sans;-inkscape-font-specification:Droid Sans;" id="text2356"  stroke-width="0.264583" xml:space="preserve" font-size="0.398247">
                                        <text y="145.59171" gorn="0.3.0.0.0.0.0.0.0.15.0" style="font-style:normal;font-variant:normal;font-weight:normal;font-stretch:normal;font-family:Droid Sans;-inkscape-font-specification:Droid Sans;" id="tspan2354"  stroke-width="0.264583" x="98.911652" font-size="0.398247">7 FIL</text>
                                    </g>
                                    <g xmlns:xml="http://www.w3.org/XML/1998/namespace" gorn="0.3.0.0.0.0.0.0.0.16" style="line-height:1.25;font-family:Droid Sans;" id="text2360"  stroke-width="0.264583" xml:space="preserve" font-size="0.199124"/>
                                    <g xmlns:xml="http://www.w3.org/XML/1998/namespace" gorn="0.3.0.0.0.0.0.0.0.17" style="line-height:1.25;font-family:Droid Sans;" id="text2364"  stroke-width="0.264583" xml:space="preserve" font-size="0.398247">
                                        <text y="141.5757" gorn="0.3.0.0.0.0.0.0.0.17.0" style="font-style:normal;font-variant:normal;font-weight:normal;font-stretch:normal;font-family:Droid Sans;-inkscape-font-specification:Droid Sans;" id="tspan2362"  stroke-width="0.264583" x="99.242371" font-size="0.398247">5 E</text>
                                    </g>
                                    <g xmlns:xml="http://www.w3.org/XML/1998/namespace" gorn="0.3.0.0.0.0.0.0.0.18" style="line-height:1.25;font-family:Droid Sans;" id="text2368"  stroke-width="0.264583" xml:space="preserve" font-size="0.398247">
                                        <text y="140.25279" gorn="0.3.0.0.0.0.0.0.0.18.0" style="font-style:normal;font-variant:normal;font-weight:normal;font-stretch:normal;font-family:Droid Sans;-inkscape-font-specification:Droid Sans;" id="tspan2366"  stroke-width="0.264583" x="100.5653" font-size="0.398247">4 F</text>
                                    </g>
                                    <g xmlns:xml="http://www.w3.org/XML/1998/namespace" gorn="0.3.0.0.0.0.0.0.0.19" style="line-height:1.25;font-family:Droid Sans;" id="text2372"  stroke-width="0.264583" xml:space="preserve" font-size="0.398247">
                                        <text y="139.87482" gorn="0.3.0.0.0.0.0.0.0.19.0" style="font-style:normal;font-variant:normal;font-weight:normal;font-stretch:normal;font-family:Droid Sans;-inkscape-font-specification:Droid Sans;" id="tspan2370"  stroke-width="0.264583" x="102.1953" font-size="0.398247">3 G</text>
                                    </g>
                                    <g xmlns:xml="http://www.w3.org/XML/1998/namespace" gorn="0.3.0.0.0.0.0.0.0.20" style="line-height:1.25;font-family:Droid Sans;" id="text2376"  stroke-width="0.264583" xml:space="preserve" font-size="0.398247">
                                        <text y="140.55991" gorn="0.3.0.0.0.0.0.0.0.20.0" style="font-style:normal;font-variant:normal;font-weight:normal;font-stretch:normal;font-family:Droid Sans;-inkscape-font-specification:Droid Sans;" id="tspan2374"  stroke-width="0.264583" x="104.51043" font-size="0.398247">2 A</text>
                                    </g>
                                    <g xmlns:xml="http://www.w3.org/XML/1998/namespace" gorn="0.3.0.0.0.0.0.0.0.21" style="line-height:1.25;font-family:Droid Sans;" id="text2380"  stroke-width="0.264583" xml:space="preserve" font-size="0.398247">
                                        <text y="141.93005" gorn="0.3.0.0.0.0.0.0.0.21.0" style="font-style:normal;font-variant:normal;font-weight:normal;font-stretch:normal;font-family:Droid Sans;-inkscape-font-specification:Droid Sans;" id="tspan2378"  stroke-width="0.264583" x="105.54986" font-size="0.398247">1 B</text>
                                    </g>
                                    <g xmlns:xml="http://www.w3.org/XML/1998/namespace" gorn="0.3.0.0.0.0.0.0.0.22" style="line-height:1.25;font-family:Droid Sans;" id="text169"  stroke-width="0.264583" xml:space="preserve" font-size="0.199124"/>
                                    <text xmlns:xml="http://www.w3.org/XML/1998/namespace" gorn="0.3.0.0.0.0.0.0.0.23" style="line-height:1.25;font-family:Droid Sans;font-size:0.70555554px;white-space:pre;shape-inside:url(#rect173);" id="text171"  xml:space="preserve"/>
                                    <g xmlns:xml="http://www.w3.org/XML/1998/namespace" gorn="0.3.0.0.0.0.0.0.0.24" style="font-style:normal;font-variant:normal;font-weight:normal;font-stretch:normal;line-height:1.25;font-family:Droid Sans;-inkscape-font-specification:Droid Sans;" id="text215"  stroke-width="0.264583" xml:space="preserve" font-size="0.398247">
                                        <text y="145.14822" gorn="0.3.0.0.0.0.0.0.0.24.0" style="font-style:normal;font-variant:normal;font-weight:normal;font-stretch:normal;font-family:Droid Sans;-inkscape-font-specification:Droid Sans;" id="tspan213"  stroke-width="0.264583" x="105.9239" font-size="0.398247">11 DP</text>
                                    </g>
                                    <g xmlns:xml="http://www.w3.org/XML/1998/namespace" gorn="0.3.0.0.0.0.0.0.0.25" style="line-height:1.25;font-family:Droid Sans;-inkscape-font-specification:Droid Sans;" id="text219"  stroke-width="0.264583" xml:space="preserve" font-size="0.199124"/>
                                    <g xmlns:xml="http://www.w3.org/XML/1998/namespace" gorn="0.3.0.0.0.0.0.0.0.26" style="line-height:1.25;font-family:Droid Sans;-inkscape-font-specification:Droid Sans;font-weight:normal;font-style:normal;font-stretch:normal;font-variant:normal;" id="text223"  stroke-width="0.264583" xml:space="preserve" font-size="0.199124"/>
                                    <g xmlns:xml="http://www.w3.org/XML/1998/namespace" gorn="0.3.0.0.0.0.0.0.0.27" style="line-height:1.25;font-family:Droid Sans;-inkscape-font-specification:Droid Sans;white-space:pre;inline-size:2.90624;" id="text227"  stroke-width="0.264583" xml:space="preserve" font-size="0.398247"/>
                                </g>
                            </g>
                        </g>
                    </g>
                </g>
            </g>
        </g>
    </g>
    <rect height="0.052916668" y="3.0235412" fill="none" width="0.052916668" gorn="0.4" stroke="#000000" id="connector1pin"  stroke-width="0.192437" x="9.8536654"/>
    <rect height="0.052916668" y="8.0235415" fill="none" width="0.052916668" gorn="0.5" stroke="#000000" id="connector11pin"  stroke-width="0.192437" x="9.8536654"/>
    <rect height="0.052916668" y="9.8536654" fill="none" width="0.052916668" gorn="0.6" stroke="#000000" id="connector10pin"  stroke-width="0.192437" x="8.0235415"/>
    <rect height="0.052916668" y="10.523541" fill="none" width="0.052916668" gorn="0.7" stroke="#000000" id="connector9pin"  stroke-width="0.192437" x="5.5235415"/>
    <rect height="0.000490707" y="10.5498" fill="none" width="0.000490707" gorn="0.8" stroke="none" id="connector9terminal"  stroke-width="0" x="5.57004"/>
    <rect height="0.052916668" y="9.8536654" fill="none" width="0.052916668" gorn="0.9" stroke="#000000" id="connector8pin"  stroke-width="0.192437" x="3.0235412"/>
    <rect height="0.052916668" y="8.0235415" fill="none" width="0.052916668" gorn="0.10" stroke="#000000" id="connector6terminal"  stroke-width="0.192437" x="1.1934173"/>
    <rect height="0.052916668" y="5.5235415" fill="none" width="0.052916668" gorn="0.11" stroke="#000000" id="connector6pin"  stroke-width="0.192437" x="0.52354127"/>
    <rect height="0.052916668" y="3.0235412" fill="none" width="0.052916668" gorn="0.12" stroke="#000000" id="connector4terminal"  stroke-width="0.192437" x="1.1934173"/>
    <rect height="0.052916668" y="1.1934173" fill="none" width="0.052916668" gorn="0.13" stroke="#000000" id="connector4pin"  stroke-width="0.192437" x="3.0235412"/>
    <rect height="0.052916668" y="0.52354127" fill="none" width="0.052916668" gorn="0.14" stroke="#000000" id="connector3pin"  stroke-width="0.192437" x="5.5235415"/>
    <rect height="0.052916668" y="1.1934173" fill="none" width="0.052916668" gorn="0.15" stroke="#000000" id="connector2pin"  stroke-width="0.192437" x="8.0235415"/>
    <text xmlns:xml="http://www.w3.org/XML/1998/namespace" gorn="0.16" style="line-height:1.25;font-family:Droid Sans;font-size:0.70555554px;-inkscape-font-specification:Droid Sans;white-space:pre;shape-inside:url(#rect231);" id="text229"  xml:space="preserve"/>
</svg>
