<?xml version='1.0' encoding='utf-8'?>
<!DOCTYPE svg>
<!-- Generator: Adobe Illustrator 15.1.0, SVG Export Plug-In . SVG Version: 6.00 Build 0)  -->
<svg xmlns="http://www.w3.org/2000/svg"  y="0px" height="1.10236in" xml:space="preserve" width="0.590556in" x="0px" version="1.1" xmlns:xml="http://www.w3.org/XML/1998/namespace" gorn="0" baseProfile="basic" viewBox="0 0 42.52 79.37" id="Layer_2">
    <desc >
        <referenceFile >NRF24L01_BREADBOARD_v5.svg</referenceFile>
    </desc>
    <font  horiz-adv-x="2048">
        <!-- Droid is a trademark of Google and may be registered in certain jurisdictions. -->
        <!-- Copyright: Copyright 2014 Adobe System Incorporated. All rights reserved. -->
        <font-face  font-family="DroidSans" underline-thickness="102" units-per-em="2048" underline-position="-154"/>
        <missing-glyph  horiz-adv-x="1229" d="M193,1462l841,0l0,-1462l-841,0M297,104l633,0l0,1254l-633,0z"/>
        <glyph  horiz-adv-x="1128" unicode="+" d="M489,647l-387,0l0,150l387,0l0,389l150,0l0,-389l387,0l0,-150l-387,0l0,-385l-150,0z"/>
        <glyph  horiz-adv-x="549" unicode="." d="M147,111C147,136 150,158 157,176C164,193 173,208 184,219C195,230 209,238 224,243C239,248 256,250 274,250C291,250 308,248 324,243C339,238 353,230 364,219C375,208 384,193 391,176C398,158 401,136 401,111C401,86 398,65 391,48C384,30 375,15 364,4C353,-7 339,-16 324,-21C308,-26 291,-29 274,-29C256,-29 239,-26 224,-21C209,-16 195,-7 184,4C173,15 164,30 157,48C150,65 147,86 147,111z"/>
        <glyph  horiz-adv-x="1128" unicode="0" d="M1032,733C1032,615 1024,509 1007,416C990,323 962,244 925,179C887,114 838,65 779,31C720,-3 648,-20 563,-20C484,-20 416,-3 358,31C299,65 251,114 213,179C174,244 146,323 127,416C108,509 98,615 98,733C98,851 107,957 124,1050C141,1143 168,1222 205,1287C242,1351 290,1400 349,1434C408,1468 479,1485 563,1485C642,1485 711,1468 770,1435C829,1401 877,1352 916,1288C955,1223 984,1144 1003,1051C1022,958 1032,852 1032,733M283,733C283,633 288,546 298,471C308,396 324,334 346,285C368,235 397,198 433,173C468,148 512,135 563,135C614,135 658,147 694,172C730,197 760,234 783,283C806,332 822,395 833,470C843,545 848,632 848,733C848,833 843,920 833,995C822,1070 806,1132 783,1181C760,1230 730,1267 694,1292C658,1317 614,1329 563,1329C512,1329 468,1317 433,1292C397,1267 368,1230 346,1181C324,1132 308,1070 298,995C288,920 283,833 283,733z"/>
        <glyph  horiz-adv-x="1128" unicode="1" d="M711,0l-176,0l0,913C535,942 535,972 536,1005C536,1038 537,1070 538,1103C539,1135 540,1166 541,1196C542,1225 542,1251 543,1274C532,1262 522,1252 513,1243C504,1234 496,1226 487,1218C478,1210 468,1202 458,1193C448,1184 436,1173 422,1161l-148,-121l-96,123l383,299l150,0z"/>
        <glyph  horiz-adv-x="1128" unicode="2" d="M1008,0l-912,0l0,156l350,381C496,591 541,640 580,685C619,730 653,773 681,816C708,859 729,902 744,945C759,988 766,1034 766,1085C766,1124 760,1159 749,1189C738,1219 722,1245 701,1266C680,1287 655,1302 626,1313C597,1324 565,1329 530,1329C467,1329 410,1316 359,1291C308,1265 259,1232 213,1192l-102,119C138,1335 166,1358 197,1379C228,1400 261,1418 296,1433C331,1448 369,1461 408,1470C447,1479 489,1483 532,1483C596,1483 654,1474 706,1456C757,1438 801,1412 837,1379C873,1345 901,1304 921,1256C940,1207 950,1153 950,1092C950,1035 941,981 924,930C906,879 882,828 851,779C820,729 783,679 740,629C697,579 650,527 600,473l-281,-299l0,-8l689,0z"/>
        <glyph  horiz-adv-x="1128" unicode="4" d="M1087,328l-213,0l0,-328l-176,0l0,328l-675,0l0,159l663,983l188,0l0,-976l213,0M698,494l0,356C698,887 699,927 700,968C701,1009 702,1049 703,1088C704,1127 706,1163 708,1197C709,1231 710,1259 711,1282l-9,0C697,1269 692,1254 685,1238C678,1221 670,1205 662,1189C653,1172 645,1156 636,1141C627,1126 619,1113 612,1102l-411,-608z"/>
        <glyph  horiz-adv-x="1128" unicode="6" d="M113,625C113,695 117,765 124,834C131,903 143,970 161,1034C178,1097 202,1156 233,1211C264,1266 303,1313 350,1354C397,1394 454,1426 520,1449C586,1472 663,1483 752,1483C765,1483 779,1483 794,1482C809,1481 825,1480 841,1479C856,1477 871,1475 886,1473C900,1470 913,1467 924,1464l0,-155C901,1317 874,1323 845,1327C816,1331 787,1333 758,1333C698,1333 645,1326 600,1312C554,1297 514,1277 481,1251C448,1225 420,1194 398,1158C375,1122 357,1082 343,1039C329,995 319,948 312,899C305,850 301,798 299,745l12,0C324,769 341,792 360,813C379,834 401,852 426,867C451,882 480,893 512,902C543,911 579,915 618,915C681,915 739,905 790,886C841,866 885,837 921,799C957,761 985,715 1005,660C1024,605 1034,542 1034,471C1034,395 1024,327 1003,266C982,205 953,154 914,112C875,69 829,37 774,14C719,-9 658,-20 590,-20C523,-20 461,-7 403,19C344,45 294,85 251,138C208,191 175,258 150,339C125,420 113,515 113,625M588,133C628,133 665,140 698,154C731,167 759,188 783,216C807,243 826,278 839,321C852,363 858,413 858,471C858,518 853,560 842,597C831,634 814,665 792,691C770,717 743,737 710,751C677,765 638,772 594,772C549,772 509,764 472,749C435,733 403,713 377,688C351,663 331,634 317,602C302,570 295,538 295,506C295,461 301,417 314,373C326,328 344,288 369,253C393,218 423,189 460,167C497,144 539,133 588,133z"/>
        <glyph  horiz-adv-x="1006" unicode="F" d="M385,0l-186,0l0,1462l759,0l0,-164l-573,0l0,-516l535,0l0,-164l-535,0z"/>
        <glyph  horiz-adv-x="1006" unicode="L" d="M199,0l0,1462l186,0l0,-1296l573,0l0,-166z"/>
        <glyph  horiz-adv-x="1493" unicode="N" d="M1294,0l-215,0l-719,1210l-8,0C356,1159 359,1108 362,1057C365,1014 367,968 369,921C370,874 371,831 371,793l0,-793l-172,0l0,1462l213,0l716,-1204l7,0C1133,309 1131,359 1128,408C1127,429 1127,451 1126,474C1125,496 1124,518 1123,541C1122,563 1121,584 1121,605C1120,626 1120,645 1120,662l0,800l174,0z"/>
        <glyph  horiz-adv-x="1208" unicode="R" d="M385,604l0,-604l-186,0l0,1462l356,0C732,1462 863,1428 948,1359C1033,1290 1075,1186 1075,1047C1075,989 1067,938 1051,895C1034,852 1013,815 986,784C959,753 928,727 893,706C858,685 823,668 786,655l398,-655l-219,0l-351,604M385,762l164,0C609,762 660,768 702,780C744,791 779,809 806,832C833,855 852,883 865,918C877,952 883,992 883,1038C883,1086 876,1127 863,1160C849,1193 828,1221 801,1242C773,1263 738,1279 696,1289C653,1298 603,1303 545,1303l-160,0z"/>
    </font>
    <path  fill="#161617" d="M0,0v79.37h42.52V0H0z M12.315,66.343c0.661,0,1.197,0.536,1.197,1.196c0,0.661-0.536,1.197-1.197,1.197s-1.197-0.536-1.197-1.197C11.119,66.879,11.654,66.343,12.315,66.343z M5.117,66.343c0.661,0,1.197,0.536,1.197,1.196c0,0.661-0.536,1.197-1.197,1.197S3.92,68.2,3.92,67.539C3.92,66.879,4.456,66.343,5.117,66.343z M5.117,75.936c-0.662,0-1.198-0.536-1.198-1.197s0.536-1.197,1.198-1.197s1.198,0.536,1.198,1.197S5.778,75.936,5.117,75.936z M12.315,75.936c-0.661,0-1.197-0.536-1.197-1.197s0.536-1.197,1.197-1.197s1.197,0.536,1.197,1.197S12.977,75.936,12.315,75.936z M19.516,75.937c-0.662,0-1.198-0.536-1.198-1.198s0.537-1.198,1.198-1.198s1.198,0.536,1.198,1.198S20.177,75.937,19.516,75.937z M19.516,68.736c-0.662,0-1.198-0.537-1.198-1.199c0-0.661,0.537-1.197,1.198-1.197s1.198,0.536,1.198,1.197C20.714,68.199,20.177,68.736,19.516,68.736z M26.717,75.931c-0.658,0-1.192-0.534-1.192-1.192s0.534-1.192,1.192-1.192s1.192,0.534,1.192,1.192S27.375,75.931,26.717,75.931z M26.717,68.73c-0.658,0-1.192-0.534-1.192-1.192s0.534-1.192,1.192-1.192s1.192,0.534,1.192,1.192S27.375,68.73,26.717,68.73z" gorn="0.2" id="Board"/>
    <g  gorn="0.3" id="Antenna">
        <polygon  points="13.406,12.375 18.344,12.375 18.344,2.125 19.656,2.125 19.656,12.375 24.563,12.375 24.563,2.125 26.094,2.125 26.094,12.375 30.969,12.375 30.969,2.125 41.25,2.125 41.25,0.542 29.292,0.542 29.292,10.958 27.75,10.958 27.75,0.542 22.958,0.542 22.958,10.958 21.5,10.958 21.5,0.542 16.625,0.542 16.625,10.958 15.042,10.958 15.042,0.542 10.417,0.542 10.417,23.292 11.958,23.292 12.125,23.292 12.125,18.625 30.792,18.625 30.792,16.542 12.125,16.542 12.125,2.042 13.417,2.042 " fill="#D6C45B"/>
        <circle  cx="40" r="0.604" cy="4.063" fill="#D6C45B"/>
    </g>
    <g  gorn="0.4" id="silkscreen">
        <path  stroke="#FFFFFF" stroke-width="0.6" stroke-miterlimit="10" fill="none" d="M25.917,30.958v4.271h-3.188 M17.453,30.958v4.458 M17.667,27.521v3.438 M21.854,27.521v3.438 M26.396,27.521v3.438 M8.844,27.521v3.438h21.875v-3.438 M13.229,27.521v3.438 M9.25,30.958v4.458h2.875 M21.375,39.685v-4.268h-8.042v4.268"/>
        <rect  stroke="#FFFFFF" y="63.959" stroke-width="0.6" height="14.333" stroke-miterlimit="10" width="27.833" x="2" fill="none"/>
        <path  fill="none" d="M8.667,78.292"/>
        <polyline  stroke="#FFFFFF" points="2,71.125 8.667,71.125 8.667,78.292 " stroke-width="0.5" stroke-miterlimit="10" fill="none"/>
        <path  stroke="#FFFFFF" stroke-width="0.6" stroke-miterlimit="10" fill="none" d="M32.813,67.959v-2.958h4.146v2.958 M32.813,69.917v3.375h4.146v-3.375"/>
        <g >
            <g >
                <path  stroke="#FFFFFF" stroke-width="0.6" stroke-miterlimit="10" fill="none" d="M4.219,57.875H1.25v-4.344h2.969 M1.25,57.875v4.5h2.969"/>
            </g>
            <g >
                <path  stroke="#FFFFFF" stroke-width="0.6" stroke-miterlimit="10" fill="none" d="M5.979,57.875h3.187v-4.344H5.979 M9.166,57.875v4.5H5.979"/>
            </g>
        </g>
        <path  stroke="#FFFFFF" stroke-width="0.6" stroke-miterlimit="10" fill="none" d="M6.021,47.563h3.042v4.271H6.042 M4.333,47.563H1.375v4.271h2.958"/>
        <path  stroke="#FFFFFF" stroke-width="0.6" stroke-miterlimit="10" fill="none" d="M6.042,41.25h3.021v4.271H6.042 M4.313,41.25H1.375v4.271h2.958"/>
        <path  stroke="#FFFFFF" stroke-width="0.6" stroke-miterlimit="10" fill="none" d="M5.875,22.188h2.969v4.396H5.875 M4.021,22.188H1v4.396h3.021"/>
        <path  stroke="#FFFFFF" stroke-width="0.6" stroke-miterlimit="10" fill="none" d="M17.656,25.906v-3.25 M13.313,25.906v-3.25 M21.906,25.906v-3.25h-9.281 M26.438,22.656h-4.531H26.438z M30.719,25.906v-3.25h-4.281v3.25"/>
        <path  stroke="#FFFFFF" stroke-width="0.6" stroke-miterlimit="10" fill="none" d="M28.484,45.25v3.375h-4.079v-3.391 M28.484,43.527v-3.152h-4.079v3.175"/>
        <path  stroke="#FFFFFF" stroke-width="0.6" stroke-miterlimit="10" fill="none" d="M37.874,27.694v3.264H33.67v-3.279 M37.874,26.028v-3.049H33.67v3.071"/>
        <g >
            <polyline  stroke="#FFFFFF" points="12.771,52.792 11.25,52.792 11.25,51.188 " stroke-width="0.4" stroke-miterlimit="10" fill="none"/>
            <polyline  stroke="#FFFFFF" points="20.792,41.114 22.313,41.114 22.313,42.719 " stroke-width="0.4" stroke-miterlimit="10" fill="none"/>
            <polyline  stroke="#FFFFFF" points="22.303,51.271 22.303,52.792 20.698,52.792 " stroke-width="0.4" stroke-miterlimit="10" fill="none"/>
            <polyline  stroke="#FFFFFF" points="11.25,42.635 11.25,41.114 12.855,41.114 " stroke-width="0.4" stroke-miterlimit="10" fill="none"/>
        </g>
        <path  stroke="#FFFFFF" stroke-width="0.5" stroke-miterlimit="10" fill="none" d="M41.938,57.524c0,3.462-2.784,6.268-6.219,6.268l0,0c-3.435,0-6.219-2.806-6.219-6.268V38.112c0-3.461,2.784-6.268,6.219-6.268l0,0c3.435,0,6.219,2.807,6.219,6.268V57.524z"/>
    </g>
    <g >
        <rect  y="25.156" height="3.813" width="2.125" x="27.469" fill="#95825D"/>
        <rect  y="25.156" height="0.858" width="2.125" x="27.469" fill="#999999"/>
        <rect  y="28.11" height="0.858" width="2.126" x="27.468" fill="#999999"/>
    </g>
    <g >
        <rect  y="48.802" height="2.125" width="3.813" x="3.182" fill="#95825D"/>
        <rect  y="48.802" height="2.125" width="0.858" x="6.136" fill="#999999"/>
        <rect  y="48.801" height="2.126" width="0.858" x="3.182" fill="#999999"/>
    </g>
    <g >
        <rect  y="55.021" height="2.125" width="3.813" x="3.182" fill="#95825D"/>
        <rect  y="55.021" height="2.125" width="0.858" x="6.136" fill="#999999"/>
        <rect  y="55.02" height="2.126" width="0.858" x="3.182" fill="#999999"/>
    </g>
    <g >
        <rect  y="59.177" height="2.125" width="3.813" x="3.182" fill="#95825D"/>
        <rect  y="59.177" height="2.125" width="0.858" x="6.136" fill="#999999"/>
        <rect  y="59.176" height="2.126" width="0.858" x="3.182" fill="#999999"/>
    </g>
    <g >
        <rect  y="42.361" height="2.056" width="4.301" x="3.074" fill="#020202"/>
        <rect  y="42.361" height="2.056" width="1.115" x="3.074" fill="#999999"/>
        <rect  y="42.361" height="2.056" width="0.687" x="6.688" fill="#999999"/>
    </g>
    <g >
        <rect  y="42.775" height="4.037" width="2.063" x="25.417" fill="#020202"/>
        <rect  y="45.767" height="1.046" width="2.063" x="25.417" fill="#999999"/>
        <rect  y="42.775" height="0.646" width="2.063" x="25.417" fill="#999999"/>
    </g>
    <g >
        <rect  y="67.36" height="3.948" width="2.125" x="33.698" fill="#D6B987"/>
        <rect  y="67.36" height="0.889" width="2.125" x="33.698" fill="#999999"/>
        <rect  y="70.42" height="0.889" width="2.126" x="33.697" fill="#999999"/>
    </g>
    <g >
        <rect  y="25.276" height="3.948" width="2.125" x="23.03" fill="#D6B987"/>
        <rect  y="25.276" height="0.889" width="2.125" x="23.03" fill="#999999"/>
        <rect  y="28.335" height="0.889" width="2.126" x="23.029" fill="#999999"/>
    </g>
    <g >
        <rect  y="25.276" height="3.948" width="2.125" x="18.636" fill="#D6B987"/>
        <rect  y="25.276" height="0.889" width="2.125" x="18.636" fill="#999999"/>
        <rect  y="28.335" height="0.889" width="2.126" x="18.635" fill="#999999"/>
    </g>
    <g >
        <rect  y="25.088" height="3.948" width="2.125" x="9.822" fill="#D6B987"/>
        <rect  y="25.088" height="0.889" width="2.125" x="9.822" fill="#999999"/>
        <rect  y="28.148" height="0.889" width="2.126" x="9.821" fill="#999999"/>
    </g>
    <g >
        <rect  y="25.276" height="3.948" width="2.125" x="34.71" fill="#D6B987"/>
        <rect  y="25.276" height="0.889" width="2.125" x="34.71" fill="#999999"/>
        <rect  y="28.335" height="0.889" width="2.126" x="34.709" fill="#999999"/>
    </g>
    <g >
        <rect  stroke="#B7B7B7" y="36.841" stroke-width="0.01" height="2.125" stroke-miterlimit="10" width="4.12" x="14.942" fill="#EFEFEF"/>
        <rect  y="36.841" height="2.125" width="0.927" x="18.135" fill="#999999"/>
        <rect  y="36.84" height="2.126" width="0.927" x="14.942" fill="#999999"/>
    </g>
    <g >
        <rect  stroke="#B7B7B7" y="32.25" stroke-width="0.01" height="2.125" stroke-miterlimit="10" width="3.948" x="11.026" fill="#EFEFEF"/>
        <rect  y="32.25" height="2.125" width="0.889" x="14.086" fill="#999999"/>
        <rect  y="32.249" height="2.126" width="0.889" x="11.026" fill="#999999"/>
    </g>
    <g >
        <rect  stroke="#B7B7B7" y="32.369" stroke-width="0.01" height="2.1" stroke-miterlimit="10" width="3.948" x="19.698" fill="#EFEFEF"/>
        <rect  y="32.369" height="2.1" width="0.889" x="22.758" fill="#999999"/>
        <rect  y="32.368" height="2.101" width="0.889" x="19.698" fill="#999999"/>
    </g>
    <g >
        <path  fill="#4C504A" d="M41.125,56.54c0,3.132-2.421,5.669-5.406,5.669l0,0c-2.985,0-5.406-2.537-5.406-5.669V38.981c0-3.131,2.421-5.669,5.406-5.669l0,0c2.985,0,5.406,2.539,5.406,5.669V56.54z"/>
        <path  fill="#979894" d="M40.656,56.273c0,3.025-2.225,5.477-4.969,5.477l0,0c-2.744,0-4.969-2.451-4.969-5.477V39.311c0-3.025,2.225-5.478,4.969-5.478l0,0c2.744,0,4.969,2.453,4.969,5.478V56.273z"/>
        <g  transform="matrix(0 1 -1 0 33.6992 38.9668)">
            <g >
                <g >
                    <g >
                        <text  font-family="DroidSans" font-size="6" display="none" fill="#6D6D6C">16.000</text>
                    </g>
                </g>
            </g>
        </g>
    </g>
    <g  gorn="0.20" id="NRF24L01_x2B_">
        <g >
            <g >
                <rect  y="40.677" height="0.875" width="6.25" x="13.792" fill="#999999"/>
                <rect  y="43.864" height="6.25" width="0.875" x="10.813" fill="#999999"/>
                <rect  y="43.864" height="6.25" width="0.875" x="21.875" fill="#999999"/>
                <rect  y="52.239" height="0.874" width="6.25" x="13.792" fill="#999999"/>
            </g>
            <rect  y="41.552" height="10.688" width="10.188" x="11.688"/>
        </g>
        <g  transform="matrix(0 -1 1 0 16.7813 51.708)">
            <g >
                <g >
                    <g >
                        <g >
                            <text  font-family="DroidSans" font-size="2.7" y="0" x="0" fill="#272211">NRF</text>
                            <text  font-family="DroidSans" font-size="2.7" y="2.5" x="0" fill="#272211">24L01+</text>
                        </g>
                    </g>
                </g>
            </g>
        </g>
        <circle  cx="13.001" r="0.417" cy="50.771" fill="#272211"/>
    </g>
    <g  gorn="0.21" id="copper1">
        <g  gorn="0.21.0" id="copper0">
            <path  fill="#9A916C" d="M5.117,65.146c-1.322,0-2.393,1.07-2.393,2.393s1.07,2.394,2.393,2.394s2.393-1.071,2.393-2.394S6.439,65.146,5.117,65.146z M5.117,68.735c-0.662,0-1.197-0.535-1.197-1.197c0-0.66,0.535-1.197,1.197-1.197c0.66,0,1.197,0.537,1.197,1.197C6.314,68.2,5.777,68.735,5.117,68.735z" gorn="0.21.0.0" id="connector9pin"/>
            <path  fill="#9A916C" d="M12.316,65.146c-1.322,0-2.395,1.07-2.395,2.393s1.072,2.394,2.395,2.394c1.32,0,2.393-1.071,2.393-2.394S13.636,65.146,12.316,65.146z M12.316,68.735c-0.662,0-1.197-0.535-1.197-1.197c0-0.66,0.535-1.197,1.197-1.197c0.66,0,1.195,0.537,1.195,1.197C13.511,68.2,12.976,68.735,12.316,68.735z" gorn="0.21.0.1" id="connector11pin"/>
            <path  fill="#9A916C" d="M19.515,65.146c-1.322,0-2.393,1.07-2.393,2.393s1.07,2.394,2.393,2.394s2.393-1.071,2.393-2.394S20.837,65.146,19.515,65.146z M19.517,68.735c-0.662,0-1.197-0.535-1.197-1.197c0-0.66,0.535-1.197,1.197-1.197c0.66,0,1.195,0.537,1.195,1.197C20.712,68.2,20.177,68.735,19.517,68.735z" gorn="0.21.0.2" id="connector13pin"/>
            <path  fill="#9A916C" d="M26.717,65.146c-1.322,0-2.393,1.07-2.393,2.393s1.07,2.394,2.393,2.394s2.393-1.071,2.393-2.394S28.039,65.146,26.717,65.146z M26.717,68.735c-0.662,0-1.197-0.535-1.197-1.197c0-0.66,0.535-1.197,1.197-1.197c0.66,0,1.197,0.537,1.197,1.197C27.914,68.2,27.377,68.735,26.717,68.735z" gorn="0.21.0.3" id="connector15pin"/>
            <path  fill="#9A916C" d="M5.117,72.344c-1.322,0-2.393,1.072-2.393,2.394c0,1.322,1.07,2.394,2.393,2.394s2.393-1.071,2.393-2.394C7.509,73.416,6.439,72.344,5.117,72.344z M5.117,75.935c-0.661,0-1.197-0.536-1.197-1.196c0-0.662,0.536-1.197,1.197-1.197s1.197,0.535,1.197,1.197C6.314,75.398,5.778,75.935,5.117,75.935z" gorn="0.21.0.4" id="connector8pin"/>
            <path  fill="#9A916C" d="M12.316,72.344c-1.322,0-2.394,1.072-2.394,2.394c0,1.322,1.071,2.394,2.394,2.394c1.321,0,2.393-1.071,2.393-2.394C14.708,73.416,13.637,72.344,12.316,72.344z M12.316,75.935c-0.661,0-1.197-0.536-1.197-1.196c0-0.662,0.536-1.197,1.197-1.197s1.196,0.535,1.196,1.197C13.512,75.398,12.977,75.935,12.316,75.935z" gorn="0.21.0.5" id="connector10pin"/>
            <path  fill="#9A916C" d="M19.515,72.344c-1.321,0-2.393,1.072-2.393,2.394c0,1.322,1.071,2.394,2.393,2.394c1.322,0,2.394-1.071,2.394-2.394C21.909,73.416,20.837,72.344,19.515,72.344z M19.517,75.935c-0.661,0-1.197-0.536-1.197-1.196c0-0.662,0.536-1.197,1.197-1.197s1.196,0.535,1.196,1.197C20.713,75.398,20.178,75.935,19.517,75.935z" gorn="0.21.0.6" id="connector12pin"/>
            <path  fill="#9A916C" d="M26.717,72.344c-1.322,0-2.393,1.072-2.393,2.394c0,1.322,1.07,2.394,2.393,2.394s2.393-1.071,2.393-2.394C29.109,73.416,28.039,72.344,26.717,72.344z M26.717,75.935c-0.662,0-1.197-0.536-1.197-1.196c0-0.662,0.535-1.197,1.197-1.197c0.66,0,1.197,0.535,1.197,1.197C27.914,75.398,27.377,75.935,26.717,75.935z" gorn="0.21.0.7" id="connector14pin"/>
        </g>
    </g>
</svg>
