<?xml version="1.0" encoding="UTF-8" standalone="no"?>
<svg
   xmlns:dc="http://purl.org/dc/elements/1.1/"
   xmlns:cc="http://creativecommons.org/ns#"
   xmlns:rdf="http://www.w3.org/1999/02/22-rdf-syntax-ns#"
   xmlns:svg="http://www.w3.org/2000/svg"
   xmlns="http://www.w3.org/2000/svg"
   id="svg28"
   viewBox="0 0 870 1170"
   width="8.7mm"
   version="1.2"
   height="11.7mm">
  <metadata
     id="metadata34">
    <rdf:RDF>
      <cc:Work
         rdf:about="">
        <dc:format>image/svg+xml</dc:format>
        <dc:type
           rdf:resource="http://purl.org/dc/dcmitype/StillImage" />
        <dc:title></dc:title>
        <cc:license
           rdf:resource="http://creativecommons.org/licenses/by-sa/4.0/" />
        <dc:creator>
          <cc:Agent>
            <dc:title>Florian Zschocke</dc:title>
          </cc:Agent>
        </dc:creator>
        <dc:description>Based on work by Peter van Epp</dc:description>
      </cc:Work>
      <cc:License
         rdf:about="http://creativecommons.org/licenses/by-sa/4.0/">
        <cc:permits
           rdf:resource="http://creativecommons.org/ns#Reproduction" />
        <cc:permits
           rdf:resource="http://creativecommons.org/ns#Distribution" />
        <cc:requires
           rdf:resource="http://creativecommons.org/ns#Notice" />
        <cc:requires
           rdf:resource="http://creativecommons.org/ns#Attribution" />
        <cc:permits
           rdf:resource="http://creativecommons.org/ns#DerivativeWorks" />
        <cc:requires
           rdf:resource="http://creativecommons.org/ns#ShareAlike" />
      </cc:License>
    </rdf:RDF>
  </metadata>
  <defs
     id="defs32" />
  <desc id="desc4">Fritzing PCB footprint SVG</desc>

  <g id="silkscreen">
    <line id="line1"  x1="190" y1="85"  x2="680" y2="85"   stroke-width="26" stroke="#000000" />
    <line id="line2"  x1="78"  y1="190" x2="78"  y2="570"  stroke-width="26" stroke="#000000" />
    <line id="line3"  x1="788" y1="190" x2="793" y2="570"  stroke-width="26" stroke="#000000" />
    <line id="line4"  x1="65"  y1="557" x2="805" y2="557"  stroke-width="26" stroke="#000000" />

    <line id="lineK5" x1="273" y1="570"  x2="273" y2="1170" stroke-width="26" stroke="#000000" />
    <line id="lineK6" x1="597" y1="570"  x2="597" y2="1170" stroke-width="26" stroke="#000000" />
    <line id="lineK7" x1="260" y1="1157" x2="610" y2="1157" stroke-width="26" stroke="#000000" />
  </g>

  <g id="copper1">
    <g id="copper0">
      <circle id="connector0pin" gorn="4.0.0" cx="210" cy="335" r="75" fill="none" stroke="#f7bd13" stroke-width="50" />
      <circle id="connector1pin" gorn="4.0.1" cx="660" cy="335" r="75" fill="none" stroke="#f7bd13" stroke-width="50" />

      <circle id="nonconn2pad" gorn="4.0.2" cx="85"  cy="85"  r="75" fill="none" stroke="#f7bd13" stroke-width="20" />
      <circle id="nonconn3pad" gorn="4.0.3" cx="785" cy="85"  r="75" fill="none" stroke="#f7bd13" stroke-width="20" />
    </g>
  </g>
</svg>
