<?xml version="1.0" encoding="UTF-8" standalone="no"?>
<svg
   xmlns:dc="http://purl.org/dc/elements/1.1/"
   xmlns:cc="http://creativecommons.org/ns#"
   xmlns:rdf="http://www.w3.org/1999/02/22-rdf-syntax-ns#"
   xmlns:svg="http://www.w3.org/2000/svg"
   xmlns="http://www.w3.org/2000/svg"
   xmlns:sodipodi="http://sodipodi.sourceforge.net/DTD/sodipodi-0.dtd"
   xmlns:inkscape="http://www.inkscape.org/namespaces/inkscape"
   width="31.561094mm"
   height="27.025381mm"
   viewBox="0 0 31.561094 27.025381"
   version="1.1"
   id="svg15750"
   inkscape:version="1.0.1 (3bc2e813f5, 2020-09-07)"
   sodipodi:docname="omronrelay2icon.svg">
  <defs
     id="defs15744" />
  <sodipodi:namedview
     id="base"
     pagecolor="#ffffff"
     bordercolor="#666666"
     borderopacity="1.0"
     inkscape:pageopacity="0.0"
     inkscape:pageshadow="2"
     inkscape:zoom="1.4"
     inkscape:cx="121.08838"
     inkscape:cy="142.30309"
     inkscape:document-units="mm"
     inkscape:current-layer="layer1"
     inkscape:document-rotation="0"
     showgrid="false"
     inkscape:window-width="1697"
     inkscape:window-height="977"
     inkscape:window-x="147"
     inkscape:window-y="33"
     inkscape:window-maximized="0" />
  <metadata
     id="metadata15747">
    <rdf:RDF>
      <cc:Work
         rdf:about="">
        <dc:format>image/svg+xml</dc:format>
        <dc:type
           rdf:resource="http://purl.org/dc/dcmitype/StillImage" />
        <dc:title></dc:title>
      </cc:Work>
    </rdf:RDF>
  </metadata>
  <g
     inkscape:label="Layer 1"
     inkscape:groupmode="layer"
     id="layer1"
     transform="translate(-73.421836,-35.624213)">
    <rect
       style="opacity:0;fill:#000000;fill-rule:evenodd;stroke:#000000;stroke-width:1.323;stroke-miterlimit:4.1;stroke-dasharray:none"
       id="rect15752"
       width="30.238094"
       height="25.702381"
       x="74.083336"
       y="36.285713" />
    <text
       xml:space="preserve"
       style="font-style:normal;font-variant:normal;font-weight:normal;font-stretch:normal;font-size:24.7171px;line-height:125%;font-family:Arial;-inkscape-font-specification:'Arial, Normal';font-variant-ligatures:normal;font-variant-caps:normal;font-variant-numeric:normal;font-variant-east-asian:normal;letter-spacing:0px;word-spacing:0px;writing-mode:lr-tb;fill:none;stroke:#000000;stroke-width:0.272488px;stroke-linecap:butt;stroke-linejoin:miter;stroke-opacity:1"
       x="100.02691"
       y="46.578262"
       id="text16585"
       transform="scale(0.76904086,1.300321)"><tspan
         id="tspan16587"
         sodipodi:role="line"
         x="100.02691"
         y="46.578262"
         style="stroke-width:0.272488px"
         transform="matrix(1,-0.0303366,0,1,0,3.7916883)">R2</tspan></text>
  </g>
</svg>
