<?xml version='1.0' encoding='UTF-8' standalone='no'?>
<svg
  xmlns="http://www.w3.org/2000/svg"
  xmlns:svg="http://www.w3.org/2000/svg"
  xmlns:rdf="http://www.w3.org/1999/02/22-rdf-syntax-ns#"
  xmlns:cc="http://creativecommons.org/ns#"
  xmlns:dc="http://purl.org/dc/elements/1.1/"
  shape-rendering="crispEdges"
  viewBox="0 0 120.00003 220.00001"
  x="0in"
  width="0.12000003in"
  height="0.22000001in"
  version="1.2"
  y="0in"
  id="svg2">
  <metadata
    id="metadata27">
    <rdf:RDF>
      <cc:Work
        rdf:about="">
        <dc:format>image/svg+xml</dc:format>
        <dc:type
          rdf:resource="http://purl.org/dc/dcmitype/StillImage"
        />
      </cc:Work>
    </rdf:RDF>
  </metadata>
  <defs
    id="defs25"
  />
  <desc
    id="desc4">
    <referenceFile>Sinopts-gas-orkli-solenoid-valve_1_pcb.svg</referenceFile>
  </desc>
  <g
    id="silkscreen">
    <rect
      id="rect454"
      width="110.00002"
      height="210.00002"
      x="5"
      y="5"
      fill="none"
      stroke="#000000"
      stroke-width="10"
    />
  </g>
  <g
    id="copper1">
    <g
      id="copper0">
      <rect
        stroke-width="20"
        stroke="#ffbf00"
        fill="none"
        id="square"
        gorn="0.2.0.0"
        x="29.234497"
        height="58"
        width="58"
        y="32.431747"
      />
      <circle
        stroke-width="20"
        stroke="#ffbf00"
        fill="none"
        id="connector0pin"
        gorn="0.2.0.1"
        cx="58.234497"
        cy="61.431747"
        r="29"
      />
      <circle
        stroke-width="20"
        stroke="#ffbf00"
        fill="none"
        id="connector1pin"
        gorn="0.2.0.2"
        cx="58.234497"
        cy="161.43176"
        r="29"
      />
    </g>
  </g>
</svg>
