<?xml version='1.0' encoding='UTF-8' standalone='no'?>
<svg
  xmlns:dc="http://purl.org/dc/elements/1.1/"
  xmlns:cc="http://creativecommons.org/ns#"
  xmlns:rdf="http://www.w3.org/1999/02/22-rdf-syntax-ns#"
  xmlns:svg="http://www.w3.org/2000/svg"
  xmlns="http://www.w3.org/2000/svg"
  version="1.2"
  y="0px"
  gorn="0"
  height="1.358224in"
  x="0px"
  id="Layer_1"
  xml:space="preserve"
  viewBox="0 0 2283.4696 1358.2245"
  width="2.2834687in">
  <metadata
    id="metadata207">
    <rdf:RDF>
      <cc:Work
        rdf:about="">
        <dc:format>image/svg+xml</dc:format>
        <dc:type
          rdf:resource="http://purl.org/dc/dcmitype/StillImage"
        />
        <dc:title/>
      </cc:Work>
    </rdf:RDF>
  </metadata>
  <defs
    id="defs205">
  </defs>
  <desc
    id="desc2">
    <referenceFile>prefix001_72958abe3e5d8c35430886eaa1ad20e5_1_breadboard.svg</referenceFile>
  </desc>
  <desc
    id="desc4">Fritzing
    breadboard
    generated
    by
    brd2svg</desc>
  <g
    id="breadboard">
    <rect
      id="rect514"
      width="2283.4695"
      height="1358.2245"
      x="0"
      y="-1.7347235e-018"
      fill="#ff2a2a"
      stroke-width="10.41651154"
    />
    <line
      id="line94"
      x1="238.30734"
      y2="10.409554"
      y1="1348.9495"
      x2="238.30734"
      fill="none"
      stroke="#ffffff"
      stroke-width="4.99992657"
      stroke-linecap="round"
    />
    <line
      id="line96"
      x1="238.30734"
      y2="10.409554"
      y1="10.409554"
      x2="2049.3391"
      fill="none"
      stroke="#ffffff"
      stroke-width="4.99992657"
      stroke-linecap="round"
    />
    <line
      id="line98"
      x1="2049.3391"
      y2="1348.9495"
      y1="10.409554"
      x2="2049.3391"
      fill="none"
      stroke="#ffffff"
      stroke-width="4.99992657"
      stroke-linecap="round"
    />
    <line
      id="line100"
      x1="2049.3391"
      y2="1348.9495"
      y1="1348.9495"
      x2="238.30734"
      fill="none"
      stroke="#ffffff"
      stroke-width="4.99992657"
      stroke-linecap="round"
    />
    <ellipse
      id="connector7pin"
      gorn="0.2.0.2"
      cx="2194.1775"
      cy="319.69028"
      rx="27.500061"
      ry="27.499126"
      fill="#e6aa50"
      stroke="#9a916c"
      stroke-width="14.9997797"
    />
    <ellipse
      id="connector6pin"
      gorn="0.2.0.3"
      cx="2194.1775"
      cy="419.68814"
      rx="27.500061"
      ry="27.499126"
      fill="#e6aa50"
      stroke="#9a916c"
      stroke-width="14.9997797"
    />
    <ellipse
      id="connector5pin"
      gorn="0.2.0.4"
      cx="2194.1775"
      cy="519.68427"
      rx="27.500061"
      ry="27.499126"
      fill="#e6aa50"
      stroke="#9a916c"
      stroke-width="14.9997797"
    />
    <ellipse
      id="connector4pin"
      gorn="0.2.0.5"
      cx="2194.1775"
      cy="619.68213"
      rx="27.500061"
      ry="27.499126"
      fill="#e6aa50"
      stroke="#9a916c"
      stroke-width="14.9997797"
    />
    <ellipse
      id="connector3pin"
      gorn="0.2.0.6"
      cx="2194.1775"
      cy="719.67828"
      rx="27.500061"
      ry="27.499126"
      fill="#e6aa50"
      stroke="#9a916c"
      stroke-width="14.9997797"
    />
    <ellipse
      id="connector2pin"
      gorn="0.2.0.7"
      cx="2194.1775"
      cy="819.67438"
      rx="27.500061"
      ry="27.499126"
      fill="#e6aa50"
      stroke="#9a916c"
      stroke-width="14.9997797"
    />
    <ellipse
      id="connector1pin"
      gorn="0.2.0.8"
      cx="2194.1775"
      cy="919.67224"
      rx="27.500061"
      ry="27.499126"
      fill="#e6aa50"
      stroke="#9a916c"
      stroke-width="14.9997797"
    />
    <ellipse
      id="connector0pin"
      gorn="0.2.0.9"
      cx="2194.1775"
      cy="1019.6685"
      rx="27.500061"
      ry="27.499126"
      fill="#e6aa50"
      stroke="#9a916c"
      stroke-width="14.9997797"
    />
    <ellipse
      id="connector11pin"
      gorn="0.2.0.10"
      cx="93.662201"
      cy="519.68427"
      rx="27.500061"
      ry="27.499126"
      fill="#ffffff"
      stroke="#9a916c"
      stroke-width="14.9997797"
    />
    <ellipse
      id="connector10pin"
      gorn="0.2.0.11"
      cx="93.662201"
      cy="619.68213"
      rx="27.500061"
      ry="27.499126"
      fill="#ffffff"
      stroke="#9a916c"
      stroke-width="14.9997797"
    />
    <rect
      id="rect160"
      y="10.409554"
      height="1338.5408"
      x="241.65459"
      width="1804.3374"
      fill="#dcdcdc"
      stroke-width="13.88868332"
    />
    <rect
      id="rect162"
      y="35.407742"
      height="59.053677"
      x="1843.6443"
      width="59.055683"
      fill="#282828"
      stroke-width="13.88868332"
    />
    <rect
      id="rect164"
      y="1264.8965"
      height="59.053677"
      x="1843.6443"
      width="59.055683"
      fill="#282828"
      stroke-width="13.88868332"
    />
    <rect
      id="rect166"
      y="35.407742"
      height="78.733612"
      x="267.23798"
      width="236.22273"
      fill="#282828"
      stroke-width="13.88868332"
    />
    <rect
      id="rect168"
      y="1245.2031"
      height="78.733612"
      x="267.23798"
      width="236.22273"
      fill="#282828"
      stroke-width="13.88868332"
    />
    <rect
      id="rect170"
      y="267.24768"
      height="78.73629"
      x="-758.42078"
      width="236.21471"
      transform="rotate(-90)"
      fill="#282828"
      stroke-width="13.88868332"
    />
    <polygon
      id="polygon176"
      points="144.156,18.089 133.13,18.089 133.13,2.92 16.795,2.92 16.795,94.28 133.13,94.28 133.13,86.41 144.156,86.41 "
      transform="matrix(13.88892,0,0,13.888448,43.8208,4.7012341)"
      fill="#0a0a0a"
    />
    <rect
      id="rect178"
      y="-1762.9301"
      height="1426.7948"
      x="104.30407"
      width="1150.7412"
      transform="rotate(90)"
      stroke-width="13.88868332"
    />
    <rect
      id="rect184"
      y="127.91884"
      height="1103.5066"
      x="359.76593"
      width="1379.5308"
      fill="#333333"
      stroke-width="13.88868332"
    />
    <rect
      id="rect186"
      y="275.60904"
      height="749.33728"
      x="1892.8528"
      width="153.13922"
      fill="#e6aa50"
      stroke-width="13.88868332"
    />
    <text
      id="text188"
      font-size="133.33137512"
      x="752.80817"
      y="628.74908"
      transform="scale(1.000017,0.999983)"
      font-family="DroidSans"
      fill="#ffffff"
      stroke-width="13.88868332">1.8" TFT</text>
    <text
      id="text194"
      font-size="133.33137512"
      x="732.46265"
      y="828.74371"
      transform="scale(1.000017,0.999983)"
      font-family="DroidSans"
      fill="#ffffff"
      stroke-width="13.88868332">160x128</text>
    <ellipse
      cy="719.67828"
      cx="93.662201"
      gorn="0.2.0.11"
      id="connector9pin"
      rx="27.500061"
      ry="27.499126"
      fill="#ffffff"
      stroke="#9a916c"
      stroke-width="14.9997797"
    />
    <ellipse
      id="connector8pin"
      gorn="0.2.0.11"
      cx="93.662201"
      cy="819.67438"
      rx="27.500061"
      ry="27.499126"
      fill="#ffffff"
      stroke="#9a916c"
      stroke-width="14.9997797"
    />
    <ellipse
      cy="113.75235"
      cx="113.43798"
      gorn="0.2.0.10"
      id="circle522"
      rx="55.492241"
      ry="55.49036"
      fill="#ffffff"
      stroke-width="0"
    />
    <ellipse
      ry="55.49036"
      rx="55.492241"
      id="ellipse524"
      gorn="0.2.0.10"
      cx="116.17678"
      cy="1269.4858"
      fill="#ffffff"
      stroke-width="0"
    />
    <ellipse
      cy="1272.2256"
      cx="2183.9707"
      gorn="0.2.0.10"
      id="ellipse526"
      rx="55.492241"
      ry="55.49036"
      fill="#ffffff"
      stroke-width="0"
    />
    <ellipse
      ry="55.49036"
      rx="55.492241"
      id="ellipse528"
      gorn="0.2.0.10"
      cx="2183.9707"
      cy="105.5349"
      fill="#ffffff"
      stroke-width="0"
    />
    <text
      id="text3685"
      font-size="30"
      y="1032.0885"
      x="2151.6499"
      font-family="OCRA"
      text-anchor="end"
      fill="#ffffff"
      stroke-width="1.00000048">VCC</text>
    <text
      x="2151.6499"
      y="932.22437"
      font-size="30"
      id="text82"
      font-family="OCRA"
      text-anchor="end"
      fill="#ffffff"
      stroke-width="1.00000048">GND</text>
    <text
      id="text84"
      font-size="30"
      y="732.2243"
      x="2160.009"
      font-family="OCRA"
      text-anchor="end"
      fill="#ffffff"
      stroke-width="1.00000048">RESET</text>
    <text
      x="2150.0601"
      y="632.22424"
      font-size="30"
      id="text86"
      font-family="OCRA"
      text-anchor="end"
      fill="#ffffff"
      stroke-width="1.00000048">A0</text>
    <text
      id="text88"
      font-size="30"
      y="532.22424"
      x="2151.6499"
      font-family="OCRA"
      text-anchor="end"
      fill="#ffffff"
      stroke-width="1.00000048">SDA</text>
    <text
      x="2151.6499"
      y="432.22418"
      font-size="30"
      id="text90"
      font-family="OCRA"
      text-anchor="end"
      fill="#ffffff"
      stroke-width="1.00000048">SCK</text>
    <text
      id="text92"
      font-size="30"
      y="332.22415"
      x="2151.6499"
      font-family="OCRA"
      text-anchor="end"
      fill="#ffffff"
      stroke-width="1.00000048">LED</text>
    <text
      id="text94"
      font-size="30"
      y="832.2243"
      x="2149.9702"
      font-family="OCRA"
      text-anchor="end"
      fill="#ffffff"
      stroke-width="1.00000048">CS</text>
    <text
      x="92.341034"
      y="780.69928"
      font-size="25"
      id="text96"
      font-family="OCRA"
      text-anchor="middle"
      fill="#ffffff"
      stroke-width="1.00000048">SD_CS</text>
    <text
      id="text98"
      font-size="25"
      y="680.69928"
      x="93.407433"
      font-family="OCRA"
      text-anchor="middle"
      fill="#ffffff"
      stroke-width="1.00000048">SD_MOSI</text>
    <text
      x="93.407433"
      y="580.69922"
      font-size="25"
      id="text100"
      font-family="OCRA"
      text-anchor="middle"
      fill="#ffffff"
      stroke-width="1.00000048">SD_MISO</text>
    <text
      id="text102"
      font-size="25"
      y="480.69919"
      x="93.407433"
      font-family="OCRA"
      text-anchor="middle"
      fill="#ffffff"
      stroke-width="1.00000048">SD_SCK</text>
  </g>
</svg>
