<?xml version='1.0' encoding='UTF-8' standalone='no'?>
<svg xmlns="http://www.w3.org/2000/svg" viewBox="0 0 143.709 73.746" gorn="0" xmlns:xml="http://www.w3.org/XML/1998/namespace" id="PCB_1_" x="0 " width="1.99596in" version="1.2" y="0 " height="1.02425in"  xml:space="preserve">
    <desc>
        <referenceFile>WifiKit32_ea5d850812650b450a251151c594786c_CM2_pcb.svg</referenceFile>
    </desc>
    <metadata id="metadata6159" >
        <rdf:RDF xmlns:rdf="http://www.w3.org/1999/02/22-rdf-syntax-ns#">
            <cc:Work rdf:about="" xmlns:cc="http://creativecommons.org/ns#" xmlns:rdf="http://www.w3.org/1999/02/22-rdf-syntax-ns#">
                <dc:format xmlns:dc="http://purl.org/dc/elements/1.1/">image/svg+xml</dc:format>
                <dc:type rdf:resource="http://purl.org/dc/dcmitype/StillImage" xmlns:rdf="http://www.w3.org/1999/02/22-rdf-syntax-ns#" xmlns:dc="http://purl.org/dc/elements/1.1/"/>
            </cc:Work>
        </rdf:RDF>
    </metadata>
    <defs id="defs6157" />
    <g gorn="0.2" id="pcb" >
        <g gorn="0.2.0" id="silkscreen" >
            <polygon gorn="0.2.0.0" stroke-width="0.25" id="polygon5752" points="134.2,61.2 134.2,73.7 4.8,73.8 0,69 0,4.7 4.7,0 134.2,0    134.2,12.5 143.7,22 143.7,51.7  " stroke="#000000"  fill="none"/>
            <g gorn="0.2.0.1" id="Pin_Lables_1_" >
                <g transform="matrix(-1 0 0 -1 10.7051 71.8154)" >
                    <g gorn="0.2.0.1.0.0" id="g5762" >
                        <g gorn="0.2.0.1.0.0.0" id="g5760" >
                            <g gorn="0.2.0.1.0.0.0.0" id="g5758" >
                                <g gorn="0.2.0.1.0.0.0.0.0" id="g5756" >
                                    <g transform="matrix(1 0 0 1 2.187500e-05 9.458750e-04)" >
                                        <text font-size="1.6" font-family="'OCRA'" gorn="0.2.0.1.0.0.0.0.0.0.0" id="text5754" >GND</text>
                                    </g>
                                </g>
                            </g>
                        </g>
                    </g>
                </g>
                <g transform="matrix(-1 0 0 -1 17.1895 71.8154)" >
                    <g gorn="0.2.0.1.1.0" id="g5772" >
                        <g gorn="0.2.0.1.1.0.0" id="g5770" >
                            <g gorn="0.2.0.1.1.0.0.0" id="g5768" >
                                <g gorn="0.2.0.1.1.0.0.0.0" id="g5766" >
                                    <g transform="matrix(1 0 0 1 4.787500e-05 9.458750e-04)" >
                                        <text font-size="1.6" font-family="'OCRA'" gorn="0.2.0.1.1.0.0.0.0.0.0" id="text5764" >3V3</text>
                                    </g>
                                </g>
                            </g>
                        </g>
                    </g>
                </g>
                <g transform="matrix(-1 0 0 -1 25.1016 71.8154)" >
                    <g gorn="0.2.0.1.2.0" id="g5782" >
                        <g gorn="0.2.0.1.2.0.0" id="g5780" >
                            <g gorn="0.2.0.1.2.0.0.0" id="g5778" >
                                <g gorn="0.2.0.1.2.0.0.0.0" id="g5776" >
                                    <g transform="matrix(1 0 0 1 3.850000e-05 9.458750e-04)" >
                                        <text font-size="1.6" font-family="'OCRA'" gorn="0.2.0.1.2.0.0.0.0.0.0" id="text5774" >Vext</text>
                                    </g>
                                </g>
                            </g>
                        </g>
                    </g>
                </g>
                <g transform="matrix(-1 0 0 -1 32.3027 71.8154)" >
                    <g gorn="0.2.0.1.3.0" id="g5792" >
                        <g gorn="0.2.0.1.3.0.0" id="g5790" >
                            <g gorn="0.2.0.1.3.0.0.0" id="g5788" >
                                <g gorn="0.2.0.1.3.0.0.0.0" id="g5786" >
                                    <g transform="matrix(1 0 0 1 -3.437500e-05 9.458750e-04)" >
                                        <text font-size="1.6" font-family="'OCRA'" gorn="0.2.0.1.3.0.0.0.0.0.0" id="text5784" >RST</text>
                                    </g>
                                </g>
                            </g>
                        </g>
                    </g>
                </g>
                <g transform="matrix(-1 0 0 -1 38.7871 71.8154)" >
                    <g gorn="0.2.0.1.4.0" id="g5802" >
                        <g gorn="0.2.0.1.4.0.0" id="g5800" >
                            <g gorn="0.2.0.1.4.0.0.0" id="g5798" >
                                <g gorn="0.2.0.1.4.0.0.0.0" id="g5796" >
                                    <g transform="matrix(1 0 0 1 -7.375000e-06 9.458750e-04)" >
                                        <text font-size="1.6" font-family="'OCRA'" gorn="0.2.0.1.4.0.0.0.0.0.0" id="text5794" >13</text>
                                    </g>
                                </g>
                            </g>
                        </g>
                    </g>
                </g>
                <g transform="matrix(-1 0 0 -1 45.9863 71.8154)" >
                    <g gorn="0.2.0.1.5.0" id="g5812" >
                        <g gorn="0.2.0.1.5.0.0" id="g5810" >
                            <g gorn="0.2.0.1.5.0.0.0" id="g5808" >
                                <g gorn="0.2.0.1.5.0.0.0.0" id="g5806" >
                                    <g transform="matrix(1 0 0 1 -2.712500e-05 9.458750e-04)" >
                                        <text font-size="1.6" font-family="'OCRA'" gorn="0.2.0.1.5.0.0.0.0.0.0" id="text5804" >12</text>
                                    </g>
                                </g>
                            </g>
                        </g>
                    </g>
                </g>
                <g transform="matrix(-1 0 0 -1 53.9004 71.8154)" >
                    <g gorn="0.2.0.1.6.0" id="g5822" >
                        <g gorn="0.2.0.1.6.0.0" id="g5820" >
                            <g gorn="0.2.0.1.6.0.0.0" id="g5818" >
                                <g gorn="0.2.0.1.6.0.0.0.0" id="g5816" >
                                    <g transform="matrix(1 0 0 1 0.5606 9.458750e-04)" >
                                        <text font-size="1.6" font-family="'OCRA'" gorn="0.2.0.1.6.0.0.0.0.0.0" id="text5814" >14</text>
                                    </g>
                                </g>
                            </g>
                        </g>
                    </g>
                </g>
                <g transform="matrix(-1 0 0 -1 59.6699 71.8154)" >
                    <g gorn="0.2.0.1.7.0" id="g5832" >
                        <g gorn="0.2.0.1.7.0.0" id="g5830" >
                            <g gorn="0.2.0.1.7.0.0.0" id="g5828" >
                                <g gorn="0.2.0.1.7.0.0.0.0" id="g5826" >
                                    <g transform="matrix(1 0 0 1 -1 9.458750e-04)" >
                                        <text font-size="1.6" font-family="'OCRA'" gorn="0.2.0.1.7.0.0.0.0.0.0" id="text5824" >27</text>
                                    </g>
                                </g>
                            </g>
                        </g>
                    </g>
                </g>
                <g transform="matrix(-1 0 0 -1 67.584 71.8154)" >
                    <g gorn="0.2.0.1.8.0" id="g5842" >
                        <g gorn="0.2.0.1.8.0.0" id="g5840" >
                            <g gorn="0.2.0.1.8.0.0.0" id="g5838" >
                                <g gorn="0.2.0.1.8.0.0.0.0" id="g5836" >
                                    <g transform="matrix(1 0 0 1 1.562500e-05 9.458750e-04)" >
                                        <text font-size="1.6" font-family="'OCRA'" gorn="0.2.0.1.8.0.0.0.0.0.0" id="text5834" >26</text>
                                    </g>
                                </g>
                            </g>
                        </g>
                    </g>
                </g>
                <g transform="matrix(-1 0 0 -1 74.7832 71.8154)" >
                    <g gorn="0.2.0.1.9.0" id="g5852" >
                        <g gorn="0.2.0.1.9.0.0" id="g5850" >
                            <g gorn="0.2.0.1.9.0.0.0" id="g5848" >
                                <g gorn="0.2.0.1.9.0.0.0.0" id="g5846" >
                                    <g transform="matrix(1 0 0 1 0 9.458750e-04)" >
                                        <text font-size="1.6" font-family="'OCRA'" gorn="0.2.0.1.9.0.0.0.0.0.0" id="text5844" >25</text>
                                    </g>
                                </g>
                            </g>
                        </g>
                    </g>
                </g>
                <g transform="matrix(-1 0 0 -1 81.9824 71.8154)" >
                    <g gorn="0.2.0.1.10.0" id="g5862" >
                        <g gorn="0.2.0.1.10.0.0" id="g5860" >
                            <g gorn="0.2.0.1.10.0.0.0" id="g5858" >
                                <g gorn="0.2.0.1.10.0.0.0.0" id="g5856" >
                                    <g transform="matrix(1 0 0 1 -2.287500e-05 9.458750e-04)" >
                                        <text font-size="1.6" font-family="'OCRA'" gorn="0.2.0.1.10.0.0.0.0.0.0" id="text5854" >33</text>
                                    </g>
                                </g>
                            </g>
                        </g>
                    </g>
                </g>
                <g transform="matrix(-1 0 0 -1 89.1816 71.8154)" >
                    <g gorn="0.2.0.1.11.0" id="g5872" >
                        <g gorn="0.2.0.1.11.0.0" id="g5870" >
                            <g gorn="0.2.0.1.11.0.0.0" id="g5868" >
                                <g gorn="0.2.0.1.11.0.0.0.0" id="g5866" >
                                    <g transform="matrix(1 0 0 1 -3.862500e-05 9.458750e-04)" >
                                        <text font-size="1.6" font-family="'OCRA'" gorn="0.2.0.1.11.0.0.0.0.0.0" id="text5864" >32</text>
                                    </g>
                                </g>
                            </g>
                        </g>
                    </g>
                </g>
                <g transform="matrix(-1 0 0 -1 96.3809 71.8154)" >
                    <g gorn="0.2.0.1.12.0" id="g5882" >
                        <g gorn="0.2.0.1.12.0.0" id="g5880" >
                            <g gorn="0.2.0.1.12.0.0.0" id="g5878" >
                                <g gorn="0.2.0.1.12.0.0.0.0" id="g5876" >
                                    <g transform="matrix(1 0 0 1 3.862500e-05 9.458750e-04)" >
                                        <text font-size="1.6" font-family="'OCRA'" gorn="0.2.0.1.12.0.0.0.0.0.0" id="text5874" >35</text>
                                    </g>
                                </g>
                            </g>
                        </g>
                    </g>
                </g>
                <g transform="matrix(-1 0 0 -1 102.8652 71.8154)" >
                    <g gorn="0.2.0.1.13.0" id="g5892" >
                        <g gorn="0.2.0.1.13.0.0" id="g5890" >
                            <g gorn="0.2.0.1.13.0.0.0" id="g5888" >
                                <g gorn="0.2.0.1.13.0.0.0.0" id="g5886" >
                                    <g transform="matrix(1 0 0 1 -1 9.458750e-04)" >
                                        <text font-size="1.6" font-family="'OCRA'" gorn="0.2.0.1.13.0.0.0.0.0.0" id="text5884" >34</text>
                                    </g>
                                </g>
                            </g>
                        </g>
                    </g>
                </g>
                <g transform="matrix(-1 0 0 -1 110.0645 71.8154)" >
                    <g gorn="0.2.0.1.14.0" id="g5902" >
                        <g gorn="0.2.0.1.14.0.0" id="g5900" >
                            <g gorn="0.2.0.1.14.0.0.0" id="g5898" >
                                <g gorn="0.2.0.1.14.0.0.0.0" id="g5896" >
                                    <g transform="matrix(1 0 0 1 -1 9.458750e-04)" >
                                        <text font-size="1.6" font-family="'OCRA'" gorn="0.2.0.1.14.0.0.0.0.0.0" id="text5894" >39</text>
                                    </g>
                                </g>
                            </g>
                        </g>
                    </g>
                </g>
                <g transform="matrix(-1 0 0 -1 117.2656 71.8154)" >
                    <g gorn="0.2.0.1.15.0" id="g5912" >
                        <g gorn="0.2.0.1.15.0.0" id="g5910" >
                            <g gorn="0.2.0.1.15.0.0.0" id="g5908" >
                                <g gorn="0.2.0.1.15.0.0.0.0" id="g5906" >
                                    <g transform="matrix(1 0 0 1 -1 9.458750e-04)" >
                                        <text font-size="1.6" font-family="'OCRA'" gorn="0.2.0.1.15.0.0.0.0.0.0" id="text5904" >38</text>
                                    </g>
                                </g>
                            </g>
                        </g>
                    </g>
                </g>
                <g transform="matrix(-1 0 0 -1 125.1777 71.8154)" >
                    <g gorn="0.2.0.1.16.0" id="g5922" >
                        <g gorn="0.2.0.1.16.0.0" id="g5920" >
                            <g gorn="0.2.0.1.16.0.0.0" id="g5918" >
                                <g gorn="0.2.0.1.16.0.0.0.0" id="g5916" >
                                    <g transform="matrix(1 0 0 1 -3.837500e-05 9.458750e-04)" >
                                        <text font-size="1.6" font-family="'OCRA'" gorn="0.2.0.1.16.0.0.0.0.0.0" id="text5914" >37</text>
                                    </g>
                                </g>
                            </g>
                        </g>
                    </g>
                </g>
                <g transform="matrix(-1 0 0 -1 132.377 71.8154)" >
                    <g gorn="0.2.0.1.17.0" id="g5932" >
                        <g gorn="0.2.0.1.17.0.0" id="g5930" >
                            <g gorn="0.2.0.1.17.0.0.0" id="g5928" >
                                <g gorn="0.2.0.1.17.0.0.0.0" id="g5926" >
                                    <g transform="matrix(1 0 0 1 4.587500e-05 9.458750e-04)" >
                                        <text font-size="1.6" font-family="'OCRA'" gorn="0.2.0.1.17.0.0.0.0.0.0" id="text5924" >36</text>
                                    </g>
                                </g>
                            </g>
                        </g>
                    </g>
                </g>
                <g transform="matrix(1 0 0 1 6.416 1.9229)" >
                    <g gorn="0.2.0.1.18.0" id="g5942" >
                        <g gorn="0.2.0.1.18.0.0" id="g5940" >
                            <g gorn="0.2.0.1.18.0.0.0" id="g5938" >
                                <g gorn="0.2.0.1.18.0.0.0.0" id="g5936" >
                                    <g transform="matrix(1 0 0 1 7.666016e-05 -4.843750e-05)" >
                                        <text font-size="1.6" font-family="'OCRA'" gorn="0.2.0.1.18.0.0.0.0.0.0" id="text5934" >GND</text>
                                    </g>
                                </g>
                            </g>
                        </g>
                    </g>
                </g>
                <g transform="matrix(1 0 0 1 14.3301 1.9229)" >
                    <g gorn="0.2.0.1.19.0" id="g5952" >
                        <g gorn="0.2.0.1.19.0.0" id="g5950" >
                            <g gorn="0.2.0.1.19.0.0.0" id="g5948" >
                                <g gorn="0.2.0.1.19.0.0.0.0" id="g5946" >
                                    <g transform="matrix(1 0 0 1 3.916016e-05 -4.843750e-05)" >
                                        <text font-size="1.6" font-family="'OCRA'" gorn="0.2.0.1.19.0.0.0.0.0.0" id="text5944" >5V</text>
                                    </g>
                                </g>
                            </g>
                        </g>
                    </g>
                </g>
                <g transform="matrix(1 0 0 1 20.8145 1.9229)" >
                    <g gorn="0.2.0.1.20.0" id="g5962" >
                        <g gorn="0.2.0.1.20.0.0" id="g5960" >
                            <g gorn="0.2.0.1.20.0.0.0" id="g5958" >
                                <g gorn="0.2.0.1.20.0.0.0.0" id="g5956" >
                                    <g transform="matrix(1 0 0 1 7.419531e-05 -4.843750e-05)" >
                                        <text font-size="1.6" font-family="'OCRA'" gorn="0.2.0.1.20.0.0.0.0.0.0" id="text5954" >3V3</text>
                                    </g>
                                </g>
                            </g>
                        </g>
                    </g>
                </g>
                <g transform="matrix(1 0 0 1 28.7285 1.9229)" >
                    <g gorn="0.2.0.1.21.0" id="g5972" >
                        <g gorn="0.2.0.1.21.0.0" id="g5970" >
                            <g gorn="0.2.0.1.21.0.0.0" id="g5968" >
                                <g gorn="0.2.0.1.21.0.0.0.0" id="g5966" >
                                    <g transform="matrix(1 0 0 1 -0.9999 -4.843750e-05)" >
                                        <text font-size="1.6" font-family="'OCRA'" gorn="0.2.0.1.21.0.0.0.0.0.0" id="text5964" >Vext</text>
                                    </g>
                                </g>
                            </g>
                        </g>
                    </g>
                </g>
                <g transform="matrix(1 0 0 1 35.9277 1.9229)" >
                    <g gorn="0.2.0.1.22.0" id="g5982" >
                        <g gorn="0.2.0.1.22.0.0" id="g5980" >
                            <g gorn="0.2.0.1.22.0.0.0" id="g5978" >
                                <g gorn="0.2.0.1.22.0.0.0.0" id="g5976" >
                                    <g transform="matrix(1 0 0 1 3.437500e-05 -4.843750e-05)" >
                                        <text font-size="1.6" font-family="'OCRA'" gorn="0.2.0.1.22.0.0.0.0.0.0" id="text5974" >TX</text>
                                    </g>
                                </g>
                            </g>
                        </g>
                    </g>
                </g>
                <g transform="matrix(1 0 0 1 43.127 1.9229)" >
                    <g gorn="0.2.0.1.23.0" id="g5992" >
                        <g gorn="0.2.0.1.23.0.0" id="g5990" >
                            <g gorn="0.2.0.1.23.0.0.0" id="g5988" >
                                <g gorn="0.2.0.1.23.0.0.0.0" id="g5986" >
                                    <g transform="matrix(1 0 0 1 7.619531e-05 -4.843750e-05)" >
                                        <text font-size="1.6" font-family="'OCRA'" gorn="0.2.0.1.23.0.0.0.0.0.0" id="text5984" >RX</text>
                                    </g>
                                </g>
                            </g>
                        </g>
                    </g>
                </g>
                <g transform="matrix(1 0 0 1 50.3262 1.9229)" >
                    <g gorn="0.2.0.1.24.0" id="g6002" >
                        <g gorn="0.2.0.1.24.0.0" id="g6000" >
                            <g gorn="0.2.0.1.24.0.0.0" id="g5998" >
                                <g gorn="0.2.0.1.24.0.0.0.0" id="g5996" >
                                    <g transform="matrix(1 0 0 1 3.391016e-05 -4.843750e-05)" >
                                        <text font-size="1.6" font-family="'OCRA'" gorn="0.2.0.1.24.0.0.0.0.0.0" id="text5994" >15</text>
                                    </g>
                                </g>
                            </g>
                        </g>
                    </g>
                </g>
                <g transform="matrix(1 0 0 1 57.5273 1.9229)" >
                    <g gorn="0.2.0.1.25.0" id="g6012" >
                        <g gorn="0.2.0.1.25.0.0" id="g6010" >
                            <g gorn="0.2.0.1.25.0.0.0" id="g6008" >
                                <g gorn="0.2.0.1.25.0.0.0.0" id="g6006" >
                                    <g transform="matrix(1 0 0 1 1 -4.843750e-05)" >
                                        <text font-size="1.6" font-family="'OCRA'" gorn="0.2.0.1.25.0.0.0.0.0.0" id="text6004" >2</text>
                                    </g>
                                </g>
                            </g>
                        </g>
                    </g>
                </g>
                <g transform="matrix(1 0 0 1 64.7266 1.9229)" >
                    <g gorn="0.2.0.1.26.0" id="g6022" >
                        <g gorn="0.2.0.1.26.0.0" id="g6020" >
                            <g gorn="0.2.0.1.26.0.0.0" id="g6018" >
                                <g gorn="0.2.0.1.26.0.0.0.0" id="g6016" >
                                    <g transform="matrix(1 0 0 1 1.0001 -4.843750e-05)" >
                                        <text font-size="1.6" font-family="'OCRA'" gorn="0.2.0.1.26.0.0.0.0.0.0" id="text6014" >0</text>
                                    </g>
                                </g>
                            </g>
                        </g>
                    </g>
                </g>
                <g transform="matrix(1 0 0 1 71.9238 1.9229)" >
                    <g gorn="0.2.0.1.27.0" id="g6032" >
                        <g gorn="0.2.0.1.27.0.0" id="g6030" >
                            <g gorn="0.2.0.1.27.0.0.0" id="g6028" >
                                <g gorn="0.2.0.1.27.0.0.0.0" id="g6026" >
                                    <g transform="matrix(1 0 0 1 1 -4.843750e-05)" >
                                        <text font-size="1.6" font-family="'OCRA'" gorn="0.2.0.1.27.0.0.0.0.0.0" id="text6024" >4</text>
                                    </g>
                                </g>
                            </g>
                        </g>
                    </g>
                </g>
                <g transform="matrix(1 0 0 1 79.123 1.9229)" >
                    <g gorn="0.2.0.1.28.0" id="g6042" >
                        <g gorn="0.2.0.1.28.0.0" id="g6040" >
                            <g gorn="0.2.0.1.28.0.0.0" id="g6038" >
                                <g gorn="0.2.0.1.28.0.0.0.0" id="g6036" >
                                    <g transform="matrix(1 0 0 1 4.587500e-05 -4.843750e-05)" >
                                        <text font-size="1.6" font-family="'OCRA'" gorn="0.2.0.1.28.0.0.0.0.0.0" id="text6034" >16</text>
                                    </g>
                                </g>
                            </g>
                        </g>
                    </g>
                </g>
                <g transform="matrix(1 0 0 1 86.3223 1.9229)" >
                    <g gorn="0.2.0.1.29.0" id="g6052" >
                        <g gorn="0.2.0.1.29.0.0" id="g6050" >
                            <g gorn="0.2.0.1.29.0.0.0" id="g6048" >
                                <g gorn="0.2.0.1.29.0.0.0.0" id="g6046" >
                                    <g transform="matrix(1 0 0 1 8.369531e-05 -4.843750e-05)" >
                                        <text font-size="1.6" font-family="'OCRA'" gorn="0.2.0.1.29.0.0.0.0.0.0" id="text6044" >17</text>
                                    </g>
                                </g>
                            </g>
                        </g>
                    </g>
                </g>
                <g transform="matrix(1 0 0 1 93.5215 1.9229)" >
                    <g gorn="0.2.0.1.30.0" id="g6062" >
                        <g gorn="0.2.0.1.30.0.0" id="g6060" >
                            <g gorn="0.2.0.1.30.0.0.0" id="g6058" >
                                <g gorn="0.2.0.1.30.0.0.0.0" id="g6056" >
                                    <g transform="matrix(1 0 0 1 1 -4.843750e-05)" >
                                        <text font-size="1.6" font-family="'OCRA'" gorn="0.2.0.1.30.0.0.0.0.0.0" id="text6054" >5</text>
                                    </g>
                                </g>
                            </g>
                        </g>
                    </g>
                </g>
                <g transform="matrix(1 0 0 1 100.7207 1.9229)" >
                    <g gorn="0.2.0.1.31.0" id="g6072" >
                        <g gorn="0.2.0.1.31.0.0" id="g6070" >
                            <g gorn="0.2.0.1.31.0.0.0" id="g6068" >
                                <g gorn="0.2.0.1.31.0.0.0.0" id="g6066" >
                                    <g transform="matrix(1 0 0 1 6.116016e-05 -4.843750e-05)" >
                                        <text font-size="1.6" font-family="'OCRA'" gorn="0.2.0.1.31.0.0.0.0.0.0" id="text6064" >18</text>
                                    </g>
                                </g>
                            </g>
                        </g>
                    </g>
                </g>
                <g transform="matrix(1 0 0 1 107.9199 1.9229)" >
                    <g gorn="0.2.0.1.32.0" id="g6082" >
                        <g gorn="0.2.0.1.32.0.0" id="g6080" >
                            <g gorn="0.2.0.1.32.0.0.0" id="g6078" >
                                <g gorn="0.2.0.1.32.0.0.0.0" id="g6076" >
                                    <g transform="matrix(1 0 0 1 8.391016e-05 -4.843750e-05)" >
                                        <text font-size="1.6" font-family="'OCRA'" gorn="0.2.0.1.32.0.0.0.0.0.0" id="text6074" >23</text>
                                    </g>
                                </g>
                            </g>
                        </g>
                    </g>
                </g>
                <g transform="matrix(1 0 0 1 115.1211 1.9229)" >
                    <g gorn="0.2.0.1.33.0" id="g6092" >
                        <g gorn="0.2.0.1.33.0.0" id="g6090" >
                            <g gorn="0.2.0.1.33.0.0.0" id="g6088" >
                                <g gorn="0.2.0.1.33.0.0.0.0" id="g6086" >
                                    <g transform="matrix(1 0 0 1 5.378516e-05 -4.843750e-05)" >
                                        <text font-size="1.6" font-family="'OCRA'" gorn="0.2.0.1.33.0.0.0.0.0.0" id="text6084" >19</text>
                                    </g>
                                </g>
                            </g>
                        </g>
                    </g>
                </g>
                <g transform="matrix(1 0 0 1 122.3203 1.9229)" >
                    <g gorn="0.2.0.1.34.0" id="g6102" >
                        <g gorn="0.2.0.1.34.0.0" id="g6100" >
                            <g gorn="0.2.0.1.34.0.0.0" id="g6098" >
                                <g gorn="0.2.0.1.34.0.0.0.0" id="g6096" >
                                    <g transform="matrix(1 0 0 1 7.653516e-05 -4.843750e-05)" >
                                        <text font-size="1.6" font-family="'OCRA'" gorn="0.2.0.1.34.0.0.0.0.0.0" id="text6094" >22</text>
                                    </g>
                                </g>
                            </g>
                        </g>
                    </g>
                </g>
                <g transform="matrix(1 0 0 1 129.5195 1.9229)" >
                    <g gorn="0.2.0.1.35.0" id="g6112" >
                        <g gorn="0.2.0.1.35.0.0" id="g6110" >
                            <g gorn="0.2.0.1.35.0.0.0" id="g6108" >
                                <g gorn="0.2.0.1.35.0.0.0.0" id="g6106" >
                                    <g transform="matrix(1 0 0 1 3.025000e-05 -4.843750e-05)" >
                                        <text font-size="1.6" font-family="'OCRA'" gorn="0.2.0.1.35.0.0.0.0.0.0" id="text6104" >21</text>
                                    </g>
                                </g>
                            </g>
                        </g>
                    </g>
                </g>
            </g>
        </g>
        <g gorn="0.2.1" id="copper1_1_" >
            <g gorn="0.2.1.0" id="copper0" >
                <circle cy="69.4" cx="130.9" gorn="0.2.1.0.0" id="connector35pin" stroke-width="1.152" r="1.6" stroke="#F7BD13"  fill="none"/>
                <circle cy="69.4" cx="123.7" gorn="0.2.1.0.1" id="connector34pin" stroke-width="1.152" r="1.6" stroke="#F7BD13"  fill="none"/>
                <circle cy="69.4" cx="116.5" gorn="0.2.1.0.2" id="connector33pin" stroke-width="1.152" r="1.6" stroke="#F7BD13"  fill="none"/>
                <circle cy="69.4" cx="109.3" gorn="0.2.1.0.3" id="connector32pin" stroke-width="1.152" r="1.6" stroke="#F7BD13"  fill="none"/>
                <circle cy="69.4" cx="102.2" gorn="0.2.1.0.4" id="connector31pin" stroke-width="1.152" r="1.6" stroke="#F7BD13"  fill="none"/>
                <circle cy="69.4" cx="95" gorn="0.2.1.0.5" id="connector30pin" stroke-width="1.152" r="1.6" stroke="#F7BD13"  fill="none"/>
                <circle cy="69.4" cx="87.8" gorn="0.2.1.0.6" id="connector29pin" stroke-width="1.152" r="1.6" stroke="#F7BD13"  fill="none"/>
                <circle cy="69.4" cx="80.6" gorn="0.2.1.0.7" id="connector28pin" stroke-width="1.152" r="1.6" stroke="#F7BD13"  fill="none"/>
                <circle cy="69.4" cx="73.4" gorn="0.2.1.0.8" id="connector27pin" stroke-width="1.152" r="1.6" stroke="#F7BD13"  fill="none"/>
                <circle cy="69.4" cx="66.2" gorn="0.2.1.0.9" id="connector26pin" stroke-width="1.152" r="1.6" stroke="#F7BD13"  fill="none"/>
                <circle cy="69.4" cx="59" gorn="0.2.1.0.10" id="connector25pin" stroke-width="1.152" r="1.6" stroke="#F7BD13"  fill="none"/>
                <circle cy="69.4" cx="51.8" gorn="0.2.1.0.11" id="connector24pin" stroke-width="1.152" r="1.6" stroke="#F7BD13"  fill="none"/>
                <circle cy="69.4" cx="44.6" gorn="0.2.1.0.12" id="connector23pin" stroke-width="1.152" r="1.6" stroke="#F7BD13"  fill="none"/>
                <circle cy="69.4" cx="37.4" gorn="0.2.1.0.13" id="connector22pin" stroke-width="1.152" r="1.6" stroke="#F7BD13"  fill="none"/>
                <circle cy="69.4" cx="30.2" gorn="0.2.1.0.14" id="connector21pin" stroke-width="1.152" r="1.6" stroke="#F7BD13"  fill="none"/>
                <circle cy="69.4" cx="23" gorn="0.2.1.0.15" id="connector20pin" stroke-width="1.152" r="1.6" stroke="#F7BD13"  fill="none"/>
                <circle cy="69.4" cx="15.8" gorn="0.2.1.0.16" id="connector19pin" stroke-width="1.152" r="1.6" stroke="#F7BD13"  fill="none"/>
                <circle cy="69.4" cx="8.6" gorn="0.2.1.0.17" id="connector18pin" stroke-width="1.152" r="1.6" stroke="#F7BD13"  fill="none"/>
                <circle cy="4.6" cx="8.6" gorn="0.2.1.0.18" id="connector17pin" stroke-width="1.152" r="1.6" stroke="#F7BD13"  fill="none"/>
                <circle cy="4.6" cx="15.8" gorn="0.2.1.0.19" id="connector16pin" stroke-width="1.152" r="1.6" stroke="#F7BD13"  fill="none"/>
                <circle cy="4.6" cx="23" gorn="0.2.1.0.20" id="connector15pin" stroke-width="1.152" r="1.6" stroke="#F7BD13"  fill="none"/>
                <circle cy="4.6" cx="30.2" gorn="0.2.1.0.21" id="connector14pin" stroke-width="1.152" r="1.6" stroke="#F7BD13"  fill="none"/>
                <circle cy="4.6" cx="37.4" gorn="0.2.1.0.22" id="connector13pin" stroke-width="1.152" r="1.6" stroke="#F7BD13"  fill="none"/>
                <circle cy="4.6" cx="44.6" gorn="0.2.1.0.23" id="connector12pin" stroke-width="1.152" r="1.6" stroke="#F7BD13"  fill="none"/>
                <circle cy="4.6" cx="51.8" gorn="0.2.1.0.24" id="connector11pin" stroke-width="1.152" r="1.6" stroke="#F7BD13"  fill="none"/>
                <circle cy="4.6" cx="59" gorn="0.2.1.0.25" id="connector10pin" stroke-width="1.152" r="1.6" stroke="#F7BD13"  fill="none"/>
                <circle cy="4.6" cx="66.2" gorn="0.2.1.0.26" id="connector9pin" stroke-width="1.152" r="1.6" stroke="#F7BD13"  fill="none"/>
                <circle cy="4.6" cx="73.4" gorn="0.2.1.0.27" id="connector8pin" stroke-width="1.152" r="1.6" stroke="#F7BD13"  fill="none"/>
                <circle cy="4.6" cx="80.6" gorn="0.2.1.0.28" id="connector7pin" stroke-width="1.152" r="1.6" stroke="#F7BD13"  fill="none"/>
                <circle cy="4.6" cx="87.8" gorn="0.2.1.0.29" id="connector6pin" stroke-width="1.152" r="1.6" stroke="#F7BD13"  fill="none"/>
                <circle cy="4.6" cx="95" gorn="0.2.1.0.30" id="connector5pin" stroke-width="1.152" r="1.6" stroke="#F7BD13"  fill="none"/>
                <circle cy="4.6" cx="102.2" gorn="0.2.1.0.31" id="connector4pin" stroke-width="1.152" r="1.6" stroke="#F7BD13"  fill="none"/>
                <circle cy="4.6" cx="109.3" gorn="0.2.1.0.32" id="connector3pin" stroke-width="1.152" r="1.6" stroke="#F7BD13"  fill="none"/>
                <circle cy="4.6" cx="116.5" gorn="0.2.1.0.33" id="connector2pin" stroke-width="1.152" r="1.6" stroke="#F7BD13"  fill="none"/>
                <circle cy="4.6" cx="123.7" gorn="0.2.1.0.34" id="connector1pin" stroke-width="1.152" r="1.6" stroke="#F7BD13"  fill="none"/>
                <circle cy="4.6" cx="130.9" gorn="0.2.1.0.35" id="connector0pin" stroke-width="1.152" r="1.6" stroke="#F7BD13"  fill="none"/>
            </g>
        </g>
    </g>
</svg>
