<?xml version='1.0' encoding='UTF-8' standalone='no'?>
<svg
  xmlns="http://www.w3.org/2000/svg"
  width="0.57274884in"
  x="0in"
  y="0in"
  viewBox="0 0 572.74902 699.12607"
  height="0.69912589in"
  id="svg293"
  gorn="0"
  version="1.2">
  <metadata
    id="metadata46">
    <rdf:RDF
      xmlns:rdf="http://www.w3.org/1999/02/22-rdf-syntax-ns#">
      <cc:Work
        xmlns:rdf="http://www.w3.org/1999/02/22-rdf-syntax-ns#"
        xmlns:cc="http://creativecommons.org/ns#"
        rdf:about="">
        <dc:format
          xmlns:dc="http://purl.org/dc/elements/1.1/">image/svg+xml</dc:format>
        <dc:type
          xmlns:rdf="http://www.w3.org/1999/02/22-rdf-syntax-ns#"
          xmlns:dc="http://purl.org/dc/elements/1.1/"
          rdf:resource="http://purl.org/dc/dcmitype/StillImage"
        />
      </cc:Work>
    </rdf:RDF>
  </metadata>
  <defs
    id="defs297"
  />
  <desc
    id="desc2">
    <referenceFile>ks0012_keyestudio_bef910dd00ebfb4fc9a3ca7d7be926fe_1_pcb.svg</referenceFile>
  </desc>
  <desc
    id="desc4">Fritzing
    footprint
    generated
    by
    brd2svg</desc>
  <g
    transform="translate(-1.2463033e-4,3.7689857e-4)">
    <g>
      <g>
        <g>
          <g>
            <g>
              <g>
                <g>
                  <g>
                    <g>
                      <g>
                        <g
                          id="silkscreen"
                          gorn="0.4.0.0.0.0.0.0.0.0.0.0.0">
                          <path
                            d="M 3.5318914,102.41889 A 54.743755,96.000284 0 0 1 60.100423,3.5616519 H 512.6488 A 54.743755,96.000284 0 0 1 569.21735,102.41889 V 596.70646 A 54.743755,96.000284 0 0 1 512.6488,695.5637 H 60.100423 A 54.743755,96.000284 0 0 1 3.5318914,596.70646 V 102.41889"
                            stroke="#000000"
                            id="path6"
                            gorn="0.4.0.0.0.0.0.0.0.0.0.0.0.0"
                            fill="none"
                            stroke-width="7.01163"
                          />
                        </g>
                      </g>
                    </g>
                  </g>
                </g>
              </g>
            </g>
          </g>
        </g>
      </g>
    </g>
  </g>
  <g
    transform="translate(-1.2463033e-4,3.7689857e-4)">
    <g>
      <g>
        <g>
          <g>
            <g>
              <g>
                <g>
                  <g>
                    <g>
                      <g>
                        <g
                          id="copper1"
                          gorn="0.5.0.0.0.0.0.0.0.0.0.0.0">
                          <g
                            id="copper0"
                            gorn="0.5.0.0.0.0.0.0.0.0.0.0.0.0">
                            <circle
                              stroke="#f7bd13"
                              id="connector0pin"
                              gorn="0.5.0.0.0.0.0.0.0.0.0.0.0.0.0"
                              cx="79.266846"
                              cy="599.56342"
                              fill="none"
                              r="29"
                              connectorname="3.3V"
                              stroke-width="20"
                            />
                            <circle
                              stroke="#f7bd13"
                              id="connector1pin"
                              gorn="0.5.0.0.0.0.0.0.0.0.0.0.0.0.1"
                              cx="179.00005"
                              cy="600.00018"
                              fill="none"
                              r="29"
                              connectorname="GND"
                              stroke-width="20"
                            />
                            <circle
                              stroke="#f7bd13"
                              id="connector2pin"
                              gorn="0.5.0.0.0.0.0.0.0.0.0.0.0.0.2"
                              cx="279.26746"
                              cy="599.56342"
                              fill="none"
                              r="29"
                              connectorname="SCL"
                              stroke-width="20"
                            />
                            <circle
                              stroke="#f7bd13"
                              id="connector3pin"
                              gorn="0.5.0.0.0.0.0.0.0.0.0.0.0.0.3"
                              cx="379.2677"
                              cy="599.56342"
                              fill="none"
                              r="29"
                              connectorname="SDA"
                              stroke-width="20"
                            />
                            <circle
                              stroke="#f7bd13"
                              id="connector4pin"
                              gorn="0.5.0.0.0.0.0.0.0.0.0.0.0.0.4"
                              cx="479.26801"
                              cy="599.56342"
                              fill="none"
                              r="29"
                              connectorname="!INT"
                              stroke-width="20"
                            />
                          </g>
                        </g>
                      </g>
                    </g>
                  </g>
                </g>
              </g>
            </g>
          </g>
        </g>
      </g>
    </g>
  </g>
</svg>
