<?xml version='1.0' encoding='UTF-8' standalone='no'?>
<!-- Generator: Adobe Illustrator 14.0.0, SVG Export Plug-In . SVG Version: 6.00 Build 43363)  -->
<svg xmlns="http://www.w3.org/2000/svg" height="56.00602mm" x="0px" version="1.1"  width="37.99865mm" viewBox="0 0 143.61694 211.6763" gorn="0" xmlns:xml="http://www.w3.org/XML/1998/namespace" id="Ebene_1" xml:space="preserve" enable-background="new 0 0 137 200" y="0px">
    <desc >
        <referenceFile >7segment_1,8in_ELS1806_an.svg</referenceFile>
    </desc>
    <metadata  id="metadata861">
        <rdf:RDF xmlns:rdf="http://www.w3.org/1999/02/22-rdf-syntax-ns#">
            <cc:Work xmlns:rdf="http://www.w3.org/1999/02/22-rdf-syntax-ns#" xmlns:cc="http://creativecommons.org/ns#" rdf:about="">
                <dc:format xmlns:dc="http://purl.org/dc/elements/1.1/">image/svg+xml</dc:format>
                <dc:type xmlns:dc="http://purl.org/dc/elements/1.1/" xmlns:rdf="http://www.w3.org/1999/02/22-rdf-syntax-ns#" rdf:resource="http://purl.org/dc/dcmitype/StillImage"/>
                <dc:title xmlns:dc="http://purl.org/dc/elements/1.1/"/>
            </cc:Work>
        </rdf:RDF>
    </metadata>
    <defs  id="defs859"/>
    <g  transform="translate(4.8352544,7.7312265)">
        <g >
            <g >
                <g  gorn="0.3.0.0.0" id="copper0">
                    <g  gorn="0.3.0.0.0.0" id="copper1">
                        <rect height="4.1040001" x="45.721214" stroke="#f7bd13"  width="4.1040001" gorn="0.3.0.0.0.0.0" id="rect839" stroke-width="1.22399998" y="187.25493" fill="none"/>
                        <circle stroke="#f7bd13"  gorn="0.3.0.0.0.0.1" cy="189.30693" r="2.052" id="connector1pin" cx="47.773212" stroke-width="1.22399998" fill="none"/>
                        <circle stroke="#f7bd13"  gorn="0.3.0.0.0.0.2" cy="189.30693" r="2.052" id="connector2pin" cx="57.373211" stroke-width="1.22399998" fill="none"/>
                        <circle stroke="#f7bd13"  gorn="0.3.0.0.0.0.3" cy="189.30693" r="2.052" id="connector3pin" cx="66.973213" stroke-width="1.22399998" fill="none"/>
                        <circle stroke="#f7bd13"  gorn="0.3.0.0.0.0.4" cy="189.30693" r="2.052" id="connector4pin" cx="76.573212" stroke-width="1.22399998" fill="none"/>
                        <circle stroke="#f7bd13"  gorn="0.3.0.0.0.0.5" cy="189.30693" r="2.052" id="connector5pin" cx="86.17321" stroke-width="1.22399998" fill="none"/>
                        <circle stroke="#f7bd13"  gorn="0.3.0.0.0.0.6" cy="6.9069262" r="2.052" id="connector9pin" cx="57.373211" stroke-width="1.22399998" fill="none"/>
                        <circle stroke="#f7bd13"  gorn="0.3.0.0.0.0.7" cy="6.9069262" r="2.052" id="connector8pin" cx="66.973213" stroke-width="1.22399998" fill="none"/>
                        <circle stroke="#f7bd13"  gorn="0.3.0.0.0.0.8" cy="6.9069262" r="2.052" id="connector7pin" cx="76.573212" stroke-width="1.22399998" fill="none"/>
                        <circle stroke="#f7bd13"  gorn="0.3.0.0.0.0.9" cy="6.9069262" r="2.052" id="connector6pin" cx="86.17321" stroke-width="1.22399998" fill="none"/>
                        <circle stroke="#f7bd13"  gorn="0.3.0.0.0.0.10" cy="6.9069262" r="2.052" id="connector10pin" cx="47.773212" stroke-width="1.22399998" fill="none"/>
                    </g>
                </g>
            </g>
        </g>
    </g>
    <g  transform="matrix(1.0500563,0,0,1.0629858,0.24083041,0.24380132)">
        <g >
            <g >
                <g  gorn="0.4.0.0.0" id="silkscreen">
                    <rect height="198.425" x="0.125" stroke="#ffffff"  width="136.062" gorn="0.4.0.0.0.0" id="rect853" stroke-width="0.7087" y="0.125" fill="none"/>
                </g>
            </g>
        </g>
    </g>
</svg>
