<?xml version='1.0' encoding='UTF-8' standalone='no'?>
<svg
  xmlns:dc="http://purl.org/dc/elements/1.1/"
  xmlns:cc="http://creativecommons.org/ns#"
  xmlns:rdf="http://www.w3.org/1999/02/22-rdf-syntax-ns#"
  xmlns:svg="http://www.w3.org/2000/svg"
  xmlns="http://www.w3.org/2000/svg"
  version="1.2"
  x="0in"
  y="0in"
  width="0.21013896in"
  height="0.41013896in"
  viewBox="0 0 210.13903 410.1391"
  id="svg45">
  <metadata
    id="metadata51">
    <rdf:RDF>
      <cc:Work
        rdf:about="">
        <dc:format>image/svg+xml</dc:format>
        <dc:type
          rdf:resource="http://purl.org/dc/dcmitype/StillImage"
        />
        <dc:title/>
      </cc:Work>
    </rdf:RDF>
  </metadata>
  <defs
    id="defs49"
  />
  <g
    id="schematic">
    <line
      class="other"
      x1="204.99678"
      y1="104.99834"
      x2="124.99802"
      y2="144.99771"
      stroke="#000000"
      stroke-width="5.99992"
      stroke-linecap="round"
      id="line2"
    />
    <line
      class="other"
      x1="124.99802"
      y1="264.99582"
      x2="204.99678"
      y2="304.99518"
      stroke="#000000"
      stroke-width="5.99992"
      stroke-linecap="round"
      id="line4"
    />
    <line
      class="other"
      x1="154.99756"
      y1="104.99834"
      x2="174.99725"
      y2="144.99771"
      stroke="#000000"
      stroke-width="5.99992"
      stroke-linecap="round"
      id="line6"
    />
    <line
      class="other"
      x1="174.99725"
      y1="144.99771"
      x2="124.99802"
      y2="144.99771"
      stroke="#000000"
      stroke-width="5.99992"
      stroke-linecap="round"
      id="line8"
    />
    <line
      class="other"
      x1="124.99802"
      y1="144.99771"
      x2="154.99756"
      y2="104.99834"
      stroke="#000000"
      stroke-width="5.99992"
      stroke-linecap="round"
      id="line10"
    />
    <line
      class="other"
      x1="152.99759"
      y1="113.99821"
      x2="166.99734"
      y2="140.99777"
      stroke="#000000"
      stroke-width="7.99988"
      stroke-linecap="round"
      id="line12"
    />
    <line
      class="other"
      x1="149.99763"
      y1="119.99812"
      x2="159.99747"
      y2="140.99777"
      stroke="#000000"
      stroke-width="7.99988"
      stroke-linecap="round"
      id="line14"
    />
    <line
      class="other"
      x1="144.99771"
      y1="124.99802"
      x2="152.99759"
      y2="140.99777"
      stroke="#000000"
      stroke-width="7.99988"
      stroke-linecap="round"
      id="line16"
    />
    <line
      class="other"
      x1="141.99776"
      y1="130.99794"
      x2="145.9977"
      y2="139.99779"
      stroke="#000000"
      stroke-width="7.99988"
      stroke-linecap="round"
      id="line18"
    />
    <line
      class="other"
      x1="136.99785"
      y1="134.99788"
      x2="139.99779"
      y2="140.99777"
      stroke="#000000"
      stroke-width="7.99988"
      stroke-linecap="round"
      id="line20"
    />
    <rect
      class="other"
      x="94.998505"
      y="104.99834"
      width="29.999527"
      height="199.99684"
      stroke="none"
      stroke-width="0"
      fill="#000000"
      stroke-linecap="round"
      id="rect22"
    />
    <text
      font-family="'Droid Sans'"
      stroke="none"
      stroke-width="0"
      fill="#555555"
      font-size="35"
      x="54.999138"
      y="190.41393"
      text-anchor="middle"
      id="text26">2</text>
    <text
      font-family="'Droid Sans'"
      stroke="none"
      stroke-width="0"
      fill="#555555"
      font-size="35"
      x="178.35118"
      y="367.73529"
      text-anchor="middle"
      id="text30">1</text>
    <text
      class="text"
      font-family="'Droid Sans'"
      stroke="none"
      stroke-width="0"
      fill="#555555"
      font-size="35"
      x="178.04602"
      y="67.773941"
      text-anchor="middle"
      id="text38">3</text>
    <line
      id="connector0pin"
      x1="204.99678"
      y1="404.99478"
      x2="204.99678"
      y2="304.99518"
      stroke="#555555"
      stroke-width="10"
      stroke-linecap="round"
    />
    <rect
      class="terminal"
      id="connector0terminal"
      x="200.13904"
      y="400.1391"
      width="10"
      height="10"
      stroke="none"
      stroke-width="0"
      fill="none"
    />
    <line
      id="connector1pin"
      x1="5"
      y1="204.99678"
      x2="104.99834"
      y2="204.99678"
      stroke="#555555"
      stroke-width="10"
      stroke-linecap="round"
    />
    <rect
      class="terminal"
      id="connector1terminal"
      x="0.13897562"
      y="200.13904"
      width="10"
      height="10"
      stroke="none"
      stroke-width="0"
      fill="none"
    />
    <line
      id="connector2pin"
      x1="204.99678"
      y1="5"
      x2="204.99678"
      y2="104.99834"
      stroke="#555555"
      stroke-width="10"
      stroke-linecap="round"
    />
    <rect
      class="terminal"
      id="connector2terminal"
      x="200.13904"
      y="0.13897562"
      width="10"
      height="10"
      stroke="none"
      stroke-width="0"
      fill="none"
    />
  </g>
</svg>
