<?xml version='1.0' encoding='UTF-8' standalone='no'?>
<svg
  xmlns:dc="http://purl.org/dc/elements/1.1/"
  xmlns:cc="http://creativecommons.org/ns#"
  xmlns:rdf="http://www.w3.org/1999/02/22-rdf-syntax-ns#"
  xmlns:svg="http://www.w3.org/2000/svg"
  xmlns="http://www.w3.org/2000/svg"
  shape-rendering="crispEdges"
  viewBox="0 0 2385.7403 2309.9944"
  x="0in"
  width="2.3857403in"
  height="2.3099945in"
  version="1.2"
  y="0in"
  id="svg2">
  <metadata
    id="metadata27">
    <rdf:RDF>
      <cc:Work
        rdf:about="">
        <dc:format>image/svg+xml</dc:format>
        <dc:type
          rdf:resource="http://purl.org/dc/dcmitype/StillImage"
        />
        <dc:title/>
      </cc:Work>
    </rdf:RDF>
  </metadata>
  <defs
    id="defs25"
  />
  <desc
    id="desc4">
    <referenceFile>omron-relay-module-4way_1_pcb.svg</referenceFile>
  </desc>
  <g
    id="silkscreen">
    <path
      id="rect642"
      d="M 2362.0683,19.9303 C 2374.24,30.8599 2382,42.7576 2380.5736,56.6701 v 2195.6037 c 0.3455,15.9581 -6.8304,27.7906 -17.3575,37.7853 -21.139,9.5385 -43.231,17.2991 -71.1052,14.279 H 276.4883 c -50.0791,1.4076 -74.2487,-1.7004 -99.2701,-9.5187 -19.3748,-18.5459 -16.6628,-31.4042 -15.9111,-62.3867 V 35.0206 c 3.7568,-9.6974 6.9511,-13.7425 17.4176,-19.872 C 187.853,10.1783 196.4082,7.1837 211.563,5 h 2090.3492 c 22.4569,1.68 43.1389,5.7924 60.1561,14.9303 z"
      fill="none"
      stroke="#000000"
      stroke-width="10"
    />
    <circle
      id="circle2017"
      cx="2157.9165"
      cy="-2267.7422"
      r="80"
      transform="rotate(90)"
      fill="#000000"
      stroke="none"
      stroke-width="0"
    />
    <circle
      id="circle2013"
      cx="112.91653"
      cy="-2267.5686"
      r="80"
      transform="rotate(90)"
      fill="#000000"
      stroke="none"
      stroke-width="0"
    />
    <circle
      id="path2011"
      cx="113.18752"
      cy="-296.48981"
      r="80"
      transform="rotate(90)"
      fill="#000000"
      stroke="none"
      stroke-width="0"
    />
    <circle
      id="circle2015"
      cx="2157.9165"
      cy="-267.74225"
      r="80"
      transform="rotate(90)"
      fill="#000000"
      stroke="none"
      stroke-width="0"
    />
  </g>
  <g
    id="copper1">
    <g
      id="copper0">
      <rect
        stroke-width="20"
        stroke="#ffbf00"
        fill="none"
        id="square"
        gorn="0.2.0.0"
        x="10"
        height="58"
        width="58"
        y="173.96603"
      />
      <circle
        stroke-width="20"
        stroke="#ffbf00"
        fill="none"
        id="connector0pin"
        gorn="0.2.0.1"
        cx="39"
        cy="202.96603"
        r="29"
      />
      <circle
        stroke-width="20"
        stroke="#ffbf00"
        fill="none"
        id="connector1pin"
        gorn="0.2.0.2"
        cx="39"
        cy="302.96603"
        r="29"
      />
      <circle
        stroke-width="20"
        stroke="#ffbf00"
        fill="none"
        id="connector2pin"
        gorn="0.2.0.3"
        cx="39"
        cy="402.96603"
        r="29"
      />
      <circle
        stroke-width="20"
        stroke="#ffbf00"
        fill="none"
        id="connector3pin"
        gorn="0.2.0.2"
        cx="39"
        cy="503.00528"
        r="29"
      />
      <circle
        stroke-width="20"
        stroke="#ffbf00"
        fill="none"
        id="connector4pin"
        gorn="0.2.0.3"
        cx="39"
        cy="603.00525"
        r="29"
      />
      <circle
        stroke-width="20"
        stroke="#ffbf00"
        fill="none"
        id="connector5pin"
        gorn="0.2.0.3"
        cx="39"
        cy="703.00531"
        r="29"
      />
    </g>
  </g>
</svg>
