<?xml version="1.0" encoding="utf-8"?>
<!-- Generator: Adobe Illustrator 16.0.0, SVG Export Plug-In . SVG Version: 6.00 Build 0)  -->
<!DOCTYPE svg PUBLIC "-//W3C//DTD SVG 1.1//EN" "http://www.w3.org/Graphics/SVG/1.1/DTD/svg11.dtd">
<svg version="1.1"
	 id="svg5451" xmlns:dc="http://purl.org/dc/elements/1.1/" xmlns:cc="http://creativecommons.org/ns#" xmlns:rdf="http://www.w3.org/1999/02/22-rdf-syntax-ns#" xmlns:svg="http://www.w3.org/2000/svg"
	 xmlns="http://www.w3.org/2000/svg" xmlns:xlink="http://www.w3.org/1999/xlink" x="0px" y="0px" width="67.332px"
	 height="30.552px" viewBox="0 0 67.332 30.552" enable-background="new 0 0 67.332 30.552" xml:space="preserve">
<g id="silkscreen">
	<rect x="0.5" y="0.677" fill="none" stroke="#000000" stroke-miterlimit="10" width="66.332" height="29.199"/>
</g>
<g id="copper1" transform="translate(-105.71429,-79.658044)">
	<g id="copper0">
		
			<circle id="connector0pin" fill="none" stroke="#FFCC33" stroke-width="1.5" stroke-miterlimit="10" cx="164.181" cy="106.492" r="2.834"/>
		
			<circle id="connector1pin" fill="none" stroke="#FFCC33" stroke-width="1.5" stroke-miterlimit="10" cx="154.261" cy="106.492" r="2.834"/>
		
			<circle id="connector2pin" fill="none" stroke="#FFCC33" stroke-width="1.5" stroke-miterlimit="10" cx="144.341" cy="106.491" r="2.834"/>
		
			<circle id="connector3pin" fill="none" stroke="#FFCC33" stroke-width="1.5" stroke-miterlimit="10" cx="134.42" cy="106.493" r="2.834"/>
		
			<circle id="connector4pin" fill="none" stroke="#FFCC33" stroke-width="1.5" stroke-miterlimit="10" cx="124.5" cy="106.493" r="2.834"/>
		
			<circle id="connector5pin" fill="none" stroke="#FFCC33" stroke-width="1.5" stroke-miterlimit="10" cx="114.58" cy="106.492" r="2.834"/>
	</g>
</g>
</svg>
