<?xml version='1.0' encoding='UTF-8' standalone='no'?>
<svg
  xmlns:dc="http://purl.org/dc/elements/1.1/"
  xmlns:cc="http://creativecommons.org/ns#"
  xmlns:rdf="http://www.w3.org/1999/02/22-rdf-syntax-ns#"
  xmlns:svg="http://www.w3.org/2000/svg"
  xmlns="http://www.w3.org/2000/svg"
  viewBox="0 0 809.9999999999999 1409.9999999999998"
  x="0in"
  width="0.8099999999999999in"
  height="1.4099999999999997in"
  version="1.2"
  y="0in"
  id="svg2">
  <metadata
    id="metadata41">
    <rdf:RDF>
      <cc:Work
        rdf:about="">
        <dc:format>image/svg+xml</dc:format>
        <dc:type
          rdf:resource="http://purl.org/dc/dcmitype/StillImage"
        />
        <dc:title/>
      </cc:Work>
    </rdf:RDF>
    <rdf:RDF>
      <cc:Work
        rdf:about="">
        <dc:title/>
      </cc:Work>
    </rdf:RDF>
  </metadata>
  <defs
    id="defs39"
  />
  <desc
    id="desc4">
    <referenceFile>TTGO-T-Beam-V1-1_1_schematic.svg</referenceFile>
  </desc>
  <g
    id="schematic">
    <text
      x="405"
      y="704.83203"
      font-family="'Droid Sans'"
      font-size="60"
      fill="#000000"
      id="text361"
      text-anchor="middle">V1.1</text>
    <text
      x="405"
      y="604.50586"
      font-family="'Droid Sans'"
      font-size="60"
      fill="#000000"
      id="text359"
      text-anchor="middle">T-Beam</text>
    <rect
      fill="none"
      height="1400.0"
      width="600.0"
      stroke-width="10"
      stroke="#000000"
      stroke-linejoin="round"
      stroke-linecap="round"
      id="symbol"
      x="105"
      y="5"
    />
    <text
      x="405"
      y="504.50586"
      font-family="'Droid Sans'"
      font-size="60"
      fill="#000000"
      id="label"
      text-anchor="middle">TTGO</text>
    <text
      x="75"
      y="85"
      text-anchor="end"
      font-family="Droid Sans"
      font-size="35"
      fill="#555555"
      id="pin0num">1</text>
    <text
      x="125"
      y="117"
      text-anchor="start"
      font-family="Droid Sans"
      font-size="49"
      fill="#555555"
      id="pin0label">VP</text>
    <text
      x="75"
      y="185"
      text-anchor="end"
      font-family="Droid Sans"
      font-size="35"
      fill="#555555"
      id="pin1num">2</text>
    <text
      x="125"
      y="217"
      text-anchor="start"
      font-family="Droid Sans"
      font-size="49"
      fill="#555555"
      id="pin1label">VN</text>
    <text
      x="75"
      y="285"
      text-anchor="end"
      font-family="Droid Sans"
      font-size="35"
      fill="#555555"
      id="pin2num">3</text>
    <text
      x="125"
      y="317"
      text-anchor="start"
      font-family="Droid Sans"
      font-size="49"
      fill="#555555"
      id="pin2label">RST</text>
    <text
      x="75"
      y="385"
      text-anchor="end"
      font-family="Droid Sans"
      font-size="35"
      fill="#555555"
      id="pin3num">4</text>
    <text
      x="125"
      y="417"
      text-anchor="start"
      font-family="Droid Sans"
      font-size="49"
      fill="#555555"
      id="pin3label">15</text>
    <text
      x="75"
      y="485"
      text-anchor="end"
      font-family="Droid Sans"
      font-size="35"
      fill="#555555"
      id="pin4num">5</text>
    <text
      x="125"
      y="517"
      text-anchor="start"
      font-family="Droid Sans"
      font-size="49"
      fill="#555555"
      id="pin4label">36</text>
    <text
      x="75"
      y="585"
      text-anchor="end"
      font-family="Droid Sans"
      font-size="35"
      fill="#555555"
      id="pin5num">6</text>
    <text
      x="125"
      y="617"
      text-anchor="start"
      font-family="Droid Sans"
      font-size="49"
      fill="#555555"
      id="pin5label">32</text>
    <text
      x="75"
      y="685"
      text-anchor="end"
      font-family="Droid Sans"
      font-size="35"
      fill="#555555"
      id="pin6num">7</text>
    <text
      x="125"
      y="717"
      text-anchor="start"
      font-family="Droid Sans"
      font-size="49"
      fill="#555555"
      id="pin6label">33</text>
    <text
      x="75"
      y="785"
      text-anchor="end"
      font-family="Droid Sans"
      font-size="35"
      fill="#555555"
      id="pin7num">8</text>
    <text
      x="125"
      y="817"
      text-anchor="start"
      font-family="Droid Sans"
      font-size="49"
      fill="#555555"
      id="pin7label">25</text>
    <text
      x="75"
      y="885"
      text-anchor="end"
      font-family="Droid Sans"
      font-size="35"
      fill="#555555"
      id="pin8num">9</text>
    <text
      x="125"
      y="917"
      text-anchor="start"
      font-family="Droid Sans"
      font-size="49"
      fill="#555555"
      id="pin8label">14</text>
    <text
      x="75"
      y="985"
      text-anchor="end"
      font-family="Droid Sans"
      font-size="35"
      fill="#555555"
      id="pin9num">10</text>
    <text
      x="125"
      y="1017"
      text-anchor="start"
      font-family="Droid Sans"
      font-size="49"
      fill="#555555"
      id="pin9label">13</text>
    <text
      x="75"
      y="1085"
      text-anchor="end"
      font-family="Droid Sans"
      font-size="35"
      fill="#555555"
      id="pin10num">11</text>
    <text
      x="125"
      y="1117"
      text-anchor="start"
      font-family="Droid Sans"
      font-size="49"
      fill="#555555"
      id="pin10label">2</text>
    <text
      x="75"
      y="1185"
      text-anchor="end"
      font-family="Droid Sans"
      font-size="35"
      fill="#555555"
      id="pin11num">12</text>
    <text
      x="125"
      y="1217"
      text-anchor="start"
      font-family="Droid Sans"
      font-size="49"
      fill="#555555"
      id="pin11label">GND</text>
    <text
      x="75"
      y="1285"
      text-anchor="end"
      font-family="Droid Sans"
      font-size="35"
      fill="#555555"
      id="pin12num">13</text>
    <text
      x="125"
      y="1317"
      text-anchor="start"
      font-family="Droid Sans"
      font-size="49"
      fill="#555555"
      id="pin12label">5V</text>
    <text
      x="735.0"
      y="1285.0"
      text-anchor="start"
      font-family="Droid Sans"
      font-size="35"
      fill="#555555"
      id="pin13num">14</text>
    <text
      x="685.0"
      y="1317.0"
      text-anchor="end"
      font-family="Droid Sans"
      font-size="49"
      fill="#555555"
      id="pin13label">LoRa1</text>
    <text
      x="735.0"
      y="1185.0"
      text-anchor="start"
      font-family="Droid Sans"
      font-size="35"
      fill="#555555"
      id="pin14num">15</text>
    <text
      x="685.0"
      y="1217.0"
      text-anchor="end"
      font-family="Droid Sans"
      font-size="49"
      fill="#555555"
      id="pin14label">LoRa2</text>
    <text
      x="735.0"
      y="1085.0"
      text-anchor="start"
      font-family="Droid Sans"
      font-size="35"
      fill="#555555"
      id="pin15num">16</text>
    <text
      x="685.0"
      y="1117.0"
      text-anchor="end"
      font-family="Droid Sans"
      font-size="49"
      fill="#555555"
      id="pin15label">3V3</text>
    <text
      x="735.0"
      y="985.0"
      text-anchor="start"
      font-family="Droid Sans"
      font-size="35"
      fill="#555555"
      id="pin16num">17</text>
    <text
      x="685.0"
      y="1017.0"
      text-anchor="end"
      font-family="Droid Sans"
      font-size="49"
      fill="#555555"
      id="pin16label">21/SDA</text>
    <text
      x="735.0"
      y="885.0"
      text-anchor="start"
      font-family="Droid Sans"
      font-size="35"
      fill="#555555"
      id="pin17num">18</text>
    <text
      x="685.0"
      y="917.0"
      text-anchor="end"
      font-family="Droid Sans"
      font-size="49"
      fill="#555555"
      id="pin17label">22/SCL</text>
    <text
      x="735.0"
      y="785.0"
      text-anchor="start"
      font-family="Droid Sans"
      font-size="35"
      fill="#555555"
      id="pin18num">19</text>
    <text
      x="685.0"
      y="817.0"
      text-anchor="end"
      font-family="Droid Sans"
      font-size="49"
      fill="#555555"
      id="pin18label">GND</text>
    <text
      x="735.0"
      y="685.0"
      text-anchor="start"
      font-family="Droid Sans"
      font-size="35"
      fill="#555555"
      id="pin19num">20</text>
    <text
      x="685.0"
      y="717.0"
      text-anchor="end"
      font-family="Droid Sans"
      font-size="49"
      fill="#555555"
      id="pin19label">3V3</text>
    <text
      x="735.0"
      y="585.0"
      text-anchor="start"
      font-family="Droid Sans"
      font-size="35"
      fill="#555555"
      id="pin20num">21</text>
    <text
      x="685.0"
      y="617.0"
      text-anchor="end"
      font-family="Droid Sans"
      font-size="49"
      fill="#555555"
      id="pin20label">GND</text>
    <text
      x="735.0"
      y="485.0"
      text-anchor="start"
      font-family="Droid Sans"
      font-size="35"
      fill="#555555"
      id="pin21num">22</text>
    <text
      x="685.0"
      y="517.0"
      text-anchor="end"
      font-family="Droid Sans"
      font-size="49"
      fill="#555555"
      id="pin21label">0</text>
    <text
      x="735.0"
      y="385.0"
      text-anchor="start"
      font-family="Droid Sans"
      font-size="35"
      fill="#555555"
      id="pin22num">23</text>
    <text
      x="685.0"
      y="417.0"
      text-anchor="end"
      font-family="Droid Sans"
      font-size="49"
      fill="#555555"
      id="pin22label">4</text>
    <text
      x="735.0"
      y="285.0"
      text-anchor="start"
      font-family="Droid Sans"
      font-size="35"
      fill="#555555"
      id="pin23num">24</text>
    <text
      x="685.0"
      y="317.0"
      text-anchor="end"
      font-family="Droid Sans"
      font-size="49"
      fill="#555555"
      id="pin23label">23</text>
    <text
      x="735.0"
      y="185.0"
      text-anchor="start"
      font-family="Droid Sans"
      font-size="35"
      fill="#555555"
      id="pin24num">25</text>
    <text
      x="685.0"
      y="217.0"
      text-anchor="end"
      font-family="Droid Sans"
      font-size="49"
      fill="#555555"
      id="pin24label">RX</text>
    <text
      x="735.0"
      y="85.0"
      text-anchor="start"
      font-family="Droid Sans"
      font-size="35"
      fill="#555555"
      id="pin25num">26</text>
    <text
      x="685.0"
      y="117.0"
      text-anchor="end"
      font-family="Droid Sans"
      font-size="49"
      fill="#555555"
      id="pin25label">TX</text>
    <line
      fill="none"
      id="connector0pin"
      stroke="#555555"
      stroke-linecap="round"
      stroke-width="10"
      x1="105"
      x2="5"
      y1="105"
      y2="105"
    />
    <rect
      fill="none"
      id="connector0terminal"
      height="10"
      width="10"
      x="0"
      y="100"
      stroke="none"
      stroke-width="0"
    />
    <line
      fill="none"
      id="connector1pin"
      stroke="#555555"
      stroke-linecap="round"
      stroke-width="10"
      x1="105"
      x2="5"
      y1="205"
      y2="205"
    />
    <rect
      fill="none"
      id="connector1terminal"
      height="10"
      width="10"
      x="0"
      y="200"
      stroke="none"
      stroke-width="0"
    />
    <line
      fill="none"
      id="connector2pin"
      stroke="#555555"
      stroke-linecap="round"
      stroke-width="10"
      x1="105"
      x2="5"
      y1="305"
      y2="305"
    />
    <rect
      fill="none"
      id="connector2terminal"
      height="10"
      width="10"
      x="0"
      y="300"
      stroke="none"
      stroke-width="0"
    />
    <line
      fill="none"
      id="connector3pin"
      stroke="#555555"
      stroke-linecap="round"
      stroke-width="10"
      x1="105"
      x2="5"
      y1="405"
      y2="405"
    />
    <rect
      fill="none"
      id="connector3terminal"
      height="10"
      width="10"
      x="0"
      y="400"
      stroke="none"
      stroke-width="0"
    />
    <line
      fill="none"
      id="connector4pin"
      stroke="#555555"
      stroke-linecap="round"
      stroke-width="10"
      x1="105"
      x2="5"
      y1="505"
      y2="505"
    />
    <rect
      fill="none"
      id="connector4terminal"
      height="10"
      width="10"
      x="0"
      y="500"
      stroke="none"
      stroke-width="0"
    />
    <line
      fill="none"
      id="connector5pin"
      stroke="#555555"
      stroke-linecap="round"
      stroke-width="10"
      x1="105"
      x2="5"
      y1="605"
      y2="605"
    />
    <rect
      fill="none"
      id="connector5terminal"
      height="10"
      width="10"
      x="0"
      y="600"
      stroke="none"
      stroke-width="0"
    />
    <line
      fill="none"
      id="connector6pin"
      stroke="#555555"
      stroke-linecap="round"
      stroke-width="10"
      x1="105"
      x2="5"
      y1="705"
      y2="705"
    />
    <rect
      fill="none"
      id="connector6terminal"
      height="10"
      width="10"
      x="0"
      y="700"
      stroke="none"
      stroke-width="0"
    />
    <line
      fill="none"
      id="connector7pin"
      stroke="#555555"
      stroke-linecap="round"
      stroke-width="10"
      x1="105"
      x2="5"
      y1="805"
      y2="805"
    />
    <rect
      fill="none"
      id="connector7terminal"
      height="10"
      width="10"
      x="0"
      y="800"
      stroke="none"
      stroke-width="0"
    />
    <line
      fill="none"
      id="connector8pin"
      stroke="#555555"
      stroke-linecap="round"
      stroke-width="10"
      x1="105"
      x2="5"
      y1="905"
      y2="905"
    />
    <rect
      fill="none"
      id="connector8terminal"
      height="10"
      width="10"
      x="0"
      y="900"
      stroke="none"
      stroke-width="0"
    />
    <line
      fill="none"
      id="connector9pin"
      stroke="#555555"
      stroke-linecap="round"
      stroke-width="10"
      x1="105"
      x2="5"
      y1="1005"
      y2="1005"
    />
    <rect
      fill="none"
      id="connector9terminal"
      height="10"
      width="10"
      x="0"
      y="1000"
      stroke="none"
      stroke-width="0"
    />
    <line
      fill="none"
      id="connector10pin"
      stroke="#555555"
      stroke-linecap="round"
      stroke-width="10"
      x1="105"
      x2="5"
      y1="1105"
      y2="1105"
    />
    <rect
      fill="none"
      id="connector10terminal"
      height="10"
      width="10"
      x="0"
      y="1100"
      stroke="none"
      stroke-width="0"
    />
    <line
      fill="none"
      id="connector11pin"
      stroke="#555555"
      stroke-linecap="round"
      stroke-width="10"
      x1="105"
      x2="5"
      y1="1205"
      y2="1205"
    />
    <rect
      fill="none"
      id="connector11terminal"
      height="10"
      width="10"
      x="0"
      y="1200"
      stroke="none"
      stroke-width="0"
    />
    <line
      fill="none"
      id="connector12pin"
      stroke="#555555"
      stroke-linecap="round"
      stroke-width="10"
      x1="105"
      x2="5"
      y1="1305"
      y2="1305"
    />
    <rect
      fill="none"
      id="connector12terminal"
      height="10"
      width="10"
      x="0"
      y="1300"
      stroke="none"
      stroke-width="0"
    />
    <line
      fill="none"
      id="connector13pin"
      stroke="#555555"
      stroke-linecap="round"
      stroke-width="10"
      x1="705.0"
      x2="805.0"
      y1="1305.0"
      y2="1305.0"
    />
    <rect
      fill="none"
      id="connector13terminal"
      height="10"
      width="10"
      x="800.0"
      y="1300.0"
      stroke="none"
      stroke-width="0"
    />
    <line
      fill="none"
      id="connector14pin"
      stroke="#555555"
      stroke-linecap="round"
      stroke-width="10"
      x1="705.0"
      x2="805.0"
      y1="1205.0"
      y2="1205.0"
    />
    <rect
      fill="none"
      id="connector14terminal"
      height="10"
      width="10"
      x="800.0"
      y="1200.0"
      stroke="none"
      stroke-width="0"
    />
    <line
      fill="none"
      id="connector15pin"
      stroke="#555555"
      stroke-linecap="round"
      stroke-width="10"
      x1="705.0"
      x2="805.0"
      y1="1105.0"
      y2="1105.0"
    />
    <rect
      fill="none"
      id="connector15terminal"
      height="10"
      width="10"
      x="800.0"
      y="1100.0"
      stroke="none"
      stroke-width="0"
    />
    <line
      fill="none"
      id="connector16pin"
      stroke="#555555"
      stroke-linecap="round"
      stroke-width="10"
      x1="705.0"
      x2="805.0"
      y1="1005.0"
      y2="1005.0"
    />
    <rect
      fill="none"
      id="connector16terminal"
      height="10"
      width="10"
      x="800.0"
      y="1000.0"
      stroke="none"
      stroke-width="0"
    />
    <line
      fill="none"
      id="connector17pin"
      stroke="#555555"
      stroke-linecap="round"
      stroke-width="10"
      x1="705.0"
      x2="805.0"
      y1="905.0"
      y2="905.0"
    />
    <rect
      fill="none"
      id="connector17terminal"
      height="10"
      width="10"
      x="800.0"
      y="900.0"
      stroke="none"
      stroke-width="0"
    />
    <line
      fill="none"
      id="connector18pin"
      stroke="#555555"
      stroke-linecap="round"
      stroke-width="10"
      x1="705.0"
      x2="805.0"
      y1="805.0"
      y2="805.0"
    />
    <rect
      fill="none"
      id="connector18terminal"
      height="10"
      width="10"
      x="800.0"
      y="800.0"
      stroke="none"
      stroke-width="0"
    />
    <line
      fill="none"
      id="connector19pin"
      stroke="#555555"
      stroke-linecap="round"
      stroke-width="10"
      x1="705.0"
      x2="805.0"
      y1="705.0"
      y2="705.0"
    />
    <rect
      fill="none"
      id="connector19terminal"
      height="10"
      width="10"
      x="800.0"
      y="700.0"
      stroke="none"
      stroke-width="0"
    />
    <line
      fill="none"
      id="connector20pin"
      stroke="#555555"
      stroke-linecap="round"
      stroke-width="10"
      x1="705.0"
      x2="805.0"
      y1="605.0"
      y2="605.0"
    />
    <rect
      fill="none"
      id="connector20terminal"
      height="10"
      width="10"
      x="800.0"
      y="600.0"
      stroke="none"
      stroke-width="0"
    />
    <line
      fill="none"
      id="connector21pin"
      stroke="#555555"
      stroke-linecap="round"
      stroke-width="10"
      x1="705.0"
      x2="805.0"
      y1="505.0"
      y2="505.0"
    />
    <rect
      fill="none"
      id="connector21terminal"
      height="10"
      width="10"
      x="800.0"
      y="500.0"
      stroke="none"
      stroke-width="0"
    />
    <line
      fill="none"
      id="connector22pin"
      stroke="#555555"
      stroke-linecap="round"
      stroke-width="10"
      x1="705.0"
      x2="805.0"
      y1="405.0"
      y2="405.0"
    />
    <rect
      fill="none"
      id="connector22terminal"
      height="10"
      width="10"
      x="800.0"
      y="400.0"
      stroke="none"
      stroke-width="0"
    />
    <line
      fill="none"
      id="connector23pin"
      stroke="#555555"
      stroke-linecap="round"
      stroke-width="10"
      x1="705.0"
      x2="805.0"
      y1="305.0"
      y2="305.0"
    />
    <rect
      fill="none"
      id="connector23terminal"
      height="10"
      width="10"
      x="800.0"
      y="300.0"
      stroke="none"
      stroke-width="0"
    />
    <line
      fill="none"
      id="connector24pin"
      stroke="#555555"
      stroke-linecap="round"
      stroke-width="10"
      x1="705.0"
      x2="805.0"
      y1="205.0"
      y2="205.0"
    />
    <rect
      fill="none"
      id="connector24terminal"
      height="10"
      width="10"
      x="800.0"
      y="200.0"
      stroke="none"
      stroke-width="0"
    />
    <line
      fill="none"
      id="connector25pin"
      stroke="#555555"
      stroke-linecap="round"
      stroke-width="10"
      x1="705.0"
      x2="805.0"
      y1="105.0"
      y2="105.0"
    />
    <rect
      fill="none"
      id="connector25terminal"
      height="10"
      width="10"
      x="800.0"
      y="100.0"
      stroke="none"
      stroke-width="0"
    />
  </g>
</svg>
