<?xml version='1.0' encoding='UTF-8' standalone='no'?>
<svg
  xmlns="http://www.w3.org/2000/svg"
  id="svg2"
  viewBox="0 0 420 720"
  version="1.2"
  gorn="0"
  width="0.42in"
  height="0.72in">
  <desc>
    <referenceFile>74x126_1_pcb.svg</referenceFile>
  </desc>
  <metadata
    id="metadata38">
    <rdf:RDF
      xmlns:rdf="http://www.w3.org/1999/02/22-rdf-syntax-ns#">
      <cc:Work
        xmlns:cc="http://creativecommons.org/ns#"
        xmlns:rdf="http://www.w3.org/1999/02/22-rdf-syntax-ns#"
        rdf:about="">
        <dc:format
          xmlns:dc="http://purl.org/dc/elements/1.1/">image/svg+xml</dc:format>
        <dc:type
          xmlns:rdf="http://www.w3.org/1999/02/22-rdf-syntax-ns#"
          xmlns:dc="http://purl.org/dc/elements/1.1/"
          rdf:resource="http://purl.org/dc/dcmitype/StillImage"
        />
      </cc:Work>
    </rdf:RDF>
  </metadata>
  <defs
    id="defs36"
  />
  <desc
    id="desc4">Fritzing
    footprint
    SVG</desc>
  <g
    id="silkscreen"
    gorn="0.3">
    <line
      id="line7"
      stroke-width="10"
      x2="10"
      x1="10"
      gorn="0.3.0"
      y2="710"
      stroke="#000000"
      y1="10"
    />
    <line
      id="line9"
      stroke-width="10"
      x2="410"
      x1="10"
      gorn="0.3.1"
      y2="710"
      stroke="#000000"
      y1="710"
    />
    <line
      id="line11"
      stroke-width="10"
      x2="410"
      x1="410"
      gorn="0.3.2"
      y2="10"
      stroke="#000000"
      y1="710"
    />
    <line
      id="line13"
      stroke-width="10"
      x2="160"
      x1="10"
      gorn="0.3.3"
      y2="10"
      stroke="#000000"
      y1="10"
    />
    <line
      id="line15"
      stroke-width="10"
      x2="410"
      x1="260"
      gorn="0.3.4"
      y2="10"
      stroke="#000000"
      y1="10"
    />
  </g>
  <g
    id="copper1"
    gorn="0.4">
    <g
      id="copper0"
      gorn="0.4.0">
      <rect
        id="square"
        stroke-width="20"
        fill="none"
        x="32.5"
        gorn="0.4.0.0"
        width="55"
        stroke="rgb(255, 191, 0)"
        height="55"
        y="32.5"
      />
      <circle
        id="connector0pin"
        stroke-width="20"
        fill="none"
        cx="60"
        r="27.5"
        cy="60"
        gorn="0.4.0.1"
        stroke="rgb(255, 191, 0)"
      />
      <circle
        id="connector13pin"
        stroke-width="20"
        fill="none"
        cx="360"
        r="27.5"
        cy="60"
        gorn="0.4.0.2"
        stroke="rgb(255, 191, 0)"
      />
      <circle
        id="connector1pin"
        stroke-width="20"
        fill="none"
        cx="60"
        r="27.5"
        cy="160"
        gorn="0.4.0.3"
        stroke="rgb(255, 191, 0)"
      />
      <circle
        id="connector12pin"
        stroke-width="20"
        fill="none"
        cx="360"
        r="27.5"
        cy="160"
        gorn="0.4.0.4"
        stroke="rgb(255, 191, 0)"
      />
      <circle
        id="connector2pin"
        stroke-width="20"
        fill="none"
        cx="60"
        r="27.5"
        cy="260"
        gorn="0.4.0.5"
        stroke="rgb(255, 191, 0)"
      />
      <circle
        id="connector11pin"
        stroke-width="20"
        fill="none"
        cx="360"
        r="27.5"
        cy="260"
        gorn="0.4.0.6"
        stroke="rgb(255, 191, 0)"
      />
      <circle
        id="connector3pin"
        stroke-width="20"
        fill="none"
        cx="60"
        r="27.5"
        cy="360"
        gorn="0.4.0.7"
        stroke="rgb(255, 191, 0)"
      />
      <circle
        id="connector10pin"
        stroke-width="20"
        fill="none"
        cx="360"
        r="27.5"
        cy="360"
        gorn="0.4.0.8"
        stroke="rgb(255, 191, 0)"
      />
      <circle
        id="connector4pin"
        stroke-width="20"
        fill="none"
        cx="60"
        r="27.5"
        cy="460"
        gorn="0.4.0.9"
        stroke="rgb(255, 191, 0)"
      />
      <circle
        id="connector9pin"
        stroke-width="20"
        fill="none"
        cx="360"
        r="27.5"
        cy="460"
        gorn="0.4.0.10"
        stroke="rgb(255, 191, 0)"
      />
      <circle
        id="connector5pin"
        stroke-width="20"
        fill="none"
        cx="60"
        r="27.5"
        cy="560"
        gorn="0.4.0.11"
        stroke="rgb(255, 191, 0)"
      />
      <circle
        id="connector8pin"
        stroke-width="20"
        fill="none"
        cx="360"
        r="27.5"
        cy="560"
        gorn="0.4.0.12"
        stroke="rgb(255, 191, 0)"
      />
      <circle
        id="connector6pin"
        stroke-width="20"
        fill="none"
        cx="60"
        r="27.5"
        cy="660"
        gorn="0.4.0.13"
        stroke="rgb(255, 191, 0)"
      />
      <circle
        id="connector7pin"
        stroke-width="20"
        fill="none"
        cx="360"
        r="27.5"
        cy="660"
        gorn="0.4.0.14"
        stroke="rgb(255, 191, 0)"
      />
    </g>
  </g>
</svg>
