<?xml version='1.0' encoding='UTF-8' standalone='no'?>
<svg
  xmlns:dc="http://purl.org/dc/elements/1.1/"
  xmlns:cc="http://creativecommons.org/ns#"
  xmlns:rdf="http://www.w3.org/1999/02/22-rdf-syntax-ns#"
  xmlns:svg="http://www.w3.org/2000/svg"
  xmlns="http://www.w3.org/2000/svg"
  height="0.33000001in"
  width="0.69999999in"
  gorn="0"
  version="1.2"
  viewBox="0 0 700.00019 330.00012"
  id="svg2">
  <desc
    id="desc2">
    <referenceFile>74x126_1_breadboard.svg</referenceFile>
  </desc>
  <metadata
    id="metadata76">
    <rdf:RDF>
      <cc:Work
        rdf:about="">
        <dc:format>image/svg+xml</dc:format>
        <dc:type
          rdf:resource="http://purl.org/dc/dcmitype/StillImage"
        />
        <dc:title/>
      </cc:Work>
    </rdf:RDF>
  </metadata>
  <defs
    id="defs74"
  />
  <g
    id="breadboard">
    <rect
      y="30.00001"
      height="270.00009"
      width="700.00024"
      gorn="0.2.0"
      x="0"
      fill="#303030"
      id="middle"
      stroke-width="10"
    />
    <rect
      y="30.00001"
      height="24.600008"
      width="700.00024"
      gorn="0.2.1"
      x="0"
      fill="#3d3d3d"
      id="top"
      stroke-width="10"
    />
    <rect
      y="275.40009"
      height="24.600008"
      width="700.00024"
      gorn="0.2.2"
      x="0"
      fill="#000000"
      id="bottom"
      stroke-width="10"
    />
    <polygon
      gorn="0.2.3"
      points="69.25,27.54 70,30 70,3 69.25,5.46 "
      fill="#141414"
      id="right"
      transform="scale(10.000003)"
    />
    <polygon
      gorn="0.2.4"
      points="0.75,27.54 0,30 0,3 0.75,5.46 "
      fill="#1f1f1f"
      id="left"
      transform="scale(10.000003)"
    />
    <polygon
      gorn="0.2.5"
      points="5,11.5 0.75,11.46 0.56,13.58 0.56,16.5 5,16.5 "
      fill="#1c1c1c"
      id="left-upper-rect"
      transform="scale(10.000003)"
    />
    <polygon
      gorn="0.2.6"
      points="0.75,21.55 5,21.55 5,16.5 0.56,16.5 0.56,19.42 "
      fill="#383838"
      id="left-lower-rect"
      transform="scale(10.000003)"
    />
    <path
      gorn="0.2.7"
      d="m 5.6000018,135.80004 v 58.30002 c 14.7000042,-1.7 26.2000082,-14 26.2000082,-29.20001 0,-15.2 -11.400003,-27.40001 -26.2000082,-29.10001 z"
      fill="#262626"
      id="slot"
      stroke-width="10"
    />
    <path
      gorn="0.2.8"
      d="m 7.5000024,54.600017 v 59.900023 c 23.8000076,4.5 41.9000136,25.3 41.9000136,50.40001 0,25.10001 -18.000006,46.00002 -41.9000136,50.50002 v 0.1 H 57.500018 V 54.600017 Z"
      fill="#303030"
      id="cover"
      stroke-width="10"
    />
    <circle
      gorn="0.2.9"
      cy="234.70007"
      r="20.600006"
      cx="65.000023"
      fill="#212121"
      id="circle13"
      stroke-width="10"
    />
    <text
      y="187.18315"
      font-size="80"
      gorn="0.2.10"
      x="153.73245"
      id="label"
      font-family="OCRA"
      text-anchor="start"
      fill="#e6e6e6"
      stroke="none"
      stroke-width="10">74x126</text>
    <rect
      y="286.6001"
      height="43.400017"
      width="30.00001"
      gorn="0.2.11"
      x="35.000011"
      fill="#8c8c8c"
      id="connector0pin"
      stroke-width="10"
    />
    <rect
      y="300.00009"
      height="30.00001"
      width="30.00001"
      gorn="0.2.12"
      x="35.000011"
      fill="#8c8c8c"
      id="connector0terminal"
      stroke-width="10"
    />
    <polygon
      gorn="0.2.13"
      points="3.5,28.66 3.5,30.66 6.5,30.66 8.5,29.74 8.5,28.66 "
      fill="#8c8c8c"
      id="polygon18"
      transform="scale(10.000003)"
    />
    <rect
      height="43.400017"
      width="30.00001"
      gorn="0.2.14"
      x="35.000011"
      fill="#8c8c8c"
      id="connector13pin"
      y="0"
      stroke-width="10"
    />
    <rect
      height="30.00001"
      width="30.00001"
      gorn="0.2.15"
      x="35.000011"
      fill="#8c8c8c"
      id="connector13terminal"
      y="0"
      stroke-width="10"
    />
    <polygon
      gorn="0.2.16"
      points="8.5,4.34 8.5,3.26 6.5,2.34 3.5,2.34 3.5,4.34 "
      fill="#8c8c8c"
      id="polygon22"
      transform="scale(10.000003)"
    />
    <rect
      y="286.6001"
      height="43.400017"
      width="30.00001"
      gorn="0.2.17"
      x="635.00018"
      fill="#8c8c8c"
      id="connector6pin"
      stroke-width="10"
    />
    <rect
      y="300.00009"
      height="30.00001"
      width="30.00001"
      gorn="0.2.18"
      x="635.00018"
      fill="#8c8c8c"
      id="connector6terminal"
      stroke-width="10"
    />
    <polygon
      gorn="0.2.19"
      points="61.5,28.66 61.5,29.74 63.5,30.66 66.5,30.66 66.5,28.66 "
      fill="#8c8c8c"
      id="polygon26"
      transform="scale(10.000003)"
    />
    <rect
      y="0"
      height="43.400017"
      width="30.00001"
      gorn="0.2.20"
      x="635.00018"
      fill="#8c8c8c"
      id="connector7pin"
      stroke-width="10"
    />
    <rect
      y="0"
      height="30.00001"
      width="30.00001"
      gorn="0.2.21"
      x="635.00018"
      fill="#8c8c8c"
      id="connector7terminal"
      stroke-width="10"
    />
    <polygon
      gorn="0.2.22"
      points="66.5,4.34 66.5,2.34 63.5,2.34 61.5,3.26 61.5,4.34 "
      fill="#8c8c8c"
      id="polygon30"
      transform="scale(10.000003)"
    />
    <rect
      y="0"
      height="43.400017"
      width="30.00001"
      gorn="0.2.23"
      x="135.00005"
      fill="#8c8c8c"
      id="connector12pin"
      stroke-width="10"
    />
    <rect
      height="30.00001"
      width="30.00001"
      gorn="0.2.24"
      x="135.00005"
      fill="#8c8c8c"
      id="connector12terminal"
      y="0"
      stroke-width="10"
    />
    <polygon
      gorn="0.2.25"
      points="11.5,3.26 11.5,4.34 18.5,4.34 18.5,3.26 16.5,2.34 13.5,2.34 "
      fill="#8c8c8c"
      id="polygon34"
      transform="scale(10.000003)"
    />
    <rect
      y="0"
      height="43.400017"
      width="30.00001"
      gorn="0.2.26"
      x="235.00008"
      fill="#8c8c8c"
      id="connector11pin"
      stroke-width="10"
    />
    <rect
      height="30.00001"
      width="30.00001"
      gorn="0.2.27"
      x="235.00008"
      fill="#8c8c8c"
      id="connector11terminal"
      y="0"
      stroke-width="10"
    />
    <polygon
      gorn="0.2.28"
      points="21.5,3.26 21.5,4.34 28.5,4.34 28.5,3.26 26.5,2.34 23.5,2.34 "
      fill="#8c8c8c"
      id="polygon38"
      transform="scale(10.000003)"
    />
    <rect
      y="0"
      height="43.400017"
      width="30.00001"
      gorn="0.2.29"
      x="335.00012"
      fill="#8c8c8c"
      id="connector10pin"
      stroke-width="10"
    />
    <rect
      height="30.00001"
      width="30.00001"
      gorn="0.2.30"
      x="335.00012"
      fill="#8c8c8c"
      id="connector10terminal"
      y="0"
      stroke-width="10"
    />
    <polygon
      gorn="0.2.31"
      points="31.5,3.26 31.5,4.34 38.5,4.34 38.5,3.26 36.5,2.34 33.5,2.34 "
      fill="#8c8c8c"
      id="polygon42"
      transform="scale(10.000003)"
    />
    <rect
      y="0"
      height="43.400017"
      width="30.00001"
      gorn="0.2.32"
      x="435.00015"
      fill="#8c8c8c"
      id="connector9pin"
      stroke-width="10"
    />
    <rect
      height="30.00001"
      width="30.00001"
      gorn="0.2.33"
      x="435.00015"
      fill="#8c8c8c"
      id="connector9terminal"
      y="0"
      stroke-width="10"
    />
    <polygon
      gorn="0.2.34"
      points="41.5,3.26 41.5,4.34 48.5,4.34 48.5,3.26 46.5,2.34 43.5,2.34 "
      fill="#8c8c8c"
      id="polygon46"
      transform="scale(10.000003)"
    />
    <rect
      y="0"
      height="43.400017"
      width="30.00001"
      gorn="0.2.35"
      x="535.00018"
      fill="#8c8c8c"
      id="connector8pin"
      stroke-width="10"
    />
    <rect
      height="30.00001"
      width="30.00001"
      gorn="0.2.36"
      x="535.00018"
      fill="#8c8c8c"
      id="connector8terminal"
      y="0"
      stroke-width="10"
    />
    <polygon
      gorn="0.2.37"
      points="51.5,3.26 51.5,4.34 58.5,4.34 58.5,3.26 56.5,2.34 53.5,2.34 "
      fill="#8c8c8c"
      id="polygon50"
      transform="scale(10.000003)"
    />
    <rect
      y="286.6001"
      height="43.400017"
      width="30.00001"
      gorn="0.2.38"
      x="135.00005"
      fill="#8c8c8c"
      id="connector1pin"
      stroke-width="10"
    />
    <rect
      y="300.00009"
      height="30.00001"
      width="30.00001"
      gorn="0.2.39"
      x="135.00005"
      fill="#8c8c8c"
      id="connector1terminal"
      stroke-width="10"
    />
    <polygon
      gorn="0.2.40"
      points="18.5,29.74 18.5,28.66 11.5,28.66 11.5,29.74 13.5,30.66 16.5,30.66 "
      fill="#8c8c8c"
      id="polygon54"
      transform="scale(10.000003)"
    />
    <rect
      y="286.6001"
      height="43.400017"
      width="30.00001"
      gorn="0.2.41"
      x="235.00008"
      fill="#8c8c8c"
      id="connector2pin"
      stroke-width="10"
    />
    <rect
      y="300.00009"
      height="30.00001"
      width="30.00001"
      gorn="0.2.42"
      x="235.00008"
      fill="#8c8c8c"
      id="connector2terminal"
      stroke-width="10"
    />
    <polygon
      gorn="0.2.43"
      points="28.5,29.74 28.5,28.66 21.5,28.66 21.5,29.74 23.5,30.66 26.5,30.66 "
      fill="#8c8c8c"
      id="polygon58"
      transform="scale(10.000003)"
    />
    <rect
      y="286.6001"
      height="43.400017"
      width="30.00001"
      gorn="0.2.44"
      x="335.00012"
      fill="#8c8c8c"
      id="connector3pin"
      stroke-width="10"
    />
    <rect
      y="300.00009"
      height="30.00001"
      width="30.00001"
      gorn="0.2.45"
      x="335.00012"
      fill="#8c8c8c"
      id="connector3terminal"
      stroke-width="10"
    />
    <polygon
      gorn="0.2.46"
      points="38.5,29.74 38.5,28.66 31.5,28.66 31.5,29.74 33.5,30.66 36.5,30.66 "
      fill="#8c8c8c"
      id="polygon62"
      transform="scale(10.000003)"
    />
    <rect
      y="286.6001"
      height="43.400017"
      width="30.00001"
      gorn="0.2.47"
      x="435.00015"
      fill="#8c8c8c"
      id="connector4pin"
      stroke-width="10"
    />
    <rect
      y="300.00009"
      height="30.00001"
      width="30.00001"
      gorn="0.2.48"
      x="435.00015"
      fill="#8c8c8c"
      id="connector4terminal"
      stroke-width="10"
    />
    <polygon
      gorn="0.2.49"
      points="48.5,29.74 48.5,28.66 41.5,28.66 41.5,29.74 43.5,30.66 46.5,30.66 "
      fill="#8c8c8c"
      id="polygon66"
      transform="scale(10.000003)"
    />
    <rect
      y="286.6001"
      height="43.400017"
      width="30.00001"
      gorn="0.2.50"
      x="535.00018"
      fill="#8c8c8c"
      id="connector5pin"
      stroke-width="10"
    />
    <rect
      y="300.00009"
      height="30.00001"
      width="30.00001"
      gorn="0.2.51"
      x="535.00018"
      fill="#8c8c8c"
      id="connector5terminal"
      stroke-width="10"
    />
    <polygon
      gorn="0.2.52"
      points="58.5,29.74 58.5,28.66 51.5,28.66 51.5,29.74 53.5,30.66 56.5,30.66 "
      fill="#8c8c8c"
      id="polygon70"
      transform="scale(10.000003)"
    />
  </g>
</svg>
