<?xml version='1.0' encoding='UTF-8' standalone='no'?>
<svg
  xmlns:dc="http://purl.org/dc/elements/1.1/"
  xmlns:cc="http://creativecommons.org/ns#"
  xmlns:rdf="http://www.w3.org/1999/02/22-rdf-syntax-ns#"
  xmlns:svg="http://www.w3.org/2000/svg"
  xmlns="http://www.w3.org/2000/svg"
  width="2.8446457in"
  gorn="0"
  height="1.7029133in"
  enable-background="new -46.775 16.925 79.95 72.75"
  viewBox="0 0 2844.6468 1702.9139"
  xml:space="preserve"
  y="0px"
  version="1.1"
  id="Layer_1"
  x="0px">
  <metadata
    id="metadata44">
    <rdf:RDF>
      <cc:Work
        rdf:about="">
        <dc:title/>
        <dc:format>image/svg+xml</dc:format>
        <dc:type
          rdf:resource="http://purl.org/dc/dcmitype/StillImage"
        />
      </cc:Work>
    </rdf:RDF>
  </metadata>
  <defs
    id="defs42">
    <defs
      id="defs14273"
    />
  </defs>
  <desc
    id="desc2">
    <referenceFile>OLED-display-2.43in-SSD1309_1_pcb.svg</referenceFile>
  </desc>
  <g
    id="silkscreen">
    <rect
      stroke-width="10"
      fill="none"
      width="2834.6467"
      gorn="0.3"
      height="1692.9139"
      y="5"
      id="rect18113"
      x="5"
      stroke="#000000"
    />
    <circle
      stroke-width="0"
      stroke="none"
      fill="#000000"
      gorn="0.12.0.0.0.0"
      cx="80.28595"
      id="ellipse68"
      cy="88.820496"
      r="60"
    />
    <circle
      stroke-width="0"
      stroke="none"
      fill="#000000"
      gorn="0.12.0.0.0.0"
      cx="80.28595"
      id="circle70"
      cy="1616.3785"
      r="60"
    />
    <circle
      stroke-width="0"
      stroke="none"
      fill="#000000"
      gorn="0.12.0.0.0.0"
      cx="2741.6938"
      id="circle72"
      cy="1616.3785"
      r="60"
    />
    <circle
      stroke-width="0"
      stroke="none"
      fill="#000000"
      gorn="0.12.0.0.0.0"
      cx="2741.6938"
      id="circle74"
      cy="88.818909"
      r="60"
    />
  </g>
  <g
    id="copper1">
    <g
      id="copper0">
      <rect
        id="rect76"
        width="58.000027"
        height="58.000027"
        x="75.000061"
        y="1122.0004"
        fill="none"
        stroke="#ffbf00"
        stroke-width="20"
      />
      <circle
        gorn="0.12.0.3.0.0"
        cx="104.27277"
        id="connector0pin"
        cy="1151.5002"
        fill="#ffffff"
        stroke="#ffbf00"
        stroke-width="20"
        r="29"
      />
      <circle
        gorn="0.12.0.3.0.0"
        cx="104.27277"
        id="connector1pin"
        cy="1051.0004"
        fill="#ffffff"
        stroke="#ffbf00"
        stroke-width="20"
        r="29"
      />
      <circle
        gorn="0.12.0.3.0.0"
        cx="104.27277"
        id="connector2pin"
        cy="951.00031"
        fill="#ffffff"
        stroke="#ffbf00"
        stroke-width="20"
        r="29"
      />
      <circle
        gorn="0.12.0.3.0.0"
        cx="104.27277"
        id="connector3pin"
        cy="852.00031"
        fill="#ffffff"
        stroke="#ffbf00"
        stroke-width="20"
        r="29"
      />
      <circle
        stroke-width="20"
        stroke="#ffbf00"
        fill="#ffffff"
        gorn="0.12.0.2.0.0"
        cx="104.27277"
        id="connector4pin"
        cy="752.00024"
        r="29"
      />
      <circle
        stroke-width="20"
        stroke="#ffbf00"
        fill="#ffffff"
        gorn="0.12.0.1.0.0"
        cx="104.27277"
        id="connector5pin"
        cy="652.00024"
        r="29"
      />
      <circle
        stroke-width="20"
        stroke="#ffbf00"
        fill="#ffffff"
        gorn="0.12.0.0.0.0"
        cx="104.27277"
        id="connector6pin"
        cy="552.00018"
        r="29"
      />
    </g>
  </g>
</svg>
