<?xml version='1.0' encoding='UTF-8' standalone='no'?>
<svg
  xmlns:dc="http://purl.org/dc/elements/1.1/"
  xmlns:cc="http://creativecommons.org/ns#"
  xmlns:rdf="http://www.w3.org/1999/02/22-rdf-syntax-ns#"
  xmlns:svg="http://www.w3.org/2000/svg"
  xmlns="http://www.w3.org/2000/svg"
  width="0.71in"
  enable-background="new 0 0 58 50"
  height="0.81in"
  viewBox="0 0 710.0 810.0"
  y="0px"
  version="1.1"
  id="Layer_1"
  x="0px">
  <desc
    id="desc2">
    <referenceFile>OLED-display-2.43in-SSD1309_1_schematic.svg</referenceFile>
  </desc>
  <metadata
    id="metadata18374">
    <rdf:RDF>
      <cc:Work
        rdf:about="">
        <dc:format>image/svg+xml</dc:format>
        <dc:type
          rdf:resource="http://purl.org/dc/dcmitype/StillImage"
        />
        <dc:title/>
      </cc:Work>
    </rdf:RDF>
    <rdf:RDF>
      <cc:Work
        rdf:about="">
        <dc:title/>
      </cc:Work>
    </rdf:RDF>
  </metadata>
  <defs
    id="defs18372"
  />
  <g
    id="schematic">
    <text
      x="461.38184"
      y="505.58594"
      font-family="'Droid Sans'"
      font-size="60"
      fill="#000000"
      id="text94"
      text-anchor="middle">128*64</text>
    <text
      x="461.38184"
      y="405.20898"
      font-family="'Droid Sans'"
      font-size="60"
      fill="#000000"
      id="text92"
      text-anchor="middle">Display</text>
    <rect
      fill="none"
      height="800.0"
      width="600.0"
      stroke-width="10"
      stroke="#000000"
      stroke-linejoin="round"
      stroke-linecap="round"
      id="symbol"
      x="105"
      y="5"
    />
    <text
      x="461.38184"
      y="305.20898"
      font-family="'Droid Sans'"
      font-size="60"
      fill="#000000"
      id="label"
      text-anchor="middle">2.42in OLED</text>
    <text
      x="75"
      y="85"
      text-anchor="end"
      font-family="Droid Sans"
      font-size="35"
      fill="#555555"
      id="pin0num">1</text>
    <text
      x="125"
      y="117"
      text-anchor="start"
      font-family="Droid Sans"
      font-size="49"
      fill="#555555"
      id="pin0label">GND</text>
    <text
      x="75"
      y="185"
      text-anchor="end"
      font-family="Droid Sans"
      font-size="35"
      fill="#555555"
      id="pin1num">2</text>
    <text
      x="125"
      y="217"
      text-anchor="start"
      font-family="Droid Sans"
      font-size="49"
      fill="#555555"
      id="pin1label">VCC</text>
    <text
      x="75"
      y="285"
      text-anchor="end"
      font-family="Droid Sans"
      font-size="35"
      fill="#555555"
      id="pin2num">3</text>
    <text
      x="125"
      y="317"
      text-anchor="start"
      font-family="Droid Sans"
      font-size="49"
      fill="#555555"
      id="pin2label">SCL</text>
    <text
      x="75"
      y="385"
      text-anchor="end"
      font-family="Droid Sans"
      font-size="35"
      fill="#555555"
      id="pin3num">4</text>
    <text
      x="125"
      y="417"
      text-anchor="start"
      font-family="Droid Sans"
      font-size="49"
      fill="#555555"
      id="pin3label">SDA</text>
    <text
      x="75"
      y="485"
      text-anchor="end"
      font-family="Droid Sans"
      font-size="35"
      fill="#555555"
      id="pin4num">5</text>
    <text
      x="125"
      y="517"
      text-anchor="start"
      font-family="Droid Sans"
      font-size="49"
      fill="#555555"
      id="pin4label">RES</text>
    <text
      x="75"
      y="585"
      text-anchor="end"
      font-family="Droid Sans"
      font-size="35"
      fill="#555555"
      id="pin5num">6</text>
    <text
      x="125"
      y="617"
      text-anchor="start"
      font-family="Droid Sans"
      font-size="49"
      fill="#555555"
      id="pin5label">DC</text>
    <text
      x="75"
      y="685"
      text-anchor="end"
      font-family="Droid Sans"
      font-size="35"
      fill="#555555"
      id="pin6num">7</text>
    <text
      x="125"
      y="717"
      text-anchor="start"
      font-family="Droid Sans"
      font-size="49"
      fill="#555555"
      id="pin6label">CS</text>
    <line
      fill="none"
      id="connector0pin"
      stroke="#555555"
      stroke-linecap="round"
      stroke-width="10"
      x1="105"
      x2="5"
      y1="105"
      y2="105"
    />
    <rect
      fill="none"
      id="connector0terminal"
      height="10"
      width="10"
      x="0"
      y="100"
      stroke="none"
      stroke-width="0"
    />
    <line
      fill="none"
      id="connector1pin"
      stroke="#555555"
      stroke-linecap="round"
      stroke-width="10"
      x1="105"
      x2="5"
      y1="205"
      y2="205"
    />
    <rect
      fill="none"
      id="connector1terminal"
      height="10"
      width="10"
      x="0"
      y="200"
      stroke="none"
      stroke-width="0"
    />
    <line
      fill="none"
      id="connector2pin"
      stroke="#555555"
      stroke-linecap="round"
      stroke-width="10"
      x1="105"
      x2="5"
      y1="305"
      y2="305"
    />
    <rect
      fill="none"
      id="connector2terminal"
      height="10"
      width="10"
      x="0"
      y="300"
      stroke="none"
      stroke-width="0"
    />
    <line
      fill="none"
      id="connector3pin"
      stroke="#555555"
      stroke-linecap="round"
      stroke-width="10"
      x1="105"
      x2="5"
      y1="405"
      y2="405"
    />
    <rect
      fill="none"
      id="connector3terminal"
      height="10"
      width="10"
      x="0"
      y="400"
      stroke="none"
      stroke-width="0"
    />
    <line
      fill="none"
      id="connector4pin"
      stroke="#555555"
      stroke-linecap="round"
      stroke-width="10"
      x1="105"
      x2="5"
      y1="505"
      y2="505"
    />
    <rect
      fill="none"
      id="connector4terminal"
      height="10"
      width="10"
      x="0"
      y="500"
      stroke="none"
      stroke-width="0"
    />
    <line
      fill="none"
      id="connector5pin"
      stroke="#555555"
      stroke-linecap="round"
      stroke-width="10"
      x1="105"
      x2="5"
      y1="605"
      y2="605"
    />
    <rect
      fill="none"
      id="connector5terminal"
      height="10"
      width="10"
      x="0"
      y="600"
      stroke="none"
      stroke-width="0"
    />
    <line
      fill="none"
      id="connector6pin"
      stroke="#555555"
      stroke-linecap="round"
      stroke-width="10"
      x1="105"
      x2="5"
      y1="705"
      y2="705"
    />
    <rect
      fill="none"
      id="connector6terminal"
      height="10"
      width="10"
      x="0"
      y="700"
      stroke="none"
      stroke-width="0"
    />
  </g>
</svg>
