<?xml version='1.0' encoding='UTF-8' standalone='no'?>
<!-- Created with Fritzing (http://www.fritzing.org/) -->
  <svg
  xmlns="http://www.w3.org/2000/svg"
  xmlns:svg="http://www.w3.org/2000/svg"
  xmlns:rdf="http://www.w3.org/1999/02/22-rdf-syntax-ns#"
  xmlns:cc="http://creativecommons.org/ns#"
  xmlns:dc="http://purl.org/dc/elements/1.1/"
  gorn="0"
  id="svg2"
  x="0in"
  y="0in"
  viewBox="0 0 810 510"
  width="0.81in"
  height="0.50999999in"
  version="1.2">
  <metadata
    id="metadata112">
    <rdf:RDF>
      <cc:Work
        rdf:about="">
        <dc:format>image/svg+xml</dc:format>
        <dc:type
          rdf:resource="http://purl.org/dc/dcmitype/StillImage"
        />
      </cc:Work>
    </rdf:RDF>
  </metadata>
  <defs
    id="defs110"
  />
  <desc
    id="desc4">
    <referenceFile>LM2596-smd_1_schematic.svg</referenceFile>
  </desc>
  <g
    id="schematic">
    <rect
      fill="none"
      height="400"
      width="600"
      stroke-width="10"
      stroke="#000000"
      stroke-linejoin="round"
      stroke-linecap="round"
      id="symbol"
      x="105"
      y="5"
    />
    <text
      x="405.14008"
      y="123.36208"
      font-family="'Droid Sans'"
      font-size="59.9586"
      fill="#000000"
      id="label"
      text-anchor="middle"
      transform="scale(0.99930997,1.0006905)"
      stroke-width="0.999999">LM2596</text>
    <text
      x="75"
      y="185"
      text-anchor="end"
      font-family="'Droid Sans'"
      font-size="35"
      fill="#555555"
      id="pin0num">1</text>
    <text
      x="125"
      y="217"
      text-anchor="start"
      font-family="'Droid Sans'"
      font-size="49"
      fill="#555555"
      id="pin0label">+Vin</text>
    <text
      x="285.03857"
      y="455"
      text-anchor="end"
      font-family="'Droid Sans'"
      font-size="35"
      fill="#555555"
      id="pin4num">5</text>
    <text
      x="-385"
      y="317"
      text-anchor="start"
      transform="rotate(-90)"
      font-family="'Droid Sans'"
      font-size="49"
      fill="#555555"
      id="pin4label">ON/OFF</text>
    <text
      x="385.03857"
      y="455"
      text-anchor="end"
      font-family="'Droid Sans'"
      font-size="35"
      fill="#555555"
      id="pin2num">3</text>
    <text
      x="-385"
      y="417.03857"
      text-anchor="start"
      transform="rotate(-90)"
      font-family="'Droid Sans'"
      font-size="49"
      fill="#555555"
      id="pin2label">GND</text>
    <text
      x="735"
      y="285.12207"
      text-anchor="start"
      font-family="'Droid Sans'"
      font-size="35"
      fill="#555555"
      id="pin1num">2</text>
    <text
      x="685"
      y="317.12207"
      text-anchor="end"
      font-family="'Droid Sans'"
      font-size="49"
      fill="#555555"
      id="pin1label">Output</text>
    <text
      x="735"
      y="185.12207"
      text-anchor="start"
      font-family="'Droid Sans'"
      font-size="35"
      fill="#555555"
      id="pin3num">4</text>
    <text
      x="685"
      y="217.12207"
      text-anchor="end"
      font-family="'Droid Sans'"
      font-size="49"
      fill="#555555"
      id="pin3label">Feedback</text>
    <line
      fill="none"
      id="connector0pin"
      stroke="#555555"
      stroke-linecap="round"
      stroke-width="10"
      x1="105"
      x2="5"
      y1="205"
      y2="205"
    />
    <rect
      fill="none"
      id="connector0terminal"
      height="10"
      width="10"
      x="0"
      y="200"
      stroke="none"
      stroke-width="0"
    />
    <line
      fill="none"
      id="connector1pin"
      stroke="#555555"
      stroke-linecap="round"
      stroke-width="10"
      x1="705"
      x2="805"
      y1="305.12207"
      y2="305.12207"
    />
    <rect
      fill="none"
      id="connector1terminal"
      height="10"
      width="10"
      x="800"
      y="300.12207"
      stroke="none"
      stroke-width="0"
    />
    <line
      fill="none"
      id="connector2pin"
      stroke="#555555"
      stroke-linecap="round"
      stroke-width="10"
      x1="405.03857"
      x2="405.03857"
      y1="405"
      y2="505"
    />
    <rect
      fill="none"
      id="connector2terminal"
      height="10"
      width="10"
      x="400.03857"
      y="500"
      stroke="none"
      stroke-width="0"
    />
    <line
      fill="none"
      id="connector3pin"
      stroke="#555555"
      stroke-linecap="round"
      stroke-width="10"
      x1="705"
      x2="805"
      y1="205.12207"
      y2="205.12207"
    />
    <rect
      fill="none"
      id="connector3terminal"
      height="10"
      width="10"
      x="800"
      y="200.12207"
      stroke="none"
      stroke-width="0"
    />
    <line
      fill="none"
      id="connector4pin"
      stroke="#555555"
      stroke-linecap="round"
      stroke-width="10"
      x1="305.03857"
      x2="305.03857"
      y1="405"
      y2="505"
    />
    <rect
      fill="none"
      id="connector4terminal"
      height="10"
      width="10"
      x="300.03857"
      y="500"
      stroke="none"
      stroke-width="0"
    />
  </g>
</svg>
