<?xml version='1.0' encoding='UTF-8' standalone='no'?>
<svg
  xmlns:dc="http://purl.org/dc/elements/1.1/"
  xmlns:cc="http://creativecommons.org/ns#"
  xmlns:rdf="http://www.w3.org/1999/02/22-rdf-syntax-ns#"
  xmlns:svg="http://www.w3.org/2000/svg"
  xmlns="http://www.w3.org/2000/svg"
  viewBox="0 0 551.18109 551.1811"
  x="0in"
  width="0.55118114in"
  height="0.55118114in"
  version="1.2"
  y="0in"
  id="svg2">
  <metadata
    id="metadata24">
    <rdf:RDF>
      <cc:Work
        rdf:about="">
        <dc:format>image/svg+xml</dc:format>
        <dc:type
          rdf:resource="http://purl.org/dc/dcmitype/StillImage"
        />
        <dc:title/>
      </cc:Work>
    </rdf:RDF>
  </metadata>
  <defs
    id="defs22"
  />
  <desc
    id="desc4">
    <referenceFile>power-supply-cui-pqp3-d-single_1_breadboard.svg</referenceFile>
  </desc>
  <g
    id="breadboard">
    <rect
      id="rect350"
      width="551.18109"
      height="551.18109"
      x="0"
      y="0"
      fill="#000000"
      stroke-width="0"
      stroke="none"
      fill-opacity="1"
    />
    <text
      fill="#ffffff"
      font-family="OCRA"
      id="text3685"
      font-size="49"
      y="304.10214"
      x="30.422344">PQP3-D12-S24-D</text>
    <text
      fill="#ffffff"
      font-family="OCRA"
      id="text17"
      font-size="48.611"
      y="81.284492"
      x="237.20995">CUI</text>
    <circle
      id="connector0pin"
      gorn="0.2.0.1"
      cx="124.43506"
      cy="135.01764"
      fill="#999999"
      stroke="none"
      stroke-width="0"
      r="20"
    />
    <circle
      id="connector1pin"
      gorn="0.2.0.3"
      cx="124.43506"
      cy="434.59894"
      r="20"
      fill="#999999"
      stroke="none"
      stroke-width="0"
    />
    <circle
      r="20"
      cy="434.59894"
      cx="423.53842"
      gorn="0.2.0.3"
      id="connector2pin"
      fill="#999999"
      stroke="none"
      stroke-width="0"
    />
    <circle
      r="20"
      cy="334.599"
      cx="423.53842"
      gorn="0.2.0.2"
      id="connector3pin"
      fill="#999999"
      stroke="none"
      stroke-width="0"
    />
    <circle
      r="20"
      cy="234.599"
      cx="423.53842"
      gorn="0.2.0.2"
      id="connector4pin"
      fill="#999999"
      stroke="none"
      stroke-width="0"
    />
  </g>
</svg>
