G04 MADE WITH FRITZING*
G04 WWW.FRITZING.ORG*
G04 DOUBLE SIDED*
G04 HOLES PLATED*
G04 CONTOUR ON CENTER OF CONTOUR VECTOR*
%ASAXBY*%
%FSLAX23Y23*%
%MOIN*%
%OFA0B0*%
%SFA1.0B1.0*%
%ADD10C,0.070000*%
%ADD11C,0.039370*%
%ADD12C,0.074000*%
%ADD13C,0.075000*%
%ADD14C,0.078000*%
%ADD15C,0.062992*%
%ADD16C,0.105000*%
%ADD17R,0.074000X0.074000*%
%ADD18R,0.075000X0.075000*%
%ADD19R,0.078000X0.078000*%
%ADD20R,0.062992X0.062992*%
%ADD21R,0.105000X0.104986*%
%ADD22C,0.024000*%
%LNCOPPER0*%
G90*
G70*
G54D10*
X181Y1496D03*
X181Y1396D03*
G54D11*
X737Y1442D03*
G54D12*
X205Y1122D03*
X205Y1022D03*
X205Y922D03*
X205Y822D03*
X205Y722D03*
X205Y622D03*
X205Y522D03*
X205Y422D03*
X205Y322D03*
X205Y222D03*
X305Y1122D03*
X305Y1022D03*
X305Y922D03*
X305Y822D03*
X305Y722D03*
X305Y622D03*
X305Y522D03*
X305Y422D03*
X305Y322D03*
X305Y222D03*
X205Y1122D03*
X205Y1022D03*
X205Y922D03*
X205Y822D03*
X205Y722D03*
X205Y622D03*
X205Y522D03*
X205Y422D03*
X205Y322D03*
X205Y222D03*
X305Y1122D03*
X305Y1022D03*
X305Y922D03*
X305Y822D03*
X305Y722D03*
X305Y622D03*
X305Y522D03*
X305Y422D03*
X305Y322D03*
X305Y222D03*
X184Y3690D03*
X184Y3590D03*
X184Y3490D03*
X184Y3390D03*
X184Y3290D03*
X284Y3690D03*
X284Y3590D03*
X284Y3490D03*
X284Y3390D03*
X284Y3290D03*
X184Y3690D03*
X184Y3590D03*
X184Y3490D03*
X184Y3390D03*
X184Y3290D03*
X284Y3690D03*
X284Y3590D03*
X284Y3490D03*
X284Y3390D03*
X284Y3290D03*
G54D13*
X402Y2960D03*
X302Y2960D03*
X402Y2960D03*
X302Y2960D03*
X166Y2921D03*
X166Y3021D03*
X166Y2921D03*
X166Y3021D03*
G54D14*
X2972Y2117D03*
X2872Y2117D03*
X2772Y2117D03*
X2972Y3692D03*
X2872Y3692D03*
X2772Y3692D03*
X2972Y1724D03*
X2872Y1724D03*
X2772Y1724D03*
X2972Y3299D03*
X2872Y3299D03*
X2772Y3299D03*
X2972Y936D03*
X2872Y936D03*
X2772Y936D03*
X2972Y2905D03*
X2872Y2905D03*
X2772Y2905D03*
X2972Y1330D03*
X2872Y1330D03*
X2772Y1330D03*
X2972Y2511D03*
X2872Y2511D03*
X2772Y2511D03*
X1780Y931D03*
X1680Y931D03*
X1580Y931D03*
X1780Y1324D03*
X1680Y1324D03*
X1580Y1324D03*
X1780Y1718D03*
X1680Y1718D03*
X1580Y1718D03*
X1780Y2112D03*
X1680Y2112D03*
X1580Y2112D03*
X1780Y2505D03*
X1680Y2505D03*
X1580Y2505D03*
X1780Y2899D03*
X1680Y2899D03*
X1580Y2899D03*
X1780Y3293D03*
X1680Y3293D03*
X1580Y3293D03*
X1780Y3687D03*
X1680Y3687D03*
X1580Y3687D03*
G54D15*
X3307Y936D03*
X3208Y936D03*
X2519Y3692D03*
X2421Y3692D03*
X2519Y1330D03*
X2421Y1330D03*
X2519Y936D03*
X2421Y936D03*
X3307Y2905D03*
X3208Y2905D03*
X3307Y3692D03*
X3208Y3692D03*
X2519Y2905D03*
X2421Y2905D03*
X3307Y2117D03*
X3208Y2117D03*
X3307Y1330D03*
X3208Y1330D03*
X3307Y1724D03*
X3208Y1724D03*
X2519Y2117D03*
X2421Y2117D03*
X2519Y1724D03*
X2421Y1724D03*
X2519Y3299D03*
X2421Y3299D03*
X3307Y2511D03*
X3208Y2511D03*
X2519Y2511D03*
X2421Y2511D03*
X3307Y3299D03*
X3208Y3299D03*
X2115Y3293D03*
X2016Y3293D03*
X2115Y931D03*
X2016Y931D03*
X2115Y2505D03*
X2016Y2505D03*
X2115Y3687D03*
X2016Y3687D03*
X2115Y1718D03*
X2016Y1718D03*
X2115Y2112D03*
X2016Y2112D03*
X2115Y1324D03*
X2016Y1324D03*
X2115Y2899D03*
X2016Y2899D03*
X1327Y931D03*
X1229Y931D03*
X1327Y1324D03*
X1229Y1324D03*
X1327Y1718D03*
X1229Y1718D03*
X1327Y2112D03*
X1229Y2112D03*
X1327Y2505D03*
X1229Y2505D03*
X1327Y2899D03*
X1229Y2899D03*
X1327Y3293D03*
X1229Y3293D03*
X1327Y3687D03*
X1229Y3687D03*
G54D16*
X3237Y518D03*
X3237Y183D03*
X2485Y518D03*
X2485Y183D03*
X2055Y518D03*
X2055Y183D03*
X1307Y518D03*
X1307Y183D03*
G54D13*
X3330Y1921D03*
X3430Y1921D03*
X3330Y1921D03*
X3430Y1921D03*
X3330Y3102D03*
X3430Y3102D03*
X3330Y3102D03*
X3430Y3102D03*
X2417Y1527D03*
X2317Y1527D03*
X2417Y1527D03*
X2317Y1527D03*
X2661Y1649D03*
X2661Y1749D03*
X2661Y1649D03*
X2661Y1749D03*
X2657Y861D03*
X2657Y961D03*
X2657Y861D03*
X2657Y961D03*
X3094Y2042D03*
X3094Y2142D03*
X3094Y2042D03*
X3094Y2142D03*
X3094Y1649D03*
X3094Y1749D03*
X3094Y1649D03*
X3094Y1749D03*
X2657Y3617D03*
X2657Y3717D03*
X2657Y3617D03*
X2657Y3717D03*
X2417Y3102D03*
X2317Y3102D03*
X2417Y3102D03*
X2317Y3102D03*
X3330Y3495D03*
X3430Y3495D03*
X3330Y3495D03*
X3430Y3495D03*
X2661Y2042D03*
X2661Y2142D03*
X2661Y2042D03*
X2661Y2142D03*
X2417Y1921D03*
X2317Y1921D03*
X2417Y1921D03*
X2317Y1921D03*
X2657Y1255D03*
X2657Y1355D03*
X2657Y1255D03*
X2657Y1355D03*
X2657Y2830D03*
X2657Y2930D03*
X2657Y2830D03*
X2657Y2930D03*
X3330Y1133D03*
X3430Y1133D03*
X3330Y1133D03*
X3430Y1133D03*
X2417Y3495D03*
X2317Y3495D03*
X2417Y3495D03*
X2317Y3495D03*
X3090Y861D03*
X3090Y961D03*
X3090Y861D03*
X3090Y961D03*
X2417Y2314D03*
X2317Y2314D03*
X2417Y2314D03*
X2317Y2314D03*
X2417Y739D03*
X2317Y739D03*
X2417Y739D03*
X2317Y739D03*
X2417Y2708D03*
X2317Y2708D03*
X2417Y2708D03*
X2317Y2708D03*
X3090Y3617D03*
X3090Y3717D03*
X3090Y3617D03*
X3090Y3717D03*
X2657Y3224D03*
X2657Y3324D03*
X2657Y3224D03*
X2657Y3324D03*
X3330Y739D03*
X3430Y739D03*
X3330Y739D03*
X3430Y739D03*
X3330Y1527D03*
X3430Y1527D03*
X3330Y1527D03*
X3430Y1527D03*
X3330Y2708D03*
X3430Y2708D03*
X3330Y2708D03*
X3430Y2708D03*
X3090Y1255D03*
X3090Y1355D03*
X3090Y1255D03*
X3090Y1355D03*
X2417Y1133D03*
X2317Y1133D03*
X2417Y1133D03*
X2317Y1133D03*
X3090Y2436D03*
X3090Y2536D03*
X3090Y2436D03*
X3090Y2536D03*
X3330Y2314D03*
X3430Y2314D03*
X3330Y2314D03*
X3430Y2314D03*
X3090Y2830D03*
X3090Y2930D03*
X3090Y2830D03*
X3090Y2930D03*
X2657Y2436D03*
X2657Y2536D03*
X2657Y2436D03*
X2657Y2536D03*
X3090Y3224D03*
X3090Y3324D03*
X3090Y3224D03*
X3090Y3324D03*
X3000Y423D03*
X3000Y523D03*
X3000Y423D03*
X3000Y523D03*
X2725Y423D03*
X2725Y523D03*
X2725Y423D03*
X2725Y523D03*
X1819Y423D03*
X1819Y523D03*
X1819Y423D03*
X1819Y523D03*
X1071Y304D03*
X1071Y404D03*
X1071Y304D03*
X1071Y404D03*
X1898Y856D03*
X1898Y956D03*
X1898Y856D03*
X1898Y956D03*
X2138Y734D03*
X2238Y734D03*
X2138Y734D03*
X2238Y734D03*
X1225Y734D03*
X1125Y734D03*
X1225Y734D03*
X1125Y734D03*
X1465Y856D03*
X1465Y956D03*
X1465Y856D03*
X1465Y956D03*
X1898Y1249D03*
X1898Y1349D03*
X1898Y1249D03*
X1898Y1349D03*
X1225Y1128D03*
X1125Y1128D03*
X1225Y1128D03*
X1125Y1128D03*
X1465Y1249D03*
X1465Y1349D03*
X1465Y1249D03*
X1465Y1349D03*
X2138Y1128D03*
X2238Y1128D03*
X2138Y1128D03*
X2238Y1128D03*
X1469Y1643D03*
X1469Y1743D03*
X1469Y1643D03*
X1469Y1743D03*
X2138Y1521D03*
X2238Y1521D03*
X2138Y1521D03*
X2238Y1521D03*
X1225Y1521D03*
X1125Y1521D03*
X1225Y1521D03*
X1125Y1521D03*
X1902Y1643D03*
X1902Y1743D03*
X1902Y1643D03*
X1902Y1743D03*
X1902Y2037D03*
X1902Y2137D03*
X1902Y2037D03*
X1902Y2137D03*
X2138Y1915D03*
X2238Y1915D03*
X2138Y1915D03*
X2238Y1915D03*
X1469Y2037D03*
X1469Y2137D03*
X1469Y2037D03*
X1469Y2137D03*
X1225Y1915D03*
X1125Y1915D03*
X1225Y1915D03*
X1125Y1915D03*
X1465Y2430D03*
X1465Y2530D03*
X1465Y2430D03*
X1465Y2530D03*
X1225Y2309D03*
X1125Y2309D03*
X1225Y2309D03*
X1125Y2309D03*
X2138Y2309D03*
X2238Y2309D03*
X2138Y2309D03*
X2238Y2309D03*
X1898Y2430D03*
X1898Y2530D03*
X1898Y2430D03*
X1898Y2530D03*
X1898Y2824D03*
X1898Y2924D03*
X1898Y2824D03*
X1898Y2924D03*
X1225Y2702D03*
X1125Y2702D03*
X1225Y2702D03*
X1125Y2702D03*
X1465Y2824D03*
X1465Y2924D03*
X1465Y2824D03*
X1465Y2924D03*
X2138Y2702D03*
X2238Y2702D03*
X2138Y2702D03*
X2238Y2702D03*
X1225Y3096D03*
X1125Y3096D03*
X1225Y3096D03*
X1125Y3096D03*
X1465Y3218D03*
X1465Y3318D03*
X1465Y3218D03*
X1465Y3318D03*
X2138Y3096D03*
X2238Y3096D03*
X2138Y3096D03*
X2238Y3096D03*
X1898Y3218D03*
X1898Y3318D03*
X1898Y3218D03*
X1898Y3318D03*
X1225Y3490D03*
X1125Y3490D03*
X1225Y3490D03*
X1125Y3490D03*
X2138Y3490D03*
X2238Y3490D03*
X2138Y3490D03*
X2238Y3490D03*
X1898Y3612D03*
X1898Y3712D03*
X1898Y3612D03*
X1898Y3712D03*
X1465Y3612D03*
X1465Y3712D03*
X1465Y3612D03*
X1465Y3712D03*
G54D14*
X3237Y65D03*
X2489Y65D03*
X2055Y65D03*
X1307Y65D03*
G54D13*
X116Y1915D03*
X116Y2215D03*
X216Y1915D03*
X216Y2215D03*
X316Y1915D03*
X316Y2215D03*
X416Y1915D03*
X416Y2215D03*
X516Y1915D03*
X516Y2215D03*
X616Y1915D03*
X616Y2215D03*
X716Y1915D03*
X716Y2215D03*
G54D11*
X520Y1757D03*
X1071Y3214D03*
X1071Y2860D03*
X1071Y2427D03*
X1071Y2033D03*
X1071Y1600D03*
X1092Y1267D03*
X1071Y852D03*
X1032Y734D03*
X717Y3608D03*
X717Y3293D03*
X599Y3608D03*
X599Y3293D03*
X874Y734D03*
X682Y1622D03*
X501Y272D03*
X363Y1561D03*
X170Y1627D03*
X363Y2466D03*
X87Y2466D03*
G54D17*
X305Y1122D03*
X305Y1122D03*
X284Y3690D03*
X284Y3690D03*
G54D18*
X402Y2960D03*
X402Y2960D03*
X166Y2921D03*
X166Y2921D03*
G54D19*
X2972Y2117D03*
X2972Y3692D03*
X2972Y1724D03*
X2972Y3299D03*
X2972Y936D03*
X2972Y2905D03*
X2972Y1330D03*
X2972Y2511D03*
X1780Y931D03*
X1780Y1324D03*
X1780Y1718D03*
X1780Y2112D03*
X1780Y2505D03*
X1780Y2899D03*
X1780Y3293D03*
X1780Y3687D03*
G54D20*
X3307Y936D03*
X2519Y3692D03*
X2519Y1330D03*
X2519Y936D03*
X3307Y2905D03*
X3307Y3692D03*
X2519Y2905D03*
X3307Y2117D03*
X3307Y1330D03*
X3307Y1724D03*
X2519Y2117D03*
X2519Y1724D03*
X2519Y3299D03*
X3307Y2511D03*
X2519Y2511D03*
X3307Y3299D03*
X2115Y3293D03*
X2115Y931D03*
X2115Y2505D03*
X2115Y3687D03*
X2115Y1718D03*
X2115Y2112D03*
X2115Y1324D03*
X2115Y2899D03*
X1327Y931D03*
X1327Y1324D03*
X1327Y1718D03*
X1327Y2112D03*
X1327Y2505D03*
X1327Y2899D03*
X1327Y3293D03*
X1327Y3687D03*
G54D21*
X3237Y183D03*
X2485Y183D03*
X2055Y183D03*
X1307Y183D03*
G54D18*
X3330Y1921D03*
X3330Y1921D03*
X3330Y3102D03*
X3330Y3102D03*
X2417Y1527D03*
X2417Y1527D03*
X2661Y1649D03*
X2661Y1649D03*
X2657Y861D03*
X2657Y861D03*
X3094Y2042D03*
X3094Y2042D03*
X3094Y1649D03*
X3094Y1649D03*
X2657Y3617D03*
X2657Y3617D03*
X2417Y3102D03*
X2417Y3102D03*
X3330Y3495D03*
X3330Y3495D03*
X2661Y2042D03*
X2661Y2042D03*
X2417Y1921D03*
X2417Y1921D03*
X2657Y1255D03*
X2657Y1255D03*
X2657Y2830D03*
X2657Y2830D03*
X3330Y1133D03*
X3330Y1133D03*
X2417Y3495D03*
X2417Y3495D03*
X3090Y861D03*
X3090Y861D03*
X2417Y2314D03*
X2417Y2314D03*
X2417Y739D03*
X2417Y739D03*
X2417Y2708D03*
X2417Y2708D03*
X3090Y3617D03*
X3090Y3617D03*
X2657Y3224D03*
X2657Y3224D03*
X3330Y739D03*
X3330Y739D03*
X3330Y1527D03*
X3330Y1527D03*
X3330Y2708D03*
X3330Y2708D03*
X3090Y1255D03*
X3090Y1255D03*
X2417Y1133D03*
X2417Y1133D03*
X3090Y2436D03*
X3090Y2436D03*
X3330Y2314D03*
X3330Y2314D03*
X3090Y2830D03*
X3090Y2830D03*
X2657Y2436D03*
X2657Y2436D03*
X3090Y3224D03*
X3090Y3224D03*
X3000Y423D03*
X3000Y423D03*
X2725Y423D03*
X2725Y423D03*
X1819Y423D03*
X1819Y423D03*
X1071Y304D03*
X1071Y304D03*
X1898Y856D03*
X1898Y856D03*
X2138Y734D03*
X2138Y734D03*
X1225Y734D03*
X1225Y734D03*
X1465Y856D03*
X1465Y856D03*
X1898Y1249D03*
X1898Y1249D03*
X1225Y1128D03*
X1225Y1128D03*
X1465Y1249D03*
X1465Y1249D03*
X2138Y1128D03*
X2138Y1128D03*
X1469Y1643D03*
X1469Y1643D03*
X2138Y1521D03*
X2138Y1521D03*
X1225Y1521D03*
X1225Y1521D03*
X1902Y1643D03*
X1902Y1643D03*
X1902Y2037D03*
X1902Y2037D03*
X2138Y1915D03*
X2138Y1915D03*
X1469Y2037D03*
X1469Y2037D03*
X1225Y1915D03*
X1225Y1915D03*
X1465Y2430D03*
X1465Y2430D03*
X1225Y2309D03*
X1225Y2309D03*
X2138Y2309D03*
X2138Y2309D03*
X1898Y2430D03*
X1898Y2430D03*
X1898Y2824D03*
X1898Y2824D03*
X1225Y2702D03*
X1225Y2702D03*
X1465Y2824D03*
X1465Y2824D03*
X2138Y2702D03*
X2138Y2702D03*
X1225Y3096D03*
X1225Y3096D03*
X1465Y3218D03*
X1465Y3218D03*
X2138Y3096D03*
X2138Y3096D03*
X1898Y3218D03*
X1898Y3218D03*
X1225Y3490D03*
X1225Y3490D03*
X2138Y3490D03*
X2138Y3490D03*
X1898Y3612D03*
X1898Y3612D03*
X1465Y3612D03*
X1465Y3612D03*
G54D19*
X3237Y65D03*
X2489Y65D03*
X2055Y65D03*
X1307Y65D03*
G54D18*
X116Y1915D03*
G54D22*
X718Y1443D02*
X207Y1494D01*
D02*
X206Y1798D02*
X323Y1758D01*
D02*
X323Y1758D02*
X501Y1758D01*
D02*
X133Y1892D02*
X206Y1798D01*
D02*
X795Y1286D02*
X330Y941D01*
D02*
X795Y3608D02*
X795Y1286D01*
D02*
X1111Y3804D02*
X795Y3608D01*
D02*
X1600Y3805D02*
X1111Y3804D01*
D02*
X1663Y3712D02*
X1600Y3805D01*
D02*
X835Y1246D02*
X329Y841D01*
D02*
X835Y3215D02*
X835Y1246D01*
D02*
X1111Y3372D02*
X835Y3215D01*
D02*
X1602Y3401D02*
X1111Y3372D01*
D02*
X1662Y3317D02*
X1602Y3401D01*
D02*
X875Y1206D02*
X329Y742D01*
D02*
X875Y2819D02*
X875Y1206D01*
D02*
X1111Y2979D02*
X875Y2819D01*
D02*
X1624Y3019D02*
X1111Y2979D01*
D02*
X1667Y2926D02*
X1624Y3019D01*
D02*
X915Y1166D02*
X328Y643D01*
D02*
X915Y2427D02*
X915Y1166D01*
D02*
X1111Y2583D02*
X915Y2427D01*
D02*
X1660Y2623D02*
X1111Y2583D01*
D02*
X1675Y2535D02*
X1660Y2623D01*
D02*
X951Y1129D02*
X328Y543D01*
D02*
X951Y2074D02*
X951Y1129D01*
D02*
X1071Y2191D02*
X951Y2074D01*
D02*
X1624Y2230D02*
X1071Y2191D01*
D02*
X1667Y2139D02*
X1624Y2230D01*
D02*
X991Y1089D02*
X327Y444D01*
D02*
X991Y1638D02*
X991Y1089D01*
D02*
X1111Y1758D02*
X991Y1638D01*
D02*
X1319Y1817D02*
X1111Y1758D01*
D02*
X1624Y1838D02*
X1319Y1817D01*
D02*
X1667Y1745D02*
X1624Y1838D01*
D02*
X1031Y1049D02*
X327Y344D01*
D02*
X1031Y1326D02*
X1031Y1049D01*
D02*
X1151Y1402D02*
X1031Y1326D01*
D02*
X1357Y1449D02*
X1151Y1402D01*
D02*
X1598Y1438D02*
X1357Y1449D01*
D02*
X1662Y1349D02*
X1598Y1438D01*
D02*
X1605Y1046D02*
X1227Y1009D01*
D02*
X1227Y1009D02*
X1071Y1009D01*
D02*
X1071Y1009D02*
X327Y244D01*
D02*
X1663Y956D02*
X1605Y1046D01*
D02*
X1205Y3281D02*
X1088Y3223D01*
D02*
X1090Y2864D02*
X1203Y2893D01*
D02*
X1088Y2435D02*
X1205Y2493D01*
D02*
X1088Y2042D02*
X1205Y2100D01*
D02*
X1086Y1611D02*
X1207Y1702D01*
D02*
X1110Y1274D02*
X1204Y1314D01*
D02*
X1088Y860D02*
X1205Y919D01*
D02*
X991Y813D02*
X1054Y844D01*
D02*
X915Y352D02*
X915Y577D01*
D02*
X915Y577D02*
X991Y813D01*
D02*
X1045Y291D02*
X915Y352D01*
D02*
X2805Y3804D02*
X2857Y3718D01*
D02*
X1600Y3805D02*
X2805Y3804D01*
D02*
X2805Y3412D02*
X2857Y3324D01*
D02*
X1602Y3401D02*
X2805Y3412D01*
D02*
X2805Y3019D02*
X2857Y2931D01*
D02*
X1624Y3019D02*
X2805Y3019D01*
D02*
X2805Y2623D02*
X2857Y2537D01*
D02*
X1660Y2623D02*
X2805Y2623D01*
D02*
X2765Y2230D02*
X2851Y2139D01*
D02*
X1624Y2230D02*
X2765Y2230D01*
D02*
X2765Y1838D02*
X2852Y1746D01*
D02*
X1624Y1838D02*
X2765Y1838D01*
D02*
X2765Y1442D02*
X2851Y1352D01*
D02*
X1598Y1438D02*
X2765Y1442D01*
D02*
X2765Y1049D02*
X2851Y958D01*
D02*
X1605Y1046D02*
X2765Y1049D01*
D02*
X2056Y3608D02*
X2028Y3663D01*
D02*
X2332Y3608D02*
X2056Y3608D01*
D02*
X2402Y3674D02*
X2332Y3608D01*
D02*
X3208Y3325D02*
X3208Y3665D01*
D02*
X3208Y2932D02*
X3208Y3272D01*
D02*
X3157Y3492D02*
X2568Y3492D01*
D02*
X2568Y3492D02*
X2437Y3671D01*
D02*
X3202Y3666D02*
X3157Y3492D01*
D02*
X2016Y3568D02*
X2016Y3660D01*
D02*
X1936Y3492D02*
X2016Y3568D01*
D02*
X1424Y3492D02*
X1936Y3492D01*
D02*
X1248Y3668D02*
X1424Y3492D01*
D02*
X3208Y2538D02*
X3208Y2878D01*
D02*
X3208Y2144D02*
X3208Y2484D01*
D02*
X3208Y1751D02*
X3208Y2091D01*
D02*
X3208Y1357D02*
X3208Y1697D01*
D02*
X3208Y963D02*
X3208Y1303D01*
D02*
X1071Y657D02*
X1040Y717D01*
D02*
X2172Y657D02*
X1071Y657D01*
D02*
X2200Y709D02*
X2172Y657D01*
D02*
X2016Y3215D02*
X1976Y3095D01*
D02*
X1976Y3095D02*
X1387Y3095D01*
D02*
X1387Y3095D02*
X1245Y3272D01*
D02*
X2016Y3266D02*
X2016Y3215D01*
D02*
X2332Y3215D02*
X2096Y3215D01*
D02*
X2096Y3215D02*
X2035Y3274D01*
D02*
X2401Y3280D02*
X2332Y3215D01*
D02*
X2332Y2819D02*
X2096Y2819D01*
D02*
X2096Y2819D02*
X2035Y2880D01*
D02*
X2402Y2886D02*
X2332Y2819D01*
D02*
X2332Y2427D02*
X2096Y2427D01*
D02*
X2096Y2427D02*
X2035Y2487D01*
D02*
X2402Y2493D02*
X2332Y2427D01*
D02*
X2332Y2034D02*
X2096Y2034D01*
D02*
X2096Y2034D02*
X2035Y2093D01*
D02*
X2401Y2099D02*
X2332Y2034D01*
D02*
X2332Y1638D02*
X2096Y1638D01*
D02*
X2096Y1638D02*
X2035Y1699D01*
D02*
X2402Y1705D02*
X2332Y1638D01*
D02*
X2369Y1246D02*
X2096Y1246D01*
D02*
X2096Y1246D02*
X2035Y1306D01*
D02*
X2407Y1307D02*
X2369Y1246D01*
D02*
X3117Y1522D02*
X2605Y1522D01*
D02*
X2605Y1522D02*
X2439Y1704D01*
D02*
X3197Y1699D02*
X3117Y1522D01*
D02*
X3157Y2703D02*
X2645Y2703D01*
D02*
X2645Y2703D02*
X2441Y2887D01*
D02*
X3202Y2879D02*
X3157Y2703D01*
D02*
X3157Y3095D02*
X2605Y3095D01*
D02*
X2605Y3095D02*
X2439Y3279D01*
D02*
X3202Y3272D02*
X3157Y3095D01*
D02*
X3157Y2310D02*
X2645Y2310D01*
D02*
X2645Y2310D02*
X2441Y2493D01*
D02*
X3202Y2485D02*
X3157Y2310D01*
D02*
X3157Y1914D02*
X2645Y1914D01*
D02*
X2645Y1914D02*
X2441Y2099D01*
D02*
X3202Y2091D02*
X3157Y1914D01*
D02*
X3157Y1129D02*
X2605Y1129D01*
D02*
X2605Y1129D02*
X2439Y1310D01*
D02*
X3202Y1304D02*
X3157Y1129D01*
D02*
X2369Y853D02*
X2096Y853D01*
D02*
X2096Y853D02*
X2035Y912D01*
D02*
X2407Y914D02*
X2369Y853D01*
D02*
X3157Y733D02*
X2605Y733D01*
D02*
X2605Y733D02*
X2439Y916D01*
D02*
X3202Y910D02*
X3157Y733D01*
D02*
X717Y3312D02*
X717Y3589D01*
D02*
X599Y3312D02*
X599Y3589D01*
D02*
X1161Y242D02*
X1275Y379D01*
D02*
X715Y341D02*
X991Y184D01*
D02*
X2016Y381D02*
X2445Y506D01*
D02*
X1700Y261D02*
X2016Y381D01*
D02*
X1569Y374D02*
X1700Y261D01*
D02*
X1275Y379D02*
X1569Y374D01*
D02*
X991Y184D02*
X1161Y242D01*
D02*
X867Y716D02*
X715Y341D01*
D02*
X176Y1720D02*
X663Y1625D01*
D02*
X46Y1838D02*
X176Y1720D01*
D02*
X46Y2310D02*
X46Y1838D01*
D02*
X126Y2387D02*
X46Y2310D01*
D02*
X442Y2387D02*
X126Y2387D01*
D02*
X504Y2241D02*
X442Y2387D01*
D02*
X3077Y261D02*
X3215Y482D01*
D02*
X2725Y261D02*
X3077Y261D01*
D02*
X2409Y341D02*
X2725Y261D01*
D02*
X2132Y341D02*
X2409Y341D01*
D02*
X1695Y178D02*
X2132Y341D01*
D02*
X1538Y315D02*
X1695Y178D01*
D02*
X1288Y317D02*
X1538Y315D01*
D02*
X1187Y184D02*
X1288Y317D01*
D02*
X991Y104D02*
X1187Y184D01*
D02*
X519Y266D02*
X991Y104D01*
D02*
X188Y1621D02*
X345Y1567D01*
D02*
X344Y2466D02*
X106Y2466D01*
G04 End of Copper0*
M02*