<?xml version='1.0' encoding='UTF-8' standalone='no'?>
<!-- Created with Fritzing (http://www.fritzing.org/) -->
<svg xmlns="http://www.w3.org/2000/svg" viewBox="0 0 420 2020"  version="1.2" y="0in" baseProfile="tiny" height="2.02in" width="0.42in" x="0in">
    <desc >
        <referenceFile >dip_40_300mil_pcb.svg</referenceFile>
    </desc>
    <g  gorn="0.1" id="silkscreen">
        <line y2="2010"  x2="10" stroke-width="10" x1="10" stroke="white" y1="10"/>
        <line y2="2010"  x2="410" stroke-width="10" x1="10" stroke="white" y1="2010"/>
        <line y2="10"  x2="410" stroke-width="10" x1="410" stroke="white" y1="2010"/>
        <line y2="10"  x2="160" stroke-width="10" x1="10" stroke="white" y1="10"/>
        <line y2="10"  x2="410" stroke-width="10" x1="260" stroke="white" y1="10"/>
    </g>
    <g  gorn="0.2" id="copper1">
        <g  gorn="0.2.0" id="copper0">
            <rect  fill="none" stroke-width="20" y="32.5" gorn="0.2.0.0" height="55" id="square" width="55" x="32.5" stroke="rgb(255, 191, 0)"/>
            <circle  fill="none" r="27.5" stroke-width="20" gorn="0.2.0.1" cx="60" id="connector0pin" cy="60" stroke="rgb(255, 191, 0)"/>
            <circle  fill="none" r="27.5" stroke-width="20" gorn="0.2.0.2" cx="360" id="connector39pin" cy="60" stroke="rgb(255, 191, 0)"/>
            <circle  fill="none" r="27.5" stroke-width="20" gorn="0.2.0.3" cx="60" id="connector1pin" cy="160" stroke="rgb(255, 191, 0)"/>
            <circle  fill="none" r="27.5" stroke-width="20" gorn="0.2.0.4" cx="360" id="connector38pin" cy="160" stroke="rgb(255, 191, 0)"/>
            <circle  fill="none" r="27.5" stroke-width="20" gorn="0.2.0.5" cx="60" id="connector2pin" cy="260" stroke="rgb(255, 191, 0)"/>
            <circle  fill="none" r="27.5" stroke-width="20" gorn="0.2.0.6" cx="360" id="connector37pin" cy="260" stroke="rgb(255, 191, 0)"/>
            <circle  fill="none" r="27.5" stroke-width="20" gorn="0.2.0.7" cx="60" id="connector3pin" cy="360" stroke="rgb(255, 191, 0)"/>
            <circle  fill="none" r="27.5" stroke-width="20" gorn="0.2.0.8" cx="360" id="connector36pin" cy="360" stroke="rgb(255, 191, 0)"/>
            <circle  fill="none" r="27.5" stroke-width="20" gorn="0.2.0.9" cx="60" id="connector4pin" cy="460" stroke="rgb(255, 191, 0)"/>
            <circle  fill="none" r="27.5" stroke-width="20" gorn="0.2.0.10" cx="360" id="connector35pin" cy="460" stroke="rgb(255, 191, 0)"/>
            <circle  fill="none" r="27.5" stroke-width="20" gorn="0.2.0.11" cx="60" id="connector5pin" cy="560" stroke="rgb(255, 191, 0)"/>
            <circle  fill="none" r="27.5" stroke-width="20" gorn="0.2.0.12" cx="360" id="connector34pin" cy="560" stroke="rgb(255, 191, 0)"/>
            <circle  fill="none" r="27.5" stroke-width="20" gorn="0.2.0.13" cx="60" id="connector6pin" cy="660" stroke="rgb(255, 191, 0)"/>
            <circle  fill="none" r="27.5" stroke-width="20" gorn="0.2.0.14" cx="360" id="connector33pin" cy="660" stroke="rgb(255, 191, 0)"/>
            <circle  fill="none" r="27.5" stroke-width="20" gorn="0.2.0.15" cx="60" id="connector7pin" cy="760" stroke="rgb(255, 191, 0)"/>
            <circle  fill="none" r="27.5" stroke-width="20" gorn="0.2.0.16" cx="360" id="connector32pin" cy="760" stroke="rgb(255, 191, 0)"/>
            <circle  fill="none" r="27.5" stroke-width="20" gorn="0.2.0.17" cx="60" id="connector8pin" cy="860" stroke="rgb(255, 191, 0)"/>
            <circle  fill="none" r="27.5" stroke-width="20" gorn="0.2.0.18" cx="360" id="connector31pin" cy="860" stroke="rgb(255, 191, 0)"/>
            <circle  fill="none" r="27.5" stroke-width="20" gorn="0.2.0.19" cx="60" id="connector9pin" cy="960" stroke="rgb(255, 191, 0)"/>
            <circle  fill="none" r="27.5" stroke-width="20" gorn="0.2.0.20" cx="360" id="connector30pin" cy="960" stroke="rgb(255, 191, 0)"/>
            <circle  fill="none" r="27.5" stroke-width="20" gorn="0.2.0.21" cx="60" id="connector10pin" cy="1060" stroke="rgb(255, 191, 0)"/>
            <circle  fill="none" r="27.5" stroke-width="20" gorn="0.2.0.22" cx="360" id="connector29pin" cy="1060" stroke="rgb(255, 191, 0)"/>
            <circle  fill="none" r="27.5" stroke-width="20" gorn="0.2.0.23" cx="60" id="connector11pin" cy="1160" stroke="rgb(255, 191, 0)"/>
            <circle  fill="none" r="27.5" stroke-width="20" gorn="0.2.0.24" cx="360" id="connector28pin" cy="1160" stroke="rgb(255, 191, 0)"/>
            <circle  fill="none" r="27.5" stroke-width="20" gorn="0.2.0.25" cx="60" id="connector12pin" cy="1260" stroke="rgb(255, 191, 0)"/>
            <circle  fill="none" r="27.5" stroke-width="20" gorn="0.2.0.26" cx="360" id="connector27pin" cy="1260" stroke="rgb(255, 191, 0)"/>
            <circle  fill="none" r="27.5" stroke-width="20" gorn="0.2.0.27" cx="60" id="connector13pin" cy="1360" stroke="rgb(255, 191, 0)"/>
            <circle  fill="none" r="27.5" stroke-width="20" gorn="0.2.0.28" cx="360" id="connector26pin" cy="1360" stroke="rgb(255, 191, 0)"/>
            <circle  fill="none" r="27.5" stroke-width="20" gorn="0.2.0.29" cx="60" id="connector14pin" cy="1460" stroke="rgb(255, 191, 0)"/>
            <circle  fill="none" r="27.5" stroke-width="20" gorn="0.2.0.30" cx="360" id="connector25pin" cy="1460" stroke="rgb(255, 191, 0)"/>
            <circle  fill="none" r="27.5" stroke-width="20" gorn="0.2.0.31" cx="60" id="connector15pin" cy="1560" stroke="rgb(255, 191, 0)"/>
            <circle  fill="none" r="27.5" stroke-width="20" gorn="0.2.0.32" cx="360" id="connector24pin" cy="1560" stroke="rgb(255, 191, 0)"/>
            <circle  fill="none" r="27.5" stroke-width="20" gorn="0.2.0.33" cx="60" id="connector16pin" cy="1660" stroke="rgb(255, 191, 0)"/>
            <circle  fill="none" r="27.5" stroke-width="20" gorn="0.2.0.34" cx="360" id="connector23pin" cy="1660" stroke="rgb(255, 191, 0)"/>
            <circle  fill="none" r="27.5" stroke-width="20" gorn="0.2.0.35" cx="60" id="connector17pin" cy="1760" stroke="rgb(255, 191, 0)"/>
            <circle  fill="none" r="27.5" stroke-width="20" gorn="0.2.0.36" cx="360" id="connector22pin" cy="1760" stroke="rgb(255, 191, 0)"/>
            <circle  fill="none" r="27.5" stroke-width="20" gorn="0.2.0.37" cx="60" id="connector18pin" cy="1860" stroke="rgb(255, 191, 0)"/>
            <circle  fill="none" r="27.5" stroke-width="20" gorn="0.2.0.38" cx="360" id="connector21pin" cy="1860" stroke="rgb(255, 191, 0)"/>
            <circle  fill="none" r="27.5" stroke-width="20" gorn="0.2.0.39" cx="60" id="connector19pin" cy="1960" stroke="rgb(255, 191, 0)"/>
            <circle  fill="none" r="27.5" stroke-width="20" gorn="0.2.0.40" cx="360" id="connector20pin" cy="1960" stroke="rgb(255, 191, 0)"/>
        </g>
    </g>
</svg>
