<?xml version='1.0' encoding='UTF-8' standalone='no'?>
<svg xmlns="http://www.w3.org/2000/svg"  version="1.1" id="svg22" x="0" width="0.22954in" height="0.3344in" viewBox="0 0 16.527 24.08" gorn="0" y="0">
    <metadata  id="metadata28">
        <rdf:RDF xmlns:rdf="http://www.w3.org/1999/02/22-rdf-syntax-ns#">
            <cc:Work xmlns:rdf="http://www.w3.org/1999/02/22-rdf-syntax-ns#" rdf:about="" xmlns:cc="http://creativecommons.org/ns#">
                <dc:format xmlns:dc="http://purl.org/dc/elements/1.1/">image/svg+xml</dc:format>
                <dc:type rdf:resource="http://purl.org/dc/dcmitype/StillImage" xmlns:rdf="http://www.w3.org/1999/02/22-rdf-syntax-ns#" xmlns:dc="http://purl.org/dc/elements/1.1/"/>
                <dc:title xmlns:dc="http://purl.org/dc/elements/1.1/"/>
            </cc:Work>
        </rdf:RDF>
    </metadata>
    <defs  id="defs26"/>
    <desc  id="desc2">
        <referenceFile >prefix0000_396a7ba18136b97f3d290bc231d6b98b_1_breadboard.svg</referenceFile>
    </desc>
    <g  id="breadboard" gorn="0.3">
        <rect  x="0" id="connector0pin" width="2.1600001" height="1" gorn="0.3.0" y="23" fill="none"/>
        <rect  x="7.1810002" id="connector1pin" width="2.1600001" height="1" gorn="0.3.1" y="23" fill="none"/>
        <rect  x="14.367" id="connector2pin" width="2.1600001" height="1" gorn="0.3.2" y="23" fill="none"/>
        <line  x1="1.08" id="connector0leg" stroke-linecap="round" gorn="0.3.3" y1="24.08" fill="none" stroke="#8c8c8c" stroke-width="2.16000009" y2="31.259001" x2="1.08"/>
        <line  x1="8.2609997" id="connector1leg" stroke-linecap="round" gorn="0.3.4" y1="24.08" fill="none" stroke="#8c8c8c" stroke-width="2.16000009" y2="31.259001" x2="8.2609997"/>
        <line  x1="15.447" id="connector2leg" stroke-linecap="round" gorn="0.3.5" y1="24.08" fill="none" stroke="#8c8c8c" stroke-width="2.16000009" y2="31.259001" x2="15.447"/>
        <rect  x="7.178" id="rect9506" width="2.154" height="9.3500004" gorn="0.3.6" y="14.731" fill="#8c8c8c"/>
        <path  id="path9510" gorn="0.3.7" d="m 3.287,14.731 v 3.316 c 0,0.424 -0.782,1.059 -1.198,1.425 -1.025,0.891 -2.088,1.82 -2.088,2.992 v 1.619 h 2.154 c 0,0 0,-1 0,-1.209 0,-0.518 0.904,-1.389 1.35,-1.77 0.997,-0.869 1.945,-1.689 1.945,-2.748 v -3.625 z" fill="#8c8c8c"/>
        <path  id="path9514" gorn="0.3.8" d="m 13.221,14.731 v 3.316 c 0,0.424 0.781,1.059 1.199,1.425 1.027,0.891 2.089,1.82 2.089,2.992 v 1.619 h -2.154 c 0,0 0,-1 0,-1.209 0,-0.518 -0.904,-1.389 -1.35,-1.77 -0.998,-0.869 -1.945,-1.689 -1.945,-2.748 v -3.625 z" fill="#8c8c8c"/>
        <rect  x="1.615" id="rect9553" width="13.278" height="10.07" gorn="0.3.9" y="4.6589999" fill="#1a1a1a"/>
        <path  id="path9555" gorn="0.3.10" d="m 13.889,4.659 v 2.453 8.228 1.843 c 0.632,-0.713 1.004,-1.554 1.004,-2.453 v 0 -10.071 z" fill="#141414"/>
        <path  id="path9557" gorn="0.3.11" d="M 2.621,4.659 H 1.616 v 10.07 0 c 0,0.899 0.373,1.74 1.005,2.453 V 15.34 7.112 Z" fill="#242424"/>
        <path  id="path9559" gorn="0.3.12" d="m 1.615,4.659 v 0 c 0,0.899 0.373,1.74 1.005,2.453 h 11.276 c 0.632,-0.713 1.005,-1.554 1.005,-2.453 v 0 z" fill="#1f1f1f"/>
        <path  id="path9561" gorn="0.3.13" d="M 8.255,0 C 4.587,0 1.615,2.086 1.615,4.661 H 14.893 C 14.893,2.086 11.923,0 8.255,0 Z" fill="#141414"/>
        <rect  x="2.6210001" id="rect9563" width="11.276" height="10.07" gorn="0.3.14" y="7.112"/>
        <path  id="path19" gorn="0.3.15" d="M 5.0230928,14.740338 V 9.3396601 h 2.1602714 v 1.0791359 h 1.0801356 v 1.080135 H 9.3446356 V 9.33866 h 2.1592714 v 5.400678 H 9.3456357 V 13.660203 H 8.2644999 V 12.580067 H 7.1843643 v 2.161272 H 5.0230928 Z" fill="#999999" stroke-width="1.00012565"/>
    </g>
</svg>
