<?xml version='1.0' encoding='UTF-8' standalone='no'?>
<svg
  xmlns:dc="http://purl.org/dc/elements/1.1/"
  xmlns:cc="http://creativecommons.org/ns#"
  xmlns:rdf="http://www.w3.org/1999/02/22-rdf-syntax-ns#"
  xmlns:svg="http://www.w3.org/2000/svg"
  xmlns="http://www.w3.org/2000/svg"
  shape-rendering="crispEdges"
  viewBox="0 0 1768.4869 1774.3648"
  x="0in"
  width="1.7684869in"
  height="1.7743648in"
  version="1.2"
  y="0in"
  id="svg2">
  <metadata
    id="metadata27">
    <rdf:RDF>
      <cc:Work
        rdf:about="">
        <dc:format>image/svg+xml</dc:format>
        <dc:type
          rdf:resource="http://purl.org/dc/dcmitype/StillImage"
        />
        <dc:title/>
      </cc:Work>
    </rdf:RDF>
  </metadata>
  <defs
    id="defs25"
  />
  <desc
    id="desc4">
    <referenceFile>VS1053-mp3-player_1_pcb.svg</referenceFile>
  </desc>
  <g
    id="silkscreen">
    <path
      stroke-width="10"
      stroke="#000000"
      fill="none"
      d="m 89.619612,5.0000272 1571.257388,1.3839 c 65.4377,0.058 102.6099,34.6300998 102.6099,109.9933028 V 1639.9973 c 0,68.4589 -15.0327,129.4921 -108.1452,129.3673 L 106.91761,1767.2889 C 58.781212,1767.2249 5.7203124,1719.5263 5.6919124,1655.9114 L 5.0000124,104.61463 C 4.9740124,46.530427 45.633012,4.9613272 89.619612,5.0000272 Z"
      id="rect360"
    />
    <path
      stroke-width="0"
      fill="#000000"
      id="path375"
      d="M 86.722862,126.61382 A 60.416664,60.416664 0 0 1 149.88819,69.180607 60.416664,60.416664 0 0 1 207.42441,132.25213 60.416664,60.416664 0 0 1 144.44687,189.8912 60.416664,60.416664 0 0 1 86.705102,127.0078"
    />
    <path
      stroke-width="0"
      fill="#000000"
      d="m 1570.0584,126.61382 a 60.416664,60.416664 0 0 1 63.1653,-57.433213 60.416664,60.416664 0 0 1 57.5362,63.071523 60.416664,60.416664 0 0 1 -62.9775,57.63907 60.416664,60.416664 0 0 1 -57.7418,-62.8834"
      id="path377"
    />
    <path
      stroke-width="0"
      fill="#000000"
      id="path379"
      d="m 1570.0584,1608.9069 a 60.416664,60.416664 0 0 1 63.1653,-57.4332 60.416664,60.416664 0 0 1 57.5362,63.0716 60.416664,60.416664 0 0 1 -62.9775,57.639 60.416664,60.416664 0 0 1 -57.7418,-62.8834"
    />
    <path
      stroke-width="0"
      fill="#000000"
      d="m 86.725302,1608.9069 a 60.416664,60.416664 0 0 1 63.165328,-57.4332 60.416664,60.416664 0 0 1 57.53622,63.0716 60.416664,60.416664 0 0 1 -62.97754,57.639 60.416664,60.416664 0 0 1 -57.741768,-62.8834"
      id="path381"
    />
  </g>
  <g
    id="copper1">
    <g
      id="copper0">
      <circle
        stroke-width="20"
        stroke="#ffbf00"
        fill="none"
        cx="345.33273"
        cy="95.170723"
        id="connector0pin"
        gorn="0.2.0.0"
        r="29"
      />
      <circle
        stroke-width="20"
        stroke="#ffbf00"
        fill="none"
        cx="445.42526"
        cy="95.170723"
        id="connector1pin"
        gorn="0.2.0.1"
        r="29"
      />
      <circle
        stroke-width="20"
        stroke="#ffbf00"
        fill="none"
        cx="1045.4253"
        cy="195.17072"
        id="connector2pin"
        gorn="0.2.0.1"
        r="29"
      />
      <circle
        stroke-width="20"
        stroke="#ffbf00"
        fill="none"
        r="29"
        gorn="0.2.0.1"
        id="connector3pin"
        cy="95.170723"
        cx="1045.4253"
      />
      <circle
        stroke-width="20"
        stroke="#ffbf00"
        fill="none"
        r="29"
        gorn="0.2.0.1"
        id="connector4pin"
        cy="195.17072"
        cx="1145.4253"
      />
      <circle
        stroke-width="20"
        stroke="#ffbf00"
        fill="none"
        cx="1145.4253"
        cy="95.170723"
        id="connector5pin"
        gorn="0.2.0.1"
        r="29"
      />
      <circle
        stroke-width="20"
        stroke="#ffbf00"
        fill="none"
        cx="1245.4253"
        cy="195.17072"
        id="connector6pin"
        gorn="0.2.0.1"
        r="29"
      />
      <circle
        stroke-width="20"
        stroke="#ffbf00"
        fill="none"
        r="29"
        gorn="0.2.0.1"
        id="connector7pin"
        cy="95.170723"
        cx="1245.4253"
      />
      <circle
        stroke-width="20"
        stroke="#ffbf00"
        fill="none"
        r="29"
        gorn="0.2.0.1"
        id="connector8pin"
        cy="195.17072"
        cx="1345.4253"
      />
      <circle
        stroke-width="20"
        stroke="#ffbf00"
        fill="none"
        cx="1345.4253"
        cy="95.170723"
        id="connector9pin"
        gorn="0.2.0.1"
        r="29"
      />
      <circle
        stroke-width="20"
        stroke="#ffbf00"
        fill="none"
        cx="1445.4253"
        cy="195.17072"
        id="connector10pin"
        gorn="0.2.0.1"
        r="29"
      />
      <circle
        stroke-width="20"
        stroke="#ffbf00"
        fill="none"
        r="29"
        gorn="0.2.0.1"
        id="connector11pin"
        cy="95.170723"
        cx="1445.4253"
      />
    </g>
  </g>
</svg>
