<?xml version='1.0' encoding='UTF-8'?>
<!DOCTYPE svg>
<!-- Creator: CorelDRAW X6 -->
<svg xmlns="http://www.w3.org/2000/svg" width="0.826772in" height="1.69291in" viewBox="0 0 5011 10260"  xml:space="preserve" fill-rule="evenodd" text-rendering="geometricPrecision" version="1.1" shape-rendering="geometricPrecision" xmlns:xml="http://www.w3.org/XML/1998/namespace" image-rendering="optimizeQuality" clip-rule="evenodd">
    <desc >
        <referenceFile >breadboard.svg</referenceFile>
    </desc>
    <g gorn="0.1"  id="breadboard">
        <metadata  id="CorelCorpID_0Corel-Layer"/>
        <g gorn="0.1.1"  id="breadboard_0">
            <path d="M0 0l5011 0 0 10260 -5011 0 0 -10260zm4617 859c178,0 322,144 322,322 0,178 -144,322 -322,322 -178,0 -322,-144 -322,-322 0,-178 144,-322 322,-322zm-4223 7898c178,0 322,144 322,322 0,178 -144,322 -322,322 -178,0 -322,-144 -322,-322 0,-178 144,-322 322,-322zm4223 1038c40,0 72,32 72,72 0,40 -32,72 -72,72 -40,0 -72,-32 -72,-72 0,-40 32,-72 72,-72zm-4223 0c40,0 72,32 72,72 0,40 -32,72 -72,72 -40,0 -72,-32 -72,-72 0,-40 32,-72 72,-72zm4223 -9472c40,0 72,32 72,72 0,40 -32,72 -72,72 -40,0 -72,-32 -72,-72 0,-40 32,-72 72,-72zm-4223 0c40,0 72,32 72,72 0,40 -32,72 -72,72 -40,0 -72,-32 -72,-72 0,-40 32,-72 72,-72z"  fill="#254E89"/>
            <ellipse cy="9035" rx="975"  ry="978" fill="#E6E6E6" cx="2505"/>
            <g >
                <rect width="1026" height="2291"  x="399" y="2664" fill="#3C85CA"/>
                <g >
                    <circle cy="4674" r="256"  fill="#DCBB00" cx="679"/>
                    <line x1="936" x2="423"  fill="none" stroke="#9A8200" stroke-width="63.1326" y1="4674" y2="4674"/>
                </g>
            </g>
            <g >
                <rect width="2804" height="2804" rx="227"  ry="227" x="1838" y="2408" fill="#333333" stroke="#1A1A1A" stroke-width="42.0884"/>
                <circle cy="3809" r="1241"  fill="none" stroke="#1A1A1A" stroke-width="84.1768" cx="3240"/>
                <path d="M4260 5050l0 0c-121,0 -221,-99 -221,-221l0 -58c0,-89 73,-162 162,-162l58 0c121,0 221,99 221,221l0 0c0,121 -99,221 -221,221z"  fill="#1A1A1A"/>
                <path d="M1999 4830l0 0c0,-121 99,-221 221,-221l58 0c89,0 162,73 162,162l0 58c0,121 -99,221 -221,221l0 0c-121,0 -221,-99 -221,-221z"  fill="#1A1A1A"/>
                <path d="M2219 2569l0 0c121,0 221,99 221,221l0 58c0,89 -73,162 -162,162l-58 0c-121,0 -221,-99 -221,-221l0 0c0,-121 99,-221 221,-221z"  fill="#1A1A1A"/>
                <path d="M4480 2789l0 0c0,121 -99,221 -221,221l-58 0c-89,0 -162,-73 -162,-162l0 -58c0,-121 99,-221 221,-221l0 0c121,0 221,99 221,221z"  fill="#1A1A1A"/>
            </g>
            <g >
                <rect width="596" height="1670"  x="4151" y="5829" fill="#E6E6E6"/>
                <rect width="596" height="1145"  x="4151" y="6091" fill="#1A1A1A"/>
            </g>
            <path d="M0 0l787 0 0 787 -787 0 0 -787zm394 322c40,0 72,32 72,72 0,40 -32,72 -72,72 -40,0 -72,-32 -72,-72 0,-40 32,-72 72,-72z" gorn="0.1.1.5"  fill="#E6E6E6" id="connector0pin"/>
            <path d="M4223 0l787 0 0 787 -787 0 0 -787zm394 322c40,0 72,32 72,72 0,40 -32,72 -72,72 -40,0 -72,-32 -72,-72 0,-40 32,-72 72,-72z" gorn="0.1.1.6"  fill="#E6E6E6" id="connector1pin"/>
            <path d="M0 9472l787 0 0 787 -787 0 0 -787zm394 322c40,0 72,32 72,72 0,40 -32,72 -72,72 -40,0 -72,-32 -72,-72 0,-40 32,-72 72,-72z" gorn="0.1.1.7"  fill="#E6E6E6" id="connector2pin"/>
            <path d="M4223 9472l787 0 0 787 -787 0 0 -787zm394 322c40,0 72,32 72,72 0,40 -32,72 -72,72 -40,0 -72,-32 -72,-72 0,-40 32,-72 72,-72z" gorn="0.1.1.8"  fill="#E6E6E6" id="connector3pin"/>
            <path d="M4033 167l-156 0 0 40c0,10 -2,17 -6,21 -4,4 -8,6 -14,6 -6,0 -11,-2 -14,-6 -4,-4 -6,-11 -6,-21l0 -120c0,-10 2,-17 6,-21 4,-4 9,-6 15,-6 6,0 11,2 14,6 4,4 5,11 5,21l0 40 156 0 0 -40c0,-10 2,-17 5,-21 4,-4 8,-6 14,-6 6,0 11,2 14,6 4,4 6,11 6,21l0 120c0,10 -2,17 -5,21 -4,4 -8,6 -14,6 -6,0 -11,-2 -15,-6 -4,-4 -6,-11 -6,-21l0 -40z"  fill="white" fill-rule="nonzero"/>
            <path d="M3997 336l-121 0 0 14c0,10 -2,17 -6,21 -4,4 -8,6 -14,6 -6,0 -11,-2 -14,-6 -4,-4 -6,-11 -6,-21l0 -54c0,-10 2,-17 6,-21 4,-4 9,-6 15,-6 6,0 11,2 14,6 4,4 5,11 5,21l156 0 0 -6c0,-10 2,-17 5,-21 4,-4 8,-6 14,-6 6,0 11,2 14,6 4,4 6,11 6,21l0 46 -160 103 120 0 0 -14c0,-10 2,-17 5,-21 4,-4 8,-6 14,-6 6,0 11,2 14,6 4,4 6,11 6,21l0 54c0,10 -2,17 -5,21 -4,4 -8,6 -14,6 -6,0 -11,-2 -15,-6 -4,-4 -6,-11 -6,-21l-196 0 0 -39 160 -103z" gorn="0.1.1.10"  fill="white" fill-rule="nonzero" id="1"/>
            <path d="M3930 644l-67 0c-10,0 -16,-2 -20,-5 -4,-4 -6,-8 -6,-14 0,-6 2,-11 6,-14 4,-4 11,-6 20,-6l67 0 0 -57c0,-10 2,-16 5,-20 4,-4 9,-6 15,-6 6,0 11,2 14,6 4,4 5,11 5,20l0 57 66 0c9,0 16,2 20,6 4,4 6,8 6,14 0,6 -2,11 -6,14 -4,4 -11,6 -21,6l-66 0 0 57c0,10 -2,16 -5,20 -4,4 -8,6 -14,6 -6,0 -11,-2 -15,-6 -4,-4 -5,-11 -5,-20l0 -57z" gorn="0.1.1.11"  fill="white" fill-rule="nonzero" id="2"/>
            <path d="M1150 176l-156 0 0 40c0,10 -2,17 -5,21 -4,4 -8,6 -14,6 -6,0 -11,-2 -14,-6 -4,-4 -6,-11 -6,-21l0 -120c0,-10 2,-17 6,-21 4,-4 9,-6 15,-6 6,0 11,2 14,6 4,4 5,11 5,21l0 40 156 0 0 -40c0,-10 2,-17 6,-21 4,-4 8,-6 14,-6 6,0 11,2 14,6 4,4 5,11 5,21l0 120c0,10 -2,17 -5,21 -4,4 -8,6 -14,6 -6,0 -11,-2 -15,-6 -4,-4 -6,-11 -6,-21l0 -40z"  fill="white" fill-rule="nonzero"/>
            <path d="M1115 345l-121 0 0 14c0,10 -2,17 -5,21 -4,4 -8,6 -14,6 -6,0 -11,-2 -14,-6 -4,-4 -6,-11 -6,-21l0 -54c0,-10 2,-17 6,-21 4,-4 9,-6 15,-6 6,0 11,2 14,6 4,4 5,11 5,21l156 0 0 -6c0,-10 2,-17 6,-21 4,-4 8,-6 14,-6 6,0 11,2 14,6 4,4 5,11 5,21l0 46 -160 103 120 0 0 -14c0,-10 2,-17 6,-21 4,-4 8,-6 14,-6 6,0 11,2 14,6 4,4 5,11 5,21l0 54c0,10 -2,17 -5,21 -4,4 -8,6 -14,6 -6,0 -11,-2 -15,-6 -4,-4 -6,-11 -6,-21l-196 0 0 -39 160 -103z" gorn="0.1.1.13"  fill="white" fill-rule="nonzero" id="1"/>
            <polygon gorn="0.1.1.14"  fill="white" fill-rule="nonzero" id="2" points="1049,718 1049,552 1085,552 1085,718 "/>
            <path d="M3911 9481c-35,0 -65,-11 -88,-34 -24,-23 -35,-49 -35,-78 0,-27 10,-51 29,-72 24,-26 56,-40 94,-40 39,0 70,13 94,40 20,21 29,45 29,72 0,30 -12,56 -35,78 -24,22 -53,34 -89,34zm0 -40c24,0 44,-7 60,-22 16,-15 24,-31 24,-50 0,-19 -8,-35 -24,-50 -16,-15 -36,-22 -60,-22 -24,0 -44,7 -60,22 -16,15 -24,31 -24,50 0,19 8,35 24,50 16,15 36,22 60,22z"  fill="white" fill-rule="nonzero"/>
            <path d="M3990 9699l-113 0c-25,0 -46,-9 -63,-27 -17,-18 -26,-39 -26,-64 0,-12 2,-24 6,-35 4,-11 11,-21 19,-29 8,-9 17,-15 26,-20 9,-5 21,-7 37,-7l113 0c0,-10 2,-17 6,-21 4,-4 9,-6 15,-6 6,0 11,2 14,6 4,4 5,11 5,21l0 54c0,9 -2,15 -5,19 -4,4 -8,6 -14,6 -6,0 -11,-2 -14,-6 -4,-4 -6,-10 -6,-19l0 -14 -117 0c-12,0 -22,5 -32,15 -9,10 -14,22 -14,36 0,9 2,18 7,26 4,8 11,15 19,20 5,3 12,5 20,5l117 0 0 -14c0,-9 2,-15 6,-19 4,-4 8,-6 14,-6 6,0 11,2 14,6 4,4 5,10 5,19l0 54c0,10 -2,17 -5,21 -4,4 -8,6 -14,6 -6,0 -11,-2 -15,-6 -4,-4 -6,-11 -6,-21z" gorn="0.1.1.16"  fill="white" fill-rule="nonzero" id="1"/>
            <path d="M3990 9866l-156 0 0 27c0,10 -2,17 -5,21 -4,4 -8,6 -14,6 -6,0 -11,-2 -14,-6 -4,-4 -6,-11 -6,-21l0 -93c0,-10 2,-17 6,-21 4,-4 9,-6 15,-6 6,0 11,2 14,6 4,4 5,11 5,21l0 27 156 0 0 -43 -38 0c-10,0 -17,-2 -21,-6 -4,-4 -6,-8 -6,-14 0,-6 2,-11 6,-14 4,-4 11,-6 21,-6l78 0 0 207 -78 0c-10,0 -17,-2 -21,-6 -4,-4 -6,-8 -6,-14 0,-6 2,-11 6,-14 4,-4 11,-6 21,-6l38 0 0 -44z" gorn="0.1.1.17"  fill="white" fill-rule="nonzero" id="2"/>
            <path d="M3887 10105l-67 0c-10,0 -16,-2 -20,-5 -4,-4 -6,-8 -6,-14 0,-6 2,-11 6,-14 4,-4 11,-6 20,-6l67 0 0 -57c0,-10 2,-16 6,-20 4,-4 9,-6 15,-6 6,0 11,2 14,6 4,4 5,11 5,20l0 57 66 0c9,0 16,2 20,6 4,4 6,8 6,14 0,6 -2,11 -6,14 -4,4 -11,6 -21,6l-66 0 0 57c0,10 -2,16 -5,20 -4,4 -8,6 -14,6 -6,0 -11,-2 -15,-6 -4,-4 -6,-11 -6,-20l0 -57z" gorn="0.1.1.18"  fill="white" fill-rule="nonzero" id="3"/>
            <path d="M1072 9513c-35,0 -65,-11 -88,-34 -24,-23 -35,-49 -35,-78 0,-27 10,-51 29,-72 24,-26 56,-40 94,-40 39,0 70,13 94,40 20,21 29,45 29,72 0,30 -12,56 -35,78 -24,22 -53,34 -89,34zm0 -40c24,0 44,-7 60,-22 16,-15 24,-31 24,-50 0,-19 -8,-35 -24,-50 -16,-15 -36,-22 -60,-22 -24,0 -44,7 -60,22 -16,15 -24,31 -24,50 0,19 8,35 24,50 16,15 36,22 60,22z"  fill="white" fill-rule="nonzero"/>
            <path d="M1150 9731l-113 0c-25,0 -46,-9 -63,-27 -17,-18 -26,-39 -26,-64 0,-12 2,-24 6,-35 4,-11 11,-21 19,-29 8,-9 17,-15 26,-20 9,-5 21,-7 37,-7l113 0c0,-10 2,-17 6,-21 4,-4 9,-6 15,-6 6,0 11,2 14,6 4,4 5,11 5,21l0 54c0,9 -2,15 -5,19 -4,4 -8,6 -14,6 -6,0 -11,-2 -14,-6 -4,-4 -6,-10 -6,-19l0 -14 -117 0c-12,0 -22,5 -32,15 -9,10 -14,22 -14,36 0,9 2,18 7,26 4,8 11,15 19,20 5,3 12,5 20,5l117 0 0 -14c0,-9 2,-15 6,-19 4,-4 8,-6 14,-6 6,0 11,2 14,6 4,4 5,10 5,19l0 54c0,10 -2,17 -5,21 -4,4 -8,6 -14,6 -6,0 -11,-2 -15,-6 -4,-4 -6,-11 -6,-21z" gorn="0.1.1.20"  fill="white" fill-rule="nonzero" id="1"/>
            <path d="M1150 9898l-156 0 0 27c0,10 -2,17 -5,21 -4,4 -8,6 -14,6 -6,0 -11,-2 -14,-6 -4,-4 -6,-11 -6,-21l0 -93c0,-10 2,-17 6,-21 4,-4 9,-6 15,-6 6,0 11,2 14,6 4,4 5,11 5,21l0 27 156 0 0 -43 -38 0c-10,0 -17,-2 -21,-6 -4,-4 -6,-8 -6,-14 0,-6 2,-11 6,-14 4,-4 11,-6 21,-6l78 0 0 207 -78 0c-10,0 -17,-2 -21,-6 -4,-4 -6,-8 -6,-14 0,-6 2,-11 6,-14 4,-4 11,-6 21,-6l38 0 0 -44z" gorn="0.1.1.21"  fill="white" fill-rule="nonzero" id="2"/>
            <polygon gorn="0.1.1.22"  fill="white" fill-rule="nonzero" id="3" points="1049,10201 1049,10035 1085,10035 1085,10201 "/>
            <circle cy="394" r="77"  fill="none" cx="4617"/>
            <circle cy="394" r="77"  fill="none" cx="394"/>
            <circle cy="9866" r="77"  fill="none" cx="394"/>
            <circle cy="9866" r="77"  fill="none" cx="4617"/>
            <g >
                <path d="M4480 9283l-41 26c-5,3 -11,5 -17,6 -6,1 -12,1 -18,-1 -6,-2 -11,-4 -16,-8 -5,-4 -8,-8 -11,-14l-74 -139c-5,-9 -6,-18 -5,-27 1,-9 6,-18 13,-25 4,-4 9,-7 14,-9 3,-1 6,-2 10,-3l0 -27c0,0 0,-1 0,-1 -4,-4 -8,-8 -11,-12 -4,-5 -7,-10 -10,-16 -3,-6 -6,-12 -9,-18 -3,-6 -5,-13 -6,-20 -2,-6 -3,-13 -3,-19 -1,-7 -1,-13 -1,-20 0,-6 0,-13 1,-19 1,-7 2,-13 4,-20 1,-3 2,-6 3,-9 1,-2 1,-3 2,-5 -2,-3 -4,-6 -5,-9 -2,-5 -2,-10 -2,-15l0 -34c0,-2 0,-4 0,-6 0,-1 0,-3 1,-4 -1,-5 -2,-10 -3,-15 -1,-6 -1,-11 -1,-17 0,-8 1,-15 2,-22 2,-7 4,-15 8,-21 4,-8 10,-15 17,-20 3,-2 7,-5 10,-6l-14 -9c0,0 0,0 0,0 -6,-4 -11,-9 -15,-16 -4,-6 -5,-14 -5,-21l0 -53c0,-1 0,-3 0,-4 0,-1 0,-2 0,-3 -1,-4 -2,-8 -2,-12 -1,-4 -1,-9 -1,-13 0,-6 0,-13 2,-19 1,-6 3,-13 6,-19 1,-2 2,-4 4,-6 1,-1 1,-2 2,-2 -2,-4 -3,-7 -4,-11 -2,-5 -3,-10 -5,-15 -2,-6 -3,-13 -3,-19 -1,-7 -1,-13 -1,-20 0,-6 0,-13 1,-19 1,-7 2,-13 4,-20 1,-5 3,-10 6,-15 1,-3 3,-5 5,-8 -3,-3 -6,-7 -8,-11 -3,-6 -5,-13 -5,-20l0 -50c0,-7 2,-14 5,-20 2,-4 5,-8 8,-11 -6,-7 -12,-15 -16,-24 -5,-10 -8,-22 -8,-33l0 -321c0,-12 3,-22 8,-31 5,-8 12,-14 20,-18 8,-4 17,-6 26,-6 8,0 17,2 25,5l0 -122c0,-5 4,-9 9,-9l0 0c5,0 9,4 9,9l0 130c0,1 0,1 0,2l46 29 0 -121c0,-5 4,-9 9,-9 0,0 0,0 0,0 5,0 9,4 9,9 0,43 0,87 0,130 0,1 0,1 0,2l46 29 0 -121c0,-5 4,-9 9,-9 0,0 0,0 0,0 5,0 9,4 9,9 0,43 0,87 0,130 0,1 0,1 0,2l46 29 0 -121c0,-5 4,-9 9,-9 0,0 0,0 0,0 5,0 9,4 9,9 0,43 0,87 0,130 0,1 0,1 0,2l46 29 0 -121c0,-5 4,-9 9,-9 0,0 0,0 0,0 5,0 9,4 9,9 0,43 0,87 0,130 0,1 0,1 0,2l46 29 0 -121c0,-5 4,-9 9,-9l0 0c5,0 9,4 9,9l0 130c0,1 0,1 0,2 11,7 20,18 27,30 7,13 12,27 12,41l0 321c0,9 -2,16 -4,23 -2,6 -6,11 -10,16 0,1 0,1 0,2 0,2 0,4 0,6l0 54c0,8 -2,16 -6,22 -4,6 -9,12 -16,16 -3,1 -5,3 -8,4 0,0 -1,0 -1,0 2,6 3,12 4,19 1,8 2,16 2,24 0,9 -1,18 -2,28 -2,9 -5,19 -10,27 -1,2 -2,4 -3,5 0,1 -1,1 -1,2 1,3 3,5 4,8 2,4 3,8 5,12 3,8 5,17 6,26 2,9 2,19 2,28 0,9 0,18 -2,28 -1,8 -4,16 -7,24 2,3 3,6 5,9 2,5 2,9 2,15l0 52c0,2 0,4 0,5 0,1 0,3 -1,4 1,3 2,6 2,10 1,4 1,8 1,11 0,3 0,6 0,9 0,3 -1,5 -2,8l0 48c0,1 0,3 0,5 0,1 0,2 0,3 1,4 2,8 2,12 1,5 1,9 1,14 0,8 -1,17 -3,24 -2,8 -6,16 -12,22 -4,5 -10,9 -15,13 -2,1 -4,2 -6,3l45 36c5,4 9,9 12,15 3,6 4,12 4,19l0 78c0,7 -2,14 -5,20 -3,6 -8,11 -14,16 -2,2 -5,3 -7,4 -1,0 -1,1 -2,1 1,4 1,9 2,13 1,6 1,13 1,19 0,7 0,13 -1,20 -1,7 -2,14 -4,20 -3,8 -6,15 -11,22 -4,6 -10,11 -17,15 -7,4 -14,7 -22,8 -8,1 -15,0 -23,-2 -4,-1 -8,-3 -13,-5 -4,-2 -8,-4 -11,-6l0 0 0 0 -7 -5c-3,-2 -6,-5 -9,-7 -2,-2 -3,-4 -5,-6 -6,-1 -11,-2 -17,-4 -6,-2 -13,-5 -18,-9 -6,-4 -13,-8 -19,-13 -6,-5 -12,-11 -16,-17 -5,-6 -8,-12 -12,-19 -3,-7 -6,-14 -8,-22 -2,-7 -4,-15 -4,-22 -1,-4 -1,-8 -1,-13zm-48 16l50 -32c1,-1 2,-1 3,-1 3,0 6,3 6,6l0 1 0 0c0,7 0,14 1,21 1,7 2,14 4,21 2,7 4,13 7,20 3,6 6,11 10,17 4,6 9,10 15,15 5,5 11,9 17,12 5,3 11,6 16,8 5,2 11,3 16,3 2,0 5,1 6,3 1,2 3,5 5,7 2,2 4,4 7,5l7 5 0 0c3,2 7,4 10,6 3,2 7,3 11,4 6,2 12,2 17,2 6,-1 12,-3 17,-6 5,-3 10,-7 13,-12 4,-5 7,-12 9,-18 2,-6 3,-12 4,-18 1,-6 1,-13 1,-19 0,-6 0,-12 -1,-18 -1,-6 -1,-11 -3,-17 0,0 0,0 0,0 -1,-3 1,-7 5,-7 2,0 4,-1 6,-2 2,-1 4,-2 5,-3 4,-3 8,-7 10,-11 2,-4 4,-9 4,-15l0 -78c0,-5 -1,-9 -3,-14 -2,-4 -5,-8 -9,-11l-55 -43c-1,-1 -2,-2 -3,-4 -1,-3 2,-7 5,-7 5,-1 10,-2 14,-5 4,-2 8,-6 12,-10 4,-5 7,-11 9,-18 2,-7 3,-14 3,-21 0,-4 0,-8 -1,-12 0,-4 -1,-8 -2,-11 0,-1 0,-2 0,-3 0,-1 0,-2 1,-3 0,-1 0,-2 0,-3l0 -49 0 0c0,-1 0,-1 0,-2 1,-2 1,-4 2,-6 0,-2 0,-4 0,-7 0,-3 -1,-7 -1,-10 -1,-3 -1,-7 -2,-10 0,-1 0,-2 0,-3 0,-1 1,-3 1,-4 0,-1 0,-3 0,-4l0 -52c0,-4 -1,-7 -2,-10 -1,-3 -3,-6 -5,-9l0 0c-2,-2 -2,-5 -1,-7 4,-7 6,-15 8,-23 1,-8 2,-17 2,-26 0,-9 -1,-18 -2,-26 -1,-8 -3,-16 -6,-24 -1,-4 -3,-8 -4,-11 -2,-3 -3,-7 -5,-10 -1,-2 -1,-5 1,-7 1,-1 2,-3 3,-4 1,-1 2,-3 3,-4 4,-7 7,-15 8,-23 2,-8 2,-17 2,-25 0,-8 -1,-15 -2,-22 -1,-7 -3,-14 -5,-21 0,0 0,0 0,0l0 -1c0,0 0,0 0,0l0 -1c0,0 0,-1 0,-1 0,-3 2,-7 6,-7 2,0 4,-1 6,-1 2,-1 4,-2 6,-3 5,-3 9,-7 12,-11 3,-5 4,-10 4,-16l0 -54c0,-2 0,-3 0,-4 0,-1 0,-3 -1,-4 -1,-2 0,-5 2,-7 4,-4 7,-8 10,-14 2,-5 3,-12 3,-18l0 -321c0,-12 -4,-24 -10,-35 -7,-11 -16,-21 -27,-28l0 0 -321 -197c-9,-6 -19,-8 -28,-8 -7,0 -14,2 -20,5 -6,3 -11,8 -15,14 -4,7 -6,15 -6,24l0 321c0,9 2,19 6,27 4,9 11,18 18,25l0 0c0,0 1,1 1,1 2,3 1,7 -2,9 -4,3 -8,7 -10,11 -2,4 -3,9 -3,15l0 50c0,5 1,10 3,14 2,4 5,8 9,11l0 0c0,0 0,0 0,0 3,2 3,6 1,9 -3,3 -5,6 -7,10 -2,4 -4,8 -5,13 -2,6 -3,12 -3,18 -1,6 -1,12 -1,18 0,6 0,13 1,19 1,6 2,12 3,18 1,5 3,9 4,14 2,4 3,9 5,13 1,2 1,5 -1,7 -1,1 -2,3 -3,4 -1,2 -2,3 -3,5 -3,5 -4,10 -5,15 -1,5 -1,11 -1,17 0,4 0,8 1,12 0,4 1,8 2,12l0 0c0,1 0,2 0,3 0,1 0,2 0,3 0,1 0,2 0,3l0 53c0,6 1,11 4,15 2,4 6,8 11,11 0,0 0,0 0,0l25 15 0 0c1,1 2,2 3,4 1,3 -1,7 -5,7 -7,2 -13,5 -18,9 -6,4 -10,10 -14,17 -3,6 -5,12 -7,18 -1,6 -2,13 -2,20 0,5 0,10 1,15 1,5 2,10 3,14 0,1 0,2 0,4 0,1 -1,3 -1,4 0,1 0,3 0,4l0 34c0,4 1,7 2,11 1,3 3,6 5,9l0 0c2,2 2,5 1,7 -1,2 -2,4 -3,7 -1,3 -2,5 -3,8 -2,6 -3,12 -3,18 -1,6 -1,12 -1,18 0,6 0,13 1,19 1,6 2,12 3,18 1,6 3,12 6,18 2,6 5,11 8,17 3,5 6,10 10,14 3,4 7,9 11,12l0 0 0 0c2,1 2,3 2,5 0,1 0,1 0,2 0,0 0,1 0,2l0 33 0 0c0,3 -3,6 -6,6 -4,0 -8,1 -11,2 -4,1 -7,4 -10,6 -5,5 -8,11 -9,17 -1,6 0,13 3,20l74 139c2,4 5,7 8,10 3,3 7,4 11,6 4,1 9,1 13,1 4,-1 8,-2 12,-5z"  fill="white" fill-rule="nonzero"/>
                <path d="M4674 8175l0 111c0,12 -10,16 -22,9l-111 -68c-12,-8 -22,-24 -22,-36l0 -111c0,-12 10,-16 22,-9l111 68c12,8 22,24 22,36zm-20 51l-93 -57 0 24 -23 -14 0 -65 116 71 0 41z"  fill="white"/>
                <path d="M4674 8341l0 111c0,12 -10,16 -22,9l-111 -68c-12,-8 -22,-24 -22,-36l0 -111c0,-12 10,-16 22,-9l111 68c12,8 22,24 22,36zm-20 71l-116 -48 0 -41 21 11 0 -15 -21 -15 0 -42 116 92 0 58zm-75 -67c13,6 30,14 49,24 -22,-18 -39,-30 -49,-38l0 14z"  fill="white"/>
                <path d="M4508 8074l0 111c0,12 -10,16 -22,9l-111 -68c-12,-8 -22,-24 -22,-36l0 -111c0,-12 10,-16 22,-9l111 68c12,8 22,24 22,36zm-20 91l-74 -75 -42 -26 0 -37 42 26 74 17 0 37c-23,-8 -38,-14 -46,-18 12,10 28,23 46,39l0 37z"  fill="white"/>
                <path d="M4508 8239l0 111c0,12 -10,16 -22,9l-111 -68c-12,-8 -22,-24 -22,-36l0 -111c0,-12 10,-16 22,-9l111 68c12,8 22,24 22,36zm-63 64l0 -41 11 6c7,4 11,6 13,7 2,0 3,-1 3,-4 0,-2 -1,-5 -2,-6 -1,-2 -5,-4 -11,-8l-56 -34c-5,-3 -9,-5 -10,-5 -2,0 -2,1 -2,4 0,3 1,5 3,8 2,2 5,5 11,8l14 8 0 -8 18 11 0 47 -62 -38 0 -25 8 1c-4,-5 -6,-10 -8,-15 -2,-5 -3,-11 -3,-16 0,-7 1,-12 4,-17 3,-4 6,-7 9,-8 4,-1 7,0 11,1 4,2 10,5 18,10l35 21c11,7 19,13 24,17 5,5 10,12 14,22 4,10 6,21 6,33 0,12 -2,21 -5,26 -4,6 -8,8 -13,7 -5,-1 -12,-4 -22,-10l-5 -3z"  fill="white"/>
                <path d="M4337 7923c4,0 9,2 15,5l321 197c8,5 15,12 20,20l0 1c5,8 8,17 8,25l0 321c0,4 -1,7 -2,10 -1,2 -3,3 -5,4 -2,1 -4,1 -6,1 -4,0 -9,-2 -15,-5l-321 -197c-8,-5 -15,-12 -20,-21l0 -1c-5,-8 -8,-17 -8,-25l0 -321c0,-4 1,-7 2,-10 1,-2 3,-3 5,-4 2,-1 4,-1 6,-1zm352 561l0 -321c0,-4 -2,-10 -5,-14l0 0c-3,-5 -7,-9 -12,-12l-321 -197c-3,-2 -6,-3 -9,-3 -1,0 -3,0 -4,1 -1,1 -2,2 -3,3 -1,1 -1,3 -1,6l0 321c0,4 2,10 5,14l0 1c3,5 7,9 12,12l321 197c3,2 6,3 9,3 1,0 3,0 4,-1 1,-1 2,-2 3,-3 1,-1 1,-3 1,-6z"  fill="white" fill-rule="nonzero"/>
                <path d="M4682 8590l-125 -77 0 33 -31 -19 0 -87 156 96 0 54zm-94 104l0 -68 -28 -17c-6,-4 -10,-5 -11,-5 -2,0 -3,2 -3,5 0,4 1,7 3,10 2,3 7,6 13,10l17 10 0 49 -9 -6c-8,-5 -14,-9 -18,-13 -4,-4 -9,-10 -14,-18 -5,-8 -8,-16 -11,-25 -2,-9 -4,-19 -4,-30 0,-11 1,-20 4,-27 2,-7 6,-11 10,-14 4,-2 9,-3 14,-1 5,1 12,5 22,11l37 23c11,7 20,14 26,22 6,8 11,18 15,29 3,11 5,23 5,35 0,15 -2,25 -6,32 -4,7 -10,10 -16,10 -7,0 -16,-4 -29,-12l-17 -10zm21 -39l9 6c7,4 11,6 13,6 2,0 3,-1 3,-4 0,-4 -1,-6 -2,-8 -2,-2 -6,-5 -13,-9l-9 -6 0 16zm-4 113l0 -49 9 5c10,6 18,12 23,19 5,6 10,15 14,27 4,12 6,25 6,40 0,18 -2,29 -7,35 -5,6 -10,8 -17,6 -7,-2 -21,-10 -42,-23l-64 -39 0 -51 11 7c-5,-6 -8,-12 -10,-19 -2,-6 -3,-13 -3,-20 0,-9 2,-16 6,-22 4,-5 12,-4 25,4l11 6c10,6 16,12 20,18 3,6 8,19 12,38 5,20 8,31 10,34 2,2 5,5 11,8 7,4 11,6 13,6 2,0 3,-2 3,-5 0,-4 -1,-6 -3,-8 -2,-2 -6,-5 -13,-9l-13 -8zm-18 6c-5,-11 -8,-18 -11,-22 -3,-3 -8,-7 -13,-10 -7,-4 -11,-6 -13,-6 -2,0 -3,2 -3,5 0,3 1,6 2,8 2,2 5,5 12,9l26 16zm67 163l-17 -12c12,15 18,30 19,45l-45 -28c0,-10 -1,-17 -3,-23 -2,-6 -5,-10 -8,-13 -3,-3 -11,-9 -24,-16l-51 -31 0 -52 128 79 0 52zm0 95l-12 -8c5,7 8,13 11,20 2,7 4,14 4,21 0,9 -2,15 -5,19 -3,4 -7,5 -12,4 -5,-1 -13,-5 -24,-12l-90 -55 0 -52 89 54c9,5 14,8 16,9 2,0 3,-1 3,-5 0,-4 -1,-7 -3,-9 -2,-2 -8,-6 -18,-12l-86 -53 0 -52 128 79 0 53zm28 244l-156 -65 0 -55 28 14 0 -20 -28 -20 0 -56 156 123 0 78zm-100 -91c18,8 40,19 66,32 -30,-24 -52,-41 -66,-51l0 18zm31 193l0 -46 7 4c6,4 10,5 11,6 2,0 2,-2 2,-5 0,-3 -1,-6 -2,-8 -1,-2 -4,-4 -7,-6 -4,-2 -7,-4 -9,-4 -2,0 -4,1 -6,3 -2,2 -5,8 -10,17 -6,12 -11,18 -16,20 -5,2 -12,0 -21,-6 -10,-6 -18,-13 -24,-20 -5,-7 -9,-15 -12,-26 -3,-10 -4,-21 -4,-33 0,-13 2,-24 5,-31 3,-7 7,-11 13,-12 5,0 13,3 24,9l6 4 0 46 -8 -5c-7,-4 -11,-6 -13,-6 -2,0 -3,2 -3,5 0,4 1,7 2,9 1,2 4,5 9,8 6,4 10,5 11,4 2,-1 6,-8 14,-22 6,-11 12,-17 18,-17 5,0 11,2 19,6 10,6 18,13 23,19 5,7 9,15 11,25 3,10 4,21 4,32 0,11 -1,20 -3,27 -2,7 -5,11 -9,13 -4,2 -7,3 -10,2 -3,-1 -8,-3 -14,-7l-7 -5zm-117 -842l-100 -101 -57 -35 0 -50 57 35 100 23 0 50c-31,-11 -51,-19 -62,-25 17,13 37,31 62,53l0 50zm-73 69l-31 -19c-12,-7 -20,-13 -25,-18 -5,-5 -10,-11 -15,-19 -5,-8 -8,-17 -10,-26 -2,-9 -3,-19 -3,-29 0,-12 1,-21 3,-27 2,-7 5,-11 9,-13 4,-2 8,-2 14,-1 5,1 14,6 24,12l33 20c12,7 21,15 28,22 7,8 12,17 16,28 4,11 6,24 6,38 0,12 -1,21 -4,28 -3,7 -6,11 -10,13 -4,2 -8,2 -13,1 -4,-1 -11,-4 -20,-10zm10 -46c7,4 11,6 12,6 2,0 3,-1 3,-5 0,-3 -1,-6 -3,-8 -2,-2 -6,-5 -12,-9l-58 -35c-6,-4 -10,-6 -12,-6 -2,0 -3,1 -3,4 0,3 1,6 3,8 2,2 5,5 11,8l59 36zm35 210l-128 -79 0 -53 11 7c-4,-6 -8,-13 -10,-19 -2,-7 -3,-13 -3,-20 0,-8 1,-14 3,-18 2,-4 5,-6 8,-6 3,0 7,0 11,2 4,2 11,6 22,13l86 53 0 52 -87 -53c-10,-6 -16,-9 -18,-10 -2,0 -3,1 -3,5 0,4 1,7 3,9 2,2 8,6 19,13l86 53 0 52zm-29 173l0 -54 14 9c9,6 15,8 17,9 2,0 3,-1 3,-5 0,-3 -1,-6 -3,-8 -2,-2 -7,-6 -15,-11l-75 -46c-7,-4 -12,-7 -14,-7 -2,0 -3,1 -3,5 0,4 1,7 4,10 3,3 7,7 15,11l18 11 0 -11 24 15 0 63 -84 -51 0 -34 11 2c-5,-7 -8,-14 -11,-21 -2,-7 -4,-15 -4,-22 0,-9 2,-17 5,-22 3,-6 7,-9 12,-10 5,-1 10,-1 15,2 5,2 13,7 24,13l46 29c15,9 26,17 32,23 7,6 13,16 19,30 6,14 8,28 8,45 0,16 -2,28 -7,35 -5,7 -11,11 -17,10 -7,-1 -16,-5 -29,-13l-7 -4zm-16 128l-31 -19c-12,-7 -20,-13 -25,-18 -5,-5 -10,-11 -15,-19 -5,-8 -8,-17 -10,-26 -2,-9 -3,-19 -3,-29 0,-12 1,-21 3,-27 2,-7 5,-11 9,-13 4,-2 8,-2 14,-1 5,1 14,6 24,12l33 20c12,7 21,15 28,22 7,8 12,17 16,28 4,11 6,24 6,38 0,12 -1,21 -4,28 -3,7 -6,11 -10,13 -4,2 -8,2 -13,1 -4,-1 -11,-4 -20,-10zm10 -46c7,4 11,6 12,6 2,0 3,-1 3,-5 0,-3 -1,-6 -3,-8 -2,-2 -6,-5 -12,-9l-58 -35c-6,-4 -10,-6 -12,-6 -2,0 -3,1 -3,4 0,3 1,6 3,8 2,2 5,5 11,8l59 36z"  fill="white" fill-rule="nonzero"/>
                <path d="M4378 9064l0 93 -37 -23 74 139 74 -47 -37 -23 0 -93 -74 -46zm0 47m-19 35m19 58m74 46m19 -35m-19 -58m-37 -69"  fill="white" fill-rule="nonzero"/>
            </g>
            <g >
                <polygon  fill="#E6E6E6" points="518,7857 398,7857 278,7737 278,5591 398,5471 518,5471 "/>
                <rect width="1956" height="2386"  x="518" y="5471" fill="#1A1A1A"/>
                <g >
                    <polygon  fill="#E6E6E6" points="2474,6330 3683,6330 3800,6269 3800,6145 3683,6083 2474,6083 "/>
                    <polygon  fill="#A4A4A4" points="2474,6330 2698,6330 2698,6083 2474,6083 "/>
                    <polygon  fill="#CCCCCC" points="2698,6330 3424,6330 3424,6083 2698,6083 "/>
                    <polygon  fill="#E6E6E6" points="3424,6330 3683,6330 3683,6083 3424,6083 "/>
                    <polygon  fill="#E6E6E6" points="3683,6083 3683,6330 3800,6269 3800,6145 "/>
                </g>
                <g >
                    <polygon  fill="#E6E6E6" points="2474,5873 3683,5873 3800,5812 3800,5688 3683,5626 2474,5626 "/>
                    <polygon  fill="#A4A4A4" points="2474,5873 2698,5873 2698,5626 2474,5626 "/>
                    <polygon  fill="#CCCCCC" points="2698,5873 3424,5873 3424,5626 2698,5626 "/>
                    <polygon  fill="#E6E6E6" points="3424,5873 3683,5873 3683,5626 3424,5626 "/>
                    <polygon  fill="#E6E6E6" points="3683,5873 3800,5812 3800,5688 3683,5626 "/>
                </g>
                <g >
                    <polygon  fill="#E6E6E6" points="2474,6787 3683,6787 3800,6726 3800,6602 3683,6540 2474,6540 "/>
                    <polygon  fill="#A4A4A4" points="2474,6787 2698,6787 2698,6540 2474,6540 "/>
                    <polygon  fill="#CCCCCC" points="2698,6787 3424,6787 3424,6540 2698,6540 "/>
                    <polygon  fill="#E6E6E6" points="3424,6787 3683,6787 3683,6540 3424,6540 "/>
                    <polygon  fill="#E6E6E6" points="3800,6602 3683,6540 3683,6787 3800,6726 "/>
                </g>
                <g >
                    <polygon  fill="#E6E6E6" points="2474,7245 3683,7245 3800,7183 3800,7059 3683,6997 2474,6997 "/>
                    <polygon  fill="#A4A4A4" points="2474,7245 2698,7245 2698,6997 2474,6997 "/>
                    <polygon  fill="#CCCCCC" points="2698,7245 3424,7245 3424,6997 2698,6997 "/>
                    <polygon  fill="#E6E6E6" points="3424,7245 3683,7245 3683,6997 3424,6997 "/>
                    <polygon  fill="#E6E6E6" points="3800,7059 3683,6997 3683,7245 3800,7183 "/>
                </g>
                <g >
                    <polygon  fill="#E6E6E6" points="2474,7702 3683,7702 3800,7640 3800,7516 3683,7454 2474,7454 "/>
                    <polygon  fill="#A4A4A4" points="2698,7702 2698,7454 2474,7454 2474,7702 "/>
                    <polygon  fill="#CCCCCC" points="3424,7454 2698,7454 2698,7702 3424,7702 "/>
                    <polygon  fill="#E6E6E6" points="3683,7454 3424,7454 3424,7702 3683,7702 "/>
                    <polygon  fill="#E6E6E6" points="3800,7516 3683,7454 3683,7702 3800,7640 "/>
                </g>
                <g >
                    <line x1="3683" x2="3683"  fill="none" stroke="#CCCCCC" stroke-width="10.5221" y1="7702" y2="7454"/>
                    <line x1="3683" x2="3683"  fill="none" stroke="#CCCCCC" stroke-width="10.5221" y1="7245" y2="6997"/>
                    <line x1="3683" x2="3683"  fill="none" stroke="#CCCCCC" stroke-width="10.5221" y1="6787" y2="6540"/>
                    <line x1="3683" x2="3683"  fill="none" stroke="#CCCCCC" stroke-width="10.5221" y1="6330" y2="6083"/>
                    <line x1="3683" x2="3683"  fill="none" stroke="#CCCCCC" stroke-width="10.5221" y1="5873" y2="5626"/>
                </g>
            </g>
            <path d="M2153 9947l0 -1824c-364,142 -622,497 -622,912 0,415 258,770 622,912z"  fill="#080808"/>
            <ellipse cy="1206" rx="975"  ry="978" fill="#E6E6E6" cx="2505"/>
            <path d="M2153 2119l0 -1824c-364,142 -622,497 -622,912 0,415 258,770 622,912z"  fill="#080808"/>
        </g>
    </g>
</svg>
