<?xml version='1.0' encoding='UTF-8' standalone='no'?>
<svg
  xmlns="http://www.w3.org/2000/svg"
  x="0in"
  gorn="0"
  height="0.33in"
  viewBox="0 0 800 330"
  version="1.2"
  width="0.8in"
  y="0in"
  id="svg982">
  <metadata
    id="metadata988">
    <rdf:RDF
      xmlns:rdf="http://www.w3.org/1999/02/22-rdf-syntax-ns#">
      <cc:Work
        xmlns:cc="http://creativecommons.org/ns#"
        xmlns:rdf="http://www.w3.org/1999/02/22-rdf-syntax-ns#"
        rdf:about="">
        <dc:format
          xmlns:dc="http://purl.org/dc/elements/1.1/">image/svg+xml</dc:format>
        <dc:type
          xmlns:dc="http://purl.org/dc/elements/1.1/"
          xmlns:rdf="http://www.w3.org/1999/02/22-rdf-syntax-ns#"
          rdf:resource="http://purl.org/dc/dcmitype/StillImage"
        />
        <dc:title
          xmlns:dc="http://purl.org/dc/elements/1.1/"
        />
      </cc:Work>
    </rdf:RDF>
  </metadata>
  <defs
    id="defs986"
  />
  <desc
    id="desc903">
    <referenceFile>CD4060BE_dip16_300mil_breadboard.svg</referenceFile>
  </desc>
  <g
    gorn="0.3"
    id="breadboard">
    <rect
      x="0"
      gorn="0.3.0"
      height="270"
      width="800"
      fill="#303030"
      y="30"
      id="middle"
    />
    <rect
      x="0"
      gorn="0.3.1"
      height="24.6"
      width="800"
      fill="#3D3D3D"
      y="30"
      id="top"
    />
    <rect
      x="0"
      gorn="0.3.2"
      height="24.6"
      width="800"
      fill="#000000"
      y="275.4"
      id="bottom"
    />
    <polygon
      gorn="0.3.3"
      points="800,30,792.5,54.6,792.5,275.4,800,300"
      fill="#141414"
      id="right"
    />
    <polygon
      gorn="0.3.4"
      points="0,30,7.5,54.6,7.5,275.4,0,300"
      fill="#1F1F1F"
      id="left"
    />
    <polygon
      gorn="0.3.5"
      points="50,115,7.5,114.6,5.6,135.8,5.6,165,50,165"
      fill="#1C1C1C"
      id="left-upper-rect"
    />
    <polygon
      gorn="0.3.6"
      points="7.5,215.5,50,215.5,50,165,5.6,165,5.6,194.2"
      fill="#383838"
      id="left-lower-rect"
    />
    <path
      gorn="0.3.7"
      fill="#262626"
      d="M5.6,135.8l0,58.3c14.7,-1.7,26.2,-14,26.2,-29.2C31.8,149.7,20.4,137.5,5.6,135.8z"
      id="slot"
    />
    <path
      gorn="0.3.8"
      fill="#303030"
      d="M7.5,54.6L7.5,114.5c23.8,4.5,41.9,25.3,41.9,50.4c0,25.1,-18,46,-41.9,50.5L7.5,215.5l50,0L57.5,54.6L7.5,54.6z"
      id="cover"
    />
    <circle
      stroke-width="0"
      gorn="0.3.9"
      stroke="#1c1c1c"
      fill-opacity="1"
      fill="#1c1c1c"
      r="20.5"
      stroke-opacity="1"
      cx="65"
      stroke-dasharray="none"
      stroke-miterlimit="4"
      cy="235"
      id="circle914"
    />
    <text
      x="65"
      gorn="0.3.10"
      font-size="80"
      stroke="none"
      text-anchor="start"
      fill="#e6e6e6"
      y="165"
      font-family="OCRA"
      id="label">CD4060BE</text>
    <rect
      x="35"
      gorn="0.3.11"
      height="43.4"
      width="30"
      fill="#8C8C8C"
      y="286.6"
      id="connector0pin"
    />
    <rect
      x="35"
      gorn="0.3.12"
      height="30"
      width="30"
      fill="#8C8C8C"
      y="300"
      id="connector0terminal"
    />
    <polygon
      gorn="0.3.13"
      points="35,286.6,35,306.6,65,306.6,85,297.4,85,286.6"
      fill="#8C8C8C"
      id="polygon919"
    />
    <rect
      x="35"
      gorn="0.3.14"
      height="43.4"
      width="30"
      fill="#8C8C8C"
      id="connector15pin"
    />
    <rect
      x="35"
      gorn="0.3.15"
      height="30"
      width="30"
      fill="#8C8C8C"
      id="connector15terminal"
    />
    <polygon
      gorn="0.3.16"
      points="85,43.4,85,32.6,65,23.4,35,23.4,35,43.4"
      fill="#8C8C8C"
      id="polygon923"
    />
    <rect
      x="735"
      gorn="0.3.17"
      height="43.4"
      width="30"
      fill="#8C8C8C"
      y="286.6"
      id="connector7pin"
    />
    <rect
      x="735"
      gorn="0.3.18"
      height="30"
      width="30"
      fill="#8C8C8C"
      y="300"
      id="connector7terminal"
    />
    <polygon
      gorn="0.3.19"
      points="715,286.6,715,297.4,735,306.6,765,306.6,765,286.6"
      fill="#8C8C8C"
      id="polygon927"
    />
    <rect
      x="735"
      gorn="0.3.20"
      height="43.4"
      width="30"
      fill="#8C8C8C"
      y="0"
      id="connector8pin"
    />
    <rect
      x="735"
      gorn="0.3.21"
      height="30"
      width="30"
      fill="#8C8C8C"
      y="0"
      id="connector8terminal"
    />
    <polygon
      gorn="0.3.22"
      points="765,43.4,765,23.4,735,23.4,715,32.6,715,43.4"
      fill="#8C8C8C"
      id="polygon931"
    />
    <rect
      x="135"
      gorn="0.3.23"
      height="43.4"
      width="30"
      fill="#8C8C8C"
      y="0"
      id="connector14pin"
    />
    <rect
      x="135"
      gorn="0.3.24"
      height="30"
      width="30"
      fill="#8C8C8C"
      id="connector14terminal"
    />
    <polygon
      gorn="0.3.25"
      points="185,43.4,185,32.6,165,23.4,135,23.4,115,32.6,115,43.4"
      fill="#8C8C8C"
      id="polygon935"
    />
    <rect
      x="235"
      gorn="0.3.26"
      height="43.4"
      width="30"
      fill="#8C8C8C"
      y="0"
      id="connector13pin"
    />
    <rect
      x="235"
      gorn="0.3.27"
      height="30"
      width="30"
      fill="#8C8C8C"
      id="connector13terminal"
    />
    <polygon
      gorn="0.3.28"
      points="285,43.4,285,32.6,265,23.4,235,23.4,215,32.6,215,43.4"
      fill="#8C8C8C"
      id="polygon939"
    />
    <rect
      x="335"
      gorn="0.3.29"
      height="43.4"
      width="30"
      fill="#8C8C8C"
      y="0"
      id="connector12pin"
    />
    <rect
      x="335"
      gorn="0.3.30"
      height="30"
      width="30"
      fill="#8C8C8C"
      id="connector12terminal"
    />
    <polygon
      gorn="0.3.31"
      points="385,43.4,385,32.6,365,23.4,335,23.4,315,32.6,315,43.4"
      fill="#8C8C8C"
      id="polygon943"
    />
    <rect
      x="435"
      gorn="0.3.32"
      height="43.4"
      width="30"
      fill="#8C8C8C"
      y="0"
      id="connector11pin"
    />
    <rect
      x="435"
      gorn="0.3.33"
      height="30"
      width="30"
      fill="#8C8C8C"
      id="connector11terminal"
    />
    <polygon
      gorn="0.3.34"
      points="485,43.4,485,32.6,465,23.4,435,23.4,415,32.6,415,43.4"
      fill="#8C8C8C"
      id="polygon947"
    />
    <rect
      x="535"
      gorn="0.3.35"
      height="43.4"
      width="30"
      fill="#8C8C8C"
      y="0"
      id="connector10pin"
    />
    <rect
      x="535"
      gorn="0.3.36"
      height="30"
      width="30"
      fill="#8C8C8C"
      id="connector10terminal"
    />
    <polygon
      gorn="0.3.37"
      points="585,43.4,585,32.6,565,23.4,535,23.4,515,32.6,515,43.4"
      fill="#8C8C8C"
      id="polygon951"
    />
    <rect
      x="635"
      gorn="0.3.38"
      height="43.4"
      width="30"
      fill="#8C8C8C"
      y="0"
      id="connector9pin"
    />
    <rect
      x="635"
      gorn="0.3.39"
      height="30"
      width="30"
      fill="#8C8C8C"
      id="connector9terminal"
    />
    <polygon
      gorn="0.3.40"
      points="685,43.4,685,32.6,665,23.4,635,23.4,615,32.6,615,43.4"
      fill="#8C8C8C"
      id="polygon955"
    />
    <rect
      x="135"
      gorn="0.3.41"
      height="43.4"
      width="30"
      fill="#8C8C8C"
      y="286.6"
      id="connector1pin"
    />
    <rect
      x="135"
      gorn="0.3.42"
      height="30"
      width="30"
      fill="#8C8C8C"
      y="300"
      id="connector1terminal"
    />
    <polygon
      gorn="0.3.43"
      points="115,286.6,115,297.4,135,306.6,165,306.6,185,297.4,185,286.6"
      fill="#8C8C8C"
      id="polygon959"
    />
    <rect
      x="235"
      gorn="0.3.44"
      height="43.4"
      width="30"
      fill="#8C8C8C"
      y="286.6"
      id="connector2pin"
    />
    <rect
      x="235"
      gorn="0.3.45"
      height="30"
      width="30"
      fill="#8C8C8C"
      y="300"
      id="connector2terminal"
    />
    <polygon
      gorn="0.3.46"
      points="215,286.6,215,297.4,235,306.6,265,306.6,285,297.4,285,286.6"
      fill="#8C8C8C"
      id="polygon963"
    />
    <rect
      x="335"
      gorn="0.3.47"
      height="43.4"
      width="30"
      fill="#8C8C8C"
      y="286.6"
      id="connector3pin"
    />
    <rect
      x="335"
      gorn="0.3.48"
      height="30"
      width="30"
      fill="#8C8C8C"
      y="300"
      id="connector3terminal"
    />
    <polygon
      gorn="0.3.49"
      points="315,286.6,315,297.4,335,306.6,365,306.6,385,297.4,385,286.6"
      fill="#8C8C8C"
      id="polygon967"
    />
    <rect
      x="435"
      gorn="0.3.50"
      height="43.4"
      width="30"
      fill="#8C8C8C"
      y="286.6"
      id="connector4pin"
    />
    <rect
      x="435"
      gorn="0.3.51"
      height="30"
      width="30"
      fill="#8C8C8C"
      y="300"
      id="connector4terminal"
    />
    <polygon
      gorn="0.3.52"
      points="415,286.6,415,297.4,435,306.6,465,306.6,485,297.4,485,286.6"
      fill="#8C8C8C"
      id="polygon971"
    />
    <rect
      x="535"
      gorn="0.3.53"
      height="43.4"
      width="30"
      fill="#8C8C8C"
      y="286.6"
      id="connector5pin"
    />
    <rect
      x="535"
      gorn="0.3.54"
      height="30"
      width="30"
      fill="#8C8C8C"
      y="300"
      id="connector5terminal"
    />
    <polygon
      gorn="0.3.55"
      points="515,286.6,515,297.4,535,306.6,565,306.6,585,297.4,585,286.6"
      fill="#8C8C8C"
      id="polygon975"
    />
    <rect
      x="635"
      gorn="0.3.56"
      height="43.4"
      width="30"
      fill="#8C8C8C"
      y="286.6"
      id="connector6pin"
    />
    <rect
      x="635"
      gorn="0.3.57"
      height="30"
      width="30"
      fill="#8C8C8C"
      y="300"
      id="connector6terminal"
    />
    <polygon
      gorn="0.3.58"
      points="615,286.6,615,297.4,635,306.6,665,306.6,685,297.4,685,286.6"
      fill="#8C8C8C"
      id="polygon979"
    />
  </g>
</svg>
