<?xml version='1.0' encoding='UTF-8' standalone='no'?>
<svg
  xmlns:dc="http://purl.org/dc/elements/1.1/"
  xmlns:cc="http://creativecommons.org/ns#"
  xmlns:rdf="http://www.w3.org/1999/02/22-rdf-syntax-ns#"
  xmlns:svg="http://www.w3.org/2000/svg"
  xmlns="http://www.w3.org/2000/svg"
  viewBox="0 0 610.20924 309.99997"
  x="0in"
  width="0.61020923in"
  height="0.30999997in"
  version="1.2"
  y="0in"
  id="svg2">
  <metadata
    id="metadata41">
    <rdf:RDF>
      <cc:Work
        rdf:about="">
        <dc:format>image/svg+xml</dc:format>
        <dc:type
          rdf:resource="http://purl.org/dc/dcmitype/StillImage"
        />
        <dc:title/>
      </cc:Work>
    </rdf:RDF>
  </metadata>
  <defs
    id="defs39"
  />
  <desc
    id="desc4">
    <referenceFile>Fan-4wire_1_schematic.svg</referenceFile>
  </desc>
  <g
    id="schematic">
    <rect
      stroke-linecap="round"
      stroke-width="10"
      stroke="#000000"
      fill="none"
      x="105.14088"
      width="400.00003"
      height="300"
      y="5"
      id="rect7"
    />
    <text
      fill="#000000"
      text-anchor="middle"
      font-family="'Droid Sans'"
      font-size="49"
      y="162.52148"
      x="314.76416"
      id="label">Fan</text>
    <text
      fill="#555555"
      text-anchor="start"
      font-family="'Droid Sans'"
      id="label0"
      x="135"
      y="122.84821"
      font-size="49">PWR</text>
    <text
      fill="#555555"
      text-anchor="start"
      font-family="'Droid Sans'"
      x="62.583008"
      y="84.999992"
      font-size="35"
      id="text15">2</text>
    <text
      fill="#555555"
      text-anchor="start"
      font-family="'Droid Sans'"
      id="label1"
      x="130.65544"
      y="222.5"
      font-size="49">GND</text>
    <text
      fill="#555555"
      text-anchor="start"
      font-family="'Droid Sans'"
      x="57.755081"
      y="184.97668"
      font-size="35"
      id="text22">1</text>
    <text
      fill="#555555"
      text-anchor="end"
      font-family="'Droid Sans'"
      font-size="49"
      y="222.5"
      x="478.50833"
      id="text79">PWM</text>
    <text
      fill="#555555"
      text-anchor="start"
      font-family="'Droid Sans'"
      id="text63"
      font-size="35"
      y="184.6582"
      x="533.31592">3</text>
    <text
      fill="#555555"
      text-anchor="end"
      font-family="'Droid Sans'"
      font-size="49"
      y="122.49999"
      x="476.78568"
      id="text81">Tach</text>
    <text
      fill="#555555"
      text-anchor="start"
      font-family="'Droid Sans'"
      id="text65"
      font-size="35"
      y="84.658195"
      x="533.62354">4</text>
    <line
      y1="205.13843"
      y2="205.13843"
      x2="100.26112"
      x1="5.0712128"
      id="connector0pin"
      fill="none"
      stroke="#555555"
      stroke-width="10"
      stroke-linecap="round"
    />
    <rect
      id="connector0terminal"
      x="0.14087832"
      width="10"
      height="10"
      y="200"
      fill="none"
      stroke-width="0"
    />
    <line
      y1="105.13842"
      y2="105.13842"
      x2="100.26112"
      x1="5.0712123"
      id="connector1pin"
      fill="none"
      stroke="#555555"
      stroke-width="10"
      stroke-linecap="round"
    />
    <rect
      id="connector1terminal"
      x="0.14087832"
      width="10"
      height="10"
      y="100.27781"
      fill="none"
      stroke-width="0"
    />
    <line
      id="connector2pin"
      x1="510.13806"
      x2="605.13806"
      y2="204.66769"
      y1="204.66769"
      fill="none"
      stroke="#555555"
      stroke-width="10"
      stroke-linecap="round"
    />
    <rect
      y="199.66769"
      height="10"
      width="10"
      x="600.13806"
      id="connector2terminal"
      fill="none"
      stroke-width="0"
    />
    <line
      id="connector3pin"
      x1="510.13806"
      x2="605.13806"
      y2="104.6677"
      y1="104.6677"
      fill="none"
      stroke="#555555"
      stroke-width="10"
      stroke-linecap="round"
    />
    <rect
      y="100.6677"
      height="10"
      width="10"
      x="600.13806"
      id="connector3terminal"
      fill="none"
      stroke-width="0"
    />
  </g>
</svg>
