<?xml version='1.0' encoding='UTF-8' standalone='no'?>
<svg
  xmlns:dc="http://purl.org/dc/elements/1.1/"
  xmlns:cc="http://creativecommons.org/ns#"
  xmlns:rdf="http://www.w3.org/1999/02/22-rdf-syntax-ns#"
  xmlns:svg="http://www.w3.org/2000/svg"
  xmlns="http://www.w3.org/2000/svg"
  version="1.2"
  xml:space="preserve"
  id="Layer_1"
  gorn="0"
  y="0px"
  viewBox="0 0 600.01057 200.00007"
  height="0.2in"
  width="0.6000104in"
  x="0px">
  <metadata
    id="metadata403">
    <rdf:RDF>
      <cc:Work
        rdf:about="">
        <dc:format>image/svg+xml</dc:format>
        <dc:type
          rdf:resource="http://purl.org/dc/dcmitype/StillImage"
        />
        <dc:title/>
      </cc:Work>
    </rdf:RDF>
  </metadata>
  <defs
    id="defs401">
  </defs>
  <desc
    id="desc2">
    <referenceFile>SK6812-4020_1_breadboard.svg</referenceFile>
  </desc>
  <g
    id="breadboard">
    <path
      id="path4"
      gorn="0.3.0"
      d="M 600.0106,0 H 331.09541 C 331.09541,11.03758 317.66493,20.00091 301.09557,20.00091 284.52622,20.00091 271.09574,11.03758 271.09574,0 H 0 V 200.00006 H 600.0106 Z"
      fill="#1f7a34"
      stroke-width="9.82090282"
    />
    <text
      id="text6"
      gorn="0.3.1.0"
      font-size="49"
      y="67.697029"
      x="73.951218"
      font-family="OCRA"
      fill="#ffffff"
      stroke-width="13.88885307">DIN</text>
    <text
      id="text18"
      gorn="0.3.2.0"
      font-size="49"
      y="167.69957"
      x="73.951218"
      font-family="OCRA"
      fill="#ffffff"
      stroke-width="13.88885307">VDD</text>
    <text
      id="text30"
      gorn="0.3.3.0"
      font-size="49"
      y="167.68683"
      x="514.99292"
      font-family="OCRA"
      text-anchor="end"
      fill="#ffffff">DOUT</text>
    <text
      id="text66"
      gorn="0.3.6.0"
      font-size="49"
      y="67.999825"
      x="510.69479"
      transform="scale(0.99999711,1.0000029)"
      font-family="OCRA"
      text-anchor="end"
      fill="#ffffff">VSS</text>
    <rect
      id="rect78"
      gorn="0.3.7"
      y="-253.96738"
      height="11.544032"
      width="21.216595"
      x="127.14954"
      transform="rotate(90)"
      fill="#b3b3b3"
      stroke-width="7.48642731"
    />
    <rect
      id="rect80"
      gorn="0.3.8"
      y="-253.96738"
      height="11.544032"
      width="21.209103"
      x="93.1912"
      transform="rotate(90)"
      fill="#b3b3b3"
      stroke-width="7.48642731"
    />
    <rect
      id="rect82"
      gorn="0.3.9"
      y="-253.96738"
      height="11.544032"
      width="21.216595"
      x="59.23254"
      transform="rotate(90)"
      fill="#b3b3b3"
      stroke-width="7.48642731"
    />
    <rect
      id="rect84"
      gorn="0.3.10"
      y="-356.91299"
      height="11.551517"
      width="21.216595"
      x="127.14954"
      transform="rotate(90)"
      fill="#b3b3b3"
      stroke-width="7.48642731"
    />
    <rect
      id="rect86"
      gorn="0.3.11"
      y="-356.91299"
      height="11.551517"
      width="21.209103"
      x="93.1912"
      transform="rotate(90)"
      fill="#b3b3b3"
      stroke-width="7.48642731"
    />
    <rect
      id="rect88"
      gorn="0.3.12"
      y="-356.91299"
      height="11.551517"
      width="21.216595"
      x="59.23254"
      transform="rotate(90)"
      fill="#b3b3b3"
      stroke-width="7.48642731"
    />
    <rect
      id="rect625"
      gorn="0.3.13.0"
      y="-56.91177"
      height="11.551586"
      width="21.216465"
      x="-311.11105"
      transform="scale(-1)"
      fill="#b3b3b3"
      stroke-width="7.48642731"
    />
    <rect
      id="rect623"
      gorn="0.3.14.0"
      y="-163.63838"
      height="11.551586"
      width="21.216465"
      x="-309.49411"
      transform="scale(-1)"
      fill="#b3b3b3"
      stroke-width="7.48642731"
    />
    <rect
      id="rect92"
      gorn="0.3.15"
      y="-352.72052"
      height="106.11226"
      width="106.09787"
      x="50.750484"
      transform="rotate(90)"
      fill="#e6e6e6"
      stroke-width="7.48642731"
    />
    <ellipse
      id="circle94"
      gorn="0.3.16"
      cy="-298.272"
      cx="103.80692"
      transform="rotate(90)"
      rx="42.021442"
      ry="42.021175"
      fill="#cccccc"
      stroke-width="7.48642731"
    />
    <ellipse
      id="circle96"
      gorn="0.3.17"
      cy="-298.272"
      cx="103.80692"
      transform="rotate(90)"
      rx="35.904987"
      ry="35.904797"
      fill="#e6e6e6"
      stroke-width="7.48642731"
    />
    <path
      id="path98"
      gorn="0.3.18"
      d="M 276.05974,89.612479 H 265.30177 C 263.42267,93.969599 262.35961,98.768459 262.35961,103.80683 262.35961,108.91258 263.46009,113.75632 265.38412,118.15835 H 276.05974 Z"
      fill="#999999"
      stroke-width="7.48642731"
    />
    <path
      id="path100"
      gorn="0.3.19"
      d="M 321.12039,125.64481 C 321.12039,124.55177 321.12039,120.81599 321.12039,118.15835 321.12039,115.50812 318.16326,115.20122 318.16326,115.20122 H 307.71225 L 303.03324,119.88021 V 139.22517 C 311.73245,138.05733 319.38355,133.84246 324.9534,127.61376 323.06687,127.4715 321.12039,126.64047 321.12039,125.64481 Z"
      fill="#999999"
      stroke-width="7.48642731"
    />
    <path
      id="path102"
      gorn="0.3.20"
      d="M 307.71225,92.666999 H 318.16326 C 318.16326,92.666999 321.12039,92.360069 321.12039,89.709829 321.12039,87.052139 321.12039,83.316399 321.12039,82.223409 321.12039,81.182759 323.20904,80.321809 325.15552,80.224489 319.5707,73.853519 311.83727,69.548819 303.03324,68.373419 V 87.980469 Z"
      fill="#999999"
      stroke-width="7.48642731"
    />
    <path
      id="path104"
      gorn="0.3.21"
      d="M 291.03255,121.85667 282.91726,121.90154 C 282.91726,121.96141 282.91726,122.35819 282.91726,124.402 282.91726,127.53137 279.48103,127.68103 279.48103,127.68103 H 271.62781 C 277.56449,134.29163 285.85941,138.60377 295.23992,139.4049 295.23992,136.41026 295.23992,129.11093 295.23992,125.80946 295.23992,121.59464 291.03255,121.85667 291.03255,121.85667 Z"
      fill="#999999"
      stroke-width="7.48642731"
    />
    <path
      id="path106"
      gorn="0.3.22"
      d="M 271.62781,79.932589 H 279.48103 C 279.48103,79.932589 282.91726,80.082259 282.91726,83.196599 282.91726,85.232919 282.91726,85.637219 282.91726,85.697079 L 291.03255,85.749489 C 291.03255,85.749489 295.24737,85.996579 295.24737,81.789179 295.24737,78.487659 295.24737,71.203329 295.24737,68.208769 285.85941,69.002339 277.56449,73.314499 271.62781,79.932589 Z"
      fill="#999999"
      stroke-width="7.48642731"
    />
    <path
      id="path108"
      gorn="0.3.23"
      d="M 299.65687,98.895659 C 299.65687,98.895659 297.63554,98.588729 297.63554,95.474409 297.63554,92.345039 297.63554,92.345039 297.63554,92.345039 H 285.01346 C 285.01346,92.345039 282.08627,91.716189 282.08627,94.688309 282.08627,96.043359 282.08627,98.633699 282.08627,101.08174 282.08627,101.08174 282.08627,103.77684 282.08627,106.71156 282.08627,109.15959 282.08627,111.74245 282.08627,113.10495 282.08627,116.06961 285.01346,115.44821 285.01346,115.44821 H 297.63554 C 297.63554,115.44821 297.63554,115.44821 297.63554,112.31888 297.63554,109.20458 299.65687,108.89757 299.65687,108.89757 H 326.27101 L 331.66869,116.76582 C 333.23343,112.74565 334.16915,108.40349 334.16915,103.82177 334.16915,99.285019 333.24836,94.980319 331.71364,90.982539 L 326.27101,98.910699 H 299.65687 Z"
      fill="#999999"
      stroke-width="7.48642731"
    />
    <rect
      id="rect112"
      gorn="0.3.24"
      y="-296.64746"
      height="23.245274"
      width="16.687288"
      x="96.283028"
      transform="rotate(90)"
      fill="#4f423c"
      stroke-width="7.48642731"
    />
    <rect
      id="rect116"
      gorn="0.3.25"
      y="-309.7486"
      height="4.8362174"
      width="5.2030807"
      x="101.57594"
      transform="rotate(90)"
      fill="#4d4d4d"
      stroke-width="7.48642731"
    />
    <rect
      id="rect118"
      gorn="0.3.26"
      y="-317.99124"
      height="7.3965616"
      width="7.1944718"
      x="83.533546"
      transform="rotate(90)"
      fill="#4d4d4d"
      stroke-width="7.48642731"
    />
    <path
      id="path120"
      gorn="0.3.27"
      d="M 288.64437,81.190269 C 288.39729,81.759269 282.50553,95.444459 278.78478,100.56517 L 278.1709,100.12346 C 281.8542,95.062679 287.89574,81.025529 287.9631,80.898269 Z"
      fill="#e6c47e"
      stroke-width="7.48642731"
    />
    <ellipse
      id="circle124"
      gorn="0.3.28"
      cy="-288.30002"
      cx="81.04052"
      transform="rotate(90)"
      rx="0.98821121"
      ry="0.98820496"
      fill="#e6c47e"
      stroke-width="7.48642731"
    />
    <ellipse
      id="circle130"
      gorn="0.3.29"
      cy="-278.47034"
      cx="100.34068"
      transform="rotate(90)"
      rx="0.98072469"
      ry="0.98071885"
      fill="#e6c47e"
      stroke-width="7.48642731"
    />
    <path
      id="path138"
      gorn="0.3.30"
      d="M 305.24175,74.886649 C 304.80002,75.747619 294.45382,95.886139 292.92659,98.094659 L 292.31271,97.667939 C 293.8025,95.489349 304.46314,74.751879 304.56797,74.549779 Z"
      fill="#e6c47e"
      stroke-width="7.48642731"
    />
    <ellipse
      id="circle142"
      gorn="0.3.31"
      cy="-304.90472"
      cx="74.729576"
      transform="rotate(90)"
      rx="0.98821121"
      ry="0.98820496"
      fill="#e6c47e"
      stroke-width="7.48642731"
    />
    <ellipse
      id="circle148"
      gorn="0.3.32"
      cy="-292.62704"
      cx="97.885033"
      transform="rotate(90)"
      rx="0.98072469"
      ry="0.98071885"
      fill="#e6c47e"
      stroke-width="7.48642731"
    />
    <path
      id="path156"
      gorn="0.3.33"
      d="M 311.80731,86.041439 C 311.07364,86.640399 293.59287,100.90958 291.33947,101.62827 L 291.10741,100.90958 C 292.87419,100.35559 306.3123,89.560089 311.34311,85.457519 Z"
      fill="#e6c47e"
      stroke-width="7.48642731"
    />
    <ellipse
      id="circle160"
      gorn="0.3.34"
      cy="-311.5752"
      cx="85.749504"
      transform="rotate(90)"
      rx="0.98821121"
      ry="0.98820496"
      fill="#e6c47e"
      stroke-width="7.48642731"
    />
    <ellipse
      id="circle166"
      gorn="0.3.35"
      cy="-291.21957"
      cx="101.28397"
      transform="rotate(90)"
      rx="0.98072469"
      ry="0.98071885"
      fill="#e6c47e"
      stroke-width="7.48642731"
    />
    <path
      id="path174"
      gorn="0.3.36"
      d="M 327.11703,102.20473 326.96728,102.9384 C 326.01649,102.81863 319.21887,94.298989 315.25854,89.238219 L 315.84249,88.766529 C 319.75039,93.752559 326.27101,101.82292 327.11703,102.20473 Z"
      fill="#e6c47e"
      stroke-width="7.48642731"
    />
    <ellipse
      id="circle178"
      gorn="0.3.37"
      cy="-315.55051"
      cx="88.991264"
      transform="rotate(90)"
      rx="0.98072469"
      ry="0.98071885"
      fill="#e6c47e"
      stroke-width="7.48642731"
    />
    <ellipse
      id="circle184"
      gorn="0.3.38"
      cy="-327.01971"
      cx="102.56408"
      transform="rotate(90)"
      rx="0.98821121"
      ry="0.98820496"
      fill="#e6c47e"
      stroke-width="7.48642731"
    />
    <path
      id="path192"
      gorn="0.3.39"
      d="M 324.73636,105.7233 C 320.52149,110.70186 312.43617,120.32195 311.88217,121.13793 L 311.26827,120.72619 C 311.97199,119.6556 323.66581,105.82068 324.16733,105.23674 Z"
      fill="#e6c47e"
      stroke-width="7.48642731"
    />
    <ellipse
      id="circle196"
      gorn="0.3.40"
      cy="-324.45181"
      cx="105.48389"
      transform="rotate(90)"
      rx="0.98821121"
      ry="0.98820496"
      fill="#e6c47e"
      stroke-width="7.48642731"
    />
    <ellipse
      id="circle202"
      gorn="0.3.41"
      cy="-311.5752"
      cx="120.92828"
      transform="rotate(90)"
      rx="0.98821121"
      ry="0.98820496"
      fill="#e6c47e"
      stroke-width="7.48642731"
    />
    <path
      id="path210"
      gorn="0.3.42"
      d="M 309.01488,123.33145 308.53577,123.90045 C 307.8919,123.37639 293.00143,110.81412 290.8903,106.21746 L 291.56408,105.91051 C 293.60787,110.34996 308.85768,123.20419 309.01488,123.33145 Z"
      fill="#e6c47e"
      stroke-width="7.48642731"
    />
    <ellipse
      id="circle214"
      gorn="0.3.43"
      cy="-308.76782"
      cx="123.62349"
      transform="rotate(90)"
      rx="0.98072469"
      ry="0.98071885"
      fill="#e6c47e"
      stroke-width="7.48642731"
    />
    <ellipse
      id="circle220"
      gorn="0.3.44"
      cy="-291.21957"
      cx="106.07508"
      transform="rotate(90)"
      rx="0.98072469"
      ry="0.98071885"
      fill="#e6c47e"
      stroke-width="7.48642731"
    />
    <path
      id="path228"
      gorn="0.3.45"
      d="M 307.30798,104.58541 C 304.36583,105.06456 291.72876,103.95655 291.19724,103.89661 L 291.2571,103.14801 C 291.3919,103.16298 304.34336,104.31587 307.19568,103.83677 Z"
      fill="#e6c47e"
      stroke-width="7.48642731"
    />
    <ellipse
      id="circle232"
      gorn="0.3.46"
      cy="-291.21957"
      cx="103.52984"
      transform="rotate(90)"
      rx="0.98072469"
      ry="0.98071885"
      fill="#e6c47e"
      stroke-width="7.48642731"
    />
    <ellipse
      id="circle238"
      gorn="0.3.47"
      cy="-307.24796"
      cx="104.21108"
      transform="rotate(90)"
      rx="0.98821121"
      ry="0.98820496"
      fill="#e6c47e"
      stroke-width="7.48642731"
    />
    <path
      id="path246"
      gorn="0.3.48"
      d="M 291.91593,125.01589 291.69882,125.73456 C 291.53409,125.6897 287.61125,124.43199 286.4134,118.23313 285.2605,112.29641 283.06701,106.97359 283.03703,106.92869 L 283.74077,106.63664 C 283.75573,106.69658 285.9867,112.0793 287.14711,118.09094 288.25508,123.81811 291.7662,124.97102 291.91593,125.01589 Z"
      fill="#e6c47e"
      stroke-width="7.48642731"
    />
    <ellipse
      id="circle250"
      gorn="0.3.49"
      cy="-283.38144"
      cx="106.77881"
      transform="rotate(90)"
      rx="0.98072469"
      ry="0.98071885"
      fill="#e6c47e"
      stroke-width="7.48642731"
    />
    <ellipse
      id="circle256"
      gorn="0.3.50"
      cy="-291.80365"
      cx="125.37531"
      transform="rotate(90)"
      rx="0.98821121"
      ry="0.98820496"
      fill="#e6c47e"
      stroke-width="7.48642731"
    />
    <path
      id="path264"
      gorn="0.3.51"
      d="M 282.46061,130.12169 281.72692,130.24148 C 281.697,130.12169 279.85534,117.90381 281.72692,109.50399 L 282.46061,109.66122 C 280.63394,117.92629 282.44562,130.00189 282.46061,130.12169 Z"
      fill="#e6c47e"
      stroke-width="7.48642731"
    />
    <ellipse
      id="circle268"
      gorn="0.3.52"
      cy="-282.10126"
      cx="130.17415"
      transform="rotate(90)"
      rx="0.98072469"
      ry="0.98071885"
      fill="#e6c47e"
      stroke-width="7.48642731"
    />
    <ellipse
      id="circle274"
      gorn="0.3.53"
      cy="-282.10126"
      cx="109.58622"
      transform="rotate(90)"
      rx="0.98821121"
      ry="0.98820496"
      fill="#e6c47e"
      stroke-width="7.48642731"
    />
    <path
      id="path282"
      gorn="0.3.54"
      d="M 278.13347,105.85812 C 272.38391,106.09017 267.90702,110.73177 267.86211,110.77667 L 267.32308,110.26762 C 267.51024,110.06552 272.0545,105.34899 278.1035,105.11696 Z"
      fill="#e6c47e"
      stroke-width="7.48642731"
    />
    <ellipse
      id="circle286"
      gorn="0.3.55"
      cy="-267.59262"
      cx="110.52203"
      transform="rotate(90)"
      rx="0.98821121"
      ry="0.98820496"
      fill="#e6c47e"
      stroke-width="7.48642731"
    />
    <ellipse
      id="circle292"
      gorn="0.3.56"
      cy="-278.11844"
      cx="105.48389"
      transform="rotate(90)"
      rx="0.98821121"
      ry="0.98820496"
      fill="#e6c47e"
      stroke-width="7.48642731"
    />
    <rect
      id="connector0pin"
      gorn="0.3.57"
      y="-65.943893"
      height="31.902601"
      width="31.930567"
      x="34.027462"
      transform="rotate(90)"
      fill="#8d8c8c"
      stroke-width="13.88885307"
    />
    <rect
      id="rect308"
      gorn="0.3.58"
      y="-58.221718"
      height="16.416578"
      width="16.44445"
      x="41.833183"
      transform="rotate(90)"
      fill="#8c8663"
      stroke-width="13.88885307"
    />
    <polygon
      transform="matrix(0,13.888893,-13.888813,0,-4039.5475,472.69446)"
      points="-31.022,-295.095 -31.584,-295.597 -31.584,-293.3 -31.022,-293.86 "
      id="polygon310"
      gorn="0.3.59.0"
      fill="#b8af82"
    />
    <polygon
      transform="matrix(0,13.888893,-13.888813,0,-4039.5475,472.69446)"
      points="-31.584,-295.597 -29.285,-295.597 -29.84,-295.039 -31.014,-295.039 "
      id="polygon312"
      gorn="0.3.60.0"
      fill="#80795b"
    />
    <polygon
      transform="matrix(0,13.888893,-13.888813,0,-4039.5475,472.69446)"
      points="-29.285,-295.597 -29.285,-293.3 -29.84,-293.86 -29.84,-295.039 "
      id="polygon314"
      gorn="0.3.61.0"
      fill="#5e5b43"
    />
    <polygon
      transform="matrix(0,13.888893,-13.888813,0,-4039.5475,472.69446)"
      points="-29.84,-293.86 -29.285,-293.3 -31.584,-293.3 -31.016,-293.86 "
      id="polygon316"
      gorn="0.3.62.0"
      fill="#9a916c"
    />
    <rect
      id="connector1pin"
      gorn="0.3.63"
      y="-65.943893"
      height="31.902601"
      width="31.916677"
      x="134.04164"
      transform="rotate(90)"
      fill="#8d8c8c"
      stroke-width="13.88885307"
    />
    <rect
      id="rect323"
      gorn="0.3.64"
      y="-58.221718"
      height="16.416578"
      width="16.44445"
      x="141.8194"
      transform="rotate(90)"
      fill="#8c8663"
      stroke-width="13.88885307"
    />
    <polygon
      transform="matrix(0,13.888893,-13.888813,0,-4039.5475,1861.5838)"
      points="-123.823,-295.095 -124.383,-295.597 -124.383,-293.3 -123.823,-293.86 "
      id="polygon325"
      gorn="0.3.65.0"
      fill="#b8af82"
    />
    <polygon
      transform="matrix(0,13.888893,-13.888813,0,-4039.5475,1861.5838)"
      points="-124.383,-295.597 -122.086,-295.597 -122.641,-295.039 -123.814,-295.039 "
      id="polygon327"
      gorn="0.3.66.0"
      fill="#80795b"
    />
    <polygon
      transform="matrix(0,13.888893,-13.888813,0,-4039.5475,1861.5838)"
      points="-122.086,-295.597 -122.086,-293.3 -122.641,-293.86 -122.641,-295.039 "
      id="polygon329"
      gorn="0.3.67.0"
      fill="#5e5b43"
    />
    <polygon
      transform="matrix(0,13.888893,-13.888813,0,-4039.5475,1861.5838)"
      points="-122.641,-293.86 -122.086,-293.3 -124.383,-293.3 -123.817,-293.86 "
      id="polygon331"
      gorn="0.3.68.0"
      fill="#9a916c"
    />
    <rect
      id="connector2pin"
      gorn="0.3.69"
      y="-565.9552"
      height="31.902601"
      width="31.930567"
      x="134.02765"
      transform="rotate(90)"
      fill="#8d8c8c"
      stroke-width="13.88885307"
    />
    <rect
      id="rect338"
      gorn="0.3.70"
      y="-558.21912"
      height="16.416578"
      width="16.458338"
      x="141.8054"
      transform="rotate(90)"
      fill="#8c8663"
      stroke-width="13.88885307"
    />
    <polygon
      transform="matrix(0,13.888893,-13.888813,0,127.09667,1861.5838)"
      points="-123.824,-31.096 -124.384,-31.598 -124.384,-29.301 -123.824,-29.861 "
      id="polygon340"
      gorn="0.3.71.0"
      fill="#b8af82"
    />
    <polygon
      transform="matrix(0,13.888893,-13.888813,0,127.09667,1861.5838)"
      points="-124.384,-31.598 -122.086,-31.598 -122.641,-31.039 -123.815,-31.039 "
      id="polygon342"
      gorn="0.3.72.0"
      fill="#80795b"
    />
    <polygon
      transform="matrix(0,13.888893,-13.888813,0,127.09667,1861.5838)"
      points="-122.086,-31.598 -122.086,-29.301 -122.641,-29.861 -122.641,-31.039 "
      id="polygon344"
      gorn="0.3.73.0"
      fill="#5e5b43"
    />
    <polygon
      transform="matrix(0,13.888893,-13.888813,0,127.09667,1861.5838)"
      points="-122.641,-29.861 -122.086,-29.301 -124.384,-29.301 -123.818,-29.861 "
      id="polygon346"
      gorn="0.3.74.0"
      fill="#9a916c"
    />
    <rect
      id="connector3pin"
      gorn="0.3.75"
      y="-565.9552"
      height="31.902601"
      width="31.930567"
      x="34.013477"
      transform="rotate(90)"
      fill="#8d8c8c"
      stroke-width="13.88885307"
    />
    <rect
      id="rect353"
      gorn="0.3.76"
      y="-558.21912"
      height="16.416578"
      width="16.458338"
      x="41.80521"
      transform="rotate(90)"
      fill="#8c8663"
      stroke-width="13.88885307"
    />
    <polygon
      transform="matrix(0,13.888893,-13.888813,0,127.09667,1861.5838)"
      points="-131.024,-31.096 -131.585,-31.598 -131.585,-29.301 -131.024,-29.861 "
      id="polygon355"
      gorn="0.3.77.0"
      fill="#b8af82"
    />
    <polygon
      transform="matrix(0,13.888893,-13.888813,0,127.09667,1861.5838)"
      points="-131.585,-31.598 -129.286,-31.598 -129.841,-31.039 -131.015,-31.039 "
      id="polygon357"
      gorn="0.3.78.0"
      fill="#80795b"
    />
    <polygon
      transform="matrix(0,13.888893,-13.888813,0,127.09667,1861.5838)"
      points="-129.286,-31.598 -129.286,-29.301 -129.841,-29.861 -129.841,-31.039 "
      id="polygon359"
      gorn="0.3.79.0"
      fill="#5e5b43"
    />
    <polygon
      transform="matrix(0,13.888893,-13.888813,0,127.09667,1861.5838)"
      points="-129.841,-29.861 -129.286,-29.301 -131.585,-29.301 -131.018,-29.861 "
      id="polygon361"
      gorn="0.3.80.0"
      fill="#9a916c"
    />
  </g>
</svg>
