<?xml version='1.0' encoding='utf-8'?>
<!DOCTYPE svg>
<!-- Generator: Adobe Illustrator 15.1.0, SVG Export Plug-In . SVG Version: 6.00 Build 0)  -->
<svg xmlns="http://www.w3.org/2000/svg" x="0px" version="1.1" y="0px"  enable-background="new 0 0 8.375 22.018" xml:space="preserve" id="svg2" height="0.305806in" xmlns:xml="http://www.w3.org/XML/1998/namespace" gorn="0" viewBox="0 0 8.375 22.018" width="0.116319in">
    <desc >
        <referenceFile >diode.svg</referenceFile>
    </desc>
    <g  id="schematic" gorn="0.1">
        <line stroke="#000000"  y1="14.677" y2="14.677" stroke-width="0.7" x1="7.787" x2="4.188" stroke-linecap="round" fill="none"/>
        <line stroke="#000000"  y1="14.677" y2="14.677" stroke-width="0.7" x1="4.188" x2="0.587" stroke-linecap="round" fill="none"/>
        <polygon stroke="#000000"  points="4.188,14.677 0.587,7.477 4.188,7.477 7.787,7.477 " stroke-width="0.7" stroke-linecap="round" fill="#FFFFFF"/>
        <line stroke="#000000"  y1="7.477" y2="14.677" stroke-width="0.45" x1="4.188" x2="4.188" stroke-linecap="round" fill="none"/>
        <line stroke="#787878"  id="connector0pin" y1="21.876" gorn="0.1.4" y2="14.677" stroke-width="0.7" x1="4.188" x2="4.188" stroke-linecap="round" fill="none"/>
        <rect x="4.188" y="21.876"  height="0.001" fill="none" width="0.001"/>
        <g  transform="translate(3.429,6.4262)">
            <g >
                <g >
                    <g >
                        <g >
                            <g >
                                <g >
                                    <g >
                                        <g >
                                            <g >
                                                <g  transform="rotate(270)">
                                                    <g >
                                                        <g >
                                                            <g >
                                                                <g >
                                                                    <g >
                                                                        <g >
                                                                            <g >
                                                                                <g >
                                                                                    <g >
                                                                                        <g  transform="matrix(1 0 0 1 -12.6912 -0.1726)">
                                                                                            <g >
                                                                                                <g >
                                                                                                    <g >
                                                                                                        <g >
                                                                                                            <g >
                                                                                                                <g >
                                                                                                                    <g >
                                                                                                                        <g >
                                                                                                                            <text font-size="2"  font-family="'Droid Sans'" fill="#787878">2</text>
                                                                                                                        </g>
                                                                                                                    </g>
                                                                                                                </g>
                                                                                                            </g>
                                                                                                        </g>
                                                                                                    </g>
                                                                                                </g>
                                                                                            </g>
                                                                                        </g>
                                                                                    </g>
                                                                                </g>
                                                                            </g>
                                                                        </g>
                                                                    </g>
                                                                </g>
                                                            </g>
                                                        </g>
                                                    </g>
                                                </g>
                                            </g>
                                        </g>
                                    </g>
                                </g>
                            </g>
                        </g>
                    </g>
                </g>
            </g>
        </g>
        <line stroke="#787878"  id="connector1pin" y1="0.276" gorn="0.1.7" y2="7.477" stroke-width="0.7" x1="4.188" x2="4.188" stroke-linecap="round" fill="none"/>
        <rect x="4.188" y="0.276"  height="0.001" fill="none" width="0.001"/>
        <g  transform="translate(3.429,1.3462)">
            <g >
                <g >
                    <g >
                        <g >
                            <g >
                                <g >
                                    <g >
                                        <g >
                                            <g >
                                                <g  transform="rotate(270)">
                                                    <g >
                                                        <g >
                                                            <g >
                                                                <g >
                                                                    <g >
                                                                        <g >
                                                                            <g >
                                                                                <g >
                                                                                    <g >
                                                                                        <g  transform="matrix(1 0 0 1 -3.3708 -0.1726)">
                                                                                            <g >
                                                                                                <g >
                                                                                                    <g >
                                                                                                        <g >
                                                                                                            <g >
                                                                                                                <g >
                                                                                                                    <g >
                                                                                                                        <g >
                                                                                                                            <text font-size="2"  font-family="'Droid Sans'" fill="#787878">1</text>
                                                                                                                        </g>
                                                                                                                    </g>
                                                                                                                </g>
                                                                                                            </g>
                                                                                                        </g>
                                                                                                    </g>
                                                                                                </g>
                                                                                            </g>
                                                                                        </g>
                                                                                    </g>
                                                                                </g>
                                                                            </g>
                                                                        </g>
                                                                    </g>
                                                                </g>
                                                            </g>
                                                        </g>
                                                    </g>
                                                </g>
                                            </g>
                                        </g>
                                    </g>
                                </g>
                            </g>
                        </g>
                    </g>
                </g>
            </g>
        </g>
    </g>
</svg>
