<?xml version='1.0' encoding='UTF-8' standalone='no'?>
<svg
  xmlns:dc="http://purl.org/dc/elements/1.1/"
  xmlns:cc="http://creativecommons.org/ns#"
  xmlns:rdf="http://www.w3.org/1999/02/22-rdf-syntax-ns#"
  xmlns:svg="http://www.w3.org/2000/svg"
  xmlns="http://www.w3.org/2000/svg"
  id="svg2"
  y="0in"
  version="1.2"
  height="0.30999997in"
  width="0.61052173in"
  x="0in"
  viewBox="0 0 610.52175 309.99997">
  <metadata
    id="metadata41">
    <rdf:RDF>
      <cc:Work
        rdf:about="">
        <dc:format>image/svg+xml</dc:format>
        <dc:type
          rdf:resource="http://purl.org/dc/dcmitype/StillImage"
        />
        <dc:title/>
      </cc:Work>
    </rdf:RDF>
  </metadata>
  <defs
    id="defs39"
  />
  <desc
    id="desc4">
    <referenceFile>SK6812-mini_1_schematic.svg</referenceFile>
  </desc>
  <g
    id="schematic">
    <rect
      id="rect7"
      y="5.7483001"
      height="298.50339"
      width="398.50342"
      x="105.88918"
      fill="none"
      stroke="#000000"
      stroke-width="11.49660015"
      stroke-linecap="round"
    />
    <text
      id="label"
      x="305.03363"
      y="164.80891"
      font-size="49"
      font-family="'Droid Sans'"
      text-anchor="middle"
      fill="#000000">SK6812</text>
    <text
      font-size="49"
      y="122.84821"
      x="135"
      id="label0"
      font-family="'Droid Sans'"
      text-anchor="start"
      fill="#555555">DIN</text>
    <text
      id="text15"
      font-size="35"
      y="84.999992"
      x="62.583008"
      font-family="'Droid Sans'"
      text-anchor="start"
      fill="#555555">1</text>
    <text
      font-size="49"
      y="222.50002"
      x="130.65544"
      id="label1"
      font-family="'Droid Sans'"
      text-anchor="start"
      fill="#555555">VDD</text>
    <text
      id="text22"
      font-size="35"
      y="184.9767"
      x="57.755081"
      font-family="'Droid Sans'"
      text-anchor="start"
      fill="#555555">2</text>
    <text
      id="text79"
      x="478.82083"
      y="222.50002"
      font-size="49"
      font-family="'Droid Sans'"
      text-anchor="end"
      fill="#555555">DOUT</text>
    <text
      x="533.62842"
      y="184.65822"
      font-size="35"
      id="text63"
      font-family="'Droid Sans'"
      text-anchor="start"
      fill="#555555">3</text>
    <text
      id="text81"
      x="477.09818"
      y="122.49999"
      font-size="49"
      font-family="'Droid Sans'"
      text-anchor="end"
      fill="#555555">VSS</text>
    <text
      x="533.93604"
      y="84.658195"
      font-size="35"
      id="text65"
      font-family="'Droid Sans'"
      text-anchor="start"
      fill="#555555">4</text>
    <line
      id="connector0pin"
      x1="5.0712123"
      x2="100.26112"
      y2="105.13842"
      y1="105.13842"
      fill="none"
      stroke="#555555"
      stroke-width="10"
      stroke-linecap="round"
    />
    <rect
      y="100.27781"
      height="10"
      width="10"
      x="0.14087832"
      id="connector0terminal"
      fill="none"
      stroke-width="0"
    />
    <line
      id="connector1pin"
      x1="5.0712128"
      x2="100.26112"
      y2="205.13844"
      y1="205.13844"
      fill="none"
      stroke="#555555"
      stroke-width="10"
      stroke-linecap="round"
    />
    <rect
      y="200.00002"
      height="10"
      width="10"
      x="0.14087832"
      id="connector1terminal"
      fill="none"
      stroke-width="0"
    />
    <line
      y1="204.66771"
      y2="204.66771"
      x2="605.45056"
      x1="510.45056"
      id="connector2pin"
      fill="none"
      stroke="#555555"
      stroke-width="10"
      stroke-linecap="round"
    />
    <rect
      id="connector2terminal"
      x="600.45056"
      width="10"
      height="10"
      y="199.66771"
      fill="none"
      stroke-width="0"
    />
    <line
      y1="104.6677"
      y2="104.6677"
      x2="605.45056"
      x1="510.45056"
      id="connector3pin"
      fill="none"
      stroke="#555555"
      stroke-width="10"
      stroke-linecap="round"
    />
    <rect
      id="connector3terminal"
      x="600.45056"
      width="10"
      height="10"
      y="100.6677"
      fill="none"
      stroke-width="0"
    />
  </g>
</svg>
