<?xml version='1.0' encoding='UTF-8' standalone='no'?>
<!-- Generator: Adobe Illustrator 16.0.0, SVG Export Plug-In . SVG Version: 6.00 Build 0)  -->
  <svg
  xmlns="http://www.w3.org/2000/svg"
  xmlns:svg="http://www.w3.org/2000/svg"
  width="2.6999865in"
  version="1.1"
  height="2.0999589in"
  enable-background="new 0 0 212.372 151.2"
  x="0px"
  y="0px"
  viewBox="0 0 2699.9864 2099.9589"
  id="_x30_"
  gorn="0">
  <defs
    id="defs3382"
  />
  <desc
    id="desc2">
    <referenceFile>wemos-D1-R1_1_pcb.svg</referenceFile>
  </desc>
  <desc
    id="0.0">Fritzing
    breadboard
    generated
    by
    brd2svg</desc>
  <g
    id="silkscreen">
    <path
      d="m 2540.0002,3e-4 60,60.0001 v 450 l 99.9861,100 v 1289.9862 l -99.9861,100.0139 v 60.5555 c 0,21.7361 -17.6528,39.4028 -39.3611,39.4028 h -0.028 H 39.361104 C 17.625,2099.9588 0,2082.306 0,2060.5977 v -0.042 V 39.3612 C 0,17.625 17.625,0 39.361104,0 V 0 H 2540.0002"
      fill="none"
      id="_x30_.1.0.0"
      gorn="0.2.0.0"
      stroke="#000000"
      stroke-width="10"
    />
    <circle
      id="path1685"
      cx="600"
      cy="100"
      r="60"
      fill="#000000"
      stroke="none"
      stroke-width="0"
    />
    <circle
      id="circle1767"
      cx="550"
      cy="2000"
      r="60"
      fill="#000000"
      stroke="none"
      stroke-width="0"
    />
    <circle
      id="circle1769"
      cx="2600"
      cy="1800"
      r="60"
      fill="#000000"
      stroke="none"
      stroke-width="0"
    />
    <circle
      id="circle1771"
      cx="2600"
      cy="700"
      r="60"
      fill="#000000"
      stroke="none"
      stroke-width="0"
    />
  </g>
  <g
    id="copper1">
    <g
      id="copper0">
      <circle
        fill="none"
        stroke-width="20"
        cy="2009.0001"
        r="29"
        cx="1102.9208"
        id="connector0pin"
        gorn="0.2.0.66"
        stroke="#f7bd13"
      />
      <circle
        id="connector1pin"
        cx="1102.6488"
        cy="1909.4639"
        r="29"
        fill="none"
        stroke="#f7bd13"
        stroke-width="20"
      />
      <circle
        fill="none"
        stroke-width="20"
        cy="2009.0001"
        r="29"
        cx="1202.921"
        id="connector2pin"
        gorn="0.2.0.65"
        stroke="#f7bd13"
      />
      <circle
        id="connector3pin"
        cx="1202.9955"
        cy="1909.4639"
        r="29"
        fill="none"
        stroke="#f7bd13"
        stroke-width="20"
      />
      <circle
        fill="none"
        stroke-width="20"
        cy="2009.0001"
        r="29"
        cx="1302.9347"
        id="connector4pin"
        gorn="0.2.0.69"
        stroke="#f7bd13"
      />
      <circle
        id="connector5pin"
        cx="1302.9955"
        cy="1909.4639"
        r="29"
        fill="none"
        stroke="#f7bd13"
        stroke-width="20"
      />
      <circle
        fill="none"
        stroke-width="20"
        cy="2009.0001"
        r="29"
        cx="1402.9209"
        id="connector6pin"
        gorn="0.2.0.71"
        stroke="#f7bd13"
      />
      <circle
        id="connector7pin"
        cx="1402.9955"
        cy="1909.4639"
        r="29"
        fill="none"
        stroke="#f7bd13"
        stroke-width="20"
      />
      <circle
        fill="none"
        stroke-width="20"
        cy="2009.0001"
        r="29"
        cx="1502.9209"
        id="connector8pin"
        gorn="0.2.0.73"
        stroke="#f7bd13"
      />
      <circle
        id="connector9pin"
        cx="1502.9955"
        cy="1909.4639"
        r="29"
        fill="none"
        stroke="#f7bd13"
        stroke-width="20"
      />
      <circle
        fill="none"
        stroke-width="20"
        cy="2009.0001"
        r="29"
        cx="1602.9208"
        id="connector10pin"
        gorn="0.2.0.75"
        stroke="#f7bd13"
      />
      <circle
        id="connector11pin"
        cx="1602.9955"
        cy="1908.9995"
        r="29"
        fill="none"
        stroke="#f7bd13"
        stroke-width="20"
      />
      <circle
        fill="none"
        stroke-width="20"
        cy="2009.0001"
        r="29"
        cx="1702.9208"
        id="connector12pin"
        gorn="0.2.0.77"
        stroke="#f7bd13"
      />
      <circle
        id="connector13pin"
        cx="1702.9955"
        cy="1908.9995"
        r="29"
        fill="none"
        stroke="#f7bd13"
        stroke-width="20"
      />
      <circle
        fill="none"
        stroke-width="20"
        cy="2009.0001"
        r="29"
        cx="1802.9347"
        id="connector14pin"
        gorn="0.2.0.79"
        stroke="#f7bd13"
      />
      <circle
        id="connector15pin"
        cx="1802.9955"
        cy="1908.9995"
        r="29"
        fill="none"
        stroke="#f7bd13"
        stroke-width="20"
      />
      <circle
        fill="none"
        stroke-width="20"
        cy="2009.0001"
        r="29"
        cx="2002.9211"
        id="connector16pin"
        gorn="0.2.0.5"
        stroke="#f7bd13"
      />
      <circle
        id="connector17pin"
        cx="2002.9956"
        cy="1908.9995"
        r="29"
        fill="none"
        stroke="#f7bd13"
        stroke-width="20"
      />
      <circle
        fill="none"
        stroke-width="20"
        cy="2009.0001"
        r="29"
        cx="2102.9209"
        id="connector18pin"
        gorn="0.2.0.7"
        stroke="#f7bd13"
      />
      <circle
        id="connector19pin"
        cx="2102.9956"
        cy="1908.9995"
        r="29"
        fill="none"
        stroke="#f7bd13"
        stroke-width="20"
      />
      <circle
        fill="none"
        stroke-width="20"
        cy="2009.0001"
        r="29"
        cx="2202.9209"
        id="connector20pin"
        gorn="0.2.0.9"
        stroke="#f7bd13"
      />
      <circle
        id="connector21pin"
        cx="2202.9956"
        cy="1908.9995"
        r="29"
        fill="none"
        stroke="#f7bd13"
        stroke-width="20"
      />
      <circle
        fill="none"
        stroke-width="20"
        cy="2009.0001"
        r="29"
        cx="2302.9348"
        id="connector22pin"
        gorn="0.2.0.11"
        stroke="#f7bd13"
      />
      <circle
        id="connector23pin"
        cx="2302.9956"
        cy="1908.9995"
        r="29"
        fill="none"
        stroke="#f7bd13"
        stroke-width="20"
      />
      <circle
        fill="none"
        stroke-width="20"
        cy="2009.0001"
        r="29"
        cx="2402.9211"
        id="connector24pin"
        gorn="0.2.0.13"
        stroke="#f7bd13"
      />
      <circle
        id="connector25pin"
        cx="2402.9956"
        cy="1908.9995"
        r="29"
        fill="none"
        stroke="#f7bd13"
        stroke-width="20"
      />
      <circle
        fill="none"
        stroke-width="20"
        cy="2009.0001"
        r="29"
        cx="2502.9211"
        id="connector26pin"
        gorn="0.2.0.15"
        stroke="#f7bd13"
      />
      <circle
        id="connector27pin"
        cx="2502.9956"
        cy="1908.9995"
        r="29"
        fill="none"
        stroke="#f7bd13"
        stroke-width="20"
      />
      <circle
        id="connector28pin"
        cx="1302.9955"
        cy="1526.8168"
        r="29"
        fill="none"
        stroke="#f7bd13"
        stroke-width="20"
      />
      <circle
        id="connector29pin"
        cx="1402.9955"
        cy="1526.8168"
        r="29"
        fill="none"
        stroke="#f7bd13"
        stroke-width="20"
      />
      <circle
        id="connector30pin"
        cx="1502.9955"
        cy="1526.8168"
        r="29"
        fill="none"
        stroke="#f7bd13"
        stroke-width="20"
      />
      <circle
        id="connector31pin"
        cx="1602.9955"
        cy="1526.8168"
        r="29"
        fill="none"
        stroke="#f7bd13"
        stroke-width="20"
      />
      <circle
        id="connector32pin"
        cx="1302.9955"
        cy="1426.8168"
        r="29"
        fill="none"
        stroke="#f7bd13"
        stroke-width="20"
      />
      <circle
        id="connector33pin"
        cx="1402.9955"
        cy="1426.8168"
        r="29"
        fill="none"
        stroke="#f7bd13"
        stroke-width="20"
      />
      <circle
        id="connector34pin"
        cx="1502.9955"
        cy="1426.8168"
        r="29"
        fill="none"
        stroke="#f7bd13"
        stroke-width="20"
      />
      <circle
        id="connector35pin"
        cx="1602.9955"
        cy="1426.8168"
        r="29"
        fill="none"
        stroke="#f7bd13"
        stroke-width="20"
      />
      <circle
        id="connector36pin"
        cx="2502.9956"
        cy="213.81689"
        r="29"
        fill="none"
        stroke="#f7bd13"
        stroke-width="20"
      />
      <circle
        fill="none"
        stroke-width="20"
        cy="109"
        r="29"
        cx="2502.9211"
        id="connector37pin"
        gorn="0.2.0.49"
        stroke="#f7bd13"
      />
      <circle
        id="connector38pin"
        cx="2402.9956"
        cy="213.81689"
        r="29"
        fill="none"
        stroke="#f7bd13"
        stroke-width="20"
      />
      <circle
        fill="none"
        stroke-width="20"
        cy="109"
        r="29"
        cx="2402.9211"
        id="connector39pin"
        gorn="0.2.0.51"
        stroke="#f7bd13"
      />
      <circle
        id="connector40pin"
        cx="2302.9956"
        cy="213.81689"
        r="29"
        fill="none"
        stroke="#f7bd13"
        stroke-width="20"
      />
      <circle
        fill="none"
        stroke-width="20"
        cy="109"
        r="29"
        cx="2302.9348"
        id="connector41pin"
        gorn="0.2.0.53"
        stroke="#f7bd13"
      />
      <circle
        id="connector42pin"
        cx="2202.9956"
        cy="213.81689"
        r="29"
        fill="none"
        stroke="#f7bd13"
        stroke-width="20"
      />
      <circle
        fill="none"
        stroke-width="20"
        cy="109"
        r="29"
        cx="2202.9209"
        id="connector43pin"
        gorn="0.2.0.55"
        stroke="#f7bd13"
      />
      <circle
        id="connector44pin"
        cx="2102.9956"
        cy="213.81689"
        r="29"
        fill="none"
        stroke="#f7bd13"
        stroke-width="20"
      />
      <circle
        fill="none"
        stroke-width="20"
        cy="109"
        r="29"
        cx="2102.9209"
        id="connector45pin"
        gorn="0.2.0.57"
        stroke="#f7bd13"
      />
      <circle
        id="connector46pin"
        cx="2002.9956"
        cy="213.81689"
        r="29"
        fill="none"
        stroke="#f7bd13"
        stroke-width="20"
      />
      <circle
        fill="none"
        stroke-width="20"
        cy="109"
        r="29"
        cx="2002.9211"
        id="connector47pin"
        gorn="0.2.0.59"
        stroke="#f7bd13"
      />
      <circle
        id="connector48pin"
        cx="1902.9955"
        cy="213.81689"
        r="29"
        fill="none"
        stroke="#f7bd13"
        stroke-width="20"
      />
      <circle
        fill="none"
        stroke-width="20"
        cy="109"
        r="29"
        cx="1902.921"
        id="connector49pin"
        gorn="0.2.0.61"
        stroke="#f7bd13"
      />
      <circle
        id="connector50pin"
        cx="1802.9955"
        cy="213.81689"
        r="29"
        fill="none"
        stroke="#f7bd13"
        stroke-width="20"
      />
      <circle
        fill="none"
        stroke-width="20"
        cy="109"
        r="29"
        cx="1802.9347"
        id="connector51pin"
        gorn="0.2.0.63"
        stroke="#f7bd13"
      />
      <circle
        id="connector52pin"
        cx="1652.9955"
        cy="213.81689"
        r="29"
        fill="none"
        stroke="#f7bd13"
        stroke-width="20"
      />
      <circle
        fill="none"
        stroke-width="20"
        cy="109"
        r="29"
        cx="1642.9069"
        id="connector53pin"
        gorn="0.2.0.29"
        stroke="#f7bd13"
      />
      <circle
        id="connector54pin"
        cx="1552.9955"
        cy="213.81689"
        r="29"
        fill="none"
        stroke="#f7bd13"
        stroke-width="20"
      />
      <circle
        fill="none"
        stroke-width="20"
        cy="109"
        r="29"
        cx="1542.921"
        id="connector55pin"
        gorn="0.2.0.31"
        stroke="#f7bd13"
      />
      <circle
        id="connector56pin"
        cx="1452.9955"
        cy="213.81689"
        r="29"
        fill="none"
        stroke="#f7bd13"
        stroke-width="20"
      />
      <circle
        fill="none"
        stroke-width="20"
        cy="109"
        r="29"
        cx="1442.921"
        id="connector57pin"
        gorn="0.2.0.33"
        stroke="#f7bd13"
      />
      <circle
        id="connector58pin"
        cx="1352.9955"
        cy="213.81689"
        r="29"
        fill="none"
        stroke="#f7bd13"
        stroke-width="20"
      />
      <circle
        fill="none"
        stroke-width="20"
        cy="109"
        r="29"
        cx="1342.921"
        id="connector59pin"
        gorn="0.2.0.35"
        stroke="#f7bd13"
      />
      <circle
        id="connector60pin"
        cx="1252.9955"
        cy="213.81689"
        r="29"
        fill="none"
        stroke="#f7bd13"
        stroke-width="20"
      />
      <circle
        fill="none"
        stroke-width="20"
        cy="109"
        r="29"
        cx="1242.9209"
        id="connector61pin"
        gorn="0.2.0.37"
        stroke="#f7bd13"
      />
      <circle
        id="connector62pin"
        cx="1152.9955"
        cy="213.81689"
        r="29"
        fill="none"
        stroke="#f7bd13"
        stroke-width="20"
      />
      <circle
        fill="none"
        stroke-width="20"
        cy="109"
        r="29"
        cx="1142.9209"
        id="connector63pin"
        gorn="0.2.0.39"
        stroke="#f7bd13"
      />
      <circle
        id="connector64pin"
        cx="1052.9955"
        cy="213.81689"
        r="29"
        fill="none"
        stroke="#f7bd13"
        stroke-width="20"
      />
      <circle
        fill="none"
        stroke-width="20"
        cy="109"
        r="29"
        cx="1042.921"
        id="connector65pin"
        gorn="0.2.0.41"
        stroke="#f7bd13"
      />
      <circle
        id="connector66pin"
        cx="952.99548"
        cy="213.81689"
        r="29"
        fill="none"
        stroke="#f7bd13"
        stroke-width="20"
      />
      <circle
        fill="none"
        stroke-width="20"
        cy="109"
        r="29"
        cx="942.92108"
        id="connector67pin"
        gorn="0.2.0.43"
        stroke="#f7bd13"
      />
      <circle
        id="connector68pin"
        cx="852.99548"
        cy="213.99959"
        r="29"
        fill="none"
        stroke="#f7bd13"
        stroke-width="20"
      />
      <circle
        fill="none"
        stroke-width="20"
        cy="109"
        r="29"
        cx="842.92102"
        id="connector69pin"
        gorn="0.2.0.45"
        stroke="#f7bd13"
      />
      <circle
        id="connector70pin"
        cx="752.99548"
        cy="213.81689"
        r="29"
        fill="none"
        stroke="#f7bd13"
        stroke-width="20"
      />
      <circle
        fill="none"
        stroke-width="20"
        cy="109"
        r="29"
        cx="742.9071"
        id="connector71pin"
        gorn="0.2.0.47"
        stroke="#f7bd13"
      />
    </g>
  </g>
</svg>
