<?xml version='1.0' encoding='UTF-8' standalone='no'?>
<svg
  xmlns:dc="http://purl.org/dc/elements/1.1/"
  xmlns:cc="http://creativecommons.org/ns#"
  xmlns:rdf="http://www.w3.org/1999/02/22-rdf-syntax-ns#"
  xmlns:svg="http://www.w3.org/2000/svg"
  xmlns="http://www.w3.org/2000/svg"
  id="svg2"
  y="0in"
  version="1.2"
  height="2.8688962in"
  width="2.5245621in"
  x="0in"
  viewBox="0 0 2524.562 2868.896">
  <metadata
    id="metadata24">
    <rdf:RDF>
      <cc:Work
        rdf:about="">
        <dc:format>image/svg+xml</dc:format>
        <dc:type
          rdf:resource="http://purl.org/dc/dcmitype/StillImage"
        />
        <dc:title/>
      </cc:Work>
    </rdf:RDF>
  </metadata>
  <defs
    id="defs22"
  />
  <desc
    id="desc4">
    <referenceFile>ps2-gamepad_1_breadboard.svg</referenceFile>
  </desc>
  <g
    id="breadboard">
    <rect
      y="298.33542"
      x="1225.2083"
      height="1262.0607"
      width="71.959595"
      id="rect1482"
      fill="#000000"
      stroke="#000000"
      stroke-width="10.41666603"
    />
    <path
      d="m 1445.7994,188.0996 c 7.9097,8.333 15.7666,8.0042 18.8148,8.2936 h 252.1633 c 0,0 14.2868,-0.1041 17.1766,-10.1898 2.4963,-7.26 2.746,-14.704 2.4074,-15.0426 v -18.6687 c -0.01,-1.9788 1.0149,-7.262 -3.8352,-13.0789 -3.7235,-5.6488 -15.9033,-5.2636 -15.9033,-5.2636 h -256.6318 c -5.6974,-0.1186 -8.5013,0.5816 -14.5425,5.2636 -4.7938,4.8288 -6.4919,11.4648 -6.4918,13.0789 v 18.9329 c 0.1353,4.3745 1.1292,9.8394 6.8419,16.6746 z"
      id="path1474"
      fill="#000000"
      stroke="#4d4d4d"
      stroke-width="9.95391369"
    />
    <path
      id="path1472"
      d="m 1106.2161,188.0996 c 7.9097,8.333 15.7666,8.0042 18.8148,8.2936 h 252.1633 c 0,0 14.2868,-0.1041 17.1766,-10.1898 2.4963,-7.26 2.746,-14.704 2.4074,-15.0426 v -18.6687 c -0.01,-1.9788 1.0149,-7.262 -3.8352,-13.0789 -3.7235,-5.6488 -15.9033,-5.2636 -15.9033,-5.2636 h -256.6318 c -5.6974,-0.1186 -8.5013,0.5816 -14.5425,5.2636 -4.7938,4.8288 -6.4919,11.4648 -6.4918,13.0789 v 18.9329 c 0.1353,4.3745 1.1292,9.8394 6.8419,16.6746 z"
      fill="#000000"
      stroke="#4d4d4d"
      stroke-width="9.95391369"
    />
    <path
      id="rect1250"
      d="m 696.6156,245.3584 c 31.19599,32.8636 62.18391,31.567 74.20611,32.7105 h 994.52659 c 0,0 56.3434,-0.4109 67.7431,-40.1894 9.8471,-28.6352 9.5818,-57.44021 9.4918,-59.3283 -2.0211,-42.39453 0.3455,-126.122109 0,-157.300827 -297.7537,2.434138 -922.90696,-4.638305 -1172.94782,0 1.96185,51.569921 -0.002,102.505987 0,158.343027 0.53337,17.252 4.44917,38.8059 26.9799,65.765 z"
      fill="#000000"
      stroke="#4d4d4d"
      stroke-width="39.25806046"
    />
    <rect
      transform="matrix(0,1,1,0,0,0)"
      id="rect151"
      width="229.11566"
      height="10.8125"
      x="31.006464"
      y="1083.8854"
      fill="#4d4d4d"
      stroke="none"
      stroke-width="0"
    />
    <rect
      y="1420.3436"
      x="31.006464"
      height="10.8125"
      width="229.11566"
      id="rect153"
      transform="matrix(0,1,1,0,0,0)"
      fill="#4d4d4d"
      stroke="none"
      stroke-width="0"
    />
    <path
      id="rect3225"
      d="m 627.93929,1547.4378 c -15.99829,0 -28.64583,12.9731 -28.64583,28.9714 v 762.0442 c 0,15.9983 12.64755,28.6458 28.64583,28.6458 H 1896.4939 c 15.9983,0 28.9714,-12.6476 28.9714,-28.6458 v -762.0442 c 0,-15.9983 -12.9732,-28.9714 -28.9714,-28.9714 h -550.0874 c -2.8364,4.6778 -8.1051,7.8125 -13.9974,7.8125 h -149.0864 c -5.8766,0 -10.8307,-3.1556 -13.6719,-7.8125 z"
      opacity="1"
      fill="#3f3f3f"
      fill-opacity="1"
      fill-rule="evenodd"
      stroke="#000000"
      stroke-width="10.41666603"
      stroke-linecap="round"
      stroke-linejoin="round"
      stroke-miterlimit="4"
      stroke-dasharray="none"
      stroke-opacity="1"
    />
    <rect
      id="rect3318"
      width="1194.7015"
      height="713.37695"
      x="664.93018"
      y="1612.9683"
      rx="28.877777"
      ry="27.913631"
      opacity="1"
      fill="#262626"
      fill-opacity="1"
      fill-rule="evenodd"
      stroke="none"
      stroke-width="10.41666603"
      stroke-linecap="round"
      stroke-linejoin="round"
      stroke-miterlimit="4"
      stroke-dasharray="none"
      stroke-opacity="1"
    />
    <path
      id="path3206"
      d="M 131.24662,1781.6829 C 74.057038,2094.8637 36.757874,2429.8737 8.6975637,2576.8898 -35.31608,2807.4902 350.0566,3001.3366 496.17034,2734.8419 607.09492,2532.5281 733.09835,2274.6022 733.09835,2274.6022 Z"
      fill="#262626"
      fill-opacity="1"
      fill-rule="evenodd"
      stroke="#000000"
      stroke-width="10.41666603"
      stroke-linecap="butt"
      stroke-linejoin="miter"
      stroke-miterlimit="4"
      stroke-dasharray="none"
      stroke-opacity="1"
    />
    <path
      d="m 1824.7393,1400.4471 h 345.3128 l -27.0621,-44.4942 c -17.7429,-29.1721 -63.8666,-50.8217 -145.5942,-50.8217 -81.7277,0 -127.8515,21.6496 -145.5944,50.8217 z"
      id="path3258"
      fill="#7a7a7a"
      fill-opacity="1"
      fill-rule="evenodd"
      stroke="#000000"
      stroke-width="10.41666603"
      stroke-linecap="butt"
      stroke-linejoin="miter"
      stroke-miterlimit="4"
      stroke-dasharray="none"
      stroke-opacity="1"
    />
    <path
      id="path3234"
      d="M 341.89629,1400.4471 H 687.20908 L 660.147,1355.9529 c -17.74291,-29.1721 -63.86666,-50.8217 -145.59426,-50.8217 -81.7277,0 -127.85145,21.6496 -145.59437,50.8217 z"
      fill="#7a7a7a"
      fill-opacity="1"
      fill-rule="evenodd"
      stroke="#000000"
      stroke-width="10.41666603"
      stroke-linecap="butt"
      stroke-linejoin="miter"
      stroke-miterlimit="4"
      stroke-dasharray="none"
      stroke-opacity="1"
    />
    <path
      d="m 731.73668,1607.4186 c -17.70156,-114.3791 -25.87145,-171.5686 -34.04135,-213.78 -8.17,-42.2113 -80.3377,-63.9978 -183.14269,-63.9978 -102.805,0 -174.9727,21.7865 -183.1427,63.9978 -8.1699,42.2114 -16.33979,99.4009 -34.04135,213.78"
      id="path3229"
      fill="#262626"
      fill-opacity="1"
      fill-rule="evenodd"
      stroke="#000000"
      stroke-width="10.41666603"
      stroke-linecap="butt"
      stroke-linejoin="miter"
      stroke-miterlimit="4"
      stroke-dasharray="none"
      stroke-opacity="1"
    />
    <circle
      r="394.88019"
      cy="1879.7227"
      cx="515.23376"
      id="path2416"
      opacity="1"
      fill="#333333"
      fill-opacity="1"
      fill-rule="evenodd"
      stroke="#000000"
      stroke-width="10.41666603"
      stroke-linecap="round"
      stroke-linejoin="round"
      stroke-miterlimit="4"
      stroke-dasharray="none"
      stroke-opacity="1"
    />
    <path
      id="path3260"
      d="m 2214.5797,1607.4186 c -17.7015,-114.3791 -25.8714,-171.5686 -34.0413,-213.78 -8.17,-42.2113 -80.3377,-63.9978 -183.1427,-63.9978 -102.805,0 -174.9727,21.7865 -183.1427,63.9978 -8.1699,42.2114 -16.3398,99.4009 -34.0414,213.78"
      fill="#262626"
      fill-opacity="1"
      fill-rule="evenodd"
      stroke="#000000"
      stroke-width="10.41666603"
      stroke-linecap="butt"
      stroke-linejoin="miter"
      stroke-miterlimit="4"
      stroke-dasharray="none"
      stroke-opacity="1"
    />
    <circle
      r="250.54469"
      cy="2263.7095"
      cx="893.77417"
      id="path3208"
      opacity="1"
      fill="#333333"
      fill-opacity="1"
      fill-rule="evenodd"
      stroke="#000000"
      stroke-width="10.41666698"
      stroke-linecap="round"
      stroke-linejoin="round"
      stroke-miterlimit="4"
      stroke-dasharray="none"
      stroke-opacity="1"
    />
    <circle
      r="193.35516"
      cy="2263.71"
      cx="893.77423"
      id="path3212"
      opacity="1"
      fill="#000000"
      fill-opacity="0.51851849"
      fill-rule="evenodd"
      stroke="#000000"
      stroke-width="10.41666698"
      stroke-linecap="round"
      stroke-linejoin="round"
      stroke-miterlimit="4"
      stroke-dasharray="none"
      stroke-opacity="1"
    />
    <circle
      r="168.84537"
      cy="2263.71"
      cx="893.77423"
      id="path3210"
      opacity="1"
      fill="#4d4d4d"
      fill-opacity="0.51851849"
      fill-rule="evenodd"
      stroke="#000000"
      stroke-width="10.41666698"
      stroke-linecap="round"
      stroke-linejoin="round"
      stroke-miterlimit="4"
      stroke-dasharray="none"
      stroke-opacity="1"
    />
    <path
      d="m 2393.0775,1781.6829 c 57.1896,313.1808 94.4888,653.6373 122.5491,795.2069 45.644,230.2833 -341.3591,424.4468 -487.4728,157.9521 -110.9246,-202.3138 -236.928,-460.2397 -236.928,-460.2397 z"
      id="path3223"
      fill="#262626"
      fill-opacity="1"
      fill-rule="evenodd"
      stroke="#000000"
      stroke-width="10.41666603"
      stroke-linecap="butt"
      stroke-linejoin="miter"
      stroke-miterlimit="4"
      stroke-dasharray="none"
      stroke-opacity="1"
    />
    <circle
      r="394.88019"
      cy="1879.7227"
      cx="-2009.0905"
      id="path3221"
      transform="scale(-1,1)"
      opacity="1"
      fill="#333333"
      fill-opacity="1"
      fill-rule="evenodd"
      stroke="#000000"
      stroke-width="10.41666603"
      stroke-linecap="round"
      stroke-linejoin="round"
      stroke-miterlimit="4"
      stroke-dasharray="none"
      stroke-opacity="1"
    />
    <path
      d="m 1928.0357,1587.8931 c -15.9984,0 -28.9714,12.9729 -28.9714,28.9714 v 152.6692 h -152.9948 c -15.9983,0 -28.6459,12.9729 -28.6458,28.9714 V 1960.94 c 0,15.9983 12.6477,28.9712 28.6458,28.9713 h 152.9948 v 152.6693 c 0,15.9983 12.9729,28.9711 28.9714,28.9713 h 162.4349 c 15.9983,0 28.6457,-12.9732 28.6458,-28.9713 v -152.6693 h 152.9948 c 15.9983,0 28.6458,-12.9731 28.6458,-28.9713 v -162.4349 c 0,-15.9984 -12.6474,-28.9714 -28.6458,-28.9714 h -152.9948 v -152.6692 c 0,-15.9984 -12.6476,-28.9714 -28.6458,-28.9714 z"
      id="path3219"
      opacity="1"
      fill="#262626"
      fill-opacity="1"
      fill-rule="evenodd"
      stroke="none"
      stroke-width="10.41666603"
      stroke-linecap="round"
      stroke-linejoin="round"
      stroke-miterlimit="4"
      stroke-dasharray="none"
      stroke-opacity="1"
    />
    <rect
      ry="16.339869"
      rx="16.339869"
      y="1885.2178"
      x="970.02649"
      height="69.444443"
      width="121.18736"
      id="rect3236"
      opacity="1"
      fill="#595959"
      fill-opacity="1"
      fill-rule="evenodd"
      stroke="#000000"
      stroke-width="10.41666603"
      stroke-linecap="round"
      stroke-linejoin="round"
      stroke-miterlimit="4"
      stroke-dasharray="none"
      stroke-opacity="1"
    />
    <path
      id="rect3238"
      d="m 1529.6669,1919.9401 -88.5077,34.7222 c -8.4269,3.3059 -16.3397,-7.2877 -16.3397,-16.3399 v -36.7647 c 0,-9.0523 7.9128,-19.6459 16.3397,-16.3399 z"
      fill="#595959"
      fill-opacity="1"
      fill-rule="evenodd"
      stroke="#000000"
      stroke-width="10.41666603"
      stroke-linecap="round"
      stroke-linejoin="round"
      stroke-miterlimit="4"
      stroke-opacity="1"
    />
    <circle
      r="82.652786"
      cy="2104.395"
      cx="1272.3137"
      id="path3242"
      opacity="1"
      fill="#595959"
      fill-opacity="1"
      fill-rule="evenodd"
      stroke="#000000"
      stroke-width="14.37031364"
      stroke-linecap="round"
      stroke-linejoin="round"
      stroke-miterlimit="4"
      stroke-dasharray="none"
      stroke-opacity="1"
    />
    <circle
      r="85.784309"
      cy="1695.8984"
      cx="2009.0905"
      id="path3244"
      opacity="1"
      fill="#5a5a5a"
      fill-opacity="1"
      fill-rule="evenodd"
      stroke="#454545"
      stroke-width="10.41666603"
      stroke-linecap="round"
      stroke-linejoin="round"
      stroke-miterlimit="4"
      stroke-dasharray="none"
      stroke-opacity="1"
    />
    <circle
      r="85.784309"
      cy="2064.9072"
      cx="2009.0905"
      id="path3246"
      opacity="1"
      fill="#5a5a5a"
      fill-opacity="1"
      fill-rule="evenodd"
      stroke="#454545"
      stroke-width="10.41666603"
      stroke-linecap="round"
      stroke-linejoin="round"
      stroke-miterlimit="4"
      stroke-dasharray="none"
      stroke-opacity="1"
    />
    <circle
      r="85.784309"
      cy="-1880.4028"
      cx="-2193.5947"
      id="path3248"
      transform="scale(-1)"
      fill="#5a5a5a"
      fill-opacity="1"
      fill-rule="evenodd"
      stroke="#454545"
      stroke-width="10.41666603"
      stroke-linecap="round"
      stroke-linejoin="round"
      stroke-miterlimit="4"
      stroke-dasharray="none"
      stroke-opacity="1"
    />
    <circle
      r="85.784309"
      cy="-1880.4028"
      cx="-1824.5862"
      transform="scale(-1)"
      id="path3250"
      fill="#5a5a5a"
      fill-opacity="1"
      fill-rule="evenodd"
      stroke="#454545"
      stroke-width="10.41666603"
      stroke-linecap="round"
      stroke-linejoin="round"
      stroke-miterlimit="4"
      stroke-dasharray="none"
      stroke-opacity="1"
    />
    <path
      id="rect3214"
      d="m 432.31504,1582.87 c -15.99834,0 -28.97136,12.9729 -28.97136,28.9713 v 152.6693 H 250.3489 c -15.99833,0 -28.64593,12.9729 -28.64583,28.9714 v 162.4348 c 0,15.9984 12.64771,28.9713 28.64583,28.9714 h 152.99478 v 152.6692 c 0,15.9984 12.97292,28.9712 28.97136,28.9714 h 162.43488 c 15.99833,0 28.64573,-12.9732 28.64583,-28.9714 v -152.6692 h 152.99479 c 15.99833,0 28.64583,-12.9731 28.64583,-28.9714 V 1793.482 c 0,-15.9984 -12.6474,-28.9714 -28.64583,-28.9714 H 623.39575 v -152.6693 c 0,-15.9983 -12.6476,-28.9713 -28.64583,-28.9713 z"
      opacity="1"
      fill="#262626"
      fill-opacity="1"
      fill-rule="evenodd"
      stroke="none"
      stroke-width="10.41666603"
      stroke-linecap="round"
      stroke-linejoin="round"
      stroke-miterlimit="4"
      stroke-dasharray="none"
      stroke-opacity="1"
    />
    <circle
      r="250.54469"
      cy="2263.7095"
      cx="1623.6216"
      id="path3289"
      opacity="1"
      fill="#333333"
      fill-opacity="1"
      fill-rule="evenodd"
      stroke="#000000"
      stroke-width="10.41666698"
      stroke-linecap="round"
      stroke-linejoin="round"
      stroke-miterlimit="4"
      stroke-dasharray="none"
      stroke-opacity="1"
    />
    <circle
      r="193.35516"
      cy="2263.71"
      cx="1623.6216"
      id="path3291"
      opacity="1"
      fill="#000000"
      fill-opacity="0.51851849"
      fill-rule="evenodd"
      stroke="#000000"
      stroke-width="10.41666698"
      stroke-linecap="round"
      stroke-linejoin="round"
      stroke-miterlimit="4"
      stroke-dasharray="none"
      stroke-opacity="1"
    />
    <circle
      r="168.84537"
      cy="2263.71"
      cx="1623.6216"
      id="path3293"
      opacity="1"
      fill="#4d4d4d"
      fill-opacity="0.51851849"
      fill-rule="evenodd"
      stroke="#000000"
      stroke-width="10.41666698"
      stroke-linecap="round"
      stroke-linejoin="round"
      stroke-miterlimit="4"
      stroke-dasharray="none"
      stroke-opacity="1"
    />
    <path
      id="path3273"
      d="m 513.36972,1613.6079 -39.41108,37.4333 h 78.82216 z"
      fill="#3f3f3f"
      fill-opacity="1"
      fill-rule="evenodd"
      stroke="none"
      stroke-width="10.41666603"
      stroke-linecap="round"
      stroke-linejoin="round"
      stroke-miterlimit="4"
      stroke-dasharray="none"
      stroke-opacity="1"
    />
    <path
      d="m 513.36972,2135.7909 -39.41108,-37.4334 h 78.82216 z"
      id="path3295"
      fill="#3f3f3f"
      fill-opacity="1"
      fill-rule="evenodd"
      stroke="none"
      stroke-width="10.41666603"
      stroke-linecap="round"
      stroke-linejoin="round"
      stroke-miterlimit="4"
      stroke-dasharray="none"
      stroke-opacity="1"
    />
    <path
      d="m 774.46113,1874.6993 -37.43334,-39.411 v 78.8221 z"
      id="path3303"
      fill="#3f3f3f"
      fill-opacity="1"
      fill-rule="evenodd"
      stroke="none"
      stroke-width="10.41666603"
      stroke-linecap="round"
      stroke-linejoin="round"
      stroke-miterlimit="4"
      stroke-dasharray="none"
      stroke-opacity="1"
    />
    <path
      id="path3305"
      d="m 252.27829,1874.6993 37.43334,-39.411 v 78.8221 z"
      fill="#3f3f3f"
      fill-opacity="1"
      fill-rule="evenodd"
      stroke="none"
      stroke-width="10.41666603"
      stroke-linecap="round"
      stroke-linejoin="round"
      stroke-miterlimit="4"
      stroke-dasharray="none"
      stroke-opacity="1"
    />
    <rect
      ry="0"
      rx="0"
      y="1831.2983"
      x="1775.4813"
      height="98.209267"
      width="98.209267"
      id="rect3307"
      opacity="1"
      fill="none"
      fill-opacity="1"
      fill-rule="evenodd"
      stroke="#ff01db"
      stroke-width="10.41666603"
      stroke-linecap="butt"
      stroke-linejoin="miter"
      stroke-miterlimit="4"
      stroke-dasharray="none"
      stroke-opacity="1"
    />
    <path
      d="m 2063.7649,1730.6519 h -109.3493 l 54.6746,-94.5404 z"
      id="path3309"
      opacity="1"
      fill="none"
      fill-opacity="1"
      fill-rule="evenodd"
      stroke="#00ff83"
      stroke-width="10.41666603"
      stroke-linecap="butt"
      stroke-linejoin="miter"
      stroke-miterlimit="4"
      stroke-dasharray="none"
      stroke-opacity="1"
    />
    <circle
      r="58.824902"
      cy="-1880.4033"
      cx="-2193.5947"
      transform="scale(-1)"
      id="path3311"
      fill="none"
      fill-opacity="1"
      fill-rule="evenodd"
      stroke="#ff0000"
      stroke-width="10.41666508"
      stroke-linecap="round"
      stroke-linejoin="round"
      stroke-miterlimit="4"
      stroke-dasharray="none"
      stroke-opacity="1"
    />
    <path
      d="m 1965.5666,2022.2466 88.5809,88.581 m 0,-88.581 -88.5809,88.581"
      id="path3313"
      fill="none"
      fill-opacity="0.75"
      fill-rule="evenodd"
      stroke="#8243fb"
      stroke-width="10.41666603"
      stroke-linecap="butt"
      stroke-linejoin="miter"
      stroke-miterlimit="4"
      stroke-dasharray="none"
      stroke-opacity="1"
    />
    <path
      d="m 611.67151,1816.353 a 12.280558,12.280558 0 0 0 -9.88771,4.6589 l -36.45833,46.224 a 12.280558,12.280558 0 0 0 -0.0208,15.1774 l 36.45833,46.5495 a 12.280558,12.280558 0 0 0 9.62313,4.7201 l 84.63541,0.325 a 12.280558,12.280558 0 0 0 12.32916,-12.2885 v -91.4708 a 12.280558,12.280558 0 0 0 -12.0443,-12.268 z"
      id="path3322"
      fill="#5a5a5a"
      fill-opacity="1"
      fill-rule="evenodd"
      stroke="#454545"
      stroke-width="10.41666603"
      stroke-linecap="round"
      stroke-linejoin="round"
      stroke-miterlimit="4"
      stroke-opacity="1"
    />
    <path
      id="path3324"
      d="m 415.06809,1815.4275 a 12.280558,12.280558 0 0 1 9.88771,4.6589 l 36.45833,46.224 a 12.280558,12.280558 0 0 1 0.0208,15.1774 l -36.45833,46.5495 a 12.280558,12.280558 0 0 1 -9.62313,4.7201 l -84.63541,0.325 a 12.280558,12.280558 0 0 1 -12.32913,-12.2885 v -91.4708 a 12.280558,12.280558 0 0 1 12.04427,-12.268 z"
      fill="#5a5a5a"
      fill-opacity="1"
      fill-rule="evenodd"
      stroke="#454545"
      stroke-width="10.41666603"
      stroke-linecap="round"
      stroke-linejoin="round"
      stroke-miterlimit="4"
      stroke-opacity="1"
    />
    <path
      id="path3332"
      d="m 571.71612,1973.0011 a 12.280558,12.280558 0 0 0 -4.65895,-9.8877 l -46.22396,-36.4583 a 12.280558,12.280558 0 0 0 -15.17739,-0.021 l -46.54948,36.4583 a 12.280558,12.280558 0 0 0 -4.7201,9.6231 l -0.325,84.6355 a 12.280558,12.280558 0 0 0 12.28843,12.3291 h 91.47083 a 12.280558,12.280558 0 0 0 12.26802,-12.0443 z"
      fill="#5a5a5a"
      fill-opacity="1"
      fill-rule="evenodd"
      stroke="#454545"
      stroke-width="10.41666603"
      stroke-linecap="round"
      stroke-linejoin="round"
      stroke-miterlimit="4"
      stroke-opacity="1"
    />
    <path
      d="m 572.64162,1776.3977 a 12.280558,12.280558 0 0 1 -4.65895,9.8877 l -46.22396,36.4583 a 12.280558,12.280558 0 0 1 -15.17739,0.021 l -46.54948,-36.4583 a 12.280558,12.280558 0 0 1 -4.7201,-9.6231 l -0.325,-84.6354 a 12.280558,12.280558 0 0 1 12.28843,-12.3292 H 558.746 a 12.280558,12.280558 0 0 1 12.26802,12.0443 z"
      id="path3334"
      fill="#5a5a5a"
      fill-opacity="1"
      fill-rule="evenodd"
      stroke="#454545"
      stroke-width="10.41666603"
      stroke-linecap="round"
      stroke-linejoin="round"
      stroke-miterlimit="4"
      stroke-opacity="1"
    />
    <path
      id="text3336"
      d="m 490.87347,1376.3571 h 10.81271 v 70.8176 h 38.91489 v 9.0998 h -49.7276 v -79.9174"
      font-style="normal"
      font-variant="normal"
      font-weight="normal"
      font-stretch="normal"
      font-size="10.52404881"
      line-height="-200%"
      font-family="OCRA"
      text-align="center"
      writing-mode="lr-tb"
      text-anchor="middle"
      fill="#000000"
      fill-opacity="1"
      stroke="none"
      stroke-width="31.24999809pt"
      stroke-linecap="butt"
      stroke-linejoin="miter"
      stroke-opacity="1"
    />
    <path
      id="text3340"
      d="m 2017.4933,1418.8049 c 2.3194,0.7854 4.5676,2.4623 6.7444,5.0316 2.2125,2.5693 4.425,6.1022 6.6375,10.5985 l 10.9733,21.8395 h -11.6155 l -10.2239,-20.5013 c -2.6408,-5.3528 -5.2101,-8.9034 -7.7081,-10.6521 -2.4623,-1.7485 -5.8346,-2.6228 -10.1168,-2.6228 h -11.7761 v 33.7762 h -10.8127 v -79.9174 h 24.4088 c 9.1354,10e-5 15.9513,1.9093 20.4477,5.7275 4.4963,3.8184 6.7445,9.5815 6.7445,17.2896 0,5.0316 -1.1776,9.2068 -3.5328,12.5255 -2.3196,3.3188 -5.7097,5.6205 -10.1703,6.9052 m -27.0852,-33.5622 v 28.3699 h 13.5961 c 5.21,10e-5 9.1354,-1.1954 11.7762,-3.5864 2.6763,-2.4265 4.0145,-5.9772 4.0145,-10.652 0,-4.6747 -1.3382,-8.1898 -4.0145,-10.545 -2.6408,-2.391 -6.5662,-3.5864 -11.7762,-3.5865 h -13.5961"
      font-style="normal"
      font-variant="normal"
      font-weight="normal"
      font-stretch="normal"
      font-size="10.52404881"
      line-height="-200%"
      font-family="OCRA"
      text-align="center"
      writing-mode="lr-tb"
      text-anchor="middle"
      fill="#000000"
      fill-opacity="1"
      stroke="none"
      stroke-width="31.24999809pt"
      stroke-linecap="butt"
      stroke-linejoin="miter"
      stroke-opacity="1"
    />
    <path
      id="text2434"
      d="m 971.72542,1825.6702 v 4.5747 c -1.78031,-0.8511 -3.46,-1.4862 -5.03906,-1.9042 -1.57907,-0.4177 -3.10396,-0.6271 -4.57469,-0.6271 -2.55438,0 -4.52823,0.4958 -5.92146,1.4862 -1.37781,0.9906 -2.06677,2.3995 -2.06677,4.2263 0,1.5326 0.45625,2.6938 1.3701,3.4832 0.92917,0.774 2.67823,1.4011 5.24813,1.881 l 2.83302,0.5802 c 3.49865,0.6656 6.07625,1.8423 7.73271,3.5297 1.67198,1.672 2.50791,3.9167 2.50802,6.7342 -1.1e-4,3.3594 -1.13021,5.9061 -3.39042,7.6399 -2.24479,1.734 -5.54219,2.6009 -9.89239,2.6009 -1.64094,0 -3.39032,-0.1854 -5.24802,-0.5573 -1.8423,-0.3719 -3.75417,-0.9208 -5.73573,-1.6488 v -4.8301 c 1.90416,1.0683 3.76958,1.8733 5.59635,2.4151 1.82677,0.5417 3.62261,0.8125 5.3874,0.8125 2.67823,0 4.74489,-0.526 6.2002,-1.579 1.45521,-1.0527 2.18282,-2.5544 2.18282,-4.505 0,-1.7029 -0.52604,-3.0343 -1.57907,-3.9941 -1.0375,-0.9594 -2.74791,-1.6797 -5.13197,-2.1597 l -2.85625,-0.5573 c -3.49875,-0.6968 -6.0299,-1.788 -7.59344,-3.2742 -1.56365,-1.4862 -2.34542,-3.5529 -2.34542,-6.2001 0,-3.0653 1.07594,-5.4804 3.22781,-7.2451 2.1673,-1.7649 5.1474,-2.6473 8.94032,-2.6473 1.62552,0 3.28198,0.1468 4.96937,0.4406 1.6875,0.2948 3.41354,0.7354 5.17844,1.3236 m 9.40479,-1.1378 h 21.92119 v 3.9477 h -17.23046 v 10.2639 h 16.51056 v 3.9477 h -16.51056 v 12.5629 h 17.64846 v 3.9476 h -22.33919 v -34.6698 m 30.09509,0 h 4.6908 v 30.7222 h 16.8821 v 3.9476 h -21.5729 v -34.6698 m 26.4726,0 h 21.9213 v 3.9477 h -17.2305 v 10.2639 h 16.5106 v 3.9477 h -16.5106 v 12.5629 h 17.6485 v 3.9476 h -22.3393 v -34.6698 m 56.057,2.6705 v 4.9462 c -1.5791,-1.4706 -3.2666,-2.5698 -5.0623,-3.2975 -1.7804,-0.7271 -3.6768,-1.0914 -5.6893,-1.0914 -3.9632,0 -6.9975,1.2153 -9.1029,3.6458 -2.1054,2.4151 -3.1581,5.9138 -3.1581,10.4961 0,4.567 1.0527,8.0657 3.1581,10.4963 2.1054,2.415 5.1397,3.6225 9.1029,3.6225 2.0125,0 3.9089,-0.3636 5.6893,-1.0914 1.7957,-0.7271 3.4832,-1.8268 5.0623,-3.2975 v 4.8998 c -1.6411,1.1146 -3.3826,1.9506 -5.2249,2.5079 -1.8268,0.5573 -3.7619,0.8354 -5.8054,0.8354 -5.248,0 -9.3815,-1.6023 -12.4003,-4.8068 -3.0188,-3.22 -4.5283,-7.6089 -4.5283,-13.1667 0,-5.5731 1.5095,-9.962 4.5283,-13.1666 3.0188,-3.2201 7.1523,-4.8301 12.4003,-4.8301 2.0745,0 4.0251,0.2781 5.8519,0.8354 1.8421,0.5417 3.5683,1.3624 5.1784,2.4616 m 2.4847,-2.6705 h 29.3288 v 3.9477 H 1113.261 V 1859.2 h -4.7139 v -30.7221 h -12.3075 v -3.9477"
      font-style="normal"
      font-weight="normal"
      font-size="4.56555033"
      font-family="OCRA"
      fill="#e6e6e6"
      fill-opacity="1"
      stroke="none"
      stroke-width="10.41666603px"
      stroke-linecap="butt"
      stroke-linejoin="miter"
      stroke-opacity="1"
    />
    <path
      id="text2438"
      d="m 1418.4106,1825.6702 v 4.5747 c -1.7804,-0.8511 -3.4601,-1.4862 -5.0392,-1.9042 -1.579,-0.4177 -3.1039,-0.6271 -4.5746,-0.6271 -2.5543,0 -4.5282,0.4958 -5.9215,1.4862 -1.3778,0.9906 -2.0667,2.3995 -2.0667,4.2263 0,1.5326 0.4563,2.6938 1.37,3.4832 0.9292,0.774 2.6782,1.4011 5.2481,1.881 l 2.8331,0.5802 c 3.4987,0.6656 6.0763,1.8423 7.7328,3.5297 1.6719,1.672 2.5079,3.9167 2.5079,6.7342 0,3.3594 -1.1301,5.9061 -3.3903,7.6399 -2.2448,1.734 -5.5423,2.6009 -9.8924,2.6009 -1.6411,0 -3.3904,-0.1854 -5.2481,-0.5573 -1.8423,-0.3719 -3.7542,-0.9208 -5.7358,-1.6488 v -4.8301 c 1.9042,1.0683 3.7697,1.8733 5.5965,2.4151 1.8267,0.5417 3.6225,0.8125 5.3874,0.8125 2.6781,0 4.7449,-0.526 6.2001,-1.579 1.4552,-1.0527 2.1828,-2.5544 2.1828,-4.505 0,-1.7029 -0.526,-3.0343 -1.5791,-3.9941 -1.0375,-0.9594 -2.7479,-1.6797 -5.1319,-2.1597 l -2.8563,-0.5573 c -3.4986,-0.6968 -6.0298,-1.788 -7.5934,-3.2742 -1.5636,-1.4862 -2.3454,-3.5529 -2.3453,-6.2001 -1e-4,-3.0653 1.0758,-5.4804 3.2277,-7.2451 2.1674,-1.7649 5.1475,-2.6473 8.9403,-2.6473 1.6255,0 3.282,0.1468 4.9695,0.4406 1.6874,0.2948 3.4135,0.7354 5.1784,1.3236 m 4.5978,-1.1378 h 29.3289 v 3.9477 h -12.3074 v 30.7221 h -4.714 v -30.7221 h -12.3075 v -3.9477 m 41.7524,4.6211 -6.3627,17.2536 h 12.7486 l -6.3859,-17.2536 m -2.6472,-4.6211 h 5.3177 l 13.2131,34.6698 h -4.8765 l -3.1581,-8.8938 h -15.6282 l -3.1581,8.8938 h -4.9462 l 13.2363,-34.6698 m 40.0107,18.4147 c 1.0063,0.3406 1.9816,1.0682 2.926,2.1828 0.9594,1.1147 1.9197,2.6473 2.8795,4.5979 l 4.7604,9.4744 h -5.0391 l -4.4353,-8.8938 c -1.1456,-2.3221 -2.2602,-3.8625 -3.344,-4.6211 -1.0681,-0.7583 -2.5311,-1.1379 -4.3888,-1.1379 h -5.1088 v 14.6528 h -4.6907 v -34.6698 h 10.5891 c 3.9631,0 6.92,0.8281 8.8706,2.4847 1.9506,1.6566 2.9258,4.1567 2.9259,7.5006 -10e-5,2.1828 -0.5114,3.9941 -1.5326,5.4339 -1.0062,1.4397 -2.4771,2.4382 -4.4122,2.9955 m -11.7501,-14.5599 v 12.3074 h 5.8984 c 2.2602,0 3.9631,-0.5187 5.1087,-1.5558 1.1611,-1.0527 1.7416,-2.593 1.7416,-4.6211 0,-2.028 -0.5802,-3.5529 -1.7416,-4.5747 -1.1456,-1.0375 -2.8485,-1.5558 -5.1087,-1.5558 h -5.8984 m 20.1332,-3.8548 h 29.3288 v 3.9477 h -12.3074 v 30.7221 h -4.7139 v -30.7221 h -12.3075 v -3.9477"
      font-style="normal"
      font-weight="normal"
      font-size="4.56555033"
      font-family="OCRA"
      fill="#e6e6e6"
      fill-opacity="1"
      stroke="none"
      stroke-width="10.41666603px"
      stroke-linecap="butt"
      stroke-linejoin="miter"
      stroke-opacity="1"
    />
    <text
      transform="scale(-1.6252192,-0.61530161)"
      id="text3367"
      y="-2581.2983"
      x="-661.40796"
      font-style="normal"
      font-variant="normal"
      font-weight="normal"
      font-stretch="normal"
      font-size="32.03458023"
      line-height="1.25"
      font-family="OCRA"
      text-align="start"
      writing-mode="lr-tb"
      text-anchor="start"
      fill="#b3b3b3"
      fill-opacity="1"
      stroke="none"
      stroke-width="10.41666603px"
      stroke-linecap="butt"
      stroke-linejoin="miter"
      stroke-opacity="1">1</text>
    <text
      transform="scale(-1.6252192,-0.61530161)"
      x="-627.73468"
      y="-2581.2983"
      id="text3371"
      font-style="normal"
      font-variant="normal"
      font-weight="normal"
      font-stretch="normal"
      font-size="32.03458023"
      line-height="1.25"
      font-family="OCRA"
      text-align="start"
      writing-mode="lr-tb"
      text-anchor="start"
      fill="#b3b3b3"
      fill-opacity="1"
      stroke="none"
      stroke-width="10.41666603px"
      stroke-linecap="butt"
      stroke-linejoin="miter"
      stroke-opacity="1">2</text>
    <text
      transform="scale(-1.6252192,-0.61530161)"
      id="text3375"
      y="-2581.7051"
      x="-590.97607"
      font-style="normal"
      font-variant="normal"
      font-weight="normal"
      font-stretch="normal"
      font-size="32.03458023"
      line-height="1.25"
      font-family="OCRA"
      text-align="start"
      writing-mode="lr-tb"
      text-anchor="start"
      fill="#b3b3b3"
      fill-opacity="1"
      stroke="none"
      stroke-width="10.41666603px"
      stroke-linecap="butt"
      stroke-linejoin="miter"
      stroke-opacity="1">3</text>
    <text
      transform="scale(-1.6252192,-0.61530161)"
      x="-548.66779"
      y="-2581.3921"
      id="text3379"
      font-style="normal"
      font-variant="normal"
      font-weight="normal"
      font-stretch="normal"
      font-size="32.03458023"
      line-height="1.25"
      font-family="OCRA"
      text-align="start"
      writing-mode="lr-tb"
      text-anchor="start"
      fill="#b3b3b3"
      fill-opacity="1"
      stroke="none"
      stroke-width="10.41666603px"
      stroke-linecap="butt"
      stroke-linejoin="miter"
      stroke-opacity="1">4</text>
    <rect
      ry="16.339869"
      rx="0"
      y="1552.3979"
      x="865.61627"
      height="28.130203"
      width="21.700443"
      id="rect3383"
      fill="#1a1a1a"
      fill-opacity="1"
      stroke="none"
      stroke-width="20.83333206"
      stroke-linecap="butt"
      stroke-linejoin="miter"
      stroke-miterlimit="4"
      stroke-dasharray="none"
      stroke-opacity="1"
    />
    <rect
      id="rect3385"
      width="21.700443"
      height="28.130203"
      x="933.93243"
      y="1552.3979"
      rx="0"
      ry="16.339869"
      fill="#1a1a1a"
      fill-opacity="1"
      stroke="none"
      stroke-width="20.83333206"
      stroke-linecap="butt"
      stroke-linejoin="miter"
      stroke-miterlimit="4"
      stroke-dasharray="none"
      stroke-opacity="1"
    />
    <rect
      ry="16.339869"
      rx="0"
      y="1552.3979"
      x="995.01526"
      height="28.130203"
      width="21.700443"
      id="rect3387"
      fill="#1a1a1a"
      fill-opacity="1"
      stroke="none"
      stroke-width="20.83333206"
      stroke-linecap="butt"
      stroke-linejoin="miter"
      stroke-miterlimit="4"
      stroke-dasharray="none"
      stroke-opacity="1"
    />
    <rect
      id="rect3389"
      width="21.700443"
      height="28.130203"
      x="1048.0609"
      y="1552.3979"
      rx="0"
      ry="16.339869"
      fill="#ff0000"
      fill-opacity="1"
      stroke="none"
      stroke-width="20.83333206"
      stroke-linecap="butt"
      stroke-linejoin="miter"
      stroke-miterlimit="4"
      stroke-dasharray="none"
      stroke-opacity="1"
    />
    <path
      d="m 779.13278,194.346 c 7.90975,8.333 15.76674,8.0042 18.81498,8.2936 h 252.16334 c 0,0 14.2868,-0.1041 17.1766,-10.1898 2.4963,-7.26 2.746,-14.704 2.4074,-15.0426 v -18.6687 c -0.01,-1.9788 1.0149,-7.262 -3.8352,-13.0789 -3.7235,-5.6488 -15.9033,-5.2636 -15.9033,-5.2636 H 793.3247 c -5.69742,-0.1186 -8.50137,0.5816 -14.54262,5.2636 -4.7938,4.8288 -6.49192,11.4648 -6.4918,13.0789 l 0.002,18.9329 c 0.13525,4.3745 1.12918,9.8394 6.8419,16.6746 z"
      id="path1470"
      fill="#1a1a1a"
      stroke="#4d4d4d"
      stroke-width="9.95391369"
    />
    <path
      id="path1476"
      d="m 1118.7161,194.346 c 7.9096,8.333 15.7666,8.0042 18.8149,8.2936 h 252.1635 c 0,0 14.2868,-0.1041 17.1766,-10.1898 2.4963,-7.26 2.746,-14.704 2.4074,-15.0426 v -18.6687 c -0.01,-1.9788 1.0149,-7.262 -3.8352,-13.0789 -3.7235,-5.6488 -15.9033,-5.2636 -15.9033,-5.2636 h -256.6321 c -5.6974,-0.1186 -8.5013,0.5816 -14.5425,5.2636 -4.7938,4.8288 -6.4919,11.4648 -6.4918,13.0789 v 18.9329 c 0.1352,4.3745 1.1292,9.8394 6.8419,16.6746 z"
      fill="#1a1a1a"
      stroke="#4d4d4d"
      stroke-width="9.95391369"
    />
    <path
      d="m 1451.0078,194.346 c 7.9096,8.333 15.7666,8.0042 18.8149,8.2936 h 252.1635 c 0,0 14.2868,-0.1041 17.1766,-10.1898 2.4963,-7.26 2.746,-14.704 2.4074,-15.0426 v -18.6687 c -0.01,-1.9788 1.0149,-7.262 -3.8352,-13.0789 -3.7235,-5.6488 -15.9033,-5.2636 -15.9033,-5.2636 h -256.6321 c -5.6974,-0.1186 -8.5013,0.5816 -14.5425,5.2636 -4.7938,4.8288 -6.4919,11.4648 -6.4918,13.0789 v 18.9329 c 0.1352,4.3745 1.1292,9.8394 6.8419,16.6746 z"
      id="path1478"
      fill="#1a1a1a"
      stroke="#4d4d4d"
      stroke-width="9.95391369"
    />
    <rect
      y="-260.05304"
      x="1185.0594"
      height="4.5658584"
      width="147.42999"
      id="rect1468"
      transform="scale(1,-1)"
      fill="#b3b3b3"
      fill-opacity="0.40392157"
      stroke="#999999"
      stroke-width="9.76489449"
    />
    <circle
      r="25"
      cy="-172.39165"
      cx="814.7196"
      id="connector0pin"
      transform="scale(1,-1)"
      fill="none"
      stroke="none"
      stroke-width="0"
    />
    <circle
      id="connector1pin"
      cx="924.9696"
      cy="-172.7249"
      r="25"
      transform="scale(1,-1)"
      fill="none"
      stroke="none"
      stroke-width="0"
    />
    <circle
      r="25"
      cy="-172.7249"
      cx="1031.2196"
      id="connector2pin"
      transform="scale(1,-1)"
      fill="none"
      stroke="none"
      stroke-width="0"
    />
    <ellipse
      ry="25"
      rx="24.999998"
      id="connector3pin"
      cx="1147.8862"
      cy="-172.7249"
      transform="scale(1,-1)"
      fill="none"
      stroke="none"
      stroke-width="0"
    />
    <ellipse
      ry="29"
      rx="28.999998"
      cy="-176.7249"
      cx="1257.4382"
      id="connector4pin"
      transform="scale(1,-1)"
      fill="none"
      stroke="none"
      stroke-width="0"
    />
    <circle
      id="connector5pin"
      cx="1368.8862"
      cy="-176.7249"
      r="29"
      transform="scale(1,-1)"
      fill="none"
      stroke="none"
      stroke-width="0"
    />
    <circle
      r="29"
      cy="-176.7249"
      cx="1481.3862"
      id="connector6pin"
      transform="scale(1,-1)"
      fill="none"
      stroke="none"
      stroke-width="0"
    />
    <circle
      id="connector7pin"
      cx="1594.9279"
      cy="-176.7249"
      r="29"
      transform="scale(1,-1)"
      fill="none"
      stroke="none"
      stroke-width="0"
    />
    <circle
      r="29"
      cy="-176.7249"
      cx="1703.2612"
      id="connector8pin"
      transform="scale(1,-1)"
      fill="none"
      stroke="none"
      stroke-width="0"
    />
    <rect
      id="connector9pin"
      width="40"
      height="39.999996"
      x="1240.1145"
      y="-278.66702"
      transform="scale(1,-1)"
      fill="none"
      stroke="none"
      stroke-width="0"
    />
  </g>
</svg>
