<?xml version='1.0' encoding='UTF-8' standalone='no'?>
<svg
  xmlns="http://www.w3.org/2000/svg"
  xmlns:svg="http://www.w3.org/2000/svg"
  xmlns:rdf="http://www.w3.org/1999/02/22-rdf-syntax-ns#"
  xmlns:cc="http://creativecommons.org/ns#"
  xmlns:dc="http://purl.org/dc/elements/1.1/"
  enable-background="new 0 0 58.176 63.3"
  gorn="0"
  version="1.1"
  y="0px"
  id="Ebene_1"
  xml:space="preserve"
  height="0.71539468in"
  viewBox="0 0 852.43298 715.39489"
  width="0.85243273in"
  x="0px">
  <metadata
    id="metadata198">
    <rdf:RDF>
      <cc:Work
        rdf:about="">
        <dc:format>image/svg+xml</dc:format>
        <dc:type
          rdf:resource="http://purl.org/dc/dcmitype/StillImage"
        />
      </cc:Work>
    </rdf:RDF>
  </metadata>
  <defs
    id="defs196">
  </defs>
  <desc
    id="desc2">
    <referenceFile>te-slimline-pcb-relay-pcn_1_breadboard.svg</referenceFile>
  </desc>
  <g
    id="breadboard">
    <line
      x1="210.00006"
      stroke="#555555"
      y1="705.06726"
      gorn="0.1.26"
      id="line480"
      fill="none"
      stroke-width="20"
      stroke-linecap="round"
      y2="595.23907"
      x2="210.00006"
    />
    <line
      x1="510.00015"
      stroke="#555555"
      y1="705.06726"
      gorn="0.1.26"
      id="line476"
      fill="none"
      stroke-width="20"
      stroke-linecap="round"
      y2="595.23907"
      x2="510.00015"
    />
    <line
      x1="710.00024"
      stroke="#555555"
      y1="705.06726"
      gorn="0.1.26"
      id="line478"
      fill="none"
      stroke-width="20"
      stroke-linecap="round"
      y2="595.23907"
      x2="710.00024"
    />
    <line
      x1="110.00002"
      stroke="#555555"
      y1="705.3949"
      gorn="0.1.26"
      id="line474"
      fill="none"
      stroke-width="20"
      stroke-linecap="round"
      y2="595.2666"
      x2="110.00002"
    />
    <rect
      id="rect453"
      width="780.5354"
      height="123.22451"
      x="71.262032"
      y="5.4327226"
      transform="matrix(0.99999979,6.4834028e-4,-0.54092007,0.841074,0,0)"
      fill="#b3b3b3"
      stroke="none"
      stroke-width="0"
    />
    <rect
      id="rect455"
      width="787.40186"
      height="492.12613"
      x="0"
      y="105.97978"
      fill="#e6e6e6"
      stroke="none"
      stroke-width="0"
    />
    <rect
      id="rect457"
      width="131.96509"
      height="490.05649"
      x="1444.2125"
      y="1325.7805"
      transform="matrix(0.54082291,-0.84113648,0,1,0,0)"
      fill="#cccccc"
      stroke="none"
      stroke-width="0"
    />
    <text
      fill="#000000"
      font-family="OCRA"
      id="text3685"
      font-size="48.611"
      y="226.90527"
      x="114.81603">TE</text>
    <text
      fill="#000000"
      font-family="OCRA"
      id="text499"
      font-size="48.611"
      y="292.79486"
      x="114.81603">PCN-124D3MHZ-001</text>
    <rect
      id="connector0pin"
      width="20.000006"
      height="20.000006"
      x="100.00003"
      y="694.87854"
      fill="none"
      stroke="none"
      stroke-width="0"
    />
    <rect
      id="connector1pin"
      width="20.000006"
      height="20.000006"
      x="200.00006"
      y="694.87854"
      fill="none"
      stroke="none"
      stroke-width="0"
    />
    <rect
      id="connector2pin"
      width="20.000006"
      height="20.000006"
      x="500.00015"
      y="694.87854"
      fill="none"
      stroke="none"
      stroke-width="0"
    />
    <rect
      id="connector3pin"
      width="20.000006"
      height="20.000006"
      x="700.00024"
      y="694.87854"
      fill="none"
      stroke="none"
      stroke-width="0"
    />
  </g>
</svg>
