<?xml version='1.0' encoding='UTF-8' standalone='no'?>
<svg
  xmlns="http://www.w3.org/2000/svg"
  xmlns:svg="http://www.w3.org/2000/svg"
  xmlns:rdf="http://www.w3.org/1999/02/22-rdf-syntax-ns#"
  xmlns:cc="http://creativecommons.org/ns#"
  xmlns:dc="http://purl.org/dc/elements/1.1/"
  id="svg2"
  y="0in"
  version="1.2"
  height="0.70866144in"
  width="2.546159in"
  x="0in"
  viewBox="0 0 2546.1588 708.66139">
  <metadata
    id="metadata24">
    <rdf:RDF>
      <cc:Work
        rdf:about="">
        <dc:format>image/svg+xml</dc:format>
        <dc:type
          rdf:resource="http://purl.org/dc/dcmitype/StillImage"
        />
      </cc:Work>
    </rdf:RDF>
  </metadata>
  <defs
    id="defs22"
  />
  <desc
    id="desc4">
    <referenceFile>high-voltage-igniter_1_breadboard.svg</referenceFile>
  </desc>
  <g
    id="breadboard">
    <rect
      y="0"
      height="708.66138"
      width="2125.9841"
      x="378.2677"
      gorn="0.1.0"
      id="upper"
      stroke-width="0"
      fill="#008000"
    />
    <polygon
      id="_x30_.1.15.0.0.0.0"
      points="3.229,35.772 19.208,35.772 19.208,15.015 3.229,15.015 3.229,21.262 3.597,21.262 3.597,29.526 3.229,29.526 "
      transform="matrix(13.888888,0,0,13.888896,1781.8326,41.411672)"
      fill="#cccccc"
    />
    <polygon
      id="_x30_.1.15.0.0.0.1"
      points="21.768,15.015 5.908,15.015 5.908,35.772 21.768,35.772 21.768,29.526 21.399,29.526 21.399,21.262 21.768,21.262 "
      transform="matrix(13.888888,0,0,13.888896,1781.8326,41.411672)"
      fill="#cccccc"
    />
    <ellipse
      id="_x30_.1.15.0.0.0.2"
      cx="1955.3889"
      cy="394.12015"
      rx="71.069443"
      ry="71.069481"
      fill="#641d1c"
      stroke-width="13.8889"
    />
    <path
      id="_x30_.1.15.0.0.0.3"
      d="m 1958.8603,465.16189 c 39.2639,0 71.0833,-31.79167 71.0833,-71.02781 0,-39.25002 -31.7916,-71.11114 -71.0833,-71.11114 h -3.4583 c 39.2639,0 71.0833,31.83334 71.0833,71.11114 0,39.23614 -31.8194,71.02781 -71.0833,71.02781 z"
      enable-background="new    "
      opacity="0.2"
      stroke-width="13.8889"
    />
    <ellipse
      id="_x30_.1.15.0.0.0.4"
      cx="1955.4023"
      cy="394.12015"
      rx="68.472221"
      ry="68.472252"
      fill="#852725"
      stroke-width="13.8889"
    />
    <ellipse
      id="_x30_.1.15.0.0.0.5"
      cx="1953.7917"
      cy="394.12015"
      rx="68.458328"
      ry="68.458366"
      fill="#b3b3b3"
      stroke-width="13.8889"
    />
    <path
      enable-background="new    "
      d="m 1886.9436,395.7452 c 0,37.83335 30.6389,68.48614 68.4862,68.48614 37.8333,0 68.4583,-30.65279 68.4583,-68.48614 v -3.23612 c 0,37.83336 -30.6667,68.48615 -68.4583,68.48615 -37.8473,0 -68.4862,-30.65279 -68.4862,-68.48615 z"
      id="_x30_.1.15.0.0.0.6.0"
      opacity="0.1"
      stroke-width="13.8889"
    />
    <path
      enable-background="new    "
      d="m 2023.8742,395.7452 c 0,-37.84724 -30.6667,-68.47225 -68.4583,-68.47225 -37.8473,0 -68.4861,30.62501 -68.4861,68.47225 v -3.23612 c 0,-37.83334 30.6388,-68.48614 68.4861,-68.48614 37.8333,0 68.4583,30.6528 68.4583,68.48614 z"
      id="_x30_.1.15.0.0.0.6.1"
      opacity="0.2"
      fill="#ffffff"
      stroke-width="13.8889"
    />
    <rect
      enable-background="new    "
      height="5.1527772"
      width="86.777824"
      x="-336.68271"
      y="1826.6826"
      id="_x30_.1.15.0.0.0.7.0"
      transform="rotate(-90)"
      opacity="0.2"
      fill="#ffffff"
      stroke-width="13.8889"
    />
    <rect
      enable-background="new    "
      height="5.1527772"
      width="86.722275"
      x="-538.20581"
      y="1826.686"
      id="_x30_.1.15.0.0.0.8.0"
      transform="rotate(-90)"
      opacity="0.2"
      fill="#ffffff"
      stroke-width="13.8889"
    />
    <rect
      enable-background="new    "
      height="5.1111107"
      width="114.8056"
      x="-451.47141"
      y="1831.7959"
      id="_x30_.1.15.0.0.0.9.0"
      transform="rotate(-90)"
      opacity="0.2"
      fill="#ffffff"
      stroke-width="13.8889"
    />
    <rect
      enable-background="new    "
      height="5.1111107"
      width="86.777824"
      x="-336.68338"
      y="2078.8696"
      id="_x30_.1.15.0.0.0.10.0"
      transform="rotate(-90)"
      opacity="0.2"
      stroke-width="13.8889"
    />
    <rect
      enable-background="new    "
      height="5.1249995"
      width="86.722275"
      x="-538.19128"
      y="2078.8223"
      id="_x30_.1.15.0.0.0.11.0"
      transform="rotate(-90)"
      opacity="0.2"
      stroke-width="13.8889"
    />
    <rect
      enable-background="new    "
      height="5.1249995"
      width="114.8195"
      x="-451.49149"
      y="2073.7122"
      id="_x30_.1.15.0.0.0.12.0"
      transform="rotate(-90)"
      opacity="0.2"
      stroke-width="13.8889"
    />
    <rect
      height="31.263887"
      width="38.194466"
      x="538.5647"
      y="-1885.9714"
      id="_x30_.1.15.0.1.0"
      transform="rotate(90)"
      fill="#e6e6e6"
      stroke-width="13.8889"
    />
    <rect
      height="31.277777"
      width="38.194466"
      x="538.5647"
      y="-2056.124"
      id="_x30_.1.15.0.1.1"
      transform="rotate(90)"
      fill="#e6e6e6"
      stroke-width="13.8889"
    />
    <rect
      height="31.263887"
      width="38.194466"
      x="213.91183"
      y="-1885.9714"
      id="_x30_.1.15.0.1.3"
      transform="rotate(90)"
      fill="#e6e6e6"
      stroke-width="13.8889"
    />
    <rect
      height="31.277777"
      width="38.194466"
      x="213.91183"
      y="-2056.124"
      id="_x30_.1.15.0.1.4"
      transform="rotate(90)"
      fill="#e6e6e6"
      stroke-width="13.8889"
    />
    <rect
      enable-background="new    "
      height="31.263887"
      width="4.6388907"
      x="213.91183"
      y="-1885.9714"
      id="_x30_.1.15.0.1.6"
      transform="rotate(90)"
      opacity="0.2"
      fill="#ffffff"
      stroke-width="13.8889"
    />
    <rect
      enable-background="new    "
      height="31.277777"
      width="4.6388907"
      x="213.91183"
      y="-2056.124"
      id="_x30_.1.15.0.1.7"
      transform="rotate(90)"
      opacity="0.2"
      fill="#ffffff"
      stroke-width="13.8889"
    />
    <rect
      enable-background="new    "
      height="31.263887"
      width="1.4444453"
      x="575.92578"
      y="-1886.2361"
      id="_x30_.1.15.0.1.8"
      transform="rotate(90)"
      opacity="0.2"
      stroke-width="13.8889"
    />
    <rect
      enable-background="new    "
      height="31.277777"
      width="1.4444453"
      x="575.92578"
      y="-2056.3884"
      id="_x30_.1.15.0.1.9"
      transform="rotate(90)"
      opacity="0.2"
      stroke-width="13.8889"
    />
    <rect
      enable-background="new    "
      height="31.263887"
      width="4.6388907"
      x="538.78687"
      y="-1885.7917"
      id="_x30_.1.15.0.1.10"
      transform="rotate(90)"
      opacity="0.1"
      stroke-width="13.8889"
    />
    <rect
      enable-background="new    "
      height="31.277777"
      width="4.6388907"
      x="538.78687"
      y="-2055.9443"
      id="_x30_.1.15.0.1.11"
      transform="rotate(90)"
      opacity="0.1"
      stroke-width="13.8889"
    />
    <path
      d="m 1238.4177,479.3147 32.749,23.9709 h 143.0189 V 224.41284 h -143.0189 l -32.749,23.9709 z m 137.0731,-116.47834 c 0,24.24288 -19.6569,43.90915 -43.8904,43.90915 -24.2429,0 -43.9091,-19.66627 -43.9091,-43.90915 0,-24.23349 19.6662,-43.89038 43.9091,-43.89038 24.2335,0 43.8904,19.65689 43.8904,43.89038 z"
      id="path4"
      fill="#b2b2b2"
      stroke-width="13.889"
    />
    <path
      d="m 1305.8758,362.83636 c 0,-21.11052 14.9302,-38.73232 34.8122,-42.92442 -2.9354,-0.60959 -5.9646,-0.96596 -9.0876,-0.96596 -24.2429,0 -43.9091,19.65689 -43.9091,43.89038 0,24.24288 19.6662,43.90915 43.9091,43.90915 3.123,0 6.1428,-0.347 9.0876,-0.97535 -19.882,-4.19209 -34.8122,-21.81389 -34.8122,-42.9338 z"
      id="path9-2"
      fill="#8c8c8c"
      stroke-width="13.889"
    />
    <rect
      x="-503.28561"
      height="198.11633"
      y="1478.6707"
      width="278.87277"
      id="rect11"
      transform="rotate(-90)"
      stroke-width="13.889"
    />
    <rect
      x="-503.28561"
      height="1.36923"
      y="1676.7871"
      enable-background="new    "
      width="278.87277"
      id="rect13"
      transform="rotate(-90)"
      opacity="0.2"
      stroke-width="13.889"
    />
    <path
      d="m 1533.1773,246.09544 c -11.976,0 -21.6919,-9.70653 -21.6919,-21.69198 H 1405.9796 V 503.2856 h 105.5058 c 0,-11.97607 9.7065,-21.69198 21.6919,-21.69198 11.9761,0 21.692,9.71591 21.692,21.69198 h 62.1312 V 224.41284 h -62.1312 c 0,11.97607 -9.7065,21.6826 -21.692,21.6826 z"
      id="path15-7"
      fill="#333333"
      stroke-width="13.889"
    />
    <rect
      x="-503.28561"
      height="15.239717"
      y="1405.989"
      width="278.87277"
      id="rect17"
      transform="rotate(-90)"
      fill="#4d4d4d"
      stroke-width="13.889"
    />
    <rect
      x="-443.68655"
      height="40.514206"
      y="1729.99"
      width="26.653093"
      id="rect19"
      transform="rotate(-90)"
      fill="#b3b3b3"
      stroke-width="13.889"
    />
    <rect
      x="-376.16293"
      height="40.514206"
      y="1729.99"
      width="26.653093"
      id="rect21"
      transform="rotate(-90)"
      fill="#b3b3b3"
      stroke-width="13.889"
    />
    <rect
      x="-308.63925"
      height="40.514206"
      y="1729.99"
      width="26.662472"
      id="rect23-7"
      transform="rotate(-90)"
      fill="#b3b3b3"
      stroke-width="13.889"
    />
    <rect
      x="-446.30313"
      height="58.6143"
      y="1642.7908"
      width="31.886179"
      id="rect25-7"
      transform="rotate(-90)"
      fill="#e6e6e6"
      stroke-width="13.889"
    />
    <rect
      x="-378.77945"
      height="58.6143"
      y="1642.7908"
      width="31.876799"
      id="rect27"
      transform="rotate(-90)"
      fill="#e6e6e6"
      stroke-width="13.889"
    />
    <rect
      x="-311.25577"
      height="58.6143"
      y="1642.7908"
      width="31.876799"
      id="rect29"
      transform="rotate(-90)"
      fill="#e6e6e6"
      stroke-width="13.889"
    />
    <rect
      x="-443.68655"
      height="87.199326"
      y="1642.7908"
      width="26.653093"
      id="rect31"
      transform="rotate(-90)"
      fill="#cccccc"
      stroke-width="13.889"
    />
    <rect
      x="-376.16293"
      height="87.199326"
      y="1642.7908"
      width="26.653093"
      id="rect33"
      transform="rotate(-90)"
      fill="#cccccc"
      stroke-width="13.889"
    />
    <rect
      x="-308.63925"
      height="87.199326"
      y="1642.7908"
      width="26.662472"
      id="rect35"
      transform="rotate(-90)"
      fill="#cccccc"
      stroke-width="13.889"
    />
    <polygon
      points="27.18,0 2.556,0 0,3.492 0,4.395 2.556,0.903 27.18,0.903 29.736,4.395 29.736,3.492 "
      enable-background="new    "
      id="polygon41"
      transform="matrix(0,-9.3782877,9.3782877,0,1238.4177,503.2856)"
      opacity="0.2"
      fill="#ffffff"
      stroke-width="1.48097"
    />
    <path
      d="m 1537.285,481.603 c -11.9761,0 -21.692,9.70653 -21.692,21.69198 h -4.1076 c 0,-11.97608 9.7065,-21.69198 21.6919,-21.69198 z"
      enable-background="new    "
      id="path43"
      opacity="0.1"
      fill="#ffffff"
      stroke-width="13.889"
    />
    <path
      d="m 1515.593,224.41284 c 0,11.97607 9.6972,21.69198 21.692,21.69198 h -4.1077 c -11.976,0 -21.6919,-9.70653 -21.6919,-21.69198 z"
      enable-background="new    "
      id="path45"
      opacity="0.1"
      fill="#ffffff"
      stroke-width="13.889"
    />
    <rect
      x="-503.28561"
      height="2.6540554"
      y="1642.9314"
      enable-background="new    "
      width="278.87277"
      id="rect47"
      transform="rotate(-90)"
      opacity="0.2"
      stroke-width="13.889"
    />
    <text
      fill="#ffffff"
      font-family="OCRA"
      x="-566.89514"
      y="2192.9211"
      font-size="48.611"
      id="text3683"
      transform="rotate(-90)">DC 3-5V/5A</text>
    <rect
      id="rect1524"
      width="626.25378"
      height="589.06989"
      x="589.58667"
      y="69.805756"
      fill="#d38d5f"
      stroke="#000000"
      stroke-width="40"
    />
    <rect
      y="59.182831"
      id="rect3542"
      x="1362.6431"
      width="214.00882"
      height="72.025719"
      fill="#4d4d4d"
      stroke-width="0.967695"
    />
    <rect
      y="59.182831"
      id="rect3544"
      x="1362.6431"
      enable-background="new    "
      width="214.00882"
      height="1.2358018"
      fill="#ffffff"
      opacity="0.2"
      stroke-width="0.967695"
    />
    <rect
      id="rect3546"
      x="1362.6431"
      y="113.71915"
      width="214.00882"
      height="21.465294"
      fill="#333333"
      stroke-width="0.967695"
    />
    <rect
      id="rect3548"
      x="1362.6431"
      enable-background="new    "
      y="134.45932"
      width="214.00882"
      height="0.85968721"
      opacity="0.2"
      stroke-width="0.967695"
    />
    <path
      id="path3550"
      d="m 1545.5685,59.182812 v 0 0 h -2.4985 v 0 c -2.1492,6.74318 -3.6268,21.38483 -3.6268,28.88023 0,7.8178 1.2895,18.617618 3.6268,25.656338 v 0 0 l 32.8562,-1.9e-4 V 59.182812 Z"
      fill="#dcdcdc"
      stroke-width="0.967695"
    />
    <path
      id="path3552"
      d="m 1396.0902,61.976792 v -2.79398 h -32.8293 v 54.536378 h 32.8562 c 2.3641,-7.06541 5.1849,-17.704048 5.1849,-25.629448 0,-9.29527 -2.0148,-18.0265 -5.2118,-26.11295 z"
      fill="#dcdcdc"
      stroke-width="0.967695"
    />
    <path
      id="path3554"
      d="m 1576.1138,116.56705 h -32.8558 l -0.188,-2.84786 h 32.8562 z"
      fill="#999999"
      stroke-width="0.967695"
    />
    <path
      id="path3556"
      d="m 1363.422,116.62063 h 32.8562 l -0.188,-2.90144 h -32.8294 l 0.1611,2.90144 z"
      fill="#999999"
      stroke-width="0.967695"
    />
    <rect
      id="rect3558"
      x="1363.2607"
      enable-background="new    "
      y="134.08304"
      width="32.856182"
      height="1.2358018"
      opacity="0.15"
      stroke-width="0.967695"
    />
    <rect
      y="59.182831"
      id="rect3560"
      x="1363.2607"
      enable-background="new    "
      width="32.856182"
      height="1.2358018"
      fill="#ffffff"
      opacity="0.5"
      stroke-width="0.967695"
    />
    <rect
      id="rect3562"
      x="1543.0969"
      enable-background="new    "
      y="134.08304"
      width="32.883068"
      height="1.2358018"
      opacity="0.15"
      stroke-width="0.967695"
    />
    <rect
      y="59.182831"
      id="rect3564"
      x="1543.0969"
      enable-background="new    "
      width="32.883068"
      height="1.2358018"
      fill="#ffffff"
      opacity="0.5"
      stroke-width="0.967695"
    />
    <line
      id="line3566"
      x2="1383.1141"
      y1="135.31894"
      y2="135.31894"
      x1="1383.1141"
      fill="none"
      stroke-width="0.967695"
    />
    <rect
      id="rect3568"
      x="1573.4541"
      y="116.56705"
      width="3.1701021"
      height="18.590752"
      fill="#999999"
      stroke-width="0.967695"
    />
    <rect
      id="rect3570"
      x="1363.2607"
      y="116.56705"
      width="3.1969695"
      height="18.590752"
      fill="#999999"
      stroke-width="0.967695"
    />
    <rect
      height="72.025719"
      width="214.00882"
      x="1362.6431"
      id="rect3574"
      y="59.182831"
      fill="#4d4d4d"
      stroke-width="0.967695"
    />
    <rect
      height="1.2358018"
      width="214.00882"
      enable-background="new    "
      x="1376.8625"
      id="rect3576"
      y="59.182831"
      fill="#ffffff"
      opacity="0.2"
      stroke-width="0.967695"
    />
    <rect
      height="21.465294"
      width="214.00882"
      y="113.71915"
      x="1362.6431"
      id="rect3578"
      fill="#333333"
      stroke-width="0.967695"
    />
    <rect
      height="0.85968721"
      width="214.00882"
      y="134.45932"
      enable-background="new    "
      x="1362.6431"
      id="rect3580"
      opacity="0.2"
      stroke-width="0.967695"
    />
    <path
      d="m 1545.5685,59.182812 v 0 0 h -2.4985 v 0 c -2.1492,6.74318 -3.6268,21.38483 -3.6268,28.88023 0,7.8178 1.2895,18.617618 3.6268,25.656338 v 0 0 l 32.8562,-1.9e-4 V 59.182812 Z"
      id="path3582"
      fill="#dcdcdc"
      stroke-width="0.967695"
    />
    <path
      d="m 1396.0902,61.976792 v -2.79398 h -32.8293 v 54.536378 h 32.8562 c 2.3641,-7.06541 5.1849,-17.704048 5.1849,-25.629448 0,-9.29527 -2.0148,-18.0265 -5.2118,-26.11295 z"
      id="path3584"
      fill="#dcdcdc"
      stroke-width="0.967695"
    />
    <path
      d="m 1576.1138,116.56705 h -32.8558 l -0.188,-2.84786 h 32.8562 z"
      id="path3586"
      fill="#999999"
      stroke-width="0.967695"
    />
    <path
      d="m 1363.422,116.62063 h 32.8562 l -0.188,-2.90144 h -32.8294 l 0.1611,2.90144 z"
      id="path3588"
      fill="#999999"
      stroke-width="0.967695"
    />
    <rect
      height="1.2358018"
      width="32.856182"
      y="134.08304"
      enable-background="new    "
      x="1363.2607"
      id="rect3590"
      opacity="0.15"
      stroke-width="0.967695"
    />
    <rect
      height="1.2358018"
      width="32.856182"
      enable-background="new    "
      x="1363.2607"
      id="rect3592"
      y="59.182831"
      fill="#ffffff"
      opacity="0.5"
      stroke-width="0.967695"
    />
    <rect
      height="1.2358018"
      width="32.883068"
      y="134.08304"
      enable-background="new    "
      x="1543.0969"
      id="rect3594"
      opacity="0.15"
      stroke-width="0.967695"
    />
    <rect
      height="1.2358018"
      width="32.883068"
      enable-background="new    "
      x="1543.0969"
      id="rect3596"
      y="59.182831"
      fill="#ffffff"
      opacity="0.5"
      stroke-width="0.967695"
    />
    <line
      x1="1383.1141"
      y2="135.31894"
      y1="135.31894"
      x2="1383.1141"
      id="line3598"
      fill="none"
      stroke-width="0.967695"
    />
    <rect
      height="18.590752"
      width="3.1701021"
      y="116.56705"
      x="1573.4541"
      id="rect3600"
      fill="#999999"
      stroke-width="0.967695"
    />
    <rect
      height="18.590752"
      width="3.1969695"
      y="116.56705"
      x="1363.2607"
      id="rect3602"
      fill="#999999"
      stroke-width="0.967695"
    />
    <polygon
      id="background"
      fill="#254e89"
      points="0,157.607 196.012,157.607 196.012,72.4061 200,72.4061 200,39.9487 196.012,39.9487 196.012,0 0,0 0,39.9487 3.98829,39.9487 3.98829,72.4061 0,72.4061 "
      gorn="0.0.0"
      transform="matrix(0,-1.7644428,1.7644428,0,2246.2769,550.95719)"
      stroke-width="0.553913"
    />
    <rect
      x="-547.85889"
      stroke-width="0"
      id="upperstripe"
      width="340.08752"
      y="2250.4792"
      fill="#456dab"
      height="10.163825"
      gorn="0.0.1"
      transform="rotate(-90)"
    />
    <rect
      x="-550.95715"
      stroke-width="0"
      id="lowerrect"
      width="345.85196"
      y="2398.2214"
      fill="#123c66"
      height="126.11955"
      gorn="0.0.2"
      transform="rotate(-90)"
    />
    <path
      fill="#3a5c8e"
      d="m 2390.9406,464.44621 c 0,-33.62446 -27.8039,-61.00438 -62.0581,-61.00438 v 122.03276 c 34.2785,0.024 62.0581,-27.33176 62.0581,-61.02838 z"
      id="path7"
      stroke-width="0.977348"
    />
    <path
      fill="#123c66"
      d="m 2266.8489,464.44621 c 0,33.67245 27.8284,61.02838 62.0336,61.02838 V 403.44183 c -34.254,1.8e-4 -62.0336,27.33193 -62.0336,61.00438 z"
      id="path9"
      stroke-width="0.977348"
    />
    <path
      fill="#8b8b8b"
      d="m 2379.213,464.44621 c 0,27.33192 -22.5755,49.52398 -50.3794,49.52398 -27.755,0 -50.3549,-22.19206 -50.3549,-49.52398 0,-27.30793 22.5755,-49.50003 50.3549,-49.50003 27.8039,0.0242 50.3794,22.21627 50.3794,49.50003 z"
      id="path13"
      stroke-width="0.977348"
    />
    <path
      d="m 2279.456,464.44621 c 0,-26.82747 22.1357,-48.5393 49.3776,-48.5393 27.2665,0 49.4021,21.71183 49.4021,48.5393 0,26.82747 -22.1356,48.58748 -49.4021,48.58748 -27.2419,0.024 -49.3776,-21.73584 -49.3776,-48.58748 m -1.808,0 c 0,27.78821 22.9909,50.43658 51.259,50.43658 28.2681,0 51.3079,-22.60038 51.3079,-50.43658 0,-27.74022 -22.9664,-50.38861 -51.3079,-50.38861 -28.2683,0.024 -51.259,22.62457 -51.259,50.38861 z"
      id="path15"
      stroke-width="1"
    />
    <path
      fill="#707070"
      d="m 2317.2772,511.56847 c 3.7381,0.88872 7.6473,1.48922 11.6298,1.48922 4.0313,0 7.8672,-0.6005 11.7031,-1.48911 v -94.19654 c -3.7382,-0.88865 -7.6229,-1.48908 -11.7031,-1.48908 -3.9825,0 -7.8183,0.5524 -11.6298,1.48908 z"
      id="path19"
      stroke-width="0.977348"
    />
    <rect
      x="-475.90256"
      stroke-width="0"
      width="22.864708"
      y="2287.0056"
      fill="#545252"
      height="83.753868"
      id="rect23"
      transform="rotate(-90)"
    />
    <rect
      x="-500.47244"
      stroke-width="0"
      width="72.028435"
      y="2317.2771"
      fill="#545252"
      height="23.235065"
      id="rect25"
      transform="rotate(-90)"
    />
    <path
      d="m 2283.5361,464.44621 c 0,-24.52188 20.3522,-44.52836 45.2975,-44.52836 24.9942,0 45.3218,20.00648 45.3218,44.52836 0,24.56986 -20.3521,44.57635 -45.3218,44.57635 -24.9453,0.0242 -45.2975,-19.98231 -45.2975,-44.57635 m -4.0801,0 c 0,26.82747 22.1357,48.58728 49.3776,48.58728 27.2665,0 49.4021,-21.75981 49.4021,-48.58728 0,-26.82747 -22.1356,-48.5393 -49.4021,-48.5393 -27.2419,-0.048 -49.3776,21.71183 -49.3776,48.5393 z"
      id="path29"
      opacity="0.5"
      stroke-width="1"
    />
    <rect
      x="-525.49878"
      stroke-width="0"
      width="122.05674"
      y="2412.0745"
      fill="#103656"
      height="49.670826"
      id="rect38"
      transform="rotate(-90)"
    />
    <rect
      x="-525.49878"
      stroke-width="0"
      width="122.05674"
      y="2461.77"
      fill="#254e89"
      height="51.527729"
      id="rect40"
      transform="rotate(-90)"
    />
    <rect
      x="-494.34805"
      stroke-width="0"
      width="59.755505"
      y="2462.4053"
      fill="#254e89"
      height="61.886951"
      id="rect42"
      transform="rotate(-90)"
    />
    <rect
      x="-520.50305"
      stroke-width="0"
      width="112.11358"
      y="2416.4233"
      fill="#8d8c8c"
      height="93.282562"
      id="rect44"
      transform="rotate(-90)"
    />
    <path
      fill="#a0a0a0"
      d="m 2504.2331,464.44621 c 0,-26.58733 -16.0275,-48.22699 -35.9154,-48.22699 v 96.55017 c 19.8872,-0.048 35.9154,-21.66369 35.9154,-48.32318 z"
      id="path46"
      stroke-width="0.977348"
    />
    <path
      fill="#565656"
      d="m 2432.5738,464.44621 c 0,26.63532 16.0276,48.32318 35.8422,48.32318 v -96.55017 c -19.8157,0.024 -35.8422,21.59166 -35.8422,48.22699 z"
      id="path48"
      stroke-width="0.977348"
    />
    <ellipse
      stroke-width="0"
      cy="2468.4148"
      rx="37.419243"
      fill="#383838"
      cx="-464.47037"
      ry="27.803913"
      id="ellipse50"
      transform="rotate(-90)"
    />
    <polygon
      fill="#919291"
      points="76.989,103.271 67.0115,116.467 30.8446,116.467 21.8335,103.631 17.2599,103.271 18.1175,96.0569 80.8004,96.9431 79.9292,104.157 "
      id="polygon52"
      transform="matrix(0,-1.7644428,1.7644428,0,2246.2769,550.95719)"
      stroke-width="0.553913"
    />
    <path
      fill="#57585a"
      d="m 2418.8911,411.46369 h 8.0382 l 1e-4,3.62664 v 1.56118 l 1.2704,0.88875 22.0132,15.92357 v 61.53265 l -22.0379,16.18788 -1.2457,0.93653 v 1.5132 3.7706 h -8.0383 v -105.941 m -3.1273,-3.07418 v 112.11358 h 14.2929 v -6.845 l 23.2839,-17.12443 v -64.55902 l -23.2839,-16.83625 v -6.70087 z"
      id="path54"
      stroke-width="0.977348"
    />
    <rect
      x="-489.5925"
      stroke-width="0"
      width="50.292622"
      y="2509.364"
      fill="#8c8c8c"
      height="36.770634"
      id="rect60"
      transform="rotate(-90)"
    />
    <path
      fill="#3a5c8e"
      d="m 2390.9406,288.00193 c 0,-33.62446 -27.8039,-61.00438 -62.0581,-61.00438 V 349.0303 c 34.2785,0.0242 62.0581,-27.33175 62.0581,-61.02837 z"
      id="path66"
      stroke-width="0.977348"
    />
    <path
      fill="#123c66"
      d="m 2266.8489,288.00193 c 0,33.67245 27.8284,61.02837 62.0336,61.02837 V 226.99755 c -34.254,1.8e-4 -62.0336,27.33193 -62.0336,61.00438 z"
      id="path68"
      stroke-width="0.977348"
    />
    <path
      fill="#8b8b8b"
      d="m 2379.213,288.00193 c 0,27.33192 -22.5755,49.52402 -50.3794,49.52402 -27.755,0 -50.3549,-22.1921 -50.3549,-49.52402 0,-27.30793 22.5755,-49.50003 50.3549,-49.50003 27.8039,0.0242 50.3794,22.21627 50.3794,49.50003 z"
      id="path72"
      stroke-width="0.977348"
    />
    <path
      d="m 2279.456,288.00193 c 0,-26.82747 22.1357,-48.5393 49.3776,-48.5393 27.2665,0 49.4021,21.71183 49.4021,48.5393 0,26.82747 -22.1356,48.58746 -49.4021,48.58746 -27.2419,0.024 -49.3776,-21.73582 -49.3776,-48.58746 m -1.808,0 c 0,27.78821 22.9909,50.43659 51.259,50.43659 28.2681,0 51.3079,-22.60039 51.3079,-50.43659 0,-27.74022 -22.9664,-50.38861 -51.3079,-50.38861 -28.2683,0.024 -51.259,22.62457 -51.259,50.38861 z"
      id="path74"
      stroke-width="1"
    />
    <path
      fill="#707070"
      d="m 2317.2772,335.12419 c 3.7381,0.88875 7.6473,1.48919 11.6298,1.48919 4.0313,0 7.8672,-0.60043 11.7031,-1.48908 v -94.19654 c -3.7382,-0.88865 -7.6229,-1.48908 -11.7031,-1.48908 -3.9825,0 -7.8183,0.5524 -11.6298,1.48908 z"
      id="path78"
      stroke-width="0.977348"
    />
    <rect
      x="-299.45828"
      stroke-width="0"
      width="22.864708"
      y="2287.0056"
      fill="#545252"
      height="83.753868"
      id="rect82"
      transform="rotate(-90)"
    />
    <rect
      x="-324.02817"
      stroke-width="0"
      width="72.028435"
      y="2317.2771"
      fill="#545252"
      height="23.235065"
      id="rect84"
      transform="rotate(-90)"
    />
    <path
      d="m 2283.5361,288.00193 c 0,-24.52188 20.3522,-44.52836 45.2975,-44.52836 24.9942,0 45.3218,20.00648 45.3218,44.52836 0,24.56986 -20.3521,44.57635 -45.3218,44.57635 -24.9453,0.0242 -45.2975,-19.98231 -45.2975,-44.57635 m -4.0801,0 c 0,26.82747 22.1357,48.58728 49.3776,48.58728 27.2665,0 49.4021,-21.75981 49.4021,-48.58728 0,-26.82747 -22.1356,-48.5393 -49.4021,-48.5393 -27.2419,-0.048 -49.3776,21.71183 -49.3776,48.5393 z"
      id="path88"
      opacity="0.5"
      stroke-width="1"
    />
    <rect
      x="-349.05447"
      stroke-width="0"
      width="122.05674"
      y="2412.0745"
      fill="#103656"
      height="49.670826"
      id="rect97"
      transform="rotate(-90)"
    />
    <rect
      x="-349.05447"
      stroke-width="0"
      width="122.05674"
      y="2461.77"
      fill="#254e89"
      height="51.527729"
      id="rect99"
      transform="rotate(-90)"
    />
    <rect
      x="-317.90378"
      stroke-width="0"
      width="59.755505"
      y="2462.4053"
      fill="#254e89"
      height="61.886951"
      id="rect101"
      transform="rotate(-90)"
    />
    <rect
      x="-344.05881"
      stroke-width="0"
      width="112.11358"
      y="2416.4233"
      fill="#8d8c8c"
      height="93.282562"
      id="rect103"
      transform="rotate(-90)"
    />
    <path
      fill="#a0a0a0"
      d="m 2504.2331,288.00193 c 0,-26.58733 -16.0275,-48.22699 -35.9154,-48.22699 v 96.55013 c 19.8872,-0.048 35.9154,-21.66365 35.9154,-48.32314 z"
      id="path105"
      stroke-width="0.977348"
    />
    <path
      fill="#565656"
      d="m 2432.5738,288.00193 c 0,26.63532 16.0276,48.32314 35.8422,48.32314 v -96.55013 c -19.8157,0.024 -35.8422,21.59166 -35.8422,48.22699 z"
      id="path107"
      stroke-width="0.977348"
    />
    <ellipse
      stroke-width="0"
      cy="2468.4148"
      rx="37.419243"
      fill="#383838"
      cx="-288.02609"
      ry="27.803913"
      id="ellipse109"
      transform="rotate(-90)"
    />
    <polygon
      fill="#919291"
      points="76.989,103.271 67.0115,116.467 30.8446,116.467 21.8335,103.631 17.2599,103.271 18.1175,96.0569 80.8004,96.9431 79.9292,104.157 "
      id="polygon111"
      transform="matrix(0,-1.7644428,1.7644428,0,2246.2769,374.51291)"
      stroke-width="0.553913"
    />
    <path
      fill="#57585a"
      d="m 2418.8911,235.01941 h 8.0382 l 1e-4,3.62664 v 1.56118 l 1.2704,0.88875 22.0132,15.92357 v 61.53265 l -22.0379,16.18788 -1.2457,0.93656 v 1.51319 3.77061 h -8.0383 V 235.01941 m -3.1273,-3.07418 V 344.0588 h 14.2929 v -6.84498 l 23.2839,-17.12444 v -64.55902 l -23.2839,-16.83625 v -6.70087 z"
      id="path113"
      stroke-width="0.977348"
    />
    <rect
      x="-313.14822"
      stroke-width="0"
      width="50.292622"
      y="2509.364"
      fill="#8c8c8c"
      height="36.770634"
      id="rect119"
      transform="rotate(-90)"
    />
    <line
      fill="none"
      id="line1"
      stroke="#000000"
      stroke-linecap="round"
      stroke-width="20"
      x1="508.54089"
      x2="593.59619"
      y1="517.96875"
      y2="517.96875"
    />
    <line
      fill="none"
      id="line1760"
      stroke="#000000"
      stroke-linecap="round"
      stroke-width="20"
      x1="505.60532"
      x2="590.66064"
      y1="369.23343"
      y2="369.23343"
    />
    <line
      fill="none"
      id="line1762"
      stroke="#000000"
      stroke-linecap="round"
      stroke-width="20"
      x1="503.64828"
      x2="588.70361"
      y1="220.49814"
      y2="220.49814"
    />
    <line
      fill="none"
      id="line1764"
      stroke="#000000"
      stroke-linecap="round"
      stroke-width="20"
      x1="10"
      x2="580.87537"
      y1="295.84427"
      y2="295.84427"
    />
    <line
      fill="none"
      id="line1766"
      stroke="#000000"
      stroke-linecap="round"
      stroke-width="20"
      x1="10"
      x2="580.87537"
      y1="457.24527"
      y2="457.24527"
    />
    <line
      fill="none"
      id="line1768"
      stroke="#000000"
      stroke-linecap="round"
      stroke-width="20"
      x1="10.732819"
      x2="10.732819"
      y1="347.31241"
      y2="296.06418"
    />
    <line
      fill="none"
      id="line1770"
      stroke="#000000"
      stroke-linecap="round"
      stroke-width="20"
      x1="10.732819"
      x2="10.732819"
      y1="457.54861"
      y2="406.30038"
    />
    <text
      fill="#ffffff"
      font-family="OCRA"
      x="-146.20828"
      y="2371.4363"
      font-size="120"
      id="text2067"
      transform="rotate(-90)">-</text>
    <text
      fill="#ffffff"
      font-family="OCRA"
      x="-706.66284"
      y="2352.0625"
      font-size="120"
      id="text2069"
      transform="rotate(-90)">+</text>
    <circle
      id="path2093"
      cx="2401.1399"
      cy="61.432343"
      r="40"
      fill="#ffffff"
      stroke="#000000"
      stroke-width="0"
    />
    <ellipse
      id="circle2175"
      cx="2401.1399"
      cy="659.84363"
      rx="39.999996"
      ry="40"
      fill="#ffffff"
      stroke="#000000"
      stroke-width="0"
    />
    <ellipse
      id="ellipse2177"
      cx="436.55954"
      cy="659.84363"
      rx="39.999996"
      ry="40"
      fill="#ffffff"
      stroke="#000000"
      stroke-width="0"
    />
    <ellipse
      id="ellipse2179"
      cx="436.55954"
      cy="61.418549"
      rx="39.999996"
      ry="40"
      fill="#ffffff"
      stroke="#000000"
      stroke-width="0"
    />
    <text
      fill="#ffffff"
      font-family="OCRA"
      x="-462.53088"
      y="-181.89761"
      font-size="120"
      id="text2181"
      transform="scale(-1)">3</text>
    <text
      fill="#ffffff"
      font-family="OCRA"
      x="-462.53088"
      y="-327.56027"
      font-size="120"
      id="text2183"
      transform="scale(-1)">2</text>
    <text
      fill="#ffffff"
      font-family="OCRA"
      x="-462.53088"
      y="-473.22952"
      font-size="120"
      id="text2185"
      transform="scale(-1)">1</text>
    <rect
      y="55.268768"
      id="rect2252"
      x="1828.4192"
      width="214.00882"
      height="72.025719"
      fill="#4d4d4d"
      stroke-width="0.967695"
    />
    <rect
      y="55.268768"
      id="rect2254"
      x="1828.4192"
      enable-background="new    "
      width="214.00882"
      height="1.2358018"
      fill="#ffffff"
      opacity="0.2"
      stroke-width="0.967695"
    />
    <rect
      id="rect2256"
      x="1828.4192"
      y="109.80508"
      width="214.00882"
      height="21.465294"
      fill="#333333"
      stroke-width="0.967695"
    />
    <rect
      id="rect2258"
      x="1828.4192"
      enable-background="new    "
      y="130.5452"
      width="214.00882"
      height="0.85968721"
      opacity="0.2"
      stroke-width="0.967695"
    />
    <path
      id="path2260"
      d="m 2011.3448,55.268712 v 0 0 h -2.4985 v 0 c -2.1492,6.74318 -3.6269,21.38483 -3.6269,28.88023 0,7.8178 1.2896,18.617618 3.6269,25.656338 v 0 0 l 32.8561,-1.9e-4 V 55.268712 Z"
      fill="#dcdcdc"
      stroke-width="0.967695"
    />
    <path
      id="path2262"
      d="m 1861.8665,58.062692 v -2.79398 h -32.8294 v 54.536378 h 32.8562 c 2.3642,-7.06541 5.1849,-17.704048 5.1849,-25.629448 0,-9.29527 -2.0147,-18.0265 -5.2117,-26.11295 z"
      fill="#dcdcdc"
      stroke-width="0.967695"
    />
    <path
      id="path2264"
      d="m 2041.8901,112.65295 h -32.8558 l -0.188,-2.84786 h 32.8561 z"
      fill="#999999"
      stroke-width="0.967695"
    />
    <path
      id="path2266"
      d="m 1829.1983,112.70653 h 32.8562 l -0.1881,-2.90144 h -32.8294 l 0.1612,2.90144 z"
      fill="#999999"
      stroke-width="0.967695"
    />
    <rect
      id="rect2268"
      x="1829.0371"
      enable-background="new    "
      y="130.16898"
      width="32.856182"
      height="1.2358018"
      opacity="0.15"
      stroke-width="0.967695"
    />
    <rect
      y="55.268768"
      id="rect2270"
      x="1829.0371"
      enable-background="new    "
      width="32.856182"
      height="1.2358018"
      fill="#ffffff"
      opacity="0.5"
      stroke-width="0.967695"
    />
    <rect
      id="rect2272"
      x="2008.873"
      enable-background="new    "
      y="130.16898"
      width="32.883068"
      height="1.2358018"
      opacity="0.15"
      stroke-width="0.967695"
    />
    <rect
      y="55.268768"
      id="rect2274"
      x="2008.873"
      enable-background="new    "
      width="32.883068"
      height="1.2358018"
      fill="#ffffff"
      opacity="0.5"
      stroke-width="0.967695"
    />
    <line
      id="line2276"
      x2="1848.8904"
      y1="131.40482"
      y2="131.40482"
      x1="1848.8904"
      fill="none"
      stroke-width="0.967695"
    />
    <rect
      id="rect2278"
      x="2039.2305"
      y="112.65298"
      width="3.1701021"
      height="18.590752"
      fill="#999999"
      stroke-width="0.967695"
    />
    <rect
      id="rect2280"
      x="1829.0371"
      y="112.65298"
      width="3.1969695"
      height="18.590752"
      fill="#999999"
      stroke-width="0.967695"
    />
    <rect
      height="72.025719"
      width="214.00882"
      x="1828.4192"
      id="rect2282"
      y="55.268768"
      fill="#4d4d4d"
      stroke-width="0.967695"
    />
    <rect
      height="1.2358018"
      width="214.00882"
      enable-background="new    "
      x="1842.6387"
      id="rect2284"
      y="55.268768"
      fill="#ffffff"
      opacity="0.2"
      stroke-width="0.967695"
    />
    <rect
      height="21.465294"
      width="214.00882"
      y="109.80508"
      x="1828.4192"
      id="rect2286"
      fill="#333333"
      stroke-width="0.967695"
    />
    <rect
      height="0.85968721"
      width="214.00882"
      y="130.5452"
      enable-background="new    "
      x="1828.4192"
      id="rect2288"
      opacity="0.2"
      stroke-width="0.967695"
    />
    <path
      d="m 2011.3448,55.268712 v 0 0 h -2.4985 v 0 c -2.1492,6.74318 -3.6269,21.38483 -3.6269,28.88023 0,7.8178 1.2896,18.617618 3.6269,25.656338 v 0 0 l 32.8561,-1.9e-4 V 55.268712 Z"
      id="path2290"
      fill="#dcdcdc"
      stroke-width="0.967695"
    />
    <path
      d="m 1861.8665,58.062692 v -2.79398 h -32.8294 v 54.536378 h 32.8562 c 2.3642,-7.06541 5.1849,-17.704048 5.1849,-25.629448 0,-9.29527 -2.0147,-18.0265 -5.2117,-26.11295 z"
      id="path2292"
      fill="#dcdcdc"
      stroke-width="0.967695"
    />
    <path
      d="m 2041.8901,112.65295 h -32.8558 l -0.188,-2.84786 h 32.8561 z"
      id="path2294"
      fill="#999999"
      stroke-width="0.967695"
    />
    <path
      d="m 1829.1983,112.70653 h 32.8562 l -0.1881,-2.90144 h -32.8294 l 0.1612,2.90144 z"
      id="path2296"
      fill="#999999"
      stroke-width="0.967695"
    />
    <rect
      height="1.2358018"
      width="32.856182"
      y="130.16898"
      enable-background="new    "
      x="1829.0371"
      id="rect2298"
      opacity="0.15"
      stroke-width="0.967695"
    />
    <rect
      height="1.2358018"
      width="32.856182"
      enable-background="new    "
      x="1829.0371"
      id="rect2300"
      y="55.268768"
      fill="#ffffff"
      opacity="0.5"
      stroke-width="0.967695"
    />
    <rect
      height="1.2358018"
      width="32.883068"
      y="130.16898"
      enable-background="new    "
      x="2008.873"
      id="rect2302"
      opacity="0.15"
      stroke-width="0.967695"
    />
    <rect
      height="1.2358018"
      width="32.883068"
      enable-background="new    "
      x="2008.873"
      id="rect2304"
      y="55.268768"
      fill="#ffffff"
      opacity="0.5"
      stroke-width="0.967695"
    />
    <line
      x1="1848.8904"
      y2="131.40482"
      y1="131.40482"
      x2="1848.8904"
      id="line2306"
      fill="none"
      stroke-width="0.967695"
    />
    <rect
      height="18.590752"
      width="3.1701021"
      y="112.65298"
      x="2039.2305"
      id="rect2308"
      fill="#999999"
      stroke-width="0.967695"
    />
    <rect
      height="18.590752"
      width="3.1969695"
      y="112.65298"
      x="1829.0371"
      id="rect2310"
      fill="#999999"
      stroke-width="0.967695"
    />
    <rect
      x="-490.45724"
      stroke-width="0"
      id="connector0pin"
      width="55.621414"
      y="2440.1433"
      fill="none"
      height="106.01549"
      gorn="0.0.5"
      transform="rotate(-90)"
    />
    <rect
      x="-314.01297"
      stroke-width="0"
      id="connector1pin"
      width="55.621414"
      y="2440.1433"
      fill="none"
      height="106.01549"
      gorn="0.0.8"
      transform="rotate(-90)"
    />
  </g>
</svg>
