<?xml version="1.0" encoding="utf-8"?>
<!-- Generator: Adobe Illustrator 16.0.0, SVG Export Plug-In . SVG Version: 6.00 Build 0)  -->
<!DOCTYPE svg PUBLIC "-//W3C//DTD SVG 1.1//EN" "http://www.w3.org/Graphics/SVG/1.1/DTD/svg11.dtd">
<svg version="1.1" id="Layer_1" xmlns="http://www.w3.org/2000/svg" xmlns:xlink="http://www.w3.org/1999/xlink" x="0px" y="0px"
	 width="29.551px" height="29.548px" viewBox="0 0 29.551 29.548" enable-background="new 0 0 29.551 29.548" xml:space="preserve">
<g id="schematic">
	
		<rect x="0.375" y="7.574" fill="none" stroke="#000000" stroke-width="0.75" stroke-miterlimit="10" width="28.801" height="14.402"/>
	<g>
		<circle id="connector4terminal" fill="none" cx="3.976" cy="29.172" r="0.283"/>
		
			<line id="connector4pin" fill="none" stroke="#666666" stroke-width="0.75" stroke-linecap="round" stroke-miterlimit="10" x1="3.976" y1="21.974" x2="3.976" y2="29.173"/>
		<circle id="connector2terminal" fill="none" cx="11.176" cy="29.172" r="0.283"/>
		
			<line id="connector2pin" fill="none" stroke="#666666" stroke-width="0.75" stroke-linecap="round" stroke-miterlimit="10" x1="11.176" y1="21.973" x2="11.176" y2="29.172"/>
		<circle id="connector3terminal" fill="none" cx="18.376" cy="29.172" r="0.283"/>
		
			<line id="connector3pin" fill="none" stroke="#666666" stroke-width="0.75" stroke-linecap="round" stroke-miterlimit="10" x1="18.376" y1="21.974" x2="18.376" y2="29.173"/>
		<circle id="connector5terminal" fill="none" cx="25.576" cy="29.172" r="0.283"/>
		
			<line id="connector5pin" fill="none" stroke="#666666" stroke-width="0.75" stroke-linecap="round" stroke-miterlimit="10" x1="25.576" y1="21.974" x2="25.576" y2="29.173"/>
		<circle id="connector6terminal" fill="none" cx="3.976" cy="0.375" r="0.283"/>
		
			<line id="connector6pin" fill="none" stroke="#666666" stroke-width="0.75" stroke-linecap="round" stroke-miterlimit="10" x1="3.976" y1="0.375" x2="3.976" y2="7.574"/>
		<circle id="connector7terminal" fill="none" cx="25.576" cy="0.375" r="0.283"/>
		
			<line id="connector7pin" fill="none" stroke="#666666" stroke-width="0.75" stroke-linecap="round" stroke-miterlimit="10" x1="25.576" y1="0.375" x2="25.576" y2="7.574"/>
	</g>
	<text transform="matrix(1 0 0 1 7.8555 12.6582)" font-family="'DroidSans'" font-size="5">USB-A</text>
	
		<text transform="matrix(-4.371139e-008 -1 1 -4.371139e-008 4.2593 20.6973)" fill="#666666" font-family="'DroidSans'" font-size="2">VCC</text>
	
		<text transform="matrix(-4.371139e-008 -1 1 -4.371139e-008 11.4595 20.6982)" fill="#666666" font-family="'DroidSans'" font-size="2">D-</text>
	
		<text transform="matrix(-4.371139e-008 -1 1 -4.371139e-008 18.6592 20.7002)" fill="#666666" font-family="'DroidSans'" font-size="2">D+</text>
	
		<text transform="matrix(-4.371139e-008 -1 1 -4.371139e-008 25.8584 20.6973)" fill="#666666" font-family="'DroidSans'" font-size="2">GND</text>
</g>
</svg>
