<?xml version='1.0' encoding='UTF-8' standalone='no'?>
<!-- Created with Fritzing (http://www.fritzing.org/) -->
<svg xmlns="http://www.w3.org/2000/svg" viewBox="0 0 7.8062255 11.021408" x="0in"  version="1.2" width="0.30733159in" id="svg2" gorn="0" y="0in" height="0.43391323in">
    <metadata  id="metadata86">
        <rdf:RDF xmlns:rdf="http://www.w3.org/1999/02/22-rdf-syntax-ns#">
            <cc:Work xmlns:rdf="http://www.w3.org/1999/02/22-rdf-syntax-ns#" xmlns:cc="http://creativecommons.org/ns#" rdf:about="">
                <dc:format xmlns:dc="http://purl.org/dc/elements/1.1/">image/svg+xml</dc:format>
                <dc:type xmlns:dc="http://purl.org/dc/elements/1.1/" xmlns:rdf="http://www.w3.org/1999/02/22-rdf-syntax-ns#" rdf:resource="http://purl.org/dc/dcmitype/StillImage"/>
                <dc:title xmlns:dc="http://purl.org/dc/elements/1.1/"/>
            </cc:Work>
        </rdf:RDF>
    </metadata>
    <defs  id="defs84"/>
    <desc  id="desc4">
        <referenceFile >sparkfun-poweric_multiwatt15_pcb.svg</referenceFile>
    </desc>
    <g transform="translate(-7.5284152,0.03980726)" >
        <g >
            <g >
                <g  id="copper1" gorn="0.3.0.0.0">
                    <circle r="0.75" stroke="#f7bd13" connectorname="8" stroke-width="0.40000001"  fill="none" cx="10.2016" cy="4.9516001" id="connector7pad" gorn="0.3.0.0.0.0"/>
                    <circle r="0.75" stroke="#f7bd13" connectorname="10" stroke-width="0.40000001"  fill="none" cx="12.7416" cy="4.9516001" id="connector9pad" gorn="0.3.0.0.0.1"/>
                    <circle r="0.75" stroke="#f7bd13" connectorname="7" stroke-width="0.40000001"  fill="none" cx="8.9315996" cy="10.0316" id="connector6pad" gorn="0.3.0.0.0.2"/>
                    <circle r="0.75" stroke="#f7bd13" connectorname="9" stroke-width="0.40000001"  fill="none" cx="11.4716" cy="10.0316" id="connector8pad" gorn="0.3.0.0.0.3"/>
                    <circle r="0.75" stroke="#f7bd13" connectorname="11" stroke-width="0.40000001"  fill="none" cx="14.0116" cy="10.0316" id="connector10pad" gorn="0.3.0.0.0.4"/>
                    <g  id="copper0" gorn="0.3.0.0.0.5">
                        <circle r="0.75" stroke="#f7bd13" connectorname="8" stroke-width="0.40000001"  fill="none" cx="10.2016" cy="4.9516001" id="connector1pad" gorn="0.3.0.0.0.5.0"/>
                        <circle r="0.75" stroke="#f7bd13" connectorname="10" stroke-width="0.40000001"  fill="none" cx="12.7416" cy="4.9516001" id="connector3pad" gorn="0.3.0.0.0.5.1"/>
                        <circle r="0.75" stroke="#f7bd13" connectorname="7" stroke-width="0.40000001"  fill="none" cx="8.9315996" cy="10.0316" id="connector0pad" gorn="0.3.0.0.0.5.2"/>
                        <circle r="0.75" stroke="#f7bd13" connectorname="9" stroke-width="0.40000001"  fill="none" cx="11.4716" cy="10.0316" id="connector2pad" gorn="0.3.0.0.0.5.3"/>
                        <circle r="0.75" stroke="#f7bd13" connectorname="11" stroke-width="0.40000001"  fill="none" cx="14.0116" cy="10.0316" id="connector4pad" gorn="0.3.0.0.0.5.4"/>
                    </g>
                </g>
            </g>
        </g>
    </g>
    <g transform="translate(-7.5284152,0.03980726)" >
        <g >
            <g >
                <g  id="silkscreen" gorn="0.4.0.0.0">
                    <line style="stroke-linecap:round" stroke="#f0f0f0" stroke-width="0.2032"  class="other" y2="1.7016" id="line54" x1="7.6455789" x2="7.6455789" gorn="0.4.0.0.0.0" y1="5.1016002"/>
                    <line style="stroke-linecap:round;stroke-miterlimit:4;stroke-dasharray:none" stroke="#f0f0f0" stroke-width="0.20320021"  class="other" y2="0.06323988" id="line56" x1="7.6314559" x2="7.6314559" gorn="0.4.0.0.0.1" y1="1.73996"/>
                    <line style="stroke-linecap:round;stroke-miterlimit:4;stroke-dasharray:none" stroke="#f0f0f0" stroke-width="0.20320021"  class="other" y2="0.06323988" id="line58" x1="7.6314559" x2="15.227241" gorn="0.4.0.0.0.2" y1="0.06323988"/>
                    <line style="stroke-linecap:round;stroke-miterlimit:4;stroke-dasharray:none" stroke="#f0f0f0" stroke-width="0.20320021"  class="other" y2="1.73996" id="line60" x1="15.227241" x2="15.227241" gorn="0.4.0.0.0.3" y1="0.06323988"/>
                    <line style="stroke-linecap:round;stroke-miterlimit:4;stroke-dasharray:none" stroke="#f0f0f0" stroke-width="0.20320021"  class="other" y2="5.1016002" id="line62" x1="15.221591" x2="15.221591" gorn="0.4.0.0.0.4" y1="1.7016"/>
                    <line style="stroke-linecap:round;stroke-miterlimit:4;stroke-dasharray:none" stroke="#f0f0f0" stroke-width="0.20320021"  class="other" y2="1.73996" id="line64" x1="7.6314559" x2="15.227241" gorn="0.4.0.0.0.5" y1="1.73996"/>
                    <line style="stroke-linecap:round" stroke="#f0f0f0" stroke-width="0.2032"  class="other" y2="5.0915999" id="line66" x1="7.6555791" x2="8.9555779" gorn="0.4.0.0.0.6" y1="5.0915999"/>
                    <line style="stroke-linecap:round" stroke="#f0f0f0" stroke-width="0.2032"  class="other" y2="5.0915999" id="line74" x1="11.3616" x2="11.5616" gorn="0.4.0.0.0.7" y1="5.0915999"/>
                    <line style="stroke-linecap:round" stroke="#f0f0f0" stroke-width="0.2032"  class="other" y2="5.0915999" id="line80" x1="15.231592" x2="13.931595" gorn="0.4.0.0.0.8" y1="5.0915999"/>
                </g>
            </g>
        </g>
    </g>
</svg>
