<?xml version='1.0' encoding='UTF-8' standalone='no'?>
<svg
  xmlns:dc="http://purl.org/dc/elements/1.1/"
  xmlns:cc="http://creativecommons.org/ns#"
  xmlns:rdf="http://www.w3.org/1999/02/22-rdf-syntax-ns#"
  xmlns:svg="http://www.w3.org/2000/svg"
  xmlns="http://www.w3.org/2000/svg"
  id="svg122"
  height="0.91250002in"
  width="1.61in"
  version="1.2"
  viewBox="0 0 1610 912.50006"
  x="0in"
  y="0in">
  <metadata
    id="metadata128">
    <rdf:RDF>
      <cc:Work
        rdf:about="">
        <dc:format>image/svg+xml</dc:format>
        <dc:type
          rdf:resource="http://purl.org/dc/dcmitype/StillImage"
        />
        <dc:title/>
      </cc:Work>
    </rdf:RDF>
  </metadata>
  <defs
    id="defs126"
  />
  <desc
    id="desc4">Fritzing
    schematic
    </desc>
  <desc
    id="desc2">
    <referenceFile>CD4060BE_dip16_300mil_schematic.svg</referenceFile>
  </desc>
  <g
    transform="translate(0,3.5762787e-5)"
    gorn="0.2"
    id="schematic">
    <rect
      id="rect6"
      height="900"
      width="1200"
      x="205"
      y="6.25"
      fill="none"
      stroke="#000000"
      stroke-width="12.5"
      stroke-linecap="round"
      stroke-linejoin="round"
    />
    <text
      y="477.75"
      gorn="0.2.1"
      id="label"
      x="647.5"
      font-size="59.02778244"
      font-family="'Droid Sans'"
      text-anchor="start"
      fill="#8c8c8c"
      stroke="none">CD4060BE</text>
    <line
      id="line0"
      y2="106.25"
      y1="106.25"
      x1="5"
      x2="205"
      fill="none"
      stroke="#555555"
      stroke-width="10"
      stroke-linecap="round"
      stroke-linejoin="round"
      stroke-miterlimit="4"
      stroke-dasharray="none"
      stroke-opacity="1"
    />
    <rect
      height="10"
      width="198.75"
      gorn="0.2.3"
      connectorName="Q12"
      id="connector0pin"
      x="0"
      y="101.25"
      fill="none"
      stroke-width="0"
    />
    <rect
      height="10"
      width="10"
      gorn="0.2.4"
      id="connector0terminal"
      x="0"
      y="101.25"
      fill="none"
      stroke-width="0"
    />
    <text
      gorn="0.2.5"
      id="label0"
      x="243"
      font-size="48.61111069"
      y="119.75"
      font-family="'Droid Sans'"
      text-anchor="start"
      fill="#8c8c8c"
      stroke="none">Q12</text>
    <text
      id="text0"
      class="text"
      x="100"
      y="83"
      font-size="34.72222137"
      font-family="'Droid Sans'"
      text-anchor="middle"
      fill="#8c8c8c"
      stroke="none"
      stroke-width="0">1</text>
    <line
      id="line1"
      y2="206.25"
      y1="206.25"
      x1="5"
      x2="205"
      fill="none"
      stroke="#555555"
      stroke-width="10"
      stroke-linecap="round"
      stroke-linejoin="round"
    />
    <rect
      height="10"
      width="198.75"
      gorn="0.2.8"
      connectorName="Q13"
      id="connector1pin"
      x="0"
      y="201.25"
      fill="none"
      stroke-width="0"
    />
    <rect
      height="10"
      width="10"
      gorn="0.2.9"
      id="connector1terminal"
      x="0"
      y="201.25"
      fill="none"
      stroke-width="0"
    />
    <text
      gorn="0.2.10"
      id="label1"
      x="243"
      font-size="48.61109924"
      y="219.75"
      font-family="'Droid Sans'"
      text-anchor="start"
      fill="#8c8c8c"
      stroke="none">Q13</text>
    <text
      id="text1"
      class="text"
      x="100"
      y="183"
      font-size="34.72222137"
      font-family="'Droid Sans'"
      text-anchor="middle"
      fill="#8c8c8c"
      stroke="none"
      stroke-width="0">2</text>
    <line
      id="line2"
      y2="306.25"
      y1="306.25"
      x1="5"
      x2="205"
      fill="none"
      stroke="#555555"
      stroke-width="10"
      stroke-linecap="round"
      stroke-linejoin="round"
    />
    <rect
      height="10"
      width="198.75"
      gorn="0.2.13"
      connectorName="Q14"
      id="connector2pin"
      x="0"
      y="301.25"
      fill="none"
      stroke-width="0"
    />
    <rect
      height="10"
      width="10"
      gorn="0.2.14"
      id="connector2terminal"
      x="0"
      y="301.25"
      fill="none"
      stroke-width="0"
    />
    <text
      gorn="0.2.15"
      id="label2"
      x="243"
      font-size="48.61111069"
      y="319.75"
      font-family="'Droid Sans'"
      text-anchor="start"
      fill="#8c8c8c"
      stroke="none">Q14</text>
    <text
      id="text2"
      class="text"
      x="100"
      y="283"
      font-size="34.72222137"
      font-family="'Droid Sans'"
      text-anchor="middle"
      fill="#8c8c8c"
      stroke="none"
      stroke-width="0">3</text>
    <line
      id="line3"
      y2="406.25"
      y1="406.25"
      x1="5"
      x2="205"
      fill="none"
      stroke="#555555"
      stroke-width="10"
      stroke-linecap="round"
      stroke-linejoin="round"
    />
    <rect
      height="10"
      width="198.75"
      gorn="0.2.18"
      connectorName="Q6"
      id="connector3pin"
      x="0"
      y="401.25"
      fill="none"
      stroke-width="0"
    />
    <rect
      height="10"
      width="10"
      gorn="0.2.19"
      id="connector3terminal"
      x="0"
      y="401.25"
      fill="none"
      stroke-width="0"
    />
    <text
      gorn="0.2.20"
      id="label3"
      x="243"
      font-size="48.61111069"
      y="419.75"
      font-family="'Droid Sans'"
      text-anchor="start"
      fill="#8c8c8c"
      stroke="none">Q6</text>
    <text
      id="text3"
      class="text"
      x="100"
      y="383"
      font-size="34.72222137"
      font-family="'Droid Sans'"
      text-anchor="middle"
      fill="#8c8c8c"
      stroke="none"
      stroke-width="0">4</text>
    <line
      id="line4"
      y2="506.25"
      y1="506.25"
      x1="5"
      x2="205"
      fill="none"
      stroke="#555555"
      stroke-width="10"
      stroke-linecap="round"
      stroke-linejoin="round"
    />
    <rect
      height="10"
      width="198.75"
      gorn="0.2.23"
      connectorName="Q5"
      id="connector4pin"
      x="0"
      y="501.25"
      fill="none"
      stroke-width="0"
    />
    <rect
      height="10"
      width="10"
      gorn="0.2.24"
      id="connector4terminal"
      x="0"
      y="501.25"
      fill="none"
      stroke-width="0"
    />
    <text
      gorn="0.2.25"
      id="label4"
      x="243"
      font-size="48.61111069"
      y="519.75"
      font-family="'Droid Sans'"
      text-anchor="start"
      fill="#8c8c8c"
      stroke="none">Q5</text>
    <text
      id="text4"
      class="text"
      x="100"
      y="483"
      font-size="34.72222137"
      font-family="'Droid Sans'"
      text-anchor="middle"
      fill="#8c8c8c"
      stroke="none"
      stroke-width="0">5</text>
    <line
      id="line5"
      y2="606.25"
      y1="606.25"
      x1="5"
      x2="205"
      fill="none"
      stroke="#555555"
      stroke-width="10"
      stroke-linecap="round"
      stroke-linejoin="round"
    />
    <rect
      height="10"
      width="198.75"
      gorn="0.2.28"
      connectorName="Q7"
      id="connector5pin"
      x="0"
      y="601.25"
      fill="none"
      stroke-width="0"
    />
    <rect
      height="10"
      width="10"
      gorn="0.2.29"
      id="connector5terminal"
      x="0"
      y="601.25"
      fill="none"
      stroke-width="0"
    />
    <text
      gorn="0.2.30"
      id="label5"
      x="243"
      font-size="48.61111069"
      y="619.75"
      font-family="'Droid Sans'"
      text-anchor="start"
      fill="#8c8c8c"
      stroke="none">Q7</text>
    <text
      id="text5"
      class="text"
      x="100"
      y="583"
      font-size="34.72222137"
      font-family="'Droid Sans'"
      text-anchor="middle"
      fill="#8c8c8c"
      stroke="none"
      stroke-width="0">6</text>
    <line
      id="line6"
      y2="706.25"
      y1="706.25"
      x1="5"
      x2="205"
      fill="none"
      stroke="#555555"
      stroke-width="10"
      stroke-linecap="round"
      stroke-linejoin="round"
    />
    <rect
      height="10"
      width="198.75"
      gorn="0.2.33"
      connectorName="Q4"
      id="connector6pin"
      x="0"
      y="701.25"
      fill="none"
      stroke-width="0"
    />
    <rect
      height="10"
      width="10"
      gorn="0.2.34"
      id="connector6terminal"
      x="0"
      y="701.25"
      fill="none"
      stroke-width="0"
    />
    <text
      gorn="0.2.35"
      id="label6"
      x="243"
      font-size="48.61111069"
      y="719.75"
      font-family="'Droid Sans'"
      text-anchor="start"
      fill="#8c8c8c"
      stroke="none">Q4</text>
    <text
      id="text6"
      class="text"
      x="100"
      y="683"
      font-size="34.72222137"
      font-family="'Droid Sans'"
      text-anchor="middle"
      fill="#8c8c8c"
      stroke="none"
      stroke-width="0">7</text>
    <line
      id="line7"
      y2="806.25"
      y1="806.25"
      x1="5"
      x2="205"
      fill="none"
      stroke="#555555"
      stroke-width="10"
      stroke-linecap="round"
      stroke-linejoin="round"
    />
    <rect
      height="10"
      width="198.75"
      gorn="0.2.38"
      connectorName="GND"
      id="connector7pin"
      x="0"
      y="801.25"
      fill="none"
      stroke-width="0"
    />
    <rect
      height="10"
      width="10"
      gorn="0.2.39"
      id="connector7terminal"
      x="0"
      y="801.25"
      fill="none"
      stroke-width="0"
    />
    <text
      gorn="0.2.40"
      id="label7"
      x="243"
      font-size="48.61111069"
      y="823.75"
      font-family="'Droid Sans'"
      text-anchor="start"
      fill="#8c8c8c"
      stroke="none">GND</text>
    <text
      id="text7"
      class="text"
      x="100"
      y="783"
      font-size="34.72222137"
      font-family="'Droid Sans'"
      text-anchor="middle"
      fill="#8c8c8c"
      stroke="none"
      stroke-width="0">8</text>
    <line
      id="line8"
      y2="806.25"
      y1="806.25"
      x1="1405"
      x2="1605"
      fill="none"
      stroke="#555555"
      stroke-width="10"
      stroke-linecap="round"
      stroke-linejoin="round"
    />
    <rect
      connectorname="CLK_OUT"
      height="10"
      width="198.75"
      gorn="0.2.78"
      id="connector8pin"
      x="1411.25"
      y="801.25"
      fill="none"
      stroke-width="0"
    />
    <rect
      height="10"
      width="10"
      gorn="0.2.79"
      id="connector8terminal"
      x="1600"
      y="801.25"
      fill="none"
      stroke-width="0"
    />
    <text
      gorn="0.2.80"
      id="label8"
      x="1365"
      font-size="48.61111069"
      y="820.75"
      font-family="'Droid Sans'"
      text-anchor="end"
      fill="#8c8c8c"
      stroke="none">CLK_OUT</text>
    <text
      id="text8"
      class="text"
      x="1506.25"
      y="783"
      font-size="34.72222137"
      font-family="'Droid Sans'"
      text-anchor="middle"
      fill="#8c8c8c"
      stroke="none"
      stroke-width="0">9</text>
    <line
      id="line9"
      y2="706.25"
      y1="706.25"
      x1="1405"
      x2="1605"
      fill="none"
      stroke="#555555"
      stroke-width="10"
      stroke-linecap="round"
      stroke-linejoin="round"
    />
    <rect
      connectorname="CLK_OUT '"
      height="10"
      width="198.75"
      gorn="0.2.73"
      id="connector9pin"
      x="1411.25"
      y="701.25"
      fill="none"
      stroke-width="0"
    />
    <rect
      height="10"
      width="10"
      gorn="0.2.74"
      id="connector9terminal"
      x="1600"
      y="701.25"
      fill="none"
      stroke-width="0"
    />
    <text
      gorn="0.2.75"
      id="label9"
      x="1365"
      font-size="48.61111069"
      y="721.25"
      font-family="'Droid Sans'"
      text-anchor="end"
      fill="#8c8c8c"
      stroke="none">CLK_OUT '</text>
    <text
      id="text9"
      class="text"
      x="1506.25"
      y="683"
      font-size="34.72222137"
      font-family="'Droid Sans'"
      text-anchor="middle"
      fill="#8c8c8c"
      stroke="none"
      stroke-width="0">10</text>
    <line
      id="line10"
      y2="606.25"
      y1="606.25"
      x1="1405"
      x2="1605"
      fill="none"
      stroke="#555555"
      stroke-width="10"
      stroke-linecap="round"
      stroke-linejoin="round"
    />
    <rect
      connectorname="CLK_IN"
      height="10"
      width="198.75"
      gorn="0.2.68"
      id="connector10pin"
      x="1411.25"
      y="601.25"
      fill="none"
      stroke-width="0"
    />
    <rect
      height="10"
      width="10"
      gorn="0.2.69"
      id="connector10terminal"
      x="1600"
      y="601.25"
      fill="none"
      stroke-width="0"
    />
    <text
      gorn="0.2.70"
      id="label10"
      x="1365"
      font-size="48.61111069"
      y="620.75"
      font-family="'Droid Sans'"
      text-anchor="end"
      fill="#8c8c8c"
      stroke="none">CLK_IN</text>
    <text
      id="text10"
      class="text"
      x="1506.25"
      y="583"
      font-size="34.72222137"
      font-family="'Droid Sans'"
      text-anchor="middle"
      fill="#8c8c8c"
      stroke="none"
      stroke-width="0">11</text>
    <line
      id="line11"
      y2="506.25"
      y1="506.25"
      x1="1405"
      x2="1605"
      fill="none"
      stroke="#555555"
      stroke-width="10"
      stroke-linecap="round"
      stroke-linejoin="round"
    />
    <rect
      connectorname="RST"
      height="10"
      width="198.75"
      gorn="0.2.63"
      id="connector11pin"
      x="1411.25"
      y="501.25"
      fill="none"
      stroke-width="0"
    />
    <rect
      height="10"
      width="10"
      gorn="0.2.64"
      id="connector11terminal"
      x="1600"
      y="501.25"
      fill="none"
      stroke-width="0"
    />
    <text
      gorn="0.2.65"
      id="label11"
      x="1365"
      font-size="48.61111069"
      y="524"
      font-family="'Droid Sans'"
      text-anchor="end"
      fill="#8c8c8c"
      stroke="none">RST</text>
    <text
      id="text11"
      class="text"
      x="1506.25"
      y="483"
      font-size="34.72222137"
      font-family="'Droid Sans'"
      text-anchor="middle"
      fill="#8c8c8c"
      stroke="none"
      stroke-width="0">12</text>
    <line
      id="line12"
      y2="406.25"
      y1="406.25"
      x1="1405"
      x2="1605"
      fill="none"
      stroke="#555555"
      stroke-width="10"
      stroke-linecap="round"
      stroke-linejoin="round"
    />
    <rect
      connectorname="Q9"
      height="10"
      width="198.75"
      gorn="0.2.58"
      id="connector12pin"
      x="1411.25"
      y="401.25"
      fill="none"
      stroke-width="0"
    />
    <rect
      height="10"
      width="10"
      gorn="0.2.59"
      id="connector12terminal"
      x="1600"
      y="401.25"
      fill="none"
      stroke-width="0"
    />
    <text
      gorn="0.2.60"
      id="label12"
      x="1365"
      font-size="48.61111069"
      y="419.75"
      font-family="'Droid Sans'"
      text-anchor="end"
      fill="#8c8c8c"
      stroke="none">Q9</text>
    <text
      id="text12"
      class="text"
      x="1506.25"
      y="383"
      font-size="34.72222137"
      font-family="'Droid Sans'"
      text-anchor="middle"
      fill="#8c8c8c"
      stroke="none"
      stroke-width="0">13</text>
    <line
      id="line13"
      y2="306.25"
      y1="306.25"
      x1="1405"
      x2="1605"
      fill="none"
      stroke="#555555"
      stroke-width="10"
      stroke-linecap="round"
      stroke-linejoin="round"
    />
    <rect
      connectorname="Q8"
      height="10"
      width="198.75"
      gorn="0.2.53"
      id="connector13pin"
      x="1411.25"
      y="301.25"
      fill="none"
      stroke-width="0"
    />
    <rect
      height="10"
      width="10"
      gorn="0.2.54"
      id="connector13terminal"
      x="1600"
      y="301.25"
      fill="none"
      stroke-width="0"
    />
    <text
      gorn="0.2.55"
      id="label13"
      x="1365"
      font-size="48.61111069"
      y="319.75"
      font-family="'Droid Sans'"
      text-anchor="end"
      fill="#8c8c8c"
      stroke="none">Q8</text>
    <text
      id="text13"
      class="text"
      x="1506.25"
      y="283"
      font-size="34.72222137"
      font-family="'Droid Sans'"
      text-anchor="middle"
      fill="#8c8c8c"
      stroke="none"
      stroke-width="0">14</text>
    <line
      id="line14"
      y2="206.25"
      y1="206.25"
      x1="1405"
      x2="1605"
      fill="none"
      stroke="#555555"
      stroke-width="10"
      stroke-linecap="round"
      stroke-linejoin="round"
    />
    <rect
      connectorname="Q10"
      height="10"
      width="198.75"
      gorn="0.2.48"
      id="connector14pin"
      x="1411.25"
      y="201.25"
      fill="none"
      stroke-width="0"
    />
    <rect
      height="10"
      width="10"
      gorn="0.2.49"
      id="connector14terminal"
      x="1600"
      y="201.25"
      fill="none"
      stroke-width="0"
    />
    <text
      gorn="0.2.50"
      id="label14"
      x="1365"
      font-size="48.61111069"
      y="219.75"
      font-family="'Droid Sans'"
      text-anchor="end"
      fill="#8c8c8c"
      stroke="none">Q10</text>
    <text
      id="text14"
      class="text"
      x="1506.25"
      y="183"
      font-size="34.72222137"
      font-family="'Droid Sans'"
      text-anchor="middle"
      fill="#8c8c8c"
      stroke="none"
      stroke-width="0">15</text>
    <line
      id="line15"
      y2="106.25"
      y1="106.25"
      x1="1405"
      x2="1605"
      fill="none"
      stroke="#555555"
      stroke-width="10"
      stroke-linecap="round"
      stroke-linejoin="round"
    />
    <rect
      connectorname="+VCC"
      height="10"
      width="198.75"
      gorn="0.2.43"
      id="connector15pin"
      x="1411.25"
      y="101.25"
      fill="none"
      stroke-width="0"
    />
    <rect
      height="10"
      width="10"
      gorn="0.2.44"
      id="connector15terminal"
      x="1600"
      y="101.25"
      fill="none"
      stroke-width="0"
    />
    <text
      gorn="0.2.45"
      id="label15"
      x="1365"
      font-size="48.61111069"
      y="119.75"
      font-family="'Droid Sans'"
      text-anchor="end"
      fill="#8c8c8c"
      stroke="none">+Vcc</text>
    <text
      id="text15"
      class="text"
      x="1506.25"
      y="83"
      font-size="34.72222137"
      font-family="'Droid Sans'"
      text-anchor="middle"
      fill="#8c8c8c"
      stroke="none"
      stroke-width="0">16</text>
  </g>
</svg>
