<?xml version='1.0' encoding='UTF-8' standalone='no'?>
<svg
  xmlns="http://www.w3.org/2000/svg"
  xmlns:svg="http://www.w3.org/2000/svg"
  xmlns:rdf="http://www.w3.org/1999/02/22-rdf-syntax-ns#"
  xmlns:cc="http://creativecommons.org/ns#"
  xmlns:dc="http://purl.org/dc/elements/1.1/"
  id="svg2"
  y="0in"
  version="1.2"
  height="0.4477661in"
  width="2.0077007in"
  x="0in"
  viewBox="0 0 2007.7006 447.76607">
  <metadata
    id="metadata24">
    <rdf:RDF>
      <cc:Work
        rdf:about="">
        <dc:format>image/svg+xml</dc:format>
        <dc:type
          rdf:resource="http://purl.org/dc/dcmitype/StillImage"
        />
      </cc:Work>
    </rdf:RDF>
  </metadata>
  <defs
    id="defs22"
  />
  <desc
    id="desc4">
    <referenceFile>pt100-RTD-2wire_1_breadboard.svg</referenceFile>
  </desc>
  <g
    id="breadboard">
    <rect
      id="rect363"
      width="920.41748"
      height="106.14124"
      x="38.78746"
      y="162.79753"
      fill="#b3b3b3"
      stroke="#808080"
      stroke-width="4.89652"
    />
    <ellipse
      id="path365"
      cx="31.277519"
      cy="215.99174"
      rx="31.277519"
      ry="53.070614"
      fill="#b3b3b3"
      stroke="none"
      stroke-width="0"
    />
    <rect
      id="rect367"
      width="258.2637"
      height="312.77231"
      x="961.80707"
      y="62.293171"
      fill="#b3b3b3"
      stroke="#808080"
      stroke-width="4.89652"
    />
    <rect
      id="rect369"
      width="104.74893"
      height="442.86954"
      x="1219.4001"
      y="2.4482601"
      fill="#b3b3b3"
      stroke="#808080"
      stroke-width="4.89652"
    />
    <rect
      id="rect371"
      width="104.74893"
      height="385.62674"
      x="1323.4773"
      y="31.069698"
      fill="#b3b3b3"
      stroke="#808080"
      stroke-width="4.89652"
    />
    <rect
      id="rect373"
      width="104.74893"
      height="125.43204"
      x="1323.4773"
      y="291.26443"
      fill="#cccccc"
      stroke="#808080"
      stroke-width="4.89652"
    />
    <rect
      id="rect375"
      width="104.74893"
      height="268.53909"
      x="1432.6631"
      y="77.904671"
      fill="#b3b3b3"
      stroke="#808080"
      stroke-width="4.89652"
    />
    <rect
      id="rect377"
      width="57.913883"
      height="388.22864"
      x="1504.8369"
      y="31.069569"
      fill="#b3b3b3"
      stroke="#808080"
      stroke-width="4.89652"
    />
    <rect
      id="rect379"
      width="57.913883"
      height="155.00635"
      x="1504.8369"
      y="264.29202"
      fill="#999999"
      stroke="#808080"
      stroke-width="4.89652"
    />
    <rect
      id="rect381"
      width="11.078849"
      height="388.22864"
      x="1567.7582"
      y="31.069569"
      fill="#c83737"
      stroke="#808080"
      stroke-width="4.89652"
    />
    <rect
      id="rect383"
      width="57.913883"
      height="388.22864"
      x="1582.5637"
      y="31.069569"
      fill="#b3b3b3"
      stroke="#808080"
      stroke-width="4.89652"
    />
    <rect
      id="rect385"
      width="57.913883"
      height="155.00635"
      x="1582.5637"
      y="264.29202"
      fill="#999999"
      stroke="#808080"
      stroke-width="4.89652"
    />
    <rect
      id="rect387"
      width="104.74893"
      height="226.90804"
      x="1639.3474"
      y="103.92419"
      fill="#b3b3b3"
      stroke="#808080"
      stroke-width="4.89652"
    />
    <rect
      id="rect389"
      width="104.74893"
      height="86.402832"
      x="1323.4773"
      y="28.482172"
      fill="#999999"
      stroke="#808080"
      stroke-width="4.89652"
    />
    <ellipse
      id="ellipse391"
      cx="1746.9623"
      cy="216.68263"
      rx="22.170712"
      ry="116.20799"
      fill="#999999"
      stroke="none"
      stroke-width="0"
    />
    <line
      fill="#e6e6e6"
      id="line412"
      stroke="#e6e6e6"
      stroke-linecap="round"
      stroke-width="4.70064"
      x1="1761.2852"
      x2="2004.9999"
      y1="216.40819"
      y2="216.40819"
    />
    <line
      fill="#ff0000"
      id="line406"
      stroke="#ff0000"
      stroke-linecap="round"
      stroke-width="4.70064"
      x1="1763.2031"
      x2="2004.9999"
      y1="239.1346"
      y2="316.58737"
    />
    <rect
      id="connector0pin"
      width="4.7005973"
      height="4.7005973"
      x="2002.9999"
      y="214.05779"
      fill="none"
      stroke="none"
      stroke-width="0"
    />
    <rect
      id="connector1pin"
      width="4.7005973"
      height="4.7005973"
      x="2002.9999"
      y="314.00003"
      fill="none"
      stroke="none"
      stroke-width="0"
    />
  </g>
</svg>
