<?xml version='1.0' encoding='UTF-8' standalone='no'?>
<svg
  xmlns:dc="http://purl.org/dc/elements/1.1/"
  xmlns:cc="http://creativecommons.org/ns#"
  xmlns:rdf="http://www.w3.org/1999/02/22-rdf-syntax-ns#"
  xmlns:svg="http://www.w3.org/2000/svg"
  xmlns="http://www.w3.org/2000/svg"
  gorn="0"
  id="Layer_2"
  x="0px"
  y="0px"
  version="1.1"
  width="1.5848092in"
  viewBox="0 0 1584.8096 2135.9869"
  height="2.1359863in"
  xml:space="preserve"
  enable-background="new 0 0 113.386 153.071">
  <defs
    id="defs16">
    </defs>
  <desc
    id="desc2">
    <referenceFile>richardbruneau00000_455674a4c7877b8770f43b99d1eb1b15_1_pcb.svg</referenceFile>
  </desc>
  <metadata
    id="metadata4">
    <sfw>
      <slices/>
      <sliceSourceBounds
        x="-37.443"
        y="-162.075"
        width="114.386"
        bottomLeftOrigin="true"
        height="154.071"
      />
    </sfw>
    <rdf:RDF>
      <cc:Work
        rdf:about="">
        <dc:format>image/svg+xml</dc:format>
        <dc:type
          rdf:resource="http://purl.org/dc/dcmitype/StillImage"
        />
        <dc:title/>
      </cc:Work>
    </rdf:RDF>
  </metadata>
  <g
    id="silkscreen">
    <rect
      stroke-width="10"
      stroke="#000000"
      fill="none"
      width="1574.8096"
      stroke-miterlimit="10"
      height="2125.9868"
      id="rect6"
      x="5"
      y="5"
    />
  </g>
  <g
    id="copper1">
    <g
      id="copper0">
      <circle
        stroke-width="20"
        stroke="#f5bd18"
        fill="none"
        gorn="0.3.0.0"
        id="connector0pin"
        cx="745.87677"
        cy="113.63867"
        stroke-miterlimit="10"
        r="29"
      />
      <circle
        gorn="0.3.0.1"
        id="connector1pin"
        cx="845.89093"
        cy="113.63867"
        stroke-miterlimit="10"
        r="29"
        fill="none"
        stroke="#f5bd18"
        stroke-width="20"
      />
    </g>
  </g>
</svg>
