<?xml version='1.0' encoding='UTF-8' standalone='no'?>
<svg
  xmlns="http://www.w3.org/2000/svg"
  xmlns:svg="http://www.w3.org/2000/svg"
  width="0.20448957in"
  height="2.5710251in"
  gorn="0"
  id="svg2"
  y="0in"
  viewBox="0 0 204.48957 2571.0251"
  version="1.2"
  x="0in">
  <defs
    id="defs215"
  />
  <desc
    id="desc2">
    <referenceFile>119A-40A00-R04-pcb-con-top_1_schematic.svg</referenceFile>
  </desc>
  <g
    id="schematic">
    <polyline
      fill="none"
      stroke-linejoin="round"
      stroke="#000000"
      stroke-width="0.7"
      stroke-linecap="round"
      points="9.898,1.643 14.1,3.6 9.898,5.556"
      id="polyline6"
      transform="matrix(13.889124,0,0,13.889124,3.791731,-11.046472)"
    />
    <line
      gorn="0.0.3"
      id="line"
      fill="none"
      stroke-linejoin="round"
      y1="38.954376"
      stroke="#000000"
      stroke-width="9.72238"
      y2="38.954376"
      x2="70.195641"
      stroke-linecap="round"
      x1="199.62839"
    />
    <text
      font-size="35"
      fill="#555555"
      y="24.787468"
      text-anchor="middle"
      font-family="'Droid Sans'"
      class="text"
      stroke="none"
      stroke-width="0"
      x="73.931808"
      id="text9">1</text>
    <polyline
      fill="none"
      stroke-linejoin="round"
      stroke="#000000"
      stroke-width="0.7"
      stroke-linecap="round"
      points="9.898,8.843 14.1,10.8 9.898,12.756"
      id="polyline13"
      transform="matrix(13.889124,0,0,13.889124,3.791731,-11.046472)"
    />
    <line
      gorn="0.0.8"
      id="line15"
      fill="none"
      stroke-linejoin="round"
      y1="138.95609"
      stroke="#000000"
      stroke-width="9.72238"
      y2="138.95609"
      x2="70.195641"
      stroke-linecap="round"
      x1="199.62839"
    />
    <text
      font-size="35"
      fill="#555555"
      y="124.78915"
      text-anchor="middle"
      font-family="'Droid Sans'"
      class="text"
      stroke="none"
      stroke-width="0"
      x="73.931808"
      id="text17">3</text>
    <polyline
      fill="none"
      stroke-linejoin="round"
      stroke="#000000"
      stroke-width="0.7"
      stroke-linecap="round"
      points="9.898,16.043 14.1,18 9.898,19.956"
      id="polyline21"
      transform="matrix(13.889124,0,0,13.889124,3.791731,-11.046472)"
    />
    <line
      gorn="0.0.13"
      id="line23"
      fill="none"
      stroke-linejoin="round"
      y1="238.95778"
      stroke="#000000"
      stroke-width="9.72238"
      y2="238.95778"
      x2="70.195641"
      stroke-linecap="round"
      x1="199.62839"
    />
    <text
      font-size="35"
      fill="#555555"
      y="224.79088"
      text-anchor="middle"
      font-family="'Droid Sans'"
      class="text"
      stroke="none"
      stroke-width="0"
      x="73.931808"
      id="text25">5</text>
    <polyline
      fill="none"
      stroke-linejoin="round"
      stroke="#000000"
      stroke-width="0.7"
      stroke-linecap="round"
      points="9.898,23.243 14.1,25.2 9.898,27.156"
      id="polyline29"
      transform="matrix(13.889124,0,0,13.889124,3.791731,-11.046472)"
    />
    <line
      gorn="0.0.18"
      id="line31"
      fill="none"
      stroke-linejoin="round"
      y1="338.9595"
      stroke="#000000"
      stroke-width="9.72238"
      y2="338.9595"
      x2="70.195641"
      stroke-linecap="round"
      x1="199.62839"
    />
    <text
      font-size="35"
      fill="#555555"
      y="324.79257"
      text-anchor="middle"
      font-family="'Droid Sans'"
      class="text"
      stroke="none"
      stroke-width="0"
      x="73.931808"
      id="text33">7</text>
    <polyline
      fill="none"
      stroke-linejoin="round"
      stroke="#000000"
      stroke-width="0.7"
      stroke-linecap="round"
      points="9.898,30.443 14.1,32.4 9.898,34.356"
      id="polyline37"
      transform="matrix(13.889124,0,0,13.889124,3.791731,-11.046472)"
    />
    <line
      gorn="0.0.23"
      id="line39"
      fill="none"
      stroke-linejoin="round"
      y1="438.96118"
      stroke="#000000"
      stroke-width="9.72238"
      y2="438.96118"
      x2="70.195641"
      stroke-linecap="round"
      x1="199.62839"
    />
    <text
      font-size="35"
      fill="#555555"
      y="424.79425"
      text-anchor="middle"
      font-family="'Droid Sans'"
      class="text"
      stroke="none"
      stroke-width="0"
      x="73.931808"
      id="text41">9</text>
    <polyline
      fill="none"
      stroke-linejoin="round"
      stroke="#000000"
      stroke-width="0.7"
      stroke-linecap="round"
      points="9.898,37.643 14.1,39.6 9.898,41.556"
      id="polyline45"
      transform="matrix(13.889124,0,0,13.889124,3.791731,-11.046472)"
    />
    <line
      gorn="0.0.28"
      id="line47"
      fill="none"
      stroke-linejoin="round"
      y1="538.96283"
      stroke="#000000"
      stroke-width="9.72238"
      y2="538.96283"
      x2="70.195641"
      stroke-linecap="round"
      x1="199.62839"
    />
    <text
      font-size="35"
      fill="#555555"
      y="524.79596"
      text-anchor="middle"
      font-family="'Droid Sans'"
      class="text"
      stroke="none"
      stroke-width="0"
      x="73.931808"
      id="text49">11</text>
    <polyline
      fill="none"
      stroke-linejoin="round"
      stroke="#000000"
      stroke-width="0.7"
      stroke-linecap="round"
      points="9.898,44.843 14.1,46.8 9.898,48.756"
      id="polyline53"
      transform="matrix(13.889124,0,0,13.889124,3.791731,-11.046472)"
    />
    <line
      gorn="0.0.33"
      id="line55"
      fill="none"
      stroke-linejoin="round"
      y1="638.96454"
      stroke="#000000"
      stroke-width="9.72238"
      y2="638.96454"
      x2="70.195641"
      stroke-linecap="round"
      x1="199.62839"
    />
    <text
      font-size="35"
      fill="#555555"
      y="624.79761"
      text-anchor="middle"
      font-family="'Droid Sans'"
      class="text"
      stroke="none"
      stroke-width="0"
      x="73.931808"
      id="text57">13</text>
    <polyline
      fill="none"
      stroke-linejoin="round"
      stroke="#000000"
      stroke-width="0.7"
      stroke-linecap="round"
      points="9.898,52.043 14.1,54 9.898,55.956"
      id="polyline61"
      transform="matrix(13.889124,0,0,13.889124,3.791731,-11.046472)"
    />
    <line
      gorn="0.0.38"
      id="line63"
      fill="none"
      stroke-linejoin="round"
      y1="738.96625"
      stroke="#000000"
      stroke-width="9.72238"
      y2="738.96625"
      x2="70.195641"
      stroke-linecap="round"
      x1="199.62839"
    />
    <text
      font-size="35"
      fill="#555555"
      y="724.79932"
      text-anchor="middle"
      font-family="'Droid Sans'"
      class="text"
      stroke="none"
      stroke-width="0"
      x="73.931808"
      id="text65">15</text>
    <polyline
      fill="none"
      stroke-linejoin="round"
      stroke="#000000"
      stroke-width="0.7"
      stroke-linecap="round"
      points="9.898,59.243 14.1,61.2 9.898,63.156"
      id="polyline69"
      transform="matrix(13.889124,0,0,13.889124,3.791731,-11.046472)"
    />
    <line
      gorn="0.0.43"
      id="line71"
      fill="none"
      stroke-linejoin="round"
      y1="838.96796"
      stroke="#000000"
      stroke-width="9.72238"
      y2="838.96796"
      x2="70.195641"
      stroke-linecap="round"
      x1="199.62839"
    />
    <text
      font-size="35"
      fill="#555555"
      y="824.80103"
      text-anchor="middle"
      font-family="'Droid Sans'"
      class="text"
      stroke="none"
      stroke-width="0"
      x="73.931808"
      id="text73">17</text>
    <polyline
      fill="none"
      stroke-linejoin="round"
      stroke="#000000"
      stroke-width="0.7"
      stroke-linecap="round"
      points="9.898,66.443 14.1,68.4 9.898,70.356"
      id="polyline77"
      transform="matrix(13.889124,0,0,13.889124,3.791731,-11.046472)"
    />
    <line
      gorn="0.0.48"
      id="line79"
      fill="none"
      stroke-linejoin="round"
      y1="938.96967"
      stroke="#000000"
      stroke-width="9.72238"
      y2="938.96967"
      x2="70.195641"
      stroke-linecap="round"
      x1="199.62839"
    />
    <text
      font-size="35"
      fill="#555555"
      y="924.80267"
      text-anchor="middle"
      font-family="'Droid Sans'"
      class="text"
      stroke="none"
      stroke-width="0"
      x="73.931808"
      id="text81">19</text>
    <polyline
      fill="none"
      stroke-linejoin="round"
      stroke="#000000"
      stroke-width="0.7"
      stroke-linecap="round"
      points="9.898,73.643 14.1,75.6 9.898,77.556"
      id="polyline85"
      transform="matrix(13.889124,0,0,13.889124,3.791731,-11.046472)"
    />
    <line
      gorn="0.0.53"
      id="line87"
      fill="none"
      stroke-linejoin="round"
      y1="1038.9713"
      stroke="#000000"
      stroke-width="9.72238"
      y2="1038.9713"
      x2="70.195641"
      stroke-linecap="round"
      x1="199.62839"
    />
    <text
      font-size="35"
      fill="#555555"
      y="1024.8044"
      text-anchor="middle"
      font-family="'Droid Sans'"
      class="text"
      stroke="none"
      stroke-width="0"
      x="73.931808"
      id="text89">21</text>
    <polyline
      fill="none"
      stroke-linejoin="round"
      stroke="#000000"
      stroke-width="0.7"
      stroke-linecap="round"
      points="9.898,80.843 14.1,82.8 9.898,84.756"
      id="polyline93"
      transform="matrix(13.889124,0,0,13.889124,3.791731,-11.046472)"
    />
    <line
      gorn="0.0.58"
      id="line95"
      fill="none"
      stroke-linejoin="round"
      y1="1138.973"
      stroke="#000000"
      stroke-width="9.72238"
      y2="1138.973"
      x2="70.195641"
      stroke-linecap="round"
      x1="199.62839"
    />
    <text
      font-size="35"
      fill="#555555"
      y="1124.8062"
      text-anchor="middle"
      font-family="'Droid Sans'"
      class="text"
      stroke="none"
      stroke-width="0"
      x="73.931808"
      id="text97">23</text>
    <polyline
      fill="none"
      stroke-linejoin="round"
      stroke="#000000"
      stroke-width="0.7"
      stroke-linecap="round"
      points="9.898,88.043 14.1,90 9.898,91.956"
      id="polyline101"
      transform="matrix(13.889124,0,0,13.889124,3.791731,-11.046472)"
    />
    <line
      gorn="0.0.63"
      id="line103"
      fill="none"
      stroke-linejoin="round"
      y1="1238.9747"
      stroke="#000000"
      stroke-width="9.72238"
      y2="1238.9747"
      x2="70.195641"
      stroke-linecap="round"
      x1="199.62839"
    />
    <text
      font-size="35"
      fill="#555555"
      y="1224.8079"
      text-anchor="middle"
      font-family="'Droid Sans'"
      class="text"
      stroke="none"
      stroke-width="0"
      x="73.931808"
      id="text105">25</text>
    <polyline
      fill="none"
      stroke-linejoin="round"
      stroke="#000000"
      stroke-width="0.7"
      stroke-linecap="round"
      points="9.898,95.243 14.1,97.2 9.898,99.156"
      id="polyline109"
      transform="matrix(13.889124,0,0,13.889124,3.791731,-11.046472)"
    />
    <line
      gorn="0.0.68"
      id="line111"
      fill="none"
      stroke-linejoin="round"
      y1="1338.9763"
      stroke="#000000"
      stroke-width="9.72238"
      y2="1338.9763"
      x2="70.195641"
      stroke-linecap="round"
      x1="199.62839"
    />
    <text
      font-size="35"
      fill="#555555"
      y="1324.8094"
      text-anchor="middle"
      font-family="'Droid Sans'"
      class="text"
      stroke="none"
      stroke-width="0"
      x="73.931808"
      id="text113">27</text>
    <polyline
      fill="none"
      stroke-linejoin="round"
      stroke="#000000"
      stroke-width="0.7"
      stroke-linecap="round"
      points="9.898,102.443 14.1,104.4 9.898,106.356"
      id="polyline117"
      transform="matrix(13.889124,0,0,13.889124,3.791731,-11.046472)"
    />
    <line
      gorn="0.0.73"
      id="line119"
      fill="none"
      stroke-linejoin="round"
      y1="1438.9781"
      stroke="#000000"
      stroke-width="9.72238"
      y2="1438.9781"
      x2="70.195641"
      stroke-linecap="round"
      x1="199.62839"
    />
    <text
      font-size="35"
      fill="#555555"
      y="1424.8112"
      text-anchor="middle"
      font-family="'Droid Sans'"
      class="text"
      stroke="none"
      stroke-width="0"
      x="73.931808"
      id="text121">29</text>
    <polyline
      fill="none"
      stroke-linejoin="round"
      stroke="#000000"
      stroke-width="0.7"
      stroke-linecap="round"
      points="9.898,109.643 14.1,111.6 9.898,113.556"
      id="polyline125"
      transform="matrix(13.889124,0,0,13.889124,3.791731,-11.046472)"
    />
    <line
      gorn="0.0.78"
      id="line127"
      fill="none"
      stroke-linejoin="round"
      y1="1538.9797"
      stroke="#000000"
      stroke-width="9.72238"
      y2="1538.9797"
      x2="70.195641"
      stroke-linecap="round"
      x1="199.62839"
    />
    <text
      font-size="35"
      fill="#555555"
      y="1524.8129"
      text-anchor="middle"
      font-family="'Droid Sans'"
      class="text"
      stroke="none"
      stroke-width="0"
      x="73.931808"
      id="text129">31</text>
    <polyline
      fill="none"
      stroke-linejoin="round"
      stroke="#000000"
      stroke-width="0.7"
      stroke-linecap="round"
      points="9.898,116.843 14.1,118.8 9.898,120.756"
      id="polyline133"
      transform="matrix(13.889124,0,0,13.889124,3.791731,-11.046472)"
    />
    <line
      gorn="0.0.83"
      id="line135"
      fill="none"
      stroke-linejoin="round"
      y1="1638.9816"
      stroke="#000000"
      stroke-width="9.72238"
      y2="1638.9816"
      x2="70.195641"
      stroke-linecap="round"
      x1="199.62839"
    />
    <text
      font-size="35"
      fill="#555555"
      y="1624.8145"
      text-anchor="middle"
      font-family="'Droid Sans'"
      class="text"
      stroke="none"
      stroke-width="0"
      x="73.931808"
      id="text137">33</text>
    <polyline
      fill="none"
      stroke-linejoin="round"
      stroke="#000000"
      stroke-width="0.7"
      stroke-linecap="round"
      points="9.898,124.043 14.1,126 9.898,127.956"
      id="polyline141"
      transform="matrix(13.889124,0,0,13.889124,3.791731,-11.046472)"
    />
    <line
      gorn="0.0.88"
      id="line143"
      fill="none"
      stroke-linejoin="round"
      y1="1738.9833"
      stroke="#000000"
      stroke-width="9.72238"
      y2="1738.9833"
      x2="70.195641"
      stroke-linecap="round"
      x1="199.62839"
    />
    <text
      font-size="35"
      fill="#555555"
      y="1724.8164"
      text-anchor="middle"
      font-family="'Droid Sans'"
      class="text"
      stroke="none"
      stroke-width="0"
      x="73.931808"
      id="text145">35</text>
    <polyline
      fill="none"
      stroke-linejoin="round"
      stroke="#000000"
      stroke-width="0.7"
      stroke-linecap="round"
      points="9.898,131.243 14.1,133.2 9.898,135.156"
      id="polyline149"
      transform="matrix(13.889124,0,0,13.889124,3.791731,-11.046472)"
    />
    <line
      gorn="0.0.93"
      id="line151"
      fill="none"
      stroke-linejoin="round"
      y1="1838.9849"
      stroke="#000000"
      stroke-width="9.72238"
      y2="1838.9849"
      x2="70.195641"
      stroke-linecap="round"
      x1="199.62839"
    />
    <text
      font-size="35"
      fill="#555555"
      y="1824.8179"
      text-anchor="middle"
      font-family="'Droid Sans'"
      class="text"
      stroke="none"
      stroke-width="0"
      x="73.931808"
      id="text153">37</text>
    <polyline
      fill="none"
      stroke-linejoin="round"
      stroke="#000000"
      stroke-width="0.7"
      stroke-linecap="round"
      points="9.898,138.443 14.1,140.4 9.898,142.356"
      id="polyline157"
      transform="matrix(13.889124,0,0,13.889124,3.791731,-11.046472)"
    />
    <line
      gorn="0.0.98"
      id="line159"
      fill="none"
      stroke-linejoin="round"
      y1="1938.9865"
      stroke="#000000"
      stroke-width="9.72238"
      y2="1938.9865"
      x2="70.195641"
      stroke-linecap="round"
      x1="199.62839"
    />
    <text
      font-size="35"
      fill="#555555"
      y="1924.8197"
      text-anchor="middle"
      font-family="'Droid Sans'"
      class="text"
      stroke="none"
      stroke-width="0"
      x="73.931808"
      id="text161">39</text>
    <polyline
      fill="none"
      stroke-linejoin="round"
      stroke="#000000"
      stroke-width="0.7"
      stroke-linecap="round"
      points="9.898,145.643 14.1,147.6 9.898,149.556"
      id="polyline165"
      transform="matrix(13.889124,0,0,13.889124,3.791731,-11.046472)"
    />
    <line
      gorn="0.0.103"
      id="line167"
      fill="none"
      stroke-linejoin="round"
      y1="2038.9884"
      stroke="#000000"
      stroke-width="9.72238"
      y2="2038.9884"
      x2="70.195641"
      stroke-linecap="round"
      x1="199.62839"
    />
    <text
      font-size="35"
      fill="#555555"
      y="2024.8214"
      text-anchor="middle"
      font-family="'Droid Sans'"
      class="text"
      stroke="none"
      stroke-width="0"
      x="73.931808"
      id="text169">41</text>
    <polyline
      fill="none"
      stroke-linejoin="round"
      stroke="#000000"
      stroke-width="0.7"
      stroke-linecap="round"
      points="9.898,152.843 14.1,154.8 9.898,156.756"
      id="polyline173"
      transform="matrix(13.889124,0,0,13.889124,3.791731,-11.046472)"
    />
    <line
      gorn="0.0.108"
      id="line175"
      fill="none"
      stroke-linejoin="round"
      y1="2138.99"
      stroke="#000000"
      stroke-width="9.72238"
      y2="2138.99"
      x2="70.195641"
      stroke-linecap="round"
      x1="199.62839"
    />
    <text
      font-size="35"
      fill="#555555"
      y="2124.8232"
      text-anchor="middle"
      font-family="'Droid Sans'"
      class="text"
      stroke="none"
      stroke-width="0"
      x="73.931808"
      id="text177">43</text>
    <polyline
      fill="none"
      stroke-linejoin="round"
      stroke="#000000"
      stroke-width="0.7"
      stroke-linecap="round"
      points="9.898,160.043 14.1,162 9.898,163.956"
      id="polyline181"
      transform="matrix(13.889124,0,0,13.889124,3.791731,-11.046472)"
    />
    <line
      gorn="0.0.113"
      id="line183"
      fill="none"
      stroke-linejoin="round"
      y1="2238.9917"
      stroke="#000000"
      stroke-width="9.72238"
      y2="2238.9917"
      x2="70.195641"
      stroke-linecap="round"
      x1="199.62839"
    />
    <text
      font-size="35"
      fill="#555555"
      y="2224.8247"
      text-anchor="middle"
      font-family="'Droid Sans'"
      class="text"
      stroke="none"
      stroke-width="0"
      x="73.931808"
      id="text185">45</text>
    <polyline
      fill="none"
      stroke-linejoin="round"
      stroke="#000000"
      stroke-width="0.7"
      stroke-linecap="round"
      points="9.898,167.243 14.1,169.2 9.898,171.156"
      id="polyline189"
      transform="matrix(13.889124,0,0,13.889124,3.791731,-11.046472)"
    />
    <line
      gorn="0.0.118"
      id="line191"
      fill="none"
      stroke-linejoin="round"
      y1="2338.9932"
      stroke="#000000"
      stroke-width="9.72238"
      y2="2338.9932"
      x2="70.195641"
      stroke-linecap="round"
      x1="199.62839"
    />
    <text
      font-size="35"
      fill="#555555"
      y="2324.8262"
      text-anchor="middle"
      font-family="'Droid Sans'"
      class="text"
      stroke="none"
      stroke-width="0"
      x="73.931808"
      id="text193">47</text>
    <polyline
      fill="none"
      stroke-linejoin="round"
      stroke="#000000"
      stroke-width="0.7"
      stroke-linecap="round"
      points="9.898,174.443 14.1,176.4 9.898,178.356"
      id="polyline197"
      transform="matrix(13.889124,0,0,13.889124,3.791731,-11.046472)"
    />
    <line
      gorn="0.0.123"
      id="line199"
      fill="none"
      stroke-linejoin="round"
      y1="2438.9951"
      stroke="#000000"
      stroke-width="9.72238"
      y2="2438.9951"
      x2="70.195641"
      stroke-linecap="round"
      x1="199.62839"
    />
    <text
      font-size="35"
      fill="#555555"
      y="2424.8284"
      text-anchor="middle"
      font-family="'Droid Sans'"
      class="text"
      stroke="none"
      stroke-width="0"
      x="73.931808"
      id="text201">49</text>
    <polyline
      fill="none"
      stroke-linejoin="round"
      stroke="#000000"
      stroke-width="0.7"
      stroke-linecap="round"
      points="9.898,181.643 14.1,183.6 9.898,185.556"
      id="polyline205"
      transform="matrix(13.889124,0,0,13.889124,3.791731,-11.046472)"
    />
    <line
      gorn="0.0.128"
      id="line207"
      fill="none"
      stroke-linejoin="round"
      y1="2538.9968"
      stroke="#000000"
      stroke-width="9.72238"
      y2="2538.9968"
      x2="70.195641"
      stroke-linecap="round"
      x1="199.62839"
    />
    <text
      font-size="35"
      fill="#555555"
      y="2524.8298"
      text-anchor="middle"
      font-family="'Droid Sans'"
      class="text"
      stroke="none"
      stroke-width="0"
      x="73.931808"
      id="text209">51</text>
    <line
      gorn="0.0.0"
      id="connector0pin"
      fill="none"
      stroke-linejoin="round"
      y1="38.954376"
      stroke="#555555"
      stroke-width="10"
      y2="38.954376"
      x2="107.55738"
      stroke-linecap="round"
      x1="8.6529245"
    />
    <rect
      width="7.5834622"
      height="2.888938"
      gorn="0.0.1"
      id="connector0terminal"
      fill="none"
      y="37.621017"
      x="0"
      stroke-width="13.8891"
    />
    <line
      gorn="0.0.5"
      id="connector1pin"
      fill="none"
      stroke-linejoin="round"
      y1="138.95609"
      stroke="#555555"
      stroke-width="10"
      y2="138.95609"
      x2="107.55738"
      stroke-linecap="round"
      x1="8.6529245"
    />
    <rect
      width="7.5834622"
      height="2.888938"
      gorn="0.0.6"
      id="connector1terminal"
      fill="none"
      y="137.62273"
      x="0"
      stroke-width="13.8891"
    />
    <line
      gorn="0.0.10"
      id="connector2pin"
      fill="none"
      stroke-linejoin="round"
      y1="238.95778"
      stroke="#555555"
      stroke-width="10"
      y2="238.95778"
      x2="107.55738"
      stroke-linecap="round"
      x1="8.6529245"
    />
    <rect
      width="7.5834622"
      height="2.888938"
      gorn="0.0.11"
      id="connector2terminal"
      fill="none"
      y="237.62442"
      x="0"
      stroke-width="13.8891"
    />
    <line
      gorn="0.0.15"
      id="connector3pin"
      fill="none"
      stroke-linejoin="round"
      y1="338.9595"
      stroke="#555555"
      stroke-width="10"
      y2="338.9595"
      x2="107.55738"
      stroke-linecap="round"
      x1="8.6529245"
    />
    <rect
      width="7.5834622"
      height="2.888938"
      gorn="0.0.16"
      id="connector3terminal"
      fill="none"
      y="337.62613"
      x="0"
      stroke-width="13.8891"
    />
    <line
      gorn="0.0.20"
      id="connector4pin"
      fill="none"
      stroke-linejoin="round"
      y1="438.96118"
      stroke="#555555"
      stroke-width="10"
      y2="438.96118"
      x2="107.55738"
      stroke-linecap="round"
      x1="8.6529245"
    />
    <rect
      width="7.5834622"
      height="2.888938"
      gorn="0.0.21"
      id="connector4terminal"
      fill="none"
      y="437.62784"
      x="0"
      stroke-width="13.8891"
    />
    <line
      gorn="0.0.25"
      id="connector5pin"
      fill="none"
      stroke-linejoin="round"
      y1="538.96283"
      stroke="#555555"
      stroke-width="10"
      y2="538.96283"
      x2="107.55738"
      stroke-linecap="round"
      x1="8.6529245"
    />
    <rect
      width="7.5834622"
      height="2.888938"
      gorn="0.0.26"
      id="connector5terminal"
      fill="none"
      y="537.62952"
      x="0"
      stroke-width="13.8891"
    />
    <line
      gorn="0.0.30"
      id="connector6pin"
      fill="none"
      stroke-linejoin="round"
      y1="638.96454"
      stroke="#555555"
      stroke-width="10"
      y2="638.96454"
      x2="107.55738"
      stroke-linecap="round"
      x1="8.6529245"
    />
    <rect
      width="7.5834622"
      height="2.888938"
      gorn="0.0.31"
      id="connector6terminal"
      fill="none"
      y="637.63116"
      x="0"
      stroke-width="13.8891"
    />
    <line
      gorn="0.0.35"
      id="connector7pin"
      fill="none"
      stroke-linejoin="round"
      y1="738.96625"
      stroke="#555555"
      stroke-width="10"
      y2="738.96625"
      x2="107.55738"
      stroke-linecap="round"
      x1="8.6529245"
    />
    <rect
      width="7.5834622"
      height="2.888938"
      gorn="0.0.36"
      id="connector7terminal"
      fill="none"
      y="737.63287"
      x="0"
      stroke-width="13.8891"
    />
    <line
      gorn="0.0.40"
      id="connector8pin"
      fill="none"
      stroke-linejoin="round"
      y1="838.96796"
      stroke="#555555"
      stroke-width="10"
      y2="838.96796"
      x2="107.55738"
      stroke-linecap="round"
      x1="8.6529245"
    />
    <rect
      width="7.5834622"
      height="2.888938"
      gorn="0.0.41"
      id="connector8terminal"
      fill="none"
      y="837.63458"
      x="0"
      stroke-width="13.8891"
    />
    <line
      gorn="0.0.45"
      id="connector9pin"
      fill="none"
      stroke-linejoin="round"
      y1="938.96967"
      stroke="#555555"
      stroke-width="10"
      y2="938.96967"
      x2="107.55738"
      stroke-linecap="round"
      x1="8.6529245"
    />
    <rect
      width="7.5834622"
      height="2.888938"
      gorn="0.0.46"
      id="connector9terminal"
      fill="none"
      y="937.63629"
      x="0"
      stroke-width="13.8891"
    />
    <line
      gorn="0.0.50"
      id="connector10pin"
      fill="none"
      stroke-linejoin="round"
      y1="1038.9713"
      stroke="#555555"
      stroke-width="10"
      y2="1038.9713"
      x2="107.55738"
      stroke-linecap="round"
      x1="8.6529245"
    />
    <rect
      width="7.5834622"
      height="2.888938"
      gorn="0.0.51"
      id="connector10terminal"
      fill="none"
      y="1037.6379"
      x="0"
      stroke-width="13.8891"
    />
    <line
      gorn="0.0.55"
      id="connector11pin"
      fill="none"
      stroke-linejoin="round"
      y1="1138.973"
      stroke="#555555"
      stroke-width="10"
      y2="1138.973"
      x2="107.55738"
      stroke-linecap="round"
      x1="8.6529245"
    />
    <rect
      width="7.5834622"
      height="2.888938"
      gorn="0.0.56"
      id="connector11terminal"
      fill="none"
      y="1137.6398"
      x="0"
      stroke-width="13.8891"
    />
    <line
      gorn="0.0.60"
      id="connector12pin"
      fill="none"
      stroke-linejoin="round"
      y1="1238.9747"
      stroke="#555555"
      stroke-width="10"
      y2="1238.9747"
      x2="107.55738"
      stroke-linecap="round"
      x1="8.6529245"
    />
    <rect
      width="7.5834622"
      height="2.888938"
      gorn="0.0.61"
      id="connector12terminal"
      fill="none"
      y="1237.6414"
      x="0"
      stroke-width="13.8891"
    />
    <line
      gorn="0.0.65"
      id="connector13pin"
      fill="none"
      stroke-linejoin="round"
      y1="1338.9763"
      stroke="#555555"
      stroke-width="10"
      y2="1338.9763"
      x2="107.55738"
      stroke-linecap="round"
      x1="8.6529245"
    />
    <rect
      width="7.5834622"
      height="2.888938"
      gorn="0.0.66"
      id="connector13terminal"
      fill="none"
      y="1337.6429"
      x="0"
      stroke-width="13.8891"
    />
    <line
      gorn="0.0.70"
      id="connector14pin"
      fill="none"
      stroke-linejoin="round"
      y1="1438.9781"
      stroke="#555555"
      stroke-width="10"
      y2="1438.9781"
      x2="107.55738"
      stroke-linecap="round"
      x1="8.6529245"
    />
    <rect
      width="7.5834622"
      height="2.888938"
      gorn="0.0.71"
      id="connector14terminal"
      fill="none"
      y="1437.6448"
      x="0"
      stroke-width="13.8891"
    />
    <line
      gorn="0.0.75"
      id="connector15pin"
      fill="none"
      stroke-linejoin="round"
      y1="1538.9797"
      stroke="#555555"
      stroke-width="10"
      y2="1538.9797"
      x2="107.55738"
      stroke-linecap="round"
      x1="8.6529245"
    />
    <rect
      width="7.5834622"
      height="2.888938"
      gorn="0.0.76"
      id="connector15terminal"
      fill="none"
      y="1537.6462"
      x="0"
      stroke-width="13.8891"
    />
    <line
      gorn="0.0.80"
      id="connector16pin"
      fill="none"
      stroke-linejoin="round"
      y1="1638.9816"
      stroke="#555555"
      stroke-width="10"
      y2="1638.9816"
      x2="107.55738"
      stroke-linecap="round"
      x1="8.6529245"
    />
    <rect
      width="7.5834622"
      height="2.888938"
      gorn="0.0.81"
      id="connector16terminal"
      fill="none"
      y="1637.6482"
      x="0"
      stroke-width="13.8891"
    />
    <line
      gorn="0.0.85"
      id="connector17pin"
      fill="none"
      stroke-linejoin="round"
      y1="1738.9833"
      stroke="#555555"
      stroke-width="10"
      y2="1738.9833"
      x2="107.55738"
      stroke-linecap="round"
      x1="8.6529245"
    />
    <rect
      width="7.5834622"
      height="2.888938"
      gorn="0.0.86"
      id="connector17terminal"
      fill="none"
      y="1737.65"
      x="0"
      stroke-width="13.8891"
    />
    <line
      gorn="0.0.90"
      id="connector18pin"
      fill="none"
      stroke-linejoin="round"
      y1="1838.9849"
      stroke="#555555"
      stroke-width="10"
      y2="1838.9849"
      x2="107.55738"
      stroke-linecap="round"
      x1="8.6529245"
    />
    <rect
      width="7.5834622"
      height="2.888938"
      gorn="0.0.91"
      id="connector18terminal"
      fill="none"
      y="1837.6516"
      x="0"
      stroke-width="13.8891"
    />
    <line
      gorn="0.0.95"
      id="connector19pin"
      fill="none"
      stroke-linejoin="round"
      y1="1938.9865"
      stroke="#555555"
      stroke-width="10"
      y2="1938.9865"
      x2="107.55738"
      stroke-linecap="round"
      x1="8.6529245"
    />
    <rect
      width="7.5834622"
      height="2.888938"
      gorn="0.0.96"
      id="connector19terminal"
      fill="none"
      y="1937.6532"
      x="0"
      stroke-width="13.8891"
    />
    <line
      gorn="0.0.100"
      id="connector20pin"
      fill="none"
      stroke-linejoin="round"
      y1="2038.9884"
      stroke="#555555"
      stroke-width="10"
      y2="2038.9884"
      x2="107.55738"
      stroke-linecap="round"
      x1="8.6529245"
    />
    <rect
      width="7.5834622"
      height="2.888938"
      gorn="0.0.101"
      id="connector20terminal"
      fill="none"
      y="2037.6549"
      x="0"
      stroke-width="13.8891"
    />
    <line
      gorn="0.0.105"
      id="connector21pin"
      fill="none"
      stroke-linejoin="round"
      y1="2138.99"
      stroke="#555555"
      stroke-width="10"
      y2="2138.99"
      x2="107.55738"
      stroke-linecap="round"
      x1="8.6529245"
    />
    <rect
      width="7.5834622"
      height="2.888938"
      gorn="0.0.106"
      id="connector21terminal"
      fill="none"
      y="2137.6567"
      x="0"
      stroke-width="13.8891"
    />
    <line
      gorn="0.0.110"
      id="connector22pin"
      fill="none"
      stroke-linejoin="round"
      y1="2238.9917"
      stroke="#555555"
      stroke-width="10"
      y2="2238.9917"
      x2="107.55738"
      stroke-linecap="round"
      x1="8.6529245"
    />
    <rect
      width="7.5834622"
      height="2.888938"
      gorn="0.0.111"
      id="connector22terminal"
      fill="none"
      y="2237.6584"
      x="0"
      stroke-width="13.8891"
    />
    <line
      gorn="0.0.115"
      id="connector23pin"
      fill="none"
      stroke-linejoin="round"
      y1="2338.9932"
      stroke="#555555"
      stroke-width="10"
      y2="2338.9932"
      x2="107.55738"
      stroke-linecap="round"
      x1="8.6529245"
    />
    <rect
      width="7.5834622"
      height="2.888938"
      gorn="0.0.116"
      id="connector23terminal"
      fill="none"
      y="2337.6599"
      x="0"
      stroke-width="13.8891"
    />
    <line
      gorn="0.0.120"
      id="connector24pin"
      fill="none"
      stroke-linejoin="round"
      y1="2438.9951"
      stroke="#555555"
      stroke-width="10"
      y2="2438.9951"
      x2="107.55738"
      stroke-linecap="round"
      x1="8.6529245"
    />
    <rect
      width="7.5834622"
      height="2.888938"
      gorn="0.0.121"
      id="connector24terminal"
      fill="none"
      y="2437.6619"
      x="0"
      stroke-width="13.8891"
    />
    <line
      gorn="0.0.125"
      id="connector25pin"
      fill="none"
      stroke-linejoin="round"
      y1="2538.9968"
      stroke="#555555"
      stroke-width="10"
      y2="2538.9968"
      x2="107.55738"
      stroke-linecap="round"
      x1="8.6529245"
    />
    <rect
      width="7.5834622"
      height="2.888938"
      gorn="0.0.126"
      id="connector25terminal"
      fill="none"
      y="2537.6633"
      x="0"
      stroke-width="13.8891"
    />
  </g>
</svg>
