<?xml version='1.0' encoding='UTF-8' standalone='no'?>
<svg
  xmlns:dc="http://purl.org/dc/elements/1.1/"
  xmlns:cc="http://creativecommons.org/ns#"
  xmlns:rdf="http://www.w3.org/1999/02/22-rdf-syntax-ns#"
  xmlns:svg="http://www.w3.org/2000/svg"
  xmlns="http://www.w3.org/2000/svg"
  x="0px"
  xml:space="preserve"
  width="0.80001736in"
  gorn="0"
  id="Ebene_1"
  enable-background="new 0 0 50.4 122.448"
  viewBox="0 0 800.01759 1875.2783"
  version="1.1"
  y="0px"
  height="1.8752778in">
  <metadata
    id="metadata2748">
    <rdf:RDF>
      <cc:Work
        rdf:about="">
        <dc:format>image/svg+xml</dc:format>
        <dc:type
          rdf:resource="http://purl.org/dc/dcmitype/StillImage"
        />
        <dc:title/>
      </cc:Work>
    </rdf:RDF>
  </metadata>
  <defs
    id="defs2746">
    </defs>
  <desc
    id="desc2">
    <referenceFile>Arduino Nano 33 IoT-smd_1_pcb.svg</referenceFile>
  </desc>
  <desc
    id="desc4">Fritzing
    footprint
    generated
    by
    brd2svg</desc>
  <g
    id="silkscreen">
    <path
      stroke="#000000"
      fill="none"
      d="M 39.568484,1829.3989 H 752.40205 V 100.6067 H 39.568484 v 1728.7922"
      stroke-width="8"
      id="path6"
    />
    <circle
      stroke="none"
      cy="156.14679"
      fill="#000000"
      cx="94.02565"
      stroke-width="0"
      r="33"
      id="cirle1"
    />
    <path
      stroke="#000000"
      fill="none"
      d="m 183.206,1871.2783 h 422.80543 v -43.5592 H 183.206 v 43.5592"
      stroke-width="8.00004"
      id="path988"
    />
    <path
      stroke="#000000"
      fill="none"
      d="M 226.22296,100.58013 H 565.99565 V 4.0000248 H 226.22296 V 100.58013"
      stroke-width="8.00005"
      id="path990"
    />
    <circle
      stroke="none"
      cy="156.14679"
      fill="#000000"
      cx="697.15198"
      stroke-width="0"
      r="33"
      id="circle992"
    />
    <circle
      stroke="none"
      cy="1773.8572"
      fill="#000000"
      cx="697.15198"
      stroke-width="0"
      r="33"
      id="circle994"
    />
    <circle
      stroke="none"
      cy="1773.8572"
      fill="#000000"
      cx="94.026825"
      stroke-width="0"
      r="33"
      id="circle996"
    />
  </g>
  <g
    id="copper1">
    <rect
      x="7.1054274e-15"
      stroke="none"
      width="135.99059"
      gorn="0.3.0.1"
      id="connector0pad"
      fill="#f7bd13"
      y="226.35675"
      stroke-width="0"
      height="78.000023"
    />
    <rect
      x="7.1054274e-15"
      stroke="none"
      width="135.99059"
      gorn="0.3.0.1"
      id="connector1pad"
      fill="#f7bd13"
      y="326.35678"
      stroke-width="0"
      height="78.000023"
    />
    <rect
      x="7.1054274e-15"
      stroke="none"
      width="135.99059"
      gorn="0.3.0.1"
      id="connector2pad"
      fill="#f7bd13"
      y="426.35681"
      stroke-width="0"
      height="78.000023"
    />
    <rect
      x="7.1054274e-15"
      stroke="none"
      width="135.99059"
      gorn="0.3.0.1"
      id="connector3pad"
      fill="#f7bd13"
      y="526.35681"
      stroke-width="0"
      height="78.000023"
    />
    <rect
      x="7.1054274e-15"
      stroke="none"
      width="135.99059"
      gorn="0.3.0.1"
      id="connector4pad"
      fill="#f7bd13"
      y="626.35687"
      stroke-width="0"
      height="78.000023"
    />
    <rect
      x="7.1054274e-15"
      stroke="none"
      width="135.99059"
      gorn="0.3.0.1"
      id="connector5pad"
      fill="#f7bd13"
      y="726.35687"
      stroke-width="0"
      height="78.000023"
    />
    <rect
      x="7.1054274e-15"
      stroke="none"
      width="135.99059"
      gorn="0.3.0.1"
      id="connector6pad"
      fill="#f7bd13"
      y="826.35693"
      stroke-width="0"
      height="78.000023"
    />
    <rect
      x="7.1054274e-15"
      stroke="none"
      width="135.99059"
      gorn="0.3.0.1"
      id="connector7pad"
      fill="#f7bd13"
      y="926.35693"
      stroke-width="0"
      height="78.000023"
    />
    <rect
      x="7.1054274e-15"
      stroke="none"
      width="135.99059"
      gorn="0.3.0.1"
      id="connector8pad"
      fill="#f7bd13"
      y="1026.3571"
      stroke-width="0"
      height="78.000023"
    />
    <rect
      x="7.1054274e-15"
      stroke="none"
      width="135.99059"
      gorn="0.3.0.1"
      id="connector9pad"
      fill="#f7bd13"
      y="1126.3571"
      stroke-width="0"
      height="78.000023"
    />
    <rect
      x="7.1054274e-15"
      stroke="none"
      width="135.99059"
      gorn="0.3.0.1"
      id="connector10pad"
      fill="#f7bd13"
      y="1226.3571"
      stroke-width="0"
      height="78.000023"
    />
    <rect
      x="7.1054274e-15"
      stroke="none"
      width="135.99059"
      gorn="0.3.0.1"
      id="connector11pad"
      fill="#f7bd13"
      y="1326.3571"
      stroke-width="0"
      height="78.000023"
    />
    <rect
      x="7.1054274e-15"
      stroke="none"
      width="135.99059"
      gorn="0.3.0.1"
      id="connector12pad"
      fill="#f7bd13"
      y="1426.3572"
      stroke-width="0"
      height="78.000023"
    />
    <rect
      x="7.1054274e-15"
      stroke="none"
      width="135.99059"
      gorn="0.3.0.1"
      id="connector13pad"
      fill="#f7bd13"
      y="1526.3572"
      stroke-width="0"
      height="78.000023"
    />
    <rect
      x="7.1054274e-15"
      stroke="none"
      width="135.99059"
      gorn="0.3.0.1"
      id="connector14pad"
      fill="#f7bd13"
      y="1626.3572"
      stroke-width="0"
      height="78.000023"
    />
    <rect
      x="664.02698"
      stroke="none"
      width="135.99059"
      gorn="0.3.0.1"
      id="connector15pad"
      fill="#f7bd13"
      y="1626.3572"
      stroke-width="0"
      height="78.000023"
    />
    <rect
      x="664.02698"
      stroke="none"
      width="135.99059"
      gorn="0.3.0.1"
      id="connector16pad"
      fill="#f7bd13"
      y="1526.3572"
      stroke-width="0"
      height="78.000023"
    />
    <rect
      x="664.02698"
      stroke="none"
      width="135.99059"
      gorn="0.3.0.1"
      id="connector17pad"
      fill="#f7bd13"
      y="1426.3572"
      stroke-width="0"
      height="78.000023"
    />
    <rect
      x="664.02698"
      stroke="none"
      width="135.99059"
      gorn="0.3.0.1"
      id="connector18pad"
      fill="#f7bd13"
      y="1326.3571"
      stroke-width="0"
      height="78.000023"
    />
    <rect
      x="664.02698"
      stroke="none"
      width="135.99059"
      gorn="0.3.0.1"
      id="connector19pad"
      fill="#f7bd13"
      y="1226.3571"
      stroke-width="0"
      height="78.000023"
    />
    <rect
      x="664.02698"
      stroke="none"
      width="135.99059"
      gorn="0.3.0.1"
      id="connector20pad"
      fill="#f7bd13"
      y="1126.3571"
      stroke-width="0"
      height="78.000023"
    />
    <rect
      x="664.02698"
      stroke="none"
      width="135.99059"
      gorn="0.3.0.1"
      id="connector21pad"
      fill="#f7bd13"
      y="1026.3571"
      stroke-width="0"
      height="78.000023"
    />
    <rect
      x="664.02698"
      stroke="none"
      width="135.99059"
      gorn="0.3.0.1"
      id="connector22pad"
      fill="#f7bd13"
      y="926.35693"
      stroke-width="0"
      height="78.000023"
    />
    <rect
      x="664.02698"
      stroke="none"
      width="135.99059"
      gorn="0.3.0.1"
      id="connector23pad"
      fill="#f7bd13"
      y="826.35693"
      stroke-width="0"
      height="78.000023"
    />
    <rect
      x="664.02698"
      stroke="none"
      width="135.99059"
      gorn="0.3.0.1"
      id="connector24pad"
      fill="#f7bd13"
      y="726.35687"
      stroke-width="0"
      height="78.000023"
    />
    <rect
      x="664.02698"
      stroke="none"
      width="135.99059"
      gorn="0.3.0.1"
      id="connector25pad"
      fill="#f7bd13"
      y="626.35687"
      stroke-width="0"
      height="78.000023"
    />
    <rect
      x="664.02698"
      stroke="none"
      width="135.99059"
      gorn="0.3.0.1"
      id="connector26pad"
      fill="#f7bd13"
      y="526.35681"
      stroke-width="0"
      height="78.000023"
    />
    <rect
      x="664.02698"
      stroke="none"
      width="135.99059"
      gorn="0.3.0.1"
      id="connector27pad"
      fill="#f7bd13"
      y="426.35681"
      stroke-width="0"
      height="78.000023"
    />
    <rect
      x="664.02698"
      stroke="none"
      width="135.99059"
      gorn="0.3.0.1"
      id="connector28pad"
      fill="#f7bd13"
      y="326.35678"
      stroke-width="0"
      height="78.000023"
    />
    <rect
      x="664.02698"
      stroke="none"
      width="135.99059"
      gorn="0.3.0.1"
      id="connector29pad"
      fill="#f7bd13"
      y="226.35675"
      stroke-width="0"
      height="78.000023"
    />
  </g>
</svg>
