<?xml version='1.0' encoding='UTF-8' standalone='no'?>
<svg xmlns="http://www.w3.org/2000/svg" height="35.022385mm" version="1.1" id="svg8" viewBox="0 0 22 35.022385"  gorn="0" width="22mm">
    <desc >
        <referenceFile >mq2.svg</referenceFile>
    </desc>
    <defs id="defs2" >
        <linearGradient id="linearGradient951" >
            <stop offset="0" id="stop947"  style="stop-color:#ffffff;stop-opacity:1;"/>
            <stop offset="1" id="stop949"  style="stop-color:#000000;stop-opacity:1"/>
        </linearGradient>
        <linearGradient gradientUnits="userSpaceOnUse" id="linearGradient953" x1="59.208633"  href="#linearGradient951" x2="59.411873" y2="56.555298" y1="38.843365"/>
        <filter id="filter1015"  style="color-interpolation-filters:sRGB">
            <feGaussianBlur stdDeviation="0.3 0.3" id="feGaussianBlur1013"  result="blur"/>
        </filter>
    </defs>
    <metadata id="metadata5" >
        <rdf:RDF xmlns:rdf="http://www.w3.org/1999/02/22-rdf-syntax-ns#">
            <cc:Work rdf:about="" xmlns:cc="http://creativecommons.org/ns#" xmlns:rdf="http://www.w3.org/1999/02/22-rdf-syntax-ns#">
                <dc:format xmlns:dc="http://purl.org/dc/elements/1.1/">image/svg+xml</dc:format>
                <dc:type rdf:resource="http://purl.org/dc/dcmitype/StillImage" xmlns:rdf="http://www.w3.org/1999/02/22-rdf-syntax-ns#" xmlns:dc="http://purl.org/dc/elements/1.1/"/>
                <dc:title xmlns:dc="http://purl.org/dc/elements/1.1/"/>
            </cc:Work>
        </rdf:RDF>
    </metadata>
    <g transform="translate(-48.200684,-30.056934)" >
        <g >
            <g >
                <g id="layer1"  gorn="0.3.0.0.0">
                    <g id="g857"  gorn="0.3.0.0.0.0">
                        <g id="g849"  gorn="0.3.0.0.0.0.0">
                            <path d="m 69.549285,59.511845 a 1.828216,1.828216 0 0 1 -1.828216,1.828216 1.828216,1.828216 0 0 1 -1.828216,-1.828216 1.828216,1.828216 0 0 1 1.828216,-1.828216 1.828216,1.828216 0 0 1 1.828216,1.828216 z" id="circle837" fill="#ffffff"  gorn="0.3.0.0.0.0.0.0" stroke-width="0.0132292" stroke="none"/>
                            <path d="m 52.403713,59.533627 a 1.828216,1.828216 0 0 1 -1.828216,1.828216 1.828216,1.828216 0 0 1 -1.828216,-1.828216 1.828216,1.828216 0 0 1 1.828216,-1.828216 1.828216,1.828216 0 0 1 1.828216,1.828216 z" id="circle839" fill="#ffffff"  gorn="0.3.0.0.0.0.0.1" stroke-width="0.0132292" stroke="none"/>
                        </g>
                        <g id="g845"  gorn="0.3.0.0.0.0.1">
                            <path d="m 69.521453,32.615738 a 1.828216,1.828216 0 0 1 -1.828216,1.828216 1.828216,1.828216 0 0 1 -1.828216,-1.828216 1.828216,1.828216 0 0 1 1.828216,-1.828216 1.828216,1.828216 0 0 1 1.828216,1.828216 z" id="path835" fill="#ffffff"  gorn="0.3.0.0.0.0.1.0" stroke-width="0.0132292" stroke="none"/>
                            <path d="m 52.333118,32.68961 a 1.828216,1.828216 0 0 1 -1.828216,1.828215 1.828216,1.828216 0 0 1 -1.828216,-1.828215 1.828216,1.828216 0 0 1 1.828216,-1.828216 1.828216,1.828216 0 0 1 1.828216,1.828216 z" id="circle841" fill="#ffffff"  gorn="0.3.0.0.0.0.1.1" stroke-width="0.0132292" stroke="none"/>
                        </g>
                    </g>
                    <g id="g1209"  gorn="0.3.0.0.0.1">
                        <g transform="matrix(0.35277771,0,0,0.35277771,42.977546,26.890513)" >
                            <g >
                                <g >
                                    <g id="g1880"  gorn="0.3.0.0.0.1.0.0.0.0" style="fill:#8d8664;fill-opacity:1">
                                        <rect x="33.76469" height="2.7913799" id="connector0pin_1_" fill="none"  y="85.748077" gorn="0.3.0.0.0.1.0.0.0.0.0" width="2.7913799" style="fill:#8d8664;fill-opacity:1"/>
                                        <rect x="34.011719" height="22.256653" id="rect1304" fill="#8d8c8c"  y="85.995102" gorn="0.3.0.0.0.1.0.0.0.0.1" width="2.2983201" style="fill:#8d8664;fill-opacity:1"/>
                                        <rect x="40.964668" height="2.7913799" id="connector1pin_1_" fill="none"  y="85.748077" gorn="0.3.0.0.0.1.0.0.0.0.2" width="2.7913799" style="fill:#8d8664;fill-opacity:1"/>
                                        <rect x="41.2117" height="22.256653" id="rect1309" fill="#8d8c8c"  y="85.995102" gorn="0.3.0.0.0.1.0.0.0.0.3" width="2.2983198" style="fill:#8d8664;fill-opacity:1"/>
                                        <g transform="translate(25.094789,14.395403)" >
                                            <g >
                                                <g >
                                                    <polygon id="polygon1311" fill="#817a5c"  points="17.856201,72.157783 18.415201,71.599701 18.415201,73.898026 17.856201,73.338951 " gorn="0.3.0.0.0.1.0.0.0.0.4.0.0.0" style="fill:#8d8664;fill-opacity:1"/>
                                                </g>
                                            </g>
                                        </g>
                                        <g transform="translate(25.094789,14.395403)" >
                                            <g >
                                                <g >
                                                    <polygon id="polygon1313" fill="#9a916c"  points="16.675001,72.157783 16.675001,73.338951 16.116911,73.898026 16.116911,71.599701 " gorn="0.3.0.0.0.1.0.0.0.0.5.0.0.0" style="fill:#8d8664;fill-opacity:1"/>
                                                </g>
                                            </g>
                                        </g>
                                        <rect x="48.164688" height="2.7913799" id="connector2pin_1_" fill="none"  y="85.748077" gorn="0.3.0.0.0.1.0.0.0.0.6" width="2.7913799" style="fill:#8d8664;fill-opacity:1"/>
                                        <rect x="48.41169" height="22.256653" id="rect1318" fill="#8d8c8c"  y="85.995102" gorn="0.3.0.0.0.1.0.0.0.0.7" width="2.2983208" style="fill:#8d8664;fill-opacity:1"/>
                                        <g transform="translate(25.094789,14.395403)" >
                                            <g >
                                                <g >
                                                    <polygon id="polygon1320" fill="#817a5c"  points="25.0562,72.157783 25.6152,71.599701 25.6152,73.898026 25.0562,73.338951 " gorn="0.3.0.0.0.1.0.0.0.0.8.0.0.0" style="fill:#8d8664;fill-opacity:1"/>
                                                </g>
                                            </g>
                                        </g>
                                        <g transform="translate(25.094789,14.395403)" >
                                            <g >
                                                <g >
                                                    <polygon id="polygon1322" fill="#9a916c"  points="23.875002,72.157783 23.875002,73.338951 23.3169,73.898026 23.3169,71.599701 " gorn="0.3.0.0.0.1.0.0.0.0.9.0.0.0" style="fill:#8d8664;fill-opacity:1"/>
                                                </g>
                                            </g>
                                        </g>
                                        <rect x="55.593269" height="22.256653" id="rect1765" fill="#8d8c8c"  y="85.921928" gorn="0.3.0.0.0.1.0.0.0.0.10" width="2.2983208" style="fill:#8d8664;fill-opacity:1"/>
                                        <g transform="translate(0.01451111,0.00167847)" >
                                            <g >
                                                <g >
                                                    <g id="g1763"  gorn="0.3.0.0.0.1.0.0.0.0.11.0.0.0" style="fill:#8d8664;fill-opacity:1">
                                                        <g transform="translate(25.094789,14.395403)" >
                                                            <g >
                                                                <g >
                                                                    <polygon id="polygon1301" fill="#414141"  points="6.4656005,74.784157 8.0288105,76.348373 12.10138,76.348373 13.6656,74.784157 13.6656,70.711586 12.10138,69.148376 8.0288105,69.148376 6.4656005,70.711586 " gorn="0.3.0.0.0.1.0.0.0.0.11.0.0.0.0.0.0.0" style="fill:#8d8664;fill-opacity:1"/>
                                                                </g>
                                                            </g>
                                                        </g>
                                                        <g transform="translate(25.094789,14.395403)" >
                                                            <g >
                                                                <g >
                                                                    <polygon id="polygon1306" fill="#414141"  points="13.6656,74.784157 15.22879,76.348373 19.301401,76.348373 20.865601,74.784157 20.865601,70.711586 19.301401,69.148376 15.22879,69.148376 13.6656,70.711586 " gorn="0.3.0.0.0.1.0.0.0.0.11.0.0.0.1.0.0.0" style="fill:#8d8664;fill-opacity:1"/>
                                                                </g>
                                                            </g>
                                                        </g>
                                                        <g transform="translate(25.094789,14.395403)" >
                                                            <g >
                                                                <g >
                                                                    <polygon id="polygon1315" fill="#414141"  points="20.865601,74.784157 22.428801,76.348373 26.501402,76.348373 28.065601,74.784157 28.065601,70.711586 26.501402,69.148376 22.428801,69.148376 20.865601,70.711586 " gorn="0.3.0.0.0.1.0.0.0.0.11.0.0.0.2.0.0.0" style="fill:#8d8664;fill-opacity:1"/>
                                                                </g>
                                                            </g>
                                                        </g>
                                                        <rect x="34.005192" height="22.225" id="rect1324" fill="#9a916c"  y="86.014404" gorn="0.3.0.0.0.1.0.0.0.0.11.0.0.0.3" width="0.8771835" style="fill:#8d8664;fill-opacity:1"/>
                                                        <rect x="41.214211" height="22.225" id="rect1326" fill="#9a916c"  y="85.994408" gorn="0.3.0.0.0.1.0.0.0.0.11.0.0.0.4" width="0.8771835" style="fill:#8d8664;fill-opacity:1"/>
                                                        <rect x="48.400879" height="22.225" id="rect1328" fill="#9a916c"  y="85.991272" gorn="0.3.0.0.0.1.0.0.0.0.11.0.0.0.5" width="0.8771835" style="fill:#8d8664;fill-opacity:1"/>
                                                        <rect x="35.420486" height="22.225" id="rect1330" fill="#817a5c"  y="86.000679" gorn="0.3.0.0.0.1.0.0.0.0.11.0.0.0.6" width="0.8771835" style="fill:#8d8664;fill-opacity:1"/>
                                                        <g transform="translate(25.094789,14.395403)" >
                                                            <g >
                                                                <g >
                                                                    <polygon id="polygon1334" fill="#5f5c44"  points="11.21525,93.853317 8.9169302,93.853317 9.4750099,93.294251 10.65618,93.294251 " gorn="0.3.0.0.0.1.0.0.0.0.11.0.0.0.7.0.0.0" style="fill:#8d8664;fill-opacity:1"/>
                                                                </g>
                                                            </g>
                                                        </g>
                                                        <rect x="34.567837" height="21.136711" id="rect1336" fill="#8d8664"  y="86.55201" gorn="0.3.0.0.0.1.0.0.0.0.11.0.0.0.8" width="1.1821599" style="fill:#8d8664;fill-opacity:1"/>
                                                        <rect x="42.618328" height="22.225" id="rect1338" fill="#817a5c"  y="85.993423" gorn="0.3.0.0.0.1.0.0.0.0.11.0.0.0.9" width="0.8771835" style="fill:#8d8664;fill-opacity:1"/>
                                                        <rect x="49.815388" height="22.225" id="rect1340" fill="#817a5c"  y="85.983429" gorn="0.3.0.0.0.1.0.0.0.0.11.0.0.0.10" width="0.8771835" style="fill:#8d8664;fill-opacity:1"/>
                                                        <g transform="translate(25.094789,14.395403)" >
                                                            <g >
                                                                <g >
                                                                    <polygon id="polygon1342" fill="#b8af82"  points="17.856201,72.157783 18.415201,71.599701 16.116911,71.599701 16.675001,72.157783 " gorn="0.3.0.0.0.1.0.0.0.0.11.0.0.0.11.0.0.0" style="fill:#8d8664;fill-opacity:1"/>
                                                                </g>
                                                            </g>
                                                        </g>
                                                        <rect x="41.76783" height="21.136711" id="rect1346" fill="#8d8664"  y="86.55201" gorn="0.3.0.0.0.1.0.0.0.0.11.0.0.0.12" width="1.1821604" style="fill:#8d8664;fill-opacity:1"/>
                                                        <g transform="translate(25.094789,14.395403)" >
                                                            <g >
                                                                <g >
                                                                    <polygon id="polygon1348" fill="#b8af82"  points="25.0562,72.157783 25.6152,71.599701 23.3169,71.599701 23.875002,72.157783 " gorn="0.3.0.0.0.1.0.0.0.0.11.0.0.0.13.0.0.0" style="fill:#8d8664;fill-opacity:1"/>
                                                                </g>
                                                            </g>
                                                        </g>
                                                        <rect x="48.967831" height="21.136711" id="rect1352" fill="#8d8664"  y="86.55201" gorn="0.3.0.0.0.1.0.0.0.0.11.0.0.0.14" width="1.1821594" style="fill:#8d8664;fill-opacity:1"/>
                                                        <rect x="34.563526" height="1.1821599" id="connector0pin" fill="#8d8664"  y="106.50926" gorn="0.3.0.0.0.1.0.0.0.0.11.0.0.0.15" width="1.1821599" style="fill:#8d8664;fill-opacity:1"/>
                                                        <rect x="41.763515" height="1.1821599" id="connector1pin" fill="#8d8664"  y="106.50926" gorn="0.3.0.0.0.1.0.0.0.0.11.0.0.0.16" width="1.1821604" style="fill:#8d8664;fill-opacity:1"/>
                                                        <rect x="48.963516" height="1.1821599" id="connector2pin" fill="#8d8664"  y="106.50926" gorn="0.3.0.0.0.1.0.0.0.0.11.0.0.0.17" width="1.1821594" style="fill:#8d8664;fill-opacity:1"/>
                                                        <rect x="56.463516" height="1.1821599" id="connector3pin" fill="#8d8664"  y="106.50926" gorn="0.3.0.0.0.1.0.0.0.0.11.0.0.0.18" width="1.1821594" style="fill:#8d8664;fill-opacity:1"/>
                                                        <g transform="translate(32.294789,14.395403)" >
                                                            <g >
                                                                <g >
                                                                    <polygon id="polygon1723" fill="#414141"  points="22.428801,76.348373 26.501402,76.348373 28.065601,74.784157 28.065601,70.711586 26.501402,69.148376 22.428801,69.148376 20.865601,70.711586 20.865601,74.784157 " gorn="0.3.0.0.0.1.0.0.0.0.11.0.0.0.19.0.0.0" style="fill:#8d8664;fill-opacity:1"/>
                                                                </g>
                                                            </g>
                                                        </g>
                                                        <rect x="55.593269" height="22.225" id="rect1729" fill="#9a916c"  y="85.950546" gorn="0.3.0.0.0.1.0.0.0.0.11.0.0.0.20" width="0.8771835" style="fill:#8d8664;fill-opacity:1"/>
                                                        <rect x="56.997387" height="22.225" id="rect1731" fill="#817a5c"  y="85.949562" gorn="0.3.0.0.0.1.0.0.0.0.11.0.0.0.21" width="0.8771835" style="fill:#8d8664;fill-opacity:1"/>
                                                        <g transform="translate(39.473847,14.351541)" >
                                                            <g >
                                                                <g >
                                                                    <polygon id="polygon1733" fill="#b8af82"  points="16.116911,71.599701 16.675001,72.157783 17.856201,72.157783 18.415201,71.599701 " gorn="0.3.0.0.0.1.0.0.0.0.11.0.0.0.22.0.0.0" style="fill:#8d8664;fill-opacity:1"/>
                                                                </g>
                                                            </g>
                                                        </g>
                                                        <g transform="translate(39.473847,14.351541)" >
                                                            <g >
                                                                <g >
                                                                    <polygon id="polygon1735" fill="#5f5c44"  points="16.675001,93.294251 17.856201,93.294251 18.415201,93.853317 16.116911,93.853317 " gorn="0.3.0.0.0.1.0.0.0.0.11.0.0.0.23.0.0.0" style="fill:#8d8664;fill-opacity:1"/>
                                                                </g>
                                                            </g>
                                                        </g>
                                                        <rect x="56.146889" height="21.136711" id="rect1737" fill="#8d8664"  y="86.508148" gorn="0.3.0.0.0.1.0.0.0.0.11.0.0.0.24" width="1.1821604" style="fill:#8d8664;fill-opacity:1"/>
                                                    </g>
                                                </g>
                                            </g>
                                        </g>
                                        <g transform="translate(32.279123,14.348598)" >
                                            <g >
                                                <g >
                                                    <polygon id="polygon1767" fill="#817a5c"  points="25.6152,73.898026 25.0562,73.338951 25.0562,72.157783 25.6152,71.599701 " gorn="0.3.0.0.0.1.0.0.0.0.12.0.0.0" style="fill:#8d8664;fill-opacity:1"/>
                                                </g>
                                            </g>
                                        </g>
                                        <g transform="translate(32.280121,14.349773)" >
                                            <g >
                                                <g >
                                                    <polygon id="polygon1769" fill="#9a916c"  points="23.3169,73.898026 23.3169,71.599701 23.875002,72.157783 23.875002,73.338951 " gorn="0.3.0.0.0.1.0.0.0.0.13.0.0.0" style="fill:#8d8664;fill-opacity:1"/>
                                                </g>
                                            </g>
                                        </g>
                                        <g transform="translate(32.272849,14.353643)" >
                                            <g >
                                                <g >
                                                    <polygon id="polygon1771" fill="#5f5c44"  points="23.3169,93.853317 23.875002,93.294251 25.0562,93.294251 25.6152,93.853317 " gorn="0.3.0.0.0.1.0.0.0.0.14.0.0.0" style="fill:#8d8664;fill-opacity:1"/>
                                                </g>
                                            </g>
                                        </g>
                                        <g transform="translate(25.09482,14.398438)" >
                                            <g >
                                                <g >
                                                    <polygon id="polygon1344" fill="#5f5c44"  points="18.415201,93.853317 16.116911,93.853317 16.675001,93.294251 17.856201,93.294251 " gorn="0.3.0.0.0.1.0.0.0.0.15.0.0.0" style="fill:#8d8664;fill-opacity:1"/>
                                                </g>
                                            </g>
                                        </g>
                                        <g transform="translate(25.094789,14.395403)" >
                                            <g >
                                                <g >
                                                    <polygon id="polygon1350" fill="#5f5c44"  points="25.0562,93.294251 25.6152,93.853317 23.3169,93.853317 23.875002,93.294251 " gorn="0.3.0.0.0.1.0.0.0.0.16.0.0.0" style="fill:#8d8664;fill-opacity:1"/>
                                                </g>
                                            </g>
                                        </g>
                                        <g transform="translate(25.099101,14.392459)" >
                                            <g >
                                                <g >
                                                    <polygon id="polygon1332" fill="#b8af82"  points="8.9169302,71.599701 9.4750099,72.157783 10.65618,72.157783 11.21525,71.599701 " gorn="0.3.0.0.0.1.0.0.0.0.17.0.0.0" style="fill:#8d8664;fill-opacity:1"/>
                                                </g>
                                            </g>
                                        </g>
                                    </g>
                                </g>
                            </g>
                        </g>
                        <g id="g1156"  gorn="0.3.0.0.0.1.1">
                            <g transform="matrix(0.26458333,0,0,0.26458333,48.200684,30.056934)" >
                                <g >
                                    <g >
                                        <path d="M 0,0 V 120.94531 H 83.150391 V 0 Z M 25.289062,102.37305 H 29 v 3.71289 h -3.710938 z m 30.646485,0.002 a 1.8624557,1.8624557 0 0 1 1.861328,1.86328 1.8624557,1.8624557 0 0 1 -1.861328,1.86133 1.8624557,1.8624557 0 0 1 -1.863281,-1.86133 1.8624557,1.8624557 0 0 1 1.863281,-1.86328 z m -19.195313,0.0527 a 1.8624557,1.8624557 0 0 1 1.863282,1.86329 1.8624557,1.8624557 0 0 1 -1.863282,1.86132 1.8624557,1.8624557 0 0 1 -1.861328,-1.86132 1.8624557,1.8624557 0 0 1 1.861328,-1.86329 z m 9.535157,0.0352 a 1.8624557,1.8624557 0 0 1 0.05664,0 1.8624557,1.8624557 0 0 1 1.861328,1.86133 1.8624557,1.8624557 0 0 1 -1.861328,1.86328 1.8624557,1.8624557 0 0 1 -1.863281,-1.86328 1.8624557,1.8624557 0 0 1 1.806641,-1.86133 z" id="rect10" fill="#003380"  gorn="0.3.0.0.0.1.1.0.0.0.0" stroke-width="0.0500001" stroke="none"/>
                                    </g>
                                </g>
                            </g>
                            <g id="g1021"  gorn="0.3.0.0.0.1.1.1">
                                <g id="g967"  gorn="0.3.0.0.0.1.1.1.0">
                                    <path d="m 69.175938,42.305477 a 9.9185905,9.9247732 0 0 1 -9.918591,9.924773 9.9185905,9.9247732 0 0 1 -9.91859,-9.924773 9.9185905,9.9247732 0 0 1 9.91859,-9.924773 9.9185905,9.9247732 0 0 1 9.918591,9.924773 z" id="path871" fill="url(#linearGradient953)"  fill-opacity="1" gorn="0.3.0.0.0.1.1.1.0.0" stroke-width="0.0132292" stroke-opacity="1" style="mix-blend-mode:normal;fill-rule:nonzero;" stroke="none"/>
                                    <path d="m 67.046242,42.269993 a 7.8369865,7.8369865 0 0 1 -7.836987,7.836986 7.8369865,7.8369865 0 0 1 -7.836986,-7.836986 7.8369865,7.8369865 0 0 1 7.836986,-7.836987 7.8369865,7.8369865 0 0 1 7.836987,7.836987 z" id="path955" fill="#808080"  fill-opacity="1" gorn="0.3.0.0.0.1.1.1.0.1" stroke-width="0.0132292" stroke-opacity="1" style="fill-rule:nonzero;" stroke="none"/>
                                </g>
                                <path d="m 65.146471,42.324425 a 5.9978085,5.9978085 0 0 1 -5.997808,5.997808 5.9978085,5.9978085 0 0 1 -5.997809,-5.997808 5.9978085,5.9978085 0 0 1 5.997809,-5.997809 5.9978085,5.9978085 0 0 1 5.997808,5.997809 z" id="path971" fill="#cccccc"  fill-opacity="1" gorn="0.3.0.0.0.1.1.1.1" stroke-width="0.013" stroke-opacity="1" style="fill-rule:nonzero;stroke-miterlimit:4;stroke-dasharray:none;filter:url(#filter1015)" stroke="none"/>
                            </g>
                        </g>
                    </g>
                </g>
            </g>
        </g>
    </g>
</svg>
