<?xml version='1.0' encoding='UTF-8' standalone='no'?>
<svg
  xmlns="http://www.w3.org/2000/svg"
  xmlns:svg="http://www.w3.org/2000/svg"
  xmlns:rdf="http://www.w3.org/1999/02/22-rdf-syntax-ns#"
  xmlns:cc="http://creativecommons.org/ns#"
  xmlns:dc="http://purl.org/dc/elements/1.1/"
  shape-rendering="crispEdges"
  viewBox="0 0 2377.9373 1498.5916"
  x="0in"
  width="2.3779373in"
  height="1.4985917in"
  version="1.2"
  y="0in"
  id="svg2">
  <metadata
    id="metadata27">
    <rdf:RDF>
      <cc:Work
        rdf:about="">
        <dc:format>image/svg+xml</dc:format>
        <dc:type
          rdf:resource="http://purl.org/dc/dcmitype/StillImage"
        />
      </cc:Work>
    </rdf:RDF>
  </metadata>
  <defs
    id="defs25"
  />
  <desc
    id="desc4">
    <referenceFile>2-channel-relay-module_1_pcb.svg</referenceFile>
  </desc>
  <g
    id="silkscreen">
    <rect
      y="5"
      height="1488.5917"
      width="1968.5038"
      x="200.1272"
      gorn="0.1.0"
      id="upper"
      stroke-width="10"
      fill="none"
      stroke="#000000"
    />
    <circle
      id="path4155"
      cx="2055.7029"
      cy="104.2222"
      r="70"
      fill-opacity="1"
      fill="#000000"
      stroke="none"
      stroke-width="0"
    />
    <circle
      id="circle1656"
      cx="306.95459"
      cy="104.39969"
      r="70"
      fill-opacity="1"
      fill="#000000"
      stroke="none"
      stroke-width="0"
    />
    <circle
      id="circle1658"
      cx="306.95459"
      cy="1404.3995"
      r="70"
      fill-opacity="1"
      fill="#000000"
      stroke="none"
      stroke-width="0"
    />
    <circle
      id="circle1660"
      cx="2055.9546"
      cy="1404.3995"
      r="70"
      fill-opacity="1"
      fill="#000000"
      stroke="none"
      stroke-width="0"
    />
  </g>
  <g
    id="copper1">
    <g
      id="copper0">
      <circle
        stroke-width="20"
        stroke="#ffbf00"
        fill="none"
        id="connector0pin"
        gorn="0.2.0.1"
        cx="39"
        cy="311.17624"
        r="29"
      />
      <circle
        stroke-width="20"
        stroke="#ffbf00"
        fill="none"
        id="connector1pin"
        gorn="0.2.0.2"
        cx="39"
        cy="492.21552"
        r="29"
      />
      <circle
        stroke-width="20"
        stroke="#ffbf00"
        fill="none"
        id="connector2pin"
        gorn="0.2.0.3"
        cx="39"
        cy="672.21552"
        r="29"
      />
      <circle
        stroke-width="20"
        stroke="#ffbf00"
        fill="none"
        id="connector3pin"
        gorn="0.2.0.3"
        cx="39"
        cy="872.21552"
        r="29"
      />
      <circle
        stroke-width="20"
        stroke="#ffbf00"
        fill="none"
        id="connector4pin"
        gorn="0.2.0.3"
        cx="39"
        cy="1052.2155"
        r="29"
      />
      <circle
        stroke-width="20"
        stroke="#ffbf00"
        fill="none"
        id="connector5pin"
        gorn="0.2.0.3"
        cx="39"
        cy="1242.2155"
        r="29"
      />
      <circle
        stroke-width="20"
        stroke="#ffbf00"
        fill="none"
        id="connector12pin"
        gorn="0.2.0.3"
        cx="2338.9373"
        cy="872.21552"
        r="29"
      />
      <circle
        stroke-width="20"
        stroke="#ffbf00"
        fill="none"
        id="connector13pin"
        gorn="0.2.0.3"
        cx="2338.9373"
        cy="672.21552"
        r="29"
      />
      <circle
        stroke-width="20"
        stroke="#ffbf00"
        fill="none"
        id="connector14pin"
        gorn="0.2.0.3"
        cx="2338.9373"
        cy="472.21552"
        r="29"
      />
      <circle
        stroke-width="20"
        stroke="#ffbf00"
        fill="none"
        id="connector15pin"
        gorn="0.2.0.3"
        cx="2338.9373"
        cy="272.21552"
        r="29"
      />
    </g>
  </g>
</svg>
