<?xml version='1.0' encoding='UTF-8' standalone='no'?>
<svg
  xmlns:dc="http://purl.org/dc/elements/1.1/"
  xmlns:cc="http://creativecommons.org/ns#"
  xmlns:rdf="http://www.w3.org/1999/02/22-rdf-syntax-ns#"
  xmlns:svg="http://www.w3.org/2000/svg"
  xmlns="http://www.w3.org/2000/svg"
  xml:space="preserve"
  id="TCS230"
  enable-background="new 0 0 82.2 59.5"
  version="1.1"
  gorn="0"
  x="0px"
  y="0px"
  height="33.40873mm"
  viewBox="0 0 1318.4729 1315.3048"
  width="33.489201mm">
  <metadata
    id="metadata21">
    <rdf:RDF>
      <cc:Work
        rdf:about="">
        <dc:format>image/svg+xml</dc:format>
        <dc:type
          rdf:resource="http://purl.org/dc/dcmitype/StillImage"
        />
        <dc:title/>
      </cc:Work>
    </rdf:RDF>
  </metadata>
  <defs
    id="defs19">
        </defs>
  <desc
    id="desc2">
    <referenceFile>TCS3200-Color-Sensor-ra-pins_1_pcb.svg</referenceFile>
  </desc>
  <g
    id="silkscreen">
    <rect
      id="rect1350"
      width="1308.473"
      height="1305.3048"
      x="5"
      y="5"
      fill="none"
      stroke="#000000"
      stroke-width="10"
    />
    <circle
      id="circle2932"
      cx="1158.4434"
      cy="147.79166"
      r="60"
      fill="#000000"
      stroke="none"
      stroke-width="0"
    />
    <circle
      id="path1170"
      cx="142.81494"
      cy="147.75529"
      r="60"
      fill="#000000"
      stroke="none"
      stroke-width="0"
    />
    <circle
      id="circle1172"
      cx="142.81494"
      cy="1147.7524"
      r="60"
      fill="#000000"
      stroke="none"
      stroke-width="0"
    />
    <circle
      id="circle1174"
      cx="1158.4434"
      cy="1147.7524"
      r="60"
      fill="#000000"
      stroke="none"
      stroke-width="0"
    />
  </g>
  <g
    id="copper1">
    <g
      id="copper0">
      <circle
        id="connector0pin"
        cx="139.00003"
        cy="448.00015"
        r="29"
        fill="none"
        stroke="#f7bd13"
        stroke-width="20"
      />
      <circle
        id="connector1pin"
        cx="139.00003"
        cy="548.00018"
        r="29"
        fill="none"
        stroke="#f7bd13"
        stroke-width="20"
      />
      <circle
        id="connector2pin"
        cx="139.00003"
        cy="648.00024"
        r="29"
        fill="none"
        stroke="#f7bd13"
        stroke-width="20"
      />
      <circle
        id="connector3pin"
        cx="139.00003"
        cy="748.00024"
        r="29"
        fill="none"
        stroke="#f7bd13"
        stroke-width="20"
      />
      <circle
        id="connector4pin"
        cx="139.00003"
        cy="848.00031"
        r="29"
        fill="none"
        stroke="#f7bd13"
        stroke-width="20"
      />
      <circle
        id="connector5pin"
        cx="1164.0004"
        cy="848.00031"
        r="29"
        fill="none"
        stroke="#f7bd13"
        stroke-width="20"
      />
      <circle
        id="connector6pin"
        cx="1164.0004"
        cy="748.00024"
        r="29"
        fill="none"
        stroke="#f7bd13"
        stroke-width="20"
      />
      <circle
        id="connector7pin"
        cx="1164.0004"
        cy="648.00024"
        r="29"
        fill="none"
        stroke="#f7bd13"
        stroke-width="20"
      />
      <circle
        id="connector8pin"
        cx="1164.0004"
        cy="548.00018"
        r="29"
        fill="none"
        stroke="#f7bd13"
        stroke-width="20"
      />
      <circle
        id="connector9pin"
        cx="1164.0004"
        cy="448.00015"
        r="29"
        fill="none"
        stroke="#f7bd13"
        stroke-width="20"
      />
    </g>
  </g>
</svg>
