<?xml version='1.0' encoding='UTF-8' standalone='no'?>
<!-- Generator: Adobe Illustrator 15.0.2, SVG Export Plug-In . SVG Version: 6.00 Build 0)  -->
<svg xmlns="http://www.w3.org/2000/svg" width="0.800597in" x="0px" y="0px"  id="Layer_1" viewBox="0 0 57.643 71.833" version="1.2" xml:space="preserve" xmlns:xml="http://www.w3.org/XML/1998/namespace" gorn="0" height="0.997681in">
    <desc >
        <referenceFile >scd30_schematic.svg</referenceFile>
    </desc>
    <metadata  id="metadata111">
        <rdf:RDF xmlns:rdf="http://www.w3.org/1999/02/22-rdf-syntax-ns#">
            <cc:Work xmlns:rdf="http://www.w3.org/1999/02/22-rdf-syntax-ns#" rdf:about="" xmlns:cc="http://creativecommons.org/ns#">
                <dc:format xmlns:dc="http://purl.org/dc/elements/1.1/">image/svg+xml</dc:format>
                <dc:type xmlns:rdf="http://www.w3.org/1999/02/22-rdf-syntax-ns#" xmlns:dc="http://purl.org/dc/elements/1.1/" rdf:resource="http://purl.org/dc/dcmitype/StillImage"/>
                <dc:title xmlns:dc="http://purl.org/dc/elements/1.1/"/>
            </cc:Work>
        </rdf:RDF>
    </metadata>
    <defs  id="defs109"/>
    <g  id="background" gorn="0.3">
        <rect width="122.108" fill="#F2F2F2" x="-28.625" y="-21.614"  id="rect2" gorn="0.3.0" height="122.062"/>
    </g>
    <rect stroke="#000000" width="43.199001" fill="#ffffff" x="7.1999998" y="7.1999998"  id="part_symbol" stroke-width="0.90020001" style="stroke-linecap:round" gorn="0.4" height="57.598999"/>
    <g  id="g18" gorn="0.5">
        <line stroke="#555555" x2="57.599998" fill="none"  x1="50.401001" y1="50.400002" id="connector6pin" stroke-width="0.69999999" y2="50.400002" style="stroke-linecap:round;stroke-linejoin:round" gorn="0.5.0"/>
    </g>
    <g  id="g26" gorn="0.6">
        <line stroke="#555555" x2="28.799999" fill="none"  x1="28.799999" y1="64.799004" id="connector1pin" stroke-width="0.69999999" y2="72" style="stroke-linecap:round;stroke-linejoin:round" gorn="0.6.0"/>
    </g>
    <line stroke="#555555" x2="7.1999998" fill="none"  x1="0" y1="28.799999" id="connector3pin" stroke-width="0.69999999" y2="28.799999" style="stroke-linecap:round;stroke-linejoin:round" gorn="0.7"/>
    <line stroke="#555555" x2="7.1999998" fill="none"  x1="0" y1="21.6" id="connector2pin" stroke-width="0.69999999" y2="21.6" style="stroke-linecap:round;stroke-linejoin:round" gorn="0.8"/>
    <line stroke="#555555" x2="7.1999998" fill="none"  x1="0" y1="43.200001" id="connector5pin" stroke-width="0.69999999" y2="43.200001" style="stroke-linecap:round;stroke-linejoin:round" gorn="0.9"/>
    <line stroke="#555555" x2="7.1999998" fill="none"  x1="0" y1="36" id="connector4pin" stroke-width="0.69999999" y2="36" style="stroke-linecap:round;stroke-linejoin:round" gorn="0.10"/>
    <g  id="g38" gorn="0.11">
        <line stroke="#555555" x2="28.799999" fill="none"  x1="28.799999" y1="7.2010002" id="connector0pin" stroke-width="0.69999999" y2="0" style="stroke-linecap:round;stroke-linejoin:round" gorn="0.11.0"/>
    </g>
    <text x="40.7122" y="51.619598"  id="text72" font-size="4.5" style="font-size:4.5px;font-family:DroidSans;fill:#555555" gorn="0.12">SEL</text>
    <text x="24.6106" y="62.484901"  id="text78" font-size="4.5" style="font-size:4.5px;font-family:DroidSans;fill:#555555" gorn="0.13">Gnd</text>
    <text x="25.511999" y="12.5352"  id="text80" font-size="4.5" style="font-size:4.5px;font-family:DroidSans;fill:#555555" gorn="0.14">V</text>
    <text x="27.932899" y="12.5352"  id="text82" font-size="4.5" style="font-size:4.5px;font-family:DroidSans;fill:#555555" gorn="0.15">c</text>
    <text x="30.0168" y="12.5352"  id="text84" font-size="4.5" style="font-size:4.5px;font-family:DroidSans;fill:#555555" gorn="0.16">c</text>
    <text x="9.2594995" y="22.683599"  id="text86" font-size="4.5" style="font-size:4.5px;font-family:DroidSans;fill:#555555" gorn="0.17">TX/SCL</text>
    <text x="9.2189999" y="29.9863"  id="text88" font-size="4.5" style="font-size:4.5px;font-family:DroidSans;fill:#555555" gorn="0.18">RX/SDA</text>
    <text x="9.2594995" y="37.068802"  id="text90" font-size="4.5" style="font-size:4.5px;font-family:DroidSans;fill:#555555" gorn="0.19">RDY</text>
    <text x="9.2189999" y="44.371601"  id="text92" font-size="4.5" style="font-size:4.5px;font-family:DroidSans;fill:#555555" gorn="0.20">PWM</text>
    <text x="18.123491" y="51.748039"  id="text101" font-size="6" style="font-size:6px;font-family:DroidSans" gorn="0.21">SCD30 </text>
</svg>
