<?xml version='1.0' encoding='UTF-8' standalone='no'?>
<svg
  xmlns:dc="http://purl.org/dc/elements/1.1/"
  xmlns:cc="http://creativecommons.org/ns#"
  xmlns:rdf="http://www.w3.org/1999/02/22-rdf-syntax-ns#"
  xmlns:svg="http://www.w3.org/2000/svg"
  xmlns="http://www.w3.org/2000/svg"
  viewBox="0 0 743.88906 1000"
  width="0.74388903in"
  gorn="0"
  version="1.2"
  height="1in"
  x="0in"
  y="0in"
  id="svg2">
  <desc
    id="desc2">
    <referenceFile>DualFemaleUsbAConnectors_1_breadboard.svg</referenceFile>
  </desc>
  <metadata
    id="metadata110">
    <rdf:RDF>
      <cc:Work
        rdf:about="">
        <dc:format>image/svg+xml</dc:format>
        <dc:type
          rdf:resource="http://purl.org/dc/dcmitype/StillImage"
        />
        <dc:title/>
      </cc:Work>
    </rdf:RDF>
  </metadata>
  <defs
    id="defs108"
  />
  <desc
    id="desc4">Fritzing
    breadboard
    generated
    by
    brd2svg</desc>
  <g
    id="breadboard">
    <path
      stroke="none"
      gorn="0.4.0.0"
      d="m 0,0 v 470 a 30,30 0 0 1 0,60 v 470 H 743.889 V 0 Z"
      fill="#1f7a34"
      id="path8"
      stroke-width="0"
    />
    <path
      gorn="0.4.0.1"
      d="m 184.10035,232.41753 v 518.1055 h 17.7667 v 18.9667 h 185.9222 l 1.2889,-12.1778 h 5.8445 l 1.2889,12.1778 h 186.1555 v -18.9667 h 17.7556 v -518.1055 z m 138.0889,401.07783 c -0.6222,3.41111 -4.4,6.16666 -8.8333,6.16666 h -49.4556 c -4.4111,0 -8.4444,-2.82222 -8.8777,-6.16666 l -31.1778,-229.83337 c -0.5667,-3.38889 2.8444,-6.18889 7.1778,-6.18889 h 7.2777 c 4.4,0 8.4111,2.82223 8.8889,6.18889 l 23.4889,193.15558 c 0.3667,3.44445 4.1445,6.2 8.8111,6.2 h 18.3556 c 4.2555,0 8.4444,-2.8 8.8555,-6.2 l 23.3778,-193.16669 c 0.5222,-3.36666 4.1445,-6.16666 8.8556,-6.16666 l 7.1778,-0.0222 c 4.3777,0 7.7,2.82223 7.2666,6.16667 z m 207.0445,0 c -0.6111,3.41111 -4.4,6.16666 -8.8556,6.16666 h -49.4333 c -4.4,0 -8.4445,-2.82222 -8.9,-6.16666 l -31.1889,-229.83337 c -0.5444,-3.38889 2.8667,-6.18889 7.1778,-6.18889 h 7.2666 c 4.4,0 8.4,2.82223 8.8556,6.18889 l 23.5333,193.15558 c 0.3445,3.44445 4.1223,6.2 8.8111,6.2 h 18.3334 c 4.2555,0 8.4444,-2.8 8.8555,-6.2 l 23.3889,-193.16669 c 0.5445,-3.36666 4.1445,-6.16666 8.8334,-6.16666 l 7.1777,-0.0222 c 4.3889,0 7.7,2.82223 7.2667,6.16667 z"
      id="path5"
      fill="#4d4d4d"
    />
    <rect
      width="357.64447"
      gorn="0.4.0.2"
      height="371.53339"
      x="213.37816"
      id="rect7"
      y="277.67856"
      fill="#808080"
    />
    <rect
      width="357.64447"
      gorn="0.4.0.3"
      height="19.444447"
      x="213.37816"
      id="rect9"
      y="726.98975"
      fill="#f2f2f2"
    />
    <path
      gorn="0.4.0.4"
      d="m 584.35595,694.98983 h 11.1111 c 0,5.9444 1.1111,9.8333 3,11.0889 0.7334,0.3444 6.9667,1.1889 11.2889,1.1889 v 7.4889 3.6222 36.7444 1.7111 9.4 c -6.7222,0 -14.6222,-1.2333 -17.3667,-3.0111 -7.3777,-4.9444 -7.9444,-14.9 -8.0111,-19.3111 l -0.022,-0.022 v -44.4444 l 0.2222,0.1222 c -0.2,-1.9333 -0.2222,-3.5667 -0.2222,-4.5778 z"
      id="path11"
      fill="#b0b0b0"
    />
    <path
      gorn="0.4.0.5"
      d="m 597.15595,704.53423 c -1.1111,-1.9111 -1.6667,-5.1666 -1.6667,-9.5666 h -11.1111 v 47.8333 c 0,3.1222 0.089,11.5 4.7778,17.3778 1.3889,1.6111 2.1,3.4778 9.0333,4.9889 -1.1444,-1.9556 -1.0333,-60.6334 -1.0333,-60.6334 z"
      id="path13"
      fill="#8f8f8f"
    />
    <path
      gorn="0.4.0.6"
      d="m 200.00035,694.98983 h -11.1111 c 0,5.9444 -1.1222,9.8333 -3.0111,11.0889 -0.7222,0.3444 -6.9667,1.1889 -11.2444,1.1889 v 7.4889 3.6222 36.7444 1.7111 9.4 c 6.7111,0 14.6444,-1.2333 17.3333,-3.0111 7.3889,-4.9444 7.9889,-14.9 8.0333,-19.3111 l 0.011,-0.022 v -44.4444 l -0.2222,0.1222 c 0.2,-1.9333 0.2111,-3.5667 0.2111,-4.5778 z"
      id="path15"
      fill="#b0b0b0"
    />
    <path
      gorn="0.4.0.7"
      d="m 186.23375,765.12313 c 6.8777,-1.5 7.6444,-3.4333 9.0222,-5.0111 4.7222,-5.7889 4.7889,-14.1667 4.7889,-17.3222 v -47.8333 h -11.1111 c 0,4.4 -0.6445,7.6444 -1.6556,9.5222 -0.056,0.056 0.011,58.7333 -1.0444,60.6444 z"
      id="path17"
      fill="#8f8f8f"
    />
    <path
      gorn="0.4.0.8"
      d="m 184.10035,192.60077 v 429.03337 h 17.7667 v 18.96667 h 380.5556 v -18.96667 h 17.7333 V 192.60077 Z m 138.0889,401.07781 c -0.6222,3.40001 -4.4,6.15556 -8.8333,6.15556 h -49.4556 c -4.4111,0 -8.4444,-2.8 -8.8777,-6.15556 l -31.1778,-229.84447 c -0.5667,-3.37778 2.8444,-6.17778 7.1778,-6.17778 h 7.2777 c 4.4,0 8.4111,2.81111 8.8889,6.17778 l 23.4889,193.1778 c 0.3667,3.47778 4.1445,6.23334 8.8111,6.23334 h 18.3556 c 4.2555,0 8.4444,-2.84445 8.8555,-6.23334 l 23.3778,-193.16669 c 0.5222,-3.37778 4.1445,-6.16666 8.8556,-6.16666 l 7.1778,-0.0222 c 4.3777,0 7.7,2.81111 7.2666,6.16667 l -31.1889,229.85558 z m 207.0445,0 c -0.6111,3.40001 -4.4,6.15556 -8.8556,6.15556 h -49.4333 c -4.4,0 -8.4445,-2.8 -8.9,-6.15556 l -31.1889,-229.84447 c -0.5444,-3.37778 2.8667,-6.17778 7.1778,-6.17778 h 7.2666 c 4.4,0 8.4,2.81111 8.8556,6.17778 l 23.5222,193.1778 c 0.3445,3.47778 4.1222,6.23334 8.8111,6.23334 h 18.3334 c 4.2555,0 8.4444,-2.84445 8.8555,-6.23334 l 23.3889,-193.16669 c 0.5445,-3.37778 4.1445,-6.16666 8.8333,-6.16666 l 7.1778,-0.0222 c 4.3889,0 7.7,2.81111 7.2667,6.16667 l -31.1111,229.85558 z"
      id="path19"
      fill="#b3b3b3"
    />
    <polygon
      points="11.995,31.708 8.538,31.708 8.7,33.339 11.81,33.339 "
      gorn="0.4.0.9.0.0.0.0"
      id="polygon21"
      transform="matrix(11.111112,0,0,11.111113,174.63375,270.38977)"
      fill="none"
    />
    <polygon
      points="8.7,33.339 8.538,31.708 11.995,31.708 11.81,33.339 "
      gorn="0.4.0.10.0.0.0.0"
      id="polygon23"
      transform="matrix(11.111112,0,0,11.111113,174.63375,270.38977)"
      fill="#939393"
    />
    <polygon
      points="8.442,31.024 8.538,31.708 11.995,31.708 12.079,31.024 "
      gorn="0.4.0.11.0.0.0.0"
      id="polygon25"
      transform="matrix(11.111112,0,0,11.111113,174.63375,270.38977)"
      fill="#666666"
    />
    <polygon
      points="30.625,31.708 27.17,31.708 27.332,33.339 30.443,33.339 "
      gorn="0.4.0.12.0.0.0.0"
      id="polygon27"
      transform="matrix(11.111112,0,0,11.111113,174.63375,270.38977)"
      fill="none"
    />
    <polygon
      points="27.332,33.339 27.17,31.708 30.625,31.708 30.443,33.339 "
      gorn="0.4.0.13.0.0.0.0"
      id="polygon29"
      transform="matrix(11.111112,0,0,11.111113,174.63375,270.38977)"
      fill="#939393"
    />
    <polygon
      points="27.074,31.024 27.17,31.708 30.625,31.708 30.709,31.024 "
      gorn="0.4.0.14.0.0.0.0"
      id="polygon31"
      transform="matrix(11.111112,0,0,11.111113,174.63375,270.38977)"
      fill="#666666"
    />
    <line
      y1="204.43484"
      y2="613.77924"
      x1="190.41148"
      x2="190.41148"
      stroke="#ffffff"
      stroke-opacity="0.24"
      gorn="0.4.0.15"
      fill="none"
      id="line33"
      stroke-width="8.96"
      stroke-linecap="round"
    />
    <line
      y1="204.43484"
      y2="615.44592"
      x1="593.81152"
      x2="593.81152"
      stroke="#ffffff"
      stroke-opacity="0.24"
      gorn="0.4.0.16"
      fill="none"
      id="line35"
      stroke-width="8.96"
      stroke-linecap="round"
    />
    <line
      y1="705.81201"
      y2="705.81201"
      x1="579.94482"
      x2="204.27818"
      stroke="#000000"
      stroke-opacity="0.15"
      gorn="0.4.0.17"
      fill="none"
      id="line37"
      stroke-width="4.48"
      stroke-linecap="round"
    />
    <rect
      width="380.55557"
      gorn="0.4.0.18"
      height="7.2222228"
      x="201.84483"
      id="rect39"
      y="711.15637"
      fill="#b0b0b0"
    />
    <polygon
      points="2.449,45.28 19.116,45.28 19.184,44.626 2.449,44.626 "
      gorn="0.4.0.19.0.0.0.0"
      id="polygon41"
      transform="matrix(11.111112,0,0,11.111113,174.63375,270.38977)"
      fill="#b0b0b0"
    />
    <polygon
      points="36.699,45.28 36.699,44.626 19.945,44.626 20.013,45.28 "
      gorn="0.4.0.20.0.0.0.0"
      id="polygon43"
      transform="matrix(11.111112,0,0,11.111113,174.63375,270.38977)"
      fill="#b0b0b0"
    />
    <rect
      width="357.64447"
      gorn="0.4.0.21"
      height="19.444447"
      x="212.88683"
      id="rect9-4"
      y="666.01788"
      fill="#f2f2f2"
    />
    <path
      gorn="0.4.0.22"
      d="m 583.86465,634.01788 h 11.1111 c 0,5.94444 1.1111,9.83333 3,11.08889 0.7333,0.34444 6.9667,1.18889 11.2889,1.18889 v 7.48887 3.6222 36.7445 1.7111 9.4 c -6.7222,0 -14.6222,-1.2333 -17.3667,-3.0111 -7.3778,-4.9444 -7.9444,-14.9 -8.0111,-19.3111 l -0.022,-0.022 v -44.44447 l 0.2222,0.12223 c -0.2,-1.93334 -0.2222,-3.56667 -0.2222,-4.57778 z"
      id="path11-8"
      fill="#b0b0b0"
    />
    <path
      gorn="0.4.0.23"
      d="m 596.66465,643.56232 c -1.1111,-1.91111 -1.6667,-5.16666 -1.6667,-9.56666 h -11.1111 v 47.83337 c 0,3.1222 0.089,11.5 4.7778,17.3778 1.3889,1.6111 2.1,3.4777 9.0333,4.9888 -1.1444,-1.9555 -1.0333,-60.63331 -1.0333,-60.63331 z"
      id="path13-7"
      fill="#8f8f8f"
    />
    <path
      gorn="0.4.0.24"
      d="m 199.50905,634.01788 h -11.1111 c 0,5.94444 -1.1222,9.83333 -3.0111,11.08889 -0.7222,0.34444 -6.9667,1.18889 -11.2445,1.18889 v 7.48887 3.6222 36.7445 1.7111 9.4 c 6.7112,0 14.6445,-1.2333 17.3334,-3.0111 7.3889,-4.9444 7.9889,-14.9 8.0333,-19.3111 l 0.011,-0.022 v -44.44447 l -0.2222,0.12223 c 0.2,-1.93334 0.2111,-3.56667 0.2111,-4.57778 z"
      id="path15-4"
      fill="#b0b0b0"
    />
    <path
      gorn="0.4.0.25"
      d="m 185.74235,704.15123 c 6.8778,-1.5 7.6445,-3.4333 9.0223,-5.0111 4.7222,-5.7889 4.7889,-14.1667 4.7889,-17.3222 v -47.83338 h -11.1112 c 0,4.4 -0.6444,7.64444 -1.6555,9.52222 -0.056,0.0555 0.011,58.73336 -1.0445,60.64446 z"
      id="path17-1"
      fill="#8f8f8f"
    />
    <line
      y1="644.84003"
      y2="644.84003"
      x1="579.45349"
      x2="203.78685"
      stroke="#000000"
      stroke-opacity="0.15"
      gorn="0.4.0.26"
      fill="none"
      id="line37-8"
      stroke-width="4.48"
      stroke-linecap="round"
    />
    <rect
      width="380.55557"
      gorn="0.4.0.27"
      height="7.2222228"
      x="201.3535"
      id="rect39-2"
      y="650.18445"
      fill="#b0b0b0"
    />
    <polygon
      points="19.184,44.626 2.449,44.626 2.449,45.28 19.116,45.28 "
      gorn="0.4.0.28.0.0.0.0"
      id="polygon41-5"
      transform="matrix(11.111112,0,0,11.111113,174.14235,209.41784)"
      fill="#b0b0b0"
    />
    <polygon
      points="19.945,44.626 20.013,45.28 36.699,45.28 36.699,44.626 "
      gorn="0.4.0.29.0.0.0.0"
      id="polygon43-9"
      transform="matrix(11.111112,0,0,11.111113,174.14235,209.41784)"
      fill="#b0b0b0"
    />
    <rect
      width="31.93"
      gorn="0.4.1.0.0.0.0.0"
      height="31.9"
      x="205.97778"
      y="934.04449"
      id="rect902"
      fill="#8d8c8c"
    />
    <rect
      width="16.444201"
      gorn="0.4.1.0.0.0.0.1"
      height="16.415199"
      x="213.76932"
      y="941.77997"
      id="rect133"
      fill="#8c8663"
    />
    <polygon
      points="7.79153,6.97162 0,0 0,31.9 7.79153,24.1368 "
      gorn="0.4.1.0.0.0.0.2"
      id="polygon85-9"
      transform="translate(205.97779,934.04452)"
      fill="#b8af82"
    />
    <polygon
      points="0,0 31.93,0 24.2079,7.76321 7.90264,7.76321 "
      gorn="0.4.1.0.0.0.0.3"
      id="polygon87-5"
      transform="translate(205.97779,934.04452)"
      fill="#80795b"
    />
    <polygon
      points="31.93,0 31.93,31.9 24.2079,24.1368 24.2079,7.76321 "
      gorn="0.4.1.0.0.0.0.4"
      id="polygon89-9"
      transform="translate(205.97779,934.04452)"
      fill="#5e5b43"
    />
    <polygon
      points="24.2079,24.1368 31.93,31.9 0,31.9 7.87486,24.1368 "
      gorn="0.4.1.0.0.0.0.5"
      id="polygon91-1"
      transform="translate(205.97779,934.04452)"
      fill="#9a916c"
    />
    <rect
      width="31.93"
      height="31.9"
      x="305.98001"
      y="934.04999"
      id="rect904"
      fill="#8d8c8c"
    />
    <rect
      width="16.444201"
      gorn="0.4.2.0.0.0.0.1"
      height="16.415199"
      x="313.77151"
      y="941.78546"
      id="rect906"
      fill="#8c8663"
    />
    <polygon
      points="0,31.9 7.79153,24.1368 7.79153,6.97162 0,0 "
      gorn="0.4.2.0.0.0.0.2"
      id="polygon59"
      transform="translate(305.98,934.05)"
      fill="#b8af82"
    />
    <polygon
      points="24.2079,7.76321 7.90264,7.76321 0,0 31.93,0 "
      gorn="0.4.2.0.0.0.0.3"
      id="polygon61"
      transform="translate(305.98,934.05)"
      fill="#80795b"
    />
    <polygon
      points="24.2079,24.1368 24.2079,7.76321 31.93,0 31.93,31.9 "
      gorn="0.4.2.0.0.0.0.4"
      id="polygon63"
      transform="translate(305.98,934.05)"
      fill="#5e5b43"
    />
    <polygon
      points="0,31.9 7.87486,24.1368 24.2079,24.1368 31.93,31.9 "
      gorn="0.4.2.0.0.0.0.5"
      id="polygon65"
      transform="translate(305.98,934.05)"
      fill="#9a916c"
    />
    <rect
      width="31.93"
      height="31.9"
      x="405.98001"
      y="934.04999"
      id="rect149"
      fill="#8d8c8c"
    />
    <rect
      width="16.444201"
      gorn="0.4.3.0.0.0.0.1"
      height="16.415199"
      x="413.77151"
      y="941.78546"
      id="rect165"
      fill="#8c8663"
    />
    <polygon
      points="0,0 0,31.9 7.79153,24.1368 7.79153,6.97162 "
      gorn="0.4.3.0.0.0.0.2"
      id="polygon85"
      transform="translate(405.98,934.05)"
      fill="#b8af82"
    />
    <polygon
      points="31.93,0 24.2079,7.76321 7.90264,7.76321 0,0 "
      gorn="0.4.3.0.0.0.0.3"
      id="polygon87"
      transform="translate(405.98,934.05)"
      fill="#80795b"
    />
    <polygon
      points="31.93,31.9 24.2079,24.1368 24.2079,7.76321 31.93,0 "
      gorn="0.4.3.0.0.0.0.4"
      id="polygon89"
      transform="translate(405.98,934.05)"
      fill="#5e5b43"
    />
    <polygon
      points="31.93,31.9 0,31.9 7.87486,24.1368 24.2079,24.1368 "
      gorn="0.4.3.0.0.0.0.5"
      id="polygon91"
      transform="translate(405.98,934.05)"
      fill="#9a916c"
    />
    <rect
      width="31.93"
      height="31.9"
      x="505.97781"
      y="934.04449"
      id="rect920"
      fill="#8d8c8c"
    />
    <rect
      width="16.444201"
      gorn="0.4.4.0.0.0.0.1"
      height="16.415199"
      x="513.76935"
      y="941.77997"
      id="rect922"
      fill="#8c8663"
    />
    <polygon
      points="0,31.9 7.79153,24.1368 7.79153,6.97162 0,0 "
      gorn="0.4.4.0.0.0.0.2"
      id="polygon85-0"
      transform="translate(505.9778,934.04452)"
      fill="#b8af82"
    />
    <polygon
      points="24.2079,7.76321 7.90264,7.76321 0,0 31.93,0 "
      gorn="0.4.4.0.0.0.0.3"
      id="polygon87-7"
      transform="translate(505.9778,934.04452)"
      fill="#80795b"
    />
    <polygon
      points="24.2079,24.1368 24.2079,7.76321 31.93,0 31.93,31.9 "
      gorn="0.4.4.0.0.0.0.4"
      id="polygon89-1"
      transform="translate(505.9778,934.04452)"
      fill="#5e5b43"
    />
    <polygon
      points="0,31.9 7.87486,24.1368 24.2079,24.1368 31.93,31.9 "
      gorn="0.4.4.0.0.0.0.5"
      id="polygon91-6"
      transform="translate(505.9778,934.04452)"
      fill="#9a916c"
    />
    <rect
      width="31.93"
      height="31.9"
      x="205.97778"
      y="34.055519"
      id="rect181"
      fill="#8d8c8c"
    />
    <rect
      width="16.444201"
      gorn="0.4.5.0.0.0.0.1"
      height="16.415199"
      x="213.76932"
      y="41.790962"
      id="rect926"
      fill="#8c8663"
    />
    <polygon
      points="7.79153,6.97162 0,0 0,31.9 7.79153,24.1368 "
      gorn="0.4.5.0.0.0.0.2"
      id="polygon85-9-0"
      transform="translate(205.97779,34.055521)"
      fill="#b8af82"
    />
    <polygon
      points="0,0 31.93,0 24.2079,7.76321 7.90264,7.76321 "
      gorn="0.4.5.0.0.0.0.3"
      id="polygon87-5-9"
      transform="translate(205.97779,34.055521)"
      fill="#80795b"
    />
    <polygon
      points="31.93,0 31.93,31.9 24.2079,24.1368 24.2079,7.76321 "
      gorn="0.4.5.0.0.0.0.4"
      id="polygon89-9-4"
      transform="translate(205.97779,34.055521)"
      fill="#5e5b43"
    />
    <polygon
      points="24.2079,24.1368 31.93,31.9 0,31.9 7.87486,24.1368 "
      gorn="0.4.5.0.0.0.0.5"
      id="polygon91-1-8"
      transform="translate(205.97779,34.055521)"
      fill="#9a916c"
    />
    <rect
      width="31.93"
      height="31.9"
      x="305.98001"
      y="34.049999"
      id="rect197"
      fill="#8d8c8c"
    />
    <rect
      width="16.444201"
      gorn="0.4.6.0.0.0.0.1"
      height="16.415199"
      fill="#8c8663"
      x="313.77151"
      y="41.785439"
      id="rect914"
    />
    <polygon
      points="7.79153,6.97162 0,0 0,31.9 7.79153,24.1368 "
      gorn="0.4.6.0.0.0.0.2"
      fill="#b8af82"
      id="polygon72"
      transform="translate(305.98,34.05)"
    />
    <polygon
      points="0,0 31.93,0 24.2079,7.76321 7.90264,7.76321 "
      gorn="0.4.6.0.0.0.0.3"
      fill="#80795b"
      id="polygon74"
      transform="translate(305.98,34.05)"
    />
    <polygon
      points="31.93,0 31.93,31.9 24.2079,24.1368 24.2079,7.76321 "
      gorn="0.4.6.0.0.0.0.4"
      fill="#5e5b43"
      id="polygon76"
      transform="translate(305.98,34.05)"
    />
    <polygon
      points="24.2079,24.1368 31.93,31.9 0,31.9 7.87486,24.1368 "
      gorn="0.4.6.0.0.0.0.5"
      fill="#9a916c"
      id="polygon78"
      transform="translate(305.98,34.05)"
    />
    <rect
      width="31.93"
      height="31.9"
      fill="#8d8c8c"
      x="405.98001"
      y="34.049999"
      id="rect213"
    />
    <rect
      width="16.444201"
      gorn="0.4.7.0.0.0.0.1"
      height="16.415199"
      fill="#8c8663"
      x="413.77151"
      y="41.785439"
      id="rect910"
    />
    <polygon
      points="7.79153,6.97162 0,0 0,31.9 7.79153,24.1368 "
      gorn="0.4.7.0.0.0.0.2"
      fill="#b8af82"
      id="polygon98"
      transform="translate(405.98,34.05)"
    />
    <polygon
      points="0,0 31.93,0 24.2079,7.76321 7.90264,7.76321 "
      gorn="0.4.7.0.0.0.0.3"
      fill="#80795b"
      id="polygon100"
      transform="translate(405.98,34.05)"
    />
    <polygon
      points="31.93,0 31.93,31.9 24.2079,24.1368 24.2079,7.76321 "
      gorn="0.4.7.0.0.0.0.4"
      fill="#5e5b43"
      id="polygon102"
      transform="translate(405.98,34.05)"
    />
    <polygon
      points="24.2079,24.1368 31.93,31.9 0,31.9 7.87486,24.1368 "
      gorn="0.4.7.0.0.0.0.5"
      fill="#9a916c"
      id="polygon104"
      transform="translate(405.98,34.05)"
    />
    <rect
      width="31.93"
      height="31.9"
      x="505.97781"
      y="34.055519"
      id="rect229"
      fill="#8d8c8c"
    />
    <rect
      width="16.444201"
      gorn="0.4.8.0.0.0.0.1"
      height="16.415199"
      x="513.76935"
      y="41.790962"
      id="rect918"
      fill="#8c8663"
    />
    <polygon
      points="7.79153,6.97162 0,0 0,31.9 7.79153,24.1368 "
      gorn="0.4.8.0.0.0.0.2"
      id="polygon85-0-6"
      transform="translate(505.9778,34.055521)"
      fill="#b8af82"
    />
    <polygon
      points="0,0 31.93,0 24.2079,7.76321 7.90264,7.76321 "
      gorn="0.4.8.0.0.0.0.3"
      id="polygon87-7-0"
      transform="translate(505.9778,34.055521)"
      fill="#80795b"
    />
    <polygon
      points="31.93,0 31.93,31.9 24.2079,24.1368 24.2079,7.76321 "
      gorn="0.4.8.0.0.0.0.4"
      id="polygon89-1-7"
      transform="translate(505.9778,34.055521)"
      fill="#5e5b43"
    />
    <polygon
      points="24.2079,24.1368 31.93,31.9 0,31.9 7.87486,24.1368 "
      gorn="0.4.8.0.0.0.0.5"
      id="polygon91-6-3"
      transform="translate(505.9778,34.055521)"
      fill="#9a916c"
    />
    <rect
      width="31.93"
      gorn="0.4.1.0.0.0.0.0"
      height="31.9"
      x="205.97778"
      y="934.04449"
      id="connector0pin"
      fill="none"
    />
    <rect
      width="16.444201"
      gorn="0.4.2.0.0.0.0.1"
      height="16.415199"
      x="313.77151"
      y="941.78546"
      id="connector1pin"
      fill="none"
    />
    <rect
      width="16.444201"
      gorn="0.4.3.0.0.0.0.1"
      height="16.415199"
      x="413.77151"
      y="941.78546"
      id="connector2pin"
      fill="none"
    />
    <rect
      width="16.444201"
      gorn="0.4.4.0.0.0.0.1"
      height="16.415199"
      x="513.76935"
      y="941.77997"
      id="connector3pin"
      fill="none"
    />
    <rect
      width="16.444201"
      gorn="0.4.8.0.0.0.0.1"
      height="16.415199"
      x="513.76935"
      y="41.790962"
      id="connector4pin"
      fill="none"
    />
    <rect
      width="16.444201"
      gorn="0.4.7.0.0.0.0.1"
      height="16.415199"
      fill="none"
      x="413.77151"
      y="41.785439"
      id="connector5pin"
    />
    <rect
      width="16.444201"
      gorn="0.4.6.0.0.0.0.1"
      height="16.415199"
      fill="none"
      x="313.77151"
      y="41.785439"
      id="connector6pin"
    />
    <rect
      width="16.444201"
      gorn="0.4.5.0.0.0.0.1"
      height="16.415199"
      x="213.76932"
      y="41.790962"
      id="connector7pin"
      fill="none"
    />
  </g>
</svg>
