<?xml version="1.0" encoding="UTF-8" standalone="no"?>
<svg
   xmlns:dc="http://purl.org/dc/elements/1.1/"
   xmlns:cc="http://creativecommons.org/ns#"
   xmlns:rdf="http://www.w3.org/1999/02/22-rdf-syntax-ns#"
   xmlns:svg="http://www.w3.org/2000/svg"
   xmlns="http://www.w3.org/2000/svg"
   viewBox="0 0 686.59137 647.323"
   width="0.68659115in"
   gorn="0"
   version="1.2"
   height="0.64732277in"
   x="0in"
   y="0in"
   id="svg2">
  <desc
     id="desc2">
    <referenceFile>DualFemaleUsbAConnectors_1_pcb.svg</referenceFile>
  </desc>
  <metadata
     id="metadata41">
    <rdf:RDF>
      <cc:Work
         rdf:about="">
        <dc:format>image/svg+xml</dc:format>
        <dc:type
           rdf:resource="http://purl.org/dc/dcmitype/StillImage" />
        <dc:title></dc:title>
      </cc:Work>
    </rdf:RDF>
  </metadata>
  <defs
     id="defs39" />
  <g
     id="silkscreen">
    <rect
       id="rect189"
       width="676.59137"
       height="513.20551"
       x="5"
       y="66.181122"
       fill="none"
       stroke="#000000"
       stroke-width="10" />
  </g>
  <g
     id="copper1">
    <g
       id="copper0">
      <circle
         cx="389.18335"
         cy="65"
         stroke="#f7bd13"
         fill="none"
         id="circle193"
         stroke-width="20"
         r="55" />
      <circle
         cx="612.80554"
         cy="65"
         stroke="#f7bd13"
         fill="none"
         id="circle8"
         stroke-width="20"
         r="55" />
      <circle
         cx="612.80548"
         cy="582.323"
         stroke="#f7bd13"
         r="55"
         fill="none"
         id="circle191"
         stroke-width="20" />
      <circle
         cx="389.18338"
         cy="582.323"
         stroke="#f7bd13"
         fill="none"
         stroke-width="20"
         id="circle10"
         r="55" />
      <circle
         connectorname="VBUS-1"
         cx="495.70309"
         cy="440.41745"
         stroke="#f7bd13"
         gorn="0.3.0.0.0.7"
         fill="none"
         id="connector3pin"
         stroke-width="10"
         stroke-miterlimit="4"
         stroke-dasharray="none"
         r="24" />
      <circle
         cx="495.70309"
         cy="361.67725"
         stroke="#f7bd13"
         gorn="0.3.0.0.0.6"
         r="24"
         fill="none"
         id="connector2pin"
         stroke-width="10" />
      <circle
         cx="495.70309"
         cy="282.93707"
         stroke="#f7bd13"
         r="24"
         fill="none"
         id="connector1pin"
         stroke-width="10" />
      <circle
         cx="495.70309"
         cy="204.19691"
         stroke="#f7bd13"
         r="24"
         fill="none"
         stroke-width="10"
         id="connector0pin" />
      <circle
         cx="598.85278"
         cy="440.41745"
         stroke="#f7bd13"
         r="24"
         fill="none"
         id="connector4pin"
         stroke-width="10" />
      <circle
         cx="598.85278"
         cy="361.67725"
         stroke="#f7bd13"
         r="24"
         fill="none"
         id="connector5pin"
         stroke-width="10" />
      <circle
         cx="598.85278"
         cy="282.93707"
         stroke="#f7bd13"
         r="24"
         fill="none"
         id="connector6pin"
         stroke-width="10" />
      <circle
         cx="598.85278"
         cy="204.19691"
         stroke="#f7bd13"
         r="24"
         fill="none"
         id="connector7pin"
         stroke-width="10" />
    </g>
  </g>
</svg>
