<?xml version='1.0' encoding='UTF-8' standalone='no'?>
<svg xmlns="http://www.w3.org/2000/svg" id="Layer_1" xmlns:xml="http://www.w3.org/XML/1998/namespace" height="79.2px" enable-background="new 0 0 59.04 79.2"  version="1.1" gorn="0" x="0px" y="0px" viewBox="0 0 59.04 79.2" xml:space="preserve" width="59.04px">
    <desc >
        <referenceFile >PMW3366_MrJohnK.svg</referenceFile>
    </desc>
    <metadata id="metadata9489" >
        <rdf:RDF xmlns:rdf="http://www.w3.org/1999/02/22-rdf-syntax-ns#">
            <cc:Work xmlns:rdf="http://www.w3.org/1999/02/22-rdf-syntax-ns#" xmlns:cc="http://creativecommons.org/ns#" rdf:about="">
                <dc:format xmlns:dc="http://purl.org/dc/elements/1.1/">image/svg+xml</dc:format>
                <dc:type xmlns:dc="http://purl.org/dc/elements/1.1/" xmlns:rdf="http://www.w3.org/1999/02/22-rdf-syntax-ns#" rdf:resource="http://purl.org/dc/dcmitype/StillImage"/>
                <dc:title xmlns:dc="http://purl.org/dc/elements/1.1/"/>
            </cc:Work>
        </rdf:RDF>
    </metadata>
    <defs id="defs9487" />
    <g id="breadboard"  gorn="0.3">
        <g id="icon"  gorn="0.3.0">
            <g id="Module"  gorn="0.3.0.0">
                <path id="path9413"  d="M 0,0 V 79.2 H 59.04 V 0 Z m 55.293,19.335 c 0.955,0 1.729,0.773 1.729,1.728 0,0.955 -0.772,1.728 -1.729,1.728 -0.953,0 -1.728,-0.773 -1.728,-1.728 0,-0.955 0.775,-1.728 1.728,-1.728 z m 0,14.4 c 0.955,0 1.729,0.773 1.729,1.728 0,0.955 -0.772,1.728 -1.729,1.728 -0.953,0 -1.728,-0.773 -1.728,-1.728 0,-0.955 0.775,-1.728 1.728,-1.728 z m 0,14.401 c 0.955,0 1.729,0.772 1.729,1.728 0,0.956 -0.772,1.729 -1.729,1.729 -0.953,0 -1.728,-0.773 -1.728,-1.729 0,-0.956 0.775,-1.728 1.728,-1.728 z M 29.52,2.065 c 1.918,0 3.473,1.555 3.473,3.473 0,1.918 -1.555,3.472 -3.473,3.472 -1.918,0 -3.473,-1.555 -3.473,-3.473 0,-1.918 1.555,-3.472 3.473,-3.472 z m 0,75.07 c -1.918,0 -3.473,-1.555 -3.473,-3.473 0,-1.918 1.555,-3.474 3.473,-3.474 1.918,0 3.473,1.556 3.473,3.474 0,1.918 -1.555,3.473 -3.473,3.473 z M 41.708,62.167 c 0,1.565 -1.269,2.834 -2.834,2.834 H 20.166 c -1.565,0 -2.834,-1.269 -2.834,-2.834 V 16.118 c 0,-1.565 1.269,-2.834 2.834,-2.834 h 18.708 c 1.565,0 2.834,1.269 2.834,2.834 z m 13.585,3.826 c -0.953,0 -1.728,-0.773 -1.728,-1.729 0,-0.956 0.772,-1.729 1.728,-1.729 0.956,0 1.729,0.773 1.729,1.729 0,0.956 -0.773,1.729 -1.729,1.729 z m 0.722,-7.201 c -0.955,0 -1.729,-0.772 -1.729,-1.728 0,-0.956 0.773,-1.728 1.729,-1.728 0.956,0 1.729,0.772 1.729,1.728 0,0.956 -0.774,1.728 -1.729,1.728 z m 0,-14.4 c -0.955,0 -1.729,-0.772 -1.729,-1.728 0,-0.956 0.773,-1.729 1.729,-1.729 0.956,0 1.729,0.773 1.729,1.729 0,0.956 -0.774,1.728 -1.729,1.728 z m 0,-14.401 c -0.955,0 -1.729,-0.773 -1.729,-1.728 0,-0.955 0.773,-1.728 1.729,-1.728 0.956,0 1.729,0.773 1.729,1.728 0,0.955 -0.774,1.728 -1.729,1.728 z m 0,-14.4 c -0.955,0 -1.729,-0.773 -1.729,-1.728 0,-0.955 0.773,-1.728 1.729,-1.728 0.956,0 1.729,0.773 1.729,1.728 10e-4,0.955 -0.774,1.728 -1.729,1.728 z" gorn="0.3.0.0.0" style="fill:#1a783c"/>
                <g id="PMW3360"  gorn="0.3.0.0.1">
                    <g id="g9417"  gorn="0.3.0.0.1.0">
                        <rect id="rect9415" height="45.936001"  gorn="0.3.0.0.1.0.0" x="16.632" y="14.045" width="25.777"/>
                    </g>
                    <rect id="rect9419" height="1.4170001"  gorn="0.3.0.0.1.1" x="14.071" y="17.693001" style="fill:#8c8c8c" width="2.5610001"/>
                    <rect id="rect9421" height="1.4170001"  gorn="0.3.0.0.1.2" x="14.071" y="22.733" style="fill:#8c8c8c" width="2.5610001"/>
                    <rect id="rect9423" height="1.4170001"  gorn="0.3.0.0.1.3" x="14.071" y="27.773001" style="fill:#8c8c8c" width="2.5610001"/>
                    <rect id="rect9425" height="1.4170001"  gorn="0.3.0.0.1.4" x="14.071" y="32.813" style="fill:#8c8c8c" width="2.5610001"/>
                    <rect id="rect9427" height="1.4170001"  gorn="0.3.0.0.1.5" x="14.071" y="37.853001" style="fill:#8c8c8c" width="2.5610001"/>
                    <rect id="rect9429" height="1.4170001"  gorn="0.3.0.0.1.6" x="14.071" y="42.893002" style="fill:#8c8c8c" width="2.5610001"/>
                    <rect id="rect9431" height="1.4170001"  gorn="0.3.0.0.1.7" x="14.071" y="47.932999" style="fill:#8c8c8c" width="2.5610001"/>
                    <rect id="rect9433" height="1.4170001"  gorn="0.3.0.0.1.8" x="14.071" y="52.973" style="fill:#8c8c8c" width="2.5610001"/>
                    <rect id="rect9435" height="1.4170001"  gorn="0.3.0.0.1.9" x="42.409" y="20.212999" style="fill:#8c8c8c" width="2.5610001"/>
                    <rect id="rect9437" height="1.4170001"  gorn="0.3.0.0.1.10" x="42.409" y="25.253" style="fill:#8c8c8c" width="2.5610001"/>
                    <rect id="rect9439" height="1.4170001"  gorn="0.3.0.0.1.11" x="42.409" y="30.292999" style="fill:#8c8c8c" width="2.5610001"/>
                    <rect id="rect9441" height="1.4170001"  gorn="0.3.0.0.1.12" x="42.409" y="35.333" style="fill:#8c8c8c" width="2.5610001"/>
                    <rect id="rect9443" height="1.416"  gorn="0.3.0.0.1.13" x="42.409" y="40.374001" style="fill:#8c8c8c" width="2.5610001"/>
                    <rect id="rect9445" height="1.418"  gorn="0.3.0.0.1.14" x="42.409" y="45.412998" style="fill:#8c8c8c" width="2.5610001"/>
                    <rect id="rect9447" height="1.416"  gorn="0.3.0.0.1.15" x="42.409" y="50.453999" style="fill:#8c8c8c" width="2.5610001"/>
                    <rect id="rect9449" height="1.418"  gorn="0.3.0.0.1.16" x="42.409" y="55.493" style="fill:#8c8c8c" width="2.5610001"/>
                </g>
            </g>
            <g id="copper1"  gorn="0.3.0.1">
                <path id="connector7pin"  d="m 56.015,16.601 c 1.491,0 2.698,-1.208 2.698,-2.7 0,-1.492 -1.207,-2.7 -2.698,-2.7 -1.491,0 -2.699,1.208 -2.699,2.7 0,1.492 1.207,2.7 2.699,2.7 z m 0,-4.14 c 0.795,0 1.438,0.645 1.438,1.44 0,0.795 -0.645,1.44 -1.438,1.44 -0.793,0 -1.438,-0.645 -1.438,-1.44 0,-0.795 0.643,-1.44 1.438,-1.44 z" gorn="0.3.0.1.0" style="fill:#9a916c"/>
                <path id="connector6pin"  d="m 55.293,23.801 c 1.492,0 2.701,-1.208 2.701,-2.7 0,-1.492 -1.209,-2.7 -2.701,-2.7 -1.489,0 -2.698,1.208 -2.698,2.7 0,1.492 1.209,2.7 2.698,2.7 z m 0,-4.14 c 0.797,0 1.44,0.645 1.44,1.44 0,0.795 -0.646,1.44 -1.44,1.44 -0.794,0 -1.438,-0.645 -1.438,-1.44 0,-0.795 0.644,-1.44 1.438,-1.44 z" gorn="0.3.0.1.1" style="fill:#9a916c"/>
                <path id="connector5pin"  d="m 56.015,25.602 c -1.491,0 -2.699,1.208 -2.699,2.7 0,1.492 1.208,2.7 2.699,2.7 1.491,0 2.698,-1.208 2.698,-2.7 0,-1.492 -1.207,-2.7 -2.698,-2.7 z m 0,4.139 c -0.795,0 -1.438,-0.645 -1.438,-1.44 0,-0.795 0.645,-1.44 1.438,-1.44 0.793,0 1.438,0.645 1.438,1.44 10e-4,0.795 -0.643,1.44 -1.438,1.44 z" gorn="0.3.0.1.2" style="fill:#9a916c"/>
                <path id="connector4pin"  d="m 55.293,38.201 c 1.492,0 2.701,-1.208 2.701,-2.7 0,-1.492 -1.209,-2.7 -2.701,-2.7 -1.489,0 -2.698,1.208 -2.698,2.7 0,1.492 1.209,2.7 2.698,2.7 z m 0,-4.139 c 0.797,0 1.44,0.645 1.44,1.44 0,0.795 -0.646,1.44 -1.44,1.44 -0.794,0 -1.438,-0.645 -1.438,-1.44 0,-0.795 0.644,-1.44 1.438,-1.44 z" gorn="0.3.0.1.3" style="fill:#9a916c"/>
                <path id="connector3pin"  d="m 56.015,40.002 c -1.491,0 -2.699,1.208 -2.699,2.7 0,1.492 1.208,2.7 2.699,2.7 1.491,0 2.698,-1.208 2.698,-2.7 0,-1.492 -1.207,-2.7 -2.698,-2.7 z m 0,4.14 c -0.795,0 -1.438,-0.646 -1.438,-1.44 0,-0.794 0.645,-1.439 1.438,-1.439 0.793,0 1.438,0.645 1.438,1.439 0,0.794 -0.643,1.44 -1.438,1.44 z" gorn="0.3.0.1.4" style="fill:#9a916c"/>
                <path id="connector2pin"  d="m 55.293,52.602 c 1.492,0 2.701,-1.208 2.701,-2.7 0,-1.491 -1.209,-2.7 -2.701,-2.7 -1.489,0 -2.698,1.209 -2.698,2.7 0,1.492 1.209,2.7 2.698,2.7 z m 0,-4.141 c 0.797,0 1.44,0.646 1.44,1.44 0,0.794 -0.646,1.44 -1.44,1.44 -0.794,0 -1.438,-0.646 -1.438,-1.44 0,-0.794 0.644,-1.44 1.438,-1.44 z" gorn="0.3.0.1.5" style="fill:#9a916c"/>
                <path id="connector0pin"  d="M 52.595,61.602 V 67 h 5.399 v -5.398 z m 2.698,4.141 c -0.795,0 -1.438,-0.646 -1.438,-1.44 0,-0.796 0.646,-1.44 1.438,-1.44 0.797,0 1.44,0.645 1.44,1.44 0.001,0.794 -0.643,1.44 -1.44,1.44 z" gorn="0.3.0.1.6" style="fill:#9a916c"/>
                <path id="connector1pin"  d="m 56.015,54.402 c -1.491,0 -2.699,1.208 -2.699,2.7 0,1.492 1.208,2.7 2.699,2.7 1.491,0 2.698,-1.208 2.698,-2.7 0,-1.492 -1.207,-2.7 -2.698,-2.7 z m 0,4.14 c -0.795,0 -1.438,-0.645 -1.438,-1.439 0,-0.794 0.645,-1.439 1.438,-1.439 0.793,0 1.438,0.645 1.438,1.439 0,0.794 -0.643,1.439 -1.438,1.439 z" gorn="0.3.0.1.7" style="fill:#9a916c"/>
            </g>
            <g id="silkscreen"  gorn="0.3.0.2">
                <g  transform="translate(46.7192,15.4614)">
                    <g >
                        <g >
                            <text id="text9463"  gorn="0.3.0.2.0.0.0.0" font-size="4" style="font-style:normal;font-variant:normal;font-weight:normal;font-stretch:normal;font-size:4px;font-family:Droid Sans;-inkscape-font-specification:'OCR A Std, Normal';font-variant-ligatures:normal;font-variant-caps:normal;font-variant-numeric:normal;font-feature-settings:normal;text-align:start;writing-mode:lr-tb;text-anchor:start;fill:#ffffff">RS</text>
                        </g>
                    </g>
                </g>
                <g  transform="translate(19.4404,19.1108)">
                    <g >
                        <g >
                            <text id="text9465"  gorn="0.3.0.2.1.0.0.0" font-size="4" style="font-style:normal;font-variant:normal;font-weight:normal;font-stretch:normal;font-size:4px;font-family:Droid Sans;-inkscape-font-specification:'OCR A Std, Normal';font-variant-ligatures:normal;font-variant-caps:normal;font-variant-numeric:normal;font-feature-settings:normal;text-align:start;writing-mode:lr-tb;text-anchor:start;fill:#ffffff">PMW3360</text>
                        </g>
                    </g>
                </g>
                <g  transform="translate(46.7192,22.6616)">
                    <g >
                        <g >
                            <text id="text9467"  gorn="0.3.0.2.2.0.0.0" font-size="4" style="font-style:normal;font-variant:normal;font-weight:normal;font-stretch:normal;font-size:4px;font-family:Droid Sans;-inkscape-font-specification:'OCR A Std, Normal';font-variant-ligatures:normal;font-variant-caps:normal;font-variant-numeric:normal;font-feature-settings:normal;text-align:start;writing-mode:lr-tb;text-anchor:start;fill:#ffffff">GD</text>
                        </g>
                    </g>
                </g>
                <g  transform="translate(46.7192,29.8608)">
                    <g >
                        <g >
                            <text id="text9469"  gorn="0.3.0.2.3.0.0.0" font-size="4" style="font-style:normal;font-variant:normal;font-weight:normal;font-stretch:normal;font-size:4px;font-family:Droid Sans;-inkscape-font-specification:'OCR A Std, Normal';font-variant-ligatures:normal;font-variant-caps:normal;font-variant-numeric:normal;font-feature-settings:normal;text-align:start;writing-mode:lr-tb;text-anchor:start;fill:#ffffff">MT</text>
                        </g>
                    </g>
                </g>
                <g  transform="translate(46.7192,37.062)">
                    <g >
                        <g >
                            <text id="text9471"  gorn="0.3.0.2.4.0.0.0" font-size="4" style="font-style:normal;font-variant:normal;font-weight:normal;font-stretch:normal;font-size:4px;font-family:Droid Sans;-inkscape-font-specification:'OCR A Std, Normal';font-variant-ligatures:normal;font-variant-caps:normal;font-variant-numeric:normal;font-feature-settings:normal;text-align:start;writing-mode:lr-tb;text-anchor:start;fill:#ffffff">SS</text>
                        </g>
                    </g>
                </g>
                <g  transform="translate(46.7192,44.2612)">
                    <g >
                        <g >
                            <text id="text9473"  gorn="0.3.0.2.5.0.0.0" font-size="4" style="font-style:normal;font-variant:normal;font-weight:normal;font-stretch:normal;font-size:4px;font-family:Droid Sans;-inkscape-font-specification:'OCR A Std, Normal';font-variant-ligatures:normal;font-variant-caps:normal;font-variant-numeric:normal;font-feature-settings:normal;text-align:start;writing-mode:lr-tb;text-anchor:start;fill:#ffffff">SC</text>
                        </g>
                    </g>
                </g>
                <g  transform="translate(46.7192,51.4614)">
                    <g >
                        <g >
                            <text id="text9475"  gorn="0.3.0.2.6.0.0.0" font-size="4" style="font-style:normal;font-variant:normal;font-weight:normal;font-stretch:normal;font-size:4px;font-family:Droid Sans;-inkscape-font-specification:'OCR A Std, Normal';font-variant-ligatures:normal;font-variant-caps:normal;font-variant-numeric:normal;font-feature-settings:normal;text-align:start;writing-mode:lr-tb;text-anchor:start;fill:#ffffff">MO</text>
                        </g>
                    </g>
                </g>
                <g  transform="translate(46.7192,58.6616)">
                    <g >
                        <g >
                            <text id="text9477"  gorn="0.3.0.2.7.0.0.0" font-size="4" style="font-style:normal;font-variant:normal;font-weight:normal;font-stretch:normal;font-size:4px;font-family:Droid Sans;-inkscape-font-specification:'OCR A Std, Normal';font-variant-ligatures:normal;font-variant-caps:normal;font-variant-numeric:normal;font-feature-settings:normal;text-align:start;writing-mode:lr-tb;text-anchor:start;fill:#ffffff">MI</text>
                        </g>
                    </g>
                </g>
                <g  transform="translate(46.7192,65.8608)">
                    <g >
                        <g >
                            <text id="text9479"  gorn="0.3.0.2.8.0.0.0" font-size="4" style="font-style:normal;font-variant:normal;font-weight:normal;font-stretch:normal;font-size:4px;font-family:Droid Sans;-inkscape-font-specification:'OCR A Std, Normal';font-variant-ligatures:normal;font-variant-caps:normal;font-variant-numeric:normal;font-feature-settings:normal;text-align:start;writing-mode:lr-tb;text-anchor:start;fill:#ffffff">VI</text>
                        </g>
                    </g>
                </g>
            </g>
        </g>
    </g>
</svg>
