<?xml version='1.0' encoding='UTF-8' standalone='no'?>
<!-- Created with Fritzing (http://www.fritzing.org/) -->
  <svg
  xmlns="http://www.w3.org/2000/svg"
  xmlns:svg="http://www.w3.org/2000/svg"
  xmlns:rdf="http://www.w3.org/1999/02/22-rdf-syntax-ns#"
  xmlns:cc="http://creativecommons.org/ns#"
  xmlns:dc="http://purl.org/dc/elements/1.1/"
  height="0.82498831in"
  width="0.24471876in"
  docname="Camdenboss_CTB0158-8_5_08mm_pitch_90deg_terminals_schematic.svg"
  viewBox="0 0 244.71876 824.98831"
  id="svg4791"
  version="1.2"
  y="0in"
  x="0in"
  gorn="0">
  <defs
    id="defs74">
        </defs>
  <desc
    id="desc2">
    <referenceFile>Camdenboss-CTB0158-8_6_schematic.svg</referenceFile>
  </desc>
  <title
    id="title7899">Camdenboss
    CTB0158
    8
    pin
    5.08mm
    pitch
    90
    degree
    terminals</title>
  <metadata
    id="metadata76">
    <rdf:RDF>
      <cc:Work
        rdf:about="">
        <dc:title>Camdenboss
          CTB0158
          8
          pin
          5.08mm
          pitch
          90
          degree
          terminals</dc:title>
      </cc:Work>
    </rdf:RDF>
  </metadata>
  <g
    id="schematic">
    <rect
      height="817.9884"
      width="142.99797"
      stroke-width="6.9999"
      id="outerbox"
      stroke-linecap="round"
      y="3.4999499"
      stroke="#000000"
      stroke-linejoin="round"
      x="98.220833"
      fill="none"
      gorn="0.1.0"
    />
    <line
      y1="62.499119"
      stroke-width="6.9999"
      id="line4476"
      x2="129.3551"
      x1="9.9998589"
      y2="62.499119"
      stroke-linecap="round"
      stroke="#000000"
      stroke-linejoin="round"
      gorn="0.1.1.0"
      fill="none"
    />
    <line
      y1="162.4977"
      stroke-width="6.9999"
      id="line4478"
      x2="129.3551"
      x1="9.9998589"
      y2="162.4977"
      stroke-linecap="round"
      stroke="#000000"
      stroke-linejoin="round"
      gorn="0.1.2.0"
      fill="none"
    />
    <line
      y1="262.49628"
      stroke-width="6.9999"
      id="line4480"
      x2="129.3551"
      x1="9.9998589"
      y2="262.49628"
      stroke-linecap="round"
      stroke="#000000"
      stroke-linejoin="round"
      gorn="0.1.3.0"
      fill="none"
    />
    <line
      y1="362.49487"
      stroke-width="6.9999"
      id="line4482"
      x2="129.3551"
      x1="9.9998589"
      y2="362.49487"
      stroke-linecap="round"
      stroke="#000000"
      stroke-linejoin="round"
      gorn="0.1.4.0"
      fill="none"
    />
    <line
      y1="462.49344"
      stroke-width="6.9999"
      id="line4484"
      x2="129.3551"
      x1="9.9998589"
      y2="462.49344"
      stroke-linecap="round"
      stroke="#000000"
      stroke-linejoin="round"
      gorn="0.1.5.0"
      fill="none"
    />
    <line
      y1="562.492"
      stroke-width="6.9999"
      id="line4486"
      x2="129.3551"
      x1="9.9998589"
      y2="562.492"
      stroke-linecap="round"
      stroke="#000000"
      stroke-linejoin="round"
      gorn="0.1.6.0"
      fill="none"
    />
    <line
      y1="662.4906"
      stroke-width="6.9999"
      id="line4488"
      x2="129.3551"
      x1="9.9998589"
      y2="662.4906"
      stroke-linecap="round"
      stroke="#000000"
      stroke-linejoin="round"
      gorn="0.1.7.0"
      fill="none"
    />
    <line
      y1="762.4892"
      stroke-width="6.9999"
      id="line4490"
      x2="129.3551"
      x1="9.9998589"
      y2="762.4892"
      stroke-linecap="round"
      stroke="#000000"
      stroke-linejoin="round"
      gorn="0.1.8.0"
      fill="none"
    />
    <text
      id="tspan3384"
      y="45.999416"
      x="69.999001"
      gorn="0.1.9.0"
      font-size="34.7217"
      line-height="125%"
      font-family="'Droid Sans'"
      text-align="end"
      letter-spacing="0px"
      word-spacing="0px"
      text-anchor="end"
      fill="#555555"
      stroke-width="13.8887">1</text>
    <text
      id="tspan4188"
      y="145.99799"
      x="69.999001"
      gorn="0.1.10.0"
      font-size="34.7217"
      line-height="125%"
      font-family="'Droid Sans'"
      text-align="end"
      letter-spacing="0px"
      word-spacing="0px"
      text-anchor="end"
      fill="#555555"
      stroke-width="13.8887">2</text>
    <text
      id="tspan4192"
      y="245.99655"
      x="69.999001"
      gorn="0.1.11.0"
      font-size="34.7217"
      line-height="125%"
      font-family="'Droid Sans'"
      text-align="end"
      letter-spacing="0px"
      word-spacing="0px"
      text-anchor="end"
      fill="#555555"
      stroke-width="13.8887">3</text>
    <text
      id="tspan4196"
      y="345.99515"
      x="69.999001"
      gorn="0.1.12.0"
      font-size="34.7217"
      line-height="125%"
      font-family="'Droid Sans'"
      text-align="end"
      letter-spacing="0px"
      word-spacing="0px"
      text-anchor="end"
      fill="#555555"
      stroke-width="13.8887">4</text>
    <text
      id="tspan4200"
      y="445.99377"
      x="69.999001"
      gorn="0.1.13.0"
      font-size="34.7217"
      line-height="125%"
      font-family="'Droid Sans'"
      text-align="end"
      letter-spacing="0px"
      word-spacing="0px"
      text-anchor="end"
      fill="#555555"
      stroke-width="13.8887">5</text>
    <text
      id="tspan4204"
      y="545.99225"
      x="69.999001"
      gorn="0.1.14.0"
      font-size="34.7217"
      line-height="125%"
      font-family="'Droid Sans'"
      text-align="end"
      letter-spacing="0px"
      word-spacing="0px"
      text-anchor="end"
      fill="#555555"
      stroke-width="13.8887">6</text>
    <text
      id="tspan4208"
      y="645.99091"
      x="69.999001"
      gorn="0.1.15.0"
      font-size="34.7217"
      line-height="125%"
      font-family="'Droid Sans'"
      text-align="end"
      letter-spacing="0px"
      word-spacing="0px"
      text-anchor="end"
      fill="#555555"
      stroke-width="13.8887">7</text>
    <text
      id="tspan4212"
      y="745.9895"
      x="69.999001"
      gorn="0.1.16.0"
      font-size="34.7217"
      line-height="125%"
      font-family="'Droid Sans'"
      text-align="end"
      letter-spacing="0px"
      word-spacing="0px"
      text-anchor="end"
      fill="#555555"
      stroke-width="13.8887">8</text>
    <line
      y1="62.499119"
      stroke-width="6.8999"
      id="connector0pin"
      x2="109.99844"
      x1="9.9998589"
      y2="62.499119"
      stroke-linecap="round"
      stroke="#555555"
      stroke-linejoin="round"
      gorn="0.1.1.1"
      fill="none"
    />
    <rect
      height="19.999718"
      width="19.999718"
      id="connector0terminal"
      y="52.499256"
      x="0"
      gorn="0.1.1.3"
      fill="none"
      stroke-width="13.8887"
    />
    <line
      y1="162.4977"
      stroke-width="6.8999"
      id="connector1pin"
      x2="109.99844"
      x1="9.9998589"
      y2="162.4977"
      stroke-linecap="round"
      stroke="#555555"
      stroke-linejoin="round"
      gorn="0.1.2.1"
      fill="none"
    />
    <rect
      height="19.999718"
      width="19.999718"
      id="connector1terminal"
      y="152.49783"
      x="4.1391499e-07"
      gorn="0.1.2.3"
      fill="none"
      stroke-width="13.8887"
    />
    <line
      y1="262.49628"
      stroke-width="6.8999"
      id="connector2pin"
      x2="109.99844"
      x1="9.9998589"
      y2="262.49628"
      stroke-linecap="round"
      stroke="#555555"
      stroke-linejoin="round"
      gorn="0.1.3.1"
      fill="none"
    />
    <rect
      height="19.999718"
      width="19.999718"
      id="connector2terminal"
      y="252.49641"
      x="0"
      gorn="0.1.3.3"
      fill="none"
      stroke-width="13.8887"
    />
    <line
      y1="362.49487"
      stroke-width="6.8999"
      id="connector3pin"
      x2="109.99844"
      x1="9.9998589"
      y2="362.49487"
      stroke-linecap="round"
      stroke="#555555"
      stroke-linejoin="round"
      gorn="0.1.4.1"
      fill="none"
    />
    <rect
      height="19.999718"
      width="19.999718"
      id="connector3terminal"
      y="352.495"
      x="0"
      gorn="0.1.4.3"
      fill="none"
      stroke-width="13.8887"
    />
    <line
      y1="462.49344"
      stroke-width="6.8999"
      id="connector4pin"
      x2="109.99844"
      x1="9.9998589"
      y2="462.49344"
      stroke-linecap="round"
      stroke="#555555"
      stroke-linejoin="round"
      gorn="0.1.5.1"
      fill="none"
    />
    <rect
      height="19.999718"
      width="19.999718"
      id="connector4terminal"
      y="452.49362"
      x="0"
      gorn="0.1.5.3"
      fill="none"
      stroke-width="13.8887"
    />
    <line
      y1="562.492"
      stroke-width="6.8999"
      id="connector5pin"
      x2="109.99844"
      x1="9.9998589"
      y2="562.492"
      stroke-linecap="round"
      stroke="#555555"
      stroke-linejoin="round"
      gorn="0.1.6.1"
      fill="none"
    />
    <rect
      height="19.999718"
      width="19.999718"
      id="connector5terminal"
      y="552.49213"
      x="0"
      gorn="0.1.6.3"
      fill="none"
      stroke-width="13.8887"
    />
    <line
      y1="662.4906"
      stroke-width="6.8999"
      id="connector6pin"
      x2="109.99844"
      x1="9.9998589"
      y2="662.4906"
      stroke-linecap="round"
      stroke="#555555"
      stroke-linejoin="round"
      gorn="0.1.7.1"
      fill="none"
    />
    <rect
      height="19.999718"
      width="19.999718"
      id="connector6terminal"
      y="652.49072"
      x="4.1391499e-07"
      gorn="0.1.7.3"
      fill="none"
      stroke-width="13.8887"
    />
    <line
      y1="762.4892"
      stroke-width="6.8999"
      id="connector7pin"
      x2="109.99844"
      x1="9.9998589"
      y2="762.4892"
      stroke-linecap="round"
      stroke="#555555"
      stroke-linejoin="round"
      gorn="0.1.8.1"
      fill="none"
    />
    <rect
      height="19.999718"
      width="19.999718"
      id="connector7terminal"
      y="752.48932"
      x="0"
      gorn="0.1.8.3"
      fill="none"
      stroke-width="13.8887"
    />
    <circle
      stroke-width="6.9999"
      id="connector8pin"
      cy="62.499119"
      cx="169.71982"
      r="40.27721"
      stroke="#555555"
      gorn="0.1.1.2"
      fill="none"
    />
    <rect
      height="19.999718"
      width="19.999718"
      id="connector8terminal"
      y="52.499256"
      x="199.99716"
      gorn="0.1.1.4"
      fill="none"
      stroke-width="13.8887"
    />
    <circle
      stroke-width="6.9999"
      id="connector9pin"
      cy="162.4977"
      cx="169.71982"
      r="40.27721"
      stroke="#555555"
      gorn="0.1.2.2"
      fill="none"
    />
    <rect
      height="19.999718"
      width="19.999718"
      id="connector9terminal"
      y="152.49783"
      x="199.99716"
      gorn="0.1.2.4"
      fill="none"
      stroke-width="13.8887"
    />
    <circle
      stroke-width="6.9999"
      id="connector10pin"
      cy="262.49628"
      cx="169.71982"
      r="40.27721"
      stroke="#555555"
      gorn="0.1.3.2"
      fill="none"
    />
    <rect
      height="19.999718"
      width="19.999718"
      id="connector10terminal"
      y="252.49641"
      x="199.99716"
      gorn="0.1.3.4"
      fill="none"
      stroke-width="13.8887"
    />
    <circle
      stroke-width="6.9999"
      id="connector11pin"
      cy="362.49487"
      cx="169.71982"
      r="40.27721"
      stroke="#555555"
      gorn="0.1.4.2"
      fill="none"
    />
    <rect
      height="19.999718"
      width="19.999718"
      id="connector11terminal"
      y="352.495"
      x="199.99716"
      gorn="0.1.4.4"
      fill="none"
      stroke-width="13.8887"
    />
    <circle
      stroke-width="6.9999"
      id="connector12pin"
      cy="462.49344"
      cx="169.71982"
      r="40.27721"
      stroke="#555555"
      gorn="0.1.5.2"
      fill="none"
    />
    <rect
      height="19.999718"
      width="19.999718"
      id="connector12terminal"
      y="452.49362"
      x="199.99716"
      gorn="0.1.5.4"
      fill="none"
      stroke-width="13.8887"
    />
    <circle
      stroke-width="6.9999"
      id="connector13pin"
      cy="562.492"
      cx="169.71982"
      r="40.27721"
      stroke="#555555"
      gorn="0.1.6.2"
      fill="none"
    />
    <rect
      height="19.999718"
      width="19.999718"
      id="connector13terminal"
      y="552.49213"
      x="199.99716"
      gorn="0.1.6.4"
      fill="none"
      stroke-width="13.8887"
    />
    <circle
      stroke-width="6.9999"
      id="connector14pin"
      cy="662.4906"
      cx="169.71982"
      r="40.27721"
      stroke="#555555"
      gorn="0.1.7.2"
      fill="none"
    />
    <rect
      height="19.999718"
      width="19.999718"
      id="connector14terminal"
      y="652.49072"
      x="199.99716"
      gorn="0.1.7.4"
      fill="none"
      stroke-width="13.8887"
    />
    <circle
      stroke-width="6.9999"
      id="connector15pin"
      cy="762.4892"
      cx="169.71982"
      r="40.27721"
      stroke="#555555"
      gorn="0.1.8.2"
      fill="none"
    />
    <rect
      height="19.999718"
      width="19.999718"
      id="connector15terminal"
      y="752.48932"
      x="199.99716"
      gorn="0.1.8.4"
      fill="none"
      stroke-width="13.8887"
    />
  </g>
</svg>
