<?xml version='1.0' encoding='UTF-8' standalone='no'?>
<!-- Generator: Adobe Illustrator 16.0.0, SVG Export Plug-In . SVG Version: 6.00 Build 0)  -->
  <svg
  xmlns="http://www.w3.org/2000/svg"
  xmlns:svg="http://www.w3.org/2000/svg"
  width="0.40625003in"
  height="1.6204166in"
  enable-background="new 0 0 29.219 116.641"
  viewBox="0 0 406.25005 1620.4167"
  version="1.1"
  y="0px"
  x="0px"
  xml:space="preserve"
  id="svg23">
  <defs
    id="defs27">
            </defs>
  <desc
    id="desc2">
    <referenceFile>Camdenboss-CTB0158-8_6_pcb.svg</referenceFile>
  </desc>
  <g
    id="silkscreen">
    <line
      y1="5.2083502"
      stroke-width="10.4167"
      id="vertical-left"
      x2="5.2083502"
      x1="5.2083502"
      y2="1615.2084"
      stroke="#000000"
      fill="none"
      gorn="0.0.0"
    />
    <line
      y1="1615.2084"
      stroke-width="10.4167"
      id="bottom"
      x2="401.04169"
      x1="5.2083502"
      y2="1615.2084"
      stroke="#000000"
      fill="none"
      gorn="0.0.1"
    />
    <line
      y1="1615.2084"
      stroke-width="10.4167"
      id="vertical-right"
      x2="401.04169"
      x1="401.04169"
      y2="5.2083502"
      stroke="#000000"
      fill="none"
      gorn="0.0.2"
    />
    <line
      y1="5.2083502"
      stroke-width="10.4167"
      id="top"
      x2="5.2083502"
      x1="401.04169"
      y2="5.2083502"
      stroke="#000000"
      fill="none"
      gorn="0.0.3"
    />
    <line
      y1="1615.2084"
      stroke-width="10.4167"
      id="mid-vertical"
      x2="258.61111"
      x1="258.61111"
      y2="5.2083502"
      stroke="#000000"
      fill="none"
      gorn="0.0.4"
    />
  </g>
  <g
    id="copper1">
    <g
      id="copper0">
      <rect
        width="63.000004"
        height="63.000004"
        stroke-width="20"
        id="square"
        y="79.015015"
        stroke="#f7bd13"
        x="29.015017"
        fill="none"
        gorn="0.1.0.0.0"
      />
      <circle
        stroke-width="20"
        cx="60.208351"
        cy="110.20835"
        stroke="#f7bd13"
        fill="none"
        id="connector0pin"
        r="31.65"
      />
      <circle
        stroke-width="20"
        id="connector1pin"
        cx="60.208351"
        cy="310.20834"
        r="31.65"
        stroke="#f7bd13"
        fill="none"
        gorn="0.1.0.2"
      />
      <circle
        stroke-width="20"
        id="connector2pin"
        cx="60.208351"
        cy="510.20837"
        r="31.65"
        stroke="#f7bd13"
        fill="none"
        gorn="0.1.0.1"
      />
      <circle
        stroke-width="20"
        id="connector3pin"
        cx="60.208351"
        cy="710.20831"
        r="31.65"
        stroke="#f7bd13"
        fill="none"
        gorn="0.1.0.3"
      />
      <circle
        stroke-width="20"
        id="connector4pin"
        cx="60.208351"
        cy="910.20831"
        r="31.65"
        stroke="#f7bd13"
        fill="none"
        gorn="0.1.0.4"
      />
      <circle
        stroke-width="20"
        id="connector5pin"
        cx="60.208351"
        cy="1110.2084"
        r="31.65"
        stroke="#f7bd13"
        fill="none"
        gorn="0.1.0.5"
      />
      <circle
        stroke-width="20"
        id="connector6pin"
        cx="60.208351"
        cy="1310.2084"
        r="31.65"
        stroke="#f7bd13"
        fill="none"
        gorn="0.1.0.6"
      />
      <circle
        stroke-width="20"
        id="connector7pin"
        cx="60.208351"
        cy="1510.2084"
        r="31.65"
        stroke="#f7bd13"
        fill="none"
        gorn="0.1.0.7"
      />
    </g>
  </g>
</svg>
