<?xml version='1.0' encoding='UTF-8' standalone='no'?>
<!-- Generator: Adobe Illustrator 16.0.0, SVG Export Plug-In . SVG Version: 6.00 Build 0)  -->
  <svg
  xmlns="http://www.w3.org/2000/svg"
  xmlns:svg="http://www.w3.org/2000/svg"
  x="0px"
  width="1.1289167in"
  xml:space="preserve"
  viewBox="0 0 1128.9167 645.12503"
  gorn="0"
  id="Layer_1"
  y="0px"
  version="1.2"
  height="0.64512503in">
  <defs
    id="defs196">
            </defs>
  <desc
    id="desc2">
    <referenceFile>ACJS-MHOM_1_breadboard.svg</referenceFile>
  </desc>
  <g
    id="breadboard">
    <rect
      x="7.2366402e-07"
      width="952.125"
      fill="#0a0a0a"
      y="1.5062274e-07"
      height="645.125"
      id="rect12"
      stroke-width="13.8889"
    />
    <polygon
      points="11.081,47.236 11.081,39.155 15.793,39.155 15.793,8.868 11.081,8.868 11.081,0.787 1.531,0.787 1.531,47.236 "
      fill="#282828"
      id="polygon14"
      transform="matrix(13.888888,0,0,13.888888,-21.263888,-10.930555)"
    />
    <polygon
      points="25.986,0.787 25.986,47.236 28.703,47.236 28.703,39.155 34.14,39.155 34.14,8.868 28.703,8.868 28.703,0.787 "
      fill="#282828"
      id="polygon16"
      transform="matrix(13.888888,0,0,13.888888,-21.263888,-10.930555)"
    />
    <polygon
      points="47.05,47.236 47.05,39.155 52.487,39.155 52.487,8.868 47.05,8.868 47.05,0.787 44.332,0.787 44.332,47.236 "
      fill="#282828"
      id="polygon18"
      transform="matrix(13.888888,0,0,13.888888,-21.263888,-10.930555)"
    />
    <rect
      x="848.83331"
      width="103.29166"
      fill="#282828"
      y="1.5062274e-07"
      height="645.125"
      id="rect20"
      stroke-width="13.8889"
    />
    <polygon
      points="34.14,41.315 44.332,41.315 44.332,6.708 34.14,6.708 34.14,12.729 34.14,35.294 "
      fill="#e9e9e9"
      id="polygon24"
      transform="matrix(13.888888,0,0,13.888888,-21.263888,-10.930555)"
    />
    <polygon
      points="52.487,41.315 62.647,41.315 62.647,6.708 52.487,6.708 52.487,12.729 52.487,35.294 "
      fill="#e9e9e9"
      id="polygon26"
      transform="matrix(13.888888,0,0,13.888888,-21.263888,-10.930555)"
    />
    <rect
      x="1077.6945"
      width="51.222221"
      fill="#d6d6d6"
      y="222.98608"
      height="203.90277"
      id="rect30"
      stroke-width="13.8889"
    />
    <rect
      x="1077.6945"
      width="51.222221"
      fill="#c8c8c8"
      y="237.49997"
      height="6.2638888"
      id="rect32"
      stroke-width="13.8889"
    />
    <rect
      x="1077.6945"
      width="51.222221"
      fill="#c8c8c8"
      y="300.05554"
      height="73.708336"
      id="rect34"
      stroke-width="13.8889"
    />
    <rect
      x="1077.6945"
      width="51.222221"
      fill="#b4b4b4"
      y="344.26385"
      height="29.486109"
      id="rect36"
      stroke-width="13.8889"
    />
    <rect
      x="1077.6945"
      width="51.222221"
      fill="#bababa"
      y="314.77777"
      height="29.486109"
      id="rect38"
      stroke-width="13.8889"
    />
    <rect
      x="952.11108"
      width="35.680553"
      fill="#1e1e1e"
      y="129.5"
      height="390.66666"
      id="rect44"
      stroke-width="13.8889"
    />
    <rect
      x="952.11108"
      width="35.680553"
      fill="#3c3c3c"
      y="157.30556"
      height="12"
      id="rect46"
      stroke-width="13.8889"
    />
    <rect
      x="952.11108"
      width="35.680553"
      fill="#3c3c3c"
      y="277.15277"
      height="141.20833"
      id="rect48"
      stroke-width="13.8889"
    />
    <rect
      x="952.11108"
      width="35.680553"
      fill="#1e1e1e"
      y="361.87497"
      height="56.486107"
      id="rect50"
      stroke-width="13.8889"
    />
    <rect
      x="952.11108"
      width="35.680553"
      fill="#2d2d2d"
      y="305.38885"
      height="56.486107"
      id="rect52"
      stroke-width="13.8889"
    />
    <rect
      x="1073.8472"
      width="18.791666"
      fill="#1e1e1e"
      y="212.93056"
      height="223.97221"
      id="rect58"
      stroke-width="13.8889"
    />
    <rect
      x="1073.8472"
      width="18.791666"
      fill="#3c3c3c"
      y="228.875"
      height="6.8888884"
      id="rect60"
      stroke-width="13.8889"
    />
    <rect
      x="1073.8472"
      width="18.791666"
      fill="#3c3c3c"
      y="297.5972"
      height="80.944443"
      id="rect62"
      stroke-width="13.8889"
    />
    <rect
      x="1073.8472"
      width="18.791666"
      fill="#1e1e1e"
      y="346.16666"
      height="32.375"
      id="rect64"
      stroke-width="13.8889"
    />
    <rect
      x="1073.8472"
      width="18.791666"
      fill="#2d2d2d"
      y="313.77774"
      height="32.388889"
      id="rect66"
      stroke-width="13.8889"
    />
    <polygon
      points="72.518,33.767 72.727,34.99 79.084,34.99 79.354,33.382 79.354,15.003 79.084,13.392 72.727,13.392 72.518,14.665 "
      fill="#b4b4b4"
      id="polygon72"
      transform="matrix(13.888888,0,0,13.888888,-21.263888,-10.930555)"
    />
    <path
      d="m 988.80552,250.77777 c -1.79166,19.18055 -2.90277,45.41666 -2.90277,74.33333 0,28.94444 1.11111,55.15278 2.90277,74.33333 h 87.15278 c 3.1111,-19.18055 4.9167,-45.38889 4.9167,-74.33333 0,-28.91667 -1.9028,-55.15278 -4.9167,-74.33333 z"
      fill="#bababa"
      id="path74"
      stroke-width="13.8889"
    />
    <path
      d="m 1074.2222,399.37499 h -85.41668 c -1.70833,9.65277 -2.76389,23.05555 -2.76389,37.91666 0,14.76389 1.05556,28.06945 2.73612,37.73611 h 85.20835 0.5972 c 3.5,-0.88889 6.3194,-17.38889 6.3194,-37.73611 -0.028,-20.95833 -2.9861,-37.91666 -6.6805,-37.91666 z"
      fill="#d6d6d6"
      id="path76"
      stroke-width="13.8889"
    />
    <path
      d="m 1074.2222,250.77777 h -85.41668 c -1.70833,-9.68056 -2.76389,-23.05556 -2.76389,-37.91667 0,-14.76388 1.05556,-28.06944 2.73612,-37.76388 h 85.20835 0.5972 c 3.5,0.91666 6.3194,17.38888 6.3194,37.76388 -0.028,20.90278 -2.9861,37.91667 -6.6805,37.91667 z"
      fill="#d6d6d6"
      id="path78"
      stroke-width="13.8889"
    />
    <path
      d="m 1077.6944,264.04166 c -0.5139,-4.63889 -1.0833,-9.19445 -1.7361,-13.26389 h -87.15278 c -0.30555,4.06944 -0.70833,8.59722 -1.01389,13.26389 z"
      fill="#c8c8c8"
      id="path82"
      stroke-width="13.8889"
    />
    <rect
      x="42.388893"
      width="58"
      fill="#0a0a0a"
      y="58.583332"
      height="93.75"
      id="rect86"
      stroke-width="13.8889"
    />
    <rect
      x="42.388893"
      width="58"
      fill="#0a0a0a"
      y="486.01389"
      height="93.75"
      id="rect88"
      stroke-width="13.8889"
    />
    <circle
      cx="71.388885"
      r="30.388887"
      cy="322.55554"
      fill="#0a0a0a"
      id="circle90"
      stroke-width="13.8889"
    />
    <circle
      cx="900.47217"
      r="30.388887"
      cy="588.93054"
      fill="#0a0a0a"
      id="circle92"
      stroke-width="13.8889"
    />
    <circle
      cx="900.47217"
      r="30.388887"
      cy="53.694443"
      fill="#0a0a0a"
      id="circle94"
      stroke-width="13.8889"
    />
    <polygon
      points="15.793,41.315 25.986,41.315 25.986,6.708 15.793,6.708 15.793,12.729 15.793,35.294 "
      fill="#dedede"
      id="polygon96"
      transform="matrix(13.888888,0,0,13.888888,-21.263888,-10.930555)"
    />
    <polygon
      points="15.793,11.755 25.986,11.755 25.986,6.708 15.793,6.708 15.793,7.586 15.793,10.877 "
      fill="#ededed"
      id="polygon98"
      transform="matrix(13.888888,0,0,13.888888,-21.263888,-10.930555)"
    />
    <polygon
      points="15.793,11.755 25.986,11.755 25.986,7.92 15.793,7.92 15.793,8.587 15.793,11.088 "
      fill="#fefefe"
      id="polygon100"
      transform="matrix(13.888888,0,0,13.888888,-21.263888,-10.930555)"
    />
    <polygon
      points="15.793,11.755 25.986,11.755 25.986,9.607 15.793,9.607 15.793,9.98 15.793,11.382 "
      fill="#f3f3f3"
      id="polygon102"
      transform="matrix(13.888888,0,0,13.888888,-21.263888,-10.930555)"
    />
    <polygon
      points="15.793,11.755 25.986,11.755 25.986,13.392 15.793,13.392 15.793,13.108 15.793,12.04 "
      fill="#ebebeb"
      id="polygon104"
      transform="matrix(13.888888,0,0,13.888888,-21.263888,-10.930555)"
    />
    <polygon
      points="15.793,21.844 25.986,21.844 25.986,16.797 15.793,16.797 15.793,17.674 15.793,20.966 "
      fill="#b4b4b4"
      id="polygon106"
      transform="matrix(13.888888,0,0,13.888888,-21.263888,-10.930555)"
    />
    <polygon
      points="15.793,21.772 25.986,21.772 25.986,19.321 15.793,19.321 15.793,19.746 15.793,21.346 "
      fill="#b9b9b9"
      id="polygon108"
      transform="matrix(13.888888,0,0,13.888888,-21.263888,-10.930555)"
    />
    <polygon
      points="15.793,18.113 25.986,18.113 25.986,16.797 15.793,16.797 15.793,17.026 15.793,17.884 "
      fill="#cfcfcf"
      id="polygon110"
      transform="matrix(13.888888,0,0,13.888888,-21.263888,-10.930555)"
    />
    <polygon
      points="15.793,21.772 25.986,21.772 25.986,20.265 15.793,20.265 15.793,20.527 15.793,21.51 "
      fill="#c2c2c2"
      id="polygon112"
      transform="matrix(13.888888,0,0,13.888888,-21.263888,-10.930555)"
    />
    <polygon
      points="15.793,21.844 25.986,21.844 25.986,21.019 15.793,21.019 15.793,21.162 15.793,21.7 "
      fill="#cfcfcf"
      id="polygon114"
      transform="matrix(13.888888,0,0,13.888888,-21.263888,-10.930555)"
    />
    <polygon
      points="15.793,27.453 19.134,27.453 19.134,16.797 15.793,16.797 15.793,18.649 15.793,25.6 "
      fill="#ededed"
      id="polygon116"
      transform="matrix(13.888888,0,0,13.888888,-21.263888,-10.930555)"
    />
    <polygon
      points="15.793,25.574 19.134,25.574 19.134,18.676 15.793,18.676 15.793,19.874 15.793,24.374 "
      fill="#f0f0ed"
      id="polygon118"
      transform="matrix(13.888888,0,0,13.888888,-21.263888,-10.930555)"
    />
    <polygon
      points="15.793,27.453 19.134,27.453 19.134,19.356 15.793,19.356 15.793,20.765 15.793,26.045 "
      fill="#fefefe"
      id="polygon120"
      transform="matrix(13.888888,0,0,13.888888,-21.263888,-10.930555)"
    />
    <polygon
      points="15.793,27.453 19.134,27.453 19.134,22.917 15.793,22.917 15.793,23.704 15.793,26.666 "
      fill="#f3f3f3"
      id="polygon122"
      transform="matrix(13.888888,0,0,13.888888,-21.263888,-10.930555)"
    />
    <polygon
      points="15.793,27.453 19.134,27.453 19.134,30.909 15.793,30.909 15.793,30.31 15.793,28.056 "
      fill="#ebebeb"
      id="polygon124"
      transform="matrix(13.888888,0,0,13.888888,-21.263888,-10.930555)"
    />
    <polygon
      points="34.14,41.315 44.332,41.315 44.332,6.708 34.14,6.708 34.14,12.729 34.14,35.294 "
      fill="#dedede"
      id="polygon128"
      transform="matrix(13.888888,0,0,13.888888,-21.263888,-10.930555)"
    />
    <polygon
      points="34.14,11.755 44.332,11.755 44.332,6.708 34.14,6.708 34.14,7.586 34.14,10.877 "
      fill="#ededed"
      id="polygon130"
      transform="matrix(13.888888,0,0,13.888888,-21.263888,-10.930555)"
    />
    <polygon
      points="34.14,11.755 44.332,11.755 44.332,7.92 34.14,7.92 34.14,8.587 34.14,11.088 "
      fill="#fefefe"
      id="polygon132"
      transform="matrix(13.888888,0,0,13.888888,-21.263888,-10.930555)"
    />
    <polygon
      points="34.14,11.755 44.332,11.755 44.332,9.607 34.14,9.607 34.14,9.98 34.14,11.382 "
      fill="#f3f3f3"
      id="polygon134"
      transform="matrix(13.888888,0,0,13.888888,-21.263888,-10.930555)"
    />
    <polygon
      points="34.14,11.755 44.332,11.755 44.332,13.392 34.14,13.392 34.14,13.108 34.14,12.04 "
      fill="#ebebeb"
      id="polygon136"
      transform="matrix(13.888888,0,0,13.888888,-21.263888,-10.930555)"
    />
    <polygon
      points="34.14,21.844 44.332,21.844 44.332,16.797 34.14,16.797 34.14,17.674 34.14,20.966 "
      fill="#b4b4b4"
      id="polygon138"
      transform="matrix(13.888888,0,0,13.888888,-21.263888,-10.930555)"
    />
    <polygon
      points="34.14,21.772 44.332,21.772 44.332,19.321 34.14,19.321 34.14,19.746 34.14,21.346 "
      fill="#b9b9b9"
      id="polygon140"
      transform="matrix(13.888888,0,0,13.888888,-21.263888,-10.930555)"
    />
    <polygon
      points="34.14,18.113 44.332,18.113 44.332,16.797 34.14,16.797 34.14,17.026 34.14,17.884 "
      fill="#cfcfcf"
      id="polygon142"
      transform="matrix(13.888888,0,0,13.888888,-21.263888,-10.930555)"
    />
    <polygon
      points="34.14,21.772 44.332,21.772 44.332,20.265 34.14,20.265 34.14,20.527 34.14,21.51 "
      fill="#c2c2c2"
      id="polygon144"
      transform="matrix(13.888888,0,0,13.888888,-21.263888,-10.930555)"
    />
    <polygon
      points="34.14,21.844 44.332,21.844 44.332,21.019 34.14,21.019 34.14,21.162 34.14,21.7 "
      fill="#cfcfcf"
      id="polygon146"
      transform="matrix(13.888888,0,0,13.888888,-21.263888,-10.930555)"
    />
    <polygon
      points="34.14,27.453 37.481,27.453 37.481,16.797 34.14,16.797 34.14,18.649 34.14,25.6 "
      fill="#ededed"
      id="polygon148"
      transform="matrix(13.888888,0,0,13.888888,-21.263888,-10.930555)"
    />
    <polygon
      points="34.14,25.574 37.481,25.574 37.481,18.676 34.14,18.676 34.14,19.874 34.14,24.374 "
      fill="#f0f0ed"
      id="polygon150"
      transform="matrix(13.888888,0,0,13.888888,-21.263888,-10.930555)"
    />
    <polygon
      points="34.14,27.453 37.481,27.453 37.481,19.356 34.14,19.356 34.14,20.765 34.14,26.045 "
      fill="#fefefe"
      id="polygon152"
      transform="matrix(13.888888,0,0,13.888888,-21.263888,-10.930555)"
    />
    <polygon
      points="34.14,27.453 37.481,27.453 37.481,22.917 34.14,22.917 34.14,23.704 34.14,26.666 "
      fill="#f3f3f3"
      id="polygon154"
      transform="matrix(13.888888,0,0,13.888888,-21.263888,-10.930555)"
    />
    <polygon
      points="34.14,27.453 37.481,27.453 37.481,30.909 34.14,30.909 34.14,30.31 34.14,28.056 "
      fill="#ebebeb"
      id="polygon156"
      transform="matrix(13.888888,0,0,13.888888,-21.263888,-10.930555)"
    />
    <polygon
      points="52.474,41.315 62.666,41.315 62.666,6.708 52.474,6.708 52.474,12.729 52.474,35.294 "
      fill="#dedede"
      id="polygon160"
      transform="matrix(13.888888,0,0,13.888888,-21.263888,-10.930555)"
    />
    <polygon
      points="52.474,11.755 62.666,11.755 62.666,6.708 52.474,6.708 52.474,7.586 52.474,10.877 "
      fill="#ededed"
      id="polygon162"
      transform="matrix(13.888888,0,0,13.888888,-21.263888,-10.930555)"
    />
    <polygon
      points="52.474,11.755 62.666,11.755 62.666,7.92 52.474,7.92 52.474,8.587 52.474,11.088 "
      fill="#fefefe"
      id="polygon164"
      transform="matrix(13.888888,0,0,13.888888,-21.263888,-10.930555)"
    />
    <polygon
      points="52.474,11.755 62.666,11.755 62.666,9.607 52.474,9.607 52.474,9.98 52.474,11.382 "
      fill="#f3f3f3"
      id="polygon166"
      transform="matrix(13.888888,0,0,13.888888,-21.263888,-10.930555)"
    />
    <polygon
      points="52.474,11.755 62.666,11.755 62.666,13.392 52.474,13.392 52.474,13.108 52.474,12.04 "
      fill="#ebebeb"
      id="polygon168"
      transform="matrix(13.888888,0,0,13.888888,-21.263888,-10.930555)"
    />
    <polygon
      points="52.474,21.844 62.666,21.844 62.666,16.797 52.474,16.797 52.474,17.674 52.474,20.966 "
      fill="#b4b4b4"
      id="polygon170"
      transform="matrix(13.888888,0,0,13.888888,-21.263888,-10.930555)"
    />
    <polygon
      points="52.474,21.772 62.666,21.772 62.666,19.321 52.474,19.321 52.474,19.746 52.474,21.346 "
      fill="#b9b9b9"
      id="polygon172"
      transform="matrix(13.888888,0,0,13.888888,-21.263888,-10.930555)"
    />
    <polygon
      points="52.474,18.113 62.666,18.113 62.666,16.797 52.474,16.797 52.474,17.026 52.474,17.884 "
      fill="#cfcfcf"
      id="polygon174"
      transform="matrix(13.888888,0,0,13.888888,-21.263888,-10.930555)"
    />
    <polygon
      points="52.474,21.772 62.666,21.772 62.666,20.265 52.474,20.265 52.474,20.527 52.474,21.51 "
      fill="#c2c2c2"
      id="polygon176"
      transform="matrix(13.888888,0,0,13.888888,-21.263888,-10.930555)"
    />
    <polygon
      points="52.474,21.844 62.666,21.844 62.666,21.019 52.474,21.019 52.474,21.162 52.474,21.7 "
      fill="#cfcfcf"
      id="polygon178"
      transform="matrix(13.888888,0,0,13.888888,-21.263888,-10.930555)"
    />
    <polygon
      points="52.474,27.453 55.815,27.453 55.815,16.797 52.474,16.797 52.474,18.649 52.474,25.6 "
      fill="#ededed"
      id="polygon180"
      transform="matrix(13.888888,0,0,13.888888,-21.263888,-10.930555)"
    />
    <polygon
      points="52.474,25.574 55.815,25.574 55.815,18.676 52.474,18.676 52.474,19.874 52.474,24.374 "
      fill="#f0f0ed"
      id="polygon182"
      transform="matrix(13.888888,0,0,13.888888,-21.263888,-10.930555)"
    />
    <polygon
      points="52.474,27.453 55.815,27.453 55.815,19.356 52.474,19.356 52.474,20.765 52.474,26.045 "
      fill="#fefefe"
      id="polygon184"
      transform="matrix(13.888888,0,0,13.888888,-21.263888,-10.930555)"
    />
    <polygon
      points="52.474,27.453 55.815,27.453 55.815,22.917 52.474,22.917 52.474,23.704 52.474,26.666 "
      fill="#f3f3f3"
      id="polygon186"
      transform="matrix(13.888888,0,0,13.888888,-21.263888,-10.930555)"
    />
    <polygon
      points="52.474,27.453 55.815,27.453 55.815,30.909 52.474,30.909 52.474,30.31 52.474,28.056 "
      fill="#ebebeb"
      id="polygon188"
      transform="matrix(13.888888,0,0,13.888888,-21.263888,-10.930555)"
    />
    <rect
      x="763.31946"
      width="30"
      gorn="0.0.0.2"
      id="connector0pin"
      fill="#8c8c8c"
      y="532.88885"
      height="30"
      stroke-width="13.8889"
    />
    <rect
      x="513.31946"
      width="30"
      gorn="0.0.0.5"
      id="connector1pin"
      fill="#8c8c8c"
      y="532.88885"
      height="30"
      stroke-width="13.8889"
    />
    <rect
      x="263.31943"
      width="30"
      gorn="0.0.0.0"
      id="connector2pin"
      fill="#8c8c8c"
      y="532.88885"
      height="30"
      stroke-width="13.8889"
    />
    <rect
      x="763.31946"
      width="30"
      gorn="0.0.0.3"
      id="connector3pin"
      fill="#8c8c8c"
      y="84.069443"
      height="30"
      stroke-width="13.8889"
    />
    <rect
      x="513.31946"
      width="30"
      gorn="0.0.0.4"
      id="connector4pin"
      fill="#8c8c8c"
      y="79.986107"
      height="30"
      stroke-width="13.8889"
    />
    <rect
      x="263.31943"
      width="30"
      gorn="0.0.0.1"
      id="connector5pin"
      fill="#8c8c8c"
      y="84.069443"
      height="30"
      stroke-width="13.8889"
    />
  </g>
</svg>
