<?xml version='1.0' encoding='UTF-8' standalone='no'?>
<svg
  xmlns:dc="http://purl.org/dc/elements/1.1/"
  xmlns:cc="http://creativecommons.org/ns#"
  xmlns:rdf="http://www.w3.org/1999/02/22-rdf-syntax-ns#"
  xmlns:svg="http://www.w3.org/2000/svg"
  xmlns="http://www.w3.org/2000/svg"
  y="0in"
  width="0.4428646in"
  height="0.41in"
  version="1.2"
  x="0in"
  viewBox="0 0 442.86475 410.00014"
  id="svg95">
  <metadata
    id="metadata101">
    <rdf:RDF>
      <cc:Work
        rdf:about="">
        <dc:format>image/svg+xml</dc:format>
        <dc:type
          rdf:resource="http://purl.org/dc/dcmitype/StillImage"
        />
        <dc:title/>
      </cc:Work>
    </rdf:RDF>
  </metadata>
  <defs
    id="defs99"
  />
  <desc
    id="desc2">
    <referenceFile>fet-p-gds_357e56ff09991e8e4daa76344032ad78_1_schematic.svg</referenceFile>
  </desc>
  <g
    id="schematic">
    <line
      stroke-linecap="round"
      stroke="#000000"
      x1="160.86194"
      x2="160.86194"
      y1="109.86165"
      class="other"
      y2="304.86279"
      stroke-width="10.0001"
      id="line4"
    />
    <line
      stroke-linecap="round"
      stroke="#000000"
      x1="304.86279"
      x2="225.8623"
      y1="129.86177"
      class="other"
      y2="129.86177"
      stroke-width="6.00003"
      id="line6"
    />
    <line
      stroke-linecap="round"
      stroke="#000000"
      x1="304.86279"
      x2="304.86279"
      y1="204.86221"
      class="other"
      y2="279.86264"
      stroke-width="6.00003"
      id="line8"
    />
    <line
      stroke-linecap="round"
      stroke="#000000"
      x1="224.86232"
      x2="304.86279"
      y1="279.86264"
      class="other"
      y2="279.86264"
      stroke-width="6.00003"
      id="line10"
    />
    <line
      stroke-linecap="round"
      stroke="#000000"
      x1="304.86279"
      x2="304.86279"
      y1="104.86163"
      class="other"
      y2="129.86177"
      stroke-width="6.00003"
      id="line12"
    />
    <line
      stroke-linecap="round"
      stroke="#000000"
      x1="304.86279"
      x2="404.8645"
      y1="129.86177"
      class="other"
      y2="129.86177"
      stroke-width="6.00003"
      id="line14"
    />
    <line
      stroke-linecap="round"
      stroke="#000000"
      x1="404.8645"
      x2="304.86279"
      y1="279.86264"
      class="other"
      y2="279.86264"
      stroke-width="6.00003"
      id="line16"
    />
    <line
      stroke-linecap="round"
      stroke="#000000"
      x1="304.86279"
      x2="304.86279"
      y1="279.86264"
      class="other"
      y2="304.86279"
      stroke-width="6.00003"
      id="line18"
    />
    <line
      stroke-linecap="round"
      stroke="#000000"
      x1="404.8645"
      x2="404.8645"
      y1="279.86264"
      class="other"
      y2="234.86237"
      stroke-width="6.00003"
      id="line20"
    />
    <line
      stroke-linecap="round"
      stroke="#000000"
      x1="404.8645"
      x2="404.8645"
      y1="234.86237"
      class="other"
      y2="129.86177"
      stroke-width="6.00003"
      id="line22"
    />
    <line
      stroke-linecap="round"
      stroke="#000000"
      x1="404.8645"
      x2="429.86465"
      y1="234.86237"
      class="other"
      y2="179.86206"
      stroke-width="6.00003"
      id="line24"
    />
    <line
      stroke-linecap="round"
      stroke="#000000"
      x1="429.86465"
      x2="379.86319"
      y1="179.86206"
      class="other"
      y2="179.86206"
      stroke-width="6.00003"
      id="line26"
    />
    <line
      stroke-linecap="round"
      stroke="#000000"
      x1="379.86319"
      x2="404.8645"
      y1="179.86206"
      class="other"
      y2="234.86237"
      stroke-width="6.00003"
      id="line28"
    />
    <line
      stroke-linecap="round"
      stroke="#000000"
      x1="429.86465"
      x2="404.8645"
      y1="234.86237"
      class="other"
      y2="234.86237"
      stroke-width="6.00003"
      id="line30"
    />
    <line
      stroke-linecap="round"
      stroke="#000000"
      x1="404.8645"
      x2="379.86319"
      y1="234.86237"
      class="other"
      y2="234.86237"
      stroke-width="6.00003"
      id="line32"
    />
    <line
      stroke-linecap="round"
      stroke="#000000"
      x1="379.86319"
      x2="369.86316"
      y1="234.86237"
      class="other"
      y2="244.86243"
      stroke-width="6.00003"
      id="line34"
    />
    <line
      stroke-linecap="round"
      stroke="#000000"
      x1="429.86465"
      x2="439.86472"
      y1="234.86237"
      class="other"
      y2="224.86232"
      stroke-width="6.00003"
      id="line36"
    />
    <line
      stroke-linecap="round"
      stroke="#000000"
      x1="304.86279"
      x2="254.86249"
      y1="204.86221"
      class="other"
      y2="184.86208"
      stroke-width="6.00003"
      id="line38"
    />
    <line
      stroke-linecap="round"
      stroke="#000000"
      x1="254.86249"
      x2="254.86249"
      y1="184.86208"
      class="other"
      y2="224.86232"
      stroke-width="6.00003"
      id="line40"
    />
    <line
      stroke-linecap="round"
      stroke="#000000"
      x1="254.86249"
      x2="304.86279"
      y1="224.86232"
      class="other"
      y2="204.86221"
      stroke-width="6.00003"
      id="line42"
    />
    <line
      stroke-linecap="round"
      stroke="#000000"
      x1="259.86252"
      x2="224.86232"
      y1="204.86221"
      class="other"
      y2="204.86221"
      stroke-width="6.00003"
      id="line44"
    />
    <line
      stroke-linecap="round"
      stroke="#000000"
      x1="259.86252"
      x2="294.8627"
      y1="214.86226"
      class="other"
      y2="204.86221"
      stroke-width="12.0001"
      id="line46"
    />
    <line
      stroke-linecap="round"
      stroke="#000000"
      x1="294.8627"
      x2="259.86252"
      y1="204.86221"
      class="other"
      y2="194.86214"
      stroke-width="12.0001"
      id="line48"
    />
    <line
      stroke-linecap="round"
      stroke="#000000"
      x1="259.86252"
      x2="259.86252"
      y1="194.86214"
      class="other"
      y2="204.86221"
      stroke-width="12.0001"
      id="line50"
    />
    <line
      stroke-linecap="round"
      stroke="#000000"
      x1="259.86252"
      x2="269.86255"
      y1="204.86221"
      class="other"
      y2="204.86221"
      stroke-width="12.0001"
      id="line52"
    />
    <line
      stroke-linecap="round"
      stroke="#000000"
      x1="154.86191"
      x2="104.86163"
      y1="204.86221"
      class="other"
      y2="204.86221"
      stroke-width="6.00003"
      id="line54"
    />
    <circle
      stroke="#000000"
      fill="none"
      r="5.0000286"
      cy="279.86264"
      class="other"
      stroke-width="16.0001"
      cx="304.86279"
      id="circle56"
    />
    <circle
      stroke="#000000"
      fill="none"
      r="5.0000286"
      cy="129.86177"
      class="other"
      stroke-width="16.0001"
      cx="304.86279"
      id="circle58"
    />
    <rect
      y="254.86249"
      width="30.000174"
      height="50.000286"
      stroke-linecap="round"
      stroke="none"
      fill="#000000"
      x="194.86214"
      class="other"
      stroke-width="0"
      id="rect60"
    />
    <rect
      y="104.86163"
      width="30.000174"
      height="50.000286"
      stroke-linecap="round"
      stroke="none"
      fill="#000000"
      x="194.86214"
      class="other"
      stroke-width="0"
      id="rect62"
    />
    <rect
      y="169.86198"
      width="30.000174"
      height="70.000404"
      stroke-linecap="round"
      stroke="none"
      fill="#000000"
      x="194.86214"
      class="other"
      stroke-width="0"
      id="rect64"
    />
    <text
      y="190.27904"
      font-family="'Droid Sans'"
      text-anchor="middle"
      stroke="none"
      fill="#8c8c8c"
      font-size="34.7224"
      x="54.86134"
      class="text"
      stroke-width="0"
      id="text68">1</text>
    <text
      y="290.27963"
      font-family="'Droid Sans'"
      text-anchor="middle"
      stroke="none"
      fill="#555555"
      font-size="34.7224"
      x="-54.86134"
      class="text"
      stroke-width="0"
      id="text72"
      transform="rotate(-90)">2</text>
    <text
      y="290.27963"
      font-family="'Droid Sans'"
      text-anchor="middle"
      stroke="none"
      fill="#8c8c8c"
      font-size="34.7224"
      x="-354.86304"
      class="text"
      stroke-width="0"
      id="text84"
      transform="rotate(-90)">3</text>
    <line
      stroke-linecap="round"
      stroke="#555555"
      gorn="0.0.31"
      connectorname="G"
      x1="4.8611302"
      id="connector0pin"
      x2="104.86163"
      y1="204.86221"
      class="pin"
      y2="204.86221"
      stroke-width="9.72226"
    />
    <rect
      y="200.00006"
      width="10"
      height="10"
      stroke="none"
      gorn="0.0.32"
      fill="none"
      id="connector0terminal"
      x="0"
      class="terminal"
      stroke-width="0"
    />
    <line
      stroke-linecap="round"
      stroke="#555555"
      gorn="0.0.34"
      connectorname="D"
      x1="304.86279"
      id="connector1pin"
      x2="304.86279"
      y1="4.8611302"
      class="pin"
      y2="104.86163"
      stroke-width="9.72226"
    />
    <rect
      y="0"
      width="10"
      height="10"
      stroke="none"
      gorn="0.0.35"
      fill="none"
      id="connector1terminal"
      x="300.00009"
      class="terminal"
      stroke-width="0"
    />
    <line
      stroke-linecap="round"
      stroke="#555555"
      gorn="0.0.37"
      connectorname="S"
      x1="304.86279"
      id="connector2pin"
      x2="304.86279"
      y1="404.8645"
      class="pin"
      y2="304.86279"
      stroke-width="9.72226"
    />
    <rect
      y="400.00012"
      width="10"
      height="10"
      stroke="none"
      gorn="0.0.38"
      fill="none"
      id="connector2terminal"
      x="300.00009"
      class="terminal"
      stroke-width="0"
    />
  </g>
</svg>
