<?xml version='1.0' encoding='UTF-8' standalone='no'?>
<svg
  xmlns:dc="http://purl.org/dc/elements/1.1/"
  xmlns:cc="http://creativecommons.org/ns#"
  xmlns:rdf="http://www.w3.org/1999/02/22-rdf-syntax-ns#"
  xmlns:svg="http://www.w3.org/2000/svg"
  xmlns="http://www.w3.org/2000/svg"
  viewBox="0 0 710.07123 2000"
  x="0in"
  width="0.71007121in"
  height="2in"
  version="1.2"
  y="0in"
  id="svg2">
  <metadata
    id="metadata41">
    <rdf:RDF>
      <cc:Work
        rdf:about="">
        <dc:format>image/svg+xml</dc:format>
        <dc:type
          rdf:resource="http://purl.org/dc/dcmitype/StillImage"
        />
        <dc:title/>
      </cc:Work>
    </rdf:RDF>
  </metadata>
  <defs
    id="defs39"
  />
  <desc
    id="desc4">
    <referenceFile>I2Chub_1_schematic.svg</referenceFile>
  </desc>
  <g
    id="schematic">
    <rect
      x="4.999999"
      width="600.00006"
      height="1990"
      y="4.999999"
      id="rect7"
      fill="none"
      stroke="#000000"
      stroke-width="9.99999809"
      stroke-linecap="round"
    />
    <line
      id="line232"
      x1="398.99622"
      x2="445"
      y2="244.9995"
      y1="244.9995"
      fill="none"
      stroke="#999999"
      stroke-width="10"
      stroke-linecap="round"
    />
    <line
      y1="744.99951"
      y2="744.99951"
      x2="445"
      x1="398.99622"
      id="line230"
      fill="none"
      stroke="#999999"
      stroke-width="10"
      stroke-linecap="round"
    />
    <line
      id="line228"
      x1="398.99622"
      x2="445"
      y2="1244.9995"
      y1="1244.9995"
      fill="none"
      stroke="#999999"
      stroke-width="10"
      stroke-linecap="round"
    />
    <line
      y1="1744.9998"
      y2="1744.9998"
      x2="445"
      x1="398.99622"
      id="line215"
      fill="none"
      stroke="#999999"
      stroke-width="10"
      stroke-linecap="round"
    />
    <text
      x="354.54785"
      y="1260.6929"
      font-size="49"
      id="text234"
      font-family="'Droid Sans'"
      text-anchor="middle"
      fill="#999999"
      stroke-width="1">J3</text>
    <text
      id="text236"
      font-size="49"
      y="760.69287"
      x="354.54785"
      font-family="'Droid Sans'"
      text-anchor="middle"
      fill="#999999"
      stroke-width="1">J2</text>
    <text
      x="354.54785"
      y="260.69287"
      font-size="49"
      id="text238"
      font-family="'Droid Sans'"
      text-anchor="middle"
      fill="#999999"
      stroke-width="1">J1</text>
    <text
      id="text79-9"
      font-size="49"
      y="1760.4124"
      x="354.54785"
      font-family="'Droid Sans'"
      text-anchor="middle"
      fill="#999999"
      stroke-width="1">J4</text>
    <line
      y1="1545.4083"
      y2="1944.4368"
      x2="444.46198"
      x1="444.46198"
      id="line214"
      fill="none"
      stroke="#999999"
      stroke-width="10"
      stroke-linecap="round"
    />
    <line
      y1="1944.9995"
      y2="1944.9995"
      x2="493.82611"
      x1="444.53143"
      id="line212"
      fill="none"
      stroke="#999999"
      stroke-width="10"
      stroke-linecap="round"
    />
    <line
      id="line207"
      x1="444.46198"
      x2="444.46198"
      y2="1444.4368"
      y1="1045.4083"
      fill="none"
      stroke="#999999"
      stroke-width="10"
      stroke-linecap="round"
    />
    <line
      id="line210"
      x1="444.53143"
      x2="493.961"
      y2="1545.0004"
      y1="1545.0004"
      fill="none"
      stroke="#999999"
      stroke-width="10"
      stroke-linecap="round"
    />
    <line
      id="line205"
      x1="444.53143"
      x2="493.82611"
      y2="1444.9995"
      y1="1444.9995"
      fill="none"
      stroke="#999999"
      stroke-width="10"
      stroke-linecap="round"
    />
    <line
      y1="1045.0004"
      y2="1045.0004"
      x2="493.961"
      x1="444.53143"
      id="line203"
      fill="none"
      stroke="#999999"
      stroke-width="10"
      stroke-linecap="round"
    />
    <line
      y1="545.40833"
      y2="944.43677"
      x2="444.46198"
      x1="444.46198"
      id="line201"
      fill="none"
      stroke="#999999"
      stroke-width="10"
      stroke-linecap="round"
    />
    <line
      y1="944.99951"
      y2="944.99951"
      x2="493.82611"
      x1="444.53143"
      id="line199"
      fill="none"
      stroke="#999999"
      stroke-width="10"
      stroke-linecap="round"
    />
    <line
      id="line197"
      x1="444.53143"
      x2="493.961"
      y2="545.00043"
      y1="545.00043"
      fill="none"
      stroke="#999999"
      stroke-width="10"
      stroke-linecap="round"
    />
    <line
      id="line213"
      x1="444.46198"
      x2="444.46198"
      y2="444.43674"
      y1="45.408382"
      fill="none"
      stroke="#999999"
      stroke-width="10"
      stroke-linecap="round"
    />
    <line
      id="line211"
      x1="444.53143"
      x2="493.82611"
      y2="444.99948"
      y1="444.99948"
      fill="none"
      stroke="#999999"
      stroke-width="10"
      stroke-linecap="round"
    />
    <line
      y1="45.000484"
      y2="45.000484"
      x2="493.961"
      x1="444.53143"
      id="line209"
      fill="none"
      stroke="#999999"
      stroke-width="10"
      stroke-linecap="round"
    />
    <text
      font-size="60"
      y="1011.1292"
      x="200.52344"
      id="label"
      font-family="'Droid Sans'"
      text-anchor="middle"
      fill="#000000">I2C Hub</text>
    <text
      font-size="49"
      y="212.49988"
      x="578.3703"
      id="text79"
      font-family="'Droid Sans'"
      text-anchor="end"
      fill="#555555">SDA</text>
    <text
      font-size="49"
      y="112.49989"
      x="576.64764"
      id="text81"
      font-family="'Droid Sans'"
      text-anchor="end"
      fill="#555555">SCL</text>
    <text
      id="text42"
      x="578.3703"
      y="412.99991"
      font-size="49"
      font-family="'Droid Sans'"
      text-anchor="end"
      fill="#555555">G</text>
    <text
      id="text46"
      x="576.64764"
      y="312.99985"
      font-size="49"
      font-family="'Droid Sans'"
      text-anchor="end"
      fill="#555555">V</text>
    <text
      id="text60"
      x="578.3703"
      y="712.02136"
      font-size="49"
      font-family="'Droid Sans'"
      text-anchor="end"
      fill="#555555">SDA</text>
    <text
      id="text62"
      x="576.64764"
      y="612.0213"
      font-size="49"
      font-family="'Droid Sans'"
      text-anchor="end"
      fill="#555555">SCL</text>
    <text
      font-size="49"
      y="912.52142"
      x="578.3703"
      id="text72"
      font-family="'Droid Sans'"
      text-anchor="end"
      fill="#555555">G</text>
    <text
      font-size="49"
      y="812.52136"
      x="576.64764"
      id="text74"
      font-family="'Droid Sans'"
      text-anchor="end"
      fill="#555555">V</text>
    <text
      font-size="49"
      y="1212.0212"
      x="578.3703"
      id="text84"
      font-family="'Droid Sans'"
      text-anchor="end"
      fill="#555555">SDA</text>
    <text
      font-size="49"
      y="1112.0211"
      x="576.64764"
      id="text86"
      font-family="'Droid Sans'"
      text-anchor="end"
      fill="#555555">SCL</text>
    <text
      id="text96"
      x="578.3703"
      y="1412.5215"
      font-size="49"
      font-family="'Droid Sans'"
      text-anchor="end"
      fill="#555555">G</text>
    <text
      id="text98"
      x="576.64764"
      y="1312.5214"
      font-size="49"
      font-family="'Droid Sans'"
      text-anchor="end"
      fill="#555555">V</text>
    <text
      id="text108"
      x="578.3703"
      y="1712.0212"
      font-size="49"
      font-family="'Droid Sans'"
      text-anchor="end"
      fill="#555555">SDA</text>
    <text
      id="text110"
      x="576.64764"
      y="1612.0211"
      font-size="49"
      font-family="'Droid Sans'"
      text-anchor="end"
      fill="#555555">SCL</text>
    <text
      font-size="49"
      y="1912.5215"
      x="578.3703"
      id="text120"
      font-family="'Droid Sans'"
      text-anchor="end"
      fill="#555555">G</text>
    <text
      font-size="49"
      y="1812.5214"
      x="576.64764"
      id="text122"
      font-family="'Droid Sans'"
      text-anchor="end"
      fill="#555555">V</text>
    <text
      id="text132"
      x="200.52344"
      y="911.41388"
      font-size="60"
      font-family="'Droid Sans'"
      text-anchor="middle"
      fill="#000000">Grove</text>
    <line
      id="connector0pin"
      x1="610"
      x2="705"
      y2="94.667595"
      y1="94.667595"
      fill="none"
      stroke="#555555"
      stroke-width="10"
      stroke-linecap="round"
    />
    <rect
      y="90.667595"
      height="10"
      width="10"
      x="700"
      id="connector0terminal"
      fill="none"
      stroke-width="0"
    />
    <line
      id="connector1pin"
      x1="610"
      x2="705"
      y2="194.66757"
      y1="194.66757"
      fill="none"
      stroke="#555555"
      stroke-width="10"
      stroke-linecap="round"
    />
    <rect
      y="189.66757"
      height="10"
      width="10"
      x="700"
      id="connector1terminal"
      fill="none"
      stroke-width="0"
    />
    <line
      y1="295.16757"
      y2="295.16757"
      x2="705"
      x1="610"
      id="connector2pin"
      fill="none"
      stroke="#555555"
      stroke-width="10"
      stroke-linecap="round"
    />
    <rect
      id="connector2terminal"
      x="700"
      width="10"
      height="10"
      y="291.16757"
      fill="none"
      stroke-width="0"
    />
    <line
      y1="395.16757"
      y2="395.16757"
      x2="705"
      x1="610"
      id="connector3pin"
      fill="none"
      stroke="#555555"
      stroke-width="10"
      stroke-linecap="round"
    />
    <rect
      id="connector3terminal"
      x="700"
      width="10"
      height="10"
      y="390.16757"
      fill="none"
      stroke-width="0"
    />
    <line
      y1="594.18903"
      y2="594.18903"
      x2="705"
      x1="610"
      id="connector4pin"
      fill="none"
      stroke="#555555"
      stroke-width="10"
      stroke-linecap="round"
    />
    <rect
      id="connector4terminal"
      x="700"
      width="10"
      height="10"
      y="590.18903"
      fill="none"
      stroke-width="0"
    />
    <line
      y1="694.18903"
      y2="694.18903"
      x2="705"
      x1="610"
      id="connector5pin"
      fill="none"
      stroke="#555555"
      stroke-width="10"
      stroke-linecap="round"
    />
    <rect
      id="connector5terminal"
      x="700"
      width="10"
      height="10"
      y="689.18903"
      fill="none"
      stroke-width="0"
    />
    <line
      id="connector6pin"
      x1="610"
      x2="705"
      y2="794.68903"
      y1="794.68903"
      fill="none"
      stroke="#555555"
      stroke-width="10"
      stroke-linecap="round"
    />
    <rect
      y="790.68903"
      height="10"
      width="10"
      x="700"
      id="connector6terminal"
      fill="none"
      stroke-width="0"
    />
    <line
      id="connector7pin"
      x1="610"
      x2="705"
      y2="894.68909"
      y1="894.68909"
      fill="none"
      stroke="#555555"
      stroke-width="10"
      stroke-linecap="round"
    />
    <rect
      y="889.68909"
      height="10"
      width="10"
      x="700"
      id="connector7terminal"
      fill="none"
      stroke-width="0"
    />
    <line
      id="connector8pin"
      x1="610"
      x2="705"
      y2="1094.1888"
      y1="1094.1888"
      fill="none"
      stroke="#555555"
      stroke-width="10"
      stroke-linecap="round"
    />
    <rect
      y="1090.1888"
      height="10"
      width="10"
      x="700"
      id="connector8terminal"
      fill="none"
      stroke-width="0"
    />
    <line
      id="connector9pin"
      x1="610"
      x2="705"
      y2="1194.189"
      y1="1194.189"
      fill="none"
      stroke="#555555"
      stroke-width="10"
      stroke-linecap="round"
    />
    <rect
      y="1189.189"
      height="10"
      width="10"
      x="700"
      id="connector9terminal"
      fill="none"
      stroke-width="0"
    />
    <line
      y1="1294.689"
      y2="1294.689"
      x2="705"
      x1="610"
      id="connector10pin"
      fill="none"
      stroke="#555555"
      stroke-width="10"
      stroke-linecap="round"
    />
    <rect
      id="connector10terminal"
      x="700"
      width="10"
      height="10"
      y="1290.689"
      fill="none"
      stroke-width="0"
    />
    <line
      y1="1394.6891"
      y2="1394.6891"
      x2="705"
      x1="610"
      id="connector11pin"
      fill="none"
      stroke="#555555"
      stroke-width="10"
      stroke-linecap="round"
    />
    <rect
      id="connector11terminal"
      x="700"
      width="10"
      height="10"
      y="1389.6891"
      fill="none"
      stroke-width="0"
    />
    <line
      y1="1594.1888"
      y2="1594.1888"
      x2="705"
      x1="610"
      id="connector12pin"
      fill="none"
      stroke="#555555"
      stroke-width="10"
      stroke-linecap="round"
    />
    <rect
      id="connector12terminal"
      x="700"
      width="10"
      height="10"
      y="1590.1888"
      fill="none"
      stroke-width="0"
    />
    <line
      y1="1694.189"
      y2="1694.189"
      x2="705"
      x1="610"
      id="connector13pin"
      fill="none"
      stroke="#555555"
      stroke-width="10"
      stroke-linecap="round"
    />
    <rect
      id="connector13terminal"
      x="700"
      width="10"
      height="10"
      y="1689.189"
      fill="none"
      stroke-width="0"
    />
    <line
      id="connector14pin"
      x1="610"
      x2="705"
      y2="1794.689"
      y1="1794.689"
      fill="none"
      stroke="#555555"
      stroke-width="10"
      stroke-linecap="round"
    />
    <rect
      y="1790.689"
      height="10"
      width="10"
      x="700"
      id="connector14terminal"
      fill="none"
      stroke-width="0"
    />
    <line
      id="connector15pin"
      x1="610"
      x2="705"
      y2="1894.6891"
      y1="1894.6891"
      fill="none"
      stroke="#555555"
      stroke-width="10"
      stroke-linecap="round"
    />
    <rect
      y="1889.6891"
      height="10"
      width="10"
      x="700"
      id="connector15terminal"
      fill="none"
      stroke-width="0"
    />
  </g>
</svg>
