<?xml version='1.0' encoding='UTF-8' standalone='no'?>
<svg
  xmlns:dc="http://purl.org/dc/elements/1.1/"
  xmlns:cc="http://creativecommons.org/ns#"
  xmlns:rdf="http://www.w3.org/1999/02/22-rdf-syntax-ns#"
  xmlns:svg="http://www.w3.org/2000/svg"
  xmlns="http://www.w3.org/2000/svg"
  id="svg201"
  height="0.403844in"
  viewBox="0 0 1332.0004 403.84413"
  width="1.332in"
  x="0in"
  version="1.2"
  y="0in">
  <metadata
    id="metadata207">
    <rdf:RDF>
      <cc:Work
        rdf:about="">
        <dc:format>image/svg+xml</dc:format>
        <dc:type
          rdf:resource="http://purl.org/dc/dcmitype/StillImage"
        />
        <dc:title/>
      </cc:Work>
    </rdf:RDF>
  </metadata>
  <defs
    id="defs205"
  />
  <desc
    id="desc2">Fritzing
    footprint
    generated
    by
    brd2svg</desc>
  <g
    id="silkscreen">
    <line
      id="line10"
      y2="398.77292"
      x2="131.05605"
      y1="398.77292"
      x1="52.315697"
      stroke="#000000"
      stroke-width="5.00000429"
      stroke-linecap="round"
    />
    <line
      id="line12"
      y2="5.0712562"
      x2="150.74077"
      y1="5.0712562"
      x1="32.630955"
      stroke="#000000"
      stroke-width="10.00000858"
      stroke-linecap="round"
    />
    <line
      id="line14"
      y2="398.77292"
      x2="178.30052"
      y1="398.77292"
      x1="5.0712166"
      stroke="#000000"
      stroke-width="10.00000858"
      stroke-linecap="round"
    />
    <line
      id="line16"
      y2="327.90594"
      x2="178.30052"
      y1="398.77292"
      x1="178.30052"
      stroke="#000000"
      stroke-width="10.00000858"
      stroke-linecap="round"
    />
    <line
      id="line18"
      y2="5.0712562"
      x2="178.30052"
      y1="75.93779"
      x1="178.30052"
      stroke="#000000"
      stroke-width="10.00000858"
      stroke-linecap="round"
    />
    <line
      id="line20"
      y2="5.0712562"
      x2="5.0712166"
      y1="5.0712562"
      x1="178.30052"
      stroke="#000000"
      stroke-width="10.00000858"
      stroke-linecap="round"
    />
    <line
      id="line22"
      y2="5.0712562"
      x2="5.0712166"
      y1="398.77292"
      x1="5.0712166"
      stroke="#000000"
      stroke-width="10.00000858"
      stroke-linecap="round"
    />
    <line
      id="line24"
      y2="398.77292"
      x2="201.92276"
      y1="398.77292"
      x1="178.30052"
      stroke="#000000"
      stroke-width="10.00000858"
      stroke-linecap="round"
    />
    <line
      id="line26"
      y2="327.90594"
      x2="201.92276"
      y1="398.77292"
      x1="201.92276"
      stroke="#000000"
      stroke-width="10.00000858"
      stroke-linecap="round"
    />
    <line
      id="line38"
      y2="5.0712562"
      x2="201.92276"
      y1="75.93779"
      x1="201.92276"
      stroke="#000000"
      stroke-width="10.00000858"
      stroke-linecap="round"
    />
    <line
      id="line40"
      y2="5.0712562"
      x2="178.30052"
      y1="5.0712562"
      x1="201.92276"
      stroke="#000000"
      stroke-width="10.00000858"
      stroke-linecap="round"
    />
    <line
      id="line50"
      y2="398.77292"
      x2="506.05634"
      y1="398.77292"
      x1="427.31598"
      stroke="#000000"
      stroke-width="5.00000429"
      stroke-linecap="round"
    />
    <line
      id="line52"
      y2="5.0712562"
      x2="525.74109"
      y1="5.0712562"
      x1="407.63123"
      stroke="#000000"
      stroke-width="10.00000858"
      stroke-linecap="round"
    />
    <line
      id="line54"
      y2="398.77292"
      x2="553.30084"
      y1="398.77292"
      x1="380.0715"
      stroke="#000000"
      stroke-width="10.00000858"
      stroke-linecap="round"
    />
    <line
      id="line56"
      y2="327.90594"
      x2="553.30084"
      y1="398.77292"
      x1="553.30084"
      stroke="#000000"
      stroke-width="10.00000858"
      stroke-linecap="round"
    />
    <line
      id="line58"
      y2="5.0712562"
      x2="553.30084"
      y1="75.93779"
      x1="553.30084"
      stroke="#000000"
      stroke-width="10.00000858"
      stroke-linecap="round"
    />
    <line
      id="line60"
      y2="5.0712562"
      x2="380.0715"
      y1="5.0712562"
      x1="553.30084"
      stroke="#000000"
      stroke-width="10.00000858"
      stroke-linecap="round"
    />
    <line
      id="line62"
      y2="5.0712562"
      x2="380.0715"
      y1="398.77292"
      x1="380.0715"
      stroke="#000000"
      stroke-width="10.00000858"
      stroke-linecap="round"
    />
    <line
      id="line64"
      y2="398.77292"
      x2="576.9231"
      y1="398.77292"
      x1="553.30084"
      stroke="#000000"
      stroke-width="10.00000858"
      stroke-linecap="round"
    />
    <line
      id="line66"
      y2="327.90594"
      x2="576.9231"
      y1="398.77292"
      x1="576.9231"
      stroke="#000000"
      stroke-width="10.00000858"
      stroke-linecap="round"
    />
    <line
      id="line78"
      y2="5.0712562"
      x2="576.9231"
      y1="75.93779"
      x1="576.9231"
      stroke="#000000"
      stroke-width="10.00000858"
      stroke-linecap="round"
    />
    <line
      id="line80"
      y2="5.0712562"
      x2="553.30084"
      y1="5.0712562"
      x1="576.9231"
      stroke="#000000"
      stroke-width="10.00000858"
      stroke-linecap="round"
    />
    <line
      id="line90"
      y2="398.77292"
      x2="881.05524"
      y1="398.77292"
      x1="802.31628"
      stroke="#000000"
      stroke-width="5.00000429"
      stroke-linecap="round"
    />
    <line
      id="line92"
      y2="5.0712562"
      x2="900.74548"
      y1="5.0712562"
      x1="782.63159"
      stroke="#000000"
      stroke-width="10.00000858"
      stroke-linecap="round"
    />
    <line
      id="line94"
      y2="398.77292"
      x2="928.30518"
      y1="398.77292"
      x1="755.07178"
      stroke="#000000"
      stroke-width="10.00000858"
      stroke-linecap="round"
    />
    <line
      id="line96"
      y2="327.90594"
      x2="928.30518"
      y1="398.77292"
      x1="928.30518"
      stroke="#000000"
      stroke-width="10.00000858"
      stroke-linecap="round"
    />
    <line
      id="line98"
      y2="5.0712562"
      x2="928.30518"
      y1="75.93779"
      x1="928.30518"
      stroke="#000000"
      stroke-width="10.00000858"
      stroke-linecap="round"
    />
    <line
      id="line100"
      y2="5.0712562"
      x2="755.07178"
      y1="5.0712562"
      x1="928.30518"
      stroke="#000000"
      stroke-width="10.00000858"
      stroke-linecap="round"
    />
    <line
      id="line102"
      y2="5.0712562"
      x2="755.07178"
      y1="398.77292"
      x1="755.07178"
      stroke="#000000"
      stroke-width="10.00000858"
      stroke-linecap="round"
    />
    <line
      id="line104"
      y2="398.77292"
      x2="951.92468"
      y1="398.77292"
      x1="928.30518"
      stroke="#000000"
      stroke-width="10.00000858"
      stroke-linecap="round"
    />
    <line
      id="line106"
      y2="327.90594"
      x2="951.92468"
      y1="398.77292"
      x1="951.92468"
      stroke="#000000"
      stroke-width="10.00000858"
      stroke-linecap="round"
    />
    <line
      id="line118"
      y2="5.0712562"
      x2="951.92468"
      y1="75.93779"
      x1="951.92468"
      stroke="#000000"
      stroke-width="10.00000858"
      stroke-linecap="round"
    />
    <line
      id="line120"
      y2="5.0712562"
      x2="928.30518"
      y1="5.0712562"
      x1="951.92468"
      stroke="#000000"
      stroke-width="10.00000858"
      stroke-linecap="round"
    />
    <line
      id="line130"
      y2="398.77292"
      x2="1256.0541"
      y1="398.77292"
      x1="1177.3152"
      stroke="#000000"
      stroke-width="5.00000429"
      stroke-linecap="round"
    />
    <line
      id="line132"
      y2="5.0712562"
      x2="1275.7485"
      y1="5.0712562"
      x1="1157.6346"
      stroke="#000000"
      stroke-width="10.00000858"
      stroke-linecap="round"
    />
    <line
      id="line134"
      y2="398.77292"
      x2="1303.3041"
      y1="398.77292"
      x1="1130.0748"
      stroke="#000000"
      stroke-width="10.00000858"
      stroke-linecap="round"
    />
    <line
      id="line136"
      y2="327.90594"
      x2="1303.3041"
      y1="398.77292"
      x1="1303.3041"
      stroke="#000000"
      stroke-width="10.00000858"
      stroke-linecap="round"
    />
    <line
      id="line138"
      y2="5.0712562"
      x2="1303.3041"
      y1="75.93779"
      x1="1303.3041"
      stroke="#000000"
      stroke-width="10.00000858"
      stroke-linecap="round"
    />
    <line
      id="line140"
      y2="5.0712562"
      x2="1130.0748"
      y1="5.0712562"
      x1="1303.3041"
      stroke="#000000"
      stroke-width="10.00000858"
      stroke-linecap="round"
    />
    <line
      id="line142"
      y2="5.0712562"
      x2="1130.0748"
      y1="398.77292"
      x1="1130.0748"
      stroke="#000000"
      stroke-width="10.00000858"
      stroke-linecap="round"
    />
    <line
      id="line144"
      y2="398.77292"
      x2="1326.9292"
      y1="398.77292"
      x1="1303.3041"
      stroke="#000000"
      stroke-width="10.00000858"
      stroke-linecap="round"
    />
    <line
      id="line146"
      y2="327.90594"
      x2="1326.9292"
      y1="398.77292"
      x1="1326.9292"
      stroke="#000000"
      stroke-width="10.00000858"
      stroke-linecap="round"
    />
    <line
      id="line158"
      y2="5.0712562"
      x2="1326.9292"
      y1="75.93779"
      x1="1326.9292"
      stroke="#000000"
      stroke-width="10.00000858"
      stroke-linecap="round"
    />
    <line
      id="line160"
      y2="5.0712562"
      x2="1303.3041"
      y1="5.0712562"
      x1="1326.9292"
      stroke="#000000"
      stroke-width="10.00000858"
      stroke-linecap="round"
    />
    <line
      id="line30"
      y2="272.78778"
      x2="178.30052"
      y1="327.90594"
      x1="178.30052"
      stroke="#000000"
      stroke-width="10.00000858"
      stroke-linecap="round"
    />
    <line
      id="line32"
      y2="131.05597"
      x2="178.30052"
      y1="272.78778"
      x1="178.30052"
      stroke="#000000"
      stroke-width="10.00000858"
      stroke-linecap="round"
    />
    <line
      id="line34"
      y2="75.93779"
      x2="178.30052"
      y1="131.05597"
      x1="178.30052"
      stroke="#000000"
      stroke-width="10.00000858"
      stroke-linecap="round"
    />
    <line
      id="line36"
      y2="75.93779"
      x2="201.92276"
      y1="75.93779"
      x1="178.30052"
      stroke="#000000"
      stroke-width="10.00000858"
      stroke-linecap="round"
    />
    <line
      id="line68"
      y2="327.90594"
      x2="553.30084"
      y1="327.90594"
      x1="576.9231"
      stroke="#000000"
      stroke-width="10.00000858"
      stroke-linecap="round"
    />
    <line
      id="line70"
      y2="272.78778"
      x2="553.30084"
      y1="327.90594"
      x1="553.30084"
      stroke="#000000"
      stroke-width="10.00000858"
      stroke-linecap="round"
    />
    <line
      id="line72"
      y2="131.05597"
      x2="553.30084"
      y1="272.78778"
      x1="553.30084"
      stroke="#000000"
      stroke-width="10.00000858"
      stroke-linecap="round"
    />
    <line
      id="line74"
      y2="75.93779"
      x2="553.30084"
      y1="131.05597"
      x1="553.30084"
      stroke="#000000"
      stroke-width="10.00000858"
      stroke-linecap="round"
    />
    <line
      id="line76"
      y2="75.93779"
      x2="576.9231"
      y1="75.93779"
      x1="553.30084"
      stroke="#000000"
      stroke-width="10.00000858"
      stroke-linecap="round"
    />
    <line
      id="line108"
      y2="327.90594"
      x2="928.30518"
      y1="327.90594"
      x1="951.92468"
      stroke="#000000"
      stroke-width="10.00000858"
      stroke-linecap="round"
    />
    <line
      id="line110"
      y2="272.78778"
      x2="928.30518"
      y1="327.90594"
      x1="928.30518"
      stroke="#000000"
      stroke-width="10.00000858"
      stroke-linecap="round"
    />
    <line
      id="line112"
      y2="131.05597"
      x2="928.30518"
      y1="272.78778"
      x1="928.30518"
      stroke="#000000"
      stroke-width="10.00000858"
      stroke-linecap="round"
    />
    <line
      id="line114"
      y2="75.93779"
      x2="928.30518"
      y1="131.05597"
      x1="928.30518"
      stroke="#000000"
      stroke-width="10.00000858"
      stroke-linecap="round"
    />
    <line
      id="line116"
      y2="75.93779"
      x2="951.92468"
      y1="75.93779"
      x1="928.30518"
      stroke="#000000"
      stroke-width="10.00000858"
      stroke-linecap="round"
    />
    <line
      id="line148"
      y2="327.90594"
      x2="1303.3041"
      y1="327.90594"
      x1="1326.9292"
      stroke="#000000"
      stroke-width="10.00000858"
      stroke-linecap="round"
    />
    <line
      id="line150"
      y2="272.78778"
      x2="1303.3041"
      y1="327.90594"
      x1="1303.3041"
      stroke="#000000"
      stroke-width="10.00000858"
      stroke-linecap="round"
    />
    <line
      id="line152"
      y2="131.05597"
      x2="1303.3041"
      y1="272.78778"
      x1="1303.3041"
      stroke="#000000"
      stroke-width="10.00000858"
      stroke-linecap="round"
    />
    <line
      id="line154"
      y2="75.93779"
      x2="1303.3041"
      y1="131.05597"
      x1="1303.3041"
      stroke="#000000"
      stroke-width="10.00000858"
      stroke-linecap="round"
    />
    <line
      id="line156"
      y2="75.93779"
      x2="1326.9292"
      y1="75.93779"
      x1="1303.3041"
      stroke="#000000"
      stroke-width="10.00000858"
      stroke-linecap="round"
    />
    <line
      x1="201.92276"
      y1="327.90594"
      x2="178.30052"
      y2="327.90594"
      id="line28"
      stroke="#000000"
      stroke-width="10.00000858"
      stroke-linecap="round"
    />
  </g>
  <g
    id="copper1">
    <g
      id="copper0">
      <rect
        id="rect188"
        height="41.496143"
        width="41.496143"
        x="1195.9346"
        y="299.2851"
        fill="none"
        stroke="#f7bd13"
        stroke-width="10.00000858"
      />
      <rect
        id="rect194"
        height="41.496143"
        width="41.496143"
        x="820.93848"
        y="299.2851"
        fill="none"
        stroke="#f7bd13"
        stroke-width="10.00000858"
      />
      <rect
        id="rect183"
        height="41.496143"
        width="41.496143"
        x="445.93826"
        y="299.2851"
        fill="none"
        stroke="#f7bd13"
        stroke-width="10.00000858"
      />
      <rect
        y="299.2851"
        x="70.93792"
        width="41.496143"
        height="41.496143"
        id="rect197"
        fill="none"
        stroke="#f7bd13"
        stroke-width="10.00000858"
      />
      <circle
        cy="320.03241"
        id="connector0pin"
        connectorname="SCL"
        cx="91.686554"
        r="20.748072"
        fill="none"
        stroke="#f7bd13"
        stroke-width="10.00000858"
      />
      <circle
        cy="241.2919"
        id="connector1pin"
        connectorname="SDA"
        cx="91.686554"
        r="20.748072"
        fill="none"
        stroke="#f7bd13"
        stroke-width="10.00000858"
      />
      <circle
        cy="162.55183"
        id="connector2pin"
        connectorname="VCC"
        cx="91.686554"
        r="20.748072"
        fill="none"
        stroke="#f7bd13"
        stroke-width="10.00000858"
      />
      <circle
        cy="83.811333"
        id="connector3pin"
        connectorname="GND"
        cx="91.686554"
        r="20.748072"
        fill="none"
        stroke="#f7bd13"
        stroke-width="10.00000858"
      />
      <circle
        r="20.748072"
        cx="466.68689"
        connectorname="SCL"
        id="connector4pin"
        cy="320.03241"
        fill="none"
        stroke="#f7bd13"
        stroke-width="10.00000858"
      />
      <circle
        r="20.748072"
        cx="466.68689"
        connectorname="SDA"
        id="connector5pin"
        cy="241.2919"
        fill="none"
        stroke="#f7bd13"
        stroke-width="10.00000858"
      />
      <circle
        r="20.748072"
        cx="466.68689"
        connectorname="VCC"
        id="connector6pin"
        cy="162.55183"
        fill="none"
        stroke="#f7bd13"
        stroke-width="10.00000858"
      />
      <circle
        r="20.748072"
        cx="466.68689"
        connectorname="GND"
        id="connector7pin"
        cy="83.811333"
        fill="none"
        stroke="#f7bd13"
        stroke-width="10.00000858"
      />
      <circle
        r="20.748072"
        cx="841.68445"
        connectorname="SCL"
        id="connector8pin"
        cy="320.03241"
        fill="none"
        stroke="#f7bd13"
        stroke-width="10.00000858"
      />
      <circle
        r="20.748072"
        cx="841.68445"
        connectorname="SDA"
        id="connector9pin"
        cy="241.2919"
        fill="none"
        stroke="#f7bd13"
        stroke-width="10.00000858"
      />
      <circle
        r="20.748072"
        cx="841.68445"
        connectorname="VCC"
        id="connector10pin"
        cy="162.55183"
        fill="none"
        stroke="#f7bd13"
        stroke-width="10.00000858"
      />
      <circle
        r="20.748072"
        cx="841.68445"
        connectorname="GND"
        id="connector11pin"
        cy="83.811333"
        fill="none"
        stroke="#f7bd13"
        stroke-width="10.00000858"
      />
      <circle
        r="20.748072"
        cx="1216.6847"
        connectorname="SCL"
        id="connector12pin"
        cy="320.03241"
        fill="none"
        stroke="#f7bd13"
        stroke-width="10.00000858"
      />
      <circle
        r="20.748072"
        cx="1216.6847"
        connectorname="SDA"
        id="connector13pin"
        cy="241.2919"
        fill="none"
        stroke="#f7bd13"
        stroke-width="10.00000858"
      />
      <circle
        r="20.748072"
        cx="1216.6847"
        connectorname="VCC"
        id="connector14pin"
        cy="162.55183"
        fill="none"
        stroke="#f7bd13"
        stroke-width="10.00000858"
      />
      <circle
        r="20.748072"
        cx="1216.6847"
        connectorname="GND"
        id="connector15pin"
        cy="83.811333"
        fill="none"
        stroke="#f7bd13"
        stroke-width="10.00000858"
      />
    </g>
  </g>
</svg>
