<?xml version='1.0' encoding='UTF-8' standalone='no'?>
<svg
  xmlns:dc="http://purl.org/dc/elements/1.1/"
  xmlns:cc="http://creativecommons.org/ns#"
  xmlns:rdf="http://www.w3.org/1999/02/22-rdf-syntax-ns#"
  xmlns:svg="http://www.w3.org/2000/svg"
  xmlns="http://www.w3.org/2000/svg"
  xml:space="preserve"
  width="0.91551185in"
  height="1.9791473in"
  version="1.1"
  viewBox="0 0 915.51207 1979.148"
  id="svg1096"
  clip-rule="evenodd"
  fill-rule="evenodd"
  image-rendering="optimizeQuality"
  shape-rendering="geometricPrecision"
  text-rendering="geometricPrecision">
  <metadata
    id="metadata1102">
    <rdf:RDF>
      <cc:Work
        rdf:about="">
        <dc:format>image/svg+xml</dc:format>
        <dc:type
          rdf:resource="http://purl.org/dc/dcmitype/StillImage"
        />
        <dc:title/>
      </cc:Work>
    </rdf:RDF>
  </metadata>
  <defs
    id="defs1100">
  </defs>
  <g
    id="silkscreen">
    <path
      id="rect3"
      d="M 76.377977,5 H 839.2916 c 48.71125,0 69.77163,52.20292 71.22048,92.32286 l 2e-5,1799.60684 c -0.15729,49.2456 -26.04093,77.4756 -79.09452,76.5748 -226.18182,-3.84 -570.35296,0 -743.228573,0 C 30.894215,1979.5348 5,1942.9469 5,1900.8667 V 73.7008 C 5,31.62071 38.380165,5 76.377977,5 Z"
      stroke="#000000"
      fill="none"
      stroke-width="10"
    />
    <circle
      id="ellipse134"
      cx="833.97662"
      cy="82.165398"
      r="39.37009"
      fill="#000000"
      stroke="none"
      stroke-width="0"
    />
    <circle
      r="39.37009"
      cy="82.165398"
      cx="82.007896"
      id="circle136"
      fill="#000000"
      stroke="none"
      stroke-width="0"
    />
    <circle
      r="39.37009"
      cy="1897.1266"
      cx="82.007896"
      id="circle2286"
      fill="#000000"
      stroke="none"
      stroke-width="0"
    />
    <circle
      r="39.37009"
      cy="1897.1266"
      cx="833.97662"
      id="circle2351"
      fill="#000000"
      stroke="none"
      stroke-width="0"
    />
  </g>
  <g
    id="copper1">
    <g
      id="copper0">
      <circle
        cy="225.1024"
        cx="51.32756"
        id="connector0pin"
        r="29"
        fill="none"
        stroke="#F7BD13"
        stroke-width="20"
      />
      <circle
        cy="322.98553"
        cx="51.32756"
        id="connector1pin"
        r="29"
        fill="none"
        stroke="#F7BD13"
        stroke-width="20"
      />
      <circle
        cy="423.51398"
        cx="51.32756"
        id="connector2pin"
        r="29"
        fill="none"
        stroke="#F7BD13"
        stroke-width="20"
      />
      <circle
        cy="524.04266"
        cx="51.32756"
        id="connector3pin"
        r="29"
        fill="none"
        stroke="#F7BD13"
        stroke-width="20"
      />
      <circle
        cy="624.57074"
        cx="51.32756"
        id="connector4pin"
        r="29"
        fill="none"
        stroke="#F7BD13"
        stroke-width="20"
      />
      <circle
        cy="725.0993"
        cx="51.32756"
        id="connector5pin"
        r="29"
        fill="none"
        stroke="#F7BD13"
        stroke-width="20"
      />
      <circle
        cy="822.98236"
        cx="51.32756"
        id="connector6pin"
        r="29"
        fill="none"
        stroke="#F7BD13"
        stroke-width="20"
      />
      <circle
        cy="923.51093"
        cx="51.32756"
        id="connector7pin"
        r="29"
        fill="none"
        stroke="#F7BD13"
        stroke-width="20"
      />
      <circle
        cy="1721.8151"
        cx="851.00024"
        id="connector12pin"
        r="29"
        fill="none"
        stroke="#F7BD13"
        stroke-width="20"
      />
      <circle
        cy="1623.9315"
        cx="851.00024"
        id="connector13pin"
        r="29"
        fill="none"
        stroke="#F7BD13"
        stroke-width="20"
      />
      <circle
        cy="1523.403"
        cx="851.00024"
        id="connector14pin"
        r="29"
        fill="none"
        stroke="#F7BD13"
        stroke-width="20"
      />
      <circle
        cy="1422.8744"
        cx="851.00024"
        id="connector15pin"
        r="29"
        fill="none"
        stroke="#F7BD13"
        stroke-width="20"
      />
      <circle
        cy="1322.7516"
        cx="850.41333"
        id="connector16pin"
        r="29"
        fill="none"
        stroke="#F7BD13"
        stroke-width="20"
      />
      <circle
        cy="1224.8683"
        cx="850.41333"
        id="connector17pin"
        r="29"
        fill="none"
        stroke="#F7BD13"
        stroke-width="20"
      />
      <circle
        cy="1124.3397"
        cx="850.41333"
        id="connector18pin"
        r="29"
        fill="none"
        stroke="#F7BD13"
        stroke-width="20"
      />
      <circle
        cy="1023.8111"
        cx="850.41333"
        id="connector19pin"
        r="29"
        fill="none"
        stroke="#F7BD13"
        stroke-width="20"
      />
      <circle
        cy="923.28265"
        cx="850.41333"
        id="connector20pin"
        r="29"
        fill="none"
        stroke="#F7BD13"
        stroke-width="20"
      />
      <circle
        cy="822.75409"
        cx="850.41333"
        id="connector21pin"
        r="29"
        fill="none"
        stroke="#F7BD13"
        stroke-width="20"
      />
      <circle
        cy="724.87103"
        cx="850.41333"
        id="connector22pin"
        r="29"
        fill="none"
        stroke="#F7BD13"
        stroke-width="20"
      />
      <circle
        cy="624.34247"
        cx="850.41333"
        id="connector23pin"
        r="29"
        fill="none"
        stroke="#F7BD13"
        stroke-width="20"
      />
      <circle
        cy="523.81427"
        cx="850.41333"
        id="connector24pin"
        r="29"
        fill="none"
        stroke="#F7BD13"
        stroke-width="20"
      />
      <circle
        cy="423.28571"
        cx="850.41333"
        id="connector25pin"
        r="29"
        fill="none"
        stroke="#F7BD13"
        stroke-width="20"
      />
      <circle
        cy="322.75726"
        cx="850.41333"
        id="connector26pin"
        r="29"
        fill="none"
        stroke="#F7BD13"
        stroke-width="20"
      />
      <circle
        cy="224.87413"
        cx="850.41333"
        id="connector27pin"
        r="29"
        fill="none"
        stroke="#F7BD13"
        stroke-width="20"
      />
    </g>
  </g>
</svg>
