<?xml version='1.0' encoding='UTF-8' standalone='no'?>
<svg
  xmlns:svg='http://www.w3.org/2000/svg'
  xmlns='http://www.w3.org/2000/svg'
  version='1.2'
  baseProfile='tiny'
  width='0.192in'
  height='0.296in'
  viewBox='0 0 192 295.6'
>
  <g
    id='silkscreen'
    fill='none'
    stroke='black'
    stroke-linecap='round'
    stroke-width='6.4'
  >
    <line x1='3.2' y1='76' x2='3.2' y2='219.6'/>
    <line x1='188.8' y1='76' x2='188.8' y2='219.6'/>
    <circle cx='25.4' cy='196' r='6' stroke-width='8.8'/>
  </g>
  <g
    id='copper1'
    fill='#F7BD13'
    stroke='none'
    transform="translate(10.5,0)"
  >
    <rect id='connector0pad' x='0' y='212.6' width='21' height='83'/>
    <rect id='connector1pad' x='50' y='212.6' width='21' height='83'/>
    <rect id='connector2pad' x='100' y='212.6' width='21' height='83'/>
    <rect id='connector3pad' x='150' y='212.6' width='21' height='83'/>
    <rect id='connector4pad' x='150' y='0' width='21' height='83'/>
    <rect id='connector5pad' x='100' y='0' width='21' height='83'/>
    <rect id='connector6pad' x='50' y='0' width='21' height='83'/>
    <rect id='connector7pad' x='0' y='0' width='21' height='83'/>
  </g>
</svg>
