<?xml version='1.0' encoding='UTF-8' standalone='no'?>
<svg
  xmlns:dc="http://purl.org/dc/elements/1.1/"
  xmlns:cc="http://creativecommons.org/ns#"
  xmlns:rdf="http://www.w3.org/1999/02/22-rdf-syntax-ns#"
  xmlns:svg="http://www.w3.org/2000/svg"
  xmlns="http://www.w3.org/2000/svg"
  version="1.2"
  height="0.60999995in"
  id="svg174"
  gorn="0"
  x="0in"
  y="0in"
  width="0.51209676in"
  viewBox="0 0 512.09693 610.00018">
  <metadata
    id="metadata180">
    <rdf:RDF>
      <cc:Work
        rdf:about="">
        <dc:format>image/svg+xml</dc:format>
        <dc:type
          rdf:resource="http://purl.org/dc/dcmitype/StillImage"
        />
        <dc:title/>
      </cc:Work>
    </rdf:RDF>
  </metadata>
  <defs
    id="defs178"
  />
  <desc
    id="desc2">
    <referenceFile>NE0-6M-GPS_Breakout-with-ant_1_schematic.svg</referenceFile>
  </desc>
  <g
    id="schematic">
    <rect
      stroke-width="10"
      stroke="#000000"
      fill="#ffffff"
      class="interior rect"
      width="399.19366"
      y="107.90326"
      x="5"
      gorn="0.9"
      id="rect4"
      height="399.19366"
    />
    <line
      stroke-linecap="round"
      stroke-width="10.21377087"
      stroke="#787878"
      fill="none"
      x2="506.69586"
      class="pin"
      x1="407.27652"
      y1="205.00009"
      gorn="0.10"
      id="connector2pin"
      y2="205.00009"
    />
    <rect
      stroke-width="10"
      fill="none"
      y="200.00006"
      x="502.09692"
      height="10.000003"
      width="10.000003"
      id="connector2terminal"
    />
    <text
      fill="#8c8c8c"
      text-anchor="end"
      font-family="DroidSans"
      font-size="35"
      class="text"
      y="220.79745"
      x="379.88037"
      gorn="0.11"
      id="text7">TXD</text>
    <line
      stroke-linecap="round"
      stroke-width="10.21377087"
      stroke="#787878"
      fill="none"
      x2="506.80661"
      class="pin"
      x1="407.38727"
      y1="305.00015"
      gorn="0.12"
      id="connector3pin"
      y2="305.00015"
    />
    <rect
      id="connector3terminal"
      width="10.000003"
      height="10.000003"
      x="502.09692"
      y="300.00009"
      fill="none"
      stroke-width="10"
    />
    <text
      fill="#8c8c8c"
      text-anchor="end"
      font-family="DroidSans"
      font-size="35"
      class="text"
      y="318.88669"
      x="378.01056"
      gorn="0.13"
      id="text11">RXD</text>
    <line
      stroke-linecap="round"
      stroke-width="10"
      stroke="#787878"
      fill="none"
      x2="207.09734"
      class="pin"
      x1="207.09734"
      y1="509.62766"
      gorn="0.14"
      id="connector1pin"
      y2="604.92896"
    />
    <rect
      stroke-width="10"
      fill="none"
      y="600.00012"
      x="202.09683"
      height="10.000003"
      width="10.000003"
      id="connector1terminal"
    />
    <line
      stroke-linecap="round"
      stroke-width="10.21376801"
      stroke="#787878"
      fill="none"
      x2="206.98944"
      class="pin"
      x1="206.98944"
      y1="5.4010315"
      gorn="0.15"
      id="connector0pin"
      y2="104.8204"
    />
    <rect
      stroke-width="10"
      fill="none"
      id="connector0terminal"
      width="10.000003"
      height="10.000003"
      x="202.09683"
      y="0"
    />
    <text
      fill="#000000"
      text-anchor="middle"
      font-family="DroidSans"
      font-size="50"
      class="text"
      y="260.56406"
      x="165.13846"
      gorn="0.16.0.0.0.0"
      id="label">U-blox</text>
    <text
      fill="#000000"
      text-anchor="middle"
      font-family="DroidSans"
      font-size="50"
      class="text"
      y="322.5275"
      x="165.81567"
      gorn="0.17.0.0.0.0"
      id="text163">NEO-6M</text>
    <text
      fill="#000000"
      text-anchor="middle"
      font-family="DroidSans"
      font-size="50"
      class="text"
      y="387.47543"
      x="155.89949"
      gorn="0.18.0.0.0.0"
      id="text165">GPS</text>
    <text
      fill="#8c8c8c"
      text-anchor="end"
      font-family="DroidSans"
      font-size="35"
      class="text"
      y="157.9296"
      x="237.02055"
      gorn="0.19.0.0.0.0"
      id="text7-4">VCC</text>
    <text
      fill="#8c8c8c"
      text-anchor="end"
      font-family="DroidSans"
      font-size="35"
      class="text"
      y="487.82559"
      x="244.56245"
      gorn="0.20.0.0.0.0"
      id="text7-4-0">GND</text>
    <line
      stroke-linecap="round"
      stroke-width="10.21377373"
      stroke="#787878"
      fill="none"
      x2="506.73538"
      class="pin"
      x1="407.31604"
      y1="405.00015"
      gorn="0.21"
      id="connector4pin"
      y2="405.00015"
    />
    <rect
      stroke-width="10"
      fill="none"
      y="400.00009"
      x="502.09692"
      height="10.000003"
      width="10.000003"
      id="connector4terminal"
    />
    <text
      fill="#8c8c8c"
      text-anchor="end"
      font-family="DroidSans"
      font-size="35"
      class="text"
      y="419.34372"
      x="368.92505"
      gorn="0.22"
      id="text11-4">PPS</text>
    <text
      fill="#8c8c8c"
      text-anchor="end"
      font-family="DroidSans"
      id="text228"
      gorn="0.19.0.0.0.0"
      x="244.95349"
      y="89.17746"
      class="text"
      font-size="25">1</text>
    <text
      fill="#8c8c8c"
      text-anchor="end"
      font-family="DroidSans"
      font-size="25"
      class="text"
      y="555.8988"
      x="240.98701"
      gorn="0.19.0.0.0.0"
      id="text230">2</text>
    <text
      fill="#8c8c8c"
      text-anchor="end"
      font-family="DroidSans"
      id="text232"
      gorn="0.19.0.0.0.0"
      x="443.27698"
      y="190.98352"
      class="text"
      font-size="25">3</text>
    <text
      fill="#8c8c8c"
      text-anchor="end"
      font-family="DroidSans"
      font-size="25"
      class="text"
      y="292.78958"
      x="441.95483"
      gorn="0.19.0.0.0.0"
      id="text234">4</text>
    <text
      fill="#8c8c8c"
      text-anchor="end"
      font-family="DroidSans"
      id="text236"
      gorn="0.19.0.0.0.0"
      x="441.95483"
      y="387.98483"
      class="text"
      font-size="25">5</text>
  </g>
</svg>
