<?xml version='1.0' encoding='UTF-8' standalone='no'?>
<svg xmlns="http://www.w3.org/2000/svg" width="0.58290559in"  y="0in" id="svg2" x="0in" version="1.2" viewBox="0 0 582.90561 539.878" height="0.53987801in" gorn="0">
    <metadata  id="metadata41">
        <rdf:RDF xmlns:rdf="http://www.w3.org/1999/02/22-rdf-syntax-ns#">
            <cc:Work xmlns:rdf="http://www.w3.org/1999/02/22-rdf-syntax-ns#" rdf:about="" xmlns:cc="http://creativecommons.org/ns#">
                <dc:format xmlns:dc="http://purl.org/dc/elements/1.1/">image/svg+xml</dc:format>
                <dc:type xmlns:rdf="http://www.w3.org/1999/02/22-rdf-syntax-ns#" xmlns:dc="http://purl.org/dc/elements/1.1/" rdf:resource="http://purl.org/dc/dcmitype/StillImage"/>
                <dc:title xmlns:dc="http://purl.org/dc/elements/1.1/"/>
            </cc:Work>
        </rdf:RDF>
    </metadata>
    <defs  id="defs39"/>
    <desc  id="desc4">
        <referenceFile >svg.schematic-template_1_schematic.svg</referenceFile>
    </desc>
    <g  id="schematic" gorn="0.3">
        <rect width="572.90558" fill="none"  stroke="#000000" style="stroke-linecap:round" y="45.73518" id="rect7" x="5" height="489.14285" gorn="0.3.0" stroke-width="10"/>
        <line y1="3.8552148" y2="44.075329" fill="none"  stroke="#555555" style="stroke-linecap:round" id="connector9pin" x2="463.32446" x1="463.32446" gorn="0.3.1" stroke-width="7.60215616"/>
        <rect width="13.640607" fill="none"  y="1.8478146" id="connector9terminal" x="456.50415" height="4.2368188" gorn="0.3.2" stroke-width="0"/>
        <line y1="3.8552148" y2="44.075329" fill="none"  stroke="#555555" id="connector8pin" style="stroke-linecap:round" x2="425.13074" x1="425.13074" gorn="0.3.3" stroke-width="7.60215616"/>
        <rect width="13.640607" fill="none"  y="1.8478146" id="connector8terminal" x="418.31049" height="4.2368188" gorn="0.3.4" stroke-width="0"/>
        <line y1="3.8552148" y2="44.075329" fill="none"  stroke="#555555" style="stroke-linecap:round" id="connector7pin" x2="386.93698" x1="386.93698" gorn="0.3.5" stroke-width="7.60215616"/>
        <rect width="13.640607" fill="none"  id="connector7terminal" y="1.8478146" x="380.11673" height="4.2368188" gorn="0.3.6" stroke-width="0"/>
        <line y1="3.8552148" y2="44.075329" fill="none"  stroke="#555555" style="stroke-linecap:round" id="connector6pin" x2="348.74332" x1="348.74332" gorn="0.3.7" stroke-width="7.60215616"/>
        <rect width="13.640607" fill="none"  y="1.8478146" id="connector6terminal" x="341.92297" height="4.2368188" gorn="0.3.8" stroke-width="0"/>
        <line y1="3.8552148" y2="44.075329" fill="none"  stroke="#555555" id="connector5pin" style="stroke-linecap:round" x2="310.54962" x1="310.54962" gorn="0.3.9" stroke-width="7.60215616"/>
        <rect width="13.640607" fill="none"  id="connector5terminal" y="1.8478146" x="303.72928" height="4.2368188" gorn="0.3.10" stroke-width="0"/>
        <line y1="3.8552148" y2="44.075329" fill="none"  stroke="#555555" style="stroke-linecap:round" id="connector4pin" x2="272.35593" x1="272.35593" gorn="0.3.11" stroke-width="7.60215616"/>
        <rect width="13.640607" fill="none"  id="connector4terminal" y="1.8478146" x="265.53564" height="4.2368188" gorn="0.3.12" stroke-width="0"/>
        <line y1="3.8552148" y2="44.075329" fill="none"  stroke="#555555" id="connector3pin" style="stroke-linecap:round" x2="234.16223" x1="234.16223" gorn="0.3.13" stroke-width="7.60215616"/>
        <rect width="13.640607" fill="none"  y="1.8478146" id="connector3terminal" x="227.34192" height="4.2368188" gorn="0.3.14" stroke-width="0"/>
        <line y1="3.8552148" y2="44.075329" fill="none"  stroke="#555555" id="connector2pin" style="stroke-linecap:round" x2="195.96851" x1="195.96851" gorn="0.3.15" stroke-width="7.60215616"/>
        <rect width="13.640607" fill="none"  id="connector2terminal" y="1.8478146" x="189.14819" height="4.2368188" gorn="0.3.16" stroke-width="0"/>
        <line y1="3.8552148" y2="44.075329" fill="none"  stroke="#555555" style="stroke-linecap:round" id="connector1pin" x2="157.77481" x1="157.77481" gorn="0.3.17" stroke-width="7.60215616"/>
        <rect width="13.640607" fill="none"  id="connector1terminal" y="1.8478146" x="150.95453" height="4.2368188" gorn="0.3.18" stroke-width="0"/>
        <line y1="3.8552148" y2="44.075329" fill="none"  stroke="#555555" style="stroke-linecap:round" id="connector0pin" x2="119.58108" x1="119.58108" gorn="0.3.19" stroke-width="7.60215616"/>
        <rect width="13.640607" fill="none"  y="1.8478146" id="connector0terminal" x="112.76078" height="4.2368188" gorn="0.3.20" stroke-width="0"/>
        <g  transform="matrix(0.87037164,0,0,0.85237947,38.261347,43.842873)">
            <g >
                <g  style="display:inline" id="Ziffern" gorn="0.3.21.0.0">
                    <line y1="155.74129" y2="172.83553" fill="none"  stroke="#000000" style="stroke-linecap:round" id="line2423" x2="246.24918" x1="227.47919" gorn="0.3.21.0.0.0" stroke-width="4.47814083"/>
                    <line y1="172.83553" y2="189.92986" fill="none"  stroke="#000000" style="stroke-linecap:round" id="line2425" x2="227.47919" x1="246.24918" gorn="0.3.21.0.0.1" stroke-width="4.47814083"/>
                    <line y1="189.92986" y2="189.92986" fill="none"  stroke="#000000" style="stroke-linecap:round" id="line2427" x2="114.85923" x1="227.47919" gorn="0.3.21.0.0.2" stroke-width="4.47814083"/>
                    <line y1="189.92986" y2="172.83553" fill="none"  stroke="#000000" style="stroke-linecap:round" id="line2429" x2="96.089241" x1="114.85923" gorn="0.3.21.0.0.3" stroke-width="4.47814083"/>
                    <line y1="172.83553" y2="155.74129" fill="none"  stroke="#000000" style="stroke-linecap:round" id="line2431" x2="114.85923" x1="96.089241" gorn="0.3.21.0.0.4" stroke-width="4.47814083"/>
                    <line y1="155.74129" y2="155.74129" fill="none"  stroke="#000000" style="stroke-linecap:round" id="line2433" x2="227.47919" x1="114.85923" gorn="0.3.21.0.0.5" stroke-width="4.47814083"/>
                    <line y1="189.92986" y2="207.02885" fill="none"  stroke="#000000" style="stroke-linecap:round" id="line2435" x2="268.77316" x1="250.00319" gorn="0.3.21.0.0.6" stroke-width="4.47814083"/>
                    <line y1="189.92986" y2="207.02885" fill="none"  stroke="#000000" style="stroke-linecap:round" id="line2437" x2="231.2332" x1="250.00319" gorn="0.3.21.0.0.7" stroke-width="4.47814083"/>
                    <line y1="207.02885" y2="309.5899" fill="none"  stroke="#000000" style="stroke-linecap:round" id="line2439" x2="212.46323" x1="231.2332" gorn="0.3.21.0.0.8" stroke-width="4.47814083"/>
                    <line y1="309.5899" y2="326.68423" fill="none"  stroke="#000000" style="stroke-linecap:round" id="line2441" x2="231.2332" x1="212.46323" gorn="0.3.21.0.0.9" stroke-width="4.47814083"/>
                    <line y1="326.68423" y2="309.5899" fill="none"  stroke="#000000" style="stroke-linecap:round" id="line2443" x2="250.00319" x1="231.2332" gorn="0.3.21.0.0.10" stroke-width="4.47814083"/>
                    <line y1="309.5899" y2="207.02885" fill="none"  stroke="#000000" style="stroke-linecap:round" id="line2445" x2="268.77316" x1="250.00319" gorn="0.3.21.0.0.11" stroke-width="4.47814083"/>
                    <line y1="343.77847" y2="326.68423" fill="none"  stroke="#000000" style="stroke-linecap:round" id="line2447" x2="96.089241" x1="77.31926" gorn="0.3.21.0.0.12" stroke-width="4.47814083"/>
                    <line y1="343.77847" y2="360.87292" fill="none"  stroke="#000000" style="stroke-linecap:round" id="line2449" x2="96.089241" x1="77.31926" gorn="0.3.21.0.0.13" stroke-width="4.47814083"/>
                    <line y1="360.87292" y2="360.87292" fill="none"  stroke="#000000" style="stroke-linecap:round" id="line2451" x2="208.7092" x1="96.089241" gorn="0.3.21.0.0.14" stroke-width="4.47814083"/>
                    <line y1="360.87292" y2="343.77847" fill="none"  stroke="#000000" style="stroke-linecap:round" id="line2453" x2="227.47919" x1="208.7092" gorn="0.3.21.0.0.15" stroke-width="4.47814083"/>
                    <line y1="343.77847" y2="326.68423" fill="none"  stroke="#000000" style="stroke-linecap:round" id="line2455" x2="208.7092" x1="227.47919" gorn="0.3.21.0.0.16" stroke-width="4.47814083"/>
                    <line y1="326.68423" y2="326.68423" fill="none"  stroke="#000000" style="stroke-linecap:round" id="line2457" x2="96.089241" x1="208.7092" gorn="0.3.21.0.0.17" stroke-width="4.47814083"/>
                    <line y1="514.72162" y2="497.62729" fill="none"  stroke="#000000" style="stroke-linecap:round" id="line2459" x2="77.31926" x1="58.549271" gorn="0.3.21.0.0.18" stroke-width="4.47814083"/>
                    <line y1="514.72162" y2="531.8161" fill="none"  stroke="#000000" style="stroke-linecap:round" id="line2461" x2="77.31926" x1="58.549271" gorn="0.3.21.0.0.19" stroke-width="4.47814083"/>
                    <line y1="531.8161" y2="531.8161" fill="none"  stroke="#000000" style="stroke-linecap:round" id="line2463" x2="189.93922" x1="77.31926" gorn="0.3.21.0.0.20" stroke-width="4.47814083"/>
                    <line y1="531.8161" y2="514.72162" fill="none"  stroke="#000000" style="stroke-linecap:round" id="line2465" x2="208.7092" x1="189.93922" gorn="0.3.21.0.0.21" stroke-width="4.47814083"/>
                    <line y1="514.72162" y2="497.62729" fill="none"  stroke="#000000" style="stroke-linecap:round" id="line2467" x2="189.93922" x1="208.7092" gorn="0.3.21.0.0.22" stroke-width="4.47814083"/>
                    <line y1="497.62729" y2="497.62729" fill="none"  stroke="#000000" style="stroke-linecap:round" id="line2469" x2="77.31926" x1="189.93922" gorn="0.3.21.0.0.23" stroke-width="4.47814083"/>
                    <line y1="189.92986" y2="207.02885" fill="none"  stroke="#000000" style="stroke-linecap:round" id="line2471" x2="111.10523" x1="92.335236" gorn="0.3.21.0.0.24" stroke-width="4.47814083"/>
                    <line y1="189.92986" y2="207.02885" fill="none"  stroke="#000000" style="stroke-linecap:round" id="line2473" x2="73.565254" x1="92.335236" gorn="0.3.21.0.0.25" stroke-width="4.47814083"/>
                    <line y1="207.02885" y2="309.5899" fill="none"  stroke="#000000" style="stroke-linecap:round" id="line2475" x2="54.795265" x1="73.565254" gorn="0.3.21.0.0.26" stroke-width="4.47814083"/>
                    <line y1="309.5899" y2="326.68423" fill="none"  stroke="#000000" style="stroke-linecap:round" id="line2477" x2="73.565254" x1="54.795265" gorn="0.3.21.0.0.27" stroke-width="4.47814083"/>
                    <line y1="326.68423" y2="309.5899" fill="none"  stroke="#000000" style="stroke-linecap:round" id="line2479" x2="92.335236" x1="73.565254" gorn="0.3.21.0.0.28" stroke-width="4.47814083"/>
                    <line y1="309.5899" y2="207.02885" fill="none"  stroke="#000000" style="stroke-linecap:round" id="line2481" x2="111.10523" x1="92.335236" gorn="0.3.21.0.0.29" stroke-width="4.47814083"/>
                    <line y1="360.87292" y2="377.96713" fill="none"  stroke="#000000" style="stroke-linecap:round" id="line2483" x2="92.335236" x1="73.565254" gorn="0.3.21.0.0.30" stroke-width="4.47814083"/>
                    <line y1="360.87292" y2="377.96713" fill="none"  stroke="#000000" style="stroke-linecap:round" id="line2485" x2="54.795265" x1="73.565254" gorn="0.3.21.0.0.31" stroke-width="4.47814083"/>
                    <line y1="377.96713" y2="480.53296" fill="none"  stroke="#000000" style="stroke-linecap:round" id="line2487" x2="36.025276" x1="54.795265" gorn="0.3.21.0.0.32" stroke-width="4.47814083"/>
                    <line y1="480.53296" y2="497.62729" fill="none"  stroke="#000000" style="stroke-linecap:round" id="line2489" x2="54.795265" x1="36.025276" gorn="0.3.21.0.0.33" stroke-width="4.47814083"/>
                    <line y1="497.62729" y2="480.53296" fill="none"  stroke="#000000" style="stroke-linecap:round" id="line2491" x2="73.565254" x1="54.795265" gorn="0.3.21.0.0.34" stroke-width="4.47814083"/>
                    <line y1="480.53296" y2="377.96713" fill="none"  stroke="#000000" style="stroke-linecap:round" id="line2493" x2="92.335236" x1="73.565254" gorn="0.3.21.0.0.35" stroke-width="4.47814083"/>
                    <line y1="360.87292" y2="377.96713" fill="none"  stroke="#000000" style="stroke-linecap:round" id="line2495" x2="250.00319" x1="231.2332" gorn="0.3.21.0.0.36" stroke-width="4.47814083"/>
                    <line y1="360.87292" y2="377.96713" fill="none"  stroke="#000000" style="stroke-linecap:round" id="line2497" x2="212.46323" x1="231.2332" gorn="0.3.21.0.0.37" stroke-width="4.47814083"/>
                    <line y1="377.96713" y2="480.53296" fill="none"  stroke="#000000" style="stroke-linecap:round" id="line2499" x2="193.69322" x1="212.46323" gorn="0.3.21.0.0.38" stroke-width="4.47814083"/>
                    <line y1="480.53296" y2="497.62729" fill="none"  stroke="#000000" style="stroke-linecap:round" id="line2501" x2="212.46323" x1="193.69322" gorn="0.3.21.0.0.39" stroke-width="4.47814083"/>
                    <line y1="497.62729" y2="480.53296" fill="none"  stroke="#000000" style="stroke-linecap:round" id="line2503" x2="231.2332" x1="212.46323" gorn="0.3.21.0.0.40" stroke-width="4.47814083"/>
                    <line y1="480.53296" y2="377.96713" fill="none"  stroke="#000000" style="stroke-linecap:round" id="line2505" x2="250.00319" x1="231.2332" gorn="0.3.21.0.0.41" stroke-width="4.47814083"/>
                    <line y1="155.74129" y2="172.83553" fill="none"  stroke="#000000" style="stroke-linecap:round" id="line2507" x2="509.02902" x1="490.25909" gorn="0.3.21.0.0.42" stroke-width="4.47814083"/>
                    <line y1="172.83553" y2="189.92986" fill="none"  stroke="#000000" style="stroke-linecap:round" id="line2509" x2="490.25909" x1="509.02902" gorn="0.3.21.0.0.43" stroke-width="4.47814083"/>
                    <line y1="189.92986" y2="189.92986" fill="none"  stroke="#000000" style="stroke-linecap:round" id="line2511" x2="377.6391" x1="490.25909" gorn="0.3.21.0.0.44" stroke-width="4.47814083"/>
                    <line y1="189.92986" y2="172.83553" fill="none"  stroke="#000000" style="stroke-linecap:round" id="line2513" x2="358.86911" x1="377.6391" gorn="0.3.21.0.0.45" stroke-width="4.47814083"/>
                    <line y1="172.83553" y2="155.74129" fill="none"  stroke="#000000" style="stroke-linecap:round" id="line2515" x2="377.6391" x1="358.86911" gorn="0.3.21.0.0.46" stroke-width="4.47814083"/>
                    <line y1="155.74129" y2="155.74129" fill="none"  stroke="#000000" style="stroke-linecap:round" id="line2517" x2="490.25909" x1="377.6391" gorn="0.3.21.0.0.47" stroke-width="4.47814083"/>
                    <line y1="189.92986" y2="207.02885" fill="none"  stroke="#000000" style="stroke-linecap:round" id="line2519" x2="531.55304" x1="512.78308" gorn="0.3.21.0.0.48" stroke-width="4.47814083"/>
                    <line y1="189.92986" y2="207.02885" fill="none"  stroke="#000000" style="stroke-linecap:round" id="line2521" x2="494.01306" x1="512.78308" gorn="0.3.21.0.0.49" stroke-width="4.47814083"/>
                    <line y1="207.02885" y2="309.5899" fill="none"  stroke="#000000" style="stroke-linecap:round" id="line2523" x2="475.24304" x1="494.01306" gorn="0.3.21.0.0.50" stroke-width="4.47814083"/>
                    <line y1="309.5899" y2="326.68423" fill="none"  stroke="#000000" style="stroke-linecap:round" id="line2525" x2="494.01306" x1="475.24304" gorn="0.3.21.0.0.51" stroke-width="4.47814083"/>
                    <line y1="326.68423" y2="309.5899" fill="none"  stroke="#000000" style="stroke-linecap:round" id="line2527" x2="512.78308" x1="494.01306" gorn="0.3.21.0.0.52" stroke-width="4.47814083"/>
                    <line y1="309.5899" y2="207.02885" fill="none"  stroke="#000000" style="stroke-linecap:round" id="line2529" x2="531.55304" x1="512.78308" gorn="0.3.21.0.0.53" stroke-width="4.47814083"/>
                    <line y1="343.77847" y2="326.68423" fill="none"  stroke="#000000" style="stroke-linecap:round" id="line2531" x2="358.86911" x1="340.09915" gorn="0.3.21.0.0.54" stroke-width="4.47814083"/>
                    <line y1="343.77847" y2="360.87292" fill="none"  stroke="#000000" style="stroke-linecap:round" id="line2533" x2="358.86911" x1="340.09915" gorn="0.3.21.0.0.55" stroke-width="4.47814083"/>
                    <line y1="360.87292" y2="360.87292" fill="none"  stroke="#000000" style="stroke-linecap:round" id="line2535" x2="471.48907" x1="358.86911" gorn="0.3.21.0.0.56" stroke-width="4.47814083"/>
                    <line y1="360.87292" y2="343.77847" fill="none"  stroke="#000000" style="stroke-linecap:round" id="line2537" x2="490.25909" x1="471.48907" gorn="0.3.21.0.0.57" stroke-width="4.47814083"/>
                    <line y1="343.77847" y2="326.68423" fill="none"  stroke="#000000" style="stroke-linecap:round" id="line2539" x2="471.48907" x1="490.25909" gorn="0.3.21.0.0.58" stroke-width="4.47814083"/>
                    <line y1="326.68423" y2="326.68423" fill="none"  stroke="#000000" style="stroke-linecap:round" id="line2541" x2="358.86911" x1="471.48907" gorn="0.3.21.0.0.59" stroke-width="4.47814083"/>
                    <line y1="514.72162" y2="497.62729" fill="none"  stroke="#000000" style="stroke-linecap:round" id="line2543" x2="340.09915" x1="321.32913" gorn="0.3.21.0.0.60" stroke-width="4.47814083"/>
                    <line y1="514.72162" y2="531.8161" fill="none"  stroke="#000000" style="stroke-linecap:round" id="line2545" x2="340.09915" x1="321.32913" gorn="0.3.21.0.0.61" stroke-width="4.47814083"/>
                    <line y1="531.8161" y2="531.8161" fill="none"  stroke="#000000" style="stroke-linecap:round" id="line2547" x2="452.71909" x1="340.09915" gorn="0.3.21.0.0.62" stroke-width="4.47814083"/>
                    <line y1="531.8161" y2="514.72162" fill="none"  stroke="#000000" style="stroke-linecap:round" id="line2549" x2="471.48907" x1="452.71909" gorn="0.3.21.0.0.63" stroke-width="4.47814083"/>
                    <line y1="514.72162" y2="497.62729" fill="none"  stroke="#000000" style="stroke-linecap:round" id="line2551" x2="452.71909" x1="471.48907" gorn="0.3.21.0.0.64" stroke-width="4.47814083"/>
                    <line y1="497.62729" y2="497.62729" fill="none"  stroke="#000000" style="stroke-linecap:round" id="line2553" x2="340.09915" x1="452.71909" gorn="0.3.21.0.0.65" stroke-width="4.47814083"/>
                    <line y1="189.92986" y2="207.02885" fill="none"  stroke="#000000" style="stroke-linecap:round" id="line2555" x2="373.8851" x1="355.11508" gorn="0.3.21.0.0.66" stroke-width="4.47814083"/>
                    <line y1="189.92986" y2="207.02885" fill="none"  stroke="#000000" style="stroke-linecap:round" id="line2557" x2="336.34515" x1="355.11508" gorn="0.3.21.0.0.67" stroke-width="4.47814083"/>
                    <line y1="207.02885" y2="309.5899" fill="none"  stroke="#000000" style="stroke-linecap:round" id="line2559" x2="317.57513" x1="336.34515" gorn="0.3.21.0.0.68" stroke-width="4.47814083"/>
                    <line y1="309.5899" y2="326.68423" fill="none"  stroke="#000000" style="stroke-linecap:round" id="line2561" x2="336.34515" x1="317.57513" gorn="0.3.21.0.0.69" stroke-width="4.47814083"/>
                    <line y1="326.68423" y2="309.5899" fill="none"  stroke="#000000" style="stroke-linecap:round" id="line2563" x2="355.11508" x1="336.34515" gorn="0.3.21.0.0.70" stroke-width="4.47814083"/>
                    <line y1="309.5899" y2="207.02885" fill="none"  stroke="#000000" style="stroke-linecap:round" id="line2565" x2="373.8851" x1="355.11508" gorn="0.3.21.0.0.71" stroke-width="4.47814083"/>
                    <line y1="360.87292" y2="377.96713" fill="none"  stroke="#000000" style="stroke-linecap:round" id="line2567" x2="355.11508" x1="336.34515" gorn="0.3.21.0.0.72" stroke-width="4.47814083"/>
                    <line y1="360.87292" y2="377.96713" fill="none"  stroke="#000000" style="stroke-linecap:round" id="line2569" x2="317.57513" x1="336.34515" gorn="0.3.21.0.0.73" stroke-width="4.47814083"/>
                    <line y1="377.96713" y2="480.53296" fill="none"  stroke="#000000" style="stroke-linecap:round" id="line2571" x2="298.80518" x1="317.57513" gorn="0.3.21.0.0.74" stroke-width="4.47814083"/>
                    <line y1="480.53296" y2="497.62729" fill="none"  stroke="#000000" style="stroke-linecap:round" id="line2573" x2="317.57513" x1="298.80518" gorn="0.3.21.0.0.75" stroke-width="4.47814083"/>
                    <line y1="497.62729" y2="480.53296" fill="none"  stroke="#000000" style="stroke-linecap:round" id="line2575" x2="336.34515" x1="317.57513" gorn="0.3.21.0.0.76" stroke-width="4.47814083"/>
                    <line y1="480.53296" y2="377.96713" fill="none"  stroke="#000000" style="stroke-linecap:round" id="line2577" x2="355.11508" x1="336.34515" gorn="0.3.21.0.0.77" stroke-width="4.47814083"/>
                    <line y1="360.87292" y2="377.96713" fill="none"  stroke="#000000" style="stroke-linecap:round" id="line2579" x2="512.78308" x1="494.01306" gorn="0.3.21.0.0.78" stroke-width="4.47814083"/>
                    <line y1="360.87292" y2="377.96713" fill="none"  stroke="#000000" style="stroke-linecap:round" id="line2581" x2="475.24304" x1="494.01306" gorn="0.3.21.0.0.79" stroke-width="4.47814083"/>
                    <line y1="377.96713" y2="480.53296" fill="none"  stroke="#000000" style="stroke-linecap:round" id="line2583" x2="456.47308" x1="475.24304" gorn="0.3.21.0.0.80" stroke-width="4.47814083"/>
                    <line y1="480.53296" y2="497.62729" fill="none"  stroke="#000000" style="stroke-linecap:round" id="line2585" x2="475.24304" x1="456.47308" gorn="0.3.21.0.0.81" stroke-width="4.47814083"/>
                    <line y1="497.62729" y2="480.53296" fill="none"  stroke="#000000" style="stroke-linecap:round" id="line2587" x2="494.01306" x1="475.24304" gorn="0.3.21.0.0.82" stroke-width="4.47814083"/>
                    <line y1="480.53296" y2="377.96713" fill="none"  stroke="#000000" style="stroke-linecap:round" id="line2589" x2="512.78308" x1="494.01306" gorn="0.3.21.0.0.83" stroke-width="4.47814083"/>
                    <circle cx="265.01917" fill="none"  stroke="#000000" id="circle2759" cy="514.72162" gorn="0.3.21.0.0.84" r="18" stroke-width="4.47814083"/>
                    <circle cx="527.79907" fill="none"  stroke="#000000" id="circle2761" cy="514.72162" gorn="0.3.21.0.0.85" r="18" stroke-width="4.47814083"/>
                    <g  transform="scale(1.0478674,0.95431923)">
                        <g >
                            <text font-size="206.99" fill="#505050"  y="188.26924" id="text2773" style="font-family:DroidSans;" x="159.77254" gorn="0.3.21.0.0.86.0.0" stroke-width="4.97571182">A</text>
                        </g>
                    </g>
                    <g  transform="scale(1.0478674,0.95431923)">
                        <g >
                            <text font-size="206.99" fill="#505050"  y="277.83209" id="text2777" style="font-family:DroidSans;" x="224.25278" gorn="0.3.21.0.0.87.0.0" stroke-width="4.97571182">B</text>
                        </g>
                    </g>
                    <g  transform="scale(1.0478674,0.95431923)">
                        <g >
                            <text font-size="206.99" fill="#505050"  y="456.9577" id="text2781" style="font-family:DroidSans;" x="206.34219" gorn="0.3.21.0.0.88.0.0" stroke-width="4.97571182">C</text>
                        </g>
                    </g>
                    <g  transform="scale(1.0478674,0.95431923)">
                        <g >
                            <text font-size="206.99" fill="#505050"  y="546.52057" id="text2785" style="font-family:DroidSans;" x="123.94144" gorn="0.3.21.0.0.89.0.0" stroke-width="4.97571182">D</text>
                        </g>
                    </g>
                    <g  transform="scale(1.0478674,0.95431923)">
                        <g >
                            <text font-size="206.99" fill="#505050"  y="456.9577" id="text2789" style="font-family:DroidSans;" x="55.875687" gorn="0.3.21.0.0.90.0.0" stroke-width="4.97571182">E</text>
                        </g>
                    </g>
                    <g  transform="scale(1.0478674,0.95431923)">
                        <g >
                            <text font-size="206.99" fill="#505050"  y="277.83209" id="text2793" style="font-family:DroidSans;" x="73.786263" gorn="0.3.21.0.0.91.0.0" stroke-width="4.97571182">F</text>
                        </g>
                    </g>
                    <g  transform="scale(1.0478674,0.95431923)">
                        <g >
                            <text font-size="206.99" fill="#505050"  y="367.39496" id="text2797" style="font-family:DroidSans;" x="141.85251" gorn="0.3.21.0.0.92.0.0" stroke-width="4.97571182">G</text>
                        </g>
                    </g>
                    <g  transform="scale(1.0478674,0.95431923)">
                        <g >
                            <text font-size="206.99" fill="#505050"  y="546.52057" id="text2801" style="font-family:DroidSans;" x="242.16333" gorn="0.3.21.0.0.93.0.0" stroke-width="4.97571182">DP</text>
                        </g>
                    </g>
                    <g  transform="scale(1.0478674,0.95431923)">
                        <g >
                            <text font-size="206.99" fill="#505050"  y="188.26924" id="text2805" style="font-family:DroidSans;" x="410.54099" gorn="0.3.21.0.0.94.0.0" stroke-width="4.97571182">A</text>
                        </g>
                    </g>
                    <g  transform="scale(1.0478674,0.95431923)">
                        <g >
                            <text font-size="206.99" fill="#505050"  y="277.83209" id="text2809" style="font-family:DroidSans;" x="475.03067" gorn="0.3.21.0.0.95.0.0" stroke-width="4.97571182">B</text>
                        </g>
                    </g>
                    <g  transform="scale(1.0478674,0.95431923)">
                        <g >
                            <text font-size="206.99" fill="#505050"  y="456.9577" id="text2813" style="font-family:DroidSans;" x="457.12009" gorn="0.3.21.0.0.96.0.0" stroke-width="4.97571182">C</text>
                        </g>
                    </g>
                    <g  transform="scale(1.0478674,0.95431923)">
                        <g >
                            <text font-size="206.99" fill="#505050"  y="546.52057" id="text2817" style="font-family:DroidSans;" x="374.7193" gorn="0.3.21.0.0.97.0.0" stroke-width="4.97571182">D</text>
                        </g>
                    </g>
                    <g  transform="scale(1.0478674,0.95431923)">
                        <g >
                            <text font-size="206.99" fill="#505050"  y="456.9577" id="text2821" style="font-family:DroidSans;" x="306.65305" gorn="0.3.21.0.0.98.0.0" stroke-width="4.97571182">E</text>
                        </g>
                    </g>
                    <g  transform="scale(1.0478674,0.95431923)">
                        <g >
                            <text font-size="206.99" fill="#505050"  y="277.83209" id="text2825" style="font-family:DroidSans;" x="324.56415" gorn="0.3.21.0.0.99.0.0" stroke-width="4.97571182">F</text>
                        </g>
                    </g>
                    <g  transform="scale(1.0478674,0.95431923)">
                        <g >
                            <text font-size="206.99" fill="#505050"  y="367.39496" id="text2829" style="font-family:DroidSans;" x="392.62991" gorn="0.3.21.0.0.100.0.0" stroke-width="4.97571182">G</text>
                        </g>
                    </g>
                    <g  transform="scale(1.0478674,0.95431923)">
                        <g >
                            <text font-size="206.99" fill="#505050"  y="546.52057" id="text2833" style="font-family:DroidSans;" x="492.94119" gorn="0.3.21.0.0.101.0.0" stroke-width="4.97571182">DP</text>
                        </g>
                    </g>
                </g>
            </g>
        </g>
        <g fill-opacity="1" font-size="308.642" fill="#000000"  stroke="none" xml:space="preserve" xmlns:xml="http://www.w3.org/XML/1998/namespace" id="text565" style="font-style:normal;font-variant:normal;font-weight:normal;font-stretch:normal;line-height:1.25;font-family:Droid Sans;-inkscape-font-specification:Droid Sans;letter-spacing:0px;word-spacing:0px;" gorn="0.3.22" stroke-width="10.41666698">
            <text font-size="540.123"  y="94.945366" id="tspan563" x="102.96422" gorn="0.3.22.0" stroke-width="10.41666698">1</text>
        </g>
        <g fill-opacity="1" font-size="308.642" fill="#000000"  stroke="none" xml:space="preserve" xmlns:xml="http://www.w3.org/XML/1998/namespace" id="text569" style="font-style:normal;font-variant:normal;font-weight:normal;font-stretch:normal;line-height:1.25;font-family:Droid Sans;-inkscape-font-specification:Droid Sans;letter-spacing:0px;word-spacing:0px;" gorn="0.3.23" stroke-width="10.41666698">
            <text font-size="540.123"  y="94.592896" id="tspan567" x="139.95612" gorn="0.3.23.0" stroke-width="10.41666698">2</text>
        </g>
        <g fill-opacity="1" font-size="308.642" fill="#000000"  stroke="none" xml:space="preserve" xmlns:xml="http://www.w3.org/XML/1998/namespace" id="text573" style="font-style:normal;font-variant:normal;font-weight:normal;font-stretch:normal;line-height:1.25;font-family:Droid Sans;-inkscape-font-specification:Droid Sans;letter-spacing:0px;word-spacing:0px;" gorn="0.3.24" stroke-width="10.41666698">
            <text font-size="540.123"  y="94.155006" id="tspan571" x="179.68951" gorn="0.3.24.0" stroke-width="10.41666698">3</text>
        </g>
        <g fill-opacity="1" font-size="308.642" fill="#000000"  stroke="none" xml:space="preserve" xmlns:xml="http://www.w3.org/XML/1998/namespace" id="text577" style="font-style:normal;font-variant:normal;font-weight:normal;font-stretch:normal;line-height:1.25;font-family:Droid Sans;-inkscape-font-specification:Droid Sans;letter-spacing:0px;word-spacing:0px;" gorn="0.3.25" stroke-width="10.41666698">
            <text font-size="540.123"  y="94.639168" id="tspan575" x="218.97191" gorn="0.3.25.0" stroke-width="10.41666698">4</text>
        </g>
        <g fill-opacity="1" font-size="308.642" fill="#000000"  stroke="none" xml:space="preserve" xmlns:xml="http://www.w3.org/XML/1998/namespace" id="text581" style="font-style:normal;font-variant:normal;font-weight:normal;font-stretch:normal;line-height:1.25;font-family:Droid Sans;-inkscape-font-specification:Droid Sans;letter-spacing:0px;word-spacing:0px;" gorn="0.3.26" stroke-width="10.41666698">
            <text font-size="540.123"  y="93.705238" id="tspan579" x="258.10004" gorn="0.3.26.0" stroke-width="10.41666698">5</text>
        </g>
        <g fill-opacity="1" font-size="308.642" fill="#000000"  stroke="none" xml:space="preserve" xmlns:xml="http://www.w3.org/XML/1998/namespace" id="text585" style="font-style:normal;font-variant:normal;font-weight:normal;font-stretch:normal;line-height:1.25;font-family:Droid Sans;-inkscape-font-specification:Droid Sans;letter-spacing:0px;word-spacing:0px;" gorn="0.3.27" stroke-width="10.41666698">
            <text font-size="540.123"  y="93.553329" id="tspan583" x="297.61981" gorn="0.3.27.0" stroke-width="10.41666698">6</text>
        </g>
        <g fill-opacity="1" font-size="308.642" fill="#000000"  stroke="none" xml:space="preserve" xmlns:xml="http://www.w3.org/XML/1998/namespace" id="text589" style="font-style:normal;font-variant:normal;font-weight:normal;font-stretch:normal;line-height:1.25;font-family:Droid Sans;-inkscape-font-specification:Droid Sans;letter-spacing:0px;word-spacing:0px;" gorn="0.3.28" stroke-width="10.41666698">
            <text font-size="540.123"  y="93.741989" id="tspan587" x="337.48373" gorn="0.3.28.0" stroke-width="10.41666698">7</text>
        </g>
        <g fill-opacity="1" font-size="308.642" fill="#000000"  stroke="none" xml:space="preserve" xmlns:xml="http://www.w3.org/XML/1998/namespace" id="text593" style="font-style:normal;font-variant:normal;font-weight:normal;font-stretch:normal;line-height:1.25;font-family:Droid Sans;-inkscape-font-specification:Droid Sans;letter-spacing:0px;word-spacing:0px;" gorn="0.3.29" stroke-width="10.41666698">
            <text font-size="540.123"  y="93.376511" id="tspan591" x="376.90857" gorn="0.3.29.0" stroke-width="10.41666698">8</text>
        </g>
        <g fill-opacity="1" font-size="308.642" fill="#000000"  stroke="none" xml:space="preserve" xmlns:xml="http://www.w3.org/XML/1998/namespace" id="text597" style="font-style:normal;font-variant:normal;font-weight:normal;font-stretch:normal;line-height:1.25;font-family:Droid Sans;-inkscape-font-specification:Droid Sans;letter-spacing:0px;word-spacing:0px;" gorn="0.3.30" stroke-width="10.41666698">
            <text font-size="540.123"  y="95.157814" id="tspan595" x="416.4046" gorn="0.3.30.0" stroke-width="10.41666698">9</text>
        </g>
        <g fill-opacity="1" font-size="308.642" fill="#000000"  stroke="none" xml:space="preserve" xmlns:xml="http://www.w3.org/XML/1998/namespace" id="text601" style="font-style:normal;font-variant:normal;font-weight:normal;font-stretch:normal;line-height:1.25;font-family:Droid Sans;-inkscape-font-specification:Droid Sans;letter-spacing:0px;word-spacing:0px;" gorn="0.3.31" stroke-width="10.41666698">
            <text font-size="540.123"  y="94.780426" id="tspan599" x="441.65909" gorn="0.3.31.0" stroke-width="10.41666698">10</text>
        </g>
    </g>
</svg>
