<?xml version="1.0" encoding="utf-8"?>
<!-- Generator: Adobe Illustrator 16.0.0, SVG Export Plug-In . SVG Version: 6.00 Build 0)  -->
<!DOCTYPE svg PUBLIC "-//W3C//DTD SVG 1.1//EN" "http://www.w3.org/Graphics/SVG/1.1/DTD/svg11.dtd">
<svg version="1.1"
	 id="Layer_1" image-rendering="optimizeQuality" text-rendering="geometricPrecision" shape-rendering="geometricPrecision" xmlns:xml="http://www.w3.org/XML/1998/namespace"
	 xmlns="http://www.w3.org/2000/svg" xmlns:xlink="http://www.w3.org/1999/xlink" x="0px" y="0px" width="57.6px" height="36px"
	 viewBox="0 0 57.6 36" enable-background="new 0 0 57.6 36" xml:space="preserve">
<desc>
	<referenceFile>bridge_rectifier_TO-269AA_schematic.svg</referenceFile>
</desc>
<g id="schematic">
	
		<line fill="none" stroke="#787878" stroke-width="0.972" stroke-linecap="round" stroke-linejoin="round" x1="27.206" y1="23.52" x2="25.488" y2="25.155"/>
	
		<line fill="none" stroke="#787878" stroke-width="0.972" stroke-linecap="round" stroke-linejoin="round" x1="25.488" y1="25.155" x2="23.77" y2="26.793"/>
	<g>
		<path fill="#787878" d="M24.024,20.486l-3.438,3.273l-0.507-0.482l3.438-3.273l0.594,0.134L24.024,20.486L24.024,20.486z
			 M23.516,20.004c0.14-0.133,0.367-0.133,0.507,0s0.14,0.35,0,0.481L23.516,20.004L23.516,20.004z M25.148,25.264l-1.718-4.91
			l0.68-0.215l1.718,4.91l-0.453,0.431L25.148,25.264z M25.827,25.049c0.063,0.179-0.039,0.371-0.227,0.431
			s-0.391-0.038-0.453-0.216L25.827,25.049z M20.446,23.195l5.155,1.638l-0.228,0.646l-5.155-1.638l-0.14-0.563L20.446,23.195z
			 M20.218,23.842c-0.188-0.06-0.29-0.252-0.228-0.432c0.063-0.178,0.267-0.273,0.454-0.215L20.218,23.842L20.218,23.842z"/>
	</g>
	
		<line fill="none" stroke="#787878" stroke-width="0.972" stroke-linecap="round" stroke-linejoin="round" x1="23.668" y1="15.937" x2="21.984" y2="14.253"/>
	
		<line fill="none" stroke="#787878" stroke-width="0.972" stroke-linecap="round" stroke-linejoin="round" x1="21.984" y1="14.253" x2="20.3" y2="12.569"/>
	<path fill="none" stroke="#787878" stroke-width="0.972" stroke-linecap="round" stroke-linejoin="round" d="M27.031,12.569
		l-5.047,1.684l1.685-5.051l1.68,1.684L27.031,12.569L27.031,12.569z"/>
	
		<line fill="none" stroke="#787878" stroke-width="0.972" stroke-linecap="round" stroke-linejoin="round" x1="32.274" y1="25.117" x2="30.594" y2="23.434"/>
	
		<line fill="none" stroke="#787878" stroke-width="0.972" stroke-linecap="round" stroke-linejoin="round" x1="33.952" y1="26.801" x2="32.274" y2="25.117"/>
	<path fill="none" stroke="#787878" stroke-width="0.973" stroke-linecap="round" stroke-linejoin="round" d="M37.313,23.434
		l-5.039,1.682l1.679-5.051L37.313,23.434z"/>
	
		<line fill="none" stroke="#787878" stroke-width="0.972" stroke-linecap="round" stroke-linejoin="round" x1="35.652" y1="14.237" x2="33.973" y2="15.921"/>
	
		<line fill="none" stroke="#787878" stroke-width="0.972" stroke-linecap="round" stroke-linejoin="round" x1="37.331" y1="12.555" x2="35.652" y2="14.237"/>
	<path fill="none" stroke="#787878" stroke-width="0.973" stroke-linecap="round" stroke-linejoin="round" d="M30.613,12.555
		l3.36-3.367l1.68,5.05L30.613,12.555L30.613,12.555z"/>
	<path fill="none" stroke="#7A7A7A" stroke-width="1.042" stroke-linecap="round" d="M28.813,7.37l10.64,10.629l-10.64,10.63
		L18.175,18.001L28.813,7.37L28.813,7.37z"/>
	<line fill="none" stroke="#7A7A7A" stroke-width="1.042" stroke-linecap="round" x1="28.8" y1="7.19" x2="49.468" y2="7.19"/>
	<line fill="none" stroke="#7A7A7A" stroke-width="1.042" stroke-linecap="round" x1="8.067" y1="7.184" x2="17.976" y2="7.184"/>
	<line fill="none" stroke="#7A7A7A" stroke-width="1.042" x1="28.804" y1="28.784" x2="49.468" y2="28.784"/>
	<line fill="none" stroke="#7A7A7A" stroke-width="1.042" stroke-linecap="round" x1="18.003" y1="7.184" x2="18.003" y2="17.824"/>
	
		<line fill="none" stroke="#7A7A7A" stroke-width="1.042" stroke-linecap="round" x1="39.606" y1="18.176" x2="39.606" y2="32.414"/>
	
		<line fill="none" stroke="#7A7A7A" stroke-width="1.042" stroke-linecap="round" x1="15.232" y1="32.414" x2="39.606" y2="32.414"/>
	<line fill="none" stroke="#7A7A7A" stroke-width="1.042" stroke-linecap="round" x1="15.27" y1="28.784" x2="15.27" y2="32.414"/>
	<line fill="none" stroke="#7A7A7A" stroke-width="1.042" stroke-linecap="round" x1="8.067" y1="28.784" x2="15.27" y2="28.784"/>
	<path fill="#7A7A7A" d="M29.822,7.198c0,0.559-0.455,1.008-1.008,1.008c-0.559,0-1.008-0.449-1.008-1.008
		c0-0.554,0.449-1.006,1.008-1.006C29.366,6.192,29.822,6.645,29.822,7.198z"/>
	<path fill="#7A7A7A" d="M29.813,28.784c0,0.556-0.455,1.008-1.009,1.008c-0.559,0-1.008-0.452-1.008-1.008
		c0-0.558,0.449-1.008,1.008-1.008C29.358,27.776,29.813,28.227,29.813,28.784z"/>
	<path fill="#7A7A7A" d="M40.613,17.999c0,0.56-0.453,1.009-1.007,1.009c-0.559,0-1.008-0.449-1.008-1.009
		c0-0.559,0.449-1.008,1.008-1.008C40.159,16.991,40.613,17.44,40.613,17.999z"/>
	<path fill="#7A7A7A" d="M19.012,17.999c0,0.56-0.453,1.009-1.009,1.009c-0.559,0-1.008-0.449-1.008-1.009
		c0-0.559,0.449-1.008,1.008-1.008C18.559,16.991,19.012,17.44,19.012,17.999z"/>
	<text transform="matrix(1 0 0 1 9.0559 28.2334)" fill="#555555" font-family="'DroidSans'" font-size="3.8888">~</text>
	<text transform="matrix(1 0 0 1 46.3596 28.2363)" fill="#555555" font-family="'DroidSans'" font-size="3.8888">+</text>
	<g transform="matrix(1 0 0 1 -27.4232 -15.7867)">
		<text transform="matrix(1 0 0 1 36.4786 22.4205)" fill="#555555" font-family="'DroidSans'" font-size="3.8888">~</text>
	</g>
	<g transform="matrix(1 0 0 1 24.9454 -16.1973)">
		<text transform="matrix(1 0 0 1 21.8156 22.5352)" fill="#555555" font-family="'DroidSans'" font-size="3.8888">-</text>
	</g>
	<g>
		<path d="M7.2,0H50.4v36H7.2V0z M49.444,0.96H8.156v34.079h41.287V0.96z"/>
	</g>
	<rect id="connector3terminal" x="57.449" y="7.049" fill="none" width="0.301" height="0.3"/>
	<polygon id="connector3pin" fill="#555555" points="57.6,7.559 50.4,7.559 50.4,6.838 57.6,6.838 	"/>
	<rect id="connector2terminal" x="57.449" y="28.649" fill="none" width="0.301" height="0.3"/>
	<polygon id="connector2pin" fill="#555555" points="57.6,29.162 50.4,29.162 50.4,28.439 57.6,28.439 	"/>
	<rect id="connector1terminal" x="-0.15" y="28.649" fill="none" width="0.3" height="0.3"/>
	<polygon id="connector1pin" fill="#555555" points="7.2,29.16 0,29.16 0,28.441 7.2,28.441 	"/>
	<rect id="connector0terminal" x="-0.15" y="7.049" fill="none" width="0.3" height="0.3"/>
	<polygon id="connector0pin" fill="#555555" points="7.2,7.559 0,7.559 0,6.838 7.2,6.838 	"/>
</g>
</svg>
