<?xml version='1.0' encoding='UTF-8' standalone='no'?>
<!-- Created with Inkscape (http://www.inkscape.org/) -->
<svg xmlns="http://www.w3.org/2000/svg" width="30mm" gorn="0"  viewBox="0 0 30 50" id="svg8" height="50mm" version="1.1">
    <desc >
        <referenceFile >solar_controller.svg</referenceFile>
    </desc>
    <defs  id="defs2"/>
    <metadata  id="metadata5">
        <rdf:RDF xmlns:rdf="http://www.w3.org/1999/02/22-rdf-syntax-ns#">
            <cc:Work rdf:about="" xmlns:cc="http://creativecommons.org/ns#" xmlns:rdf="http://www.w3.org/1999/02/22-rdf-syntax-ns#">
                <dc:format xmlns:dc="http://purl.org/dc/elements/1.1/">image/svg+xml</dc:format>
                <dc:type xmlns:dc="http://purl.org/dc/elements/1.1/" rdf:resource="http://purl.org/dc/dcmitype/StillImage" xmlns:rdf="http://www.w3.org/1999/02/22-rdf-syntax-ns#"/>
                <dc:title xmlns:dc="http://purl.org/dc/elements/1.1/"/>
            </cc:Work>
        </rdf:RDF>
    </metadata>
    <g  transform="translate(0,-247)">
        <g >
            <g >
                <g gorn="0.3.0.0.0"  id="layer1">
                    <path stroke-width="0.13506497" d="m 11.24399,257.62989 a 4.4091535,4.4332318 0 0 1 2.438486,-5.70466 4.4091535,4.4332318 0 0 1 5.719327,2.34213 4.4091535,4.4332318 0 0 1 -2.219492,5.79435 4.4091535,4.4332318 0 0 1 -5.804312,-2.12027" style="stroke-miterlimit:4;stroke-dasharray:none" gorn="0.3.0.0.0.0"  id="path4824" fill="#000000" stroke="none"/>
                    <rect x="1.1253078" width="28.08168" y="254.79457" stroke-width="0.07634954" gorn="0.3.0.0.0.1"  id="rect28" height="37.922268" ry="2.2911592"/>
                    <rect x="2.4384806" width="25.354326" y="256.4389" stroke-width="0.08498836" gorn="0.3.0.0.0.2"  id="rect30" height="18.395899" fill="#00ffff" ry="1.3577265"/>
                    <rect x="6.2409301" width="17.902983" y="284.80359" stroke-width="0.05015886" gorn="0.3.0.0.0.3"  id="rect32" height="6.0634522" fill="#000080"/>
                    <rect x="6.5920968" width="17.301664" y="274.40118" stroke-width="0.07295453" gorn="0.3.0.0.0.4"  id="rect34" height="10.751257" fill="#1a1a1a"/>
                    <ellipse cx="6.2163754" rx="2.3233047" stroke-width="0.11589062" gorn="0.3.0.0.0.5"  id="path38" fill="#000000" ry="2.3123336" cy="260.16168"/>
                    <ellipse cx="23.954296" rx="2.3233047" stroke-width="0.11589062" gorn="0.3.0.0.0.6"  id="path38-6" fill="#000000" ry="2.3123336" cy="260.16168"/>
                    <ellipse cx="8.1237898" rx="1.1111457" stroke-width="0.07132161" gorn="0.3.0.0.0.7"  id="path89" fill="#00ffff" ry="1.1304742" cy="288.35663"/>
                    <ellipse cx="10.91296" rx="1.1111457" stroke-width="0.07132161" gorn="0.3.0.0.0.8"  id="path89-3" fill="#00ffff" ry="1.1304742" cy="288.35663"/>
                    <ellipse cx="13.989146" rx="1.1111457" stroke-width="0.07132161" gorn="0.3.0.0.0.9"  id="path89-5" fill="#00ffff" ry="1.1304742" cy="288.35663"/>
                    <ellipse cx="16.708977" rx="1.1111457" stroke-width="0.07132161" gorn="0.3.0.0.0.10"  id="path89-6" fill="#00ffff" ry="1.1304742" cy="288.35663"/>
                    <ellipse cx="19.653711" rx="1.1111457" stroke-width="0.07132161" gorn="0.3.0.0.0.11"  id="path89-2" fill="#00ffff" ry="1.1304742" cy="288.35663"/>
                    <ellipse cx="22.344612" rx="1.1111457" stroke-width="0.07132161" gorn="0.3.0.0.0.12"  id="path89-9" fill="#00ffff" ry="1.1304742" cy="288.35663"/>
                    <rect x="1.2304132" width="4.9452324" y="286.50089" stroke-width="0.05183209" style="stroke-miterlimit:4;stroke-dasharray:none" gorn="0.3.0.0.0.13"  id="rect4737" height="0.59762728" fill="#1a1a1a" stroke="#333333"/>
                    <rect x="1.1690736" width="4.9452257" y="287.50644" stroke-width="0.05183205" style="stroke-miterlimit:4;stroke-dasharray:none" gorn="0.3.0.0.0.14"  id="rect4737-8" height="0.59762728" fill="#1a1a1a" stroke="#333333"/>
                    <rect x="1.1728418" width="4.9452324" y="288.48782" stroke-width="0.05183209" style="stroke-miterlimit:4;stroke-dasharray:none" gorn="0.3.0.0.0.15"  id="rect4737-9" height="0.59762734" fill="#1a1a1a" stroke="#333333"/>
                    <rect x="24.214891" width="4.9452324" y="286.17429" stroke-width="0.05183209" style="stroke-miterlimit:4;stroke-dasharray:none" gorn="0.3.0.0.0.16"  id="rect4737-7" height="0.59762734" fill="#1a1a1a" stroke="#333333"/>
                    <rect x="24.153553" width="4.9452257" y="287.17981" stroke-width="0.05183205" style="stroke-miterlimit:4;stroke-dasharray:none" gorn="0.3.0.0.0.17"  id="rect4737-8-3" height="0.59762734" fill="#1a1a1a" stroke="#333333"/>
                    <rect x="24.15732" width="4.9452324" y="288.16122" stroke-width="0.05183209" style="stroke-miterlimit:4;stroke-dasharray:none" gorn="0.3.0.0.0.18"  id="rect4737-9-6" height="0.59762734" fill="#1a1a1a" stroke="#333333"/>
                    <path stroke-width="0.1" d="m -128.85547,251.79899 a 13.363476,6.7485552 0 0 1 0.59529,-5.54547 l 11.8643,3.10569 z" style="stroke-miterlimit:4;stroke-dasharray:none" gorn="0.3.0.0.0.19"  id="path4794" fill="#f9f9f9" stroke="none"/>
                    <path stroke-width="0.05494436" d="m 0.36799972,281.41695 a 3.2626851,2.6941836 0 0 1 1.80443738,-3.46687 3.2626851,2.6941836 0 0 1 4.2321864,1.42339 3.2626851,2.6941836 0 0 1 -1.6424045,3.52136 3.2626851,2.6941836 0 0 1 -4.29506725,-1.28856" style="stroke-miterlimit:4;stroke-dasharray:none" gorn="0.3.0.0.0.20"  id="path4800" fill="#ffffff" stroke="none"/>
                    <rect x="0.75384849" width="2.8577383" y="277.75995" stroke-width="0.06349987" style="stroke-miterlimit:4;stroke-dasharray:none" gorn="0.3.0.0.0.21"  id="rect4802" height="5.3653188" fill="#ffffff" ry="0" stroke="none"/>
                    <g  transform="scale(-1,1)">
                        <g >
                            <g >
                                <path stroke-width="0.05405315" d="m -29.690961,281.41695 a 3.1576996,2.6941836 0 0 1 1.746374,-3.46687 3.1576996,2.6941836 0 0 1 4.096005,1.42339 3.1576996,2.6941836 0 0 1 -1.589556,3.52136 3.1576996,2.6941836 0 0 1 -4.156862,-1.28856" style="stroke-miterlimit:4;stroke-dasharray:none" gorn="0.3.0.0.0.22.0.0.0"  id="path4800-1" fill="#ffffff" stroke="none"/>
                            </g>
                        </g>
                    </g>
                    <g  transform="scale(-1,1)">
                        <g >
                            <g >
                                <rect x="-29.317532" width="2.7657831" y="277.75995" stroke-width="0.06246988" style="stroke-miterlimit:4;stroke-dasharray:none" gorn="0.3.0.0.0.23.0.0.0"  id="rect4802-2" height="5.3653188" fill="#ffffff" ry="0" stroke="none"/>
                            </g>
                        </g>
                    </g>
                    <path stroke-width="0.06785701" d="m 12.980596,252.79189 a 2.5638289,1.9243792 0 0 1 1.417928,-2.47628 2.5638289,1.9243792 0 0 1 3.325667,1.01667 2.5638289,1.9243792 0 0 1 -1.290588,2.51522 2.5638289,1.9243792 0 0 1 -3.375083,-0.92037" style="stroke-miterlimit:4;stroke-dasharray:none" gorn="0.3.0.0.0.24"  id="path4824-9" fill="#000000" stroke="none"/>
                    <path stroke-width="0.06349987" d="m 13.85016,253.25246 a 1.5727996,1.5727996 0 0 1 0.869838,-2.02387 1.5727996,1.5727996 0 0 1 2.040155,0.83093 1.5727996,1.5727996 0 0 1 -0.79172,2.05569 1.5727996,1.5727996 0 0 1 -2.07047,-0.75222" style="stroke-miterlimit:4;stroke-dasharray:none" gorn="0.3.0.0.0.25"  id="path4841" fill="#ffffff" stroke="none"/>
                    <g  transform="matrix(0.6044822,0,0,0.66705579,-0.79480817,104.89029)">
                        <g >
                            <g >
                                <g fill-opacity="1" font-size="1.50442" stroke-width="0.13326518" style="font-style:normal;font-variant:normal;font-weight:normal;font-stretch:normal;line-height:1.25;font-family:Droid Sans;-inkscape-font-specification:Droid Sans;letter-spacing:0px;word-spacing:0px;" gorn="0.3.0.0.0.26.0.0.0"  id="text4845" fill="#000000" aria-label="SOLAR" stroke="none">
                                    <path stroke-width="0.13326518" d="m 20.985,243.15885 q 0.287852,0 0.44244,-0.15992 0.159918,-0.15991 0.159918,-0.43178 0,-0.14392 -0.04797,-0.25586 -0.04798,-0.11195 -0.127935,-0.20257 -0.07463,-0.0906 -0.17591,-0.16525 -0.101281,-0.0746 -0.207893,-0.14925 -0.122604,-0.0853 -0.25587,-0.18124 -0.133265,-0.096 -0.245208,-0.22389 -0.106612,-0.12793 -0.17591,-0.29851 -0.0693,-0.17058 -0.0693,-0.3998 0,-0.22389 0.07463,-0.40513 0.07996,-0.18124 0.213224,-0.30917 0.138596,-0.12794 0.325167,-0.19723 0.191902,-0.0693 0.410457,-0.0693 0.213224,0 0.394465,0.0533 0.181241,0.0533 0.303845,0.12794 l -0.149257,0.37847 q -0.111943,-0.0746 -0.245208,-0.11194 -0.127935,-0.0427 -0.271861,-0.0427 -0.2612,0 -0.421118,0.14393 -0.154588,0.1386 -0.154588,0.41046 0,0.14926 0.04798,0.2612 0.05331,0.11194 0.133265,0.20256 0.08529,0.0906 0.191902,0.16525 0.111942,0.0746 0.234546,0.15459 0.122604,0.08 0.250539,0.17591 0.127935,0.0959 0.229216,0.22388 0.106612,0.12261 0.170579,0.29319 0.0693,0.16525 0.0693,0.39446 0,0.20789 -0.06397,0.39447 -0.06397,0.18657 -0.202563,0.33049 -0.133265,0.1386 -0.341159,0.22389 -0.202563,0.08 -0.479755,0.08 -0.255869,0 -0.447771,-0.0586 -0.191901,-0.0586 -0.341158,-0.15459 l 0.149257,-0.3838 q 0.138595,0.0853 0.282522,0.1386 0.149257,0.048 0.341159,0.048 z" style="font-style:normal;font-variant:normal;font-weight:normal;font-stretch:normal;font-family:Droid Sans;-inkscape-font-specification:'Ubuntu Condensed, ';" gorn="0.3.0.0.0.26.0.0.0.0"  id="path4884"/>
                                    <path stroke-width="0.13326518" d="m 25.191682,241.64496 q 0,0.43178 -0.07996,0.78893 -0.07463,0.35182 -0.239878,0.60769 -0.159918,0.25054 -0.410456,0.38913 -0.245208,0.1386 -0.581037,0.1386 -0.335828,0 -0.586366,-0.1386 -0.245208,-0.13859 -0.410457,-0.38913 -0.159918,-0.25587 -0.239877,-0.60769 -0.07996,-0.35715 -0.07996,-0.78893 0,-0.43178 0.07996,-0.78893 0.07996,-0.35715 0.239877,-0.60769 0.165249,-0.25587 0.410457,-0.39446 0.250538,-0.14393 0.586366,-0.14393 0.335829,0 0.581037,0.14393 0.250538,0.13859 0.410456,0.39446 0.165249,0.25054 0.239878,0.60769 0.07996,0.35715 0.07996,0.78893 z m -0.511738,0 q 0,-0.33583 -0.04265,-0.61302 -0.04265,-0.27719 -0.138596,-0.47442 -0.09595,-0.20257 -0.250539,-0.31451 -0.149257,-0.11194 -0.367812,-0.11194 -0.218554,0 -0.373142,0.11194 -0.149257,0.11194 -0.245208,0.31451 -0.09595,0.19723 -0.143926,0.47442 -0.04265,0.27719 -0.04265,0.61302 0,0.33583 0.04265,0.61302 0.04798,0.27719 0.143926,0.47442 0.09595,0.19724 0.245208,0.30918 0.154588,0.10661 0.373142,0.10661 0.218555,0 0.367812,-0.10661 0.154588,-0.11194 0.250539,-0.30918 0.09595,-0.19723 0.138596,-0.47442 0.04265,-0.27719 0.04265,-0.61302 z" style="font-style:normal;font-variant:normal;font-weight:normal;font-stretch:normal;font-family:Droid Sans;-inkscape-font-specification:'Ubuntu Condensed, ';" gorn="0.3.0.0.0.26.0.0.0.1"  id="path4886"/>
                                    <path stroke-width="0.13326518" d="m 27.587624,243.07889 v 0.41046 h -1.647158 v -3.69411 h 0.479755 v 3.28365 z" style="font-style:normal;font-variant:normal;font-weight:normal;font-stretch:normal;font-family:Droid Sans;-inkscape-font-specification:'Ubuntu Condensed, ';" gorn="0.3.0.0.0.26.0.0.0.2"  id="path4888"/>
                                    <path stroke-width="0.13326518" d="m 29.470744,239.79524 q 0.127934,0.39979 0.250538,0.81025 0.127935,0.40513 0.245208,0.8529 0.122604,0.44777 0.239878,0.94885 0.122604,0.50107 0.245207,1.08211 h -0.479754 q -0.04265,-0.23988 -0.09062,-0.47442 -0.04264,-0.23455 -0.09062,-0.4691 h -1.162072 q -0.05331,0.23455 -0.09595,0.4691 -0.04265,0.23454 -0.08529,0.47442 h -0.463763 q 0.117274,-0.58104 0.239878,-1.08211 0.122604,-0.50108 0.239877,-0.94885 0.122604,-0.44777 0.245208,-0.8529 0.127934,-0.41046 0.255869,-0.81025 z m -0.2612,0.54372 q -0.133265,0.44244 -0.255869,0.89021 -0.122604,0.44777 -0.234547,0.91687 h 0.975501 q -0.106612,-0.4691 -0.229216,-0.91687 -0.122604,-0.44777 -0.255869,-0.89021 z" style="font-style:normal;font-variant:normal;font-weight:normal;font-stretch:normal;font-family:Droid Sans;-inkscape-font-specification:'Ubuntu Condensed, ';" gorn="0.3.0.0.0.26.0.0.0.3"  id="path4890"/>
                                    <path stroke-width="0.13326518" d="m 31.01079,239.84854 q 0.373142,-0.0906 0.719632,-0.0906 0.277191,0 0.501077,0.064 0.223885,0.064 0.383804,0.20256 0.159918,0.1386 0.245208,0.35716 0.09062,0.21855 0.09062,0.52773 0,0.3838 -0.149257,0.62368 -0.143926,0.23454 -0.394465,0.35715 0.06397,0.10661 0.159918,0.29318 0.101282,0.18124 0.202563,0.40513 0.106612,0.21855 0.202563,0.4531 0.101282,0.23455 0.17058,0.44777 h -0.479755 q -0.05864,-0.15992 -0.149257,-0.36248 -0.08529,-0.20257 -0.181241,-0.3998 -0.09595,-0.20256 -0.191901,-0.3838 -0.09595,-0.18657 -0.17058,-0.31451 -0.08529,0.0107 -0.17591,0.016 -0.09062,0.005 -0.181241,0.005 h -0.133265 v 1.43926 H 31.01079 Z m 0.469093,1.80708 h 0.202563 q 0.367812,0 0.565045,-0.16525 0.197232,-0.17058 0.197232,-0.58103 0,-0.2079 -0.05331,-0.34649 -0.04797,-0.14393 -0.143926,-0.22389 -0.09062,-0.0853 -0.223886,-0.1226 -0.127934,-0.0373 -0.287853,-0.0373 -0.138595,0 -0.255869,0.016 z" style="font-style:normal;font-variant:normal;font-weight:normal;font-stretch:normal;font-family:Droid Sans;-inkscape-font-specification:'Ubuntu Condensed, ';" gorn="0.3.0.0.0.26.0.0.0.4"  id="path4892"/>
                                </g>
                            </g>
                        </g>
                    </g>
                    <g  transform="matrix(0.63499871,0,0,0.63499871,-0.79480817,104.89029)">
                        <g >
                            <g >
                                <g fill-opacity="1" font-size="2.98685" stroke-width="0.26458332" style="font-style:normal;font-weight:normal;line-height:1.25;font-family:Droid Sans;letter-spacing:0px;word-spacing:0px;" gorn="0.3.0.0.0.27.0.0.0"  id="text4849" fill="#000000" aria-label="CHARGE CONTROLLER" stroke="none">
                                    <path font-size="0.995617" stroke-width="0.26458332" d="m 11.907443,260.0361 q -0.430389,0 -0.659694,-0.32103 -0.229306,-0.32102 -0.229306,-0.9913 0,-0.3422 0.0635,-0.57856 0.06703,-0.23636 0.183444,-0.38453 0.116417,-0.14816 0.275167,-0.21166 0.15875,-0.067 0.345722,-0.067 0.155223,0 0.289278,0.0423 0.134056,0.0388 0.218722,0.0988 l -0.09525,0.26458 q -0.08467,-0.0564 -0.183444,-0.0917 -0.09525,-0.0353 -0.22225,-0.0353 -0.282222,0 -0.409222,0.23637 -0.127,0.23283 -0.127,0.72672 0,0.49741 0.134055,0.76553 0.134056,0.26811 0.437445,0.26811 0.144639,0 0.232833,-0.0353 0.09172,-0.0353 0.176389,-0.0917 l 0.08819,0.25047 q -0.08114,0.0635 -0.215194,0.10936 -0.130528,0.0459 -0.303389,0.0459 z" style="font-style:normal;font-variant:normal;font-weight:normal;font-stretch:normal;font-family:Droid Sans;-inkscape-font-specification:'Ubuntu Condensed, ';" gorn="0.3.0.0.0.27.0.0.0.0"  id="path4851"/>
                                    <path font-size="0.995617" stroke-width="0.26458332" d="m 13.896228,257.53843 h 0.3175 v 2.44475 h -0.3175 v -1.13594 h -0.804334 v 1.13594 h -0.3175 v -2.44475 h 0.3175 v 1.03364 h 0.804334 z" style="font-style:normal;font-variant:normal;font-weight:normal;font-stretch:normal;font-family:Droid Sans;-inkscape-font-specification:'Ubuntu Condensed, ';" gorn="0.3.0.0.0.27.0.0.0.1"  id="path4853"/>
                                    <path font-size="0.995617" stroke-width="0.26458332" d="m 15.565473,257.53843 q 0.08467,0.26459 0.165805,0.53623 0.08467,0.26811 0.162278,0.56444 0.08114,0.29633 0.15875,0.62795 0.08114,0.33161 0.162278,0.71613 h -0.3175 q -0.02822,-0.15875 -0.05997,-0.31397 -0.02822,-0.15522 -0.05997,-0.31044 h -0.769056 q -0.03528,0.15522 -0.0635,0.31044 -0.02822,0.15522 -0.05644,0.31397 h -0.306917 q 0.07761,-0.38452 0.15875,-0.71613 0.08114,-0.33162 0.15875,-0.62795 0.08114,-0.29633 0.162278,-0.56444 0.08467,-0.27164 0.169333,-0.53623 z m -0.172861,0.35984 q -0.08819,0.2928 -0.169334,0.58914 -0.08114,0.29633 -0.155222,0.60677 h 0.645584 q -0.07056,-0.31044 -0.151695,-0.60677 -0.08114,-0.29634 -0.169333,-0.58914 z" style="font-style:normal;font-variant:normal;font-weight:normal;font-stretch:normal;font-family:Droid Sans;-inkscape-font-specification:'Ubuntu Condensed, ';" gorn="0.3.0.0.0.27.0.0.0.2"  id="path4855"/>
                                    <path font-size="0.995617" stroke-width="0.26458332" d="m 16.58467,257.57371 q 0.246945,-0.06 0.47625,-0.06 0.183445,0 0.331611,0.0423 0.148167,0.0423 0.254,0.13406 0.105833,0.0917 0.162278,0.23636 0.05997,0.14464 0.05997,0.34925 0,0.254 -0.09878,0.41275 -0.09525,0.15522 -0.261055,0.23636 0.04233,0.0706 0.105833,0.19403 0.06703,0.11994 0.134056,0.26811 0.07055,0.14464 0.134055,0.29986 0.06703,0.15522 0.112889,0.29633 h -0.3175 q -0.0388,-0.10583 -0.09878,-0.23988 -0.05644,-0.13406 -0.119944,-0.26459 -0.0635,-0.13405 -0.127,-0.254 -0.0635,-0.12347 -0.112889,-0.20814 -0.05644,0.007 -0.116417,0.0106 -0.05997,0.004 -0.119944,0.004 h -0.08819 v 0.9525 H 16.58467 Z m 0.310445,1.19592 h 0.134055 q 0.243417,0 0.373944,-0.10936 0.130528,-0.11289 0.130528,-0.38453 0,-0.13758 -0.03528,-0.22931 -0.03175,-0.0952 -0.09525,-0.14816 -0.05997,-0.0565 -0.148166,-0.0811 -0.08467,-0.0247 -0.1905,-0.0247 -0.09172,0 -0.169333,0.0106 z" style="font-style:normal;font-variant:normal;font-weight:normal;font-stretch:normal;font-family:Droid Sans;-inkscape-font-specification:'Ubuntu Condensed, ';" gorn="0.3.0.0.0.27.0.0.0.3"  id="path4857"/>
                                    <path font-size="0.995617" stroke-width="0.26458332" d="m 18.260033,258.75905 q 0,-0.34573 0.0635,-0.58914 0.0635,-0.24342 0.179917,-0.39511 0.119945,-0.15523 0.28575,-0.22225 0.169333,-0.0706 0.377472,-0.0706 0.15875,0 0.289278,0.0459 0.130528,0.0423 0.211667,0.0988 l -0.09878,0.26458 q -0.08114,-0.0564 -0.176389,-0.0917 -0.09525,-0.0388 -0.218722,-0.0388 -0.306917,0 -0.440972,0.25048 -0.134056,0.24694 -0.134056,0.74789 0,0.26811 0.03881,0.45861 0.04233,0.1905 0.116416,0.31044 0.07408,0.11995 0.179917,0.17639 0.105833,0.0564 0.236361,0.0564 0.109361,0 0.186972,-0.0247 v -0.95603 h 0.3175 v 1.15006 q -0.09525,0.0459 -0.236361,0.0776 -0.141111,0.0317 -0.296333,0.0317 -0.1905,0 -0.352778,-0.0741 -0.162278,-0.0776 -0.282222,-0.23284 -0.116417,-0.15875 -0.183445,-0.39864 -0.0635,-0.24341 -0.0635,-0.57502 z" style="font-style:normal;font-variant:normal;font-weight:normal;font-stretch:normal;font-family:Droid Sans;-inkscape-font-specification:'Ubuntu Condensed, ';" gorn="0.3.0.0.0.27.0.0.0.4"  id="path4859"/>
                                    <path font-size="0.995617" stroke-width="0.26458332" d="m 20.2158,259.98318 v -2.44475 h 1.097139 v 0.27164 H 20.5333 v 0.75848 h 0.705556 v 0.26458 H 20.5333 v 0.87842 h 0.836084 v 0.27163 z" style="font-style:normal;font-variant:normal;font-weight:normal;font-stretch:normal;font-family:Droid Sans;-inkscape-font-specification:'Ubuntu Condensed, ';" gorn="0.3.0.0.0.27.0.0.0.5"  id="path4861"/>
                                    <path font-size="0.995617" stroke-width="0.26458332" d="m 23.296928,260.0361 q -0.430389,0 -0.659694,-0.32103 -0.229306,-0.32102 -0.229306,-0.9913 0,-0.3422 0.0635,-0.57856 0.06703,-0.23636 0.183445,-0.38453 0.116416,-0.14816 0.275166,-0.21166 0.15875,-0.067 0.345723,-0.067 0.155222,0 0.289277,0.0423 0.134056,0.0388 0.218723,0.0988 l -0.09525,0.26458 q -0.08467,-0.0564 -0.183445,-0.0917 -0.09525,-0.0353 -0.22225,-0.0353 -0.282222,0 -0.409222,0.23637 -0.127,0.23283 -0.127,0.72672 0,0.49741 0.134056,0.76553 0.134055,0.26811 0.437444,0.26811 0.144639,0 0.232833,-0.0353 0.09172,-0.0353 0.176389,-0.0917 l 0.08819,0.25047 q -0.08114,0.0635 -0.215195,0.10936 -0.130528,0.0459 -0.303389,0.0459 z" style="font-style:normal;font-variant:normal;font-weight:normal;font-stretch:normal;font-family:Droid Sans;-inkscape-font-specification:'Ubuntu Condensed, ';" gorn="0.3.0.0.0.27.0.0.0.6"  id="path4863"/>
                                    <path font-size="0.995617" stroke-width="0.26458332" d="m 25.769845,258.76257 q 0,0.28575 -0.05292,0.52211 -0.04939,0.23284 -0.15875,0.40217 -0.105833,0.16581 -0.271639,0.25753 -0.162278,0.0917 -0.384528,0.0917 -0.22225,0 -0.388055,-0.0917 -0.162278,-0.0917 -0.271639,-0.25753 -0.105834,-0.16933 -0.15875,-0.40217 -0.05292,-0.23636 -0.05292,-0.52211 0,-0.28575 0.05292,-0.52211 0.05292,-0.23636 0.15875,-0.40216 0.109361,-0.16934 0.271639,-0.26106 0.165805,-0.0953 0.388055,-0.0953 0.22225,0 0.384528,0.0953 0.165806,0.0917 0.271639,0.26106 0.109361,0.1658 0.15875,0.40216 0.05292,0.23636 0.05292,0.52211 z m -0.338666,0 q 0,-0.22225 -0.02822,-0.40569 -0.02822,-0.18345 -0.09172,-0.31397 -0.0635,-0.13406 -0.165805,-0.20814 -0.09878,-0.0741 -0.243417,-0.0741 -0.144639,0 -0.246944,0.0741 -0.09878,0.0741 -0.162278,0.20814 -0.0635,0.13052 -0.09525,0.31397 -0.02822,0.18344 -0.02822,0.40569 0,0.22225 0.02822,0.4057 0.03175,0.18344 0.09525,0.31397 0.0635,0.13053 0.162278,0.20461 0.102305,0.0706 0.246944,0.0706 0.144639,0 0.243417,-0.0706 0.102305,-0.0741 0.165805,-0.20461 0.0635,-0.13053 0.09172,-0.31397 0.02822,-0.18345 0.02822,-0.4057 z" style="font-style:normal;font-variant:normal;font-weight:normal;font-stretch:normal;font-family:Droid Sans;-inkscape-font-specification:'Ubuntu Condensed, ';" gorn="0.3.0.0.0.27.0.0.0.7"  id="path4865"/>
                                    <path font-size="0.995617" stroke-width="0.26458332" d="m 27.464832,259.98318 q -0.08467,-0.20813 -0.194028,-0.44802 -0.105833,-0.24342 -0.225778,-0.48684 -0.116416,-0.24694 -0.239888,-0.48683 -0.123473,-0.24342 -0.243417,-0.45156 v 1.87325 h -0.296333 v -2.44475 h 0.264583 q 0.134055,0.21873 0.257528,0.44803 0.127,0.22931 0.239889,0.45509 0.112888,0.22225 0.211666,0.44097 0.102306,0.21519 0.186972,0.40922 v -1.75331 h 0.296334 v 2.44475 z" style="font-style:normal;font-variant:normal;font-weight:normal;font-stretch:normal;font-family:Droid Sans;-inkscape-font-specification:'Ubuntu Condensed, ';" gorn="0.3.0.0.0.27.0.0.0.8"  id="path4867"/>
                                    <path font-size="0.995617" stroke-width="0.26458332" d="m 29.468886,257.53843 v 0.27164 h -0.543277 v 2.17311 h -0.3175 v -2.17311 h -0.543278 v -0.27164 z" style="font-style:normal;font-variant:normal;font-weight:normal;font-stretch:normal;font-family:Droid Sans;-inkscape-font-specification:'Ubuntu Condensed, ';" gorn="0.3.0.0.0.27.0.0.0.9"  id="path4869"/>
                                    <path font-size="0.995617" stroke-width="0.26458332" d="m 29.813837,257.57371 q 0.246944,-0.06 0.47625,-0.06 0.183444,0 0.331611,0.0423 0.148167,0.0423 0.254,0.13406 0.105833,0.0917 0.162278,0.23636 0.05997,0.14464 0.05997,0.34925 0,0.254 -0.09878,0.41275 -0.09525,0.15522 -0.261055,0.23636 0.04233,0.0706 0.105833,0.19403 0.06703,0.11994 0.134056,0.26811 0.07056,0.14464 0.134055,0.29986 0.06703,0.15522 0.112889,0.29633 h -0.3175 q -0.0388,-0.10583 -0.09878,-0.23988 -0.05644,-0.13406 -0.119944,-0.26459 -0.0635,-0.13405 -0.127,-0.254 -0.0635,-0.12347 -0.112889,-0.20814 -0.05644,0.007 -0.116417,0.0106 -0.05997,0.004 -0.119944,0.004 h -0.08819 v 0.9525 h -0.310444 z m 0.310444,1.19592 h 0.134056 q 0.243417,0 0.373944,-0.10936 0.130528,-0.11289 0.130528,-0.38453 0,-0.13758 -0.03528,-0.22931 -0.03175,-0.0952 -0.09525,-0.14816 -0.05997,-0.0565 -0.148166,-0.0811 -0.08467,-0.0247 -0.1905,-0.0247 -0.09172,0 -0.169334,0.0106 z" style="font-style:normal;font-variant:normal;font-weight:normal;font-stretch:normal;font-family:Droid Sans;-inkscape-font-specification:'Ubuntu Condensed, ';" gorn="0.3.0.0.0.27.0.0.0.10"  id="path4871"/>
                                    <path font-size="0.995617" stroke-width="0.26458332" d="m 33.231922,258.76257 q 0,0.28575 -0.05292,0.52211 -0.04939,0.23284 -0.15875,0.40217 -0.105833,0.16581 -0.271639,0.25753 -0.162278,0.0917 -0.384528,0.0917 -0.22225,0 -0.388055,-0.0917 -0.162278,-0.0917 -0.271639,-0.25753 -0.105833,-0.16933 -0.15875,-0.40217 -0.05292,-0.23636 -0.05292,-0.52211 0,-0.28575 0.05292,-0.52211 0.05292,-0.23636 0.15875,-0.40216 0.109361,-0.16934 0.271639,-0.26106 0.165805,-0.0953 0.388055,-0.0953 0.22225,0 0.384528,0.0953 0.165806,0.0917 0.271639,0.26106 0.109361,0.1658 0.15875,0.40216 0.05292,0.23636 0.05292,0.52211 z m -0.338667,0 q 0,-0.22225 -0.02822,-0.40569 -0.02822,-0.18345 -0.09172,-0.31397 -0.0635,-0.13406 -0.165806,-0.20814 -0.09878,-0.0741 -0.243417,-0.0741 -0.144639,0 -0.246944,0.0741 -0.09878,0.0741 -0.162278,0.20814 -0.0635,0.13052 -0.09525,0.31397 -0.02822,0.18344 -0.02822,0.40569 0,0.22225 0.02822,0.4057 0.03175,0.18344 0.09525,0.31397 0.0635,0.13053 0.162278,0.20461 0.102305,0.0706 0.246944,0.0706 0.144639,0 0.243417,-0.0706 0.102306,-0.0741 0.165806,-0.20461 0.0635,-0.13053 0.09172,-0.31397 0.02822,-0.18345 0.02822,-0.4057 z" style="font-style:normal;font-variant:normal;font-weight:normal;font-stretch:normal;font-family:Droid Sans;-inkscape-font-specification:'Ubuntu Condensed, ';" gorn="0.3.0.0.0.27.0.0.0.11"  id="path4873"/>
                                    <path font-size="0.995617" stroke-width="0.26458332" d="m 34.817548,259.71155 v 0.27163 h -1.090083 v -2.44475 h 0.3175 v 2.17312 z" style="font-style:normal;font-variant:normal;font-weight:normal;font-stretch:normal;font-family:Droid Sans;-inkscape-font-specification:'Ubuntu Condensed, ';" gorn="0.3.0.0.0.27.0.0.0.12"  id="path4875"/>
                                    <path font-size="0.995617" stroke-width="0.26458332" d="m 36.292049,259.71155 v 0.27163 h -1.090084 v -2.44475 h 0.3175 v 2.17312 z" style="font-style:normal;font-variant:normal;font-weight:normal;font-stretch:normal;font-family:Droid Sans;-inkscape-font-specification:'Ubuntu Condensed, ';" gorn="0.3.0.0.0.27.0.0.0.13"  id="path4877"/>
                                    <path font-size="0.995617" stroke-width="0.26458332" d="m 36.676466,259.98318 v -2.44475 h 1.097139 v 0.27164 h -0.779639 v 0.75848 h 0.705556 v 0.26458 h -0.705556 v 0.87842 h 0.836083 v 0.27163 z" style="font-style:normal;font-variant:normal;font-weight:normal;font-stretch:normal;font-family:Droid Sans;-inkscape-font-specification:'Ubuntu Condensed, ';" gorn="0.3.0.0.0.27.0.0.0.14"  id="path4879"/>
                                    <path font-size="0.995617" stroke-width="0.26458332" d="m 38.281881,257.57371 q 0.246945,-0.06 0.47625,-0.06 0.183445,0 0.331611,0.0423 0.148167,0.0423 0.254,0.13406 0.105834,0.0917 0.162278,0.23636 0.05997,0.14464 0.05997,0.34925 0,0.254 -0.09878,0.41275 -0.09525,0.15522 -0.261056,0.23636 0.04233,0.0706 0.105833,0.19403 0.06703,0.11994 0.134056,0.26811 0.07056,0.14464 0.134056,0.29986 0.06703,0.15522 0.112888,0.29633 h -0.3175 q -0.03881,-0.10583 -0.09878,-0.23988 -0.05645,-0.13406 -0.119945,-0.26459 -0.0635,-0.13405 -0.127,-0.254 -0.0635,-0.12347 -0.112889,-0.20814 -0.05644,0.007 -0.116416,0.0106 -0.05997,0.004 -0.119945,0.004 h -0.08819 v 0.9525 h -0.310445 z m 0.310445,1.19592 h 0.134055 q 0.243417,0 0.373945,-0.10936 0.130528,-0.11289 0.130528,-0.38453 0,-0.13758 -0.03528,-0.22931 -0.03175,-0.0952 -0.09525,-0.14816 -0.05997,-0.0565 -0.148167,-0.0811 -0.08467,-0.0247 -0.1905,-0.0247 -0.09172,0 -0.169333,0.0106 z" style="font-style:normal;font-variant:normal;font-weight:normal;font-stretch:normal;font-family:Droid Sans;-inkscape-font-specification:'Ubuntu Condensed, ';" gorn="0.3.0.0.0.27.0.0.0.15"  id="path4881"/>
                                </g>
                            </g>
                        </g>
                    </g>
                </g>
            </g>
        </g>
    </g>
</svg>
