<?xml version='1.0' encoding='UTF-8' standalone='no'?>
<!-- Generator: Adobe Illustrator 16.0.0, SVG Export Plug-In . SVG Version: 6.00 Build 0)  -->
  <svg
  xmlns="http://www.w3.org/2000/svg"
  xmlns:svg="http://www.w3.org/2000/svg"
  version="1.1"
  width="0.41034546in"
  enable-background="new 0 0 28.8 18.762"
  height="0.243in"
  x="0px"
  xml:space="preserve"
  id="Ebene_1"
  y="0px"
  gorn="0"
  viewBox="0 0 410.34548 242.99999">
  <defs
    id="defs44">
        </defs>
  <desc
    id="desc2">
    <referenceFile>pushbutton-6mm-6mm_1_schematic.svg</referenceFile>
  </desc>
  <g
    id="schematic">
    <line
      y2="137.35176"
      stroke-width="9.72231"
      fill="none"
      stroke-linecap="round"
      stroke="#000000"
      x2="311.05325"
      x1="286.05301"
      y1="137.35176"
      id="line4"
    />
    <line
      y2="87.621101"
      stroke-width="9.72231"
      fill="none"
      stroke-linecap="round"
      stroke="#000000"
      x2="275.55511"
      x1="100.55363"
      y1="137.62154"
      id="line6"
    />
    <circle
      stroke-width="9.72231"
      fill="none"
      stroke="#000000"
      r="5.0000434"
      cy="137.62154"
      cx="100.55363"
      id="circle8"
    />
    <circle
      stroke-width="9.72231"
      fill="none"
      stroke="#000000"
      r="5.0000434"
      cy="137.35176"
      cx="311.05325"
      id="circle10"
    />
    <text
      font-family="DroidSans"
      font-size="27.778"
      fill="#787878"
      id="text12"
      x="38.903095"
      y="20.384407"
      stroke-width="13.889">1</text>
    <text
      font-family="DroidSans"
      font-size="27.778"
      fill="#787878"
      id="text16"
      x="352.77585"
      y="20.114635"
      stroke-width="13.889">2</text>
    <text
      font-family="DroidSans"
      font-size="27.778"
      fill="#787878"
      id="text20"
      x="38.903095"
      y="216.56667"
      stroke-width="13.889">1</text>
    <text
      font-family="DroidSans"
      font-size="27.778"
      fill="#787878"
      id="text24"
      x="352.77585"
      y="216.29689"
      stroke-width="13.889">2</text>
    <line
      y2="237.35262"
      stroke-width="9.72231"
      fill="none"
      stroke-linecap="round"
      stroke="#000000"
      x2="311.05325"
      x1="311.05325"
      y1="37.364784"
      id="line28"
    />
    <line
      y2="237.62239"
      stroke-width="9.72231"
      fill="none"
      stroke-linecap="round"
      stroke="#000000"
      x2="100.55363"
      x1="100.55363"
      y1="37.634556"
      id="line30"
    />
    <line
      y2="38"
      stroke-width="10"
      fill="none"
      stroke-linecap="round"
      stroke="#555555"
      id="connector0pin"
      x2="310.19186"
      gorn="0.0.17"
      x1="405.34546"
      y1="38"
    />
    <rect
      width="10"
      height="10"
      x="400.19186"
      fill="none"
      id="connector0terminal"
      y="33"
      stroke-width="0"
    />
    <line
      y2="238"
      stroke-width="9.99997"
      fill="none"
      stroke-linecap="round"
      stroke="#555555"
      id="connector1pin"
      x2="310.18457"
      x1="405.19916"
      y1="238"
    />
    <rect
      width="10"
      height="10"
      x="400.19186"
      fill="none"
      id="connector1terminal"
      y="233"
      stroke-width="0"
    />
    <line
      y2="37.634556"
      stroke-width="9.99996"
      fill="none"
      stroke-linecap="round"
      stroke="#555555"
      id="connector2pin"
      x2="100.05007"
      x1="4.99998"
      y1="37.634556"
    />
    <rect
      width="10"
      height="10"
      x="0.1918726"
      fill="none"
      id="connector2terminal"
      y="33"
      stroke-width="0"
    />
    <line
      y2="237.62239"
      stroke-width="9.99996"
      fill="none"
      stroke-linecap="round"
      stroke="#555555"
      id="connector3pin"
      x2="100.05007"
      x1="4.99998"
      y1="237.62239"
    />
    <rect
      width="10"
      height="10"
      x="0.1918726"
      fill="none"
      id="connector3terminal"
      y="233"
      stroke-width="0"
    />
  </g>
</svg>
