<?xml version='1.0' encoding='UTF-8' standalone='no'?>
<svg
  xmlns="http://www.w3.org/2000/svg"
  xmlns:svg="http://www.w3.org/2000/svg"
  version="1.2"
  width="0.25516799in"
  height="0.3339071in"
  viewBox="0 0 255.16799 333.9071"
  id="svg28">
  <defs
    id="defs32"
  />
  <desc
    id="desc2">
    <referenceFile>pushbutton-6mm-6mm_1_pcb.svg</referenceFile>
  </desc>
  <desc
    id="desc4">Fritzing
    footprint
    SVG</desc>
  <g
    id="silkscreen">
    <line
      y2="285.05722"
      stroke-width="9.99989"
      stroke="#000000"
      x2="88.209435"
      x1="166.94855"
      y1="285.05722"
      id="line6"
    />
    <line
      y2="255.53755"
      stroke-width="9.99989"
      stroke="#000000"
      x2="245.68767"
      x1="245.68767"
      y1="88.209435"
      id="line8"
    />
    <line
      y2="255.53755"
      stroke-width="9.99989"
      stroke="#000000"
      x2="9.4703331"
      x1="9.4703331"
      y1="88.209435"
      id="line10"
    />
    <line
      y2="48.839874"
      stroke-width="9.99989"
      stroke="#000000"
      x2="88.209435"
      x1="166.94855"
      y1="48.839874"
      id="line12"
    />
    <line
      y2="166.94853"
      stroke-width="9.99989"
      stroke="#000000"
      x2="107.88922"
      x1="147.25876"
      y1="166.94853"
      id="line14"
    />
    <line
      y2="147.26875"
      stroke-width="9.99989"
      stroke="#000000"
      x2="127.57899"
      x1="127.57899"
      y1="186.63832"
      id="line16"
    />
  </g>
  <g
    id="copper1">
    <g
      id="copper0">
      <circle
        stroke-width="20"
        fill="none"
        stroke="#ffbf00"
        id="connector0pin"
        r="29"
        cy="-216.168"
        cx="39"
        transform="rotate(90)"
      />
      <circle
        stroke-width="20"
        fill="none"
        stroke="#ffbf00"
        id="connector1pin"
        gorn="0.2.0.2"
        r="29"
        cy="-216.168"
        cx="294.9071"
        transform="rotate(90)"
      />
      <circle
        stroke-width="20"
        fill="none"
        stroke="#ffbf00"
        id="connector2pin"
        r="29"
        cy="-39"
        cx="39"
        transform="rotate(90)"
      />
      <circle
        stroke-width="20"
        fill="none"
        stroke="#ffbf00"
        id="connector3pin"
        r="29"
        cy="-39"
        cx="294.9071"
        transform="rotate(90)"
      />
    </g>
  </g>
</svg>
