<?xml version='1.0' encoding='UTF-8' standalone='no'?>
<!-- Generator: Adobe Illustrator 12.0.0, SVG Export Plug-In . SVG Version: 6.00 Build 51448)  -->
<svg xmlns="http://www.w3.org/2000/svg"  version="1.1" xmlns:xml="http://www.w3.org/XML/1998/namespace" viewBox="0 0 31.195753 13.81501" height="13.815009" width="31.195753" xml:space="preserve" overflow="visible" id="LED_RGB_Strip" gorn="0" enable-background="new -14.333 -4 144.22 30.345" style="overflow:visible">
    <metadata  id="metadata72">
        <rdf:RDF xmlns:rdf="http://www.w3.org/1999/02/22-rdf-syntax-ns#">
            <cc:Work xmlns:cc="http://creativecommons.org/ns#" rdf:about="" xmlns:rdf="http://www.w3.org/1999/02/22-rdf-syntax-ns#">
                <dc:format xmlns:dc="http://purl.org/dc/elements/1.1/">image/svg+xml</dc:format>
                <dc:type xmlns:dc="http://purl.org/dc/elements/1.1/" rdf:resource="http://purl.org/dc/dcmitype/StillImage" xmlns:rdf="http://www.w3.org/1999/02/22-rdf-syntax-ns#"/>
                <dc:title xmlns:dc="http://purl.org/dc/elements/1.1/"/>
            </cc:Work>
        </rdf:RDF>
    </metadata>
    <defs  id="defs70"/>
    <desc  id="desc2">
        <referenceFile >Untitled Sketch 10_pcb.svg</referenceFile>
    </desc>
    <g  transform="translate(-39.705584,-10.528143)">
        <g >
            <g >
                <g  id="silkscreen" gorn="0.3.0.0.0">
                    <rect  x="43.014534" stroke-width="0.24095672" fill="none" fill-opacity="1" height="11.526614" width="24.977747" y="10.648622" id="rect4895" gorn="0.3.0.0.0.0" style="opacity:1;fill-rule:nonzero;stroke-linecap:butt;stroke-linejoin:miter;stroke-miterlimit:4;stroke-dasharray:none;" stroke="#000000" stroke-opacity="0.94117647"/>
                    <g  transform="rotate(89.33537)">
                        <g >
                            <g >
                                <g  fill="#000000" xmlns:xml="http://www.w3.org/XML/1998/namespace" fill-opacity="1" xml:space="preserve" font-size="4" id="text4579" style="font-style:normal;font-weight:normal;line-height:1.25;font-family:Droid Sans;letter-spacing:0px;word-spacing:0px;" stroke="none" gorn="0.3.0.0.0.1.0.0.0">
                                    <text  x="15.862512" y="-39.578278" id="tspan4577" gorn="0.3.0.0.0.1.0.0.0.0">GND</text>
                                </g>
                            </g>
                        </g>
                    </g>
                    <g  fill="#000000" xmlns:xml="http://www.w3.org/XML/1998/namespace" fill-opacity="1" xml:space="preserve" font-size="4" id="text4583" style="font-style:normal;font-weight:normal;line-height:1.25;font-family:Droid Sans;letter-spacing:0px;word-spacing:0px;" stroke="none" gorn="0.3.0.0.0.2">
                        <text  x="68.038055" y="14.750928" id="tspan4581" gorn="0.3.0.0.0.2.0">+</text>
                    </g>
                </g>
            </g>
        </g>
    </g>
    <g  transform="translate(-39.705584,-10.528143)">
        <g >
            <g >
                <g  id="copper0" gorn="0.4.0.0.0">
                    <g  id="copper1" gorn="0.4.0.0.0.0">
                        <path  stroke-width="0.11945691" fill="#e5ab6b" d="m 62.059728,19.276509 c 0,0.801424 0.97724,1.451162 2.179291,1.451162 h 3.370544 v -2.904166 h -3.370544 c -1.202051,0 -2.179291,0.650351 -2.179291,1.453004 z" id="connector3pin" gorn="0.4.0.0.0.0.0" stroke="#6b6b6a"/>
                        <path  stroke-width="0.11945694" fill="#e5ab6b" d="m 62.04398,13.606033 c 0,0.80204 0.977239,1.452391 2.17929,1.452391 h 3.370544 V 12.154258 H 64.22327 c -1.202051,-6.16e-4 -2.17929,0.649737 -2.17929,1.451775 z" id="connector1pin" gorn="0.4.0.0.0.0.1" stroke="#6b6b6a"/>
                        <path  stroke-width="0.11945696" fill="#e5ab6b" d="m 49.075777,19.276509 c 0,0.801424 -0.977527,1.451162 -2.178276,1.451162 h -3.371559 v -2.904166 h 3.371559 c 1.203239,0 2.178276,0.65035 2.178276,1.453004 z" id="connector0pin" gorn="0.4.0.0.0.0.2" stroke="#6b6b6a"/>
                        <path  stroke-width="0.11945695" fill="#e5ab6b" d="m 49.075777,13.605988 c 0,0.80204 -0.977527,1.452391 -2.178276,1.452391 h -3.371559 v -2.904166 h 3.371559 c 1.203239,-6.16e-4 2.178276,0.649737 2.178276,1.451775 z" id="connector2pin" gorn="0.4.0.0.0.0.3" stroke="#6b6b6a"/>
                        <rect  x="49.51181" stroke-width="0.0" height="10.601575" width="12.113386" y="11.130706" id="noconn4" style="fill-opacity:1;fill:#000000" gorn="0.4.0.0.0.0.4"/>
                    </g>
                </g>
            </g>
        </g>
    </g>
</svg>
