<?xml version='1.0' encoding='UTF-8' standalone='no'?>
<!-- Created with Fritzing (http://www.fritzing.org/) -->
  <svg
  xmlns="http://www.w3.org/2000/svg"
  baseProfile="tiny"
  viewBox="0 0 4.064 7.86694"
  x="0in"
  width="0.16in"
  version="1.2"
  y="0in"
  height="0.309722in">
  <desc>
    <referenceFile>prefix0000_e8b229b43d01ce288efc6c2e701ea159_1_schematic.svg</referenceFile>
  </desc>
  <g
    id="schematic"
    gorn="0.0">
    <line
      stroke-linecap="round"
      y2="3.17147"
      y1="2.66347"
      x2="2.032"
      stroke-width="0.1524"
      class="other"
      x1="2.032"
      stroke="#000000"
    />
    <line
      stroke-linecap="round"
      y2="4.69547"
      y1="5.20347"
      x2="2.032"
      stroke-width="0.1524"
      class="other"
      x1="2.032"
      stroke="#000000"
    />
    <rect
      x="0"
      width="4.064"
      stroke-linecap="round"
      y="4.18747"
      height="0.508"
      fill="#000000"
      stroke-width="0"
      class="other"
      stroke="none"
    />
    <rect
      x="0"
      width="4.064"
      stroke-linecap="round"
      y="3.17147"
      height="0.508"
      fill="#000000"
      stroke-width="0"
      class="other"
      stroke="none"
    />
    <line
      stroke-linecap="round"
      connectorname="1"
      y2="2.66347"
      y1="0.123472"
      x2="2.032"
      stroke-width="0.246944"
      class="pin"
      x1="2.032"
      id="connector1pin"
      gorn="0.0.4"
      stroke="#787878"
    />
    <rect
      x="2.032"
      width="0.0001"
      y="0.123472"
      height="0.0001"
      fill="none"
      stroke-width="0"
      class="terminal"
      id="connector1terminal"
      gorn="0.0.5"
      stroke="none"
    />
    <g
      transform="translate(1.66158,1.39347)">
      <g>
        <g
          transform="rotate(270)">
          <g>
            <text
              x="0"
              font-size="0.881944"
              y="0"
              fill="#8c8c8c"
              font-family="'Droid Sans'"
              stroke-width="0"
              class="text"
              text-anchor="middle"
              stroke="none">1</text>
          </g>
        </g>
      </g>
    </g>
    <line
      stroke-linecap="round"
      connectorname="2"
      y2="5.20347"
      y1="7.74347"
      x2="2.032"
      stroke-width="0.246944"
      class="pin"
      x1="2.032"
      id="connector0pin"
      gorn="0.0.7"
      stroke="#787878"
    />
    <rect
      x="2.032"
      width="0.0001"
      y="7.74347"
      height="0.0001"
      fill="none"
      stroke-width="0"
      class="terminal"
      id="connector0terminal"
      gorn="0.0.8"
      stroke="none"
    />
    <g
      transform="translate(1.66158,6.47347)">
      <g>
        <g
          transform="rotate(270)">
          <g>
            <text
              x="0"
              font-size="0.881944"
              y="0"
              fill="#8c8c8c"
              font-family="'Droid Sans'"
              stroke-width="0"
              class="text"
              text-anchor="middle"
              stroke="none">2</text>
          </g>
        </g>
      </g>
    </g>
  </g>
</svg>
