<?xml version='1.0' encoding='UTF-8' standalone='no'?>
<svg
  xmlns:inkscape="http://www.inkscape.org/namespaces/inkscape"
  xmlns:sodipodi="http://sodipodi.sourceforge.net/DTD/sodipodi-0.dtd"
  xmlns="http://www.w3.org/2000/svg"
  xmlns:svg="http://www.w3.org/2000/svg"
  xmlns:rdf="http://www.w3.org/1999/02/22-rdf-syntax-ns#"
  xmlns:cc="http://creativecommons.org/ns#"
  xmlns:dc="http://purl.org/dc/elements/1.1/"
  shape-rendering="crispEdges"
  viewBox="0 0 208.19672 363.99996"
  x="0in"
  width="0.20819671in"
  height="0.36399996in"
  version="1.2"
  y="0in"
  id="svg2"
  sodipodi:docname="svg.pcb.festo-SMT-8M-A-PS-24V-E-0,3-MD_1_pcb.svg"
  inkscape:version="1.1.2 (0a00cf5339, 2022-02-04, custom)">
  <sodipodi:namedview
    id="namedview16"
    pagecolor="#ffffff"
    bordercolor="#666666"
    borderopacity="1.0"
    inkscape:pageshadow="2"
    inkscape:pageopacity="0.0"
    inkscape:pagecheckerboard="0"
    inkscape:document-units="in"
    showgrid="false"
    inkscape:zoom="6.6366462"
    inkscape:cx="-2.636874"
    inkscape:cy="28.854936"
    inkscape:window-width="1440"
    inkscape:window-height="810"
    inkscape:window-x="234"
    inkscape:window-y="71"
    inkscape:window-maximized="0"
    inkscape:current-layer="copper1"
  />
  <metadata
    id="metadata27">
    <rdf:RDF>
      <cc:Work
        rdf:about="">
        <dc:format>image/svg+xml</dc:format>
        <dc:type
          rdf:resource="http://purl.org/dc/dcmitype/StillImage"
        />
      </cc:Work>
    </rdf:RDF>
  </metadata>
  <defs
    id="defs25"
  />
  <desc
    id="desc4">
    <referenceFile>festo-SMT-8M-A-PS-24V-E-0,3-MD_1_pcb.svg</referenceFile>
  </desc>
  <g
    id="silkscreen">
    <rect
      id="rect134"
      width="198.19679"
      height="354.00006"
      x="4.9999599"
      y="4.9999599"
      fill="none"
      stroke="#000000"
      stroke-width="9.99992"
    />
  </g>
  <g
    id="copper1">
    <g
      id="copper0">
      <rect
        stroke-width="20"
        stroke="#ffbf00"
        fill="none"
        id="square"
        gorn="0.2.0.0"
        x="72.808067"
        height="58"
        width="58"
        y="51.40538"
      />
      <circle
        stroke-width="20"
        stroke="#ffbf00"
        fill="none"
        id="connector0pin"
        gorn="0.2.0.1"
        cx="101.80807"
        cy="80.40538"
        r="29"
      />
      <circle
        stroke-width="20"
        stroke="#ffbf00"
        fill="none"
        id="connector1pin"
        gorn="0.2.0.2"
        cx="101.80807"
        cy="180.40538"
        r="29"
      />
      <circle
        stroke-width="20"
        stroke="#ffbf00"
        fill="none"
        id="connector2pin"
        gorn="0.2.0.3"
        cx="101.80807"
        cy="280.4054"
        r="29"
      />
    </g>
  </g>
</svg>
