<?xml version="1.0" encoding="UTF-8" standalone="no"?>
<svg
   xmlns:dc="http://purl.org/dc/elements/1.1/"
   xmlns:cc="http://creativecommons.org/ns#"
   xmlns:rdf="http://www.w3.org/1999/02/22-rdf-syntax-ns#"
   xmlns:svg="http://www.w3.org/2000/svg"
   xmlns="http://www.w3.org/2000/svg"
   width="0.11in"
   viewBox="0 0 110 710.00003"
   height="0.71000004in"
   version="1.2"
   id="svg26">
  <metadata
     id="metadata32">
    <rdf:RDF>
      <cc:Work
         rdf:about="">
        <dc:format>image/svg+xml</dc:format>
        <dc:type
           rdf:resource="http://purl.org/dc/dcmitype/StillImage" />
        <dc:title></dc:title>
      </cc:Work>
    </rdf:RDF>
  </metadata>
  <defs
     id="defs30">
    <pattern
       y="0"
       x="0"
       height="6"
       width="6"
       patternUnits="userSpaceOnUse"
       id="EMFhbasepattern" />
  </defs>
  <desc
     id="desc2">
    <referenceFile>oblong-7pin_93778deb3c265e010987911134dd5861_1_pcb.svg</referenceFile>
  </desc>
  <desc
     id="desc4">Fritzing
    footprint
    SVG</desc>
  <g
     id="silkscreen">
    <line
       y2="705"
       y1="5"
       x2="5"
       x1="5"
       id="line6"
       stroke="#000000"
       stroke-width="10" />
    <line
       y2="705"
       y1="705"
       x2="105"
       x1="5"
       id="line8"
       stroke="#000000"
       stroke-width="10" />
    <line
       y2="5"
       y1="705"
       x2="105"
       x1="105"
       id="line10"
       stroke="#000000"
       stroke-width="10" />
    <line
       y2="5"
       y1="5"
       x2="5"
       x1="105"
       id="line12"
       stroke="#000000"
       stroke-width="10" />
    <line
       y2="5"
       y1="40"
       x2="40"
       x1="5"
       id="line14"
       stroke="#000000"
       stroke-width="5" />
  </g>
  <g
     id="copper1">
    <g
       id="copper0">
      <path
         style="fill:#f7bd13;stroke:none;stroke-width:0"
         d="m 34.895024,27.98392 c -11.07698,0 -19.99919,12.12504 -19.99919,27.01823 0,14.8933 8.92221,26.99789 19.99919,26.99789 h 39.99838 c 11.07692,0 19.99918,-12.10459 19.99918,-26.99789 0,-14.50885 -8.45684,-26.45896 -19.22607,-27.01823 z m 19.91781,8.01596 a 19,19 0 0 1 19.00228,19.00227 19,19 0 0 1 -19.00228,18.98194 19,19 0 0 1 -19.00228,-18.98194 19,19 0 0 1 19.00228,-19.00227 z"
         id="path88" />
      <path
         id="path40"
         d="m 34.895024,127.98392 c -11.07698,0 -19.99919,12.12504 -19.99919,27.01823 0,14.8933 8.92221,26.99789 19.99919,26.99789 h 39.99838 c 11.07692,0 19.99918,-12.10459 19.99918,-26.99789 0,-14.50885 -8.45684,-26.45896 -19.22607,-27.01823 z m 19.91781,8.01596 a 19,19 0 0 1 19.00228,19.00227 19,19 0 0 1 -19.00228,18.98194 19,19 0 0 1 -19.00228,-18.98194 19,19 0 0 1 19.00228,-19.00227 z"
         style="fill:#f7bd13;stroke:none;stroke-width:0" />
      <path
         style="fill:#f7bd13;stroke:none;stroke-width:0"
         d="m 34.895024,227.98392 c -11.07698,0 -19.99919,12.12504 -19.99919,27.01823 0,14.8933 8.92221,26.99789 19.99919,26.99789 h 39.99838 c 11.07692,0 19.99918,-12.10459 19.99918,-26.99789 0,-14.50885 -8.45684,-26.45896 -19.22607,-27.01823 z m 19.91781,8.01596 a 19,19 0 0 1 19.00228,19.00227 19,19 0 0 1 -19.00228,18.98194 19,19 0 0 1 -19.00228,-18.98194 19,19 0 0 1 19.00228,-19.00227 z"
         id="path42" />
      <path
         id="path44"
         d="m 34.895024,327.98393 c -11.07698,0 -19.99919,12.12504 -19.99919,27.01823 0,14.8933 8.92221,26.99789 19.99919,26.99789 h 39.99838 c 11.07692,0 19.99918,-12.10459 19.99918,-26.99789 0,-14.50885 -8.45684,-26.45896 -19.22607,-27.01823 z m 19.91781,8.01596 a 19,19 0 0 1 19.00228,19.00227 19,19 0 0 1 -19.00228,18.98194 19,19 0 0 1 -19.00228,-18.98194 19,19 0 0 1 19.00228,-19.00227 z"
         style="fill:#f7bd13;stroke:none;stroke-width:0" />
      <path
         style="fill:#f7bd13;stroke:none;stroke-width:0"
         d="m 34.895024,427.98393 c -11.07698,0 -19.99919,12.12504 -19.99919,27.01823 0,14.8933 8.92221,26.99789 19.99919,26.99789 h 39.99838 c 11.07692,0 19.99918,-12.10459 19.99918,-26.99789 0,-14.50885 -8.45684,-26.45896 -19.22607,-27.01823 z m 19.91781,8.01596 a 19,19 0 0 1 19.00228,19.00227 19,19 0 0 1 -19.00228,18.98194 19,19 0 0 1 -19.00228,-18.98194 19,19 0 0 1 19.00228,-19.00227 z"
         id="path46" />
      <path
         id="path48"
         d="m 34.895024,527.98393 c -11.07698,0 -19.99919,12.12504 -19.99919,27.01823 0,14.8933 8.92221,26.99789 19.99919,26.99789 h 39.99838 c 11.07692,0 19.99918,-12.10459 19.99918,-26.99789 0,-14.50885 -8.45684,-26.45896 -19.22607,-27.01823 z m 19.91781,8.01596 a 19,19 0 0 1 19.00228,19.00227 19,19 0 0 1 -19.00228,18.98194 19,19 0 0 1 -19.00228,-18.98194 19,19 0 0 1 19.00228,-19.00227 z"
         style="fill:#f7bd13;stroke:none;stroke-width:0" />
      <path
         style="fill:#f7bd13;stroke:none;stroke-width:0"
         d="m 34.895024,627.98393 c -11.07698,0 -19.99919,12.12504 -19.99919,27.01823 0,14.8933 8.92221,26.99789 19.99919,26.99789 h 39.99838 c 11.07692,0 19.99918,-12.10459 19.99918,-26.99789 0,-14.50885 -8.45684,-26.45896 -19.22607,-27.01823 z m 19.91781,8.01596 a 19,19 0 0 1 19.00228,19.00227 19,19 0 0 1 -19.00228,18.98194 19,19 0 0 1 -19.00228,-18.98194 19,19 0 0 1 19.00228,-19.00227 z"
         id="path50" />
      <circle
         style="fill:none;stroke:#ffbf00;stroke-width:8"
         gorn="0.2.0.0"
         id="connector0pin"
         cy="55"
         r="23"
         cx="55" />
      <circle
         style="fill:none;stroke:#ffbf00;stroke-width:8"
         gorn="0.2.0.1"
         id="connector1pin"
         cy="155"
         r="23"
         cx="55" />
      <circle
         style="fill:none;stroke:#ffbf00;stroke-width:8"
         gorn="0.2.0.2"
         id="connector2pin"
         cy="255"
         r="23"
         cx="55" />
      <circle
         style="fill:none;stroke:#ffbf00;stroke-width:8"
         gorn="0.2.0.3"
         id="connector3pin"
         cy="355"
         r="23"
         cx="55" />
      <circle
         style="fill:none;stroke:#ffbf00;stroke-width:8"
         gorn="0.2.0.4"
         id="connector4pin"
         cy="455"
         r="23"
         cx="55" />
      <circle
         style="fill:none;stroke:#ffbf00;stroke-width:8"
         gorn="0.2.0.5"
         id="connector5pin"
         cy="555"
         r="23"
         cx="55" />
      <circle
         style="fill:none;stroke:#ffbf00;stroke-width:8"
         gorn="0.2.0.6"
         id="connector6pin"
         cy="655"
         r="23"
         cx="55" />
    </g>
  </g>
</svg>
