<?xml version='1.0' encoding='UTF-8' standalone='no'?>
<svg
  xmlns:dc="http://purl.org/dc/elements/1.1/"
  xmlns:cc="http://creativecommons.org/ns#"
  xmlns:rdf="http://www.w3.org/1999/02/22-rdf-syntax-ns#"
  xmlns:svg="http://www.w3.org/2000/svg"
  xmlns="http://www.w3.org/2000/svg"
  id="svg2"
  viewBox="0 0 508.76245 453.5013"
  height="11.518929mm"
  width="12.922562mm"
  version="1.2">
  <metadata
    id="metadata45">
    <rdf:RDF>
      <cc:Work
        rdf:about="">
        <dc:format>image/svg+xml</dc:format>
        <dc:type
          rdf:resource="http://purl.org/dc/dcmitype/StillImage"
        />
        <dc:title>SparkFun.mod</dc:title>
      </cc:Work>
    </rdf:RDF>
  </metadata>
  <title
    id="title4">SparkFun.mod</title>
  <desc
    id="desc6">Kicad
    module
    'SparkFun-SO16'
    from
    file
    'SparkFun.mod'
    converted
    by
    Fritzing</desc>
  <defs
    id="defs178"
  />
  <g
    id="silkscreen">
    <line
      id="line156"
      x2="5.24124"
      y2="89.509514"
      x1="503.10925"
      y1="89.509514"
      fill="none"
      stroke="#000000"
      stroke-width="10"
      stroke-linecap="round"
      stroke-miterlimit="4"
      stroke-dasharray="none"
    />
    <line
      id="line158"
      x2="502.71909"
      y2="365.0177"
      x1="5.1557603"
      y1="365.0177"
      fill="none"
      stroke="#000000"
      stroke-width="10"
      stroke-linecap="round"
      stroke-miterlimit="4"
      stroke-dasharray="none"
    />
    <line
      id="line160"
      x2="503.76245"
      y2="92.177345"
      x1="503.76245"
      y1="364.677"
      fill="none"
      stroke="#000000"
      stroke-width="10"
      stroke-linecap="round"
    />
    <line
      id="line162"
      x2="5"
      y2="364.89951"
      x1="5"
      y1="91.94368"
      fill="none"
      stroke="#000000"
      stroke-width="10"
      stroke-linecap="round"
    />
    <path
      id="path174"
      d="m 5.0002887,247.8128 a 18.750105,18.750105 0 0 0 0,-37.50021"
      fill="none"
      stroke="#000000"
      stroke-width="10"
    />
    <path
      id="path3060"
      d="m 38.861168,340.21795 a 10.531066,10.531066 0 0 1 -21.062131,0 10.531066,10.531066 0 1 1 21.062131,0 z"
      fill="#000000"
      fill-opacity="1"
      stroke="none"
      stroke-width="10"
    />
  </g>
  <g
    id="copper1">
    <rect
      id="connector0pad"
      y="376.70602"
      x="16.250347"
      height="76.772087"
      width="23.622179"
      fill="#ffbf00"
      stroke-width="0"
    />
    <rect
      id="connector1pad"
      y="376.70602"
      x="66.242958"
      height="76.772087"
      width="23.622179"
      fill="#ffbf00"
      stroke-width="0"
    />
    <rect
      id="connector2pad"
      y="376.70602"
      x="116.24325"
      height="76.772087"
      width="23.622179"
      fill="#ffbf00"
      stroke-width="0"
    />
    <rect
      id="connector3pad"
      y="376.70602"
      x="166.24352"
      height="76.772087"
      width="23.622179"
      fill="#ffbf00"
      stroke-width="0"
    />
    <rect
      id="connector4pad"
      y="376.70602"
      x="216.2438"
      height="76.772087"
      width="23.622179"
      fill="#ffbf00"
      stroke-width="0"
    />
    <rect
      id="connector5pad"
      y="376.70602"
      x="266.24405"
      height="76.772087"
      width="23.622179"
      fill="#ffbf00"
      stroke-width="0"
    />
    <rect
      id="connector6pad"
      y="376.70602"
      x="316.24435"
      height="76.772087"
      width="23.622179"
      fill="#ffbf00"
      stroke-width="0"
    />
    <rect
      id="connector7pad"
      y="376.70602"
      x="366.24463"
      height="76.772087"
      width="23.622179"
      fill="#ffbf00"
      stroke-width="0"
    />
    <rect
      id="connector8pad"
      y="376.72922"
      x="416.26001"
      height="76.772087"
      width="23.622179"
      fill="#ffbf00"
      stroke-width="0"
    />
    <rect
      id="connector9pad"
      y="376.72922"
      x="466.24521"
      height="76.772087"
      width="23.622179"
      fill="#ffbf00"
      stroke-width="0"
    />
    <rect
      id="connector10pad"
      y="0.023202205"
      x="466.24521"
      height="76.772087"
      width="23.622179"
      fill="#ffbf00"
      stroke-width="0"
    />
    <rect
      id="connector11pad"
      y="0.023202205"
      x="416.26001"
      height="76.772087"
      width="23.622179"
      fill="#ffbf00"
      stroke-width="0"
    />
    <rect
      id="connector12pad"
      y="0"
      x="366.24463"
      height="76.772087"
      width="23.622179"
      fill="#ffbf00"
      stroke-width="0"
    />
    <rect
      id="connector13pad"
      y="0"
      x="316.24435"
      height="76.772087"
      width="23.622179"
      fill="#ffbf00"
      stroke-width="0"
    />
    <rect
      id="connector14pad"
      y="0"
      x="266.24405"
      height="76.772087"
      width="23.622179"
      fill="#ffbf00"
      stroke-width="0"
    />
    <rect
      id="connector15pad"
      y="0"
      x="216.2438"
      height="76.772087"
      width="23.622179"
      fill="#ffbf00"
      stroke-width="0"
    />
    <rect
      id="connector16pad"
      y="0"
      x="166.24352"
      height="76.772087"
      width="23.622179"
      fill="#ffbf00"
      stroke-width="0"
    />
    <rect
      id="connector17pad"
      y="0"
      x="116.24325"
      height="76.772087"
      width="23.622179"
      fill="#ffbf00"
      stroke-width="0"
    />
    <rect
      id="connector18pad"
      y="0"
      x="66.242958"
      height="76.772087"
      width="23.622179"
      fill="#ffbf00"
      stroke-width="0"
    />
    <rect
      id="connector19pad"
      y="0"
      x="16.250347"
      height="76.772087"
      width="23.622179"
      fill="#ffbf00"
      stroke-width="0"
    />
  </g>
</svg>
