<?xml version='1.0' encoding='UTF-8' standalone='no'?>
<svg
  xmlns:dc="http://purl.org/dc/elements/1.1/"
  xmlns:cc="http://creativecommons.org/ns#"
  xmlns:rdf="http://www.w3.org/1999/02/22-rdf-syntax-ns#"
  xmlns:svg="http://www.w3.org/2000/svg"
  xmlns="http://www.w3.org/2000/svg"
  gorn="0"
  width="0.80000001in"
  id="svg2"
  enable-background="new 0 0 57.6 23.76"
  xml:space="preserve"
  version="1.1"
  viewBox="0 0 57.6 23.76"
  x="0px"
  height="0.33000001in"
  y="0px">
  <metadata
    id="metadata130">
    <rdf:RDF>
      <cc:Work
        rdf:about="">
        <dc:format>image/svg+xml</dc:format>
        <dc:type
          rdf:resource="http://purl.org/dc/dcmitype/StillImage"
        />
        <dc:title/>
      </cc:Work>
    </rdf:RDF>
  </metadata>
  <defs
    id="defs128">
  </defs>
  <desc
    id="desc2">
    <referenceFile>74hc595-tssop_abe1d7b7ea737b5275be3663438dbd4d_1_breadboard.svg</referenceFile>
  </desc>
  <g
    id="breadboard">
    <rect
      id="rect36"
      width="2.1600001"
      x="2.52"
      height="4.8109999"
      y="18.948999"
      fill="#8c8c8c"
    />
    <rect
      id="rect38"
      width="2.1600001"
      x="9.7200003"
      height="4.8109999"
      y="18.948999"
      fill="#8c8c8c"
    />
    <rect
      id="rect40"
      width="2.1589999"
      x="16.92"
      height="4.8109999"
      y="18.948999"
      fill="#8c8c8c"
    />
    <rect
      id="rect42"
      width="2.1600001"
      x="24.118999"
      height="4.8109999"
      y="18.948999"
      fill="#8c8c8c"
    />
    <rect
      id="rect44"
      width="2.1600001"
      x="31.319"
      height="4.8109999"
      y="18.948999"
      fill="#8c8c8c"
    />
    <rect
      id="rect46"
      width="2.1589999"
      x="38.521"
      height="4.8109999"
      y="18.948999"
      fill="#8c8c8c"
    />
    <rect
      id="rect48"
      width="2.1600001"
      x="45.719002"
      height="4.8109999"
      y="18.948999"
      fill="#8c8c8c"
    />
    <rect
      id="rect50"
      width="2.1600001"
      x="52.918999"
      height="4.8109999"
      y="18.948999"
      fill="#8c8c8c"
    />
    <rect
      id="rect52"
      width="2.1600001"
      x="52.918999"
      height="4.8099999"
      y="0"
      fill="#8c8c8c"
    />
    <rect
      id="rect54"
      width="2.1600001"
      x="45.719002"
      height="4.8099999"
      y="0"
      fill="#8c8c8c"
    />
    <rect
      id="rect56"
      width="2.1589999"
      x="38.521"
      height="4.8099999"
      y="0"
      fill="#8c8c8c"
    />
    <rect
      id="rect58"
      width="2.1600001"
      x="31.319"
      height="4.8099999"
      y="0"
      fill="#8c8c8c"
    />
    <rect
      id="rect60"
      width="2.1600001"
      x="24.118999"
      height="4.8099999"
      y="0"
      fill="#8c8c8c"
    />
    <rect
      id="rect62"
      width="2.1589999"
      x="16.92"
      height="4.8099999"
      y="0"
      fill="#8c8c8c"
    />
    <rect
      id="rect64"
      width="2.1600001"
      x="9.7200003"
      height="4.8099999"
      y="0"
      fill="#8c8c8c"
    />
    <rect
      id="rect66"
      width="2.1600001"
      x="2.52"
      height="4.8099999"
      y="0"
      fill="#8c8c8c"
    />
    <polygon
      id="polygon68"
      points="57.6,2.16 57.059,8.281 0,8.281 0,2.16 "
      fill="#3d3d3d"
    />
    <polygon
      id="polygon70"
      points="57.059,15.479 57.6,21.601 0,21.601 0,15.479 "
    />
    <polygon
      id="polygon72"
      points="6.12,3.125 6.12,2.347 4.68,1.685 2.52,1.685 2.52,3.125 "
      fill="#8c8c8c"
    />
    <polygon
      id="polygon74"
      points="55.079,3.125 55.079,1.685 52.919,1.685 51.478,2.347 51.478,3.125 "
      fill="#8c8c8c"
    />
    <polygon
      id="polygon76"
      points="2.52,20.636 2.52,22.074 4.68,22.074 6.12,21.412 6.12,20.636 "
      fill="#8c8c8c"
    />
    <polygon
      id="polygon78"
      points="51.478,20.636 51.478,21.412 52.919,22.074 55.079,22.074 55.079,20.636 "
      fill="#8c8c8c"
    />
    <polygon
      id="polygon80"
      points="8.28,3.125 13.32,3.125 13.32,2.347 11.88,1.685 9.72,1.685 8.28,2.347 "
      fill="#8c8c8c"
    />
    <polygon
      id="polygon82"
      points="13.32,20.636 8.28,20.636 8.28,21.412 9.72,22.074 11.88,22.074 13.32,21.412 "
      fill="#8c8c8c"
    />
    <polygon
      id="polygon84"
      points="15.48,3.125 20.52,3.125 20.52,2.347 19.079,1.685 16.92,1.685 15.48,2.347 "
      fill="#8c8c8c"
    />
    <polygon
      id="polygon86"
      points="20.52,20.636 15.48,20.636 15.48,21.412 16.92,22.074 19.079,22.074 20.52,21.412 "
      fill="#8c8c8c"
    />
    <polygon
      id="polygon88"
      points="22.68,3.125 27.72,3.125 27.72,2.347 26.28,1.685 24.119,1.685 22.68,2.347 "
      fill="#8c8c8c"
    />
    <polygon
      id="polygon90"
      points="27.72,20.636 22.68,20.636 22.68,21.412 24.119,22.074 26.28,22.074 27.72,21.412 "
      fill="#8c8c8c"
    />
    <polygon
      id="polygon92"
      points="29.879,3.125 34.919,3.125 34.919,2.347 33.479,1.685 31.319,1.685 29.879,2.347 "
      fill="#8c8c8c"
    />
    <polygon
      id="polygon94"
      points="34.919,20.636 29.879,20.636 29.879,21.412 31.319,22.074 33.479,22.074 34.919,21.412 "
      fill="#8c8c8c"
    />
    <polygon
      id="polygon96"
      points="37.079,3.125 42.119,3.125 42.119,2.347 40.68,1.685 38.521,1.685 37.079,2.347 "
      fill="#8c8c8c"
    />
    <polygon
      id="polygon98"
      points="42.119,20.636 37.079,20.636 37.079,21.412 38.521,22.074 40.68,22.074 42.119,21.412 "
      fill="#8c8c8c"
    />
    <polygon
      id="polygon100"
      points="44.28,3.125 49.319,3.125 49.319,2.347 47.879,1.685 45.719,1.685 44.28,2.347 "
      fill="#8c8c8c"
    />
    <polygon
      id="polygon102"
      points="49.319,20.636 44.28,20.636 44.28,21.412 45.719,22.074 47.879,22.074 49.319,21.412 "
      fill="#8c8c8c"
    />
    <polygon
      id="polygon104"
      points="57.6,21.601 57.6,2.16 57.059,3.931 56.053,3.931 56.053,19.821 57.059,19.828 "
      fill="#141414"
    />
    <polygon
      id="polygon106"
      points="0.54,15.479 0.54,19.828 0,21.601 0,2.16 0.54,3.931 0.54,8.281 3.6,8.281 3.6,15.479 "
      fill="#1f1f1f"
    />
    <polygon
      id="polygon108"
      points="3.6,8.281 0.54,8.281 0.403,9.792 0.403,11.88 3.6,11.88 "
      fill="#1c1c1c"
    />
    <polygon
      id="polygon110"
      points="0.54,15.479 3.6,15.479 3.6,11.88 0.403,11.88 0.403,13.968 "
      fill="#383838"
    />
    <path
      id="path112"
      d="m 0.54,3.931 v 4.32 c 1.713,0.324 3.017,1.822 3.017,3.629 0,1.807 -1.296,3.313 -3.017,3.637 v 4.319 H 57.059 V 3.931 Z"
      fill="#303030"
    />
    <path
      id="path114"
      d="m 0.403,9.792 v 4.196 C 1.462,13.867 2.29,12.98 2.29,11.886 2.29,10.8 1.469,9.9 0.403,9.792 Z"
      fill="#262626"
    />
    <circle
      id="circle116"
      r="1.483"
      cx="4.6799998"
      cy="16.898001"
      fill="#212121"
    />
    <rect
      y="9.7919998"
      height="5.9499998"
      x="6.494"
      width="32.372002"
      id="rect119"
      fill="none"
    />
    <text
      id="text121"
      font-size="5.76000023"
      x="6.4938998"
      y="14.0374"
      font-family="OCRA"
      fill="#e5e5e5">74HC595</text>
    <rect
      y="20.636"
      height="3.1240001"
      x="2.52"
      id="connector0pin"
      width="2.1600001"
      gorn="0.0"
      fill="none"
    />
    <rect
      y="20.636"
      height="3.1240001"
      x="9.7200003"
      id="connector1pin"
      width="2.1600001"
      gorn="0.1"
      fill="none"
    />
    <rect
      y="20.636"
      height="3.1240001"
      x="16.92"
      id="connector2pin"
      width="2.1589999"
      gorn="0.2"
      fill="none"
    />
    <rect
      y="20.636"
      height="3.1240001"
      x="24.118999"
      id="connector3pin"
      width="2.1600001"
      gorn="0.3"
      fill="none"
    />
    <rect
      y="20.636"
      height="3.1240001"
      x="31.319"
      id="connector4pin"
      width="2.1600001"
      gorn="0.4"
      fill="none"
    />
    <rect
      y="20.636"
      height="3.1240001"
      x="38.521"
      id="connector5pin"
      width="2.1589999"
      gorn="0.5"
      fill="none"
    />
    <rect
      y="20.636"
      height="3.1240001"
      x="45.719002"
      id="connector6pin"
      width="2.1600001"
      gorn="0.6"
      fill="none"
    />
    <rect
      y="20.636"
      height="3.1240001"
      x="52.918999"
      id="connector7pin"
      width="2.1600001"
      gorn="0.7"
      fill="none"
    />
    <rect
      y="0"
      height="3.125"
      x="52.918999"
      id="connector8pin"
      width="2.1600001"
      gorn="0.8"
      fill="none"
    />
    <rect
      y="0"
      height="3.125"
      x="45.719002"
      id="connector9pin"
      width="2.1600001"
      gorn="0.9"
      fill="none"
    />
    <rect
      y="0"
      height="3.125"
      x="38.521"
      id="connector10pin"
      width="2.1589999"
      gorn="0.10"
      fill="none"
    />
    <rect
      y="0"
      height="3.125"
      x="31.319"
      id="connector11pin"
      width="2.1600001"
      gorn="0.11"
      fill="none"
    />
    <rect
      y="0"
      height="3.125"
      x="24.118999"
      id="connector12pin"
      width="2.1600001"
      gorn="0.12"
      fill="none"
    />
    <rect
      y="0"
      height="3.125"
      x="16.92"
      id="connector13pin"
      width="2.1589999"
      gorn="0.13"
      fill="none"
    />
    <rect
      y="0"
      height="3.125"
      x="9.7200003"
      id="connector14pin"
      width="2.1600001"
      gorn="0.14"
      fill="none"
    />
    <rect
      y="0"
      height="3.125"
      x="2.52"
      id="connector15pin"
      width="2.1600001"
      gorn="0.15"
      fill="none"
    />
  </g>
</svg>
