<?xml version='1.0' encoding='UTF-8' standalone='no'?>
<svg
  xmlns="http://www.w3.org/2000/svg"
  x="0in"
  width="0.6in"
  baseProfile="tiny"
  viewBox="0 0 6000 1000"
  height="0.1in"
  version="1.2"
  y="0in">
  <desc>
    <referenceFile>oblong-6pin-male_c0d304bfa53e1b96751ace4fa19765d2_1_breadboard.svg</referenceFile>
  </desc>
  <g
    id="breadboard"
    gorn="0.0">
    <polygon
      fill="#404040"
      points="217.113,0 0,217.113 0,782.747 217.113,1000 782.747,1000 1000,782.747 1000,217.113 782.747,0 217.113,0"
    />
    <rect
      x="306.153"
      width="387.692"
      fill="none"
      height="387.692"
      id="connector0pin"
      y="306.153"
      gorn="0.0.1"
    />
    <rect
      x="349.77"
      width="300.597"
      fill="none"
      height="314.210"
      id="connector0terminal"
      y="342.964"
      gorn="0.0.2"
    />
    <rect
      x="340.463"
      width="319.211"
      fill="#8D8C8C"
      height="319.211"
      y="340.463"
    />
    <rect
      x="417.974"
      width="164.189"
      fill="#8C8663"
      height="164.189"
      y="417.974"
    />
    <polygon
      fill="#B8AF82"
      points="340.463,340.463 417.974,417.974 582.025,417.974 659.674,340.463"
    />
    <polygon
      fill="#80795B"
      points="582.025,582.025 582.025,417.974 659.674,340.463 659.674,659.674 &#9;"
    />
    <polygon
      fill="#5E5B43"
      points="417.974,582.025 582.025,582.025 659.674,659.674 340.463,659.674&#9;&#9;"
    />
    <polygon
      fill="#9A916C"
      points="340.463,340.463 417.974,417.974 417.974,582.025 340.463,659.674 &#9;"
    />
    <polygon
      fill="#404040"
      points="1217.11,0 1000,217.113 1000,782.747 1217.11,1000 1782.75,1000 2000,782.747 2000,217.113 1782.75,0 1217.11,0"
    />
    <rect
      x="1306.15"
      width="387.692"
      fill="none"
      height="387.692"
      id="connector1pin"
      y="306.153"
      gorn="0.0.10"
    />
    <rect
      x="1349.77"
      width="300.597"
      fill="none"
      height="314.210"
      id="connector1terminal"
      y="342.964"
      gorn="0.0.11"
    />
    <rect
      x="1340.46"
      width="319.211"
      fill="#8D8C8C"
      height="319.211"
      y="340.463"
    />
    <rect
      x="1417.97"
      width="164.189"
      fill="#8C8663"
      height="164.189"
      y="417.974"
    />
    <polygon
      fill="#B8AF82"
      points="1340.46,340.463 1417.97,417.974 1582.03,417.974 1659.67,340.463"
    />
    <polygon
      fill="#80795B"
      points="1582.03,582.025 1582.03,417.974 1659.67,340.463 1659.67,659.674 &#9;"
    />
    <polygon
      fill="#5E5B43"
      points="1417.97,582.025 1582.03,582.025 1659.67,659.674 1340.46,659.674&#9;&#9;"
    />
    <polygon
      fill="#9A916C"
      points="1340.46,340.463 1417.97,417.974 1417.97,582.025 1340.46,659.674 &#9;"
    />
    <polygon
      fill="#404040"
      points="2217.11,0 2000,217.113 2000,782.747 2217.11,1000 2782.75,1000 3000,782.747 3000,217.113 2782.75,0 2217.11,0"
    />
    <rect
      x="2306.15"
      width="387.692"
      fill="none"
      height="387.692"
      id="connector2pin"
      y="306.153"
      gorn="0.0.19"
    />
    <rect
      x="2349.77"
      width="300.597"
      fill="none"
      height="314.210"
      id="connector2terminal"
      y="342.964"
      gorn="0.0.20"
    />
    <rect
      x="2340.46"
      width="319.211"
      fill="#8D8C8C"
      height="319.211"
      y="340.463"
    />
    <rect
      x="2417.97"
      width="164.189"
      fill="#8C8663"
      height="164.189"
      y="417.974"
    />
    <polygon
      fill="#B8AF82"
      points="2340.46,340.463 2417.97,417.974 2582.03,417.974 2659.67,340.463"
    />
    <polygon
      fill="#80795B"
      points="2582.03,582.025 2582.03,417.974 2659.67,340.463 2659.67,659.674 &#9;"
    />
    <polygon
      fill="#5E5B43"
      points="2417.97,582.025 2582.03,582.025 2659.67,659.674 2340.46,659.674&#9;&#9;"
    />
    <polygon
      fill="#9A916C"
      points="2340.46,340.463 2417.97,417.974 2417.97,582.025 2340.46,659.674 &#9;"
    />
    <polygon
      fill="#404040"
      points="3217.11,0 3000,217.113 3000,782.747 3217.11,1000 3782.75,1000 4000,782.747 4000,217.113 3782.75,0 3217.11,0"
    />
    <rect
      x="3306.15"
      width="387.692"
      fill="none"
      height="387.692"
      id="connector3pin"
      y="306.153"
      gorn="0.0.28"
    />
    <rect
      x="3349.77"
      width="300.597"
      fill="none"
      height="314.210"
      id="connector3terminal"
      y="342.964"
      gorn="0.0.29"
    />
    <rect
      x="3340.46"
      width="319.211"
      fill="#8D8C8C"
      height="319.211"
      y="340.463"
    />
    <rect
      x="3417.97"
      width="164.189"
      fill="#8C8663"
      height="164.189"
      y="417.974"
    />
    <polygon
      fill="#B8AF82"
      points="3340.46,340.463 3417.97,417.974 3582.03,417.974 3659.67,340.463"
    />
    <polygon
      fill="#80795B"
      points="3582.03,582.025 3582.03,417.974 3659.67,340.463 3659.67,659.674 &#9;"
    />
    <polygon
      fill="#5E5B43"
      points="3417.97,582.025 3582.03,582.025 3659.67,659.674 3340.46,659.674&#9;&#9;"
    />
    <polygon
      fill="#9A916C"
      points="3340.46,340.463 3417.97,417.974 3417.97,582.025 3340.46,659.674 &#9;"
    />
    <polygon
      fill="#404040"
      points="4217.11,0 4000,217.113 4000,782.747 4217.11,1000 4782.75,1000 5000,782.747 5000,217.113 4782.75,0 4217.11,0"
    />
    <rect
      x="4306.15"
      width="387.692"
      fill="none"
      height="387.692"
      id="connector4pin"
      y="306.153"
      gorn="0.0.37"
    />
    <rect
      x="4349.77"
      width="300.597"
      fill="none"
      height="314.210"
      id="connector4terminal"
      y="342.964"
      gorn="0.0.38"
    />
    <rect
      x="4340.46"
      width="319.211"
      fill="#8D8C8C"
      height="319.211"
      y="340.463"
    />
    <rect
      x="4417.97"
      width="164.189"
      fill="#8C8663"
      height="164.189"
      y="417.974"
    />
    <polygon
      fill="#B8AF82"
      points="4340.46,340.463 4417.97,417.974 4582.02,417.974 4659.67,340.463"
    />
    <polygon
      fill="#80795B"
      points="4582.02,582.025 4582.02,417.974 4659.67,340.463 4659.67,659.674 &#9;"
    />
    <polygon
      fill="#5E5B43"
      points="4417.97,582.025 4582.02,582.025 4659.67,659.674 4340.46,659.674&#9;&#9;"
    />
    <polygon
      fill="#9A916C"
      points="4340.46,340.463 4417.97,417.974 4417.97,582.025 4340.46,659.674 &#9;"
    />
    <polygon
      fill="#404040"
      points="5217.11,0 5000,217.113 5000,782.747 5217.11,1000 5782.75,1000 6000,782.747 6000,217.113 5782.75,0 5217.11,0"
    />
    <rect
      x="5306.15"
      width="387.692"
      fill="none"
      height="387.692"
      id="connector5pin"
      y="306.153"
      gorn="0.0.46"
    />
    <rect
      x="5349.77"
      width="300.597"
      fill="none"
      height="314.210"
      id="connector5terminal"
      y="342.964"
      gorn="0.0.47"
    />
    <rect
      x="5340.46"
      width="319.211"
      fill="#8D8C8C"
      height="319.211"
      y="340.463"
    />
    <rect
      x="5417.97"
      width="164.189"
      fill="#8C8663"
      height="164.189"
      y="417.974"
    />
    <polygon
      fill="#B8AF82"
      points="5340.46,340.463 5417.97,417.974 5582.02,417.974 5659.67,340.463"
    />
    <polygon
      fill="#80795B"
      points="5582.02,582.025 5582.02,417.974 5659.67,340.463 5659.67,659.674 &#9;"
    />
    <polygon
      fill="#5E5B43"
      points="5417.97,582.025 5582.02,582.025 5659.67,659.674 5340.46,659.674&#9;&#9;"
    />
    <polygon
      fill="#9A916C"
      points="5340.46,340.463 5417.97,417.974 5417.97,582.025 5340.46,659.674 &#9;"
    />
  </g>
</svg>
