<?xml version='1.0' encoding='UTF-8' standalone='no'?>
<svg
  xmlns:dc="http://purl.org/dc/elements/1.1/"
  xmlns:cc="http://creativecommons.org/ns#"
  xmlns:rdf="http://www.w3.org/1999/02/22-rdf-syntax-ns#"
  xmlns:svg="http://www.w3.org/2000/svg"
  xmlns="http://www.w3.org/2000/svg"
  width="2.0847099in"
  version="1.2"
  height="3.149749in"
  viewBox="0 0 2084.7105 3149.7501"
  x="0in"
  y="0in"
  id="svg1241">
  <metadata
    id="metadata1247">
    <rdf:RDF>
      <cc:Work
        rdf:about="">
        <dc:format>image/svg+xml</dc:format>
        <dc:type
          rdf:resource="http://purl.org/dc/dcmitype/StillImage"
        />
        <dc:title/>
      </cc:Work>
    </rdf:RDF>
  </metadata>
  <defs
    id="defs1245"
  />
  <desc
    id="desc2">Fritzing
    footprint
    generated
    by
    brd2svg</desc>
  <g
    id="silkscreen">
    <path
      d="M 1864.5105,3145.6844 H 105.36502 A 97.679529,97.679529 0 0 1 4.0757562,3044.2675 V 111.06543 A 103.27218,103.27218 0 0 1 110.936,4.0661569 H 1852.1633 A 109.30719,109.30719 0 0 1 1965.0246,117.08544 V 3045.0314 a 96.905777,96.905777 0 0 1 -100.5141,100.653 M 2080.7193,330.00857 v 10e-4 a 3.9986619,3.9986619 0 0 0 0,-10e-4 M 540.49365,2332.752 a 40.291411,40.291411 0 1 0 80.58282,0 40.291411,40.291411 0 1 0 -80.58282,0 z m 807.08515,0 a 40.291411,40.291411 0 1 0 80.5828,0 40.291411,40.291411 0 1 0 -80.5828,0 z m 0,-2244.103012 a 40.291411,40.291411 0 1 0 80.5828,0 40.291411,40.291411 0 1 0 -80.5828,0 z m -807.08515,0 a 40.291411,40.291411 0 1 0 80.58282,0 40.291411,40.291411 0 1 0 -80.58282,0 z M 47.382939,3044.9481 a 55.055265,55.055265 0 1 0 110.110251,0 55.055265,55.055265 0 1 0 -110.110251,0 z m 1758.266361,0.7916 a 55.055265,55.055265 0 1 0 110.1102,0 55.055265,55.055265 0 1 0 -110.1102,0 z m 0.4027,-2942.91735 a 55.055265,55.055265 0 1 0 110.1103,0 55.055265,55.055265 0 1 0 -110.1103,0 z M 47.77669,102.03541 a 55.055265,55.055265 0 1 0 110.11025,0 55.055265,55.055265 0 1 0 -110.11025,0 z"
      stroke-width="8.00002"
      stroke="#000000"
      fill="none"
      id="path4"
    />
    <line
      stroke-width="3.93702"
      y2="2332.752"
      y1="88.648994"
      x2="492.20331"
      x1="492.20331"
      stroke-linecap="round"
      stroke="#000000"
      id="line490"
    />
    <line
      stroke-width="3.93702"
      y2="88.648994"
      y1="2332.752"
      x2="1476.4542"
      x1="1476.4542"
      stroke-linecap="round"
      stroke="#000000"
      id="line498"
    />
    <path
      d="m 1387.8789,2421.3355 a 88.582841,88.582841 0 0 0 88.5752,-88.5835"
      stroke-width="3.93702"
      stroke="#000000"
      fill="none"
      id="path496"
    />
    <line
      stroke-width="3.93702"
      y2="2421.3354"
      y1="2421.3354"
      x2="1387.8789"
      x1="580.78546"
      stroke-linecap="round"
      stroke="#000000"
      id="line494"
    />
    <path
      d="m 492.20326,2332.752 a 88.582841,88.582841 0 0 0 88.58215,88.5835"
      stroke-width="3.93702"
      stroke="#000000"
      fill="none"
      id="path492"
    />
  </g>
  <g
    id="copper1">
    <g
      id="copper0">
      <rect
        stroke-width="14.252"
        width="45.748161"
        stroke="#f7bd13"
        height="45.748161"
        fill="none"
        x="561.45483"
        y="848.64307"
        id="rect1204"
      />
      <rect
        stroke-width="14.252"
        width="45.748161"
        stroke="#f7bd13"
        height="45.748161"
        fill="none"
        x="1361.4595"
        y="2148.6406"
        id="rect1184"
      />
      <rect
        stroke-width="10"
        width="33.622021"
        stroke="#f7bd13"
        height="33.622021"
        fill="none"
        x="1064.5685"
        y="1956.0844"
        id="rect1132"
      />
      <circle
        stroke-width="11.811"
        cy="294.55432"
        cx="147.32053"
        id="connector0pin"
        r="29.527704"
        connectorname="M1+"
        stroke="#f7bd13"
        fill="none"
      />
      <circle
        stroke-width="11.811"
        cy="432.35046"
        cx="147.32053"
        id="connector1pin"
        r="29.527704"
        connectorname="M1-"
        stroke="#f7bd13"
        fill="none"
      />
      <circle
        stroke-width="11.811"
        cy="570.14661"
        cx="147.32053"
        id="connector2pin"
        r="29.527704"
        connectorname="M3-"
        stroke="#f7bd13"
        fill="none"
      />
      <circle
        stroke-width="11.811"
        cy="707.94135"
        cx="147.32053"
        id="connector3pin"
        r="29.527704"
        connectorname="M3+"
        stroke="#f7bd13"
        fill="none"
      />
      <circle
        stroke-width="11.811"
        cy="845.73749"
        cx="147.32053"
        id="connector4pin"
        r="29.527704"
        connectorname="+3.3V"
        stroke="#f7bd13"
        fill="none"
      />
      <circle
        stroke-width="11.811"
        cy="983.53369"
        cx="147.32053"
        id="connector5pin"
        r="29.527704"
        connectorname="2"
        stroke="#f7bd13"
        fill="none"
      />
      <circle
        stroke-width="11.811"
        cy="1121.3284"
        cx="147.32053"
        id="connector6pin"
        r="29.527704"
        connectorname="3"
        stroke="#f7bd13"
        fill="none"
      />
      <circle
        stroke-width="11.811"
        cy="1259.1287"
        cx="147.32053"
        id="connector7pin"
        r="29.527704"
        connectorname="GND"
        stroke="#f7bd13"
        fill="none"
      />
      <circle
        stroke-width="14.252"
        cy="871.51672"
        cx="584.32849"
        id="connector8pin"
        r="22.874081"
        connectorname="AREF"
        stroke="#f7bd13"
        fill="none"
      />
      <circle
        stroke-width="14.252"
        cy="971.51691"
        cx="584.32849"
        id="connector9pin"
        r="22.874081"
        connectorname="A0"
        stroke="#f7bd13"
        fill="none"
      />
      <circle
        stroke-width="14.252"
        cy="1071.5186"
        cx="584.32849"
        id="connector10pin"
        r="22.874081"
        connectorname="A1"
        stroke="#f7bd13"
        fill="none"
      />
      <circle
        stroke-width="14.252"
        cy="1171.5188"
        cx="584.32849"
        id="connector11pin"
        r="22.874081"
        connectorname="A2"
        stroke="#f7bd13"
        fill="none"
      />
      <circle
        stroke-width="14.252"
        cy="1271.519"
        cx="584.32849"
        id="connector12pin"
        r="22.874081"
        connectorname="FB_M3"
        stroke="#f7bd13"
        fill="none"
      />
      <circle
        stroke-width="14.252"
        cy="1371.5193"
        cx="584.32849"
        id="connector13pin"
        r="22.874081"
        connectorname="FB_M4"
        stroke="#f7bd13"
        fill="none"
      />
      <circle
        stroke-width="14.252"
        cy="1471.5139"
        cx="584.32849"
        id="connector14pin"
        r="22.874081"
        connectorname="A5"
        stroke="#f7bd13"
        fill="none"
      />
      <circle
        stroke-width="14.252"
        cy="1571.5142"
        cx="584.32849"
        id="connector15pin"
        r="22.874081"
        connectorname="A6"
        stroke="#f7bd13"
        fill="none"
      />
      <circle
        stroke-width="14.252"
        cy="1671.5144"
        cx="584.32849"
        id="connector16pin"
        r="22.874081"
        connectorname="0"
        stroke="#f7bd13"
        fill="none"
      />
      <circle
        stroke-width="14.252"
        cy="1771.5146"
        cx="584.32849"
        id="connector17pin"
        r="22.874081"
        connectorname="N$16"
        stroke="#f7bd13"
        fill="none"
      />
      <circle
        stroke-width="14.252"
        cy="1871.5149"
        cx="584.32849"
        id="connector18pin"
        r="22.874081"
        connectorname="IN2_M3"
        stroke="#f7bd13"
        fill="none"
      />
      <circle
        stroke-width="14.252"
        cy="1971.515"
        cx="584.32849"
        id="connector19pin"
        r="22.874081"
        connectorname="IN1_M3"
        stroke="#f7bd13"
        fill="none"
      />
      <circle
        stroke-width="14.252"
        cy="2071.5151"
        cx="584.32849"
        id="connector20pin"
        r="22.874081"
        connectorname="IN2_M4"
        stroke="#f7bd13"
        fill="none"
      />
      <circle
        stroke-width="14.252"
        cy="2171.5154"
        cx="584.32849"
        id="connector21pin"
        r="22.874081"
        connectorname="IN1_M4"
        stroke="#f7bd13"
        fill="none"
      />
      <circle
        stroke-width="10"
        cy="1458.3334"
        cx="139.05246"
        id="connector22pin"
        r="25.000057"
        connectorname="1"
        stroke="#f7bd13"
        fill="none"
      />
      <circle
        stroke-width="10"
        cy="1558.3336"
        cx="139.05246"
        id="connector23pin"
        r="25.000057"
        connectorname="+5V"
        stroke="#f7bd13"
        fill="none"
      />
      <circle
        stroke-width="10"
        cy="1658.3337"
        cx="139.05246"
        id="connector24pin"
        r="25.000057"
        connectorname="GND"
        stroke="#f7bd13"
        fill="none"
      />
      <circle
        stroke-width="10"
        cy="1847.7092"
        cx="139.44551"
        id="connector25pin"
        r="25.000057"
        connectorname="1"
        stroke="#f7bd13"
        fill="none"
      />
      <circle
        stroke-width="10"
        cy="1947.7094"
        cx="139.44551"
        id="connector26pin"
        r="25.000057"
        connectorname="+5V"
        stroke="#f7bd13"
        fill="none"
      />
      <circle
        stroke-width="10"
        cy="2047.7096"
        cx="139.44551"
        id="connector27pin"
        r="25.000057"
        connectorname="GND"
        stroke="#f7bd13"
        fill="none"
      />
      <circle
        stroke-width="10"
        cy="2241.4048"
        cx="139.83995"
        id="connector28pin"
        r="25.000057"
        connectorname="+5V"
        stroke="#f7bd13"
        fill="none"
      />
      <circle
        stroke-width="10"
        cy="2341.4048"
        cx="139.83995"
        id="connector29pin"
        r="25.000057"
        connectorname="IN1_A6"
        stroke="#f7bd13"
        fill="none"
      />
      <circle
        stroke-width="10"
        cy="2441.405"
        cx="139.83995"
        id="connector30pin"
        r="25.000057"
        connectorname="GND"
        stroke="#f7bd13"
        fill="none"
      />
      <circle
        stroke-width="10"
        cy="2655.5862"
        cx="139.05246"
        id="connector31pin"
        r="25.000057"
        connectorname="+5V"
        stroke="#f7bd13"
        fill="none"
      />
      <circle
        stroke-width="10"
        cy="2755.5864"
        cx="139.05246"
        id="connector32pin"
        r="25.000057"
        connectorname="IN3_A5"
        stroke="#f7bd13"
        fill="none"
      />
      <circle
        stroke-width="10"
        cy="2855.5864"
        cx="139.05246"
        id="connector33pin"
        r="25.000057"
        connectorname="GND"
        stroke="#f7bd13"
        fill="none"
      />
      <circle
        stroke-width="17"
        cy="3037.4758"
        cx="285.1153"
        id="connector34pin"
        r="28.500065"
        connectorname="GND"
        stroke="#f7bd13"
        fill="none"
      />
      <circle
        stroke-width="17"
        cy="3037.4758"
        cx="385.11551"
        id="connector35pin"
        r="28.500065"
        connectorname="PWRIN"
        stroke="#f7bd13"
        fill="none"
      />
      <circle
        stroke-width="11.811"
        cy="2994.948"
        cx="706.37598"
        id="connector36pin"
        r="29.527704"
        connectorname="PWRIN"
        stroke="#f7bd13"
        fill="none"
      />
      <circle
        stroke-width="11.811"
        cy="2994.948"
        cx="844.17212"
        id="connector37pin"
        r="29.527704"
        connectorname="+5V"
        stroke="#f7bd13"
        fill="none"
      />
      <circle
        stroke-width="11.811"
        cy="2994.948"
        cx="981.96826"
        id="connector38pin"
        r="29.527704"
        connectorname="+3.3V"
        stroke="#f7bd13"
        fill="none"
      />
      <circle
        stroke-width="11.811"
        cy="2994.948"
        cx="1119.7686"
        id="connector39pin"
        r="29.527704"
        connectorname="GND"
        stroke="#f7bd13"
        fill="none"
      />
      <circle
        stroke-width="10"
        cy="2646.1279"
        cx="1083.938"
        id="connector40pin"
        r="25.000057"
        connectorname="SCL"
        stroke="#f7bd13"
        fill="none"
      />
      <circle
        stroke-width="10"
        cy="2646.1279"
        cx="1183.9382"
        id="connector41pin"
        r="25.000057"
        connectorname="SDA"
        stroke="#f7bd13"
        fill="none"
      />
      <circle
        stroke-width="10"
        cy="2646.1279"
        cx="1283.9384"
        id="connector42pin"
        r="25.000057"
        connectorname="+3.3V"
        stroke="#f7bd13"
        fill="none"
      />
      <circle
        stroke-width="10"
        cy="2646.1279"
        cx="1383.9387"
        id="connector43pin"
        r="25.000057"
        connectorname="GND"
        stroke="#f7bd13"
        fill="none"
      />
      <circle
        stroke-width="10"
        cy="2855.5864"
        cx="1829.6075"
        id="connector44pin"
        r="25.000057"
        connectorname="+5V"
        stroke="#f7bd13"
        fill="none"
      />
      <circle
        stroke-width="10"
        cy="2755.5864"
        cx="1829.6075"
        id="connector45pin"
        r="25.000057"
        connectorname="IN4_A2"
        stroke="#f7bd13"
        fill="none"
      />
      <circle
        stroke-width="10"
        cy="2655.5862"
        cx="1829.6075"
        id="connector46pin"
        r="25.000057"
        connectorname="GND"
        stroke="#f7bd13"
        fill="none"
      />
      <circle
        stroke-width="10"
        cy="2442.1965"
        cx="1829.6075"
        id="connector47pin"
        r="25.000057"
        connectorname="+5V"
        stroke="#f7bd13"
        fill="none"
      />
      <circle
        stroke-width="10"
        cy="2342.1963"
        cx="1829.6075"
        id="connector48pin"
        r="25.000057"
        connectorname="IN2_A1"
        stroke="#f7bd13"
        fill="none"
      />
      <circle
        stroke-width="10"
        cy="2242.1963"
        cx="1829.6075"
        id="connector49pin"
        r="25.000057"
        connectorname="GND"
        stroke="#f7bd13"
        fill="none"
      />
      <circle
        stroke-width="10"
        cy="2048.5015"
        cx="1829.6075"
        id="connector50pin"
        r="25.000057"
        connectorname="1"
        stroke="#f7bd13"
        fill="none"
      />
      <circle
        stroke-width="10"
        cy="1948.5012"
        cx="1829.6075"
        id="connector51pin"
        r="25.000057"
        connectorname="+5V"
        stroke="#f7bd13"
        fill="none"
      />
      <circle
        stroke-width="10"
        cy="1848.501"
        cx="1829.6075"
        id="connector52pin"
        r="25.000057"
        connectorname="GND"
        stroke="#f7bd13"
        fill="none"
      />
      <circle
        stroke-width="10"
        cy="1659.1254"
        cx="1829.9965"
        id="connector53pin"
        r="25.000057"
        connectorname="1"
        stroke="#f7bd13"
        fill="none"
      />
      <circle
        stroke-width="10"
        cy="1559.1252"
        cx="1829.9965"
        id="connector54pin"
        r="25.000057"
        connectorname="+5V"
        stroke="#f7bd13"
        fill="none"
      />
      <circle
        stroke-width="10"
        cy="1459.125"
        cx="1829.9965"
        id="connector55pin"
        r="25.000057"
        connectorname="GND"
        stroke="#f7bd13"
        fill="none"
      />
      <circle
        stroke-width="14.252"
        cy="2171.5154"
        cx="1384.329"
        id="connector56pin"
        r="22.874081"
        connectorname="6"
        stroke="#f7bd13"
        fill="none"
      />
      <circle
        stroke-width="14.252"
        cy="2071.5151"
        cx="1384.329"
        id="connector57pin"
        r="22.874081"
        connectorname="7"
        stroke="#f7bd13"
        fill="none"
      />
      <circle
        stroke-width="14.252"
        cy="1971.515"
        cx="1384.329"
        id="connector58pin"
        r="22.874081"
        connectorname="8"
        stroke="#f7bd13"
        fill="none"
      />
      <circle
        stroke-width="14.252"
        cy="1871.5149"
        cx="1384.329"
        id="connector59pin"
        r="22.874081"
        connectorname="9"
        stroke="#f7bd13"
        fill="none"
      />
      <circle
        stroke-width="14.252"
        cy="1771.5146"
        cx="1384.329"
        id="connector60pin"
        r="22.874081"
        connectorname="10"
        stroke="#f7bd13"
        fill="none"
      />
      <circle
        stroke-width="14.252"
        cy="1671.5144"
        cx="1384.329"
        id="connector61pin"
        r="22.874081"
        connectorname="SDA"
        stroke="#f7bd13"
        fill="none"
      />
      <circle
        stroke-width="14.252"
        cy="1571.5142"
        cx="1384.329"
        id="connector62pin"
        r="22.874081"
        connectorname="SCL"
        stroke="#f7bd13"
        fill="none"
      />
      <circle
        stroke-width="14.252"
        cy="1471.5139"
        cx="1384.329"
        id="connector63pin"
        r="22.874081"
        connectorname="13"
        stroke="#f7bd13"
        fill="none"
      />
      <circle
        stroke-width="14.252"
        cy="1371.5193"
        cx="1384.329"
        id="connector64pin"
        r="22.874081"
        connectorname="14"
        stroke="#f7bd13"
        fill="none"
      />
      <circle
        stroke-width="14.252"
        cy="1271.519"
        cx="1384.329"
        id="connector65pin"
        r="22.874081"
        connectorname="RST"
        stroke="#f7bd13"
        fill="none"
      />
      <circle
        stroke-width="14.252"
        cy="1171.5188"
        cx="1384.329"
        id="connector66pin"
        r="22.874081"
        connectorname="GND"
        stroke="#f7bd13"
        fill="none"
      />
      <circle
        stroke-width="14.252"
        cy="1071.5186"
        cx="1384.329"
        id="connector67pin"
        r="22.874081"
        connectorname="+3.3V"
        stroke="#f7bd13"
        fill="none"
      />
      <circle
        stroke-width="14.252"
        cy="971.51691"
        cx="1384.329"
        id="connector68pin"
        r="22.874081"
        connectorname="+5V"
        stroke="#f7bd13"
        fill="none"
      />
      <circle
        stroke-width="14.252"
        cy="871.51672"
        cx="1384.329"
        id="connector69pin"
        r="22.874081"
        connectorname="5V"
        stroke="#f7bd13"
        fill="none"
      />
      <circle
        stroke-width="11.811"
        cy="1259.5189"
        cx="1822.1354"
        id="connector70pin"
        r="29.527704"
        connectorname="GND"
        stroke="#f7bd13"
        fill="none"
      />
      <circle
        stroke-width="11.811"
        cy="1121.7186"
        cx="1822.1354"
        id="connector71pin"
        r="29.527704"
        connectorname="2"
        stroke="#f7bd13"
        fill="none"
      />
      <circle
        stroke-width="11.811"
        cy="983.9267"
        cx="1822.1354"
        id="connector72pin"
        r="29.527704"
        connectorname="3"
        stroke="#f7bd13"
        fill="none"
      />
      <circle
        stroke-width="11.811"
        cy="846.13055"
        cx="1822.1354"
        id="connector73pin"
        r="29.527704"
        connectorname="+3.3V"
        stroke="#f7bd13"
        fill="none"
      />
      <circle
        stroke-width="11.811"
        cy="707.94135"
        cx="1822.1354"
        id="connector74pin"
        r="29.527704"
        connectorname="M4+"
        stroke="#f7bd13"
        fill="none"
      />
      <circle
        stroke-width="11.811"
        cy="570.14661"
        cx="1822.1354"
        id="connector75pin"
        r="29.527704"
        connectorname="M4-"
        stroke="#f7bd13"
        fill="none"
      />
      <circle
        stroke-width="11.811"
        cy="432.35046"
        cx="1822.1354"
        id="connector76pin"
        r="29.527704"
        connectorname="M2-"
        stroke="#f7bd13"
        fill="none"
      />
      <circle
        stroke-width="11.811"
        cy="294.55432"
        cx="1822.1354"
        id="connector77pin"
        r="29.527704"
        connectorname="M2+"
        stroke="#f7bd13"
        fill="none"
      />
      <circle
        stroke-width="10"
        cy="1972.9041"
        cx="1081.3782"
        id="connector78pin"
        r="16.81101"
        connectorname="+3.3V"
        stroke="#f7bd13"
        fill="none"
      />
      <circle
        stroke-width="10"
        cy="1972.9041"
        cx="1131.3783"
        id="connector79pin"
        r="16.81101"
        connectorname="SWDIO/SS"
        stroke="#f7bd13"
        fill="none"
      />
      <circle
        stroke-width="10"
        cy="2022.9041"
        cx="1081.3782"
        id="connector80pin"
        r="16.81101"
        connectorname="GND"
        stroke="#f7bd13"
        fill="none"
      />
      <circle
        stroke-width="10"
        cy="2022.9041"
        cx="1131.3783"
        id="connector81pin"
        r="16.81101"
        connectorname="SWCLK/MISO"
        stroke="#f7bd13"
        fill="none"
      />
      <circle
        stroke-width="10"
        cy="2072.9043"
        cx="1081.3782"
        id="connector82pin"
        r="16.81101"
        connectorname="GND"
        stroke="#f7bd13"
        fill="none"
      />
      <circle
        stroke-width="10"
        cy="2072.9043"
        cx="1131.3783"
        id="connector83pin"
        r="16.81101"
        connectorname="6"
        stroke="#f7bd13"
        fill="none"
      />
      <circle
        stroke-width="10"
        cy="2122.9043"
        cx="1081.3782"
        id="connector84pin"
        r="16.81101"
        connectorname="7"
        stroke="#f7bd13"
        fill="none"
      />
      <circle
        stroke-width="10"
        cy="2122.9043"
        cx="1131.3783"
        id="connector85pin"
        r="16.81101"
        connectorname="8"
        stroke="#f7bd13"
        fill="none"
      />
      <circle
        stroke-width="10"
        cy="2172.9045"
        cx="1081.3782"
        id="connector86pin"
        r="16.81101"
        connectorname="GND"
        stroke="#f7bd13"
        fill="none"
      />
      <circle
        stroke-width="10"
        cy="2172.9045"
        cx="1131.3783"
        id="connector87pin"
        r="16.81101"
        connectorname="10"
        stroke="#f7bd13"
        fill="none"
      />
    </g>
  </g>
</svg>
