<?xml version='1.0' encoding='UTF-8' standalone='no'?>
<svg
  xmlns:dc="http://purl.org/dc/elements/1.1/"
  xmlns:cc="http://creativecommons.org/ns#"
  xmlns:rdf="http://www.w3.org/1999/02/22-rdf-syntax-ns#"
  xmlns:svg="http://www.w3.org/2000/svg"
  xmlns="http://www.w3.org/2000/svg"
  viewBox="0 0 810.07125 3510.792"
  x="0in"
  width="0.81007123in"
  height="3.510792in"
  version="1.2"
  y="0in"
  id="svg2">
  <metadata
    id="metadata41">
    <rdf:RDF>
      <cc:Work
        rdf:about="">
        <dc:format>image/svg+xml</dc:format>
        <dc:type
          rdf:resource="http://purl.org/dc/dcmitype/StillImage"
        />
        <dc:title/>
      </cc:Work>
    </rdf:RDF>
  </metadata>
  <defs
    id="defs39"
  />
  <desc
    id="desc4">
    <referenceFile>basic-stamp-homework-board_1_schematic.svg</referenceFile>
  </desc>
  <g
    id="schematic">
    <rect
      x="4.9999986"
      width="700.00006"
      height="3400"
      y="105.79204"
      id="rect7"
      fill="none"
      stroke="#000000"
      stroke-width="9.99999714"
      stroke-linecap="round"
    />
    <line
      id="line110"
      x1="177.31964"
      x2="552.2616"
      y2="246.2563"
      y1="246.2563"
      fill="none"
      stroke="#555555"
      stroke-width="5"
      stroke-linecap="round"
    />
    <text
      transform="scale(1.0004886,0.99951163)"
      id="text330"
      x="249.0777"
      y="1971.1687"
      font-size="60.02931595"
      font-family="'Droid Sans'"
      text-anchor="middle"
      fill="#000000"
      stroke-width="1">Board</text>
    <text
      transform="scale(1.0004886,0.99951163)"
      font-size="60.02931595"
      y="1871.2919"
      x="249.0777"
      id="text328"
      font-family="'Droid Sans'"
      text-anchor="middle"
      fill="#000000"
      stroke-width="1">Homework</text>
    <text
      transform="scale(1.0004886,0.99951163)"
      id="text326"
      x="249.0777"
      y="1771.071"
      font-size="60.02931595"
      font-family="'Droid Sans'"
      text-anchor="middle"
      fill="#000000"
      stroke-width="1">Stamp</text>
    <line
      y1="275.25632"
      y2="248.27765"
      x2="352.49927"
      x1="352.49927"
      id="line324"
      fill="none"
      stroke="#555555"
      stroke-width="5.00000048"
      stroke-linecap="round"
    />
    <line
      id="line322"
      x1="552.50024"
      x2="552.50024"
      y2="200.97363"
      y1="246.2563"
      fill="none"
      stroke="#555555"
      stroke-width="5"
      stroke-linecap="round"
    />
    <line
      y1="246.2563"
      y2="200.97363"
      x2="175"
      x1="175"
      id="line320"
      fill="none"
      stroke="#555555"
      stroke-width="5"
      stroke-linecap="round"
    />
    <text
      font-size="49"
      y="330.31342"
      x="348.40771"
      id="text316"
      font-family="'Droid Sans'"
      text-anchor="middle"
      fill="#555555">DB9 Serial</text>
    <text
      transform="scale(1.0004886,0.99951163)"
      font-size="60.02931595"
      y="1671.1976"
      x="249.0777"
      id="label"
      font-family="'Droid Sans'"
      text-anchor="middle"
      fill="#000000"
      stroke-width="1">BASIC</text>
    <text
      font-size="49"
      y="2023.2922"
      x="678.37024"
      id="text79"
      font-family="'Droid Sans'"
      text-anchor="end"
      fill="#555555">P14</text>
    <text
      font-size="49"
      y="1923.2921"
      x="676.64758"
      id="text81"
      font-family="'Droid Sans'"
      text-anchor="end"
      fill="#555555">P15</text>
    <text
      transform="rotate(-90)"
      id="text89"
      x="-177.29436"
      y="521.48193"
      font-size="49"
      font-family="'Droid Sans'"
      text-anchor="middle"
      fill="#555555">GND</text>
    <text
      id="text77"
      font-size="35"
      y="74.906418"
      x="476.55182"
      font-family="'Droid Sans'"
      text-anchor="end"
      fill="#555555">5</text>
    <text
      transform="rotate(-90)"
      font-size="49"
      y="422.97949"
      x="-172.34319"
      id="text95"
      font-family="'Droid Sans'"
      text-anchor="middle"
      fill="#555555">DTR</text>
    <text
      x="376.84521"
      y="75.614426"
      font-size="35"
      id="text75"
      font-family="'Droid Sans'"
      text-anchor="end"
      fill="#555555">4</text>
    <text
      id="text44"
      x="678.37024"
      y="2223.7922"
      font-size="49"
      font-family="'Droid Sans'"
      text-anchor="end"
      fill="#555555">P12</text>
    <text
      id="text48"
      x="676.64758"
      y="2123.7922"
      font-size="49"
      font-family="'Droid Sans'"
      text-anchor="end"
      fill="#555555">P13</text>
    <text
      id="text60"
      x="678.37024"
      y="2423.2922"
      font-size="49"
      font-family="'Droid Sans'"
      text-anchor="end"
      fill="#555555">P10</text>
    <text
      id="text64"
      x="676.64758"
      y="2323.292"
      font-size="49"
      font-family="'Droid Sans'"
      text-anchor="end"
      fill="#555555">P11</text>
    <text
      font-size="49"
      y="2623.7922"
      x="678.37024"
      id="text76"
      font-family="'Droid Sans'"
      text-anchor="end"
      fill="#555555">P8</text>
    <text
      font-size="49"
      y="2523.792"
      x="676.64758"
      id="text80"
      font-family="'Droid Sans'"
      text-anchor="end"
      fill="#555555">P9</text>
    <text
      id="text92"
      x="678.37024"
      y="2823.292"
      font-size="49"
      font-family="'Droid Sans'"
      text-anchor="end"
      fill="#555555">P6</text>
    <text
      id="text96"
      x="676.64758"
      y="2723.2917"
      font-size="49"
      font-family="'Droid Sans'"
      text-anchor="end"
      fill="#555555">P7</text>
    <text
      font-size="49"
      y="3023.792"
      x="678.37024"
      id="text108"
      font-family="'Droid Sans'"
      text-anchor="end"
      fill="#555555">P4</text>
    <text
      font-size="49"
      y="2923.7917"
      x="676.64758"
      id="text112"
      font-family="'Droid Sans'"
      text-anchor="end"
      fill="#555555">P5</text>
    <text
      font-size="49"
      y="3223.2922"
      x="678.37024"
      id="text124"
      font-family="'Droid Sans'"
      text-anchor="end"
      fill="#555555">P2</text>
    <text
      font-size="49"
      y="3123.292"
      x="676.64758"
      id="text128"
      font-family="'Droid Sans'"
      text-anchor="end"
      fill="#555555">P3</text>
    <text
      id="text140"
      x="678.37024"
      y="3423.7922"
      font-size="49"
      font-family="'Droid Sans'"
      text-anchor="end"
      fill="#555555">P0</text>
    <text
      id="text144"
      x="676.64758"
      y="3323.7922"
      font-size="49"
      font-family="'Droid Sans'"
      text-anchor="end"
      fill="#555555">P1</text>
    <text
      transform="rotate(-90)"
      font-size="49"
      y="321.39685"
      x="-153.56047"
      id="text156"
      font-family="'Droid Sans'"
      text-anchor="middle"
      fill="#555555">RX</text>
    <text
      x="276.17212"
      y="74.906418"
      font-size="35"
      id="text158"
      font-family="'Droid Sans'"
      text-anchor="end"
      fill="#555555">3</text>
    <text
      transform="rotate(-90)"
      id="text160"
      x="-153.26042"
      y="222.23595"
      font-size="49"
      font-family="'Droid Sans'"
      text-anchor="middle"
      fill="#555555">TX</text>
    <text
      id="text162"
      font-size="35"
      y="75.614426"
      x="176.46581"
      font-family="'Droid Sans'"
      text-anchor="end"
      fill="#555555">2</text>
    <text
      id="text212"
      x="678.37024"
      y="1422.7922"
      font-size="49"
      font-family="'Droid Sans'"
      text-anchor="end"
      fill="#555555">(-)Vss</text>
    <text
      id="text216"
      x="676.64758"
      y="1322.7922"
      font-size="49"
      font-family="'Droid Sans'"
      text-anchor="end"
      fill="#555555">(-)Vss</text>
    <text
      font-size="49"
      y="1623.2922"
      x="678.37024"
      id="text228"
      font-family="'Droid Sans'"
      text-anchor="end"
      fill="#555555">(-)Vss</text>
    <text
      font-size="49"
      y="1523.2921"
      x="676.64758"
      id="text232"
      font-family="'Droid Sans'"
      text-anchor="end"
      fill="#555555">(-)Vss</text>
    <text
      font-size="49"
      y="1722.7921"
      x="676.64758"
      id="text244"
      font-family="'Droid Sans'"
      text-anchor="end"
      fill="#555555">(-)Vss</text>
    <text
      font-size="49"
      y="822.7923"
      x="678.37024"
      id="text252"
      font-family="'Droid Sans'"
      text-anchor="end"
      fill="#555555">(+5V) Vdd</text>
    <text
      font-size="49"
      y="722.7923"
      x="676.64758"
      id="text256"
      font-family="'Droid Sans'"
      text-anchor="end"
      fill="#555555">(+5V) Vdd</text>
    <text
      id="text268"
      x="678.37024"
      y="1023.2923"
      font-size="49"
      font-family="'Droid Sans'"
      text-anchor="end"
      fill="#555555">(+5V) Vdd</text>
    <text
      id="text272"
      x="676.64758"
      y="923.29224"
      font-size="49"
      font-family="'Droid Sans'"
      text-anchor="end"
      fill="#555555">(+5V) Vdd</text>
    <text
      id="text284"
      x="676.64758"
      y="1122.7921"
      font-size="49"
      font-family="'Droid Sans'"
      text-anchor="end"
      fill="#555555">(+5V) Vdd</text>
    <text
      id="text292"
      x="678.37024"
      y="423.29218"
      font-size="49"
      font-family="'Droid Sans'"
      text-anchor="end"
      fill="#555555">(+)Vin</text>
    <text
      id="text296"
      x="676.64758"
      y="323.29221"
      font-size="49"
      font-family="'Droid Sans'"
      text-anchor="end"
      fill="#555555">(+)Vin</text>
    <text
      font-size="49"
      y="523.79218"
      x="676.64758"
      id="text308"
      font-family="'Droid Sans'"
      text-anchor="end"
      fill="#555555">(+)Vin</text>
    <line
      y1="3405.96"
      y2="3405.96"
      x2="805"
      x1="710"
      id="connector0pin"
      fill="none"
      stroke="#555555"
      stroke-width="10"
      stroke-linecap="round"
    />
    <rect
      id="connector0terminal"
      x="800"
      width="10"
      height="10"
      y="3400.96"
      fill="none"
      stroke-width="0"
    />
    <line
      y1="3305.9597"
      y2="3305.9597"
      x2="805"
      x1="710"
      id="connector1pin"
      fill="none"
      stroke="#555555"
      stroke-width="10"
      stroke-linecap="round"
    />
    <rect
      id="connector1terminal"
      x="800"
      width="10"
      height="10"
      y="3301.9597"
      fill="none"
      stroke-width="0"
    />
    <line
      id="connector2pin"
      x1="710"
      x2="805"
      y2="3205.4597"
      y1="3205.4597"
      fill="none"
      stroke="#555555"
      stroke-width="10"
      stroke-linecap="round"
    />
    <rect
      y="3200.4597"
      height="10"
      width="10"
      x="800"
      id="connector2terminal"
      fill="none"
      stroke-width="0"
    />
    <line
      id="connector3pin"
      x1="710"
      x2="805"
      y2="3105.4597"
      y1="3105.4597"
      fill="none"
      stroke="#555555"
      stroke-width="10"
      stroke-linecap="round"
    />
    <rect
      y="3101.4597"
      height="10"
      width="10"
      x="800"
      id="connector3terminal"
      fill="none"
      stroke-width="0"
    />
    <line
      id="connector4pin"
      x1="710"
      x2="805"
      y2="3005.9597"
      y1="3005.9597"
      fill="none"
      stroke="#555555"
      stroke-width="10"
      stroke-linecap="round"
    />
    <rect
      y="3000.9597"
      height="10"
      width="10"
      x="800"
      id="connector4terminal"
      fill="none"
      stroke-width="0"
    />
    <line
      id="connector5pin"
      x1="710"
      x2="805"
      y2="2905.9597"
      y1="2905.9597"
      fill="none"
      stroke="#555555"
      stroke-width="10"
      stroke-linecap="round"
    />
    <rect
      y="2901.9597"
      height="10"
      width="10"
      x="800"
      id="connector5terminal"
      fill="none"
      stroke-width="0"
    />
    <line
      y1="2805.4597"
      y2="2805.4597"
      x2="805"
      x1="710"
      id="connector6pin"
      fill="none"
      stroke="#555555"
      stroke-width="10"
      stroke-linecap="round"
    />
    <rect
      id="connector6terminal"
      x="800"
      width="10"
      height="10"
      y="2800.4597"
      fill="none"
      stroke-width="0"
    />
    <line
      y1="2705.4595"
      y2="2705.4595"
      x2="805"
      x1="710"
      id="connector7pin"
      fill="none"
      stroke="#555555"
      stroke-width="10"
      stroke-linecap="round"
    />
    <rect
      id="connector7terminal"
      x="800"
      width="10"
      height="10"
      y="2701.4595"
      fill="none"
      stroke-width="0"
    />
    <line
      id="connector8pin"
      x1="710"
      x2="805"
      y2="2605.9597"
      y1="2605.9597"
      fill="none"
      stroke="#555555"
      stroke-width="10"
      stroke-linecap="round"
    />
    <rect
      y="2600.9597"
      height="10"
      width="10"
      x="800"
      id="connector8terminal"
      fill="none"
      stroke-width="0"
    />
    <line
      id="connector9pin"
      x1="710"
      x2="805"
      y2="2505.9597"
      y1="2505.9597"
      fill="none"
      stroke="#555555"
      stroke-width="10"
      stroke-linecap="round"
    />
    <rect
      y="2501.9597"
      height="10"
      width="10"
      x="800"
      id="connector9terminal"
      fill="none"
      stroke-width="0"
    />
    <line
      y1="2405.4597"
      y2="2405.4597"
      x2="805"
      x1="710"
      id="connector10pin"
      fill="none"
      stroke="#555555"
      stroke-width="10"
      stroke-linecap="round"
    />
    <rect
      id="connector10terminal"
      x="800"
      width="10"
      height="10"
      y="2400.4597"
      fill="none"
      stroke-width="0"
    />
    <line
      y1="2305.4597"
      y2="2305.4597"
      x2="805"
      x1="710"
      id="connector11pin"
      fill="none"
      stroke="#555555"
      stroke-width="10"
      stroke-linecap="round"
    />
    <rect
      id="connector11terminal"
      x="800"
      width="10"
      height="10"
      y="2301.4597"
      fill="none"
      stroke-width="0"
    />
    <line
      y1="2205.96"
      y2="2205.96"
      x2="805"
      x1="710"
      id="connector12pin"
      fill="none"
      stroke="#555555"
      stroke-width="10"
      stroke-linecap="round"
    />
    <rect
      id="connector12terminal"
      x="800"
      width="10"
      height="10"
      y="2200.96"
      fill="none"
      stroke-width="0"
    />
    <line
      y1="2105.96"
      y2="2105.96"
      x2="805"
      x1="710"
      id="connector13pin"
      fill="none"
      stroke="#555555"
      stroke-width="10"
      stroke-linecap="round"
    />
    <rect
      id="connector13terminal"
      x="800"
      width="10"
      height="10"
      y="2101.96"
      fill="none"
      stroke-width="0"
    />
    <line
      id="connector14pin"
      x1="710"
      x2="805"
      y2="2005.4598"
      y1="2005.4598"
      fill="none"
      stroke="#555555"
      stroke-width="10"
      stroke-linecap="round"
    />
    <rect
      y="2000.4598"
      height="10"
      width="10"
      x="800"
      id="connector14terminal"
      fill="none"
      stroke-width="0"
    />
    <line
      id="connector15pin"
      x1="710"
      x2="805"
      y2="1905.4598"
      y1="1905.4598"
      fill="none"
      stroke="#555555"
      stroke-width="10"
      stroke-linecap="round"
    />
    <rect
      y="1901.4598"
      height="10"
      width="10"
      x="800"
      id="connector15terminal"
      fill="none"
      stroke-width="0"
    />
    <line
      id="connector16pin"
      x1="710"
      x2="805"
      y2="704.96002"
      y1="704.96002"
      fill="none"
      stroke="#555555"
      stroke-width="10"
      stroke-linecap="round"
    />
    <rect
      y="700.96002"
      height="10"
      width="10"
      x="800"
      id="connector16terminal"
      fill="none"
      stroke-width="0"
    />
    <line
      id="connector17pin"
      x1="710"
      x2="805"
      y2="804.95996"
      y1="804.95996"
      fill="none"
      stroke="#555555"
      stroke-width="10"
      stroke-linecap="round"
    />
    <rect
      y="799.96002"
      height="10"
      width="10"
      x="800"
      id="connector17terminal"
      fill="none"
      stroke-width="0"
    />
    <line
      y1="905.4599"
      y2="905.4599"
      x2="805"
      x1="710"
      id="connector18pin"
      fill="none"
      stroke="#555555"
      stroke-width="10"
      stroke-linecap="round"
    />
    <rect
      id="connector18terminal"
      x="800"
      width="10"
      height="10"
      y="901.4599"
      fill="none"
      stroke-width="0"
    />
    <line
      y1="1005.46"
      y2="1005.46"
      x2="805"
      x1="710"
      id="connector19pin"
      fill="none"
      stroke="#555555"
      stroke-width="10"
      stroke-linecap="round"
    />
    <rect
      id="connector19terminal"
      x="800"
      width="10"
      height="10"
      y="1000.46"
      fill="none"
      stroke-width="0"
    />
    <line
      y1="1104.9598"
      y2="1104.9598"
      x2="805"
      x1="710"
      id="connector20pin"
      fill="none"
      stroke="#555555"
      stroke-width="10"
      stroke-linecap="round"
    />
    <rect
      id="connector20terminal"
      x="800"
      width="10"
      height="10"
      y="1100.9598"
      fill="none"
      stroke-width="0"
    />
    <line
      y1="305.45993"
      y2="305.45993"
      x2="805"
      x1="710"
      id="connector21pin"
      fill="none"
      stroke="#555555"
      stroke-width="10"
      stroke-linecap="round"
    />
    <rect
      id="connector21terminal"
      x="800"
      width="10"
      height="10"
      y="301.45993"
      fill="none"
      stroke-width="0"
    />
    <line
      y1="405.4599"
      y2="405.4599"
      x2="805"
      x1="710"
      id="connector22pin"
      fill="none"
      stroke="#555555"
      stroke-width="10"
      stroke-linecap="round"
    />
    <rect
      id="connector22terminal"
      x="800"
      width="10"
      height="10"
      y="400.4599"
      fill="none"
      stroke-width="0"
    />
    <line
      id="connector23pin"
      x1="710"
      x2="805"
      y2="505.95978"
      y1="505.95978"
      fill="none"
      stroke="#555555"
      stroke-width="10"
      stroke-linecap="round"
    />
    <rect
      y="501.95978"
      height="10"
      width="10"
      x="800"
      id="connector23terminal"
      fill="none"
      stroke-width="0"
    />
    <line
      y1="1304.96"
      y2="1304.96"
      x2="805"
      x1="710"
      id="connector24pin"
      fill="none"
      stroke="#555555"
      stroke-width="10"
      stroke-linecap="round"
    />
    <rect
      id="connector24terminal"
      x="800"
      width="10"
      height="10"
      y="1300.96"
      fill="none"
      stroke-width="0"
    />
    <line
      y1="1404.96"
      y2="1404.96"
      x2="805"
      x1="710"
      id="connector25pin"
      fill="none"
      stroke="#555555"
      stroke-width="10"
      stroke-linecap="round"
    />
    <rect
      id="connector25terminal"
      x="800"
      width="10"
      height="10"
      y="1399.96"
      fill="none"
      stroke-width="0"
    />
    <line
      id="connector26pin"
      x1="710"
      x2="805"
      y2="1505.4598"
      y1="1505.4598"
      fill="none"
      stroke="#555555"
      stroke-width="10"
      stroke-linecap="round"
    />
    <rect
      y="1501.4598"
      height="10"
      width="10"
      x="800"
      id="connector26terminal"
      fill="none"
      stroke-width="0"
    />
    <line
      id="connector27pin"
      x1="710"
      x2="805"
      y2="1605.46"
      y1="1605.46"
      fill="none"
      stroke="#555555"
      stroke-width="10"
      stroke-linecap="round"
    />
    <rect
      y="1600.46"
      height="10"
      width="10"
      x="800"
      id="connector27terminal"
      fill="none"
      stroke-width="0"
    />
    <line
      id="connector28pin"
      x1="710"
      x2="805"
      y2="1704.9598"
      y1="1704.9598"
      fill="none"
      stroke="#555555"
      stroke-width="10"
      stroke-linecap="round"
    />
    <rect
      y="1700.9598"
      height="10"
      width="10"
      x="800"
      id="connector28terminal"
      fill="none"
      stroke-width="0"
    />
    <line
      id="connector29pin"
      x1="204.62047"
      x2="204.62047"
      y2="100.00127"
      y1="5.0712123"
      fill="none"
      stroke="#555555"
      stroke-width="10"
      stroke-linecap="round"
    />
    <rect
      y="0.33329755"
      height="10"
      width="10"
      x="199.62053"
      id="connector29terminal"
      fill="none"
      stroke-width="0"
    />
    <line
      y1="5.0712123"
      y2="100.00127"
      x2="304.62045"
      x1="304.62045"
      id="connector30pin"
      fill="none"
      stroke="#555555"
      stroke-width="10"
      stroke-linecap="round"
    />
    <rect
      id="connector30terminal"
      x="299.62051"
      width="10"
      height="10"
      y="0.33329755"
      fill="none"
      stroke-width="0"
    />
    <line
      y1="5.0712123"
      y2="100.00127"
      x2="404.99988"
      x1="404.99988"
      id="connector31pin"
      fill="none"
      stroke="#555555"
      stroke-width="10"
      stroke-linecap="round"
    />
    <rect
      id="connector31terminal"
      x="399.99994"
      width="10"
      height="10"
      y="0.33329755"
      fill="none"
      stroke-width="0"
    />
    <line
      id="connector32pin"
      x1="505.00006"
      x2="505.00006"
      y2="100.00127"
      y1="5.0712123"
      fill="none"
      stroke="#555555"
      stroke-width="10"
      stroke-linecap="round"
    />
    <rect
      y="0.33329755"
      height="10"
      width="10"
      x="500"
      id="connector32terminal"
      fill="none"
      stroke-width="0"
    />
  </g>
</svg>
