<?xml version='1.0' encoding='UTF-8' standalone='no'?>
<svg
  xmlns="http://www.w3.org/2000/svg"
  version="1.1"
  x="0"
  y="0"
  height=".91in"
  width=".81in"
  viewBox="0 0 810 910"
>
  <desc>
    <referenceFile >Wemos_D1_Mini_Lite_05afc3b934a64b0ea12c9f502269cd48_6_schematic.svg</referenceFile>
  </desc>
  <g id="schematic">
    <rect x="105" y="5" width="600" height="900" fill="none" stroke="#000000" stroke-linecap="round" stroke-width="10"/>
    <g fill="#555555" font-family="Droid Sans" font-size="40" stroke="none">
      <g transform="translate(120,17)" text-anchor="start">
        <text x="0" y="100">RST</text>
        <text x="0" y="200">A0</text>
        <text x="0" y="300">D0</text>
        <text x="0" y="400">D5</text>
        <text x="0" y="500">D6</text>
        <text x="0" y="600">D7</text>
        <text x="0" y="700">D8</text>
        <text x="0" y="800">3V3</text>
      </g>
      <g transform="translate(688,17)" text-anchor="end">
        <text x="0" y="100">TX</text>
        <text x="0" y="200">RX</text>
        <text x="0" y="300">D1</text>
        <text x="0" y="400">D2</text>
        <text x="0" y="500">D3</text>
        <text x="0" y="600">D4</text>
        <text x="0" y="700">G</text>
        <text x="0" y="800">5V</text>
      </g>
      <g transform="translate(400,400)" text-anchor="middle" font-size="80">
        <text x="0" y="0">WeMos</text>
        <text x="0" y="80">D1 Mini</text>
        <text x="0" y="160">Lite</text>
      </g>
    </g>
    <g stroke="#555555" fill="none" stroke-linecap="round" stroke-width="10" transform="translate(5,0)">
      <line y1="100" y2="100"   x1="0" x2="100" id="connector0pin"/>
      <line y1="200" y2="200"   x1="0" x2="100" id="connector1pin"/>
      <line y1="300" y2="300"   x1="0" x2="100" id="connector2pin"/>
      <line y1="400" y2="400"   x1="0" x2="100" id="connector3pin"/>
      <line y1="500" y2="500"   x1="0" x2="100" id="connector4pin"/>
      <line y1="600" y2="600"   x1="0" x2="100" id="connector5pin"/>
      <line y1="700" y2="700"   x1="0" x2="100" id="connector6pin"/>
      <line y1="800" y2="800"   x1="0" x2="100" id="connector7pin"/>
      <line y1="100" y2="100" x1="700" x2="800" id="connector15pin"/>
      <line y1="200" y2="200" x1="700" x2="800" id="connector14pin"/>
      <line y1="300" y2="300" x1="700" x2="800" id="connector13pin"/>
      <line y1="400" y2="400" x1="700" x2="800" id="connector12pin"/>
      <line y1="500" y2="500" x1="700" x2="800" id="connector11pin"/>
      <line y1="600" y2="600" x1="700" x2="800" id="connector10pin"/>
      <line y1="700" y2="700" x1="700" x2="800" id="connector9pin"/>
      <line y1="800" y2="800" x1="700" x2="800" id="connector8pin"/>
      <g stroke="none" transform="translate(-1,-1)">
        <rect height="2" width="2"   x="0" y="100" id="connector0terminal"/>
        <rect height="2" width="2"   x="0" y="200" id="connector1terminal"/>
        <rect height="2" width="2"   x="0" y="300" id="connector2terminal"/>
        <rect height="2" width="2"   x="0" y="400" id="connector3terminal"/>
        <rect height="2" width="2"   x="0" y="500" id="connector4terminal"/>
        <rect height="2" width="2"   x="0" y="600" id="connector5terminal"/>
        <rect height="2" width="2"   x="0" y="700" id="connector6terminal"/>
        <rect height="2" width="2"   x="0" y="800" id="connector7terminal"/>
        <rect height="2" width="2" x="800" y="100" id="connector15terminal"/>
        <rect height="2" width="2" x="800" y="200" id="connector14terminal"/>
        <rect height="2" width="2" x="800" y="300" id="connector13terminal"/>
        <rect height="2" width="2" x="800" y="400" id="connector12terminal"/>
        <rect height="2" width="2" x="800" y="500" id="connector11terminal"/>
        <rect height="2" width="2" x="800" y="600" id="connector10terminal"/>
        <rect height="2" width="2" x="800" y="700" id="connector9terminal"/>
        <rect height="2" width="2" x="800" y="800" id="connector8terminal"/>
      </g>
    </g>
  </g>
</svg>
