<?xml version='1.0' encoding='UTF-8' standalone='no'?>
<svg
  xmlns:dc="http://purl.org/dc/elements/1.1/"
  xmlns:cc="http://creativecommons.org/ns#"
  xmlns:rdf="http://www.w3.org/1999/02/22-rdf-syntax-ns#"
  xmlns:svg="http://www.w3.org/2000/svg"
  xmlns="http://www.w3.org/2000/svg"
  id="svg2"
  y="0in"
  version="1.2"
  height="0.91000003in"
  width="0.71006972in"
  x="0in"
  viewBox="0 0 710.06973 910.00001">
  <metadata
    id="metadata41">
    <rdf:RDF>
      <cc:Work
        rdf:about="">
        <dc:format>image/svg+xml</dc:format>
        <dc:type
          rdf:resource="http://purl.org/dc/dcmitype/StillImage"
        />
        <dc:title/>
      </cc:Work>
    </rdf:RDF>
  </metadata>
  <defs
    id="defs39"
  />
  <desc
    id="desc4">
    <referenceFile>1_54in-tft-lcd_1_schematic.svg</referenceFile>
  </desc>
  <g
    id="schematic">
    <rect
      stroke-linecap="round"
      stroke-width="10"
      stroke="#000000"
      fill="none"
      x="105.06967"
      width="600.00006"
      height="900.00006"
      y="5"
      id="rect7"
    />
    <text
      font-size="60"
      y="281.51782"
      x="402.96677"
      id="label"
      font-family="'Droid Sans'"
      text-anchor="middle"
      fill="#000000">1.54in</text>
    <text
      fill="#555555"
      text-anchor="start"
      font-family="'Droid Sans'"
      id="label0"
      x="134.92879"
      y="122.84821"
      font-size="49">BLK</text>
    <text
      fill="#555555"
      text-anchor="start"
      font-family="'Droid Sans'"
      x="62.511795"
      y="84.999992"
      font-size="35"
      id="text15">8</text>
    <text
      fill="#555555"
      text-anchor="start"
      font-family="'Droid Sans'"
      id="label1"
      x="130.58423"
      y="222.5"
      font-size="49">CS</text>
    <text
      fill="#555555"
      text-anchor="start"
      font-family="'Droid Sans'"
      x="57.683868"
      y="184.97668"
      font-size="35"
      id="text22">7</text>
    <text
      fill="#555555"
      text-anchor="start"
      font-family="'Droid Sans'"
      id="text42"
      x="134.92879"
      y="322.50131"
      font-size="49">DC</text>
    <text
      fill="#555555"
      text-anchor="start"
      font-family="'Droid Sans'"
      x="62.511795"
      y="284.65308"
      font-size="35"
      id="text44">6</text>
    <text
      fill="#555555"
      text-anchor="start"
      font-family="'Droid Sans'"
      id="text46"
      x="130.58423"
      y="422.15311"
      font-size="49">RES</text>
    <text
      fill="#555555"
      text-anchor="start"
      font-family="'Droid Sans'"
      x="57.683868"
      y="384.62979"
      font-size="35"
      id="text48">5</text>
    <text
      fill="#555555"
      text-anchor="start"
      font-family="'Droid Sans'"
      id="text58"
      x="134.92879"
      y="522.50134"
      font-size="49">SDA</text>
    <text
      fill="#555555"
      text-anchor="start"
      font-family="'Droid Sans'"
      x="62.511795"
      y="484.65305"
      font-size="35"
      id="text60">4</text>
    <text
      fill="#555555"
      text-anchor="start"
      font-family="'Droid Sans'"
      id="text62"
      x="130.58423"
      y="622.15314"
      font-size="49">SCL</text>
    <text
      fill="#555555"
      text-anchor="start"
      font-family="'Droid Sans'"
      x="57.683868"
      y="584.62982"
      font-size="35"
      id="text64">3</text>
    <text
      fill="#555555"
      text-anchor="start"
      font-family="'Droid Sans'"
      id="text74"
      x="134.92879"
      y="722.15442"
      font-size="49">VCC</text>
    <text
      fill="#555555"
      text-anchor="start"
      font-family="'Droid Sans'"
      x="62.511795"
      y="684.30621"
      font-size="35"
      id="text76">2</text>
    <text
      fill="#555555"
      text-anchor="start"
      font-family="'Droid Sans'"
      id="text78"
      x="130.58423"
      y="821.80621"
      font-size="49">GND</text>
    <text
      fill="#555555"
      text-anchor="start"
      font-family="'Droid Sans'"
      x="57.683868"
      y="784.2829"
      font-size="35"
      id="text80">1</text>
    <text
      font-size="60"
      y="381.87671"
      x="402.96677"
      id="text124"
      font-family="'Droid Sans'"
      text-anchor="middle"
      fill="#000000">240x240</text>
    <text
      font-size="60"
      y="482.17355"
      x="402.96677"
      id="text126"
      font-family="'Droid Sans'"
      text-anchor="middle"
      fill="#000000">SPI TFT</text>
    <text
      font-size="60"
      y="582.11499"
      x="402.96677"
      id="text128"
      font-family="'Droid Sans'"
      text-anchor="middle"
      fill="#000000">Display</text>
    <line
      stroke-linecap="round"
      stroke-width="10"
      stroke="#555555"
      fill="none"
      y1="804.44464"
      y2="804.44464"
      x2="100.18991"
      x1="5.0000005"
      id="connector0pin"
    />
    <rect
      stroke-width="0"
      fill="none"
      id="connector0terminal"
      x="0.069665879"
      width="10"
      height="10"
      y="799.30621"
    />
    <line
      stroke-linecap="round"
      stroke-width="10"
      stroke="#555555"
      fill="none"
      y1="704.44464"
      y2="704.44464"
      x2="100.18991"
      x1="5"
      id="connector1pin"
    />
    <rect
      stroke-width="0"
      fill="none"
      id="connector1terminal"
      x="0.069665879"
      width="10"
      height="10"
      y="699.58405"
    />
    <line
      stroke-linecap="round"
      stroke-width="10"
      stroke="#555555"
      fill="none"
      y1="604.79156"
      y2="604.79156"
      x2="100.18991"
      x1="5.0000005"
      id="connector2pin"
    />
    <rect
      stroke-width="0"
      fill="none"
      id="connector2terminal"
      x="0.069665879"
      width="10"
      height="10"
      y="599.65314"
    />
    <line
      stroke-linecap="round"
      stroke-width="10"
      stroke="#555555"
      fill="none"
      y1="504.79147"
      y2="504.79147"
      x2="100.18991"
      x1="5"
      id="connector3pin"
    />
    <rect
      stroke-width="0"
      fill="none"
      id="connector3terminal"
      x="0.069665879"
      width="10"
      height="10"
      y="499.93088"
    />
    <line
      stroke-linecap="round"
      stroke-width="10"
      stroke="#555555"
      fill="none"
      y1="404.79153"
      y2="404.79153"
      x2="100.18991"
      x1="5.0000005"
      id="connector4pin"
    />
    <rect
      stroke-width="0"
      fill="none"
      id="connector4terminal"
      x="0.069665879"
      width="10"
      height="10"
      y="399.65311"
    />
    <line
      stroke-linecap="round"
      stroke-width="10"
      stroke="#555555"
      fill="none"
      y1="304.7915"
      y2="304.7915"
      x2="100.18991"
      x1="5"
      id="connector5pin"
    />
    <rect
      stroke-width="0"
      fill="none"
      id="connector5terminal"
      x="0.069665879"
      width="10"
      height="10"
      y="299.93091"
    />
    <line
      stroke-linecap="round"
      stroke-width="10"
      stroke="#555555"
      fill="none"
      y1="205.13843"
      y2="205.13843"
      x2="100.18991"
      x1="5.0000005"
      id="connector6pin"
    />
    <rect
      stroke-width="0"
      fill="none"
      id="connector6terminal"
      x="0.069665879"
      width="10"
      height="10"
      y="200"
    />
    <line
      stroke-linecap="round"
      stroke-width="10"
      stroke="#555555"
      fill="none"
      y1="105.13842"
      y2="105.13842"
      x2="100.18991"
      x1="5"
      id="connector7pin"
    />
    <rect
      stroke-width="0"
      fill="none"
      id="connector7terminal"
      x="0.069665879"
      width="10"
      height="10"
      y="100.27781"
    />
  </g>
</svg>
