<?xml version='1.0' encoding='UTF-8' standalone='no'?>
<svg
  xmlns:dc="http://purl.org/dc/elements/1.1/"
  xmlns:cc="http://creativecommons.org/ns#"
  xmlns:rdf="http://www.w3.org/1999/02/22-rdf-syntax-ns#"
  xmlns:svg="http://www.w3.org/2000/svg"
  xmlns="http://www.w3.org/2000/svg"
  shape-rendering="crispEdges"
  viewBox="0 0 708.66144 796.97244"
  x="0in"
  width="0.70866144in"
  height="0.79697245in"
  version="1.2"
  y="0in"
  id="svg2">
  <metadata
    id="metadata27">
    <rdf:RDF>
      <cc:Work
        rdf:about="">
        <dc:format>image/svg+xml</dc:format>
        <dc:type
          rdf:resource="http://purl.org/dc/dcmitype/StillImage"
        />
        <dc:title/>
      </cc:Work>
    </rdf:RDF>
  </metadata>
  <defs
    id="defs25"
  />
  <desc
    id="desc4">
    <referenceFile>alpha-sr1712f-rotary-switch-1-pole_1_pcb.svg</referenceFile>
  </desc>
  <g
    id="silkscreen">
    <line
      y1="757.36218"
      y2="29.015747"
      x2="691.4566"
      x1="691.4566"
      id="line11"
      stroke="#000000"
      stroke-width="10"
    />
    <line
      y1="758.50391"
      y2="758.50391"
      x2="690.39398"
      x1="13.228325"
      id="line9"
      stroke="#000000"
      stroke-width="10"
    />
    <line
      y1="29.000763"
      y2="757.34717"
      x2="13.282616"
      x1="13.282616"
      id="line7"
      stroke="#000000"
      stroke-width="10"
    />
    <line
      y1="26.22049"
      y2="26.22049"
      x2="690.39398"
      x1="13.228325"
      id="line58"
      stroke="#000000"
      stroke-width="10"
    />
  </g>
  <g
    id="copper1">
    <g
      id="copper0">
      <circle
        id="nonconn0"
        cx="39.370079"
        cy="354.29135"
        r="39.370079"
        fill="#000000"
        stroke="none"
        stroke-width="0"
      />
      <circle
        id="nonconn1"
        cx="669.29132"
        cy="354.29135"
        r="39.370079"
        fill="#000000"
        stroke="none"
        stroke-width="0"
      />
      <circle
        stroke-width="20"
        stroke="#ffbf00"
        fill="none"
        id="connector0pin"
        gorn="0.2.0.1"
        cx="550.72833"
        cy="757.97241"
        r="27.5"
      />
      <circle
        stroke-width="20"
        stroke="#ffbf00"
        fill="none"
        id="connector1pin"
        gorn="0.2.0.2"
        cx="452.30313"
        cy="759.47241"
        r="27.5"
      />
      <circle
        stroke-width="20"
        stroke="#ffbf00"
        fill="none"
        id="connector2pin"
        gorn="0.2.0.3"
        cx="353.87796"
        cy="757.97241"
        r="27.5"
      />
      <circle
        stroke-width="20"
        stroke="#ffbf00"
        fill="none"
        id="connector3pin"
        gorn="0.2.0.3"
        cx="255.45273"
        cy="757.97241"
        r="27.5"
      />
      <circle
        stroke-width="20"
        stroke="#ffbf00"
        fill="none"
        id="connector4pin"
        gorn="0.2.0.3"
        cx="157.02756"
        cy="757.97241"
        r="27.5"
      />
      <circle
        stroke-width="20"
        stroke="#ffbf00"
        fill="none"
        id="connector5pin"
        gorn="0.2.0.3"
        cx="157.02756"
        cy="37.5"
        r="27.5"
      />
      <circle
        stroke-width="20"
        stroke="#ffbf00"
        fill="none"
        id="connector6pin"
        gorn="0.2.0.3"
        cx="255.45273"
        cy="37.5"
        r="27.5"
      />
      <circle
        stroke-width="20"
        stroke="#ffbf00"
        fill="none"
        id="connector7pin"
        gorn="0.2.0.3"
        cx="353.87796"
        cy="37.5"
        r="27.5"
      />
      <circle
        stroke-width="20"
        stroke="#ffbf00"
        fill="none"
        id="connector8pin"
        gorn="0.2.0.3"
        cx="452.30313"
        cy="37.5"
        r="27.5"
      />
      <circle
        stroke-width="20"
        stroke="#ffbf00"
        fill="none"
        id="connector9pin"
        gorn="0.2.0.3"
        cx="550.72833"
        cy="37.5"
        r="27.5"
      />
    </g>
  </g>
</svg>
