<?xml version='1.0' encoding='UTF-8' standalone='no'?>
<svg xmlns="http://www.w3.org/2000/svg" x="0in" viewBox="0 0 28.8 23.76" gorn="0" height="0.33in" width="0.4in" version="1.2"  id="svg2064" y="0in">
    <desc >
        <referenceFile >LS7083N_breadboard.svg</referenceFile>
    </desc>
    <metadata  id="metadata2070">
        <rdf:RDF xmlns:rdf="http://www.w3.org/1999/02/22-rdf-syntax-ns#">
            <cc:Work xmlns:rdf="http://www.w3.org/1999/02/22-rdf-syntax-ns#" xmlns:cc="http://creativecommons.org/ns#" rdf:about="">
                <dc:format xmlns:dc="http://purl.org/dc/elements/1.1/">image/svg+xml</dc:format>
                <dc:type xmlns:rdf="http://www.w3.org/1999/02/22-rdf-syntax-ns#" xmlns:dc="http://purl.org/dc/elements/1.1/" rdf:resource="http://purl.org/dc/dcmitype/StillImage"/>
            </cc:Work>
        </rdf:RDF>
    </metadata>
    <defs  id="defs2068"/>
    <g gorn="0.3"  id="g2062" partID="854149380">
        <g gorn="0.3.0"  id="breadboard">
            <rect x="2.52" gorn="0.3.0.0" height="4.8096" width="2.16" fill="#8c8c8c"  id="rect20" y="18.9504"/>
            <rect x="9.72" gorn="0.3.0.1" height="4.8096" width="2.16" fill="#8c8c8c"  id="rect22" y="18.9504"/>
            <rect x="16.92" gorn="0.3.0.2" height="4.8096" width="2.16" fill="#8c8c8c"  id="rect24" y="18.9504"/>
            <rect x="24.12" gorn="0.3.0.3" height="4.8096" width="2.16" fill="#8c8c8c"  id="rect26" y="18.9504"/>
            <rect x="2.52" gorn="0.3.0.4" height="4.8096" width="2.16" fill="#8c8c8c"  id="rect28" y="0"/>
            <rect x="9.72" gorn="0.3.0.5" height="4.8096" width="2.16" fill="#8c8c8c"  id="rect30" y="0"/>
            <rect x="16.92" gorn="0.3.0.6" height="4.8096" width="2.16" fill="#8c8c8c"  id="rect32" y="0"/>
            <rect x="24.12" gorn="0.3.0.7" height="4.8096" width="2.16" fill="#8c8c8c"  id="rect34" y="0"/>
            <polygon gorn="0.3.0.8" fill="#3d3d3d" points="0,2.16,28.8,2.16,28.26,8.28,0,8.28,0,2.16"  id="polygon36"/>
            <polygon gorn="0.3.0.9" points="0,15.48,28.26,15.48,28.8,21.6,0,21.6,0,15.48"  id="polygon38"/>
            <polygon gorn="0.3.0.10" fill="#8c8c8c" points="6.12,3.1248,6.12,2.3472,4.68,1.6848,2.52,1.6848,2.52,3.1248,6.12,3.1248"  id="polygon40"/>
            <polygon gorn="0.3.0.11" fill="#8c8c8c" points="13.32,3.1248,13.32,2.3472,11.88,1.6848,9.72,1.6848,8.28,2.3472,8.28,3.1248,13.32,3.1248"  id="polygon42"/>
            <polygon gorn="0.3.0.12" fill="#8c8c8c" points="26.28,3.1248,26.28,1.6848,24.12,1.6848,22.68,2.3472,22.68,3.1248,26.28,3.1248"  id="polygon44"/>
            <polygon gorn="0.3.0.13" fill="#8c8c8c" points="20.52,3.1248,20.52,2.3472,19.08,1.6848,16.92,1.6848,15.48,2.3472,15.48,3.1248,20.52,3.1248"  id="polygon46"/>
            <polygon gorn="0.3.0.14" fill="#8c8c8c" points="2.52,20.6352,2.52,22.0752,4.68,22.0752,6.12,21.4128,6.12,20.6352,2.52,20.6352"  id="polygon48"/>
            <polygon gorn="0.3.0.15" fill="#8c8c8c" points="22.68,20.6352,22.68,21.4128,24.12,22.0752,26.28,22.0752,26.28,20.6352,22.68,20.6352"  id="polygon50"/>
            <polygon gorn="0.3.0.16" fill="#8c8c8c" points="8.28,20.6352,8.28,21.4128,9.72,22.0752,11.88,22.0752,13.32,21.4128,13.32,20.6352,8.28,20.6352"  id="polygon52"/>
            <polygon gorn="0.3.0.17" fill="#8c8c8c" points="15.48,20.6352,15.48,21.4128,16.92,22.0752,19.08,22.0752,20.52,21.4128,20.52,20.6352,15.48,20.6352"  id="polygon54"/>
            <polygon gorn="0.3.0.18" fill="#141414" points="28.8,2.16,28.26,3.9312,27.2542,3.9312,27.2542,19.8216,28.26,19.8288,28.8,21.6,28.8,2.16"  id="polygon56"/>
            <polygon gorn="0.3.0.19" fill="#1f1f1f" points="0,2.16,0.54,3.9312,0.54,8.28,3.6,8.28,3.6,15.48,0.54,15.48,0.54,19.8288,0,21.6,0,2.16"  id="polygon58"/>
            <polygon gorn="0.3.0.20" fill="#1c1c1c" points="3.6,8.28,0.54,8.2512,0.4032,9.7776,0.4032,11.8728,3.6,11.8728,3.6,8.28"  id="polygon60"/>
            <polygon gorn="0.3.0.21" fill="#383838" points="0.54,15.516,3.6,15.516,3.6,11.8728,0.4032,11.8728,0.4032,13.9824,0.54,15.516"  id="polygon62"/>
            <path gorn="0.3.0.22" d="M0.54,3.9312L0.54,8.244C2.2536,8.568,3.5568,10.0656,3.5568,11.8728C3.5568,13.68,2.2608,15.1848,0.54,15.5088L0.54,19.8216L28.26,19.8216L28.26,3.9312L0.54,3.9312z" fill="#303030"  id="path64"/>
            <path gorn="0.3.0.23" d="M0.4032,9.7776L0.4032,13.9752C1.4616,13.8528,2.2896,12.9672,2.2896,11.8728C2.2896,10.7784,1.4688,9.9,0.4032,9.7776z" fill="#262626"  id="path66"/>
            <circle r="1.4832" gorn="0.3.0.24" cx="4.68" fill="#212121" cy="16.8984"  id="circle68"/>
            <g font-size="24" gorn="0.3.0.25" xml:space="preserve" xmlns:xml="http://www.w3.org/XML/1998/namespace" style="line-height:1.25;font-family:OCRA;-inkscape-font-specification:OCRA;"  stroke-width="0.75" id="text2074"/>
            <g font-size="4" gorn="0.3.0.26" xml:space="preserve" xmlns:xml="http://www.w3.org/XML/1998/namespace" style="font-style:normal;font-variant:normal;font-weight:bold;font-stretch:normal;line-height:1.25;font-family:OCRA;-inkscape-font-specification:'OCRA Bold';" fill="#000000"  stroke-width="0.75" id="text2082">
                <text font-size="4" x="2.4224997" gorn="0.3.0.26.0" style="font-style:normal;font-variant:normal;font-weight:bold;font-stretch:normal;font-family:OCRA;-inkscape-font-specification:'OCRA Bold';" fill="#e6e6e6"  stroke-width="0.75" id="tspan2084" y="8.7657185">LS7083N</text>
            </g>
        </g>
    </g>
</svg>
