<?xml version='1.0' encoding='UTF-8' standalone='no'?>
<svg xmlns="http://www.w3.org/2000/svg"  viewBox="0 0 3421.0012 2002.0214" height="2.0020208in" version="1.1" gorn="0" width="3.4210002in" id="svg4136">
    <desc  id="desc2">
        <referenceFile >2.8lcd_05ce3fb27514cf8fb52325ad444b9354_9_pcb.svg</referenceFile>
    </desc>
    <metadata  id="metadata4197">
        <rdf:RDF xmlns:rdf="http://www.w3.org/1999/02/22-rdf-syntax-ns#">
            <cc:Work xmlns:rdf="http://www.w3.org/1999/02/22-rdf-syntax-ns#" xmlns:cc="http://creativecommons.org/ns#" rdf:about="">
                <dc:format xmlns:dc="http://purl.org/dc/elements/1.1/">image/svg+xml</dc:format>
                <dc:type xmlns:rdf="http://www.w3.org/1999/02/22-rdf-syntax-ns#" xmlns:dc="http://purl.org/dc/elements/1.1/" rdf:resource="http://purl.org/dc/dcmitype/StillImage"/>
                <dc:title xmlns:dc="http://purl.org/dc/elements/1.1/"/>
            </cc:Work>
        </rdf:RDF>
    </metadata>
    <defs  id="defs4195"/>
    <g  gorn="0.3" id="silkscreen">
        <rect stroke="#000000" height="1988.0212" width="3407.001" x="7.0000892" y="7.0000892" fill-opacity="1" stroke-dashoffset="0" stroke-dasharray="none" id="rect8384" fill="none" gorn="0.3.0" stroke-miterlimit="4" opacity="1" stroke-width="14.00017834" stroke-linejoin="round" stroke-linecap="round"  stroke-opacity="1"/>
        <g  transform="scale(1,-1)">
            <ellipse fill-opacity="1" stroke-dasharray="none" stroke-opacity="1" cx="301.2915" cy="-1867.064" fill="#000000"  stroke-miterlimit="4" stroke="#000000" rx="59.05513" ry="59.055752" gorn="0.3.1.0" stroke-width="14.00017834" id="circle4189"/>
        </g>
        <g  transform="scale(1,-1)">
            <ellipse fill-opacity="1" stroke-dasharray="none" stroke-opacity="1" cx="301.2915" cy="-134.76166" fill="#000000"  stroke-miterlimit="4" stroke="#000000" rx="59.05513" ry="59.055752" gorn="0.3.2.0" stroke-width="14.00017834" id="circle4173"/>
        </g>
        <g  transform="scale(1,-1)">
            <ellipse fill-opacity="1" stroke-dasharray="none" stroke-opacity="1" cx="3293.4182" cy="-134.76166" fill="#000000"  stroke-miterlimit="4" stroke="#000000" rx="59.05513" ry="59.055752" gorn="0.3.3.0" stroke-width="14.00017834" id="circle4185"/>
        </g>
        <g  transform="scale(1,-1)">
            <ellipse fill-opacity="1" stroke-dasharray="none" stroke-opacity="1" cx="3293.4182" cy="-1867.064" fill="#000000"  stroke-miterlimit="4" stroke="#000000" rx="59.05513" ry="59.055752" gorn="0.3.4.0" stroke-width="14.00017834" id="circle4187"/>
        </g>
    </g>
    <g  gorn="0.4" id="copper1">
        <g  gorn="0.4.0" id="copper0">
            <g  transform="scale(1,-1)">
                <circle cx="80.740234" cy="-320.43884" fill="#ffffff"  stroke-miterlimit="4" stroke="#ffbf00" r="29" gorn="0.4.0.0.0" stroke-width="20" id="connector0pin"/>
            </g>
            <g  transform="scale(1,-1)">
                <circle cx="3290.7415" cy="-819.98383" fill="#ffffff"  stroke-miterlimit="4" stroke="#ffbf00" r="29" gorn="0.4.0.1.0" stroke-width="20" id="connector18pin"/>
            </g>
            <g  transform="scale(1,-1)">
                <circle cx="3290.7415" cy="-1019.9854" fill="#ffffff"  stroke-miterlimit="4" stroke="#ffbf00" r="29" gorn="0.4.0.2.0" stroke-width="20" id="connector16pin"/>
            </g>
            <g  transform="scale(1,-1)">
                <circle cx="3290.7415" cy="-1119.9861" fill="#ffffff"  stroke-miterlimit="4" stroke="#ffbf00" r="29" gorn="0.4.0.3.0" stroke-width="20" id="connector15pin"/>
            </g>
            <g  transform="scale(1,-1)">
                <circle cx="80.740234" cy="-1620.4586" fill="#ffffff"  stroke-miterlimit="4" stroke="#ffbf00" r="29" gorn="0.4.0.4.0" stroke-width="20" id="connector14pin"/>
            </g>
            <g  transform="scale(1,-1)">
                <circle cx="3290.7415" cy="-919.98456" fill="#ffffff"  stroke-miterlimit="4" stroke="#ffbf00" r="29" gorn="0.4.0.5.0" stroke-width="20" id="connector17pin"/>
            </g>
            <g  transform="scale(1,-1)">
                <circle cx="80.740234" cy="-720.4469" fill="#ffffff"  stroke-miterlimit="4" stroke="#ffbf00" r="29" gorn="0.4.0.6.0" stroke-width="20" id="connector4pin"/>
            </g>
            <g  transform="scale(1,-1)">
                <circle cx="80.851349" cy="-420.3299" fill="#ffffff"  stroke-miterlimit="4" stroke="#ffbf00" r="29" gorn="0.4.0.7.0" stroke-width="20" id="connector1pin"/>
            </g>
            <g  transform="scale(1,-1)">
                <circle cx="80.740234" cy="-520.44537" fill="#ffffff"  stroke-miterlimit="4" stroke="#ffbf00" r="29" gorn="0.4.0.8.0" stroke-width="20" id="connector2pin"/>
            </g>
            <g  transform="scale(1,-1)">
                <circle cx="80.740234" cy="-620.44116" fill="#ffffff"  stroke-miterlimit="4" stroke="#ffbf00" r="29" gorn="0.4.0.9.0" stroke-width="20" id="connector3pin"/>
            </g>
            <g  transform="scale(1,-1)">
                <circle cx="80.740234" cy="-920.44843" fill="#ffffff"  stroke-miterlimit="4" stroke="#ffbf00" r="29" gorn="0.4.0.10.0" stroke-width="20" id="connector6pin"/>
            </g>
            <g  transform="scale(1,-1)">
                <circle cx="80.740234" cy="-820.44769" fill="#ffffff"  stroke-miterlimit="4" stroke="#ffbf00" r="29" gorn="0.4.0.11.0" stroke-width="20" id="connector5pin"/>
            </g>
            <g  transform="scale(1,-1)">
                <circle cx="80.740234" cy="-1020.4492" fill="#ffffff"  stroke-miterlimit="4" stroke="#ffbf00" r="29" gorn="0.4.0.12.0" stroke-width="20" id="connector7pin"/>
            </g>
            <g  transform="scale(1,-1)">
                <circle cx="80.740234" cy="-1520.4529" fill="#ffffff"  stroke-miterlimit="41" stroke="#ffbf00" r="29" gorn="0.4.0.13.0" stroke-width="20" id="connector13pin"/>
            </g>
            <g  transform="scale(1,-1)">
                <circle cx="80.740234" cy="-1420.4521" fill="#ffffff"  stroke-miterlimit="4" stroke="#ffbf00" r="29" gorn="0.4.0.14.0" stroke-width="20" id="connector12pin"/>
            </g>
            <g  transform="scale(1,-1)">
                <circle fill-opacity="1" stroke-dasharray="none" stroke-opacity="1" cx="80.740234" cy="-1220.4507" fill="#ffffff"  stroke-miterlimit="4" stroke="#ffbf00" r="29" gorn="0.4.0.15.0" stroke-width="20.00025558" id="connector10pin"/>
            </g>
            <g  transform="scale(1,-1)">
                <circle cx="80.740234" cy="-1320.4514" fill="#ffffff"  stroke-miterlimit="4" stroke="#ffbf00" r="29" gorn="0.4.0.16.0" stroke-width="20" id="connector11pin"/>
            </g>
            <g  transform="scale(1,-1)">
                <circle cx="80.740234" cy="-1120.4498" fill="#ffffff"  stroke-miterlimit="4" stroke="#ffbf00" r="29" gorn="0.4.0.17.0" stroke-width="20" id="connector9pin"/>
            </g>
            <rect stroke="#ffbf00" height="60.000641" width="60.000011" x="3260.5005" y="790.04346" fill-opacity="1" stroke-dashoffset="0" stroke-dasharray="none" id="rect439" fill="none" gorn="0.4.0.18" stroke-miterlimit="4" opacity="1" stroke-width="15.00019169" stroke-linejoin="miter" stroke-linecap="round"  stroke-opacity="1"/>
            <rect stroke="#ffbf00" height="60.000641" width="60.000011" x="50.500092" y="290.03464" fill-opacity="1" stroke-dashoffset="0" stroke-dasharray="none" id="rect4160" fill="none" gorn="0.4.0.19" stroke-miterlimit="4" opacity="1" stroke-width="15.00019169" stroke-linejoin="miter" stroke-linecap="round"  stroke-opacity="1"/>
        </g>
    </g>
</svg>
