<?xml version='1.0' encoding='UTF-8' standalone='no'?>
<svg
  xmlns:dc="http://purl.org/dc/elements/1.1/"
  xmlns:cc="http://creativecommons.org/ns#"
  xmlns:rdf="http://www.w3.org/1999/02/22-rdf-syntax-ns#"
  xmlns:svg="http://www.w3.org/2000/svg"
  xmlns="http://www.w3.org/2000/svg"
  id="svg5063"
  x="0in"
  gorn="0"
  viewBox="0 0 371.09385 765.98007"
  width="0.37109372in"
  y="0in"
  version="1.2"
  height="0.76597983in">
  <desc
    id="desc2">
    <referenceFile>5to3v3_1b8523d78c04d8b24bf0e6b6343dcb09_2_breadboard.svg</referenceFile>
  </desc>
  <metadata
    id="metadata5114">
    <rdf:RDF>
      <cc:Work
        rdf:about="">
        <dc:format>image/svg+xml</dc:format>
        <dc:type
          rdf:resource="http://purl.org/dc/dcmitype/StillImage"
        />
        <dc:title/>
      </cc:Work>
    </rdf:RDF>
  </metadata>
  <defs
    id="defs5112">
                                                                                                                                                                    </defs>
  <g
    id="breadboard">
    <rect
      id="rect12917"
      x="267.53186"
      gorn="0.6.0.0.0.0.0.0.0.0.0.0.0.0.0.0.0.0.0.0.0.6.36"
      width="29.986576"
      y="571.07104"
      height="13.888847"
      fill="none"
      stroke-width="13.8888"
    />
    <rect
      id="rect12919"
      x="167.52989"
      gorn="0.6.0.0.0.0.0.0.0.0.0.0.0.0.0.0.0.0.0.0.0.6.37"
      width="30.000465"
      y="571.07104"
      height="13.888847"
      fill="none"
      stroke-width="13.8888"
    />
    <rect
      id="rect3419"
      x="67.514626"
      gorn="0.6.0.0.0.0.0.0.0.0.0.0.0.0.0.0.0.0.0.0.0.6.38"
      width="30.000465"
      y="571.07104"
      height="13.888847"
      fill="none"
      stroke-width="13.8888"
    />
    <path
      d="M 89.830839,610.27191 V 750.99372"
      id="path5065"
      stroke="#8c8c8c"
      gorn="0.3"
      stroke-width="29.9727"
      fill="none"
      stroke-linecap="round"
      stroke-linejoin="round"
    />
    <path
      d="M 189.83222,610.27191 V 750.99372"
      id="path5067"
      stroke="#8c8c8c"
      gorn="0.4"
      stroke-width="29.9727"
      fill="none"
      stroke-linecap="round"
      stroke-linejoin="round"
    />
    <path
      d="M 289.83388,610.27191 V 750.99372"
      id="path5069"
      stroke="#8c8c8c"
      gorn="0.5"
      stroke-width="29.9727"
      fill="none"
      stroke-linecap="round"
      stroke-linejoin="round"
    />
    <rect
      x="274.86172"
      width="29.98658"
      y="529.68878"
      height="13.888849"
      id="rect9"
      fill="none"
      stroke-width="13.8888"
    />
    <rect
      x="174.85976"
      width="30.000467"
      y="529.68878"
      height="13.888849"
      id="rect11"
      fill="none"
      stroke-width="13.8888"
    />
    <rect
      x="74.84449"
      width="30.000467"
      y="529.68878"
      height="13.888849"
      id="rect13"
      fill="none"
      stroke-width="13.8888"
    />
    <path
      d="m 74.844493,568.60536 v 41.66655 h 30.000467 v -41.66655"
      id="path5082"
      gorn="0.6.0.0.0.0.0.0.0.0.0.0.0.0.0.0.0.0.0.0.0.6.0"
      fill="#8c8c8c"
      stroke-width="13.8888"
    />
    <path
      d="m 174.85977,568.60536 v 41.66655 h 30.00047 v -41.66655"
      id="path5084"
      gorn="0.6.0.0.0.0.0.0.0.0.0.0.0.0.0.0.0.0.0.0.0.6.1"
      fill="#8c8c8c"
      stroke-width="13.8888"
    />
    <path
      d="m 304.81995,568.60536 v 41.66655 h -30.00047 v -41.66655"
      id="path5086"
      gorn="0.6.0.0.0.0.0.0.0.0.0.0.0.0.0.0.0.0.0.0.0.6.2"
      fill="#8c8c8c"
      stroke-width="13.8888"
    />
    <rect
      id="rect5088"
      x="74.84449"
      gorn="0.6.0.0.0.0.0.0.0.0.0.0.0.0.0.0.0.0.0.0.0.6.3"
      width="49.181248"
      y="538.34155"
      height="44.735981"
      fill="#8c8c8c"
      stroke-width="13.8888"
    />
    <rect
      id="rect5090"
      x="255.66592"
      gorn="0.6.0.0.0.0.0.0.0.0.0.0.0.0.0.0.0.0.0.0.0.6.4"
      width="49.181248"
      y="538.34155"
      height="44.735981"
      fill="#8c8c8c"
      stroke-width="13.8888"
    />
    <rect
      id="rect5092"
      x="165.24854"
      gorn="0.6.0.0.0.0.0.0.0.0.0.0.0.0.0.0.0.0.0.0.0.6.5"
      width="49.181248"
      y="538.34155"
      height="44.735981"
      fill="#8c8c8c"
      stroke-width="13.8888"
    />
    <path
      d="m 71.108296,308.63388 c 0,0 9.069571,12.48608 9.069571,29.22214 0,16.73606 0.05555,121.9441 0.291666,135.41628 0.277777,16.37495 -15.972455,31.7638 -15.972455,31.7638 0,0 -12.375164,-172.98562 6.611218,-196.40222 z"
      id="path5096"
      gorn="0.6.0.0.0.0.0.0.0.0.0.0.0.0.0.0.0.0.0.0.0.6.6"
      enable-background="new    "
      opacity="0.1"
      stroke-width="13.8888"
    />
    <path
      d="m 309.19494,308.63388 c 0,0 -9.09735,12.48608 -9.09735,29.22214 0,16.73606 -0.0556,121.9441 -0.29167,135.41628 -0.29166,16.37495 15.94468,31.7638 15.94468,31.7638 0,0 12.43039,-172.98562 -6.55566,-196.40222 z"
      id="path5098"
      gorn="0.6.0.0.0.0.0.0.0.0.0.0.0.0.0.0.0.0.0.0.0.6.7"
      enable-background="new    "
      opacity="0.1"
      stroke-width="13.8888"
    />
    <path
      d="m 120.83116,546.14709 c 0,0 7.36122,-21.70827 6.52787,-30.3888 -0.87501,-8.68053 -3.88894,-6.70832 2.61115,-9.16664 6.51398,-2.47222 24.73646,-1.79166 29.51437,0 4.79173,1.79166 5.15284,-0.83333 4.34728,9.16664 -0.86111,9.98608 4.34727,30.3888 4.34727,30.3888 z"
      id="path5100"
      gorn="0.6.0.0.0.0.0.0.0.0.0.0.0.0.0.0.0.0.0.0.0.6.8"
      enable-background="new    "
      opacity="0.1"
      stroke-width="13.8888"
    />
    <path
      d="m 211.40216,546.14709 c 0,0 7.37511,-21.70827 6.51398,-30.3888 -0.86111,-8.68053 -3.87506,-6.70832 2.61115,-9.16664 6.50009,-2.47222 24.72257,-1.79166 29.51436,0 4.77785,1.79166 5.15284,-0.83333 4.3195,9.16664 -0.83333,9.98608 4.36117,30.3888 4.36117,30.3888 z"
      id="path5102"
      gorn="0.6.0.0.0.0.0.0.0.0.0.0.0.0.0.0.0.0.0.0.0.6.9"
      enable-background="new    "
      opacity="0.1"
      stroke-width="13.8888"
    />
    <path
      d="m 146.69276,305.53667 c -19.19481,1.81944 -34.43116,7.68053 -33.98671,13.09718 0.19444,2.31944 3.69457,4.09721 8.80581,5.34721 18.88912,3.40277 32.77824,1.01389 45.54237,-2.44444 9.22235,-2.63888 15.5419,-6.08331 15.30579,-9.49997 -0.48625,-5.43054 -16.38926,-8.33331 -35.66726,-6.49998 z"
      id="path5104"
      gorn="0.6.0.0.0.0.0.0.0.0.0.0.0.0.0.0.0.0.0.0.0.6.10"
      enable-background="new    "
      opacity="0.55"
      fill="#ffffff"
      stroke-width="13.8888"
    />
    <rect
      id="rect12911"
      x="75.656677"
      gorn="0.6.0.0.0.0.0.0.0.0.0.0.0.0.0.0.0.0.0.0.0.6.12"
      width="29.999859"
      y="586.31506"
      height="9.9999523"
      fill="none"
      stroke-width="13.8888"
    />
    <rect
      id="rect12913"
      x="175.63649"
      gorn="0.6.0.0.0.0.0.0.0.0.0.0.0.0.0.0.0.0.0.0.0.6.13"
      width="29.999859"
      y="586.31506"
      height="9.9999523"
      fill="none"
      stroke-width="13.8888"
    />
    <rect
      id="rect12915"
      x="275.61517"
      gorn="0.6.0.0.0.0.0.0.0.0.0.0.0.0.0.0.0.0.0.0.0.6.14"
      width="29.999859"
      y="586.31506"
      height="9.9999523"
      fill="none"
      stroke-width="13.8888"
    />
    <rect
      stroke-opacity="1"
      id="rect12909"
      x="5e-07"
      stroke="#000000"
      gorn="0.6.0.0.0.0.0.0.0.0.0.0.0.0.0.0.0.0.0.0.0.6.15"
      width="371.09384"
      stroke-width="0"
      y="5e-07"
      fill="#083370"
      fill-opacity="1"
      height="561.44983"
      fill-rule="evenodd"
      stroke-linecap="butt"
      stroke-linejoin="miter"
      stroke-miterlimit="4"
      stroke-dasharray="none"
    />
    <rect
      id="rect4221"
      x="53.995197"
      gorn="0.6.0.0.0.0.0.0.0.0.0.0.0.0.0.0.0.0.0.0.0.6.16"
      width="75.172409"
      stroke-width="0"
      y="508.66718"
      fill="#000000"
      fill-opacity="1"
      height="72.74749"
      stroke-miterlimit="4"
      stroke-dasharray="none"
    />
    <rect
      id="rect4221-0"
      x="144.53168"
      gorn="0.6.0.0.0.0.0.0.0.0.0.0.0.0.0.0.0.0.0.0.0.6.17"
      width="75.172409"
      stroke-width="0"
      y="508.66718"
      fill="#000000"
      fill-opacity="1"
      height="72.74749"
      stroke-miterlimit="4"
      stroke-dasharray="none"
    />
    <rect
      id="rect4221-5"
      x="237.0764"
      gorn="0.6.0.0.0.0.0.0.0.0.0.0.0.0.0.0.0.0.0.0.0.6.18"
      width="75.172409"
      stroke-width="0"
      y="509.87955"
      fill="#000000"
      fill-opacity="1"
      height="72.74749"
      stroke-miterlimit="4"
      stroke-dasharray="none"
    />
    <text
      id="tspan4261-2"
      x="188.00279"
      gorn="0.6.0.0.0.0.0.0.0.0.0.0.0.0.0.0.0.0.0.0.0.6.19.0.0.0.0.0.0.0.0.0.0.0.0.0.0.0.0.0.0.0.0"
      y="392.83984"
      transform="scale(0.78739178,1.2700158)"
      font-style="normal"
      font-weight="normal"
      font-size="33.5205"
      line-height="125%"
      font-family="'Droid Sans'"
      letter-spacing="0px"
      word-spacing="0px"
      fill="#ffffff"
      fill-opacity="1"
      stroke="none"
      stroke-width="11.1111"
      stroke-linecap="butt"
      stroke-linejoin="miter"
      stroke-opacity="1">OUT</text>
    <text
      id="tspan4261-2-3"
      x="305.98468"
      gorn="0.6.0.0.0.0.0.0.0.0.0.0.0.0.0.0.0.0.0.0.0.6.20.0.0.0.0.0.0.0.0.0.0.0.0.0.0.0.0.0.0.0.0"
      y="392.8811"
      transform="scale(0.78739178,1.2700158)"
      font-style="normal"
      font-weight="normal"
      font-size="33.5205"
      line-height="125%"
      font-family="'Droid Sans'"
      letter-spacing="0px"
      word-spacing="0px"
      fill="#ffffff"
      fill-opacity="1"
      stroke="none"
      stroke-width="11.1111"
      stroke-linecap="butt"
      stroke-linejoin="miter"
      stroke-opacity="1">GND</text>
    <text
      id="tspan4261-2-3-6"
      x="215.1001"
      gorn="0.6.0.0.0.0.0.0.0.0.0.0.0.0.0.0.0.0.0.0.0.6.21.0.0.0.0.0.0.0.0.0.0.0.0.0.0.0.0.0.0.0.0"
      y="-33.613529"
      transform="matrix(-0.02159175,0.78709569,-1.2695382,-0.03482621,0,0)"
      font-style="normal"
      font-weight="normal"
      font-size="33.5205"
      line-height="125%"
      font-family="'Droid Sans'"
      letter-spacing="0px"
      word-spacing="0px"
      fill="#ffffff"
      fill-opacity="1"
      stroke="none"
      stroke-width="11.1111"
      stroke-linecap="butt"
      stroke-linejoin="miter"
      stroke-opacity="1">C1</text>
    <rect
      id="rect12899"
      x="75.819443"
      gorn="0.6.0.0.0.0.0.0.0.0.0.0.0.0.0.0.0.0.0.0.0.6.22"
      width="30.311459"
      stroke-width="0"
      y="531.7038"
      fill="#fffeff"
      fill-opacity="1"
      height="27.886539"
      stroke-miterlimit="4"
      stroke-dasharray="none"
    />
    <rect
      id="rect12903"
      x="168.17464"
      gorn="0.6.0.0.0.0.0.0.0.0.0.0.0.0.0.0.0.0.0.0.0.6.23"
      width="30.311459"
      stroke-width="0"
      y="531.69873"
      fill="#fffeff"
      fill-opacity="1"
      height="27.886539"
      stroke-miterlimit="4"
      stroke-dasharray="none"
    />
    <rect
      id="rect12907"
      x="259.50687"
      gorn="0.6.0.0.0.0.0.0.0.0.0.0.0.0.0.0.0.0.0.0.0.6.24"
      width="30.311459"
      stroke-width="0"
      y="532.91113"
      fill="#fffeff"
      fill-opacity="1"
      height="27.886539"
      stroke-miterlimit="4"
      stroke-dasharray="none"
    />
    <rect
      id="rect4404"
      x="32.170933"
      gorn="0.6.0.0.0.0.0.0.0.0.0.0.0.0.0.0.0.0.0.0.0.6.25.0.0.0.0.0.0.0.0.0.0.0.0.0.0.0.0.0.0.0.0"
      width="50.920261"
      stroke-width="0"
      y="233.33389"
      fill="#855d36"
      fill-opacity="1"
      height="146.70744"
      stroke-miterlimit="4"
      stroke-dasharray="none"
    />
    <rect
      id="rect4406"
      x="32.16914"
      gorn="0.6.0.0.0.0.0.0.0.0.0.0.0.0.0.0.0.0.0.0.0.6.25.0.0.0.0.0.0.0.0.0.0.0.0.0.0.0.0.0.0.0.1"
      width="50.920258"
      stroke-width="0"
      y="233.33389"
      fill="#9d9e8d"
      fill-opacity="1"
      height="37.586205"
      stroke-miterlimit="4"
      stroke-dasharray="none"
    />
    <rect
      id="rect4406-2"
      x="32.17094"
      gorn="0.6.0.0.0.0.0.0.0.0.0.0.0.0.0.0.0.0.0.0.0.6.25.0.0.0.0.0.0.0.0.0.0.0.0.0.0.0.0.0.0.0.2"
      width="50.919067"
      stroke-width="0"
      y="341.84891"
      fill="#9d9e8d"
      fill-opacity="1"
      height="37.586205"
      stroke-miterlimit="4"
      stroke-dasharray="none"
    />
    <rect
      id="rect4404-3"
      x="298.83673"
      gorn="0.6.0.0.0.0.0.0.0.0.0.0.0.0.0.0.0.0.0.0.0.6.26.0.0.0.0.0.0.0.0.0.0.0.0.0.0.0.0.0.0.0.0"
      width="50.923248"
      stroke-width="0"
      y="233.33389"
      fill="#855d36"
      fill-opacity="1"
      height="146.70744"
      stroke-miterlimit="4"
      stroke-dasharray="none"
    />
    <rect
      id="rect4406-5"
      x="298.83493"
      gorn="0.6.0.0.0.0.0.0.0.0.0.0.0.0.0.0.0.0.0.0.0.6.26.0.0.0.0.0.0.0.0.0.0.0.0.0.0.0.0.0.0.0.1"
      width="50.923244"
      stroke-width="0"
      y="233.33389"
      fill="#9d9e8d"
      fill-opacity="1"
      height="37.586205"
      stroke-miterlimit="4"
      stroke-dasharray="none"
    />
    <rect
      id="rect4406-2-7"
      x="298.83673"
      gorn="0.6.0.0.0.0.0.0.0.0.0.0.0.0.0.0.0.0.0.0.0.6.26.0.0.0.0.0.0.0.0.0.0.0.0.0.0.0.0.0.0.0.2"
      width="50.92205"
      stroke-width="0"
      y="341.84891"
      fill="#9d9e8d"
      fill-opacity="1"
      height="37.586205"
      stroke-miterlimit="4"
      stroke-dasharray="none"
    />
    <rect
      id="rect4404-6"
      x="209.94814"
      gorn="0.6.0.0.0.0.0.0.0.0.0.0.0.0.0.0.0.0.0.0.0.6.27.0.0.0.0.0.0.0.0.0.0.0.0.0.0.0.0.0.0.0.0"
      width="50.923248"
      stroke-width="0"
      y="233.33389"
      fill="#855d36"
      fill-opacity="1"
      height="146.70744"
      stroke-miterlimit="4"
      stroke-dasharray="none"
    />
    <rect
      id="rect4406-20"
      x="209.94633"
      gorn="0.6.0.0.0.0.0.0.0.0.0.0.0.0.0.0.0.0.0.0.0.6.27.0.0.0.0.0.0.0.0.0.0.0.0.0.0.0.0.0.0.0.1"
      width="50.923244"
      stroke-width="0"
      y="233.33389"
      fill="#9d9e8d"
      fill-opacity="1"
      height="37.586205"
      stroke-miterlimit="4"
      stroke-dasharray="none"
    />
    <rect
      id="rect4406-2-0"
      x="209.94814"
      gorn="0.6.0.0.0.0.0.0.0.0.0.0.0.0.0.0.0.0.0.0.0.6.27.0.0.0.0.0.0.0.0.0.0.0.0.0.0.0.0.0.0.0.2"
      width="50.92205"
      stroke-width="0"
      y="341.84891"
      fill="#9d9e8d"
      fill-opacity="1"
      height="37.586205"
      stroke-miterlimit="4"
      stroke-dasharray="none"
    />
    <rect
      id="rect4404-7"
      x="121.05952"
      gorn="0.6.0.0.0.0.0.0.0.0.0.0.0.0.0.0.0.0.0.0.0.6.28.0.0.0.0.0.0.0.0.0.0.0.0.0.0.0.0.0.0.0.0"
      width="50.923248"
      stroke-width="0"
      y="233.33389"
      fill="#855d36"
      fill-opacity="1"
      height="146.70744"
      stroke-miterlimit="4"
      stroke-dasharray="none"
    />
    <rect
      id="rect4406-8"
      x="121.05774"
      gorn="0.6.0.0.0.0.0.0.0.0.0.0.0.0.0.0.0.0.0.0.0.6.28.0.0.0.0.0.0.0.0.0.0.0.0.0.0.0.0.0.0.0.1"
      width="50.923244"
      stroke-width="0"
      y="233.33389"
      fill="#9d9e8d"
      fill-opacity="1"
      height="37.586205"
      stroke-miterlimit="4"
      stroke-dasharray="none"
    />
    <rect
      id="rect4406-2-6"
      x="121.05954"
      gorn="0.6.0.0.0.0.0.0.0.0.0.0.0.0.0.0.0.0.0.0.0.6.28.0.0.0.0.0.0.0.0.0.0.0.0.0.0.0.0.0.0.0.2"
      width="50.92205"
      stroke-width="0"
      y="341.84891"
      fill="#9d9e8d"
      fill-opacity="1"
      height="37.586205"
      stroke-miterlimit="4"
      stroke-dasharray="none"
    />
    <text
      id="tspan4261-2-3-6-2"
      x="83.8367"
      gorn="0.6.0.0.0.0.0.0.0.0.0.0.0.0.0.0.0.0.0.0.0.6.29.0.0.0.0.0.0.0.0.0.0.0.0.0.0.0.0.0.0.0.0"
      y="393.47443"
      transform="scale(0.78739178,1.2700158)"
      font-style="normal"
      font-weight="normal"
      font-size="33.5205"
      line-height="125%"
      font-family="'Droid Sans'"
      letter-spacing="0px"
      word-spacing="0px"
      fill="#ffffff"
      fill-opacity="1"
      stroke="none"
      stroke-width="11.1111"
      stroke-linecap="butt"
      stroke-linejoin="miter"
      stroke-opacity="1">VIN</text>
    <text
      id="tspan4261-2-3-6-9"
      x="210.23967"
      gorn="0.6.0.0.0.0.0.0.0.0.0.0.0.0.0.0.0.0.0.0.0.6.30.0.0.0.0.0.0.0.0.0.0.0.0.0.0.0.0.0.0.0.0"
      y="-103.55063"
      transform="matrix(-0.02159175,0.78709569,-1.2695382,-0.03482621,0,0)"
      font-style="normal"
      font-weight="normal"
      font-size="33.5205"
      line-height="125%"
      font-family="'Droid Sans'"
      letter-spacing="0px"
      word-spacing="0px"
      fill="#ffffff"
      fill-opacity="1"
      stroke="none"
      stroke-width="11.1111"
      stroke-linecap="butt"
      stroke-linejoin="miter"
      stroke-opacity="1">C2</text>
    <text
      id="tspan4261-2-3-6-5"
      x="207.55083"
      gorn="0.6.0.0.0.0.0.0.0.0.0.0.0.0.0.0.0.0.0.0.0.6.31.0.0.0.0.0.0.0.0.0.0.0.0.0.0.0.0.0.0.0.0"
      y="-174.03122"
      transform="matrix(-0.02159175,0.78709569,-1.2695382,-0.03482621,0,0)"
      font-style="normal"
      font-weight="normal"
      font-size="33.5205"
      line-height="125%"
      font-family="'Droid Sans'"
      letter-spacing="0px"
      word-spacing="0px"
      fill="#ffffff"
      fill-opacity="1"
      stroke="none"
      stroke-width="11.1111"
      stroke-linecap="butt"
      stroke-linejoin="miter"
      stroke-opacity="1">C3</text>
    <text
      id="tspan4261-2-3-6-5-2"
      x="203.38133"
      gorn="0.6.0.0.0.0.0.0.0.0.0.0.0.0.0.0.0.0.0.0.0.6.32.0.0.0.0.0.0.0.0.0.0.0.0.0.0.0.0.0.0.0.0"
      y="-243.46698"
      transform="matrix(-0.02159175,0.78709569,-1.2695382,-0.03482621,0,0)"
      font-style="normal"
      font-weight="normal"
      font-size="33.5205"
      line-height="125%"
      font-family="'Droid Sans'"
      letter-spacing="0px"
      word-spacing="0px"
      fill="#ffffff"
      fill-opacity="1"
      stroke="none"
      stroke-width="11.1111"
      stroke-linecap="butt"
      stroke-linejoin="miter"
      stroke-opacity="1">C4</text>
    <rect
      id="rect4404-0"
      x="16.900665"
      gorn="0.6.0.0.0.0.0.0.0.0.0.0.0.0.0.0.0.0.0.0.0.6.33.0.0.0.0.0.0.0.0.0.0.0.0.0.0.0.0.0.0.0.0.0"
      width="50.920258"
      stroke-width="0"
      y="-182.93414"
      fill="#000000"
      fill-opacity="1"
      height="146.70743"
      transform="rotate(89.74439)"
      stroke-miterlimit="4"
      stroke-dasharray="none"
    />
    <rect
      id="rect4406-9"
      x="16.898874"
      gorn="0.6.0.0.0.0.0.0.0.0.0.0.0.0.0.0.0.0.0.0.0.6.33.0.0.0.0.0.0.0.0.0.0.0.0.0.0.0.0.0.0.0.0.1"
      width="50.920254"
      stroke-width="0"
      y="-182.93414"
      fill="#9d9e8d"
      fill-opacity="1"
      height="37.586205"
      transform="rotate(89.74439)"
      stroke-miterlimit="4"
      stroke-dasharray="none"
    />
    <rect
      id="rect4406-2-8"
      x="16.900675"
      gorn="0.6.0.0.0.0.0.0.0.0.0.0.0.0.0.0.0.0.0.0.0.6.33.0.0.0.0.0.0.0.0.0.0.0.0.0.0.0.0.0.0.0.0.2"
      width="50.919064"
      stroke-width="0"
      y="-74.419128"
      fill="#9d9e8d"
      fill-opacity="1"
      height="37.586205"
      transform="rotate(89.74439)"
      stroke-miterlimit="4"
      stroke-dasharray="none"
    />
    <text
      id="tspan4261-2-3-6-2-1"
      x="-179.62256"
      gorn="0.6.0.0.0.0.0.0.0.0.0.0.0.0.0.0.0.0.0.0.0.6.34.0.0.0.0.0.0.0.0.0.0.0.0.0.0.0.0.0.0.0.0"
      y="-17.893167"
      transform="matrix(-0.78735749,-0.00735133,0.01185726,-1.2699604,0,0)"
      font-style="normal"
      font-weight="normal"
      font-size="33.5205"
      line-height="125%"
      font-family="'Droid Sans'"
      letter-spacing="0px"
      word-spacing="0px"
      fill="#ffffff"
      fill-opacity="1"
      stroke="none"
      stroke-width="11.1111"
      stroke-linecap="butt"
      stroke-linejoin="miter"
      stroke-opacity="1">102</text>
    <text
      id="tspan4261-2-3-6-2-3"
      x="49.960194"
      gorn="0.6.0.0.0.0.0.0.0.0.0.0.0.0.0.0.0.0.0.0.0.6.35.0.0.0.0.0.0.0.0.0.0.0.0.0.0.0.0.0.0.0.0"
      y="91.161087"
      transform="scale(0.78739178,1.2700158)"
      font-style="normal"
      font-weight="normal"
      font-size="33.5205"
      line-height="125%"
      font-family="'Droid Sans'"
      letter-spacing="0px"
      word-spacing="0px"
      fill="#ffffff"
      fill-opacity="1"
      stroke="none"
      stroke-width="11.1111"
      stroke-linecap="butt"
      stroke-linejoin="miter"
      stroke-opacity="1">R1</text>
    <rect
      id="connector0pin"
      x="75.000015"
      gorn="0.6.0.0.0.0.0.0.0.0.0.0.0.0.0.0.0.0.0.0.0.6.22"
      width="30.311459"
      stroke-width="0"
      y="737.95557"
      fill="none"
      fill-opacity="1"
      height="27.886539"
      stroke-miterlimit="4"
      stroke-dasharray="none"
    />
    <rect
      id="connector2pin"
      x="174.99939"
      gorn="0.6.0.0.0.0.0.0.0.0.0.0.0.0.0.0.0.0.0.0.0.6.23"
      width="30.311459"
      stroke-width="0"
      y="737.95557"
      fill="none"
      fill-opacity="1"
      height="27.886539"
      stroke-miterlimit="4"
      stroke-dasharray="none"
    />
    <rect
      id="connector1pin"
      x="274.99902"
      gorn="0.6.0.0.0.0.0.0.0.0.0.0.0.0.0.0.0.0.0.0.0.6.23"
      width="30.311459"
      stroke-width="0"
      y="737.95557"
      fill="none"
      fill-opacity="1"
      height="27.886539"
      stroke-miterlimit="4"
      stroke-dasharray="none"
    />
  </g>
</svg>
