<?xml version='1.0' encoding='UTF-8' standalone='no'?>
<!-- Generator: Adobe Illustrator 23.0.2, SVG Export Plug-In . SVG Version: 6.00 Build 0)  -->
<svg xmlns="http://www.w3.org/2000/svg" xml:space="preserve" id="Layer_1" y="0px" x="0px" width="41.409275mm" gorn="0" height="24.787563mm" viewBox="0 0 133.03137 79.632486" version="1.1"  xmlns:xml="http://www.w3.org/XML/1998/namespace">
    <defs id="defs4605" />
    <desc id="desc4160" >
        <referenceFile >XD-RF-5V.svg</referenceFile>
    </desc>
    <metadata id="metadata4162" >
        <sfw >
            <slices />
            <sliceSourceBounds bottomLeftOrigin="true" y="-68.3723755" x="-19" width="89" height="57.0742836" />
        </sfw>
        <rdf:RDF xmlns:rdf="http://www.w3.org/1999/02/22-rdf-syntax-ns#">
            <cc:Work xmlns:rdf="http://www.w3.org/1999/02/22-rdf-syntax-ns#" rdf:about="" xmlns:cc="http://creativecommons.org/ns#">
                <dc:format xmlns:dc="http://purl.org/dc/elements/1.1/">image/svg+xml</dc:format>
                <dc:type xmlns:dc="http://purl.org/dc/elements/1.1/" xmlns:rdf="http://www.w3.org/1999/02/22-rdf-syntax-ns#" rdf:resource="http://purl.org/dc/dcmitype/StillImage"/>
                <dc:title xmlns:dc="http://purl.org/dc/elements/1.1/"/>
            </cc:Work>
        </rdf:RDF>
    </metadata>
    <rect id="rect5073" y="-3.3881318e-21" stroke-width="0.80241102" x="0" width="133.03137" height="65.196823" gorn="0.3" fill="#2eac4f" fill-opacity="1" />
    <g transform="matrix(0.75839636,0,0,0.87756766,-5.8168918,-3.1148826)" >
        <g >
            <g >
                <g id="g4272" gorn="0.4.0.0.0" >
                    <path stroke="#76221a" id="path4242" stroke-width="2.5" gorn="0.4.0.0.0.0" d="m 13.707956,40.560844 c -1.338129,-0.839447 3.978825,-5.42741 9.421757,-6.748161" fill="none"  style="stroke-linecap:round"/>
                    <path stroke="#76221a" id="path4244" stroke-width="2.5" gorn="0.4.0.0.0.1" d="m 12.343713,38.105057 c -1.338857,-0.840763 3.978825,-5.42741 9.421029,-6.749476" fill="none"  style="stroke-linecap:round"/>
                    <path stroke="#76221a" id="path4246" stroke-width="2.5" gorn="0.4.0.0.0.2" d="m 10.963445,35.620418 c -0.0097,-0.01739 -0.01872,-0.03482 -0.02717,-0.05231" fill="none"  style="stroke-linecap:round"/>
                    <path stroke="#b23a25" id="path4248" stroke-width="2.5" gorn="0.4.0.0.0.3" d="m 24.547127,36.364189 c -4.758162,2.948669 -8.984303,4.504547 -10.839172,4.196655" fill="none"  style="stroke-linecap:round"/>
                    <path stroke="#b23a25" id="path4250" stroke-width="2.5" gorn="0.4.0.0.0.4" d="m 23.167587,33.880863 c -4.75889,2.947357 -8.984302,4.504547 -10.839171,4.196655" fill="none"  style="stroke-linecap:round"/>
                    <path stroke="#b23a25" id="path4252" stroke-width="2.5" gorn="0.4.0.0.0.5" d="M 21.787685,31.396883 C 17.029886,34.346207 12.80411,35.90274 10.948512,35.59354" fill="none"  style="stroke-linecap:round"/>
                    <path id="path4254" gorn="0.4.0.0.0.6" d="m 15.709514,41.06263 c -1.554185,0.418136 -2.94927,0.421035 -3.008002,-0.07995 -0.05873,-0.50098 0.216799,-0.367508 0.920327,-0.401451 0.704521,-0.03449 1.347298,-0.159081 1.794869,-0.04569 0.447571,0.113396 0.666599,0.425812 0.292806,0.527085 z"  style="opacity:0.5;fill:#e0a79c"/>
                    <path id="path4256" gorn="0.4.0.0.0.7" d="m 14.344178,38.604874 c -1.55455,0.41748 -2.949634,0.420379 -3.008002,-0.07995 -0.05837,-0.500324 0.217163,-0.366852 0.92069,-0.400795 0.704521,-0.03449 1.347299,-0.15908 1.79487,-0.04569 0.448664,0.115364 0.665871,0.424503 0.292442,0.526432 z"  style="opacity:0.5;fill:#e0a79c"/>
                    <path id="path4258" gorn="0.4.0.0.0.8" d="m 10.891167,35.665718 c 0.70452,-0.03449 1.347298,-0.15908 1.794868,-0.04569 0.448665,0.115365 0.665872,0.424504 0.292442,0.526429 -1.554549,0.417484 -2.949633,0.420383 -3.0080008,-0.07995 -0.058368,-0.500324 0.2171618,-0.366852 0.9206908,-0.400795 z"  style="opacity:0.5;fill:#e0a79c"/>
                    <g id="g4262" gorn="0.4.0.0.0.9"  style="opacity:0.3">
                        <path id="path4260" gorn="0.4.0.0.0.9.0" d="m 24.667379,36.206448 c 0.01056,0.01901 0.02285,0.03878 0.0345,0.05976 0.163156,0.293701 0.189125,0.616424 0.10033,0.868213 0.113781,-0.0735 0.231995,-0.146034 0.344418,-0.219642 0.435688,-0.289215 0.608446,-0.778099 0.417247,-1.12228 -0.0091,-0.01639 -0.01748,-0.03147 -0.02758,-0.04731 -0.237701,-0.348369 -0.798758,-0.40644 -1.277971,-0.123069 -0.06146,0.03672 -0.129336,0.07356 -0.190792,0.110279 0.223819,0.06612 0.444908,0.22554 0.599847,0.474045 z"  style="fill:#69281f"/>
                    </g>
                    <g id="g4266" gorn="0.4.0.0.0.10"  style="opacity:0.3">
                        <path id="path4264" gorn="0.4.0.0.0.10.0" d="m 23.28784,33.723126 c 0.0102,0.01836 0.02357,0.04009 0.0345,0.05976 0.163157,0.293697 0.188761,0.615768 0.09997,0.867553 0.113779,-0.0735 0.231993,-0.146034 0.344416,-0.219639 0.435688,-0.289218 0.608446,-0.778102 0.418705,-1.119659 -0.0091,-0.01639 -0.01821,-0.03278 -0.02794,-0.04796 -0.237701,-0.34837 -0.798393,-0.405789 -1.277971,-0.123074 -0.06109,0.03737 -0.130327,0.07412 -0.191157,0.109623 0.22382,0.06612 0.444544,0.224884 0.599484,0.473393 z"  style="fill:#69281f"/>
                    </g>
                    <g id="g4270" gorn="0.4.0.0.0.11"  style="opacity:0.3">
                        <path id="path4268" gorn="0.4.0.0.0.11.0" d="m 21.908665,31.240456 c 0.01056,0.01901 0.02284,0.03878 0.03486,0.06042 0.160605,0.289108 0.187733,0.606901 0.101917,0.857036 0.110436,-0.0725 0.232293,-0.138481 0.343459,-0.209673 0.435323,-0.289873 0.607717,-0.779413 0.417612,-1.121624 -0.0091,-0.01639 -0.01785,-0.03212 -0.02794,-0.04796 -0.237701,-0.348369 -0.798393,-0.405786 -1.277971,-0.123071 -0.06109,0.03737 -0.130328,0.07412 -0.191157,0.109623 0.222828,0.06667 0.443552,0.225437 0.599219,0.475254 z"  style="fill:#69281f"/>
                    </g>
                </g>
            </g>
        </g>
    </g>
    <g transform="matrix(0,0.55320246,-0.5142234,0,27.847006,12.030621)" >
        <g >
            <g >
                <g id="g4487" gorn="0.5.0.0.0" >
                    <line stroke="#b6b5a5" y2="20.894449" id="line4479" stroke-miterlimit="10" stroke-width="2" y1="17.922945" x2="13.182596" gorn="0.5.0.0.0.0" fill="none"  style="stroke-linecap:round;stroke-miterlimit:10" x1="13.182596"/>
                    <line stroke="#b6b5a5" y2="25.248049" id="line4481" stroke-miterlimit="10" stroke-width="2" y1="22.276545" x2="10.40113" gorn="0.5.0.0.0.1" fill="none"  style="stroke-linecap:round;stroke-miterlimit:10" x1="10.40113"/>
                    <line stroke="#b6b5a5" y2="25.248049" id="line4483" stroke-miterlimit="10" stroke-width="2" y1="22.276545" x2="15.998615" gorn="0.5.0.0.0.2" fill="none"  style="stroke-linecap:round;stroke-miterlimit:10" x1="15.998615"/>
                    <rect id="rect4485" y="19.581459" x="9.0017586" width="8.3616753" height="4.2153902" gorn="0.5.0.0.0.3"  style="fill:#3b3831"/>
                </g>
            </g>
        </g>
    </g>
    <g transform="matrix(0.43865815,0,0,0.43244637,19.229405,12.570582)" >
        <g >
            <g >
                <g id="g4501" gorn="0.6.0.0.0" >
                    <line stroke="#b6b5a5" y2="27.735821" id="line4489" stroke-miterlimit="10" stroke-width="2" y1="27.735821" x2="40.288937" gorn="0.6.0.0.0.0" fill="none"  style="stroke-linecap:round;stroke-miterlimit:10" x1="43.260441"/>
                    <line stroke="#b6b5a5" y2="24.954353" id="line4491" stroke-miterlimit="10" stroke-width="2" y1="24.954353" x2="35.935337" gorn="0.6.0.0.0.1" fill="none"  style="stroke-linecap:round;stroke-miterlimit:10" x1="38.906841"/>
                    <line stroke="#b6b5a5" y2="30.551838" id="line4493" stroke-miterlimit="10" stroke-width="2" y1="30.551838" x2="35.935337" gorn="0.6.0.0.0.2" fill="none"  style="stroke-linecap:round;stroke-miterlimit:10" x1="38.906841"/>
                    <g transform="rotate(90,39.494231,27.735818)" >
                        <g >
                            <g >
                                <g id="g4499" gorn="0.6.0.0.0.3.0.0.0" >
                                    <g id="g4497" gorn="0.6.0.0.0.3.0.0.0.0" >
                                        <rect id="rect4495" y="25.628124" x="35.313393" width="8.3616753" height="4.2153902" gorn="0.6.0.0.0.3.0.0.0.0.0"  style="fill:#3b3831"/>
                                    </g>
                                </g>
                            </g>
                        </g>
                    </g>
                </g>
            </g>
        </g>
    </g>
    <line stroke="#b6b5a5" y2="6.7773194" id="line4503" stroke-miterlimit="10" stroke-width="1.57920754" y1="6.7773194" x2="108.10123" gorn="0.7" fill="none"  style="stroke-linecap:round;stroke-miterlimit:10" x1="120.5132"/>
    <line stroke="#b6b5a5" y2="9.7242498" id="line4505" stroke-miterlimit="10" stroke-width="1.57920754" y1="9.7242498" x2="108.10123" gorn="0.8" fill="none"  style="stroke-linecap:round;stroke-miterlimit:10" x1="120.5132"/>
    <line stroke="#b6b5a5" y2="12.671181" id="line4507" stroke-miterlimit="10" stroke-width="1.57920754" y1="12.671181" x2="108.10123" gorn="0.9" fill="none"  style="stroke-linecap:round;stroke-miterlimit:10" x1="120.5132"/>
    <line stroke="#b6b5a5" y2="15.618106" id="line4509" stroke-miterlimit="10" stroke-width="1.57920754" y1="15.618106" x2="108.10123" gorn="0.10" fill="none"  style="stroke-linecap:round;stroke-miterlimit:10" x1="120.5132"/>
    <g transform="matrix(0,0.78971061,-0.78949693,0,120.47275,-49.542447)" >
        <g >
            <g >
                <g id="g4515" gorn="0.11.0.0.0" >
                    <g id="g4513" gorn="0.11.0.0.0.0" >
                        <rect id="rect4511" y="2.322546" x="69.917603" width="13.924608" height="10.227504" gorn="0.11.0.0.0.0.0"  style="fill:#3b3831"/>
                    </g>
                </g>
            </g>
        </g>
    </g>
    <rect id="connector0pin_2_" y="53.829895" stroke-width="1.42083788" x="47.913532" width="1.2880316" gorn="0.12" height="0.87302363" fill="none" />
    <rect id="connector1pin_2_" y="5.9562078" x="128.88927" width="0.74633139" gorn="0.13" height="0.74633068"  style="fill:none"/>
    <path id="path4534" stroke-width="0.65939599" gorn="0.14" d="m 90.766193,23.779856 -5.843978,-5.411063 c -0.379284,-0.351197 -0.379284,-0.920597 0,-1.271794 l 5.843978,-5.411063 c 0.3793,-0.351195 0.994255,-0.351195 1.373555,0 l 5.843959,5.411063 c 0.3793,0.351197 0.3793,0.920597 0,1.271794 l -5.843959,5.411063 c -0.3793,0.351196 -0.994255,0.351196 -1.373555,0 z" fill="#6ec59c" />
    <g transform="matrix(0.79948865,0,0,0.69907845,50.536151,4.2795631)" >
        <g >
            <g >
                <g id="g4540" gorn="0.15.0.0.0" >
                    <path id="path4536" gorn="0.15.0.0.0.0" d="m 53.988964,17.832312 c 0.579712,1.609127 -0.09243,3.38278 -1.518127,4.226932 -0.181012,0.109259 -0.388554,0.206087 -0.603073,0.283371 -0.214581,0.07731 -0.436131,0.135065 -0.668271,0.163622 -1.626728,0.255531 -3.262321,-0.675695 -3.842033,-2.284823 -0.58321,-1.618829 0.08621,-3.369442 1.502144,-4.210079 0.196991,-0.126113 0.404499,-0.22286 0.619076,-0.300166 0.214519,-0.07728 0.436111,-0.135124 0.645233,-0.166349 1.63649,-0.259049 3.281841,0.668662 3.865051,2.287492 z"  style="fill:#fcf5a9"/>
                    <path id="path4538" gorn="0.15.0.0.0.1" d="m 50.123913,15.54482 2.346924,6.514424 c -0.181012,0.109259 -0.388554,0.206087 -0.603074,0.283371 -0.21458,0.07731 -0.43613,0.135065 -0.66827,0.163622 l -2.339889,-6.494902 c 0.196991,-0.126113 0.404499,-0.22286 0.619076,-0.300166 0.214519,-0.07728 0.436111,-0.135124 0.645233,-0.166349 z"  style="fill:#cec379"/>
                </g>
            </g>
        </g>
    </g>
    <g xml:space="preserve" stroke="none" id="text4880" stroke-width="0.74999964" font-size="0.906666" gorn="0.16" fill="#000000" fill-opacity="1"  style="font-style:normal;font-weight:normal;line-height:1.25;font-family:Droid Sans;letter-spacing:0px;word-spacing:0px;" xmlns:xml="http://www.w3.org/XML/1998/namespace"/>
    <g xml:space="preserve" stroke="none" id="text4884" stroke-width="0.74999964" font-size="3.62667" gorn="0.17" fill="#000000" fill-opacity="1"  style="font-style:normal;font-weight:normal;line-height:1.25;font-family:Droid Sans;letter-spacing:0px;word-spacing:0px;" xmlns:xml="http://www.w3.org/XML/1998/namespace"/>
    <line stroke="#b6b5a5" y2="41.774532" id="line4507-7-8-5-8" stroke-miterlimit="10" stroke-width="3.27620292" y1="56.654572" x2="49.054234" gorn="0.18" fill="none"  style="stroke-linecap:round;stroke-miterlimit:10" x1="49.054234"/>
    <line stroke="#b6b5a5" y2="41.774532" id="line4507-7-8-2-2" stroke-miterlimit="10" stroke-width="3.27620292" y1="56.654579" x2="56.228954" gorn="0.19" fill="none"  style="stroke-linecap:round;stroke-miterlimit:10" x1="56.228954"/>
    <line stroke="#b6b5a5" y2="41.836239" id="line4507-7-8-3-0" stroke-miterlimit="10" stroke-width="3.27620292" y1="56.716293" x2="63.403687" gorn="0.20" fill="none"  style="stroke-linecap:round;stroke-miterlimit:10" x1="63.403687"/>
    <line stroke="#b6b5a5" y2="41.774532" id="line4507-7-8-0" stroke-miterlimit="10" stroke-width="3.27620292" y1="56.654579" x2="42.014935" gorn="0.21" fill="none"  style="stroke-linecap:round;stroke-miterlimit:10" x1="42.014935"/>
    <line stroke="#b6b5a5" y2="41.743668" id="line4507-7-8-5" stroke-miterlimit="10" stroke-width="3.27620292" y1="56.623711" x2="20.08448" gorn="0.22" fill="none"  style="stroke-linecap:round;stroke-miterlimit:10" x1="20.08448"/>
    <line stroke="#b6b5a5" y2="41.743668" id="line4507-7-8-2" stroke-miterlimit="10" stroke-width="3.27620292" y1="56.623726" x2="27.259243" gorn="0.23" fill="none"  style="stroke-linecap:round;stroke-miterlimit:10" x1="27.259243"/>
    <line stroke="#b6b5a5" y2="41.805378" id="line4507-7-8-3" stroke-miterlimit="10" stroke-width="3.27620292" y1="56.685432" x2="34.433998" gorn="0.24" fill="none"  style="stroke-linecap:round;stroke-miterlimit:10" x1="34.433998"/>
    <line stroke="#b6b5a5" y2="41.743668" id="line4507-7-8" stroke-miterlimit="10" stroke-width="3.27620292" y1="56.623726" x2="13.04515" gorn="0.25" fill="none"  style="stroke-linecap:round;stroke-miterlimit:10" x1="13.04515"/>
    <line stroke="#b6b5a5" y2="41.725105" id="line4507-7" stroke-miterlimit="10" stroke-width="3.27620292" y1="56.605164" x2="5.7350264" gorn="0.26" fill="none"  style="stroke-linecap:round;stroke-miterlimit:10" x1="5.7350264"/>
    <g transform="matrix(-4.8977163,0,0,-1.2684548,411.39092,58.530373)" >
        <g >
            <g >
                <g id="g4515-0" gorn="0.27.0.0.0" >
                    <g id="g4513-4" gorn="0.27.0.0.0.0" >
                        <rect id="rect4511-6" y="2.322546" x="69.917603" width="13.924608" height="10.227504" gorn="0.27.0.0.0.0.0"  style="fill:#3b3831"/>
                    </g>
                </g>
            </g>
        </g>
    </g>
    <g transform="scale(0.98515169,1.0150721)" >
        <g >
            <g >
                <g xml:space="preserve" stroke="none" id="text4888" stroke-width="0.96168107" font-size="4.65026" gorn="0.28.0.0.0" fill="#e6e6e6" fill-opacity="1"  style="font-style:normal;font-weight:normal;line-height:1.25;font-family:Droid Sans;letter-spacing:0px;word-spacing:0px;" xmlns:xml="http://www.w3.org/XML/1998/namespace">
                    <text id="tspan4886" y="47.571342" stroke-width="0.96168107" x="7.8109145" gorn="0.28.0.0.0.0" fill="#e6e6e6" fill-opacity="1"  style="font-style:normal;font-variant:normal;font-weight:normal;font-stretch:normal;font-family:Droid Sans;-inkscape-font-specification:Droid Sans;">PT2272-M4</text>
                </g>
            </g>
        </g>
    </g>
    <path id="path4965" stroke-width="0.02524308" gorn="0.29" d="" fill="#2eac4f" fill-opacity="1" />
    <path id="path4967" stroke-width="0.02524308" gorn="0.30" d="" fill="#2eac4f" fill-opacity="1" />
    <path id="path4977" stroke-width="0.02524308" gorn="0.31" d="" fill="#2eac4f" fill-opacity="1" />
    <g transform="scale(0.9816639,1.0186786)" >
        <g >
            <g >
                <g xml:space="preserve" stroke="none" id="text4888-9" stroke-width="1.13294649" font-size="5.47843" gorn="0.32.0.0.0" fill="#e6e6e6" fill-opacity="1"  style="font-style:normal;font-weight:normal;line-height:1.25;font-family:Droid Sans;letter-spacing:0px;word-spacing:0px;" xmlns:xml="http://www.w3.org/XML/1998/namespace">
                    <text id="tspan4886-5" y="45.754063" stroke-width="1.13294649" x="98.002678" gorn="0.32.0.0.0.0" fill="#e6e6e6" fill-opacity="1"  style="font-style:normal;font-variant:normal;font-weight:normal;font-stretch:normal;font-family:Droid Sans;-inkscape-font-specification:Droid Sans;">YK04</text>
                </g>
            </g>
        </g>
    </g>
    <g transform="matrix(1.0313728,0,0,1.0104299,47.751023,20.828758)" >
        <g >
            <g >
                <polygon points="76.381233,31.827455 74.760864,33.447834 74.760864,37.669342 76.381233,39.290768 80.602776,39.290768 82.224182,37.669342 82.224182,33.447834 80.602776,31.827455 " id="polygon4219-9-8" gorn="0.33.0.0.0"  style="fill:#414141"/>
            </g>
        </g>
    </g>
    <rect id="rect4228-4-7" y="56.354408" stroke-width="1.6493541" x="127.30534" width="2.448" height="23.278078" gorn="0.34" fill="#8c8c8c" fill-opacity="1" />
    <rect id="connector0pin" y="77.259575" stroke-width="0.77989727" x="127.31487" rx="2.4344008" width="2.4384761" height="2.2902868" gorn="0.35" fill="#9a916c" fill-opacity="1" />
    <g transform="matrix(1.0313728,0,0,1.0104299,39.591023,20.828758)" >
        <g >
            <g >
                <polygon id="polygon4748" points="76.381233,39.290768 80.602776,39.290768 82.224182,37.669342 82.224182,33.447834 80.602776,31.827455 76.381233,31.827455 74.760864,33.447834 74.760864,37.669342 " gorn="0.36.0.0.0"  style="fill:#414141"/>
            </g>
        </g>
    </g>
    <rect id="rect4750" y="56.354408" stroke-width="1.6493541" x="119.14532" height="23.278078" width="2.448" gorn="0.37" fill="#8c8c8c" fill-opacity="1" />
    <rect id="connector1pin" y="77.259575" stroke-width="0.77989727" x="119.15487" rx="2.4344008" height="2.2902868" width="2.4384761" gorn="0.38" fill="#9a916c" fill-opacity="1" />
    <g transform="matrix(1.0313728,0,0,1.0104299,31.431023,20.828758)" >
        <g >
            <g >
                <polygon points="80.602776,39.290768 82.224182,37.669342 82.224182,33.447834 80.602776,31.827455 76.381233,31.827455 74.760864,33.447834 74.760864,37.669342 76.381233,39.290768 " id="polygon4754" gorn="0.39.0.0.0"  style="fill:#414141"/>
            </g>
        </g>
    </g>
    <rect id="rect4756" y="56.354408" stroke-width="1.6493541" x="110.98531" width="2.448" height="23.278078" gorn="0.40" fill="#8c8c8c" fill-opacity="1" />
    <rect id="connector2pin" y="77.259575" stroke-width="0.77989727" x="110.99487" rx="2.4344008" width="2.4384761" height="2.2902868" gorn="0.41" fill="#9a916c" fill-opacity="1" />
    <g transform="matrix(1.0313728,0,0,1.0104299,23.271023,20.828758)" >
        <g >
            <g >
                <polygon id="polygon4760" points="82.224182,37.669342 82.224182,33.447834 80.602776,31.827455 76.381233,31.827455 74.760864,33.447834 74.760864,37.669342 76.381233,39.290768 80.602776,39.290768 " gorn="0.42.0.0.0"  style="fill:#414141"/>
            </g>
        </g>
    </g>
    <rect id="rect4762" y="56.354408" stroke-width="1.6493541" x="102.82531" height="23.278078" width="2.448" gorn="0.43" fill="#8c8c8c" fill-opacity="1" />
    <rect id="connector3pin" y="77.259575" stroke-width="0.77989727" x="102.83487" rx="2.4344008" height="2.2902868" width="2.4384761" gorn="0.44" fill="#9a916c" fill-opacity="1" />
    <g transform="matrix(1.0313728,0,0,1.0104299,15.111023,20.828758)" >
        <g >
            <g >
                <polygon points="82.224182,33.447834 80.602776,31.827455 76.381233,31.827455 74.760864,33.447834 74.760864,37.669342 76.381233,39.290768 80.602776,39.290768 82.224182,37.669342 " id="polygon4766" gorn="0.45.0.0.0"  style="fill:#414141"/>
            </g>
        </g>
    </g>
    <rect id="rect4768" y="56.354408" stroke-width="1.6493541" x="94.665314" width="2.448" height="23.278078" gorn="0.46" fill="#8c8c8c" fill-opacity="1" />
    <rect id="connector5pin" y="77.259575" stroke-width="0.77989727" x="94.674873" rx="2.4344008" width="2.4384761" height="2.2902868" gorn="0.47" fill="#9a916c" fill-opacity="1" />
    <g transform="matrix(1.0313728,0,0,1.0104299,6.951023,20.828758)" >
        <g >
            <g >
                <polygon id="polygon4772" points="80.602776,31.827455 76.381233,31.827455 74.760864,33.447834 74.760864,37.669342 76.381233,39.290768 80.602776,39.290768 82.224182,37.669342 82.224182,33.447834 " gorn="0.48.0.0.0"  style="fill:#414141"/>
            </g>
        </g>
    </g>
    <rect id="rect4774" y="56.354408" stroke-width="1.6493541" x="86.505318" height="23.278078" width="2.448" gorn="0.49" fill="#8c8c8c" fill-opacity="1" />
    <rect id="connector6pin" y="77.259575" stroke-width="0.77989727" x="86.514877" rx="2.4344008" height="2.2902868" width="2.4384761" gorn="0.50" fill="#9a916c" fill-opacity="1" />
    <g transform="matrix(1.0313728,0,0,1.0104299,-1.2089764,20.828758)" >
        <g >
            <g >
                <polygon points="76.381233,31.827455 74.760864,33.447834 74.760864,37.669342 76.381233,39.290768 80.602776,39.290768 82.224182,37.669342 82.224182,33.447834 80.602776,31.827455 " id="polygon4778" gorn="0.51.0.0.0"  style="fill:#414141"/>
            </g>
        </g>
    </g>
    <rect id="rect4780" y="56.354408" stroke-width="1.6493541" x="78.345322" width="2.448" height="23.278078" gorn="0.52" fill="#8c8c8c" fill-opacity="1" />
    <rect id="connector7pin" y="77.259575" stroke-width="0.77989727" x="78.354881" rx="2.4344008" width="2.4384761" height="2.2902868" gorn="0.53" fill="#9a916c" fill-opacity="1" />
</svg>
