<?xml version='1.0' encoding='UTF-8' standalone='no'?>
<svg xmlns="http://www.w3.org/2000/svg" gorn="0" viewBox="0 0 18.890661 12.254523" version="1.1" height="12.254523mm" width="18.890661mm" id="svg1527" >
    <desc >
        <referenceFile >HS220561K_breadboard.svg</referenceFile>
    </desc>
    <defs id="defs1521" />
    <metadata id="metadata1524" >
        <rdf:RDF xmlns:rdf="http://www.w3.org/1999/02/22-rdf-syntax-ns#">
            <cc:Work xmlns:cc="http://creativecommons.org/ns#" xmlns:rdf="http://www.w3.org/1999/02/22-rdf-syntax-ns#" rdf:about="">
                <dc:format xmlns:dc="http://purl.org/dc/elements/1.1/">image/svg+xml</dc:format>
                <dc:type rdf:resource="http://purl.org/dc/dcmitype/StillImage" xmlns:rdf="http://www.w3.org/1999/02/22-rdf-syntax-ns#" xmlns:dc="http://purl.org/dc/elements/1.1/"/>
                <dc:title xmlns:dc="http://purl.org/dc/elements/1.1/"/>
            </cc:Work>
        </rdf:RDF>
    </metadata>
    <g transform="translate(-21.380409,-258.34085)" >
        <g >
            <g >
                <g gorn="0.3.0.0.0" id="layer1" >
                    <g gorn="0.3.0.0.0.0" id="breadboard" >
                        <g transform="translate(0.43399515,0.36714972)" >
                            <g >
                                <g >
                                    <g gorn="0.3.0.0.0.0.0.0.0.0" id="g2618" >
                                        <g transform="matrix(0.26458333,0,0,0.26458333,20.650701,257.97104)" >
                                            <g >
                                                <g >
                                                    <g fill-rule="nonzero" stroke="none" gorn="0.3.0.0.0.0.0.0.0.0.0.0.0.0" fill="none" id="icon" stroke-width="1" >
                                                        <polygon points="71.905002,46.326359 1.7384884,46.326359 1.1201722,44.684231 1.1201722,0.010051282 71.21558,0.010051282 71.905002,1.2664615 " gorn="0.3.0.0.0.0.0.0.0.0.0.0.0.0.0" fill="#323232" id="background" />
                                                        <g transform="translate(39.017241,3.769231)" >
                                                            <g >
                                                                <g >
                                                                    <g gorn="0.3.0.0.0.0.0.0.0.0.0.0.0.0.1.0.0.0" id="Dig2" >
                                                                        <g gorn="0.3.0.0.0.0.0.0.0.0.0.0.0.0.1.0.0.0.0" id="g79" >
                                                                            <g gorn="0.3.0.0.0.0.0.0.0.0.0.0.0.0.1.0.0.0.0.0" id="g77" >
                                                                                <g gorn="0.3.0.0.0.0.0.0.0.0.0.0.0.0.1.0.0.0.0.0.0" id="g75" >
                                                                                    <g gorn="0.3.0.0.0.0.0.0.0.0.0.0.0.0.1.0.0.0.0.0.0.0" id="digit-2" >
                                                                                        <polygon points="27.268017,1.6672564 25.178707,4.7944615 11.605741,4.7944615 9.5202069,1.6672564 10.564862,0.62820513 26.224621,0.62820513 " style="fill:#ef1818;fill-opacity:1" gorn="0.3.0.0.0.0.0.0.0.0.0.0.0.0.1.0.0.0.0.0.0.0.0" fill="#646464" id="polygon59" />
                                                                                        <polygon points="27.268017,16.260462 25.178707,18.342333 23.093172,16.260462 25.178707,5.8347692 28.312672,2.7088205 29.356069,4.7944615 " gorn="0.3.0.0.0.0.0.0.0.0.0.0.0.0.1.0.0.0.0.0.0.0.1" fill="#ef1818" id="polygon61" />
                                                                                        <polygon points="24.136569,32.934282 22.048517,35.018667 19.960466,32.934282 22.048517,22.514872 25.178707,19.383897 26.224621,21.467026 " style="fill:#646464;fill-opacity:1" gorn="0.3.0.0.0.0.0.0.0.0.0.0.0.0.1.0.0.0.0.0.0.0.2" fill="#ef1818" id="polygon63" />
                                                                                        <polygon points="3.2547931,36.056461 5.3428448,32.934282 18.917069,32.934282 21.003862,36.058974 19.960466,37.101795 4.2994483,37.101795 " style="fill:#ef1818;fill-opacity:1" gorn="0.3.0.0.0.0.0.0.0.0.0.0.0.0.1.0.0.0.0.0.0.0.3" fill="#646464" id="polygon65" />
                                                                                        <polygon points="3.2547931,21.467026 5.3428448,19.383897 7.4296379,21.467026 5.3428448,31.888949 2.2101379,35.018667 1.168,32.934282 " style="fill:#ef1818;fill-opacity:1" gorn="0.3.0.0.0.0.0.0.0.0.0.0.0.0.1.0.0.0.0.0.0.0.4" fill="#646464" id="polygon67" />
                                                                                        <polygon points="6.3887586,4.7944615 8.4742931,2.7088205 10.564862,4.7944615 8.4742931,15.217641 5.3428448,18.342333 4.2994483,16.260462 " gorn="0.3.0.0.0.0.0.0.0.0.0.0.0.0.1.0.0.0.0.0.0.0.5" fill="#646464" id="polygon69" />
                                                                                        <polygon points="22.048517,16.886154 24.136569,18.968026 22.048517,21.052411 8.4742931,21.052411 6.3887586,18.968026 8.4742931,16.886154 " style="fill:#ef1818;fill-opacity:1" gorn="0.3.0.0.0.0.0.0.0.0.0.0.0.0.1.0.0.0.0.0.0.0.6" fill="#646464" id="polygon71" />
                                                                                        <ellipse rx="2.200069" gorn="0.3.0.0.0.0.0.0.0.0.0.0.0.0.1.0.0.0.0.0.0.0.7" cy="35.013641" cx="26.821207" fill="#646464" id="Oval" ry="2.1962051" />
                                                                                    </g>
                                                                                </g>
                                                                            </g>
                                                                        </g>
                                                                    </g>
                                                                </g>
                                                            </g>
                                                        </g>
                                                        <g transform="translate(3.775862,3.769231)" >
                                                            <g >
                                                                <g >
                                                                    <g gorn="0.3.0.0.0.0.0.0.0.0.0.0.0.0.2.0.0.0" id="Dig1" >
                                                                        <g gorn="0.3.0.0.0.0.0.0.0.0.0.0.0.0.2.0.0.0.0" id="g104" >
                                                                            <g gorn="0.3.0.0.0.0.0.0.0.0.0.0.0.0.2.0.0.0.0.0" id="g102" >
                                                                                <g gorn="0.3.0.0.0.0.0.0.0.0.0.0.0.0.2.0.0.0.0.0.0" id="g100" >
                                                                                    <g gorn="0.3.0.0.0.0.0.0.0.0.0.0.0.0.2.0.0.0.0.0.0.0" id="digit-1" >
                                                                                        <polygon points="9.5718103,0.62820513 25.232828,0.62820513 26.276224,1.6672564 24.186914,4.7944615 10.613948,4.7944615 8.5296724,1.6672564 " style="fill:#ef1818;fill-opacity:1" gorn="0.3.0.0.0.0.0.0.0.0.0.0.0.0.2.0.0.0.0.0.0.0.0" fill="#646464" id="polygon83" />
                                                                                        <polygon points="27.320879,2.7088205 28.364276,4.7944615 26.276224,16.260462 24.186914,18.342333 22.101379,16.260462 24.186914,5.8347692 " gorn="0.3.0.0.0.0.0.0.0.0.0.0.0.0.2.0.0.0.0.0.0.0.1" fill="#ef1818" id="polygon85" />
                                                                                        <polygon points="24.186914,19.383897 25.232828,21.467026 23.144776,32.934282 21.055466,35.018667 18.968672,32.934282 21.055466,22.514872 " style="fill:#646464;fill-opacity:1" gorn="0.3.0.0.0.0.0.0.0.0.0.0.0.0.2.0.0.0.0.0.0.0.2" fill="#ef1818" id="polygon87" />
                                                                                        <polygon points="18.968672,37.101795 3.3076552,37.101795 2.263,36.056461 4.3510517,32.934282 17.925276,32.934282 20.012069,36.058974 " style="fill:#ef1818;fill-opacity:1" gorn="0.3.0.0.0.0.0.0.0.0.0.0.0.0.2.0.0.0.0.0.0.0.3" fill="#646464" id="polygon89" />
                                                                                        <polygon points="1.2183448,35.018667 0.1762069,32.934282 2.263,21.467026 4.3510517,19.383897 6.4378448,21.467026 4.3510517,31.888949 " gorn="0.3.0.0.0.0.0.0.0.0.0.0.0.0.2.0.0.0.0.0.0.0.4" fill="#ef1818" id="polygon91" />
                                                                                        <polygon points="4.3510517,18.342333 3.3076552,16.260462 5.3969655,4.7944615 7.4825,2.7088205 9.5718103,4.7944615 7.4825,15.217641 " style="fill:#646464;fill-opacity:1" gorn="0.3.0.0.0.0.0.0.0.0.0.0.0.0.2.0.0.0.0.0.0.0.5" fill="#ef1818" id="polygon93" />
                                                                                        <polygon points="5.3969655,18.968026 7.4825,16.886154 21.055466,16.886154 23.144776,18.968026 21.055466,21.052411 7.4825,21.052411 " gorn="0.3.0.0.0.0.0.0.0.0.0.0.0.0.2.0.0.0.0.0.0.0.6" fill="#ef1818" id="polygon95" />
                                                                                        <ellipse rx="2.200069" gorn="0.3.0.0.0.0.0.0.0.0.0.0.0.0.2.0.0.0.0.0.0.0.7" cy="35.013641" cx="25.828156" fill="#646464" id="ellipse97" ry="2.1962051" />
                                                                                    </g>
                                                                                </g>
                                                                            </g>
                                                                        </g>
                                                                    </g>
                                                                </g>
                                                            </g>
                                                        </g>
                                                        <polygon points="1.1176552,44.684231 1.7410286,46.326359 72.481449,46.326359 71.858076,44.684231 " gorn="0.3.0.0.0.0.0.0.0.0.0.0.0.0.3" fill="#c7c7c7" id="bottom-shadow" />
                                                        <polygon points="72.515431,46.326359 72.515431,1.2664615 71.112069,0.010051282 71.112069,44.684231 " gorn="0.3.0.0.0.0.0.0.0.0.0.0.0.0.4" fill="#aaaaaa" id="right-shadow" />
                                                    </g>
                                                </g>
                                            </g>
                                        </g>
                                    </g>
                                </g>
                            </g>
                        </g>
                        <circle stroke-opacity="1" style="color:#000000;clip-rule:nonzero;display:inline;overflow:visible;visibility:visible;isolation:auto;mix-blend-mode:normal;color-interpolation:sRGB;color-interpolation-filters:linearRGB;solid-color:#000000;solid-opacity:1;fill-rule:nonzero;stroke-linecap:round;stroke-linejoin:miter;stroke-miterlimit:4;stroke-dasharray:none;stroke-dashoffset:0.5;color-rendering:auto;image-rendering:auto;shape-rendering:auto;text-rendering:auto;enable-background:accumulate" fill-opacity="1" stroke="#ffcc00" gorn="0.3.0.0.0.0.1" cy="260.604" cx="25.4" fill="none" r="0.75" id="circle849" stroke-width="0.499999" />
                        <path stroke="none" gorn="0.3.0.0.0.0.2" d="m 25.4,259.08 a 0.762,0.762 0 0 1 0.762,0.762 v 1.524 a 0.762,0.762 0 0 1 -0.762,0.762 v 0 a 0.762,0.762 0 0 1 -0.762,-0.762 v -1.524 A 0.762,0.762 0 0 1 25.4,259.08 Z m -0.508,1.524 a 0.508,0.508 0 1 0 1.016,0 0.508,0.508 0 1 0 -1.016,0 z" fill="#f7bd13" id="connector10pin" stroke-width="0" />
                        <circle stroke-opacity="1" style="color:#000000;clip-rule:nonzero;display:inline;overflow:visible;visibility:visible;isolation:auto;mix-blend-mode:normal;color-interpolation:sRGB;color-interpolation-filters:linearRGB;solid-color:#000000;solid-opacity:1;fill-rule:nonzero;stroke-linecap:round;stroke-linejoin:miter;stroke-miterlimit:4;stroke-dasharray:none;stroke-dashoffset:0.5;color-rendering:auto;image-rendering:auto;shape-rendering:auto;text-rendering:auto;enable-background:accumulate" fill-opacity="1" stroke="#ffcc00" gorn="0.3.0.0.0.0.3" cy="260.604" cx="27.940001" fill="none" id="circle870" r="0.75" stroke-width="0.499999" />
                        <path stroke="none" gorn="0.3.0.0.0.0.4" d="m 27.94,259.08 a 0.762,0.762 0 0 1 0.762,0.762 v 1.524 a 0.762,0.762 0 0 1 -0.762,0.762 v 0 a 0.762,0.762 0 0 1 -0.762,-0.762 v -1.524 a 0.762,0.762 0 0 1 0.762,-0.762 z m -0.508,1.524 a 0.508,0.508 0 1 0 1.016,0 0.508,0.508 0 1 0 -1.016,0 z" fill="#f7bd13" id="connector9pin" stroke-width="0" />
                        <circle stroke-opacity="1" style="color:#000000;clip-rule:nonzero;display:inline;overflow:visible;visibility:visible;isolation:auto;mix-blend-mode:normal;color-interpolation:sRGB;color-interpolation-filters:linearRGB;solid-color:#000000;solid-opacity:1;fill-rule:nonzero;stroke-linecap:round;stroke-linejoin:miter;stroke-miterlimit:4;stroke-dasharray:none;stroke-dashoffset:0.5;color-rendering:auto;image-rendering:auto;shape-rendering:auto;text-rendering:auto;enable-background:accumulate" fill-opacity="1" stroke="#ffcc00" gorn="0.3.0.0.0.0.5" cy="260.604" cx="30.480001" fill="none" r="0.75" id="circle874" stroke-width="0.499999" />
                        <path stroke="none" gorn="0.3.0.0.0.0.6" d="m 30.48,259.08 a 0.762,0.762 0 0 1 0.762,0.762 v 1.524 a 0.762,0.762 0 0 1 -0.762,0.762 v 0 a 0.762,0.762 0 0 1 -0.762,-0.762 v -1.524 a 0.762,0.762 0 0 1 0.762,-0.762 z m -0.508,1.524 a 0.508,0.508 0 1 0 1.016,0 0.508,0.508 0 1 0 -1.016,0 z" fill="#f7bd13" id="connector7pin" stroke-width="0" />
                        <circle stroke-opacity="1" style="color:#000000;clip-rule:nonzero;display:inline;overflow:visible;visibility:visible;isolation:auto;mix-blend-mode:normal;color-interpolation:sRGB;color-interpolation-filters:linearRGB;solid-color:#000000;solid-opacity:1;fill-rule:nonzero;stroke-linecap:round;stroke-linejoin:miter;stroke-miterlimit:4;stroke-dasharray:none;stroke-dashoffset:0.5;color-rendering:auto;image-rendering:auto;shape-rendering:auto;text-rendering:auto;enable-background:accumulate" fill-opacity="1" stroke="#ffcc00" gorn="0.3.0.0.0.0.7" cy="260.604" cx="33.02" fill="none" id="circle878" r="0.75" stroke-width="0.499999" />
                        <path stroke="none" gorn="0.3.0.0.0.0.8" d="m 33.02,259.08 a 0.762,0.762 0 0 1 0.762,0.762 v 1.524 a 0.762,0.762 0 0 1 -0.762,0.762 v 0 a 0.762,0.762 0 0 1 -0.762,-0.762 v -1.524 a 0.762,0.762 0 0 1 0.762,-0.762 z m -0.508,1.524 a 0.508,0.508 0 1 0 1.016,0 0.508,0.508 0 1 0 -1.016,0 z" fill="#f7bd13" id="connector6pin" stroke-width="0" />
                        <circle stroke-opacity="1" style="color:#000000;clip-rule:nonzero;display:inline;overflow:visible;visibility:visible;isolation:auto;mix-blend-mode:normal;color-interpolation:sRGB;color-interpolation-filters:linearRGB;solid-color:#000000;solid-opacity:1;fill-rule:nonzero;stroke-linecap:round;stroke-linejoin:miter;stroke-miterlimit:4;stroke-dasharray:none;stroke-dashoffset:0.5;color-rendering:auto;image-rendering:auto;shape-rendering:auto;text-rendering:auto;enable-background:accumulate" fill-opacity="1" stroke="#ffcc00" gorn="0.3.0.0.0.0.9" cy="260.604" cx="35.560001" fill="none" r="0.75" id="circle882" stroke-width="0.499999" />
                        <path stroke="none" gorn="0.3.0.0.0.0.10" d="m 35.56,259.08 a 0.762,0.762 0 0 1 0.762,0.762 v 1.524 a 0.762,0.762 0 0 1 -0.762,0.762 v 0 a 0.762,0.762 0 0 1 -0.762,-0.762 v -1.524 a 0.762,0.762 0 0 1 0.762,-0.762 z m -0.508,1.524 a 0.508,0.508 0 1 0 1.016,0 0.508,0.508 0 1 0 -1.016,0 z" fill="#f7bd13" id="connector5pin" stroke-width="0" />
                        <circle stroke-opacity="1" style="color:#000000;clip-rule:nonzero;display:inline;overflow:visible;visibility:visible;isolation:auto;mix-blend-mode:normal;color-interpolation:sRGB;color-interpolation-filters:linearRGB;solid-color:#000000;solid-opacity:1;fill-rule:nonzero;stroke-linecap:round;stroke-linejoin:miter;stroke-miterlimit:4;stroke-dasharray:none;stroke-dashoffset:0.5;color-rendering:auto;image-rendering:auto;shape-rendering:auto;text-rendering:auto;enable-background:accumulate" fill-opacity="1" stroke="#ffcc00" gorn="0.3.0.0.0.0.11" cy="268.224" cx="25.4" fill="none" id="circle888" r="0.75" stroke-width="0.499999" />
                        <path stroke="none" gorn="0.3.0.0.0.0.12" d="m 25.4,266.7 a 0.762,0.762 0 0 1 0.762,0.762 v 1.524 a 0.762,0.762 0 0 1 -0.762,0.762 v 0 a 0.762,0.762 0 0 1 -0.762,-0.762 v -1.524 A 0.762,0.762 0 0 1 25.4,266.7 Z m -0.508,1.524 a 0.508,0.508 0 1 0 1.016,0 0.508,0.508 0 1 0 -1.016,0 z" fill="#f7bd13" id="connector0pin" stroke-width="0" />
                        <circle stroke-opacity="1" style="color:#000000;clip-rule:nonzero;display:inline;overflow:visible;visibility:visible;isolation:auto;mix-blend-mode:normal;color-interpolation:sRGB;color-interpolation-filters:linearRGB;solid-color:#000000;solid-opacity:1;fill-rule:nonzero;stroke-linecap:round;stroke-linejoin:miter;stroke-miterlimit:4;stroke-dasharray:none;stroke-dashoffset:0.5;color-rendering:auto;image-rendering:auto;shape-rendering:auto;text-rendering:auto;enable-background:accumulate" fill-opacity="1" stroke="#ffcc00" gorn="0.3.0.0.0.0.13" cy="268.224" cx="27.940001" fill="none" r="0.75" id="circle892" stroke-width="0.499999" />
                        <path stroke="none" gorn="0.3.0.0.0.0.14" d="m 27.94,266.7 a 0.762,0.762 0 0 1 0.762,0.762 v 1.524 a 0.762,0.762 0 0 1 -0.762,0.762 v 0 a 0.762,0.762 0 0 1 -0.762,-0.762 v -1.524 A 0.762,0.762 0 0 1 27.94,266.7 Z m -0.508,1.524 a 0.508,0.508 0 1 0 1.016,0 0.508,0.508 0 1 0 -1.016,0 z" fill="#f7bd13" id="connector1pin" stroke-width="0" />
                        <circle stroke-opacity="1" style="color:#000000;clip-rule:nonzero;display:inline;overflow:visible;visibility:visible;isolation:auto;mix-blend-mode:normal;color-interpolation:sRGB;color-interpolation-filters:linearRGB;solid-color:#000000;solid-opacity:1;fill-rule:nonzero;stroke-linecap:round;stroke-linejoin:miter;stroke-miterlimit:4;stroke-dasharray:none;stroke-dashoffset:0.5;color-rendering:auto;image-rendering:auto;shape-rendering:auto;text-rendering:auto;enable-background:accumulate" fill-opacity="1" stroke="#ffcc00" gorn="0.3.0.0.0.0.15" cy="268.224" cx="30.480001" fill="none" id="circle896" r="0.75" stroke-width="0.499999" />
                        <path stroke="none" gorn="0.3.0.0.0.0.16" d="m 30.48,266.7 a 0.762,0.762 0 0 1 0.762,0.762 v 1.524 a 0.762,0.762 0 0 1 -0.762,0.762 v 0 a 0.762,0.762 0 0 1 -0.762,-0.762 v -1.524 A 0.762,0.762 0 0 1 30.48,266.7 Z m -0.508,1.524 a 0.508,0.508 0 1 0 1.016,0 0.508,0.508 0 1 0 -1.016,0 z" fill="#f7bd13" id="connector2pin" stroke-width="0" />
                        <circle stroke-opacity="1" style="color:#000000;clip-rule:nonzero;display:inline;overflow:visible;visibility:visible;isolation:auto;mix-blend-mode:normal;color-interpolation:sRGB;color-interpolation-filters:linearRGB;solid-color:#000000;solid-opacity:1;fill-rule:nonzero;stroke-linecap:round;stroke-linejoin:miter;stroke-miterlimit:4;stroke-dasharray:none;stroke-dashoffset:0.5;color-rendering:auto;image-rendering:auto;shape-rendering:auto;text-rendering:auto;enable-background:accumulate" fill-opacity="1" stroke="#ffcc00" gorn="0.3.0.0.0.0.17" cy="268.224" cx="33.02" fill="none" r="0.75" id="circle900" stroke-width="0.499999" />
                        <path stroke="none" gorn="0.3.0.0.0.0.18" d="m 33.02,266.7 a 0.762,0.762 0 0 1 0.762,0.762 v 1.524 a 0.762,0.762 0 0 1 -0.762,0.762 v 0 a 0.762,0.762 0 0 1 -0.762,-0.762 v -1.524 A 0.762,0.762 0 0 1 33.02,266.7 Z m -0.508,1.524 a 0.508,0.508 0 1 0 1.016,0 0.508,0.508 0 1 0 -1.016,0 z" fill="#f7bd13" id="connector3pin" stroke-width="0" />
                        <circle stroke-opacity="1" style="color:#000000;clip-rule:nonzero;display:inline;overflow:visible;visibility:visible;isolation:auto;mix-blend-mode:normal;color-interpolation:sRGB;color-interpolation-filters:linearRGB;solid-color:#000000;solid-opacity:1;fill-rule:nonzero;stroke-linecap:round;stroke-linejoin:miter;stroke-miterlimit:4;stroke-dasharray:none;stroke-dashoffset:0.5;color-rendering:auto;image-rendering:auto;shape-rendering:auto;text-rendering:auto;enable-background:accumulate" fill-opacity="1" stroke="#ffcc00" gorn="0.3.0.0.0.0.19" cy="268.224" cx="35.560001" fill="none" id="circle904" r="0.75" stroke-width="0.499999" />
                        <path stroke="none" gorn="0.3.0.0.0.0.20" d="m 35.56,266.7 a 0.762,0.762 0 0 1 0.762,0.762 v 1.524 a 0.762,0.762 0 0 1 -0.762,0.762 v 0 a 0.762,0.762 0 0 1 -0.762,-0.762 v -1.524 A 0.762,0.762 0 0 1 35.56,266.7 Z m -0.508,1.524 a 0.508,0.508 0 1 0 1.016,0 0.508,0.508 0 1 0 -1.016,0 z" fill="#f7bd13" id="connector4pin" stroke-width="0" />
                    </g>
                </g>
            </g>
        </g>
    </g>
</svg>
