<?xml version='1.0' encoding='UTF-8' standalone='no'?>
<svg
  xmlns:dc="http://purl.org/dc/elements/1.1/"
  xmlns:cc="http://creativecommons.org/ns#"
  xmlns:rdf="http://www.w3.org/1999/02/22-rdf-syntax-ns#"
  xmlns:svg="http://www.w3.org/2000/svg"
  xmlns="http://www.w3.org/2000/svg"
  y="0in"
  height="0.3992126in"
  version="1.2"
  x="0in"
  width="0.40231848in"
  viewBox="0 0 402.31847 399.21258"
  id="svg49">
  <metadata
    id="metadata55">
    <rdf:RDF>
      <cc:Work
        rdf:about="">
        <dc:format>image/svg+xml</dc:format>
        <dc:type
          rdf:resource="http://purl.org/dc/dcmitype/StillImage"
        />
        <dc:title/>
      </cc:Work>
    </rdf:RDF>
  </metadata>
  <defs
    id="defs53"
  />
  <desc
    id="desc2">
    <referenceFile>dip-8pin-socket_1_breadboard.svg</referenceFile>
  </desc>
  <g
    id="breadboard">
    <rect
      id="rect89"
      width="399.21259"
      height="399.21259"
      x="1.4373422"
      y="-8.8817842e-16"
      fill="#1a1a1a"
      stroke="none"
      stroke-width="0"
    />
    <rect
      id="rect91"
      width="382.90671"
      height="171.70668"
      x="17.743223"
      y="118.69068"
      fill="#000000"
      stroke="none"
      stroke-width="0"
    />
    <rect
      id="rect93"
      width="384.37576"
      height="27.675694"
      x="-101.06751"
      y="155.89137"
      transform="matrix(1,0,0.64832012,0.76136787,0,0)"
      fill="#333333"
      stroke="none"
      stroke-width="0"
    />
    <rect
      id="rect95"
      width="28.949602"
      height="171.70668"
      x="1.2692996"
      y="115.44662"
      transform="matrix(0.59375782,0.80464381,0,1,0,0)"
      fill="#ffffff"
      stroke="none"
      stroke-width="0"
    />
    <rect
      id="rect97"
      width="21.071407"
      height="24.177265"
      x="1.4566979"
      y="289.8425"
      fill="#1a1a1a"
      stroke="none"
      stroke-width="0"
    />
    <circle
      stroke-width="20"
      cx="52.019691"
      cy="350.62598"
      stroke="#e6e6e6"
      gorn="0.1.0.7"
      fill="#b3b3b3"
      r="27.5"
      id="connector0pin"
    />
    <circle
      stroke-width="20"
      cx="152.01968"
      cy="350.62598"
      stroke="#e6e6e6"
      gorn="0.1.0.7"
      fill="#b3b3b3"
      r="27.5"
      id="connector1pin"
    />
    <circle
      stroke-width="20"
      cx="252.01968"
      cy="350.62598"
      stroke="#e6e6e6"
      gorn="0.1.0.7"
      fill="#b3b3b3"
      r="27.5"
      id="connector2pin"
    />
    <circle
      stroke-width="20"
      cx="352.01968"
      cy="350.62598"
      stroke="#e6e6e6"
      gorn="0.1.0.7"
      fill="#b3b3b3"
      r="27.5"
      id="connector3pin"
    />
    <circle
      stroke-width="20"
      cx="352.01968"
      cy="50.361275"
      stroke="#e6e6e6"
      gorn="0.1.0.7"
      fill="#b3b3b3"
      r="27.5"
      id="connector4pin"
    />
    <circle
      stroke-width="20"
      cx="252.01968"
      cy="50.361275"
      stroke="#e6e6e6"
      gorn="0.1.0.7"
      fill="#b3b3b3"
      r="27.5"
      id="connector5pin"
    />
    <circle
      stroke-width="20"
      cx="152.01968"
      cy="50.361275"
      stroke="#e6e6e6"
      gorn="0.1.0.7"
      fill="#b3b3b3"
      r="27.5"
      id="connector6pin"
    />
    <circle
      stroke-width="20"
      cx="52.296165"
      cy="50.361275"
      stroke="#e6e6e6"
      gorn="0.1.0.7"
      fill="#b3b3b3"
      r="27.5"
      id="connector7pin"
    />
  </g>
</svg>
