<?xml version="1.0" encoding="UTF-8" standalone="no"?>
<svg
   xmlns:dc="http://purl.org/dc/elements/1.1/"
   xmlns:cc="http://creativecommons.org/ns#"
   xmlns:rdf="http://www.w3.org/1999/02/22-rdf-syntax-ns#"
   xmlns:svg="http://www.w3.org/2000/svg"
   xmlns="http://www.w3.org/2000/svg"
   version="1.2"
   height="0.77772194in"
   viewBox="0 0 911.81208 777.7219"
   width="0.91181207in"
   id="svg24">
  <metadata
     id="metadata30">
    <rdf:RDF>
      <cc:Work
         rdf:about="">
        <dc:format>image/svg+xml</dc:format>
        <dc:type
           rdf:resource="http://purl.org/dc/dcmitype/StillImage" />
        <dc:title></dc:title>
      </cc:Work>
    </rdf:RDF>
  </metadata>
  <defs
     id="defs28" />
  <desc
     id="desc2">
    <referenceFile>XLR-5-ra_1_pcb.svg</referenceFile>
  </desc>
  <desc
     id="desc4">Fritzing
    footprint
    SVG</desc>
  <g
     id="silkscreen">
    <line
       stroke-linecap="round"
       stroke-width="10"
       stroke="#000000"
       fill="none"
       x2="906.81152"
       id="line103"
       y1="772.6507"
       y2="13.495007"
       x1="906.81152" />
    <line
       stroke-linecap="round"
       stroke-width="10"
       stroke="#000000"
       fill="none"
       x2="5.2273402"
       id="line101"
       y1="772.6507"
       y2="13.495007"
       x1="5.2273402" />
    <line
       stroke-linecap="round"
       stroke-width="10"
       stroke="#000000"
       fill="none"
       x1="5.0712123"
       y2="772.72137"
       y1="772.72137"
       id="line99"
       x2="904.48303" />
    <line
       stroke-linecap="round"
       stroke-width="10"
       stroke="#000000"
       fill="none"
       x2="904.48303"
       id="line97"
       y1="5.0005002"
       y2="5.0005002"
       x1="5.0712123" />
  </g>
  <g
     id="copper1">
    <g
       id="copper0">
      <circle
         stroke-width="20"
         stroke="#ffbf00"
         fill="none"
         r="41.5"
         cy="155.93855"
         cx="304.74802"
         id="circle81"
         gorn="0.2.0.0" />
      <circle
         style="fill:none;stroke:#ffbf00;stroke-width:20"
         r="41.5"
         gorn="0.2.0.0"
         id="circle83"
         cx="604.74799"
         cy="355.99054" />
      <circle
         stroke-width="20"
         stroke="#ffbf00"
         fill="none"
         gorn="0.2.0.0"
         id="connector0pin"
         cx="304.68564"
         cy="681.19891"
         r="41.5" />
      <circle
         stroke-width="20"
         stroke="#ffbf00"
         fill="none"
         gorn="0.2.0.1"
         id="connector1pin"
         cx="454.56064"
         cy="531.02521"
         r="33.5" />
      <circle
         stroke-width="20"
         stroke="#ffbf00"
         fill="none"
         gorn="0.2.0.2"
         id="connector2pin"
         cx="454.56064"
         cy="681.40411"
         r="33.5" />
      <circle
         stroke-width="20"
         stroke="#ffbf00"
         fill="none"
         gorn="0.2.0.3"
         id="connector3pin"
         cx="729.34192"
         cy="531.23773"
         r="33.5" />
      <circle
         stroke-width="20"
         stroke="#ffbf00"
         fill="none"
         gorn="0.2.0.4"
         id="connector4pin"
         cx="604.95636"
         cy="681.27179"
         r="41.5" />
      <circle
         stroke-width="20"
         stroke="#ffbf00"
         fill="none"
         r="33.5"
         cy="280.21057"
         cx="129.8419"
         id="connector5pin"
         gorn="0.2.0.4" />
    </g>
  </g>
</svg>
