<?xml version='1.0' encoding='UTF-8' standalone='no'?>
<svg
  xmlns:dc="http://purl.org/dc/elements/1.1/"
  xmlns:cc="http://creativecommons.org/ns#"
  xmlns:rdf="http://www.w3.org/1999/02/22-rdf-syntax-ns#"
  xmlns:svg="http://www.w3.org/2000/svg"
  xmlns="http://www.w3.org/2000/svg"
  xml:space="preserve"
  width="47.114376mm"
  gorn="0"
  id="svg833"
  viewBox="0 0 1854.8974 703.0003"
  version="1.1"
  height="17.856201mm">
  <desc
    id="desc2">
    <referenceFile>Arduino Nano 33 IoT-tht_1_breadboard.svg</referenceFile>
  </desc>
  <metadata
    id="metadata839">
    <rdf:RDF>
      <cc:Work
        rdf:about="">
        <dc:format>image/svg+xml</dc:format>
        <dc:type
          rdf:resource="http://purl.org/dc/dcmitype/StillImage"
        />
        <dc:title/>
      </cc:Work>
    </rdf:RDF>
  </metadata>
  <defs
    id="defs837">
  </defs>
  <g
    id="breadboard">
    <path
      stroke="none"
      gorn="0.3.0.0.0.0.0.0"
      id="path1809"
      fill="#ffffff"
      fill-opacity="1"
      d="m 236.14514,703.00026 c 0,-11.30282 9.13218,-20.51253 20.65275,-20.51253 11.38008,0 20.65274,9.20971 20.65274,20.51253 z"
      fill-rule="nonzero"
      stroke-width="14.0495"
    />
    <path
      stroke="none"
      gorn="0.3.0.0.1.0.0.0"
      id="path867"
      fill="#15909c"
      fill-opacity="1"
      d="m 1765.4948,82.929179 c -18.1379,0 -32.8477,-14.609936 -32.8477,-32.624671 0,-18.042643 14.7098,-32.652581 32.8477,-32.652581 18.166,0 32.8758,14.609938 32.8758,32.652581 0,18.014735 -14.7098,32.624671 -32.8758,32.624671 m 0,602.565671 c -18.1379,0 -32.8477,-14.60993 -32.8477,-32.62467 0,-18.04264 14.7098,-32.65258 32.8477,-32.65258 18.166,0 32.8758,14.60994 32.8758,32.65258 0,18.01474 -14.7098,32.62467 -32.8758,32.62467 M 147.71061,82.929179 c -18.15194,0 -32.86175,-14.609936 -32.86175,-32.624671 0,-18.042643 14.70981,-32.652581 32.86175,-32.652581 18.15193,0 32.84769,14.609938 32.84769,32.652581 0,18.014735 -14.69576,32.624671 -32.84769,32.624671 m 0,602.565671 c -18.15194,0 -32.86175,-14.60993 -32.86175,-32.62467 0,-18.04264 14.70981,-32.65258 32.86175,-32.65258 18.15193,0 32.84769,14.60994 32.84769,32.65258 0,18.01474 -14.69576,32.62467 -32.84769,32.62467 M 97.034122,702.99328 H 1815.9605 V 0 H 97.034122 Z"
      fill-rule="nonzero"
      stroke-width="14.0495"
    />
    <path
      stroke="none"
      gorn="0.3.0.0.2.0.0.0"
      id="path871"
      fill="#e5e4e4"
      fill-opacity="1"
      d="m 526.60139,393.03938 -3.59666,-0.13951 -3.59668,-0.43255 -3.48426,-0.7396 -3.45618,-0.97676 -3.37187,-1.33957 -3.28759,-1.49309 -3.13303,-1.82799 -2.90825,-2.0931 -2.76774,-2.24662 -2.55701,-2.52569 -2.38842,-2.735 -2.16362,-2.83269 -1.86857,-3.01408 -1.64379,-3.22339 -1.32066,-3.32108 -1.06775,-3.4048 -0.80083,-3.51643 -0.54793,-3.54434 -0.22476,-3.57227 0.0558,-3.57224 0.39336,-3.54433 0.70251,-3.57225 0.88511,-3.40479 1.26445,-3.3769 1.5033,-3.23734 1.69999,-3.11177 2.03717,-2.97222 2.21982,-2.86059 2.47271,-2.56756 2.65536,-2.4001 2.88013,-2.23266 3.04875,-1.89775 3.24543,-1.64657 3.25948,-1.46518 3.37188,-1.14425 3.51237,-0.87911 3.59666,-0.59999 3.59668,-0.26509 h 3.59666 l 3.56857,0.26509 3.59667,0.59999 3.48428,0.87911 3.39997,1.14425 3.28757,1.46518 3.18924,1.64657 3.07684,1.89775 2.85205,2.23266 2.68344,2.4001 2.47271,2.56756 2.21982,2.86059 2.03717,2.97222 1.72809,3.11177 1.4752,3.23734 1.26445,3.3769 0.89914,3.40479 0.66036,3.57225 0.39335,3.54433 0.0843,3.57224 -0.22476,3.57227 -0.51979,3.54434 -0.85699,3.51643 -1.01157,3.4048 -1.37683,3.32108 -1.6438,3.22339 -1.86858,3.01408 -2.16362,2.83269 -2.38842,2.735 -2.52891,2.52569 -2.79584,2.24662 -2.88014,2.0931 -3.13304,1.82799 -3.28759,1.49309 -3.37187,1.33957 -3.45617,0.97676 -3.48427,0.7396 -3.62477,0.43255 z"
      fill-rule="nonzero"
      stroke-width="14.0495"
    />
    <path
      stroke="none"
      gorn="0.3.0.0.3"
      id="path873"
      fill="#a7a5a6"
      fill-opacity="1"
      d="m 494.45758,442.64059 h 62.75905 v -23.87546 h -62.75905 z"
      fill-rule="nonzero"
      stroke-width="14.0495"
    />
    <path
      stroke="none"
      gorn="0.3.0.0.4"
      id="path875"
      fill="#a7a5a6"
      fill-opacity="1"
      d="m 494.45758,284.24767 h 62.75905 v -23.90335 h -62.75905 z"
      fill-rule="nonzero"
      stroke-width="14.0495"
    />
    <path
      stroke="none"
      gorn="0.3.0.0.5.0.0.0"
      id="path879"
      fill="#d3d2d2"
      fill-opacity="1"
      d="m 561.88948,361.8743 -1.12396,2.79081 -1.40495,2.66523 -1.54544,2.63734 -3.93385,4.74439 -2.10742,2.09312 -2.38842,1.95356 -2.52891,1.6745 -2.6694,1.53494 -2.6694,1.39541 -2.95038,1.11632 -2.9504,0.85118 -2.95039,0.55812 -2.95039,0.4047 -3.0909,0.13952 -3.09088,-0.13952 -3.09088,-0.4047 -2.95039,-0.55812 -2.9504,-0.85118 -2.80989,-1.11632 -2.80991,-1.39541 -2.6694,-1.53494 -2.38841,-1.6745 -2.38841,-1.95356 -2.10742,-2.09312 -2.10743,-2.37221 -1.82644,-2.37218 -1.54543,-2.63734 -1.40496,-2.66523 -1.12395,-2.79081 -0.98343,-2.93036 -0.56195,-2.93036 -0.56194,-3.0699 -0.14045,-3.05595 v -2.93035 l 0.42147,-3.08387 0.56196,-3.06989 0.7025,-2.79082 1.12395,-2.93037 1.26446,-2.79082 1.40494,-2.51172 1.82644,-2.65129 1.82643,-2.3722 2.10743,-2.21871 2.24791,-1.96751 2.38842,-1.95356 2.66939,-1.53498 2.66941,-1.39538 2.80989,-1.24192 2.95039,-0.99078 2.9504,-0.69774 2.95039,-0.55813 3.09089,-0.27913 h 3.09089 l 2.95039,0.27913 3.09088,0.55813 2.95039,0.69774 2.9504,0.99078 2.66941,1.24192 2.80988,1.39538 2.52891,1.53498 2.52891,1.95356 2.24792,1.96751 2.10743,2.21871 1.82642,2.3722 1.68594,2.65129 1.54545,2.51172 1.26445,2.79082 0.98343,2.93037 0.84298,2.79082 0.56194,3.06989 0.28102,3.08387 0.14047,2.93035 -0.28104,3.05595 -0.42147,3.0699 -0.70252,2.93036 z m -87.38779,64.88654 H 577.20342 V 279.12653 H 474.50169 Z"
      fill-rule="nonzero"
      stroke-width="14.0495"
    />
    <path
      stroke="none"
      gorn="0.3.0.0.6.0.0.0"
      id="path883"
      fill="#d3d2d2"
      fill-opacity="1"
      d="m 287.28669,284.74584 h -58.22108 c -1.4471,0 -2.59915,1.14423 -2.59915,2.56755 v 15.53091 c 0,1.42332 1.15205,2.56755 2.59915,2.56755 h 58.22108 c 1.44708,0 2.57105,-1.14423 2.57105,-2.56755 v -15.53091 c 0,-1.42332 -1.12397,-2.56755 -2.57105,-2.56755"
      fill-rule="nonzero"
      stroke-width="14.0495"
    />
    <path
      stroke="none"
      gorn="0.3.0.0.7.0.0.0"
      id="path887"
      fill="#d3d2d2"
      fill-opacity="1"
      d="m 287.28669,314.4527 h -58.22108 c -1.4471,0 -2.59915,1.14425 -2.59915,2.55362 v 15.5309 c 0,1.40937 1.15205,2.59546 2.59915,2.59546 h 58.22108 c 1.44708,0 2.57105,-1.18609 2.57105,-2.59546 v -15.5309 c 0,-1.40937 -1.12397,-2.55362 -2.57105,-2.55362"
      fill-rule="nonzero"
      stroke-width="14.0495"
    />
    <path
      stroke="none"
      gorn="0.3.0.0.8.0.0.0"
      id="path891"
      fill="#d3d2d2"
      fill-opacity="1"
      d="m 287.28669,344.11772 h -58.22108 c -1.4471,0 -2.59915,1.17214 -2.59915,2.59546 v 15.54485 c 0,1.40937 1.15205,2.53967 2.59915,2.53967 h 58.22108 c 1.44708,0 2.57105,-1.1303 2.57105,-2.53967 v -15.54485 c 0,-1.42332 -1.12397,-2.59546 -2.57105,-2.59546"
      fill-rule="nonzero"
      stroke-width="14.0495"
    />
    <path
      stroke="none"
      gorn="0.3.0.0.9.0.0.0"
      id="path895"
      fill="#d3d2d2"
      fill-opacity="1"
      d="m 287.28669,373.85251 h -58.22108 c -1.4471,0 -2.59915,1.13027 -2.59915,2.56754 V 391.937 c 0,1.42332 1.15205,2.58152 2.59915,2.58152 h 58.22108 c 1.44708,0 2.57105,-1.1582 2.57105,-2.58152 v -15.51695 c 0,-1.43727 -1.12397,-2.56754 -2.57105,-2.56754"
      fill-rule="nonzero"
      stroke-width="14.0495"
    />
    <path
      stroke="none"
      gorn="0.3.0.0.10.0.0.0"
      id="path899"
      fill="#d3d2d2"
      fill-opacity="1"
      d="m 287.28669,403.54542 h -58.22108 c -1.4471,0 -2.59915,1.15819 -2.59915,2.59546 v 15.51696 c 0,1.45122 1.15205,2.58149 2.59915,2.58149 h 58.22108 c 1.44708,0 2.57105,-1.13027 2.57105,-2.58149 v -15.51696 c 0,-1.43727 -1.12397,-2.59546 -2.57105,-2.59546"
      fill-rule="nonzero"
      stroke-width="14.0495"
    />
    <path
      stroke="none"
      gorn="0.3.0.0.11"
      id="path901"
      fill="#b6b5b5"
      fill-opacity="1"
      d="M 0,185.20152 H 256.59979 V 517.7834 H 0 Z"
      fill-rule="nonzero"
      stroke-width="14.0495"
    />
    <path
      stroke="none"
      gorn="0.3.0.0.12.0.0.0"
      id="path925"
      fill="#7fc3c5"
      fill-opacity="1"
      d="m 650.77636,432.48899 143.71219,-0.0282 0.0422,-13.91223 H 650.77636 Z"
      fill-rule="nonzero"
      stroke-width="14.0495"
    />
    <path
      stroke="none"
      gorn="0.3.0.0.13.0.0.0"
      id="path929"
      fill="#7fc3c5"
      fill-opacity="1"
      d="m 687.9513,402.42768 -0.0137,-26.03833 -14.02139,-0.0136 v 26.05229 z"
      fill-rule="nonzero"
      stroke-width="14.0495"
    />
    <path
      stroke="none"
      gorn="0.3.0.0.14.0.0.0"
      id="path933"
      fill="#7fc3c5"
      fill-opacity="1"
      d="m 715.5768,402.42768 -0.0137,-26.03833 -14.02139,-0.0136 v 26.05229 z"
      fill-rule="nonzero"
      stroke-width="14.0495"
    />
    <path
      stroke="none"
      gorn="0.3.0.0.15.0.0.0"
      id="path937"
      fill="#7fc3c5"
      fill-opacity="1"
      d="m 743.20933,402.42768 -0.0137,-26.03833 -14.02139,-0.0136 v 26.05229 z"
      fill-rule="nonzero"
      stroke-width="14.0495"
    />
    <path
      stroke="none"
      gorn="0.3.0.0.16.0.0.0"
      id="path941"
      fill="#7fc3c5"
      fill-opacity="1"
      d="m 770.83484,402.42768 -0.0137,-26.03833 -14.02139,-0.0136 v 26.05229 z"
      fill-rule="nonzero"
      stroke-width="14.0495"
    />
    <path
      stroke="none"
      gorn="0.3.0.0.17.0.0.0"
      id="path945"
      fill="#7fc3c5"
      fill-opacity="1"
      d="m 650.77636,458.64037 143.71219,-0.0136 0.0422,-13.92619 H 650.77636 Z"
      fill-rule="nonzero"
      stroke-width="14.0495"
    />
    <path
      stroke="none"
      gorn="0.3.0.0.18.0.0.0"
      id="path949"
      fill="#7fc3c5"
      fill-opacity="1"
      d="m 650.77636,484.79034 143.71219,-0.0136 0.0422,-13.92618 H 650.77636 Z"
      fill-rule="nonzero"
      stroke-width="14.0495"
    />
    <path
      stroke="none"
      gorn="0.3.0.0.19.0.0.0"
      id="path953"
      fill="#7fc3c5"
      fill-opacity="1"
      d="m 650.77636,510.94031 143.71219,-0.0136 0.0422,-13.92619 H 650.77636 Z"
      fill-rule="nonzero"
      stroke-width="14.0495"
    />
    <path
      stroke="none"
      gorn="0.3.0.0.20.0.0.0"
      id="path957"
      fill="#7fc3c5"
      fill-opacity="1"
      d="m 650.77636,537.09028 143.71219,-0.0136 0.0422,-13.92619 H 650.77636 Z"
      fill-rule="nonzero"
      stroke-width="14.0495"
    />
    <path
      stroke="none"
      gorn="0.3.0.0.21.0.0.0"
      id="path961"
      fill="#7fc3c5"
      fill-opacity="1"
      d="m 650.77636,563.24164 143.71219,-0.0135 0.0422,-13.9262 H 650.77636 Z"
      fill-rule="nonzero"
      stroke-width="14.0495"
    />
    <path
      stroke="none"
      gorn="0.3.0.0.22.0.0.0"
      id="path965"
      fill="#333333"
      fill-opacity="1"
      d="m 780.15808,389.40154 h -13.6561 l -101.59183,0.0281 -0.0422,17.87521 h 0.0138 l -0.29504,179.49149 h 13.6561 l 87.96383,-0.0282 v 0.0282 l 13.61395,-0.042 z"
      fill-rule="nonzero"
      stroke-width="14.0495"
    />
    <path
      stroke="none"
      gorn="0.3.0.0.23"
      id="path967"
      fill="#a7a5a6"
      fill-opacity="1"
      d="m 130.60401,559.17123 h 88.8068 v 35.13641 h -88.8068 z"
      fill-rule="nonzero"
      stroke-width="14.0495"
    />
    <path
      stroke="none"
      gorn="0.3.0.0.24"
      id="path973"
      fill="#a7a5a6"
      fill-opacity="1"
      d="m 642.18792,150.52559 h -31.513 v 63.14228 h 31.513 z"
      fill-rule="nonzero"
      stroke-width="14.0495"
    />
    <path
      stroke="none"
      gorn="0.3.0.0.25"
      id="path975"
      fill="#a7a5a6"
      fill-opacity="1"
      d="m 722.64931,150.52559 h -31.51299 v 63.14228 h 31.51299 z"
      fill-rule="nonzero"
      stroke-width="14.0495"
    />
    <path
      stroke="none"
      gorn="0.3.0.0.26.0.0.0"
      id="path979"
      fill="#806f5c"
      fill-opacity="1"
      d="m 694.57844,206.49826 c 6.74375,0 12.27925,-5.49791 12.27925,-12.19587 v -24.40572 c 0,-6.72586 -5.5355,-12.22378 -12.27925,-12.22378 h -3.42807 v 48.82537 z"
      fill-rule="nonzero"
      stroke-width="14.0495"
    />
    <path
      stroke="none"
      gorn="0.3.0.0.27.0.0.0"
      id="path983"
      fill="#806f5c"
      fill-opacity="1"
      d="m 638.76405,157.67289 c -6.74375,0 -12.2933,5.49792 -12.2933,12.22378 v 24.40572 c 0,6.69796 5.54955,12.19587 12.2933,12.19587 h 3.42808 v -48.82537 z"
      fill-rule="nonzero"
      stroke-width="14.0495"
    />
    <path
      stroke="none"
      gorn="0.3.0.0.28"
      id="path985"
      fill="#15909c"
      fill-opacity="1"
      d="m 691.15037,157.67008 h -48.9484 v 48.82538 h 48.9484 z"
      fill-rule="nonzero"
      stroke-width="14.0495"
    />
    <path
      stroke="none"
      gorn="0.3.0.0.29"
      id="path987"
      fill="#333333"
      fill-opacity="1"
      d="m 691.15037,157.67008 h -48.9484 v 48.82538 h 48.9484 z"
      fill-rule="nonzero"
      stroke-width="14.0495"
    />
    <path
      stroke="none"
      gorn="0.3.0.0.30"
      id="path991"
      fill="#a7a5a6"
      fill-opacity="1"
      d="m 354.29991,412.75093 h -31.513 v 63.12832 h 31.513 z"
      fill-rule="nonzero"
      stroke-width="14.0495"
    />
    <path
      stroke="none"
      gorn="0.3.0.0.31"
      id="path993"
      fill="#a7a5a6"
      fill-opacity="1"
      d="m 434.76132,412.75093 h -31.513 v 63.12832 h 31.513 z"
      fill-rule="nonzero"
      stroke-width="14.0495"
    />
    <path
      stroke="none"
      gorn="0.3.0.0.32.0.0.0"
      id="path997"
      fill="#806f5c"
      fill-opacity="1"
      d="m 406.68763,468.73754 c 6.74376,0 12.27925,-5.4979 12.27925,-12.19587 v -24.4057 c 0,-6.72588 -5.53549,-12.2238 -12.27925,-12.2238 h -3.42807 v 48.82537 z"
      fill-rule="nonzero"
      stroke-width="14.0495"
    />
    <path
      stroke="none"
      gorn="0.3.0.0.33.0.0.0"
      id="path1001"
      fill="#806f5c"
      fill-opacity="1"
      d="m 350.87325,419.91216 c -6.74376,0 -12.2933,5.49791 -12.2933,12.2238 v 24.4057 c 0,6.69797 5.54954,12.19587 12.2933,12.19587 h 3.42807 v -48.82537 z"
      fill-rule="nonzero"
      stroke-width="14.0495"
    />
    <path
      stroke="none"
      gorn="0.3.0.0.34"
      id="path1003"
      fill="#15909c"
      fill-opacity="1"
      d="m 403.26236,419.90938 h -48.9484 v 48.82538 h 48.9484 z"
      fill-rule="nonzero"
      stroke-width="14.0495"
    />
    <path
      stroke="none"
      gorn="0.3.0.0.35"
      id="path1005"
      fill="#313030"
      fill-opacity="1"
      d="m 403.26236,419.90938 h -48.9484 v 48.82538 h 48.9484 z"
      fill-rule="nonzero"
      stroke-width="14.0495"
    />
    <path
      stroke="none"
      gorn="0.3.0.0.36.0.0.0"
      id="path1011"
      fill="#a7a5a6"
      fill-opacity="1"
      d="m 380.03577,586.93848 c 3.28757,0 5.94293,-2.63732 5.94293,-5.91653 h -11.88587 c 0,3.27921 2.65535,5.91653 5.94294,5.91653"
      fill-rule="nonzero"
      stroke-width="14.0495"
    />
    <path
      stroke="none"
      gorn="0.3.0.0.37.0.0.0"
      id="path1015"
      fill="#a7a5a6"
      fill-opacity="1"
      d="m 380.03577,529.66389 c -3.28759,0 -5.94294,2.63735 -5.94294,5.9026 h 11.88587 c 0,-3.26525 -2.65536,-5.9026 -5.94293,-5.9026"
      fill-rule="nonzero"
      stroke-width="14.0495"
    />
    <path
      stroke="none"
      gorn="0.3.0.0.38.0.0.0"
      id="path1019"
      fill="#a7a5a6"
      fill-opacity="1"
      d="m 391.9441,586.93848 c 3.28758,0 5.95698,-2.63732 5.95698,-5.91653 h -11.89991 c 0,3.27921 2.65535,5.91653 5.94293,5.91653"
      fill-rule="nonzero"
      stroke-width="14.0495"
    />
    <path
      stroke="none"
      gorn="0.3.0.0.39.0.0.0"
      id="path1023"
      fill="#a7a5a6"
      fill-opacity="1"
      d="m 391.9441,529.66389 c -3.28758,0 -5.94293,2.63735 -5.94293,5.9026 h 11.89991 c 0,-3.26525 -2.6694,-5.9026 -5.95698,-5.9026"
      fill-rule="nonzero"
      stroke-width="14.0495"
    />
    <path
      stroke="none"
      gorn="0.3.0.0.40.0.0.0"
      id="path1027"
      fill="#15909c"
      fill-opacity="1"
      d="m 386.00398,535.5651 h -0.0137 -11.89992 v 5.00952 0.39067 4.61881 0.37677 4.63276 0.37675 4.64671 0.37676 4.61881 0.37676 4.63275 0.39069 4.61882 0.37675 4.63275 0.37676 5.00953 h 11.89992 0.0137 11.89991 v -5.00953 -0.37676 -4.63275 -0.37675 -4.61882 -0.39069 -4.63275 -0.37676 -4.61881 -0.37676 -4.64671 -0.37675 -4.63276 -0.37677 -4.61881 -0.39067 -5.00952 z"
      fill-rule="nonzero"
      stroke-width="14.0495"
    />
    <path
      stroke="none"
      gorn="0.3.0.0.41.0.0.0"
      id="path1031"
      fill="#313030"
      fill-opacity="1"
      d="m 386.00398,535.5651 h -0.0137 -11.89992 v 5.00952 0.39067 4.61881 0.37677 4.63276 0.37675 4.64671 0.37676 4.61881 0.37676 4.63275 0.39069 4.61882 0.37675 4.63275 0.37676 5.00953 h 11.89992 0.0137 11.89991 v -5.00953 -0.37676 -4.63275 -0.37675 -4.61882 -0.39069 -4.63275 -0.37676 -4.61881 -0.37676 -4.64671 -0.37675 -4.63276 -0.37677 -4.61881 -0.39067 -5.00952 z"
      fill-rule="nonzero"
      stroke-width="14.0495"
    />
    <path
      stroke="none"
      gorn="0.3.0.0.42.0.0.0"
      id="path1039"
      fill="#a7a5a6"
      fill-opacity="1"
      d="m 347.40864,586.93848 c 3.28759,0 5.94293,-2.63732 5.94293,-5.91653 h -11.89991 c 0,3.27921 2.6694,5.91653 5.95698,5.91653"
      fill-rule="nonzero"
      stroke-width="14.0495"
    />
    <path
      stroke="none"
      gorn="0.3.0.0.43.0.0.0"
      id="path1043"
      fill="#a7a5a6"
      fill-opacity="1"
      d="m 347.40864,529.66389 c -3.28758,0 -5.95698,2.63735 -5.95698,5.9026 h 11.89991 c 0,-3.26525 -2.65534,-5.9026 -5.94293,-5.9026"
      fill-rule="nonzero"
      stroke-width="14.0495"
    />
    <path
      stroke="none"
      gorn="0.3.0.0.44.0.0.0"
      id="path1047"
      fill="#a7a5a6"
      fill-opacity="1"
      d="m 359.31137,586.93848 c 3.28758,0 5.95698,-2.63732 5.95698,-5.91653 h -11.89991 c 0,3.27921 2.66939,5.91653 5.94293,5.91653"
      fill-rule="nonzero"
      stroke-width="14.0495"
    />
    <path
      stroke="none"
      gorn="0.3.0.0.45.0.0.0"
      id="path1051"
      fill="#a7a5a6"
      fill-opacity="1"
      d="m 359.31137,529.66389 c -3.27354,0 -5.94293,2.63735 -5.94293,5.9026 h 11.89991 c 0,-3.26525 -2.6694,-5.9026 -5.95698,-5.9026"
      fill-rule="nonzero"
      stroke-width="14.0495"
    />
    <path
      stroke="none"
      gorn="0.3.0.0.46.0.0.0"
      id="path1055"
      fill="#15909c"
      fill-opacity="1"
      d="m 353.36983,535.5651 h -0.0136 -11.89992 v 5.00952 0.39067 4.61881 0.37677 4.63276 0.37675 4.64671 0.37676 4.61881 0.37676 4.63275 0.39069 4.61882 0.37675 4.63275 0.37676 5.00953 h 11.89992 0.0136 11.89992 v -5.00953 -0.37676 -4.63275 -0.37675 -4.61882 -0.39069 -4.63275 -0.37676 -4.61881 -0.37676 -4.64671 -0.37675 -4.63276 -0.37677 -4.61881 -0.39067 -5.00952 z"
      fill-rule="nonzero"
      stroke-width="14.0495"
    />
    <path
      stroke="none"
      gorn="0.3.0.0.47.0.0.0"
      id="path1059"
      fill="#313030"
      fill-opacity="1"
      d="m 353.36983,535.5651 h -0.0136 -11.89992 v 5.00952 0.39067 4.61881 0.37677 4.63276 0.37675 4.64671 0.37676 4.61881 0.37676 4.63275 0.39069 4.61882 0.37675 4.63275 0.37676 5.00953 h 11.89992 0.0136 11.89992 v -5.00953 -0.37676 -4.63275 -0.37675 -4.61882 -0.39069 -4.63275 -0.37676 -4.61881 -0.37676 -4.64671 -0.37675 -4.63276 -0.37677 -4.61881 -0.39067 -5.00952 z"
      fill-rule="nonzero"
      stroke-width="14.0495"
    />
    <path
      stroke="none"
      gorn="0.3.0.0.48"
      id="path1065"
      fill="#15909c"
      fill-opacity="1"
      d="m 434.76132,363.28366 h -93.31669 v -61.06312 h 93.31669 z"
      fill-rule="nonzero"
      stroke-width="14.0495"
    />
    <path
      stroke="none"
      gorn="0.3.0.0.49"
      id="path1067"
      fill="#edac09"
      fill-opacity="1"
      d="m 434.76132,363.28366 h -93.31669 v -61.06312 h 93.31669 z"
      fill-rule="nonzero"
      stroke-width="14.0495"
    />
    <path
      stroke="none"
      gorn="0.3.0.0.50"
      id="path1069"
      fill="#f36917"
      fill-opacity="1"
      d="m 434.76132,363.28366 h -93.31669 v -61.06312 h 93.31669 z"
      fill-rule="nonzero"
      stroke-width="14.0495"
    />
    <path
      stroke="none"
      gorn="0.3.0.0.51"
      id="path1071"
      fill="#333333"
      fill-opacity="1"
      d="m 434.76132,363.28366 h -93.31669 v -61.06312 h 93.31669 z"
      fill-rule="nonzero"
      stroke-width="14.0495"
    />
    <path
      stroke="none"
      gorn="0.3.0.0.52"
      id="path1073"
      fill="#a7a5a6"
      fill-opacity="1"
      d="M 365.55355,398.1689 H 349.4388 v -44.15076 h 16.11475 z"
      fill-rule="nonzero"
      stroke-width="14.0495"
    />
    <path
      stroke="none"
      gorn="0.3.0.0.53"
      id="path1075"
      fill="#a7a5a6"
      fill-opacity="1"
      d="m 426.79526,398.1689 h -16.11477 v -44.15076 h 16.11477 z"
      fill-rule="nonzero"
      stroke-width="14.0495"
    />
    <path
      stroke="none"
      gorn="0.3.0.0.54"
      id="path1077"
      fill="#a7a5a6"
      fill-opacity="1"
      d="M 365.55355,318.85382 H 349.4388 v -44.1647 h 16.11475 z"
      fill-rule="nonzero"
      stroke-width="14.0495"
    />
    <path
      stroke="none"
      gorn="0.3.0.0.55"
      id="path1079"
      fill="#a7a5a6"
      fill-opacity="1"
      d="m 426.79526,318.85382 h -16.11477 v -44.1647 h 16.11477 z"
      fill-rule="nonzero"
      stroke-width="14.0495"
    />
    <path
      stroke="none"
      gorn="0.3.0.0.56.0.0.0"
      id="path1083"
      fill="#a7a5a6"
      fill-opacity="1"
      d="m 709.93734,287.3748 v 0.0136 h 12.4619 1.01156 12.44784 v -0.11167 c 6.82805,-0.25118 12.30735,-5.7491 12.30735,-12.58661 0,-6.83749 -5.4793,-12.34935 -12.30735,-12.6145 v -0.0837 h -12.44784 -1.01156 -12.4619 c -7.06689,0 -12.78502,5.6793 -12.78502,12.69821 0,7.00497 5.71813,12.68429 12.78502,12.68429"
      fill-rule="nonzero"
      stroke-width="14.0495"
    />
    <path
      stroke="none"
      gorn="0.3.0.0.57"
      id="path1085"
      fill="#806f5c"
      fill-opacity="1"
      d="m 713.36261,261.9909 h 18.91061 v 25.39646 h -18.91061 z"
      fill-rule="nonzero"
      stroke-width="14.0495"
    />
    <path
      stroke="none"
      gorn="0.3.0.0.58"
      id="path1087"
      fill="#806f5c"
      fill-opacity="1"
      d="m 713.36261,261.9909 h 18.91061 v 25.39646 h -18.91061 z"
      fill-rule="nonzero"
      stroke-width="14.0495"
    />
    <path
      stroke="none"
      gorn="0.3.0.0.59"
      id="path1089"
      fill="#806f5c"
      fill-opacity="1"
      d="m 713.36261,261.9909 h 18.91061 v 25.39646 h -18.91061 z"
      fill-rule="nonzero"
      stroke-width="14.0495"
    />
    <path
      stroke="none"
      gorn="0.3.0.0.60"
      id="path1091"
      fill="#806f5c"
      fill-opacity="1"
      d="m 713.36261,261.9909 h 18.91061 v 25.39646 h -18.91061 z"
      fill-rule="nonzero"
      stroke-width="14.0495"
    />
    <path
      stroke="none"
      gorn="0.3.0.0.61.0.0.0"
      id="path1095"
      fill="#a7a5a6"
      fill-opacity="1"
      d="m 300.38923,127.67297 v 0.0136 h 12.46189 1.01156 12.44784 v -0.0973 c 6.82806,-0.26508 12.30736,-5.76303 12.30736,-12.6145 0,-6.8375 -5.4793,-12.33541 -12.30736,-12.60053 v -0.0976 h -12.44784 -1.01156 -12.46189 c -7.06689,0 -12.78503,5.69328 -12.78503,12.69823 0,7.0189 5.71814,12.69822 12.78503,12.69822"
      fill-rule="nonzero"
      stroke-width="14.0495"
    />
    <path
      stroke="none"
      gorn="0.3.0.0.62"
      id="path1097"
      fill="#806f5c"
      fill-opacity="1"
      d="m 303.82011,102.27235 h 18.92466 v 25.41041 h -18.92466 z"
      fill-rule="nonzero"
      stroke-width="14.0495"
    />
    <path
      stroke="none"
      gorn="0.3.0.0.63"
      id="path1099"
      fill="#806f5c"
      fill-opacity="1"
      d="m 303.82011,102.27235 h 18.92466 v 25.41041 h -18.92466 z"
      fill-rule="nonzero"
      stroke-width="14.0495"
    />
    <path
      stroke="none"
      gorn="0.3.0.0.64"
      id="path1101"
      fill="#806f5c"
      fill-opacity="1"
      d="m 303.82011,102.27235 h 18.92466 v 25.41041 h -18.92466 z"
      fill-rule="nonzero"
      stroke-width="14.0495"
    />
    <path
      stroke="none"
      gorn="0.3.0.0.65"
      id="path1103"
      fill="#806f5c"
      fill-opacity="1"
      d="m 303.82011,102.27235 h 18.92466 v 25.41041 h -18.92466 z"
      fill-rule="nonzero"
      stroke-width="14.0495"
    />
    <path
      stroke="none"
      gorn="0.3.0.0.66.0.0.0"
      id="path1107"
      fill="#a7a5a6"
      fill-opacity="1"
      d="m 361.3626,510.24539 v 0 h 12.46189 1.01156 12.44784 v -0.0973 c 6.82806,-0.26509 12.30736,-5.76304 12.30736,-12.60054 0,-6.83752 -5.4793,-12.34937 -12.30736,-12.60056 v -0.0973 h -12.44784 -1.01156 -12.46189 c -7.0669,0 -12.78504,5.69327 -12.78504,12.69823 0,7.01891 5.71814,12.69822 12.78504,12.69822"
      fill-rule="nonzero"
      stroke-width="14.0495"
    />
    <path
      stroke="none"
      gorn="0.3.0.0.67"
      id="path1109"
      fill="#806f5c"
      fill-opacity="1"
      d="m 364.79488,484.83777 h 18.92466 v 25.39646 h -18.92466 z"
      fill-rule="nonzero"
      stroke-width="14.0495"
    />
    <path
      stroke="none"
      gorn="0.3.0.0.68"
      id="path1111"
      fill="#806f5c"
      fill-opacity="1"
      d="m 364.79488,484.83777 h 18.92466 v 25.39646 h -18.92466 z"
      fill-rule="nonzero"
      stroke-width="14.0495"
    />
    <path
      stroke="none"
      gorn="0.3.0.0.69"
      id="path1113"
      fill="#806f5c"
      fill-opacity="1"
      d="m 364.79488,484.83777 h 18.92466 v 25.39646 h -18.92466 z"
      fill-rule="nonzero"
      stroke-width="14.0495"
    />
    <path
      stroke="none"
      gorn="0.3.0.0.70"
      id="path1115"
      fill="#806f5c"
      fill-opacity="1"
      d="m 364.79488,484.83777 h 18.92466 v 25.39646 h -18.92466 z"
      fill-rule="nonzero"
      stroke-width="14.0495"
    />
    <path
      stroke="none"
      gorn="0.3.0.0.71.0.0.0"
      id="path1119"
      fill="#a7a5a6"
      fill-opacity="1"
      d="m 277.36072,589.40556 v 0.0136 h 12.4619 1.01156 12.44784 v -0.0973 c 6.82806,-0.26509 12.30736,-5.76304 12.30736,-12.60054 0,-6.83751 -5.4793,-12.34938 -12.30736,-12.60055 v -0.0973 h -12.44784 -1.01156 -12.4619 c -7.0669,0 -12.78503,5.69327 -12.78503,12.69821 0,7.00496 5.71813,12.68427 12.78503,12.68427"
      fill-rule="nonzero"
      stroke-width="14.0495"
    />
    <path
      stroke="none"
      gorn="0.3.0.0.72"
      id="path1121"
      fill="#806f5c"
      fill-opacity="1"
      d="m 280.793,564.01331 h 18.91061 v 25.39644 H 280.793 Z"
      fill-rule="nonzero"
      stroke-width="14.0495"
    />
    <path
      stroke="none"
      gorn="0.3.0.0.73"
      id="path1123"
      fill="#806f5c"
      fill-opacity="1"
      d="m 280.793,564.01331 h 18.91061 v 25.39644 H 280.793 Z"
      fill-rule="nonzero"
      stroke-width="14.0495"
    />
    <path
      stroke="none"
      gorn="0.3.0.0.74"
      id="path1125"
      fill="#806f5c"
      fill-opacity="1"
      d="m 280.793,564.01331 h 18.91061 v 25.39644 H 280.793 Z"
      fill-rule="nonzero"
      stroke-width="14.0495"
    />
    <path
      stroke="none"
      gorn="0.3.0.0.75"
      id="path1127"
      fill="#806f5c"
      fill-opacity="1"
      d="m 280.793,564.01331 h 18.91061 v 25.39644 H 280.793 Z"
      fill-rule="nonzero"
      stroke-width="14.0495"
    />
    <path
      stroke="none"
      gorn="0.3.0.0.76.0.0.0"
      id="path1131"
      fill="#a7a5a6"
      fill-opacity="1"
      d="m 742.15984,127.67297 v 0.0136 h 12.46189 1.01157 12.44784 v -0.0973 c 6.82804,-0.26508 12.30735,-5.76303 12.30735,-12.6145 0,-6.8375 -5.47931,-12.33541 -12.30735,-12.60053 v -0.0976 h -12.44784 -1.01157 -12.46189 c -7.0669,0 -12.78504,5.69328 -12.78504,12.69823 0,7.0189 5.71814,12.69822 12.78504,12.69822"
      fill-rule="nonzero"
      stroke-width="14.0495"
    />
    <path
      stroke="none"
      gorn="0.3.0.0.77"
      id="path1133"
      fill="#806f5c"
      fill-opacity="1"
      d="m 745.59213,102.27235 h 18.9106 v 25.41041 h -18.9106 z"
      fill-rule="nonzero"
      stroke-width="14.0495"
    />
    <path
      stroke="none"
      gorn="0.3.0.0.78"
      id="path1135"
      fill="#806f5c"
      fill-opacity="1"
      d="m 745.59213,102.27235 h 18.9106 v 25.41041 h -18.9106 z"
      fill-rule="nonzero"
      stroke-width="14.0495"
    />
    <path
      stroke="none"
      gorn="0.3.0.0.79"
      id="path1137"
      fill="#806f5c"
      fill-opacity="1"
      d="m 745.59213,102.27235 h 18.9106 v 25.41041 h -18.9106 z"
      fill-rule="nonzero"
      stroke-width="14.0495"
    />
    <path
      stroke="none"
      gorn="0.3.0.0.80"
      id="path1139"
      fill="#806f5c"
      fill-opacity="1"
      d="m 745.59213,102.27235 h 18.9106 v 25.41041 h -18.9106 z"
      fill-rule="nonzero"
      stroke-width="14.0495"
    />
    <path
      stroke="none"
      gorn="0.3.0.0.81.0.0.0"
      id="path1143"
      fill="#a7a5a6"
      fill-opacity="1"
      d="m 536.54843,212.23618 v 0.0136 h 12.46189 1.01157 12.44785 v -0.0973 c 6.82804,-0.2651 12.30734,-5.76304 12.30734,-12.60055 0,-6.83749 -5.4793,-12.34936 -12.30734,-12.60055 v -0.0973 h -12.44785 -1.01157 -12.46189 c -7.06689,0 -12.78503,5.69327 -12.78503,12.69823 0,7.00496 5.71814,12.68427 12.78503,12.68427"
      fill-rule="nonzero"
      stroke-width="14.0495"
    />
    <path
      stroke="none"
      gorn="0.3.0.0.82"
      id="path1145"
      fill="#806f5c"
      fill-opacity="1"
      d="m 539.97792,186.84811 h 18.9106 v 25.39644 h -18.9106 z"
      fill-rule="nonzero"
      stroke-width="14.0495"
    />
    <path
      stroke="none"
      gorn="0.3.0.0.83"
      id="path1147"
      fill="#806f5c"
      fill-opacity="1"
      d="m 539.97792,186.84811 h 18.9106 v 25.39644 h -18.9106 z"
      fill-rule="nonzero"
      stroke-width="14.0495"
    />
    <path
      stroke="none"
      gorn="0.3.0.0.84"
      id="path1149"
      fill="#806f5c"
      fill-opacity="1"
      d="m 539.97792,186.84811 h 18.9106 v 25.39644 h -18.9106 z"
      fill-rule="nonzero"
      stroke-width="14.0495"
    />
    <path
      stroke="none"
      gorn="0.3.0.0.85"
      id="path1151"
      fill="#806f5c"
      fill-opacity="1"
      d="m 539.97792,186.84811 h 18.9106 v 25.39644 h -18.9106 z"
      fill-rule="nonzero"
      stroke-width="14.0495"
    />
    <path
      stroke="none"
      gorn="0.3.0.0.86.0.0.0"
      id="path1155"
      fill="#806f5c"
      fill-opacity="1"
      d="m 666.67055,233.82037 v 57.99321 h -29.06839 l 0.0284,-57.99321 z"
      fill-rule="nonzero"
      stroke-width="14.0495"
    />
    <path
      stroke="none"
      gorn="0.3.0.0.87"
      id="path1157"
      fill="#b6b5b5"
      fill-opacity="1"
      d="m 666.67618,236.85957 h -29.04029 v -3.04198 h 29.04029 z"
      fill-rule="nonzero"
      stroke-width="14.0495"
    />
    <path
      stroke="none"
      gorn="0.3.0.0.88"
      id="path1159"
      fill="#b6b5b5"
      fill-opacity="1"
      d="m 666.67618,291.81081 h -29.06839 v -3.02805 h 29.06839 z"
      fill-rule="nonzero"
      stroke-width="14.0495"
    />
    <path
      stroke="none"
      gorn="0.3.0.0.89.0.0.0"
      id="path1163"
      fill="#15909c"
      fill-opacity="1"
      d="m 466.65786,206.28058 h -105.1042 v -48.12767 l 105.1042,-0.0137 z"
      fill-rule="nonzero"
      stroke-width="14.0495"
    />
    <path
      stroke="none"
      gorn="0.3.0.0.90.0.0.0"
      id="path1167"
      fill="#edac09"
      fill-opacity="1"
      d="m 466.65786,206.28058 h -105.1042 v -48.12767 l 105.1042,-0.0137 z"
      fill-rule="nonzero"
      stroke-width="14.0495"
    />
    <path
      stroke="none"
      gorn="0.3.0.0.91.0.0.0"
      id="path1171"
      fill="#f36917"
      fill-opacity="1"
      d="m 466.65786,206.28058 h -105.1042 v -48.12767 l 105.1042,-0.0137 z"
      fill-rule="nonzero"
      stroke-width="14.0495"
    />
    <path
      stroke="none"
      gorn="0.3.0.0.92.0.0.0"
      id="path1175"
      fill="#333333"
      fill-opacity="1"
      d="m 466.65786,206.28058 h -105.1042 v -48.12767 l 105.1042,-0.0137 z"
      fill-rule="nonzero"
      stroke-width="14.0495"
    />
    <path
      stroke="none"
      gorn="0.3.0.0.93"
      id="path1177"
      fill="#a7a5a6"
      fill-opacity="1"
      d="m 369.76839,189.15054 h -39.18401 v -14.12155 h 39.18401 z"
      fill-rule="nonzero"
      stroke-width="14.0495"
    />
    <path
      stroke="none"
      gorn="0.3.0.0.94"
      id="path1179"
      fill="#a7a5a6"
      fill-opacity="1"
      d="m 490.76257,189.40171 h -39.21212 v -14.12154 h 39.21212 z"
      fill-rule="nonzero"
      stroke-width="14.0495"
    />
    <path
      stroke="none"
      gorn="0.3.0.0.95"
      id="path1181"
      fill="#a7a5a6"
      fill-opacity="1"
      d="m 1281.2287,142.26477 h 573.6686 v 418.45538 h -573.6686 z"
      fill-rule="nonzero"
      stroke-width="14.0495"
    />
    <path
      stroke="none"
      gorn="0.3.0.0.96.0.0.0"
      id="path1185"
      fill="#cac9c9"
      fill-opacity="1"
      d="m 1694.9173,542.51423 v -0.25116 h 0.6038 V 159.69763 l -0.6038,0.59999 v -0.11168 -0.61401 h -392.7394 v 1.21402 h -0.6037 v 381.47702 h 0.843 l -0.2393,0.25116 z"
      fill-rule="nonzero"
      stroke-width="14.0495"
    />
    <path
      stroke="none"
      gorn="0.3.0.0.97.0.0.0"
      id="path1189"
      fill="#cac9c9"
      fill-opacity="1"
      d="m 1810.6611,542.51423 h 22.0858 V 158.99992 h -41.7692 v 305.53885 h -31.2882 V 158.99992 h -41.7832 v 383.51431 h 25.0783 v -24.58711 h 13.3753 v 7.56312 h 40.6872 l 0.2529,-7.56312 h 13.3611 z"
      fill-rule="nonzero"
      stroke-width="14.0495"
    />
    <path
      stroke="none"
      gorn="0.3.0.0.98"
      id="path1191"
      fill="#15909c"
      fill-opacity="1"
      d="M 855.69795,165.03785 H 1122.5539 V 429.95634 H 855.69795 Z"
      fill-rule="nonzero"
      stroke-width="14.0495"
    />
    <path
      stroke="none"
      gorn="0.3.0.0.99"
      id="path1193"
      fill="#333333"
      fill-opacity="1"
      d="M 855.69795,165.03785 H 1122.5539 V 429.95634 H 855.69795 Z"
      fill-rule="nonzero"
      stroke-width="14.0495"
    />
    <path
      stroke="none"
      gorn="0.3.0.0.100"
      id="path1197"
      fill="#a7a5a6"
      fill-opacity="1"
      d="m 1094.2582,454.8923 h -24.4601 v -49.74635 h 24.4601 z"
      fill-rule="nonzero"
      stroke-width="14.0495"
    />
    <path
      stroke="none"
      gorn="0.3.0.0.101"
      id="path1199"
      fill="#a7a5a6"
      fill-opacity="1"
      d="m 1057.0973,454.8923 h -24.4461 v -49.74635 h 24.4461 z"
      fill-rule="nonzero"
      stroke-width="14.0495"
    />
    <path
      stroke="none"
      gorn="0.3.0.0.102"
      id="path1201"
      fill="#a7a5a6"
      fill-opacity="1"
      d="m 1019.9364,454.8923 h -24.46013 v -49.74635 h 24.46013 z"
      fill-rule="nonzero"
      stroke-width="14.0495"
    />
    <path
      stroke="none"
      gorn="0.3.0.0.103"
      id="path1203"
      fill="#a7a5a6"
      fill-opacity="1"
      d="m 982.77553,454.8923 h -24.46014 v -49.74635 h 24.46014 z"
      fill-rule="nonzero"
      stroke-width="14.0495"
    />
    <path
      stroke="none"
      gorn="0.3.0.0.104"
      id="path1205"
      fill="#a7a5a6"
      fill-opacity="1"
      d="M 945.61465,454.8923 H 921.1545 v -49.74635 h 24.46015 z"
      fill-rule="nonzero"
      stroke-width="14.0495"
    />
    <path
      stroke="none"
      gorn="0.3.0.0.105"
      id="path1207"
      fill="#a7a5a6"
      fill-opacity="1"
      d="M 908.45376,454.8923 H 883.9936 v -49.74635 h 24.46016 z"
      fill-rule="nonzero"
      stroke-width="14.0495"
    />
    <path
      stroke="none"
      gorn="0.3.0.0.106"
      id="path1209"
      fill="#a7a5a6"
      fill-opacity="1"
      d="m 1094.2582,189.84824 h -24.4601 v -49.74636 h 24.4601 z"
      fill-rule="nonzero"
      stroke-width="14.0495"
    />
    <path
      stroke="none"
      gorn="0.3.0.0.107"
      id="path1211"
      fill="#a7a5a6"
      fill-opacity="1"
      d="m 1057.0973,189.84824 h -24.4461 v -49.74636 h 24.4461 z"
      fill-rule="nonzero"
      stroke-width="14.0495"
    />
    <path
      stroke="none"
      gorn="0.3.0.0.108"
      id="path1213"
      fill="#a7a5a6"
      fill-opacity="1"
      d="m 1019.9364,189.84824 h -24.46013 v -49.74636 h 24.46013 z"
      fill-rule="nonzero"
      stroke-width="14.0495"
    />
    <path
      stroke="none"
      gorn="0.3.0.0.109"
      id="path1215"
      fill="#a7a5a6"
      fill-opacity="1"
      d="m 982.77553,189.84824 h -24.46014 v -49.74636 h 24.46014 z"
      fill-rule="nonzero"
      stroke-width="14.0495"
    />
    <path
      stroke="none"
      gorn="0.3.0.0.110"
      id="path1217"
      fill="#a7a5a6"
      fill-opacity="1"
      d="M 945.61465,189.84824 H 921.1545 v -49.74636 h 24.46015 z"
      fill-rule="nonzero"
      stroke-width="14.0495"
    />
    <path
      stroke="none"
      gorn="0.3.0.0.111"
      id="path1219"
      fill="#a7a5a6"
      fill-opacity="1"
      d="M 908.45376,189.84824 H 883.9936 v -49.74636 h 24.46016 z"
      fill-rule="nonzero"
      stroke-width="14.0495"
    />
    <path
      stroke="none"
      gorn="0.3.0.0.112"
      id="path1221"
      fill="#a7a5a6"
      fill-opacity="1"
      d="m 880.73413,401.9086 h -50.07236 v -24.29408 h 50.07236 z"
      fill-rule="nonzero"
      stroke-width="14.0495"
    />
    <path
      stroke="none"
      gorn="0.3.0.0.113"
      id="path1223"
      fill="#a7a5a6"
      fill-opacity="1"
      d="M 880.73413,365.01396 H 830.66177 V 340.7199 h 50.07236 z"
      fill-rule="nonzero"
      stroke-width="14.0495"
    />
    <path
      stroke="none"
      gorn="0.3.0.0.114"
      id="path1225"
      fill="#a7a5a6"
      fill-opacity="1"
      d="m 880.73413,328.09144 h -50.07236 v -24.29407 h 50.07236 z"
      fill-rule="nonzero"
      stroke-width="14.0495"
    />
    <path
      stroke="none"
      gorn="0.3.0.0.115"
      id="path1227"
      fill="#a7a5a6"
      fill-opacity="1"
      d="m 880.73413,291.1968 h -50.07236 v -24.29406 h 50.07236 z"
      fill-rule="nonzero"
      stroke-width="14.0495"
    />
    <path
      stroke="none"
      gorn="0.3.0.0.116"
      id="path1229"
      fill="#a7a5a6"
      fill-opacity="1"
      d="m 880.73413,254.27428 h -50.07236 v -24.29407 h 50.07236 z"
      fill-rule="nonzero"
      stroke-width="14.0495"
    />
    <path
      stroke="none"
      gorn="0.3.0.0.117"
      id="path1231"
      fill="#a7a5a6"
      fill-opacity="1"
      d="m 880.73413,217.37967 h -50.07236 v -24.29408 h 50.07236 z"
      fill-rule="nonzero"
      stroke-width="14.0495"
    />
    <path
      stroke="none"
      gorn="0.3.0.0.118"
      id="path1233"
      fill="#a7a5a6"
      fill-opacity="1"
      d="m 1147.5901,401.9086 h -50.0723 v -24.29408 h 50.0723 z"
      fill-rule="nonzero"
      stroke-width="14.0495"
    />
    <path
      stroke="none"
      gorn="0.3.0.0.119"
      id="path1235"
      fill="#a7a5a6"
      fill-opacity="1"
      d="m 1147.5901,365.01396 h -50.0723 V 340.7199 h 50.0723 z"
      fill-rule="nonzero"
      stroke-width="14.0495"
    />
    <path
      stroke="none"
      gorn="0.3.0.0.120"
      id="path1237"
      fill="#a7a5a6"
      fill-opacity="1"
      d="m 1147.5901,328.09144 h -50.0723 v -24.29407 h 50.0723 z"
      fill-rule="nonzero"
      stroke-width="14.0495"
    />
    <path
      stroke="none"
      gorn="0.3.0.0.121"
      id="path1239"
      fill="#a7a5a6"
      fill-opacity="1"
      d="m 1147.5901,291.1968 h -50.0723 v -24.29406 h 50.0723 z"
      fill-rule="nonzero"
      stroke-width="14.0495"
    />
    <path
      stroke="none"
      gorn="0.3.0.0.122"
      id="path1241"
      fill="#a7a5a6"
      fill-opacity="1"
      d="m 1147.5901,254.27428 h -50.0723 v -24.29407 h 50.0723 z"
      fill-rule="nonzero"
      stroke-width="14.0495"
    />
    <path
      stroke="none"
      gorn="0.3.0.0.123"
      id="path1243"
      fill="#a7a5a6"
      fill-opacity="1"
      d="m 1147.5901,217.37967 h -50.0723 v -24.29408 h 50.0723 z"
      fill-rule="nonzero"
      stroke-width="14.0495"
    />
    <path
      stroke="none"
      gorn="0.3.0.0.124.0.0.0"
      id="path1247"
      fill="#7fc3c5"
      fill-opacity="1"
      d="m 1206.685,128.23116 -0.01,-7.88408 h -8.472 v 7.88408 z"
      fill-rule="nonzero"
      stroke-width="14.0495"
    />
    <path
      stroke="none"
      gorn="0.3.0.0.125.0.0.0"
      id="path1251"
      fill="#7fc3c5"
      fill-opacity="1"
      d="m 1223.4094,128.23116 -0.01,-7.88408 h -8.4859 v 7.88408 z"
      fill-rule="nonzero"
      stroke-width="14.0495"
    />
    <path
      stroke="none"
      gorn="0.3.0.0.126.0.0.0"
      id="path1255"
      fill="#7fc3c5"
      fill-opacity="1"
      d="m 1240.12,128.23116 -0.011,-7.88408 h -8.4718 v 7.88408 z"
      fill-rule="nonzero"
      stroke-width="14.0495"
    />
    <path
      stroke="none"
      gorn="0.3.0.0.127.0.0.0"
      id="path1259"
      fill="#7fc3c5"
      fill-opacity="1"
      d="m 1256.8459,128.23116 -0.01,-7.88408 h -8.4718 v 7.88408 z"
      fill-rule="nonzero"
      stroke-width="14.0495"
    />
    <path
      stroke="none"
      gorn="0.3.0.0.128.0.0.0"
      id="path1263"
      fill="#7fc3c5"
      fill-opacity="1"
      d="m 1206.685,255.58318 -0.01,-7.88406 h -8.472 v 7.88406 z"
      fill-rule="nonzero"
      stroke-width="14.0495"
    />
    <path
      stroke="none"
      gorn="0.3.0.0.129.0.0.0"
      id="path1267"
      fill="#7fc3c5"
      fill-opacity="1"
      d="m 1223.4094,255.58318 -0.01,-7.88406 h -8.4859 v 7.88406 z"
      fill-rule="nonzero"
      stroke-width="14.0495"
    />
    <path
      stroke="none"
      gorn="0.3.0.0.130.0.0.0"
      id="path1271"
      fill="#7fc3c5"
      fill-opacity="1"
      d="m 1240.12,255.58318 -0.011,-7.88406 h -8.4718 v 7.88406 z"
      fill-rule="nonzero"
      stroke-width="14.0495"
    />
    <path
      stroke="none"
      gorn="0.3.0.0.131.0.0.0"
      id="path1275"
      fill="#7fc3c5"
      fill-opacity="1"
      d="m 1256.8459,255.58318 -0.01,-7.88406 h -8.4718 v 7.88406 z"
      fill-rule="nonzero"
      stroke-width="14.0495"
    />
    <path
      stroke="none"
      gorn="0.3.0.0.132.0.0.0"
      id="path1279"
      fill="#333333"
      fill-opacity="1"
      d="m 1262.4839,128.22556 h -8.261 l -61.4807,0.0136 -0.031,10.82839 -0.1686,108.63262 h 8.2611 v -0.0136 l 53.2334,-0.0137 v 0.0137 l 8.233,-0.0137 z"
      fill-rule="nonzero"
      stroke-width="14.0495"
    />
    <path
      stroke="none"
      gorn="0.3.0.0.133"
      id="path1281"
      fill="#a7a5a6"
      fill-opacity="1"
      d="m 1182.2642,579.40467 h 63.574 v -31.29902 h -63.574 z"
      fill-rule="nonzero"
      stroke-width="14.0495"
    />
    <path
      stroke="none"
      gorn="0.3.0.0.134"
      id="path1283"
      fill="#a7a5a6"
      fill-opacity="1"
      d="m 1182.2642,499.48956 h 63.574 v -31.29902 h -63.574 z"
      fill-rule="nonzero"
      stroke-width="14.0495"
    />
    <path
      stroke="none"
      gorn="0.3.0.0.135.0.0.0"
      id="path1287"
      fill="#806f5c"
      fill-opacity="1"
      d="m 1238.625,496.07362 c 0,-6.69798 -5.5354,-12.18192 -12.2791,-12.18192 h -24.5726 c -6.7718,0 -12.3073,5.48394 -12.3073,12.18192 v 3.41874 h 49.159 z"
      fill-rule="nonzero"
      stroke-width="14.0495"
    />
    <path
      stroke="none"
      gorn="0.3.0.0.136.0.0.0"
      id="path1291"
      fill="#806f5c"
      fill-opacity="1"
      d="m 1189.466,551.50765 c 0,6.69795 5.5355,12.22377 12.3073,12.22377 h 24.5726 c 6.7437,0 12.2791,-5.52582 12.2791,-12.22377 v -3.40481 h -49.159 z"
      fill-rule="nonzero"
      stroke-width="14.0495"
    />
    <path
      stroke="none"
      gorn="0.3.0.0.137"
      id="path1293"
      fill="#15909c"
      fill-opacity="1"
      d="m 1238.6308,499.48956 h -49.1592 v 48.60212 h 49.1592 z"
      fill-rule="nonzero"
      stroke-width="14.0495"
    />
    <path
      stroke="none"
      gorn="0.3.0.0.138"
      id="path1295"
      fill="#313030"
      fill-opacity="1"
      d="m 1238.6308,499.48956 h -49.1592 v 48.60212 h 49.1592 z"
      fill-rule="nonzero"
      stroke-width="14.0495"
    />
    <path
      stroke="none"
      gorn="0.3.0.0.139.0.0.0"
      id="path1301"
      fill="#a7a5a6"
      fill-opacity="1"
      d="m 1214.7929,303.8769 v 0.0136 h 12.462 1.0253 12.4477 v -0.11166 c 6.8141,-0.25118 12.2933,-5.74909 12.2933,-12.58659 0,-6.85147 -5.4792,-12.34939 -12.2933,-12.61451 v -0.0973 h -12.4477 -1.0253 -12.462 c -7.0669,0 -12.785,5.69326 -12.785,12.71218 0,7.00496 5.7181,12.68428 12.785,12.68428"
      fill-rule="nonzero"
      stroke-width="14.0495"
    />
    <path
      stroke="none"
      gorn="0.3.0.0.140"
      id="path1303"
      fill="#806f5c"
      fill-opacity="1"
      d="m 1218.2168,278.47069 h 18.9247 v 25.4104 h -18.9247 z"
      fill-rule="nonzero"
      stroke-width="14.0495"
    />
    <path
      stroke="none"
      gorn="0.3.0.0.141"
      id="path1305"
      fill="#806f5c"
      fill-opacity="1"
      d="m 1218.2168,278.47069 h 18.9247 v 25.4104 h -18.9247 z"
      fill-rule="nonzero"
      stroke-width="14.0495"
    />
    <path
      stroke="none"
      gorn="0.3.0.0.142"
      id="path1307"
      fill="#806f5c"
      fill-opacity="1"
      d="m 1218.2168,278.47069 h 18.9247 v 25.4104 h -18.9247 z"
      fill-rule="nonzero"
      stroke-width="14.0495"
    />
    <path
      stroke="none"
      gorn="0.3.0.0.143"
      id="path1309"
      fill="#313030"
      fill-opacity="1"
      d="m 1218.2168,278.47069 h 18.9247 v 25.4104 h -18.9247 z"
      fill-rule="nonzero"
      stroke-width="14.0495"
    />
    <path
      stroke="none"
      gorn="0.3.0.0.144.0.0.0"
      id="path1313"
      fill="#a7a5a6"
      fill-opacity="1"
      d="m 1513.1521,133.03554 v 0 h 12.4619 1.0253 12.4478 v -0.0973 c 6.814,-0.26507 12.2934,-5.74907 12.2934,-12.60053 0,-6.83753 -5.4794,-12.33543 -12.2934,-12.60055 v -0.0973 h -12.4478 -1.0253 -12.4619 c -7.0669,0 -12.785,5.69327 -12.785,12.69822 0,7.01891 5.7181,12.69823 12.785,12.69823"
      fill-rule="nonzero"
      stroke-width="14.0495"
    />
    <path
      stroke="none"
      gorn="0.3.0.0.145"
      id="path1315"
      fill="#806f5c"
      fill-opacity="1"
      d="m 1516.5857,107.64466 h 18.9247 v 25.39646 h -18.9247 z"
      fill-rule="nonzero"
      stroke-width="14.0495"
    />
    <path
      stroke="none"
      gorn="0.3.0.0.146"
      id="path1317"
      fill="#806f5c"
      fill-opacity="1"
      d="m 1516.5857,107.64466 h 18.9247 v 25.39646 h -18.9247 z"
      fill-rule="nonzero"
      stroke-width="14.0495"
    />
    <path
      stroke="none"
      gorn="0.3.0.0.147"
      id="path1319"
      fill="#806f5c"
      fill-opacity="1"
      d="m 1516.5857,107.64466 h 18.9247 v 25.39646 h -18.9247 z"
      fill-rule="nonzero"
      stroke-width="14.0495"
    />
    <path
      stroke="none"
      gorn="0.3.0.0.148"
      id="path1321"
      fill="#806f5c"
      fill-opacity="1"
      d="m 1516.5857,107.64466 h 18.9247 v 25.39646 h -18.9247 z"
      fill-rule="nonzero"
      stroke-width="14.0495"
    />
    <path
      stroke="none"
      gorn="0.3.0.0.149.0.0.0"
      id="path1325"
      fill="#a7a5a6"
      fill-opacity="1"
      d="m 1244.4149,390.25971 v 0 -12.39123 -1.00469 -12.36333 h -0.095 c -0.2666,-6.76773 -5.8025,-12.22377 -12.6867,-12.22377 -6.8844,0 -12.4338,5.45604 -12.6867,12.22377 h -0.095 v 12.36333 1.00469 12.39123 c 0,7.01893 5.7322,12.69824 12.7851,12.69824 7.0669,0 12.7851,-5.67931 12.7851,-12.69824"
      fill-rule="nonzero"
      stroke-width="14.0495"
    />
    <path
      stroke="none"
      gorn="0.3.0.0.150"
      id="path1327"
      fill="#806f5c"
      fill-opacity="1"
      d="m 1218.8349,368.05597 h 25.5702 v 18.79616 h -25.5702 z"
      fill-rule="nonzero"
      stroke-width="14.0495"
    />
    <path
      stroke="none"
      gorn="0.3.0.0.151"
      id="path1329"
      fill="#806f5c"
      fill-opacity="1"
      d="m 1218.8349,368.05597 h 25.5702 v 18.79616 h -25.5702 z"
      fill-rule="nonzero"
      stroke-width="14.0495"
    />
    <path
      stroke="none"
      gorn="0.3.0.0.152"
      id="path1331"
      fill="#806f5c"
      fill-opacity="1"
      d="m 1218.8349,368.05597 h 25.5702 v 18.79616 h -25.5702 z"
      fill-rule="nonzero"
      stroke-width="14.0495"
    />
    <path
      stroke="none"
      gorn="0.3.0.0.153"
      id="path1333"
      fill="#313030"
      fill-opacity="1"
      d="m 1218.8349,368.05597 h 25.5702 v 18.79616 h -25.5702 z"
      fill-rule="nonzero"
      stroke-width="14.0495"
    />
    <path
      stroke="none"
      gorn="0.3.0.0.154.0.0.0"
      id="path1337"
      fill="#a7a5a6"
      fill-opacity="1"
      d="m 1175.6905,132.97414 v 0 -12.37729 -1.00469 -12.36333 h -0.095 c -0.2666,-6.78167 -5.8024,-12.223774 -12.6866,-12.223774 -6.8844,0 -12.4338,5.442104 -12.6867,12.223774 h -0.095 v 12.36333 1.00469 12.37729 c 0,7.01892 5.7322,12.71219 12.7851,12.71219 7.0669,0 12.785,-5.69327 12.785,-12.71219"
      fill-rule="nonzero"
      stroke-width="14.0495"
    />
    <path
      stroke="none"
      gorn="0.3.0.0.155"
      id="path1339"
      fill="#806f5c"
      fill-opacity="1"
      d="m 1150.119,110.78434 h 25.5699 v 18.78222 h -25.5699 z"
      fill-rule="nonzero"
      stroke-width="14.0495"
    />
    <path
      stroke="none"
      gorn="0.3.0.0.156"
      id="path1341"
      fill="#806f5c"
      fill-opacity="1"
      d="m 1150.119,110.78434 h 25.5699 v 18.78222 h -25.5699 z"
      fill-rule="nonzero"
      stroke-width="14.0495"
    />
    <path
      stroke="none"
      gorn="0.3.0.0.157"
      id="path1343"
      fill="#806f5c"
      fill-opacity="1"
      d="m 1150.119,110.78434 h 25.5699 v 18.78222 h -25.5699 z"
      fill-rule="nonzero"
      stroke-width="14.0495"
    />
    <path
      stroke="none"
      gorn="0.3.0.0.158"
      id="path1345"
      fill="#806f5c"
      fill-opacity="1"
      d="m 1150.119,110.78434 h 25.5699 v 18.78222 h -25.5699 z"
      fill-rule="nonzero"
      stroke-width="14.0495"
    />
    <path
      stroke="none"
      gorn="0.3.0.0.159.0.0.0"
      id="path1349"
      fill="#a7a5a6"
      fill-opacity="1"
      d="m 1082.5845,564.57705 v 0 -12.37728 -1.00471 -12.36332 h -0.095 c -0.2666,-6.78169 -5.8025,-12.22378 -12.6867,-12.22378 -6.8844,0 -12.4338,5.44209 -12.6867,12.22378 h -0.095 v 12.36332 1.00471 12.37728 c 0,7.01891 5.7323,12.69822 12.7852,12.69822 7.0528,0 12.785,-5.67931 12.785,-12.69822"
      fill-rule="nonzero"
      stroke-width="14.0495"
    />
    <path
      stroke="none"
      gorn="0.3.0.0.160"
      id="path1351"
      fill="#806f5c"
      fill-opacity="1"
      d="m 1057.013,542.3984 h 25.5701 v 18.78222 h -25.5701 z"
      fill-rule="nonzero"
      stroke-width="14.0495"
    />
    <path
      stroke="none"
      gorn="0.3.0.0.161"
      id="path1353"
      fill="#806f5c"
      fill-opacity="1"
      d="m 1057.013,542.3984 h 25.5701 v 18.78222 h -25.5701 z"
      fill-rule="nonzero"
      stroke-width="14.0495"
    />
    <path
      stroke="none"
      gorn="0.3.0.0.162"
      id="path1355"
      fill="#806f5c"
      fill-opacity="1"
      d="m 1057.013,542.3984 h 25.5701 v 18.78222 h -25.5701 z"
      fill-rule="nonzero"
      stroke-width="14.0495"
    />
    <path
      stroke="none"
      gorn="0.3.0.0.163"
      id="path1357"
      fill="#806f5c"
      fill-opacity="1"
      d="m 1057.013,542.3984 h 25.5701 v 18.78222 h -25.5701 z"
      fill-rule="nonzero"
      stroke-width="14.0495"
    />
    <path
      stroke="none"
      gorn="0.3.0.0.164.0.0.0"
      id="path1361"
      fill="#a7a5a6"
      fill-opacity="1"
      d="m 1040.0258,564.57705 v 0 -12.37728 -1.00471 -12.36332 h -0.098 c -0.267,-6.78169 -5.7884,-12.22378 -12.6867,-12.22378 -6.8843,0 -12.4197,5.44209 -12.6867,12.22378 h -0.098 v 12.36332 1.00471 12.37728 c 0,7.01891 5.7322,12.69822 12.7851,12.69822 7.0669,0 12.785,-5.67931 12.785,-12.69822"
      fill-rule="nonzero"
      stroke-width="14.0495"
    />
    <path
      stroke="none"
      gorn="0.3.0.0.165"
      id="path1363"
      fill="#806f5c"
      fill-opacity="1"
      d="m 1014.4571,542.3984 h 25.5701 v 18.78222 h -25.5701 z"
      fill-rule="nonzero"
      stroke-width="14.0495"
    />
    <path
      stroke="none"
      gorn="0.3.0.0.166"
      id="path1365"
      fill="#806f5c"
      fill-opacity="1"
      d="m 1014.4571,542.3984 h 25.5701 v 18.78222 h -25.5701 z"
      fill-rule="nonzero"
      stroke-width="14.0495"
    />
    <path
      stroke="none"
      gorn="0.3.0.0.167"
      id="path1367"
      fill="#806f5c"
      fill-opacity="1"
      d="m 1014.4571,542.3984 h 25.5701 v 18.78222 h -25.5701 z"
      fill-rule="nonzero"
      stroke-width="14.0495"
    />
    <path
      stroke="none"
      gorn="0.3.0.0.168"
      id="path1369"
      fill="#806f5c"
      fill-opacity="1"
      d="m 1014.4571,542.3984 h 25.5701 v 18.78222 h -25.5701 z"
      fill-rule="nonzero"
      stroke-width="14.0495"
    />
    <path
      stroke="none"
      gorn="0.3.0.0.169.0.0.0"
      id="path1373"
      fill="#a7a5a6"
      fill-opacity="1"
      d="m 997.46568,564.57705 h 0.0137 v -12.37728 -1.00471 -12.36332 H 997.367 c -0.25289,-6.78169 -5.78839,-12.22378 -12.68669,-12.22378 -6.88425,0 -12.41974,5.44209 -12.68668,12.22378 h -0.098 v 12.36332 1.00471 12.37728 c 0,7.01891 5.73219,12.69822 12.78504,12.69822 7.06689,0 12.78503,-5.67931 12.78503,-12.69822"
      fill-rule="nonzero"
      stroke-width="14.0495"
    />
    <path
      stroke="none"
      gorn="0.3.0.0.170"
      id="path1375"
      fill="#806f5c"
      fill-opacity="1"
      d="m 971.90123,542.3984 h 25.58411 v 18.78222 h -25.58411 z"
      fill-rule="nonzero"
      stroke-width="14.0495"
    />
    <path
      stroke="none"
      gorn="0.3.0.0.171"
      id="path1377"
      fill="#806f5c"
      fill-opacity="1"
      d="m 971.90123,542.3984 h 25.58411 v 18.78222 h -25.58411 z"
      fill-rule="nonzero"
      stroke-width="14.0495"
    />
    <path
      stroke="none"
      gorn="0.3.0.0.172"
      id="path1379"
      fill="#806f5c"
      fill-opacity="1"
      d="m 971.90123,542.3984 h 25.58411 v 18.78222 h -25.58411 z"
      fill-rule="nonzero"
      stroke-width="14.0495"
    />
    <path
      stroke="none"
      gorn="0.3.0.0.173"
      id="path1381"
      fill="#806f5c"
      fill-opacity="1"
      d="m 971.90123,542.3984 h 25.58411 v 18.78222 h -25.58411 z"
      fill-rule="nonzero"
      stroke-width="14.0495"
    />
    <path
      stroke="none"
      gorn="0.3.0.0.174.0.0.0"
      id="path1385"
      fill="#a7a5a6"
      fill-opacity="1"
      d="m 954.90557,564.57705 h 0.0137 v -12.37728 -1.00471 -12.36332 h -0.098 c -0.2669,-6.78169 -5.80244,-12.22378 -12.68668,-12.22378 -6.8983,0 -12.4338,5.44209 -12.70073,12.22378 h -0.098 v 12.36332 1.00471 12.37728 c 0,7.01891 5.73219,12.69822 12.79909,12.69822 7.05284,0 12.77098,-5.67931 12.77098,-12.69822"
      fill-rule="nonzero"
      stroke-width="14.0495"
    />
    <path
      stroke="none"
      gorn="0.3.0.0.175"
      id="path1387"
      fill="#806f5c"
      fill-opacity="1"
      d="m 929.3313,542.3984 h 25.5841 v 18.78222 h -25.5841 z"
      fill-rule="nonzero"
      stroke-width="14.0495"
    />
    <path
      stroke="none"
      gorn="0.3.0.0.176"
      id="path1389"
      fill="#806f5c"
      fill-opacity="1"
      d="m 929.3313,542.3984 h 25.5841 v 18.78222 h -25.5841 z"
      fill-rule="nonzero"
      stroke-width="14.0495"
    />
    <path
      stroke="none"
      gorn="0.3.0.0.177"
      id="path1391"
      fill="#806f5c"
      fill-opacity="1"
      d="m 929.3313,542.3984 h 25.5841 v 18.78222 h -25.5841 z"
      fill-rule="nonzero"
      stroke-width="14.0495"
    />
    <path
      stroke="none"
      gorn="0.3.0.0.178"
      id="path1393"
      fill="#806f5c"
      fill-opacity="1"
      d="m 929.3313,542.3984 h 25.5841 v 18.78222 h -25.5841 z"
      fill-rule="nonzero"
      stroke-width="14.0495"
    />
    <path
      stroke="none"
      gorn="0.3.0.0.179.0.0.0"
      id="path1397"
      fill="#a7a5a6"
      fill-opacity="1"
      d="m 912.35249,564.57705 v 0 -12.37728 -1.00471 -12.36332 h -0.098 c -0.26692,-6.78169 -5.7884,-12.22378 -12.6867,-12.22378 -6.88424,0 -12.41974,5.44209 -12.68668,12.22378 h -0.098 v 12.36332 1.00471 12.37728 c 0,7.01891 5.73219,12.69822 12.78505,12.69822 7.06688,0 12.78502,-5.67931 12.78502,-12.69822"
      fill-rule="nonzero"
      stroke-width="14.0495"
    />
    <path
      stroke="none"
      gorn="0.3.0.0.180"
      id="path1399"
      fill="#806f5c"
      fill-opacity="1"
      d="m 886.78945,542.3984 h 25.57007 v 18.78222 h -25.57007 z"
      fill-rule="nonzero"
      stroke-width="14.0495"
    />
    <path
      stroke="none"
      gorn="0.3.0.0.181"
      id="path1401"
      fill="#806f5c"
      fill-opacity="1"
      d="m 886.78945,542.3984 h 25.57007 v 18.78222 h -25.57007 z"
      fill-rule="nonzero"
      stroke-width="14.0495"
    />
    <path
      stroke="none"
      gorn="0.3.0.0.182"
      id="path1403"
      fill="#806f5c"
      fill-opacity="1"
      d="m 886.78945,542.3984 h 25.57007 v 18.78222 h -25.57007 z"
      fill-rule="nonzero"
      stroke-width="14.0495"
    />
    <path
      stroke="none"
      gorn="0.3.0.0.183"
      id="path1405"
      fill="#806f5c"
      fill-opacity="1"
      d="m 886.78945,542.3984 h 25.57007 v 18.78222 h -25.57007 z"
      fill-rule="nonzero"
      stroke-width="14.0495"
    />
    <path
      stroke="none"
      gorn="0.3.0.0.184.0.0.0"
      id="path1409"
      fill="#a7a5a6"
      fill-opacity="1"
      d="m 869.79239,564.57705 h 0.0137 v -12.37728 -1.00471 -12.36332 h -0.098 c -0.2669,-6.78169 -5.80244,-12.22378 -12.70073,-12.22378 -6.88426,0 -12.41975,5.44209 -12.68668,12.22378 h -0.098 v 12.36332 1.00471 12.37728 c 0,7.01891 5.73219,12.69822 12.78504,12.69822 7.06689,0 12.78503,-5.67931 12.78503,-12.69822"
      fill-rule="nonzero"
      stroke-width="14.0495"
    />
    <path
      stroke="none"
      gorn="0.3.0.0.185"
      id="path1411"
      fill="#806f5c"
      fill-opacity="1"
      d="m 844.21951,542.3984 h 25.58411 v 18.78222 h -25.58411 z"
      fill-rule="nonzero"
      stroke-width="14.0495"
    />
    <path
      stroke="none"
      gorn="0.3.0.0.186"
      id="path1413"
      fill="#806f5c"
      fill-opacity="1"
      d="m 844.21951,542.3984 h 25.58411 v 18.78222 h -25.58411 z"
      fill-rule="nonzero"
      stroke-width="14.0495"
    />
    <path
      stroke="none"
      gorn="0.3.0.0.187"
      id="path1415"
      fill="#806f5c"
      fill-opacity="1"
      d="m 844.21951,542.3984 h 25.58411 v 18.78222 h -25.58411 z"
      fill-rule="nonzero"
      stroke-width="14.0495"
    />
    <path
      stroke="none"
      gorn="0.3.0.0.188"
      id="path1417"
      fill="#806f5c"
      fill-opacity="1"
      d="m 844.21951,542.3984 h 25.58411 v 18.78222 h -25.58411 z"
      fill-rule="nonzero"
      stroke-width="14.0495"
    />
    <path
      stroke="none"
      gorn="0.3.0.0.189.0.0.0"
      id="path1421"
      fill="#a7a5a6"
      fill-opacity="1"
      d="m 599.71632,546.6837 h 0.0137 v -12.37727 -1.01862 -12.36333 h -0.098 c -0.26691,-6.76772 -5.80245,-12.20982 -12.68669,-12.20982 -6.8983,0 -12.43379,5.4421 -12.70074,12.20982 h -0.098 v 12.36333 1.01862 12.37727 c 0,7.01893 5.7322,12.69824 12.79909,12.69824 7.05283,0 12.77098,-5.67931 12.77098,-12.69824"
      fill-rule="nonzero"
      stroke-width="14.0495"
    />
    <path
      stroke="none"
      gorn="0.3.0.0.190"
      id="path1423"
      fill="#806f5c"
      fill-opacity="1"
      d="m 574.14625,524.48135 h 25.58412 v 18.79616 h -25.58412 z"
      fill-rule="nonzero"
      stroke-width="14.0495"
    />
    <path
      stroke="none"
      gorn="0.3.0.0.191"
      id="path1425"
      fill="#806f5c"
      fill-opacity="1"
      d="m 574.14625,524.48135 h 25.58412 v 18.79616 h -25.58412 z"
      fill-rule="nonzero"
      stroke-width="14.0495"
    />
    <path
      stroke="none"
      gorn="0.3.0.0.192"
      id="path1427"
      fill="#806f5c"
      fill-opacity="1"
      d="m 574.14625,524.48135 h 25.58412 v 18.79616 h -25.58412 z"
      fill-rule="nonzero"
      stroke-width="14.0495"
    />
    <path
      stroke="none"
      gorn="0.3.0.0.193"
      id="path1429"
      fill="#806f5c"
      fill-opacity="1"
      d="m 574.14625,524.48135 h 25.58412 v 18.79616 h -25.58412 z"
      fill-rule="nonzero"
      stroke-width="14.0495"
    />
    <path
      stroke="none"
      gorn="0.3.0.0.194.0.0.0"
      id="path1433"
      fill="#806f5c"
      fill-opacity="1"
      d="m 636.7606,508.82766 v 57.99321 h -29.06839 l 0.0284,-57.99321 z"
      fill-rule="nonzero"
      stroke-width="14.0495"
    />
    <path
      stroke="none"
      gorn="0.3.0.0.195"
      id="path1435"
      fill="#b6b5b5"
      fill-opacity="1"
      d="m 636.76481,511.86686 h -29.04028 v -3.04201 h 29.04028 z"
      fill-rule="nonzero"
      stroke-width="14.0495"
    />
    <path
      stroke="none"
      gorn="0.3.0.0.196"
      id="path1437"
      fill="#b6b5b5"
      fill-opacity="1"
      d="m 636.76481,566.81807 h -29.06839 v -3.02803 h 29.06839 z"
      fill-rule="nonzero"
      stroke-width="14.0495"
    />
    <path
      stroke="none"
      gorn="0.3.0.0.197.0.0.0"
      id="path1441"
      fill="#e3a100"
      fill-opacity="1"
      d="M 438.15427,593.23458 V 491.55109 l 128.00486,-0.0136 0.0284,101.69745 z"
      fill-rule="nonzero"
      stroke-width="14.0495"
    />
    <path
      stroke="none"
      gorn="0.3.0.0.198.0.0.0"
      id="path1445"
      fill="#f36917"
      fill-opacity="1"
      d="M 438.15427,593.23458 V 491.55109 l 128.00486,-0.0136 0.0284,101.69745 z"
      fill-rule="nonzero"
      stroke-width="14.0495"
    />
    <path
      stroke="none"
      gorn="0.3.0.0.199.0.0.0"
      id="path1449"
      fill="#333333"
      fill-opacity="1"
      d="M 438.15427,593.23458 V 491.55109 l 128.00486,-0.0136 0.0284,101.69745 z"
      fill-rule="nonzero"
      stroke-width="14.0495"
    />
    <path
      stroke="none"
      gorn="0.3.0.0.200.0.0.0"
      id="path1453"
      fill="#bcb2a7"
      fill-opacity="1"
      d="M 288.41205,0.00139578 V 51.492 c 0,17.303078 -14.18998,31.396712 -31.75184,31.396712 -17.42137,0 -31.61134,-14.093634 -31.61134,-31.396712 V 0.00139578 Z"
      fill-rule="nonzero"
      stroke-width="14.0495"
    />
    <path
      stroke="none"
      gorn="0.3.0.0.202.0.0.0"
      id="path1461"
      fill="#ffffff"
      fill-opacity="1"
      d="m 277.31294,0.00139578 c 0,11.30281522 -9.13217,20.51251722 -20.65274,20.51251722 -11.38008,0 -20.65274,-9.209702 -20.65274,-20.51251722 z"
      fill-rule="nonzero"
      stroke-width="14.0495"
    />
    <path
      stroke="none"
      gorn="0.3.0.0.203.0.0.0"
      id="path1465"
      fill="#bcb2a7"
      fill-opacity="1"
      d="M 388.38397,0.00139578 V 51.492 c 0,17.303078 -14.18999,31.396712 -31.75183,31.396712 -17.42138,0 -31.61135,-14.093634 -31.61135,-31.396712 V 0.00139578 Z"
      fill-rule="nonzero"
      stroke-width="14.0495"
    />
    <path
      stroke="none"
      gorn="0.3.0.0.205.0.0.0"
      id="path1473"
      fill="#ffffff"
      fill-opacity="1"
      d="m 377.28487,0.00139578 c 0,11.30281522 -9.13217,20.51251722 -20.65274,20.51251722 -11.38008,0 -20.65275,-9.209702 -20.65275,-20.51251722 z"
      fill-rule="nonzero"
      stroke-width="14.0495"
    />
    <path
      stroke="none"
      gorn="0.3.0.0.206.0.0.0"
      id="path1477"
      fill="#bcb2a7"
      fill-opacity="1"
      d="M 488.35588,0.00139578 V 51.492 c 0,17.303078 -14.18998,31.396712 -31.75183,31.396712 -17.42137,0 -31.61134,-14.093634 -31.61134,-31.396712 V 0.00139578 Z"
      fill-rule="nonzero"
      stroke-width="14.0495"
    />
    <path
      stroke="none"
      gorn="0.3.0.0.208.0.0.0"
      id="path1485"
      fill="#ffffff"
      fill-opacity="1"
      d="m 477.25679,0.00139578 c 0,11.30281522 -9.13216,20.51251722 -20.65274,20.51251722 -11.38009,0 -20.65274,-9.209702 -20.65274,-20.51251722 z"
      fill-rule="nonzero"
      stroke-width="14.0495"
    />
    <path
      stroke="none"
      gorn="0.3.0.0.209.0.0.0"
      id="path1489"
      fill="#bcb2a7"
      fill-opacity="1"
      d="M 588.32921,0.00139578 V 51.492 c 0,17.303078 -14.18998,31.396712 -31.75184,31.396712 -17.42137,0 -31.61134,-14.093634 -31.61134,-31.396712 V 0.00139578 Z"
      fill-rule="nonzero"
      stroke-width="14.0495"
    />
    <path
      stroke="none"
      gorn="0.3.0.0.211.0.0.0"
      id="path1497"
      fill="#ffffff"
      fill-opacity="1"
      d="m 577.22872,0.00139578 c 0,11.30281522 -9.13217,20.51251722 -20.65274,20.51251722 -11.38009,0 -20.65275,-9.209702 -20.65275,-20.51251722 z"
      fill-rule="nonzero"
      stroke-width="14.0495"
    />
    <path
      stroke="none"
      gorn="0.3.0.0.212.0.0.0"
      id="path1501"
      fill="#bcb2a7"
      fill-opacity="1"
      d="M 688.30114,0.00139578 V 51.492 c 0,17.303078 -14.18999,31.396712 -31.75184,31.396712 -17.42137,0 -31.61134,-14.093634 -31.61134,-31.396712 V 0.00139578 Z"
      fill-rule="nonzero"
      stroke-width="14.0495"
    />
    <path
      stroke="none"
      gorn="0.3.0.0.214.0.0.0"
      id="path1509"
      fill="#ffffff"
      fill-opacity="1"
      d="m 677.20064,0.00139578 c 0,11.30281522 -9.13217,20.51251722 -20.65276,20.51251722 -11.38007,0 -20.65274,-9.209702 -20.65274,-20.51251722 z"
      fill-rule="nonzero"
      stroke-width="14.0495"
    />
    <path
      stroke="none"
      gorn="0.3.0.0.215.0.0.0"
      id="path1513"
      fill="#bcb2a7"
      fill-opacity="1"
      d="M 788.27305,0.00139578 V 51.492 c 0,17.303078 -14.18998,31.396712 -31.75182,31.396712 -17.42137,0 -31.61135,-14.093634 -31.61135,-31.396712 V 0.00139578 Z"
      fill-rule="nonzero"
      stroke-width="14.0495"
    />
    <path
      stroke="none"
      gorn="0.3.0.0.217.0.0.0"
      id="path1521"
      fill="#ffffff"
      fill-opacity="1"
      d="m 777.17397,0.00139578 c 0,11.30281522 -9.13217,20.51251722 -20.65274,20.51251722 -11.38009,0 -20.65274,-9.209702 -20.65274,-20.51251722 z"
      fill-rule="nonzero"
      stroke-width="14.0495"
    />
    <path
      stroke="none"
      gorn="0.3.0.0.218.0.0.0"
      id="path1525"
      fill="#bcb2a7"
      fill-opacity="1"
      d="M 888.24498,0.00139578 V 51.492 c 0,17.303078 -14.18998,31.396712 -31.75183,31.396712 -17.42137,0 -31.61134,-14.093634 -31.61134,-31.396712 V 0.00139578 Z"
      fill-rule="nonzero"
      stroke-width="14.0495"
    />
    <path
      stroke="none"
      gorn="0.3.0.0.220.0.0.0"
      id="path1533"
      fill="#ffffff"
      fill-opacity="1"
      d="m 877.14588,0.00139578 c 0,11.30281522 -9.13216,20.51251722 -20.65274,20.51251722 -11.38009,0 -20.65275,-9.209702 -20.65275,-20.51251722 z"
      fill-rule="nonzero"
      stroke-width="14.0495"
    />
    <path
      stroke="none"
      gorn="0.3.0.0.221.0.0.0"
      id="path1537"
      fill="#bcb2a7"
      fill-opacity="1"
      d="M 988.21831,0.00139578 V 51.492 c 0,17.303078 -14.18999,31.396712 -31.75183,31.396712 -17.42138,0 -31.61135,-14.093634 -31.61135,-31.396712 V 0.00139578 Z"
      fill-rule="nonzero"
      stroke-width="14.0495"
    />
    <path
      stroke="none"
      gorn="0.3.0.0.223.0.0.0"
      id="path1545"
      fill="#ffffff"
      fill-opacity="1"
      d="m 977.11781,0.00139578 c 0,11.30281522 -9.13217,20.51251722 -20.65275,20.51251722 -11.38008,0 -20.65274,-9.209702 -20.65274,-20.51251722 z"
      fill-rule="nonzero"
      stroke-width="14.0495"
    />
    <path
      stroke="none"
      gorn="0.3.0.0.224.0.0.0"
      id="path1549"
      fill="#bcb2a7"
      fill-opacity="1"
      d="M 1088.1972,0.00139578 V 51.492 c 0,17.303078 -14.19,31.396712 -31.7517,31.396712 -17.4214,0 -31.6114,-14.093634 -31.6114,-31.396712 V 0.00139578 Z"
      fill-rule="nonzero"
      stroke-width="14.0495"
    />
    <path
      stroke="none"
      gorn="0.3.0.0.226.0.0.0"
      id="path1557"
      fill="#ffffff"
      fill-opacity="1"
      d="m 1077.0968,0.00139578 c 0,11.30281522 -9.1322,20.51251722 -20.6528,20.51251722 -11.38,0 -20.6527,-9.209702 -20.6527,-20.51251722 z"
      fill-rule="nonzero"
      stroke-width="14.0495"
    />
    <path
      stroke="none"
      gorn="0.3.0.0.227.0.0.0"
      id="path1561"
      fill="#bcb2a7"
      fill-opacity="1"
      d="M 1188.1622,0.00139578 V 51.492 c 0,17.303078 -14.19,31.396712 -31.7518,31.396712 -17.4215,0 -31.6114,-14.093634 -31.6114,-31.396712 V 0.00139578 Z"
      fill-rule="nonzero"
      stroke-width="14.0495"
    />
    <path
      stroke="none"
      gorn="0.3.0.0.229.0.0.0"
      id="path1569"
      fill="#ffffff"
      fill-opacity="1"
      d="m 1177.063,0.00139578 c 0,11.30281522 -9.1181,20.51251722 -20.6527,20.51251722 -11.3661,0 -20.6388,-9.209702 -20.6388,-20.51251722 z"
      fill-rule="nonzero"
      stroke-width="14.0495"
    />
    <path
      stroke="none"
      gorn="0.3.0.0.230.0.0.0"
      id="path1573"
      fill="#bcb2a7"
      fill-opacity="1"
      d="M 1288.1411,0.00139578 V 51.492 c 0,17.303078 -14.1901,31.396712 -31.7519,31.396712 -17.4214,0 -31.6112,-14.093634 -31.6112,-31.396712 V 0.00139578 Z"
      fill-rule="nonzero"
      stroke-width="14.0495"
    />
    <path
      stroke="none"
      gorn="0.3.0.0.232.0.0.0"
      id="path1581"
      fill="#ffffff"
      fill-opacity="1"
      d="m 1277.042,0.00139578 c 0,11.30281522 -9.1322,20.51251722 -20.6528,20.51251722 -11.38,0 -20.6527,-9.209702 -20.6527,-20.51251722 z"
      fill-rule="nonzero"
      stroke-width="14.0495"
    />
    <path
      stroke="none"
      gorn="0.3.0.0.233.0.0.0"
      id="path1585"
      fill="#bcb2a7"
      fill-opacity="1"
      d="M 1388.1061,0.00139578 V 51.492 c 0,17.303078 -14.1901,31.396712 -31.7519,31.396712 -17.4214,0 -31.6113,-14.093634 -31.6113,-31.396712 V 0.00139578 Z"
      fill-rule="nonzero"
      stroke-width="14.0495"
    />
    <path
      stroke="none"
      gorn="0.3.0.0.235.0.0.0"
      id="path1593"
      fill="#ffffff"
      fill-opacity="1"
      d="m 1377.0069,0.00139578 c 0,11.30281522 -9.1181,20.51251722 -20.6528,20.51251722 -11.366,0 -20.6387,-9.209702 -20.6387,-20.51251722 z"
      fill-rule="nonzero"
      stroke-width="14.0495"
    />
    <path
      stroke="none"
      gorn="0.3.0.0.236.0.0.0"
      id="path1597"
      fill="#bcb2a7"
      fill-opacity="1"
      d="M 1488.0864,0.00139578 V 51.492 c 0,17.303078 -14.1901,31.396712 -31.7518,31.396712 -17.4215,0 -31.6113,-14.093634 -31.6113,-31.396712 V 0.00139578 Z"
      fill-rule="nonzero"
      stroke-width="14.0495"
    />
    <path
      stroke="none"
      gorn="0.3.0.0.238.0.0.0"
      id="path1605"
      fill="#ffffff"
      fill-opacity="1"
      d="m 1476.9858,0.00139578 c 0,11.30281522 -9.1321,20.51251722 -20.6527,20.51251722 -11.3801,0 -20.6527,-9.209702 -20.6527,-20.51251722 z"
      fill-rule="nonzero"
      stroke-width="14.0495"
    />
    <path
      stroke="none"
      gorn="0.3.0.0.239.0.0.0"
      id="path1609"
      fill="#bcb2a7"
      fill-opacity="1"
      d="M 1588.0513,0.00139578 V 51.492 c 0,17.303078 -14.19,31.396712 -31.7518,31.396712 -17.4215,0 -31.6114,-14.093634 -31.6114,-31.396712 V 0.00139578 Z"
      fill-rule="nonzero"
      stroke-width="14.0495"
    />
    <path
      stroke="none"
      gorn="0.3.0.0.241.0.0.0"
      id="path1617"
      fill="#ffffff"
      fill-opacity="1"
      d="m 1576.9507,0.00139578 c 0,11.30281522 -9.118,20.51251722 -20.6527,20.51251722 -11.3661,0 -20.6387,-9.209702 -20.6387,-20.51251722 z"
      fill-rule="nonzero"
      stroke-width="14.0495"
    />
    <path
      stroke="none"
      gorn="0.3.0.0.242.0.0.0"
      id="path1621"
      fill="#bcb2a7"
      fill-opacity="1"
      d="M 1688.0303,0.00139578 V 51.492 c 0,17.303078 -14.1901,31.396712 -31.7519,31.396712 -17.4214,0 -31.6113,-14.093634 -31.6113,-31.396712 V 0.00139578 Z"
      fill-rule="nonzero"
      stroke-width="14.0495"
    />
    <path
      stroke="none"
      gorn="0.3.0.0.244.0.0.0"
      id="path1629"
      fill="#ffffff"
      fill-opacity="1"
      d="m 1676.9311,0.00139578 c 0,11.30281522 -9.1322,20.51251722 -20.6528,20.51251722 -11.3801,0 -20.6527,-9.209702 -20.6527,-20.51251722 z"
      fill-rule="nonzero"
      stroke-width="14.0495"
    />
    <path
      stroke="none"
      gorn="0.3.0.0.245.0.0.0"
      id="path1633"
      fill="#bcb2a7"
      fill-opacity="1"
      d="m 1624.6699,703.00026 v -51.47665 c 0,-17.31703 14.1899,-31.39671 31.7517,-31.39671 17.4214,0 31.6114,14.07968 31.6114,31.39671 v 51.47665 z"
      fill-rule="nonzero"
      stroke-width="14.0495"
    />
    <path
      stroke="none"
      gorn="0.3.0.0.247.0.0.0"
      id="path1641"
      fill="#ffffff"
      fill-opacity="1"
      d="m 1635.7704,703.00026 c 0,-11.30282 9.118,-20.51253 20.6528,-20.51253 11.3659,0 20.6386,9.20971 20.6386,20.51253 z"
      fill-rule="nonzero"
      stroke-width="14.0495"
    />
    <path
      stroke="none"
      gorn="0.3.0.0.248.0.0.0"
      id="path1645"
      fill="#bcb2a7"
      fill-opacity="1"
      d="m 1524.6908,703.00026 v -51.47665 c 0,-17.31703 14.1901,-31.39671 31.7518,-31.39671 17.4215,0 31.6114,14.07968 31.6114,31.39671 v 51.47665 z"
      fill-rule="nonzero"
      stroke-width="14.0495"
    />
    <path
      stroke="none"
      gorn="0.3.0.0.250.0.0.0"
      id="path1653"
      fill="#ffffff"
      fill-opacity="1"
      d="m 1535.7914,703.00026 c 0,-11.30282 9.1322,-20.51253 20.6527,-20.51253 11.3801,0 20.6528,9.20971 20.6528,20.51253 z"
      fill-rule="nonzero"
      stroke-width="14.0495"
    />
    <path
      stroke="none"
      gorn="0.3.0.0.251.0.0.0"
      id="path1657"
      fill="#bcb2a7"
      fill-opacity="1"
      d="m 1424.726,703.00026 v -51.47665 c 0,-17.31703 14.1901,-31.39671 31.7518,-31.39671 17.4215,0 31.6113,14.07968 31.6113,31.39671 v 51.47665 z"
      fill-rule="nonzero"
      stroke-width="14.0495"
    />
    <path
      stroke="none"
      gorn="0.3.0.0.253.0.0.0"
      id="path1665"
      fill="#ffffff"
      fill-opacity="1"
      d="m 1435.825,703.00026 c 0,-11.30282 9.1181,-20.51253 20.6528,-20.51253 11.3661,0 20.6387,9.20971 20.6387,20.51253 z"
      fill-rule="nonzero"
      stroke-width="14.0495"
    />
    <path
      stroke="none"
      gorn="0.3.0.0.254.0.0.0"
      id="path1669"
      fill="#bcb2a7"
      fill-opacity="1"
      d="m 1324.747,703.00026 v -51.47665 c 0,-17.31703 14.19,-31.39671 31.7518,-31.39671 17.4214,0 31.6113,14.07968 31.6113,31.39671 v 51.47665 z"
      fill-rule="nonzero"
      stroke-width="14.0495"
    />
    <path
      stroke="none"
      gorn="0.3.0.0.256.0.0.0"
      id="path1677"
      fill="#ffffff"
      fill-opacity="1"
      d="m 1335.8462,703.00026 c 0,-11.30282 9.1322,-20.51253 20.6527,-20.51253 11.3801,0 20.6528,9.20971 20.6528,20.51253 z"
      fill-rule="nonzero"
      stroke-width="14.0495"
    />
    <path
      stroke="none"
      gorn="0.3.0.0.257.0.0.0"
      id="path1681"
      fill="#bcb2a7"
      fill-opacity="1"
      d="m 1224.7808,703.00026 v -51.47665 c 0,-17.31703 14.19,-31.39671 31.7518,-31.39671 17.4214,0 31.6113,14.07968 31.6113,31.39671 v 51.47665 z"
      fill-rule="nonzero"
      stroke-width="14.0495"
    />
    <path
      stroke="none"
      gorn="0.3.0.0.259.0.0.0"
      id="path1689"
      fill="#ffffff"
      fill-opacity="1"
      d="m 1235.8812,703.00026 c 0,-11.30282 9.1181,-20.51253 20.6528,-20.51253 11.366,0 20.6387,9.20971 20.6387,20.51253 z"
      fill-rule="nonzero"
      stroke-width="14.0495"
    />
    <path
      stroke="none"
      gorn="0.3.0.0.260.0.0.0"
      id="path591"
      fill="#bcb2a7"
      fill-opacity="1"
      d="m 1124.8018,703.00026 v -51.47665 c 0,-17.31703 14.19,-31.39671 31.7518,-31.39671 17.4215,0 31.6113,14.07968 31.6113,31.39671 v 51.47665 z"
      fill-rule="nonzero"
      stroke-width="14.0495"
    />
    <path
      stroke="none"
      gorn="0.3.0.0.262.0.0.0"
      id="path593"
      fill="#ffffff"
      fill-opacity="1"
      d="m 1135.9023,703.00026 c 0,-11.30282 9.1322,-20.51253 20.6528,-20.51253 11.38,0 20.6527,9.20971 20.6527,20.51253 z"
      fill-rule="nonzero"
      stroke-width="14.0495"
    />
    <path
      stroke="none"
      gorn="0.3.0.0.263.0.0.0"
      id="path595"
      fill="#bcb2a7"
      fill-opacity="1"
      d="m 1024.8369,703.00026 v -51.47665 c 0,-17.31703 14.19,-31.39671 31.7518,-31.39671 17.4213,0 31.6114,14.07968 31.6114,31.39671 v 51.47665 z"
      fill-rule="nonzero"
      stroke-width="14.0495"
    />
    <path
      stroke="none"
      gorn="0.3.0.0.265.0.0.0"
      id="path597"
      fill="#ffffff"
      fill-opacity="1"
      d="m 1035.936,703.00026 c 0,-11.30282 9.1181,-20.51253 20.6527,-20.51253 11.3661,0 20.6388,9.20971 20.6388,20.51253 z"
      fill-rule="nonzero"
      stroke-width="14.0495"
    />
    <path
      stroke="none"
      gorn="0.3.0.0.266.0.0.0"
      id="path599"
      fill="#bcb2a7"
      fill-opacity="1"
      d="m 924.85793,703.00026 v -51.47665 c 0,-17.31703 14.18999,-31.39671 31.75184,-31.39671 17.42137,0 31.61135,14.07968 31.61135,31.39671 v 51.47665 z"
      fill-rule="nonzero"
      stroke-width="14.0495"
    />
    <path
      stroke="none"
      gorn="0.3.0.0.268.0.0.0"
      id="path601"
      fill="#ffffff"
      fill-opacity="1"
      d="m 935.95704,703.00026 c 0,-11.30282 9.13217,-20.51253 20.65274,-20.51253 11.38008,0 20.65274,9.20971 20.65274,20.51253 z"
      fill-rule="nonzero"
      stroke-width="14.0495"
    />
    <path
      stroke="none"
      gorn="0.3.0.0.269.0.0.0"
      id="path603"
      fill="#bcb2a7"
      fill-opacity="1"
      d="m 824.88601,703.00026 v -51.47665 c 0,-17.31703 14.18999,-31.39671 31.75184,-31.39671 17.42137,0 31.61134,14.07968 31.61134,31.39671 v 51.47665 z"
      fill-rule="nonzero"
      stroke-width="14.0495"
    />
    <path
      stroke="none"
      gorn="0.3.0.0.271.0.0.0"
      id="path605"
      fill="#ffffff"
      fill-opacity="1"
      d="m 835.98512,703.00026 c 0,-11.30282 9.13216,-20.51253 20.65274,-20.51253 11.38007,0 20.65274,9.20971 20.65274,20.51253 z"
      fill-rule="nonzero"
      stroke-width="14.0495"
    />
    <path
      stroke="none"
      gorn="0.3.0.0.272.0.0.0"
      id="path607"
      fill="#bcb2a7"
      fill-opacity="1"
      d="m 724.91269,703.00026 v -51.47665 c 0,-17.31703 14.18998,-31.39671 31.75183,-31.39671 17.42137,0 31.61135,14.07968 31.61135,31.39671 v 51.47665 z"
      fill-rule="nonzero"
      stroke-width="14.0495"
    />
    <path
      stroke="none"
      gorn="0.3.0.0.274.0.0.0"
      id="path609"
      fill="#ffffff"
      fill-opacity="1"
      d="m 736.01319,703.00026 c 0,-11.30282 9.13217,-20.51253 20.65274,-20.51253 11.38009,0 20.65274,9.20971 20.65274,20.51253 z"
      fill-rule="nonzero"
      stroke-width="14.0495"
    />
    <path
      stroke="none"
      gorn="0.3.0.0.275.0.0.0"
      id="path611"
      fill="#bcb2a7"
      fill-opacity="1"
      d="m 624.94077,703.00026 v -51.47665 c 0,-17.31703 14.18998,-31.39671 31.75184,-31.39671 17.42137,0 31.61134,14.07968 31.61134,31.39671 v 51.47665 z"
      fill-rule="nonzero"
      stroke-width="14.0495"
    />
    <path
      stroke="none"
      gorn="0.3.0.0.277.0.0.0"
      id="path613"
      fill="#ffffff"
      fill-opacity="1"
      d="m 636.04126,703.00026 c 0,-11.30282 9.13217,-20.51253 20.65274,-20.51253 11.38009,0 20.65276,9.20971 20.65276,20.51253 z"
      fill-rule="nonzero"
      stroke-width="14.0495"
    />
    <path
      stroke="none"
      gorn="0.3.0.0.278.0.0.0"
      id="path615"
      fill="#bcb2a7"
      fill-opacity="1"
      d="m 524.96884,703.00026 v -51.47665 c 0,-17.31703 14.19,-31.39671 31.75184,-31.39671 17.42137,0 31.61134,14.07968 31.61134,31.39671 v 51.47665 z"
      fill-rule="nonzero"
      stroke-width="14.0495"
    />
    <path
      stroke="none"
      gorn="0.3.0.0.280.0.0.0"
      id="path617"
      fill="#ffffff"
      fill-opacity="1"
      d="m 536.06794,703.00026 c 0,-11.30282 9.13217,-20.51253 20.65274,-20.51253 11.38008,0 20.65274,9.20971 20.65274,20.51253 z"
      fill-rule="nonzero"
      stroke-width="14.0495"
    />
    <path
      stroke="none"
      gorn="0.3.0.0.281.0.0.0"
      id="path619"
      fill="#bcb2a7"
      fill-opacity="1"
      d="m 424.99693,703.00026 v -51.47665 c 0,-17.31703 14.18998,-31.39671 31.75183,-31.39671 17.42137,0 31.61134,14.07968 31.61134,31.39671 v 51.47665 z"
      fill-rule="nonzero"
      stroke-width="14.0495"
    />
    <path
      stroke="none"
      gorn="0.3.0.0.283.0.0.0"
      id="path621"
      fill="#ffffff"
      fill-opacity="1"
      d="m 436.09601,703.00026 c 0,-11.30282 9.13217,-20.51253 20.65275,-20.51253 11.38008,0 20.65274,9.20971 20.65274,20.51253 z"
      fill-rule="nonzero"
      stroke-width="14.0495"
    />
    <path
      stroke="none"
      gorn="0.3.0.0.284.0.0.0"
      id="path623"
      fill="#bcb2a7"
      fill-opacity="1"
      d="m 325.025,703.00026 v -51.47665 c 0,-17.31703 14.18998,-31.39671 31.75183,-31.39671 17.42137,0 31.61134,14.07968 31.61134,31.39671 v 51.47665 z"
      fill-rule="nonzero"
      stroke-width="14.0495"
    />
    <path
      stroke="none"
      gorn="0.3.0.0.286.0.0.0"
      id="path627"
      fill="#ffffff"
      fill-opacity="1"
      d="m 336.1241,703.00026 c 0,-11.30282 9.13217,-20.51253 20.65274,-20.51253 11.38009,0 20.65275,9.20971 20.65275,20.51253 z"
      fill-rule="nonzero"
      stroke-width="14.0495"
    />
    <path
      stroke="none"
      gorn="0.3.0.0.287.0.0.0"
      id="path629"
      fill="#bcb2a7"
      fill-opacity="1"
      d="m 225.04466,703.00026 v -51.47665 c 0,-17.31703 14.18998,-31.39671 31.75183,-31.39671 17.42137,0 31.61134,14.07968 31.61134,31.39671 v 51.47665 z"
      fill-rule="nonzero"
      stroke-width="14.0495"
    />
    <path
      stroke="none"
      gorn="0.3.0.0.286.0.0.0"
      id="path625"
      fill="#ffffff"
      fill-opacity="1"
      d="m 234.68216,703.00026 c 0,-11.30282 9.13217,-20.51253 20.65274,-20.51253 11.38009,0 20.65275,9.20971 20.65275,20.51253 z"
      fill-rule="nonzero"
      stroke-width="14.0495"
    />
    <path
      stroke="none"
      gorn="0.3.0.0.288.0.0.0"
      id="connector0pin"
      fill="#806f5c"
      fill-opacity="1"
      d="m 236.09036,651.3129 c 0,-11.33074 9.25861,-20.54043 20.66679,-20.54043 11.42223,0 20.66679,9.20969 20.66679,20.54043 0,11.33072 -9.24456,20.52647 -20.66679,20.52647 -11.40818,0 -20.66679,-9.19575 -20.66679,-20.52647"
      fill-rule="nonzero"
      stroke-width="14.0495"
    />
    <path
      stroke="none"
      gorn="0.3.0.0.285.0.0.0"
      id="connector1pin"
      fill="#806f5c"
      fill-opacity="1"
      d="m 336.06228,651.3129 c 0,-11.33074 9.25861,-20.54043 20.66678,-20.54043 11.42224,0 20.66681,9.20969 20.66681,20.54043 0,11.33072 -9.24457,20.52647 -20.66681,20.52647 -11.40817,0 -20.66678,-9.19575 -20.66678,-20.52647"
      fill-rule="nonzero"
      stroke-width="14.0495"
    />
    <path
      stroke="none"
      gorn="0.3.0.0.282.0.0.0"
      id="connector2pin"
      fill="#806f5c"
      fill-opacity="1"
      d="m 436.0342,651.3129 c 0,-11.33074 9.25862,-20.54043 20.66679,-20.54043 11.42223,0 20.6668,9.20969 20.6668,20.54043 0,11.33072 -9.24457,20.52647 -20.6668,20.52647 -11.40817,0 -20.66679,-9.19575 -20.66679,-20.52647"
      fill-rule="nonzero"
      stroke-width="14.0495"
    />
    <path
      stroke="none"
      gorn="0.3.0.0.279.0.0.0"
      id="connector3pin"
      fill="#806f5c"
      fill-opacity="1"
      d="m 536.00611,651.3129 c 0,-11.33074 9.25862,-20.54043 20.6668,-20.54043 11.42223,0 20.6668,9.20969 20.6668,20.54043 0,11.33072 -9.24457,20.52647 -20.6668,20.52647 -11.40818,0 -20.6668,-9.19575 -20.6668,-20.52647"
      fill-rule="nonzero"
      stroke-width="14.0495"
    />
    <path
      stroke="none"
      gorn="0.3.0.0.276.0.0.0"
      id="connector4pin"
      fill="#806f5c"
      fill-opacity="1"
      d="m 635.97946,651.3129 c 0,-11.33074 9.25861,-20.54043 20.66678,-20.54043 11.42224,0 20.6668,9.20969 20.6668,20.54043 0,11.33072 -9.24456,20.52647 -20.6668,20.52647 -11.40817,0 -20.66678,-9.19575 -20.66678,-20.52647"
      fill-rule="nonzero"
      stroke-width="14.0495"
    />
    <path
      stroke="none"
      gorn="0.3.0.0.273.0.0.0"
      id="connector5pin"
      fill="#806f5c"
      fill-opacity="1"
      d="m 735.95136,651.3129 c 0,-11.33074 9.25863,-20.54043 20.66679,-20.54043 11.42223,0 20.66681,9.20969 20.66681,20.54043 0,11.33072 -9.24458,20.52647 -20.66681,20.52647 -11.40816,0 -20.66679,-9.19575 -20.66679,-20.52647"
      fill-rule="nonzero"
      stroke-width="14.0495"
    />
    <path
      stroke="none"
      gorn="0.3.0.0.270.0.0.0"
      id="connector6pin"
      fill="#806f5c"
      fill-opacity="1"
      d="m 835.92329,651.3129 c 0,-11.33074 9.25861,-20.54043 20.66679,-20.54043 11.42223,0 20.6668,9.20969 20.6668,20.54043 0,11.33072 -9.24457,20.52647 -20.6668,20.52647 -11.40818,0 -20.66679,-9.19575 -20.66679,-20.52647"
      fill-rule="nonzero"
      stroke-width="14.0495"
    />
    <path
      stroke="none"
      gorn="0.3.0.0.267.0.0.0"
      id="connector7pin"
      fill="#806f5c"
      fill-opacity="1"
      d="m 935.90225,651.3129 c 0,-11.33074 9.24455,-20.54043 20.66679,-20.54043 11.40818,0 20.66679,9.20969 20.66679,20.54043 0,11.33072 -9.25861,20.52647 -20.66679,20.52647 -11.42224,0 -20.66679,-9.19575 -20.66679,-20.52647"
      fill-rule="nonzero"
      stroke-width="14.0495"
    />
    <path
      stroke="none"
      gorn="0.3.0.0.264.0.0.0"
      id="connector8pin"
      fill="#806f5c"
      fill-opacity="1"
      d="m 1035.8685,651.3129 c 0,-11.33074 9.2586,-20.54043 20.681,-20.54043 11.408,0 20.6527,9.20969 20.6527,20.54043 0,11.33072 -9.2447,20.52647 -20.6527,20.52647 -11.4224,0 -20.681,-9.19575 -20.681,-20.52647"
      fill-rule="nonzero"
      stroke-width="14.0495"
    />
    <path
      stroke="none"
      gorn="0.3.0.0.261.0.0.0"
      id="connector9pin"
      fill="#806f5c"
      fill-opacity="1"
      d="m 1135.8475,651.3129 c 0,-11.33074 9.2446,-20.54043 20.6668,-20.54043 11.4082,0 20.6668,9.20969 20.6668,20.54043 0,11.33072 -9.2586,20.52647 -20.6668,20.52647 -11.4222,0 -20.6668,-9.19575 -20.6668,-20.52647"
      fill-rule="nonzero"
      stroke-width="14.0495"
    />
    <path
      stroke="none"
      gorn="0.3.0.0.258.0.0.0"
      id="connector10pin"
      fill="#806f5c"
      fill-opacity="1"
      d="m 1235.8124,651.3129 c 0,-11.33074 9.2587,-20.54043 20.6808,-20.54043 11.4082,0 20.6529,9.20969 20.6529,20.54043 0,11.33072 -9.2447,20.52647 -20.6529,20.52647 -11.4221,0 -20.6808,-9.19575 -20.6808,-20.52647"
      fill-rule="nonzero"
      stroke-width="14.0495"
    />
    <path
      stroke="none"
      gorn="0.3.0.0.255.0.0.0"
      id="connector11pin"
      fill="#806f5c"
      fill-opacity="1"
      d="m 1335.7914,651.3129 c 0,-11.33074 9.2445,-20.54043 20.6668,-20.54043 11.4082,0 20.6668,9.20969 20.6668,20.54043 0,11.33072 -9.2586,20.52647 -20.6668,20.52647 -11.4223,0 -20.6668,-9.19575 -20.6668,-20.52647"
      fill-rule="nonzero"
      stroke-width="14.0495"
    />
    <path
      stroke="none"
      gorn="0.3.0.0.252.0.0.0"
      id="connector12pin"
      fill="#806f5c"
      fill-opacity="1"
      d="m 1435.7562,651.3129 c 0,-11.33074 9.2587,-20.54043 20.6809,-20.54043 11.4082,0 20.6527,9.20969 20.6527,20.54043 0,11.33072 -9.2445,20.52647 -20.6527,20.52647 -11.4222,0 -20.6809,-9.19575 -20.6809,-20.52647"
      fill-rule="nonzero"
      stroke-width="14.0495"
    />
    <path
      stroke="none"
      gorn="0.3.0.0.249.0.0.0"
      id="connector13pin"
      fill="#806f5c"
      fill-opacity="1"
      d="m 1535.7366,651.3129 c 0,-11.33074 9.2445,-20.54043 20.6668,-20.54043 11.4081,0 20.6669,9.20969 20.6669,20.54043 0,11.33072 -9.2588,20.52647 -20.6669,20.52647 -11.4223,0 -20.6668,-9.19575 -20.6668,-20.52647"
      fill-rule="nonzero"
      stroke-width="14.0495"
    />
    <path
      stroke="none"
      gorn="0.3.0.0.246.0.0.0"
      id="connector14pin"
      fill="#806f5c"
      fill-opacity="1"
      d="m 1635.7156,651.3129 c 0,-11.33074 9.2445,-20.54043 20.6668,-20.54043 11.4082,0 20.6527,9.20969 20.6527,20.54043 0,11.33072 -9.2445,20.52647 -20.6527,20.52647 -11.4223,0 -20.6668,-9.19575 -20.6668,-20.52647"
      fill-rule="nonzero"
      stroke-width="14.0495"
    />
    <path
      stroke="none"
      gorn="0.3.0.0.243.0.0.0"
      id="connector15pin"
      fill="#806f5c"
      fill-opacity="1"
      d="m 1676.9859,51.695731 c 0,11.330723 -9.2446,20.526472 -20.6667,20.526472 -11.4083,0 -20.6669,-9.195749 -20.6669,-20.526472 0,-11.330723 9.2586,-20.526471 20.6669,-20.526471 11.4221,0 20.6667,9.195748 20.6667,20.526471"
      fill-rule="nonzero"
      stroke-width="14.0495"
    />
    <path
      stroke="none"
      gorn="0.3.0.0.240.0.0.0"
      id="connector16pin"
      fill="#806f5c"
      fill-opacity="1"
      d="m 1577.0197,51.695731 c 0,11.330723 -9.2587,20.526472 -20.681,20.526472 -11.408,0 -20.6527,-9.195749 -20.6527,-20.526472 0,-11.330723 9.2447,-20.526471 20.6527,-20.526471 11.4223,0 20.681,9.195748 20.681,20.526471"
      fill-rule="nonzero"
      stroke-width="14.0495"
    />
    <path
      stroke="none"
      gorn="0.3.0.0.237.0.0.0"
      id="connector17pin"
      fill="#806f5c"
      fill-opacity="1"
      d="m 1477.0407,51.695731 c 0,11.330723 -9.2446,20.526472 -20.6668,20.526472 -11.4082,0 -20.6668,-9.195749 -20.6668,-20.526472 0,-11.330723 9.2586,-20.526471 20.6668,-20.526471 11.4222,0 20.6668,9.195748 20.6668,20.526471"
      fill-rule="nonzero"
      stroke-width="14.0495"
    />
    <path
      stroke="none"
      gorn="0.3.0.0.234.0.0.0"
      id="connector18pin"
      fill="#806f5c"
      fill-opacity="1"
      d="m 1377.0758,51.695731 c 0,11.330723 -9.2587,20.526472 -20.6808,20.526472 -11.4082,0 -20.6529,-9.195749 -20.6529,-20.526472 0,-11.330723 9.2447,-20.526471 20.6529,-20.526471 11.4221,0 20.6808,9.195748 20.6808,20.526471"
      fill-rule="nonzero"
      stroke-width="14.0495"
    />
    <path
      stroke="none"
      gorn="0.3.0.0.231.0.0.0"
      id="connector19pin"
      fill="#806f5c"
      fill-opacity="1"
      d="m 1277.0968,51.695731 c 0,11.330723 -9.2446,20.526472 -20.6668,20.526472 -11.4082,0 -20.6668,-9.195749 -20.6668,-20.526472 0,-11.330723 9.2586,-20.526471 20.6668,-20.526471 11.4222,0 20.6668,9.195748 20.6668,20.526471"
      fill-rule="nonzero"
      stroke-width="14.0495"
    />
    <path
      stroke="none"
      gorn="0.3.0.0.228.0.0.0"
      id="connector20pin"
      fill="#806f5c"
      fill-opacity="1"
      d="m 1177.1304,51.695731 c 0,11.330723 -9.2586,20.526472 -20.6808,20.526472 -11.4081,0 -20.6528,-9.195749 -20.6528,-20.526472 0,-11.330723 9.2447,-20.526471 20.6528,-20.526471 11.4222,0 20.6808,9.195748 20.6808,20.526471"
      fill-rule="nonzero"
      stroke-width="14.0495"
    />
    <path
      stroke="none"
      gorn="0.3.0.0.225.0.0.0"
      id="connector21pin"
      fill="#806f5c"
      fill-opacity="1"
      d="m 1077.1516,51.695731 c 0,11.330723 -9.2445,20.526472 -20.6668,20.526472 -11.4082,0 -20.6668,-9.195749 -20.6668,-20.526472 0,-11.330723 9.2586,-20.526471 20.6668,-20.526471 11.4223,0 20.6668,9.195748 20.6668,20.526471"
      fill-rule="nonzero"
      stroke-width="14.0495"
    />
    <path
      stroke="none"
      gorn="0.3.0.0.222.0.0.0"
      id="connector22pin"
      fill="#806f5c"
      fill-opacity="1"
      d="m 977.17963,51.695731 c 0,11.330723 -9.25862,20.526472 -20.66679,20.526472 -11.42223,0 -20.6668,-9.195749 -20.6668,-20.526472 0,-11.330723 9.24457,-20.526471 20.6668,-20.526471 11.40817,0 20.66679,9.195748 20.66679,20.526471"
      fill-rule="nonzero"
      stroke-width="14.0495"
    />
    <path
      stroke="none"
      gorn="0.3.0.0.219.0.0.0"
      id="connector23pin"
      fill="#806f5c"
      fill-opacity="1"
      d="m 877.2077,51.695731 c 0,11.330723 -9.25861,20.526472 -20.66678,20.526472 -11.42224,0 -20.6668,-9.195749 -20.6668,-20.526472 0,-11.330723 9.24456,-20.526471 20.6668,-20.526471 11.40817,0 20.66678,9.195748 20.66678,20.526471"
      fill-rule="nonzero"
      stroke-width="14.0495"
    />
    <path
      stroke="none"
      gorn="0.3.0.0.216.0.0.0"
      id="connector24pin"
      fill="#806f5c"
      fill-opacity="1"
      d="m 777.23578,51.695731 c 0,11.330723 -9.25862,20.526472 -20.66679,20.526472 -11.42223,0 -20.6668,-9.195749 -20.6668,-20.526472 0,-11.330723 9.24457,-20.526471 20.6668,-20.526471 11.40817,0 20.66679,9.195748 20.66679,20.526471"
      fill-rule="nonzero"
      stroke-width="14.0495"
    />
    <path
      stroke="none"
      gorn="0.3.0.0.213.0.0.0"
      id="connector25pin"
      fill="#806f5c"
      fill-opacity="1"
      d="m 677.26245,51.695731 c 0,11.330723 -9.25861,20.526472 -20.66679,20.526472 -11.42223,0 -20.66679,-9.195749 -20.66679,-20.526472 0,-11.330723 9.24456,-20.526471 20.66679,-20.526471 11.40818,0 20.66679,9.195748 20.66679,20.526471"
      fill-rule="nonzero"
      stroke-width="14.0495"
    />
    <path
      stroke="none"
      gorn="0.3.0.0.210.0.0.0"
      id="connector26pin"
      fill="#806f5c"
      fill-opacity="1"
      d="m 577.29053,51.695731 c 0,11.330723 -9.25862,20.526472 -20.66679,20.526472 -11.42224,0 -20.6668,-9.195749 -20.6668,-20.526472 0,-11.330723 9.24456,-20.526471 20.6668,-20.526471 11.40817,0 20.66679,9.195748 20.66679,20.526471"
      fill-rule="nonzero"
      stroke-width="14.0495"
    />
    <path
      stroke="none"
      gorn="0.3.0.0.207.0.0.0"
      id="connector27pin"
      fill="#806f5c"
      fill-opacity="1"
      d="m 477.31862,51.695731 c 0,11.330723 -9.25862,20.526472 -20.66679,20.526472 -11.42223,0 -20.6668,-9.195749 -20.6668,-20.526472 0,-11.330723 9.24457,-20.526471 20.6668,-20.526471 11.40817,0 20.66679,9.195748 20.66679,20.526471"
      fill-rule="nonzero"
      stroke-width="14.0495"
    />
    <path
      stroke="none"
      gorn="0.3.0.0.204.0.0.0"
      id="connector28pin"
      fill="#806f5c"
      fill-opacity="1"
      d="m 377.34669,51.695731 c 0,11.330723 -9.25861,20.526472 -20.66679,20.526472 -11.42223,0 -20.6668,-9.195749 -20.6668,-20.526472 0,-11.330723 9.24457,-20.526471 20.6668,-20.526471 11.40818,0 20.66679,9.195748 20.66679,20.526471"
      fill-rule="nonzero"
      stroke-width="14.0495"
    />
    <path
      stroke="none"
      gorn="0.3.0.0.201.0.0.0"
      id="connector29pin"
      fill="#806f5c"
      fill-opacity="1"
      d="m 277.36774,51.695731 c 0,11.330723 -9.24456,20.526472 -20.66679,20.526472 -11.40818,0 -20.6668,-9.195749 -20.6668,-20.526472 0,-11.330723 9.25862,-20.526471 20.6668,-20.526471 11.42223,0 20.66679,9.195748 20.66679,20.526471"
      fill-rule="nonzero"
      stroke-width="14.0495"
    />
  </g>
</svg>
