<?xml version='1.0' encoding='UTF-8' standalone='no'?>
<!-- Created with Fritzing (http://www.fritzing.org/) -->
<svg xmlns="http://www.w3.org/2000/svg" baseProfile="tiny"  viewBox="0 0 25.6469 10.414" version="1.2" y="0in" x="0in" width="1.00972in" height="0.41in">
    <desc >
        <referenceFile >sparkfun-freqctrl_oscillator_schematic.svg</referenceFile>
    </desc>
    <g  gorn="0.1" id="schematic">
        <rect  fill="#ffffff" stroke="none" y="0.127" x="5.20347" width="15.24" height="10.16" class="interior rect" stroke-width="0"/>
        <text text-anchor="middle" font-size="1.49931"  fill="#000000" gorn="0.1.1" stroke="none" y="4.40735" x="12.8235" font-family="'Droid Sans'" class="text" stroke-width="0" id="label">OSCILLATOR</text>
        <line x2="5.20347" y2="0.127" stroke-linecap="round" y1="10.287"  x1="5.20347" stroke="#000000" class="other" stroke-width="0.3175"/>
        <line x2="20.4435" y2="0.127" stroke-linecap="round" y1="0.127"  x1="5.20347" stroke="#000000" class="other" stroke-width="0.3175"/>
        <line x2="20.4435" y2="10.287" stroke-linecap="round" y1="0.127"  x1="20.4435" stroke="#000000" class="other" stroke-width="0.3175"/>
        <line x2="5.20347" y2="10.287" stroke-linecap="round" y1="10.287"  x1="20.4435" stroke="#000000" class="other" stroke-width="0.3175"/>
        <line x2="5.20347" y2="7.747" connectorname="EN" stroke-linecap="round" y1="7.747"  x1="0.123472" gorn="0.1.6" stroke="#787878" class="pin" stroke-width="0.246944" id="connector0pin"/>
        <rect  fill="none" gorn="0.1.7" stroke="none" y="7.747" x="0.123472" width="0.0001" height="0.0001" class="terminal" stroke-width="0" id="connector0terminal"/>
        <text text-anchor="middle" font-size="0.881944"  fill="#8c8c8c" stroke="none" y="7.37658" x="2.66347" font-family="'Droid Sans'" class="text" stroke-width="0">1</text>
        <text text-anchor="start" font-size="1.23472"  fill="#787878" stroke="none" y="7.99394" x="5.9443" font-family="'Droid Sans'" class="text" stroke-width="0">EN</text>
        <line x2="20.4435" y2="7.747" connectorname="GND" stroke-linecap="round" y1="7.747"  x1="25.5235" gorn="0.1.10" stroke="#787878" class="pin" stroke-width="0.246944" id="connector1pin"/>
        <rect  fill="none" gorn="0.1.11" stroke="none" y="7.747" x="25.5235" width="0.0001" height="0.0001" class="terminal" stroke-width="0" id="connector1terminal"/>
        <text text-anchor="middle" font-size="0.881944"  fill="#8c8c8c" stroke="none" y="7.37658" x="22.9835" font-family="'Droid Sans'" class="text" stroke-width="0">2</text>
        <text text-anchor="end" font-size="1.23472"  fill="#787878" stroke="none" y="7.99394" x="19.7026" font-family="'Droid Sans'" class="text" stroke-width="0">GND</text>
        <line x2="20.4435" y2="2.667" connectorname="OUT" stroke-linecap="round" y1="2.667"  x1="25.5235" gorn="0.1.14" stroke="#787878" class="pin" stroke-width="0.246944" id="connector2pin"/>
        <rect  fill="none" gorn="0.1.15" stroke="none" y="2.667" x="25.5235" width="0.0001" height="0.0001" class="terminal" stroke-width="0" id="connector2terminal"/>
        <text text-anchor="middle" font-size="0.881944"  fill="#8c8c8c" stroke="none" y="2.29658" x="22.9835" font-family="'Droid Sans'" class="text" stroke-width="0">3</text>
        <text text-anchor="end" font-size="1.23472"  fill="#787878" stroke="none" y="2.91394" x="19.7026" font-family="'Droid Sans'" class="text" stroke-width="0">OUT</text>
        <line x2="5.20347" y2="2.667" connectorname="VCC" stroke-linecap="round" y1="2.667"  x1="0.123472" gorn="0.1.18" stroke="#787878" class="pin" stroke-width="0.246944" id="connector3pin"/>
        <rect  fill="none" gorn="0.1.19" stroke="none" y="2.667" x="0.123472" width="0.0001" height="0.0001" class="terminal" stroke-width="0" id="connector3terminal"/>
        <text text-anchor="middle" font-size="0.881944"  fill="#8c8c8c" stroke="none" y="2.29658" x="2.66347" font-family="'Droid Sans'" class="text" stroke-width="0">4</text>
        <text text-anchor="start" font-size="1.23472"  fill="#787878" stroke="none" y="2.91394" x="5.9443" font-family="'Droid Sans'" class="text" stroke-width="0">VCC</text>
    </g>
</svg>
