<?xml version='1.0' encoding='UTF-8' standalone='no'?>
<svg
  xmlns:dc="http://purl.org/dc/elements/1.1/"
  xmlns:cc="http://creativecommons.org/ns#"
  xmlns:rdf="http://www.w3.org/1999/02/22-rdf-syntax-ns#"
  xmlns:svg="http://www.w3.org/2000/svg"
  xmlns="http://www.w3.org/2000/svg"
  viewBox="0 0 204.19797 70.996598"
  width="0.20419791in"
  x="0in"
  y="0in"
  version="1.2"
  id="svg2"
  height="0.070996575in"
  gorn="0">
  <metadata
    id="metadata25">
    <rdf:RDF>
      <cc:Work
        rdf:about="">
        <dc:format>image/svg+xml</dc:format>
        <dc:type
          rdf:resource="http://purl.org/dc/dcmitype/StillImage"
        />
        <dc:title/>
      </cc:Work>
    </rdf:RDF>
  </metadata>
  <defs
    id="defs23"
  />
  <desc
    id="desc2">
    <referenceFile>top-view-banana-jack-yellow_1_schematic.svg</referenceFile>
  </desc>
  <g
    id="schematic">
    <polyline
      stroke-linecap="round"
      stroke-width="0.7"
      fill="none"
      points="14.1,5.557 9.928,3.6 14.1,1.643"
      stroke-linejoin="round"
      stroke="#000000"
      id="polyline6"
      transform="matrix(13.889129,0,0,13.889129,3.5000606,-11.046485)"
    />
    <line
      y2="38.95438"
      stroke-linecap="round"
      x1="143.91916"
      stroke-width="9.72239"
      x2="70.223434"
      fill="none"
      id="line"
      y1="38.95438"
      stroke-linejoin="round"
      stroke="#000000"
      gorn="0.0.3"
    />
    <text
      class="text"
      x="73.640167"
      y="24.787468"
      font-family="'Droid Sans'"
      stroke-width="0"
      fill="#8c8c8c"
      text-anchor="middle"
      font-size="34.7228"
      stroke="none"
      id="text9">1</text>
    <line
      y2="38.95438"
      stroke-linecap="round"
      x1="8.3612556"
      stroke-width="9.72239"
      x2="105.52961"
      fill="none"
      id="connector0pin"
      y1="38.95438"
      stroke-linejoin="round"
      stroke="#000000"
      gorn="0.0.0"
    />
    <rect
      width="7.5834646"
      x="0"
      y="37.621025"
      fill="none"
      id="connector0terminal"
      height="2.8889389"
      gorn="0.0.1"
      stroke-width="13.8891"
    />
  </g>
</svg>
