<?xml version='1.0' encoding='UTF-8'?>
<svg xmlns="http://www.w3.org/2000/svg" width="0.14in"  version="1.2" viewBox="0 0 140 440" baseProfile="tiny" height="0.44in">
    <desc >
        <referenceFile >nsjumper_4_100mil_pcb.svg</referenceFile>
    </desc>
    <desc >Fritzing footprint SVG</desc>
    <g id="silkscreen"  gorn="0.2">
        <line  y1="20" x1="20" stroke-width="10" y2="420" x2="20" stroke="white"/>
        <line  y1="420" x1="20" stroke-width="10" y2="420" x2="120" stroke="white"/>
        <line  y1="420" x1="120" stroke-width="10" y2="20" x2="120" stroke="white"/>
        <line  y1="20" x1="120" stroke-width="10" y2="20" x2="20" stroke="white"/>
        <line  y1="55" x1="20" stroke-width="5" y2="20" x2="55" stroke="white"/>
        <!-- 120 -->
    </g>
    <g id="copper1"  gorn="0.3">
        <g id="copper0"  gorn="0.3.0">
            <circle r="29" id="connector0pin" cy="70" fill="none" cx="70"  gorn="0.3.0.0" stroke-width="20" stroke="rgb(255, 191, 0)"/>
            <circle r="29" id="connector1pin" cy="170" fill="none" cx="70"  gorn="0.3.0.1" stroke-width="20" stroke="rgb(255, 191, 0)"/>
            <circle r="29" id="connector2pin" cy="270" fill="none" cx="70"  gorn="0.3.0.2" stroke-width="20" stroke="rgb(255, 191, 0)"/>
            <circle r="29" id="connector3pin" cy="370" fill="none" cx="70"  gorn="0.3.0.3" stroke-width="20" stroke="rgb(255, 191, 0)"/>
        </g>
    </g>
</svg>
