<?xml version='1.0' encoding='UTF-8' standalone='no'?>
<svg
  xmlns:dc="http://purl.org/dc/elements/1.1/"
  xmlns:cc="http://creativecommons.org/ns#"
  xmlns:rdf="http://www.w3.org/1999/02/22-rdf-syntax-ns#"
  xmlns:svg="http://www.w3.org/2000/svg"
  xmlns="http://www.w3.org/2000/svg"
  width="54.398071mm"
  id="svg2"
  height="49.251923mm"
  gorn="0"
  viewBox="0 0 2141.657 1939.0527"
  version="1.1">
  <desc
    id="desc2">
    <referenceFile>Fan-4wire-2in_1_breadboard.svg</referenceFile>
  </desc>
  <defs
    id="defs4">
    <linearGradient
      id="linearGradient4763">
      <stop
        id="stop4765"
        offset="0"
        stop-color="#4d4d4d"
        stop-opacity="1"
      />
      <stop
        id="stop4767"
        offset="1"
        stop-color="#4d4d4d"
        stop-opacity="0"
      />
    </linearGradient>
    <linearGradient
      id="linearGradient4740">
      <stop
        id="stop4742"
        offset="0"
        stop-color="#4d4d4d"
        stop-opacity="1"
      />
      <stop
        id="stop4744"
        offset="1"
        stop-color="#4d4d4d"
        stop-opacity="0"
      />
    </linearGradient>
    <linearGradient
      id="linearGradient4717">
      <stop
        id="stop4719"
        offset="0"
        stop-color="#4d4d4d"
        stop-opacity="1"
      />
      <stop
        id="stop4721"
        offset="1"
        stop-color="#4d4d4d"
        stop-opacity="0"
      />
    </linearGradient>
    <linearGradient
      id="linearGradient4670">
      <stop
        id="stop4672"
        offset="0"
        stop-color="#4d4d4d"
        stop-opacity="1"
      />
      <stop
        id="stop4674"
        offset="1"
        stop-color="#4d4d4d"
        stop-opacity="0"
      />
    </linearGradient>
    <linearGradient
      id="linearGradient4647">
      <stop
        id="stop4649"
        offset="0"
        stop-color="#333333"
        stop-opacity="1"
      />
      <stop
        id="stop4651"
        offset="1"
        stop-color="#333333"
        stop-opacity="0"
      />
    </linearGradient>
    <linearGradient
      id="linearGradient4624">
      <stop
        id="stop4626"
        offset="0"
        stop-color="#333333"
        stop-opacity="1"
      />
      <stop
        id="stop4628"
        offset="1"
        stop-color="#333333"
        stop-opacity="0"
      />
    </linearGradient>
    <linearGradient
      id="linearGradient4601">
      <stop
        id="stop4603"
        offset="0"
        stop-color="#333333"
        stop-opacity="1"
      />
      <stop
        id="stop4605"
        offset="1"
        stop-color="#333333"
        stop-opacity="0"
      />
    </linearGradient>
    <linearGradient
      id="linearGradient4554">
      <stop
        id="stop4556"
        offset="0"
        stop-color="#4d4d4d"
        stop-opacity="1"
      />
      <stop
        id="stop4558"
        offset="1"
        stop-color="#4d4d4d"
        stop-opacity="0"
      />
    </linearGradient>
    <radialGradient
      fx="404.5675"
      href="#linearGradient4469"
      cx="404.5675"
      id="radialGradient4475"
      cy="198.42329"
      fy="198.42329"
      gradientUnits="userSpaceOnUse"
      gradientTransform="matrix(3.3199766,0,0,4.3161446,-41.015439,-447.94233)"
      r="74.086098"
    />
    <linearGradient
      id="linearGradient4469">
      <stop
        id="stop4471"
        offset="0"
        stop-color="#4d4d4d"
        stop-opacity="1"
      />
      <stop
        id="stop4473"
        offset="1"
        stop-color="#4d4d4d"
        stop-opacity="0"
      />
    </linearGradient>
    <radialGradient
      fx="532.3786"
      href="#linearGradient4554"
      cx="532.3786"
      id="radialGradient4560"
      cy="247.73627"
      fy="247.73627"
      gradientUnits="userSpaceOnUse"
      gradientTransform="matrix(3.3199766,0,0,2.9289882,-41.015452,-106.64113)"
      r="101.23803"
    />
    <radialGradient
      fx="577.66602"
      href="#linearGradient4601"
      cx="577.66602"
      id="radialGradient4607"
      cy="444.98807"
      fy="444.98807"
      gradientUnits="userSpaceOnUse"
      gradientTransform="matrix(3.3199766,0,0,2.6674612,-157.95678,83.516689)"
      r="100.62581"
    />
    <radialGradient
      fx="456.8996"
      href="#linearGradient4624"
      cx="456.8996"
      id="radialGradient4630"
      cy="542.6076"
      fy="542.6076"
      gradientUnits="userSpaceOnUse"
      gradientTransform="matrix(3.3199766,0,0,4.3406317,-127.97096,-810.77798)"
      r="75.188576"
    />
    <radialGradient
      fx="260.65417"
      href="#linearGradient4647"
      cx="260.65417"
      id="radialGradient4653"
      cy="501.34573"
      fy="501.34573"
      gradientUnits="userSpaceOnUse"
      gradientTransform="matrix(3.3199766,0,0,3.8465841,-134.56851,-487.56346)"
      r="87.13015"
    />
    <radialGradient
      fx="181.14963"
      href="#linearGradient4670"
      cx="181.14963"
      id="radialGradient4676"
      cy="354.41327"
      fy="354.41327"
      gradientUnits="userSpaceOnUse"
      gradientTransform="matrix(3.3199766,0,0,2.5528013,-94.474344,168.62894)"
      r="95.543182"
    />
    <radialGradient
      fx="235.49451"
      href="#linearGradient4717"
      cx="235.49451"
      id="radialGradient4723"
      cy="201.44246"
      fy="201.44246"
      gradientUnits="userSpaceOnUse"
      gradientTransform="matrix(3.3199766,0,0,3.4647712,-67.787306,-206.06894)"
      r="94.987923"
    />
    <radialGradient
      fx="412.61859"
      href="#linearGradient4740"
      cx="412.61859"
      id="radialGradient4746"
      cy="308.11948"
      fy="308.11948"
      gradientUnits="userSpaceOnUse"
      gradientTransform="matrix(3.3199766,0,0,3.182928,-201.39213,-27.628896)"
      r="113.26185"
    />
    <radialGradient
      fx="360.28647"
      href="#linearGradient4763"
      cx="360.28647"
      id="radialGradient4769"
      cy="356.42603"
      fy="356.42603"
      gradientUnits="userSpaceOnUse"
      gradientTransform="matrix(3.3199766,0,0,3.0037853,-37.674272,-94.14558)"
      r="10.567061"
    />
  </defs>
  <metadata
    id="metadata7">
    <rdf:RDF>
      <cc:Work
        rdf:about="">
        <dc:format>image/svg+xml</dc:format>
        <dc:type
          rdf:resource="http://purl.org/dc/dcmitype/StillImage"
        />
        <dc:title/>
      </cc:Work>
    </rdf:RDF>
  </metadata>
  <g
    id="breadboard">
    <path
      d="M 580.77511,56.452237 518.77196,80.211132 910.40599,1102.2769 974.38686,1094.2358 1019.829,703.38685 1999.3454,323.76231 1975.3534,261.85007 958.50028,655.94129 924.04253,952.28803 Z"
      gorn="0.3.0.0.0.0.0.0"
      id="path4272"
      font-size="medium"
      color="#000000"
      font-style="normal"
      font-variant="normal"
      font-weight="normal"
      font-stretch="normal"
      line-height="normal"
      font-family="'Droid Sans'"
      text-indent="0"
      text-align="start"
      text-decoration="none"
      text-decoration-line="none"
      text-decoration-style="solid"
      text-decoration-color="#000000"
      letter-spacing="normal"
      word-spacing="normal"
      text-transform="none"
      writing-mode="lr-tb"
      direction="ltr"
      baseline-shift="baseline"
      text-anchor="start"
      white-space="normal"
      clip-rule="nonzero"
      display="inline"
      overflow="visible"
      visibility="visible"
      opacity="1"
      isolation="auto"
      mix-blend-mode="normal"
      color-interpolation="sRGB"
      color-interpolation-filters="linearRGB"
      solid-color="#000000"
      solid-opacity="1"
      fill="#333333"
      fill-opacity="1"
      fill-rule="evenodd"
      stroke="none"
      stroke-width="5.97595024"
      stroke-linecap="butt"
      stroke-linejoin="miter"
      stroke-miterlimit="4"
      stroke-dasharray="none"
      stroke-dashoffset="0"
      stroke-opacity="1"
      color-rendering="auto"
      image-rendering="auto"
      shape-rendering="auto"
      text-rendering="auto"
      enable-background="accumulate"
    />
    <path
      d="M 1493.2694,840.47244 1429.0551,847.41689 1393.534,1127.1314 186.48251,1502.8648 206.21432,1566.2626 1454.0263,1177.8447 1477.3568,994.13693 C 1506.0271,1074.7991 1536.664,1160.8858 1597.2586,1331.9248 1639.3426,1450.7159 1681.8741,1570.9982 1714.7676,1664.5326 1747.6611,1758.066 1772.0537,1828.7504 1774.0603,1835.4393 L 1837.6651,1816.3627 C 1832.5077,1799.1715 1810.332,1736.1304 1777.4062,1642.5048 1744.4805,1548.8793 1701.9383,1428.5714 1659.8454,1309.7559 1575.6593,1072.1247 1493.2694,840.47244 1493.2694,840.47244 Z"
      gorn="0.3.0.0.0.0.0.1"
      id="path4274"
      font-size="medium"
      color="#000000"
      font-style="normal"
      font-variant="normal"
      font-weight="normal"
      font-stretch="normal"
      line-height="normal"
      font-family="'Droid Sans'"
      text-indent="0"
      text-align="start"
      text-decoration="none"
      text-decoration-line="none"
      text-decoration-style="solid"
      text-decoration-color="#000000"
      letter-spacing="normal"
      word-spacing="normal"
      text-transform="none"
      writing-mode="lr-tb"
      direction="ltr"
      baseline-shift="baseline"
      text-anchor="start"
      white-space="normal"
      clip-rule="nonzero"
      display="inline"
      overflow="visible"
      visibility="visible"
      opacity="1"
      isolation="auto"
      mix-blend-mode="normal"
      color-interpolation="sRGB"
      color-interpolation-filters="linearRGB"
      solid-color="#000000"
      solid-opacity="1"
      fill="#333333"
      fill-opacity="1"
      fill-rule="evenodd"
      stroke="none"
      stroke-width="5.97595024"
      stroke-linecap="butt"
      stroke-linejoin="miter"
      stroke-miterlimit="4"
      stroke-dasharray="none"
      stroke-dashoffset="0"
      stroke-opacity="1"
      color-rendering="auto"
      image-rendering="auto"
      shape-rendering="auto"
      text-rendering="auto"
      enable-background="accumulate"
    />
    <path
      d="M 258.08247,0 C 190.3008,0 135.73615,54.564459 135.73615,122.3467 V 1816.706 C 135.73615,1884.4882 190.3008,1939.0527 258.08247,1939.0527 H 2019.3042 C 2087.0858,1939.0527 2141.657,1884.4882 2141.657,1816.706 V 122.3467 C 2141.657,54.564459 2087.0858,0 2019.3042,0 Z M 1181.0684,45.188901 A 974.72823,925.20903 0 0 1 2112.7952,1002.768 974.72823,925.20903 0 0 1 1111.0311,1894.3627 974.72823,925.20903 0 0 1 164.17642,950.2447 L 165.23336,922.33024 A 974.72823,925.20903 0 0 1 1181.0684,45.188901 Z"
      gorn="0.3.0.0.0.0.0.2"
      id="rect4257"
      display="inline"
      opacity="1"
      fill="#1c1c1c"
      fill-opacity="1"
      fill-rule="nonzero"
      stroke="none"
      stroke-width="0.8963927"
      stroke-linecap="round"
      stroke-linejoin="round"
      stroke-miterlimit="4"
      stroke-dasharray="none"
      stroke-dashoffset="0"
      stroke-opacity="1"
    />
    <path
      d="M 1141.3318,703.00796 C 1141.3318,703.00796 1151.2977,486.74124 1134.1678,380.62788 1119.0398,286.91675 1050.5876,108.3967 1050.5876,108.3967 1050.5876,108.3967 1211.6924,88.331134 1291.7758,96.456692 1377.6341,105.16781 1542.5159,160.93227 1542.5159,160.93227 1542.5159,160.93227 1486.1955,371.91343 1442.2199,471.37235 1401.4158,563.65682 1291.7758,734.05242 1291.7758,734.05242 Z"
      gorn="0.3.0.0.0.0.0.3"
      id="path4165"
      display="inline"
      opacity="1"
      fill="#1c1c1c"
      fill-opacity="1"
      fill-rule="evenodd"
      stroke="none"
      stroke-width="0.29879752"
      stroke-linecap="butt"
      stroke-linejoin="miter"
      stroke-opacity="1"
    />
    <path
      d="M 1146.9192,697.20352 C 1146.9192,697.20352 1156.8851,480.9368 1139.7552,374.82344 1124.6272,281.1123 1056.1751,102.59225 1056.1751,102.59225 1056.1751,102.59225 1217.2799,82.526688 1297.3633,90.652246 1383.2215,99.363359 1548.1034,155.12782 1548.1034,155.12782 1548.1034,155.12782 1491.783,366.1101 1447.8073,465.5679 1407.0031,557.85348 1297.3633,728.24797 1297.3633,728.24797 Z"
      gorn="0.3.0.0.0.0.0.4"
      id="path4165-2"
      display="inline"
      opacity="1"
      fill="url(#radialGradient4475)"
      fill-opacity="1"
      fill-rule="evenodd"
      stroke="none"
      stroke-width="0.29879752"
      stroke-linecap="butt"
      stroke-linejoin="miter"
      stroke-opacity="1"
    />
    <path
      d="M 1394.8455,790.17577 C 1394.8455,790.17577 1564.3642,655.5124 1633.0637,572.84571 1693.7342,499.84125 1783.2573,330.90009 1783.2573,330.90009 1783.2573,330.90009 1904.2872,439.10901 1950.8111,504.7968 2000.6898,575.22126 2067.0614,736.12686 2067.0614,736.12686 2067.0614,736.12686 1871.0523,832.38578 1767.1967,864.63134 1670.8309,894.55246 1470.3541,923.95024 1470.3541,923.95024 Z"
      gorn="0.3.0.0.0.0.0.5"
      id="path4165-3"
      display="inline"
      opacity="1"
      fill="#1c1c1c"
      fill-opacity="1"
      fill-rule="evenodd"
      stroke="none"
      stroke-width="0.29879752"
      stroke-linecap="butt"
      stroke-linejoin="miter"
      stroke-opacity="1"
    />
    <path
      d="M 1484.4417,985.41804 C 1484.4417,985.41804 1689.2828,1055.4958 1795.9504,1068.7402 1890.1515,1080.4369 2080.6947,1064.668 2080.6947,1064.668 2080.6947,1064.668 2054.882,1224.9525 2024.6743,1299.5636 1992.2884,1379.5548 1892.6175,1522.2481 1892.6175,1522.2481 1892.6175,1522.2481 1705.8206,1409.1459 1622.6389,1339.0981 1545.4562,1274.1036 1412.544,1121.1669 1412.544,1121.1669 Z"
      gorn="0.3.0.0.0.0.0.6"
      id="path4165-3-6"
      display="inline"
      opacity="1"
      fill="#1c1c1c"
      fill-opacity="1"
      fill-rule="evenodd"
      stroke="none"
      stroke-width="0.29879752"
      stroke-linecap="butt"
      stroke-linejoin="miter"
      stroke-opacity="1"
    />
    <path
      d="M 1318.2052,1191.7992 C 1318.2052,1191.7992 1389.7893,1396.1181 1445.3366,1488.1392 1494.3919,1569.4059 1624.6038,1709.406 1624.6038,1709.406 1624.6038,1709.406 1482.673,1788.2293 1405.3563,1810.6227 1322.4642,1834.6316 1148.6891,1844.5304 1148.6891,1844.5304 1148.6891,1844.5304 1122.0758,1627.7893 1125.6932,1519.1026 1129.0496,1418.2548 1167.0609,1219.2314 1167.0609,1219.2314 Z"
      gorn="0.3.0.0.0.0.0.7"
      id="path4165-3-6-7"
      display="inline"
      opacity="1"
      fill="#1c1c1c"
      fill-opacity="1"
      fill-rule="evenodd"
      stroke="none"
      stroke-width="0.29879752"
      stroke-linecap="butt"
      stroke-linejoin="miter"
      stroke-opacity="1"
    />
    <path
      d="M 1027.6486,1187.3792 C 1027.6486,1187.3792 935.42485,1383.2503 910.50739,1487.8092 888.50199,1580.147 883.17824,1771.2671 883.17824,1771.2671 883.17824,1771.2671 726.71442,1727.9504 655.88596,1689.7048 579.95007,1648.7015 449.10843,1533.9137 449.10843,1533.9137 449.10843,1533.9137 582.10609,1360.7181 660.89279,1285.7614 733.99742,1216.2114 900.64856,1100.9603 900.64856,1100.9603 Z"
      gorn="0.3.0.0.0.0.0.8"
      id="path4165-3-6-7-5"
      display="inline"
      opacity="1"
      fill="#1c1c1c"
      fill-opacity="1"
      fill-rule="evenodd"
      stroke="none"
      stroke-width="0.29879752"
      stroke-linecap="butt"
      stroke-linejoin="miter"
      stroke-opacity="1"
    />
    <path
      d="M 831.09836,1056.6725 C 831.09836,1056.6725 620.67254,1107.5814 523.58354,1153.7025 437.84143,1194.4325 285.58531,1310.0759 285.58531,1310.0759 285.58531,1310.0759 221.26849,1161.0103 206.67456,1081.8491 191.02822,996.98137 198.45994,823.08355 198.45994,823.08355 198.45994,823.08355 416.77405,818.15688 524.5619,832.56467 624.57617,845.93356 818.83295,903.54913 818.83295,903.54913 Z"
      gorn="0.3.0.0.0.0.0.9"
      id="path4165-3-6-7-5-3"
      display="inline"
      opacity="1"
      fill="#1c1c1c"
      fill-opacity="1"
      fill-rule="evenodd"
      stroke="none"
      stroke-width="0.29879752"
      stroke-linecap="butt"
      stroke-linejoin="miter"
      stroke-opacity="1"
    />
    <path
      d="M 917.54089,815.18577 C 917.54089,815.18577 760.66835,665.98129 669.27295,609.41016 588.55907,559.45126 408.83519,494.22347 408.83519,494.22347 408.83519,494.22347 499.21276,359.35676 557.81356,304.17231 620.64,245.00785 770.78561,156.96227 770.78561,156.96227 770.78561,156.96227 893.29839,337.72676 939.63633,436.10678 982.63245,527.39125 1039.5506,721.85353 1039.5506,721.85353 Z"
      gorn="0.3.0.0.0.0.0.10"
      id="path4165-3-6-7-5-3-5"
      display="inline"
      opacity="1"
      fill="#1c1c1c"
      fill-opacity="1"
      fill-rule="evenodd"
      stroke="none"
      stroke-width="0.29879752"
      stroke-linecap="butt"
      stroke-linejoin="miter"
      stroke-opacity="1"
    />
    <path
      d="M 1539.9628,951.01136 A 376.02669,360.50432 0 0 1 1174.6909,1318.8825 376.02669,360.50432 0 0 1 788.23385,971.47581 376.02669,360.50432 0 0 1 1147.6714,598.36016 376.02669,360.50432 0 0 1 1539.5549,940.13358"
      gorn="0.3.0.0.0.0.0.11"
      id="path4163"
      display="inline"
      opacity="1"
      fill="#1c1c1c"
      fill-opacity="1"
      fill-rule="nonzero"
      stroke="none"
      stroke-width="0.91140592"
      stroke-linecap="round"
      stroke-linejoin="round"
      stroke-miterlimit="4"
      stroke-dasharray="none"
      stroke-dashoffset="0"
      stroke-opacity="1"
    />
    <path
      d="M 1390.3612,781.72576 C 1390.3612,781.72576 1559.8798,647.06239 1628.5794,564.39571 1689.2499,491.39124 1778.773,322.45009 1778.773,322.45009 1778.773,322.45009 1899.8028,430.65901 1946.3268,496.3468 1996.2055,566.77126 2062.577,727.67686 2062.577,727.67686 2062.577,727.67686 1866.568,823.93577 1762.7123,856.18134 1666.3465,886.10246 1465.8697,915.50024 1465.8697,915.50024 Z"
      gorn="0.3.0.0.0.0.0.12"
      id="path4165-3-61"
      display="inline"
      opacity="1"
      fill="url(#radialGradient4560)"
      fill-opacity="1"
      fill-rule="evenodd"
      stroke="none"
      stroke-width="0.29879752"
      stroke-linecap="butt"
      stroke-linejoin="miter"
      stroke-opacity="1"
    />
    <path
      d="M 1497.7034,1002.0891 C 1497.7034,1002.0891 1702.5445,1072.168 1809.2119,1085.4125 1903.413,1097.1091 2093.9563,1081.3402 2093.9563,1081.3402 2093.9563,1081.3402 2068.1436,1241.6236 2037.936,1316.2359 2005.5501,1396.227 1905.879,1538.9204 1905.879,1538.9204 1905.879,1538.9204 1719.0823,1425.8181 1635.9005,1355.7703 1558.7178,1290.7747 1425.8056,1137.8391 1425.8056,1137.8391 Z"
      gorn="0.3.0.0.0.0.0.13"
      id="path4165-3-6-0"
      display="inline"
      opacity="1"
      fill="url(#radialGradient4607)"
      fill-opacity="1"
      fill-rule="evenodd"
      stroke="none"
      stroke-width="0.29879752"
      stroke-linecap="butt"
      stroke-linejoin="miter"
      stroke-opacity="1"
    />
    <path
      d="M 1332.1508,1218.1158 C 1332.1508,1218.1158 1403.7349,1422.4348 1459.282,1514.4559 1508.3374,1595.7226 1638.5494,1735.7226 1638.5494,1735.7226 1638.5494,1735.7226 1496.6185,1814.546 1419.3019,1836.9393 1336.4098,1860.9482 1162.6347,1870.8471 1162.6347,1870.8471 1162.6347,1870.8471 1136.0214,1654.1059 1139.6388,1545.4193 1142.9952,1444.5715 1181.0065,1245.5481 1181.0065,1245.5481 Z"
      gorn="0.3.0.0.0.0.0.14"
      id="path4165-3-6-7-2"
      display="inline"
      opacity="1"
      fill="url(#radialGradient4630)"
      fill-opacity="1"
      fill-rule="evenodd"
      stroke="none"
      stroke-width="0.29879752"
      stroke-linecap="butt"
      stroke-linejoin="miter"
      stroke-opacity="1"
    />
    <path
      d="M 1544.437,945.58136 A 376.02669,360.50432 0 0 1 1179.165,1313.4525 376.02669,360.50432 0 0 1 792.70801,966.04581 376.02669,360.50432 0 0 1 1152.1457,592.93016 376.02669,360.50432 0 0 1 1544.029,934.70358"
      gorn="0.3.0.0.0.0.0.15"
      id="path4163-3"
      display="inline"
      opacity="1"
      fill="url(#radialGradient4746)"
      fill-opacity="1"
      fill-rule="nonzero"
      stroke="none"
      stroke-width="0.91140592"
      stroke-linecap="round"
      stroke-linejoin="round"
      stroke-miterlimit="4"
      stroke-dasharray="none"
      stroke-dashoffset="0"
      stroke-opacity="1"
    />
    <path
      d="M 1020.0674,1192.1703 C 1020.0674,1192.1703 927.84362,1388.0414 902.92616,1492.5992 880.92076,1584.9382 875.59701,1776.0582 875.59701,1776.0582 875.59701,1776.0582 719.13319,1732.7415 648.30473,1694.496 572.36884,1653.4926 441.5272,1538.7048 441.5272,1538.7048 441.5272,1538.7048 574.52486,1365.5092 653.31156,1290.5525 726.41619,1221.0014 893.06732,1105.7514 893.06732,1105.7514 Z"
      gorn="0.3.0.0.0.0.0.16"
      id="path4165-3-6-7-5-37"
      display="inline"
      opacity="1"
      fill="url(#radialGradient4653)"
      fill-opacity="1"
      fill-rule="evenodd"
      stroke="none"
      stroke-width="0.29879752"
      stroke-linecap="butt"
      stroke-linejoin="miter"
      stroke-opacity="1"
    />
    <path
      d="M 824.1393,1063.8747 C 824.1393,1063.8747 613.71347,1114.7847 516.62443,1160.9047 430.88233,1201.6347 278.62621,1317.2781 278.62621,1317.2781 278.62621,1317.2781 214.3094,1168.2125 199.71547,1089.0525 184.06914,1004.1836 191.50085,830.28578 191.50085,830.28578 191.50085,830.28578 409.81495,825.35911 517.6028,839.76689 617.61709,853.13578 811.87387,910.75135 811.87387,910.75135 Z"
      gorn="0.3.0.0.0.0.0.17"
      id="path4165-3-6-7-5-3-59"
      display="inline"
      opacity="1"
      fill="url(#radialGradient4676)"
      fill-opacity="1"
      fill-rule="evenodd"
      stroke="none"
      stroke-width="0.29879752"
      stroke-linecap="butt"
      stroke-linejoin="miter"
      stroke-opacity="1"
    />
    <path
      d="M 907.397,820.99466 C 907.397,820.99466 750.52446,671.79129 659.12906,615.22016 578.41518,565.26126 398.6913,500.03347 398.6913,500.03347 398.6913,500.03347 489.06887,365.16565 547.66967,309.9812 610.49611,250.81785 760.64172,162.77227 760.64172,162.77227 760.64172,162.77227 883.1545,343.53676 929.49244,441.91679 972.48856,533.20125 1029.4067,727.66353 1029.4067,727.66353 Z"
      gorn="0.3.0.0.0.0.0.18"
      id="path4165-3-6-7-5-3-5-7"
      display="inline"
      opacity="1"
      fill="url(#radialGradient4723)"
      fill-opacity="1"
      fill-rule="evenodd"
      stroke="none"
      stroke-width="0.29879752"
      stroke-linecap="butt"
      stroke-linejoin="miter"
      stroke-opacity="1"
    />
    <path
      d="M 155.65633,1699.0049 0,1700.4893 0.25288254,1727.0493 155.90921,1725.5649 Z"
      gorn="0.3.0.0.0.0.0.20"
      id="path355"
      font-size="medium"
      color="#000000"
      font-style="normal"
      font-variant="normal"
      font-weight="normal"
      font-stretch="normal"
      line-height="normal"
      font-family="'Droid Sans'"
      text-indent="0"
      text-align="start"
      text-decoration="none"
      text-decoration-line="none"
      text-decoration-style="solid"
      text-decoration-color="#000000"
      letter-spacing="normal"
      word-spacing="normal"
      text-transform="none"
      writing-mode="lr-tb"
      direction="ltr"
      baseline-shift="baseline"
      text-anchor="start"
      white-space="normal"
      clip-rule="nonzero"
      display="inline"
      overflow="visible"
      visibility="visible"
      opacity="1"
      isolation="auto"
      mix-blend-mode="normal"
      color-interpolation="sRGB"
      color-interpolation-filters="linearRGB"
      solid-color="#000000"
      solid-opacity="1"
      fill="#000000"
      fill-opacity="1"
      fill-rule="evenodd"
      stroke="none"
      stroke-width="2.39038014"
      stroke-linecap="butt"
      stroke-linejoin="miter"
      stroke-miterlimit="4"
      stroke-dasharray="none"
      stroke-dashoffset="0"
      stroke-opacity="1"
      color-rendering="auto"
      image-rendering="auto"
      shape-rendering="auto"
      text-rendering="auto"
      enable-background="accumulate"
    />
    <path
      d="M 156.00575,1598.308 0.34942377,1599.7924 0.60230631,1626.3524 156.25863,1624.868 Z"
      gorn="0.3.0.0.0.0.0.22"
      id="path4281"
      font-size="medium"
      color="#000000"
      font-style="normal"
      font-variant="normal"
      font-weight="normal"
      font-stretch="normal"
      line-height="normal"
      font-family="'Droid Sans'"
      text-indent="0"
      text-align="start"
      text-decoration="none"
      text-decoration-line="none"
      text-decoration-style="solid"
      text-decoration-color="#000000"
      letter-spacing="normal"
      word-spacing="normal"
      text-transform="none"
      writing-mode="lr-tb"
      direction="ltr"
      baseline-shift="baseline"
      text-anchor="start"
      white-space="normal"
      clip-rule="nonzero"
      display="inline"
      overflow="visible"
      visibility="visible"
      opacity="1"
      isolation="auto"
      mix-blend-mode="normal"
      color-interpolation="sRGB"
      color-interpolation-filters="linearRGB"
      solid-color="#000000"
      solid-opacity="1"
      fill="#ff0000"
      fill-opacity="1"
      fill-rule="evenodd"
      stroke="none"
      stroke-width="2.39038014"
      stroke-linecap="butt"
      stroke-linejoin="miter"
      stroke-miterlimit="4"
      stroke-dasharray="none"
      stroke-dashoffset="0"
      stroke-opacity="1"
      color-rendering="auto"
      image-rendering="auto"
      shape-rendering="auto"
      text-rendering="auto"
      enable-background="accumulate"
    />
    <path
      d="M 206.23191,528.76348 366.60857,288.19897 206.23191,134.50448 Z"
      gorn="0.3.0.0.0.0.0.23"
      id="path357"
      fill="#292929"
      fill-opacity="1"
      fill-rule="evenodd"
      stroke="none"
      stroke-width="0.29879752"
      stroke-linecap="butt"
      stroke-linejoin="miter"
      stroke-opacity="1"
    />
    <path
      d="M 690.66644,42.766678 453.24851,207.76672 296.48094,50.392236 Z"
      gorn="0.3.0.0.0.0.0.24"
      id="path4281-6"
      fill="#292929"
      fill-opacity="1"
      fill-rule="evenodd"
      stroke="none"
      stroke-width="0.29879752"
      stroke-linecap="butt"
      stroke-linejoin="miter"
      stroke-opacity="1"
    />
    <path
      d="M 2095.6513,524.51459 1935.2746,283.95008 2095.6513,130.2567 Z"
      gorn="0.3.0.0.0.0.0.25"
      id="path4281-2"
      fill="#292929"
      fill-opacity="1"
      fill-rule="evenodd"
      stroke="none"
      stroke-width="0.29879752"
      stroke-linecap="butt"
      stroke-linejoin="miter"
      stroke-opacity="1"
    />
    <path
      d="M 1611.2168,38.517788 1848.6348,203.51783 2005.4023,46.144457 Z"
      gorn="0.3.0.0.0.0.0.26"
      id="path4281-6-9"
      fill="#292929"
      fill-opacity="1"
      fill-rule="evenodd"
      stroke="none"
      stroke-width="0.29879752"
      stroke-linecap="butt"
      stroke-linejoin="miter"
      stroke-opacity="1"
    />
    <path
      d="M 1619.637,1877.5216 1859.2717,1715.7582 2013.8897,1875.2438 Z"
      gorn="0.3.0.0.0.0.0.27"
      id="path4281-2-1"
      fill="#292929"
      fill-opacity="1"
      fill-rule="evenodd"
      stroke="none"
      stroke-width="0.29879752"
      stroke-linecap="butt"
      stroke-linejoin="miter"
      stroke-opacity="1"
    />
    <path
      d="M 2102.8285,1390.2881 1939.2028,1628.6548 2097.4795,1784.5104 Z"
      gorn="0.3.0.0.0.0.0.28"
      id="path4281-6-9-2"
      fill="#292929"
      fill-opacity="1"
      fill-rule="evenodd"
      stroke="none"
      stroke-width="0.29879752"
      stroke-linecap="butt"
      stroke-linejoin="miter"
      stroke-opacity="1"
    />
    <path
      d="M 678.36911,1898.3571 438.73447,1736.5937 284.11639,1896.0793 Z"
      gorn="0.3.0.0.0.0.0.29"
      id="path4281-2-1-7"
      fill="#292929"
      fill-opacity="1"
      fill-rule="evenodd"
      stroke="none"
      stroke-width="0.29879752"
      stroke-linecap="butt"
      stroke-linejoin="miter"
      stroke-opacity="1"
    />
    <path
      d="M 195.17767,1411.1237 358.8034,1649.4904 200.52672,1805.346 Z"
      gorn="0.3.0.0.0.0.0.30"
      id="path4281-6-9-2-0"
      fill="#292929"
      fill-opacity="1"
      fill-rule="evenodd"
      stroke="none"
      stroke-width="0.29879752"
      stroke-linecap="butt"
      stroke-linejoin="miter"
      stroke-opacity="1"
    />
    <path
      d="M 313.2269,1812.6582 A 35.082395,31.741185 0 0 1 279.1479,1845.0471 35.082395,31.741185 0 0 1 243.09238,1814.4593 35.082395,31.741185 0 0 1 276.62706,1781.6082 35.082395,31.741185 0 0 1 313.18886,1811.7004"
      gorn="0.3.0.0.0.0.0.31"
      id="path4352"
      opacity="1"
      fill="#292929"
      fill-opacity="1"
      fill-rule="nonzero"
      stroke="none"
      stroke-width="5.97595024"
      stroke-linecap="round"
      stroke-linejoin="round"
      stroke-miterlimit="4"
      stroke-dasharray="none"
      stroke-dashoffset="0"
      stroke-opacity="1"
    />
    <path
      d="M 2055.5255,1787.8538 A 35.082395,31.741185 0 0 1 2021.4464,1820.2427 35.082395,31.741185 0 0 1 1985.3909,1789.6549 35.082395,31.741185 0 0 1 2018.9256,1756.8038 35.082395,31.741185 0 0 1 2055.4873,1786.896"
      gorn="0.3.0.0.0.0.0.32"
      id="path4352-9"
      opacity="1"
      fill="#292929"
      fill-opacity="1"
      fill-rule="nonzero"
      stroke="none"
      stroke-width="5.97595024"
      stroke-linecap="round"
      stroke-linejoin="round"
      stroke-miterlimit="4"
      stroke-dasharray="none"
      stroke-dashoffset="0"
      stroke-opacity="1"
    />
    <path
      d="M 2045.6293,117.18003 A 35.082395,31.741185 0 0 1 2011.5503,149.57004 35.082395,31.741185 0 0 1 1975.4948,118.98226 35.082395,31.741185 0 0 1 2009.0295,86.130023 35.082395,31.741185 0 0 1 2045.5913,116.22226"
      gorn="0.3.0.0.0.0.0.33"
      id="path4352-9-3"
      opacity="1"
      fill="#292929"
      fill-opacity="1"
      fill-rule="nonzero"
      stroke="none"
      stroke-width="5.97595024"
      stroke-linecap="round"
      stroke-linejoin="round"
      stroke-miterlimit="4"
      stroke-dasharray="none"
      stroke-dashoffset="0"
      stroke-opacity="1"
    />
    <path
      d="M 311.4291,123.90448 A 35.082395,31.741185 0 0 1 277.3501,156.29449 35.082395,31.741185 0 0 1 241.29458,125.7067 35.082395,31.741185 0 0 1 274.82925,92.854469 35.082395,31.741185 0 0 1 311.39106,122.9467"
      gorn="0.3.0.0.0.0.0.34"
      id="path4352-9-3-6"
      opacity="1"
      fill="#292929"
      fill-opacity="1"
      fill-rule="nonzero"
      stroke="none"
      stroke-width="5.97595024"
      stroke-linecap="round"
      stroke-linejoin="round"
      stroke-miterlimit="4"
      stroke-dasharray="none"
      stroke-dashoffset="0"
      stroke-opacity="1"
    />
    <path
      d="M 1183.5196,965.79692 A 35.082395,31.741185 0 0 1 1149.4407,998.18582 35.082395,31.741185 0 0 1 1113.3851,967.59803 35.082395,31.741185 0 0 1 1146.9198,934.74691 35.082395,31.741185 0 0 1 1183.4816,964.83914"
      gorn="0.3.0.0.0.0.0.35"
      id="path4352-9-3-6-0"
      opacity="1"
      fill="#333333"
      fill-opacity="1"
      fill-rule="nonzero"
      stroke="none"
      stroke-width="5.97595024"
      stroke-linecap="round"
      stroke-linejoin="round"
      stroke-miterlimit="4"
      stroke-dasharray="none"
      stroke-dashoffset="0"
      stroke-opacity="1"
    />
    <path
      d="M 1193.5432,975.82026 A 35.082395,31.741185 0 0 1 1159.4641,1008.2102 35.082395,31.741185 0 0 1 1123.4086,977.62137 35.082395,31.741185 0 0 1 1156.9433,944.77025 35.082395,31.741185 0 0 1 1193.5052,974.86248"
      gorn="0.3.0.0.0.0.0.36"
      id="path4352-9-3-6-0-6"
      display="inline"
      opacity="1"
      fill="url(#radialGradient4769)"
      fill-opacity="1"
      fill-rule="nonzero"
      stroke="none"
      stroke-width="5.97595024"
      stroke-linecap="round"
      stroke-linejoin="round"
      stroke-miterlimit="4"
      stroke-dasharray="none"
      stroke-dashoffset="0"
      stroke-opacity="1"
    />
    <rect
      ry="22.818024"
      gorn="0.3.0.0.0.0.0.37"
      height="65.835617"
      id="rect4790"
      y="1579.2172"
      x="122.90803"
      width="70.675438"
      opacity="1"
      fill="#000000"
      fill-opacity="1"
      fill-rule="nonzero"
      stroke="none"
      stroke-width="5.97595024"
      stroke-linecap="round"
      stroke-linejoin="round"
      stroke-miterlimit="4"
      stroke-dasharray="none"
      stroke-dashoffset="0"
      stroke-opacity="1"
    />
    <rect
      ry="22.818024"
      gorn="0.3.0.0.0.0.0.38"
      height="65.835617"
      id="rect4790-1"
      y="1679.0634"
      x="120.94481"
      width="70.675438"
      display="inline"
      opacity="1"
      fill="#000000"
      fill-opacity="1"
      fill-rule="nonzero"
      stroke="none"
      stroke-width="5.97595024"
      stroke-linecap="round"
      stroke-linejoin="round"
      stroke-miterlimit="4"
      stroke-dasharray="none"
      stroke-dashoffset="0"
      stroke-opacity="1"
    />
    <path
      font-size="medium"
      id="path345"
      gorn="0.3.0.0.0.0.0.20"
      d="M 155.65633,1499.1585 0,1500.6429 0.25288254,1527.2029 155.90921,1525.7185 Z"
      color="#000000"
      font-style="normal"
      font-variant="normal"
      font-weight="normal"
      font-stretch="normal"
      line-height="normal"
      font-family="'Droid Sans'"
      text-indent="0"
      text-align="start"
      text-decoration="none"
      text-decoration-line="none"
      text-decoration-style="solid"
      text-decoration-color="#000000"
      letter-spacing="normal"
      word-spacing="normal"
      text-transform="none"
      writing-mode="lr-tb"
      direction="ltr"
      baseline-shift="baseline"
      text-anchor="start"
      white-space="normal"
      clip-rule="nonzero"
      display="inline"
      overflow="visible"
      visibility="visible"
      opacity="1"
      isolation="auto"
      mix-blend-mode="normal"
      color-interpolation="sRGB"
      color-interpolation-filters="linearRGB"
      solid-color="#000000"
      solid-opacity="1"
      fill="#0000ff"
      fill-opacity="1"
      fill-rule="evenodd"
      stroke="none"
      stroke-width="2.39038014"
      stroke-linecap="butt"
      stroke-linejoin="miter"
      stroke-miterlimit="4"
      stroke-dasharray="none"
      stroke-dashoffset="0"
      stroke-opacity="1"
      color-rendering="auto"
      image-rendering="auto"
      shape-rendering="auto"
      text-rendering="auto"
      enable-background="accumulate"
    />
    <path
      font-size="medium"
      id="path349"
      gorn="0.3.0.0.0.0.0.22"
      d="M 156.00575,1398.3079 0.34942377,1399.7923 0.60230631,1426.3523 156.25863,1424.8679 Z"
      color="#000000"
      font-style="normal"
      font-variant="normal"
      font-weight="normal"
      font-stretch="normal"
      line-height="normal"
      font-family="'Droid Sans'"
      text-indent="0"
      text-align="start"
      text-decoration="none"
      text-decoration-line="none"
      text-decoration-style="solid"
      text-decoration-color="#000000"
      letter-spacing="normal"
      word-spacing="normal"
      text-transform="none"
      writing-mode="lr-tb"
      direction="ltr"
      baseline-shift="baseline"
      text-anchor="start"
      white-space="normal"
      clip-rule="nonzero"
      display="inline"
      overflow="visible"
      visibility="visible"
      opacity="1"
      isolation="auto"
      mix-blend-mode="normal"
      color-interpolation="sRGB"
      color-interpolation-filters="linearRGB"
      solid-color="#000000"
      solid-opacity="1"
      fill="#00ff00"
      fill-opacity="1"
      fill-rule="evenodd"
      stroke="none"
      stroke-width="2.39038014"
      stroke-linecap="butt"
      stroke-linejoin="miter"
      stroke-miterlimit="4"
      stroke-dasharray="none"
      stroke-dashoffset="0"
      stroke-opacity="1"
      color-rendering="auto"
      image-rendering="auto"
      shape-rendering="auto"
      text-rendering="auto"
      enable-background="accumulate"
    />
    <rect
      width="70.675438"
      x="122.90803"
      y="1379.217"
      id="rect351"
      height="65.835617"
      gorn="0.3.0.0.0.0.0.37"
      ry="22.818024"
      opacity="1"
      fill="#000000"
      fill-opacity="1"
      fill-rule="nonzero"
      stroke="none"
      stroke-width="5.97595024"
      stroke-linecap="round"
      stroke-linejoin="round"
      stroke-miterlimit="4"
      stroke-dasharray="none"
      stroke-dashoffset="0"
      stroke-opacity="1"
    />
    <rect
      width="70.675438"
      x="120.94481"
      y="1479.217"
      id="rect353"
      height="65.835617"
      gorn="0.3.0.0.0.0.0.38"
      ry="22.818024"
      display="inline"
      opacity="1"
      fill="#000000"
      fill-opacity="1"
      fill-rule="nonzero"
      stroke="none"
      stroke-width="5.97595024"
      stroke-linecap="round"
      stroke-linejoin="round"
      stroke-miterlimit="4"
      stroke-dasharray="none"
      stroke-dashoffset="0"
      stroke-opacity="1"
    />
    <rect
      ry="5.0698247"
      gorn="0.3.0.0.0.0.0.19"
      height="22.505077"
      id="connector0pin"
      y="1701.9624"
      x="1.7096447"
      width="14.882403"
      fill="none"
      stroke="none"
      stroke-width="0"
    />
    <rect
      ry="5.0698247"
      gorn="0.3.0.0.0.0.0.21"
      height="22.505077"
      id="connector1pin"
      y="1601.5059"
      x="1.8911397"
      width="14.882403"
      fill="none"
      stroke="none"
      stroke-width="0"
    />
    <rect
      width="14.882403"
      x="1.7096447"
      y="1502.1161"
      id="connector2pin"
      height="22.505077"
      gorn="0.3.0.0.0.0.0.19"
      ry="5.0698247"
      fill="none"
      stroke="none"
      stroke-width="0"
    />
    <rect
      width="14.882403"
      x="1.8911397"
      y="1401.5057"
      id="connector3pin"
      height="22.505077"
      gorn="0.3.0.0.0.0.0.21"
      ry="5.0698247"
      fill="none"
      stroke="none"
      stroke-width="0"
    />
  </g>
</svg>
