<?xml version='1.0' encoding='UTF-8' standalone='no'?>
<!-- Created with Inkscape (http://www.inkscape.org/) -->
<svg xmlns="http://www.w3.org/2000/svg" id="svg8"  version="1.1" viewBox="0 0 19.989798 9.906001" height="0.39000002in" gorn="0" width="0.787in">
    <desc >
        <referenceFile >Relay_DS2Y-S-DC5V_no_text_better_size_droid_font.svg</referenceFile>
    </desc>
    <title id="title6876" >DS2Y-S-DC5V</title>
    <defs id="defs2" >
        <filter id="filter6786-4"  style="color-interpolation-filters:sRGB" y="-0.0035999999" height="1.0072" width="1.0072" x="-0.0035999999">
            <feGaussianBlur id="feGaussianBlur6788-7"  stdDeviation="0.037284099"/>
        </filter>
    </defs>
    <metadata id="metadata5" >
        <rdf:RDF xmlns:rdf="http://www.w3.org/1999/02/22-rdf-syntax-ns#">
            <cc:Work xmlns:cc="http://creativecommons.org/ns#" rdf:about="" xmlns:rdf="http://www.w3.org/1999/02/22-rdf-syntax-ns#">
                <dc:format xmlns:dc="http://purl.org/dc/elements/1.1/">image/svg+xml</dc:format>
                <dc:type rdf:resource="http://purl.org/dc/dcmitype/StillImage" xmlns:dc="http://purl.org/dc/elements/1.1/" xmlns:rdf="http://www.w3.org/1999/02/22-rdf-syntax-ns#"/>
                <dc:title xmlns:dc="http://purl.org/dc/elements/1.1/">DS2Y-S-DC5V</dc:title>
            </cc:Work>
        </rdf:RDF>
    </metadata>
    <g  transform="translate(-2.9296876e-7,-3.6914485)">
        <g >
            <g >
                <g id="layer2"  style="display:inline" gorn="0.4.0.0.0">
                    <rect id="rect6872"  stroke-width="0.63328922" fill-opacity="1" style="display:inline;stroke-linecap:butt;stroke-linejoin:round;stroke-miterlimit:4;stroke-dasharray:none;" stroke="none" stroke-opacity="1" y="3.6914485" fill="#de9c00" height="9.9060001" gorn="0.4.0.0.0.0" width="19.989799" x="2.9296876e-007"/>
                </g>
            </g>
        </g>
    </g>
    <g  transform="translate(0,-4.0939625)">
        <g >
            <g >
                <g id="layer4"  gorn="0.5.0.0.0">
                    <g  transform="translate(0.00904238,5.7114048)">
                        <g >
                            <g >
                                <g id="g4749"  gorn="0.5.0.0.0.0.0.0.0">
                                    <rect id="rect5711-2"  stroke-width="0.01424882" fill-opacity="1" stroke="#414141" stroke-opacity="1" y="-1.6096151" fill="#414141" height="9.8910484" gorn="0.5.0.0.0.0.0.0.0.0" width="0.48861536" x="0.48250118"/>
                                    <g  transform="scale(0.90302929,1.1073838)">
                                        <g >
                                            <g >
                                                <g id="text5715-9" font-size="1.41349721"  stroke-width="0.02120241" fill-opacity="1" style="font-style:normal;font-variant:normal;font-weight:normal;font-stretch:normal;line-height:125%;font-family:Droid Sans;-inkscape-font-specification:'Malgun Gothic, Normal';font-variant-ligatures:normal;font-variant-caps:normal;font-variant-numeric:normal;font-feature-settings:normal;text-align:start;letter-spacing:0;word-spacing:0;writing-mode:lr-tb;text-anchor:start;stroke-linecap:butt;stroke-linejoin:miter;" stroke="#414141" xml:space="preserve" stroke-opacity="1" xmlns:xml="http://www.w3.org/XML/1998/namespace" fill="#414141" gorn="0.5.0.0.0.0.0.0.0.1.0.0.0">
                                                    <text id="tspan5713" font-size="1.41350245"  stroke-width="0.02120241" fill-opacity="1" style="font-style:normal;font-variant:normal;font-weight:normal;font-stretch:normal;font-family:Droid Sans;-inkscape-font-specification:'Droid Sans, Normal';font-variant-ligatures:normal;font-variant-caps:normal;font-variant-numeric:normal;font-feature-settings:normal;text-align:start;writing-mode:lr-tb;text-anchor:start;" stroke="#414141" stroke-opacity="1" y="1.7121727" fill="#414141" gorn="0.5.0.0.0.0.0.0.0.1.0.0.0.0" x="1.7165095">DS2Y-S-DC5V</text>
                                                </g>
                                            </g>
                                        </g>
                                    </g>
                                    <g  transform="scale(0.99467066,1.0053579)">
                                        <g >
                                            <g >
                                                <g id="text5719-9" font-size="1.41348839"  stroke-width="0.01432764" fill-opacity="1" style="font-style:normal;font-variant:normal;font-weight:normal;font-stretch:normal;line-height:125%;font-family:Droid Sans;-inkscape-font-specification:'Malgun Gothic, Normal';font-variant-ligatures:normal;font-variant-caps:normal;font-variant-numeric:normal;font-feature-settings:normal;text-align:start;letter-spacing:0;word-spacing:0;writing-mode:lr-tb;text-anchor:start;stroke-linecap:butt;stroke-linejoin:miter;" stroke="#414141" xml:space="preserve" stroke-opacity="1" xmlns:xml="http://www.w3.org/XML/1998/namespace" fill="#414141" gorn="0.5.0.0.0.0.0.0.0.2.0.0.0">
                                                    <text id="tspan5717" font-size="1.41350245"  stroke-width="0.01432764" fill-opacity="1" style="font-style:normal;font-variant:normal;font-weight:normal;font-stretch:normal;font-family:Droid Sans;-inkscape-font-specification:'Droid Sans, Normal';font-variant-ligatures:normal;font-variant-caps:normal;font-variant-numeric:normal;font-feature-settings:normal;text-align:start;writing-mode:lr-tb;text-anchor:start;" stroke="#414141" stroke-opacity="1" y="0.33663198" fill="#414141" gorn="0.5.0.0.0.0.0.0.0.2.0.0.0.0" x="13.73874">61027D</text>
                                                </g>
                                            </g>
                                        </g>
                                    </g>
                                    <g  transform="scale(0.99467066,1.0053579)">
                                        <g >
                                            <g >
                                                <g id="text5723-5" font-size="1.41348839"  stroke-width="0.01432764" fill-opacity="1" style="font-style:normal;font-variant:normal;font-weight:normal;font-stretch:normal;line-height:125%;font-family:Droid Sans;-inkscape-font-specification:'Malgun Gothic, Normal';font-variant-ligatures:normal;font-variant-caps:normal;font-variant-numeric:normal;font-feature-settings:normal;text-align:start;letter-spacing:0;word-spacing:0;writing-mode:lr-tb;text-anchor:start;stroke-linecap:butt;stroke-linejoin:miter;" stroke="#414141" xml:space="preserve" stroke-opacity="1" xmlns:xml="http://www.w3.org/XML/1998/namespace" fill="#414141" gorn="0.5.0.0.0.0.0.0.0.3.0.0.0">
                                                    <text id="tspan5721" font-size="1.41350245"  stroke-width="0.01432764" fill-opacity="1" style="font-style:normal;font-variant:normal;font-weight:normal;font-stretch:normal;font-family:Droid Sans;-inkscape-font-specification:'Droid Sans, Normal';font-variant-ligatures:normal;font-variant-caps:normal;font-variant-numeric:normal;font-feature-settings:normal;text-align:start;writing-mode:lr-tb;text-anchor:start;" stroke="#414141" stroke-opacity="1" y="2.5881124" fill="#414141" gorn="0.5.0.0.0.0.0.0.0.3.0.0.0.0" x="14.014466">CHINA</text>
                                                </g>
                                            </g>
                                        </g>
                                    </g>
                                    <g  transform="scale(0.99467066,1.0053579)">
                                        <g >
                                            <g >
                                                <g id="text5727-8" font-size="1.41348839"  stroke-width="0.01432764" fill-opacity="1" style="font-style:normal;font-variant:normal;font-weight:normal;font-stretch:normal;line-height:125%;font-family:Droid Sans;-inkscape-font-specification:'Malgun Gothic, Normal';font-variant-ligatures:normal;font-variant-caps:normal;font-variant-numeric:normal;font-feature-settings:normal;text-align:start;letter-spacing:0;word-spacing:0;writing-mode:lr-tb;text-anchor:start;stroke-linecap:butt;stroke-linejoin:miter;" stroke="#414141" xml:space="preserve" stroke-opacity="1" xmlns:xml="http://www.w3.org/XML/1998/namespace" fill="#414141" gorn="0.5.0.0.0.0.0.0.0.4.0.0.0">
                                                    <text id="tspan5725" font-size="1.41350245"  stroke-width="0.01432764" fill-opacity="1" style="font-style:normal;font-variant:normal;font-weight:normal;font-stretch:normal;font-family:Droid Sans;-inkscape-font-specification:'Droid Sans, Normal';font-variant-ligatures:normal;font-variant-caps:normal;font-variant-numeric:normal;font-feature-settings:normal;text-align:start;writing-mode:lr-tb;text-anchor:start;" stroke="#414141" stroke-opacity="1" y="3.1816788" fill="#414141" gorn="0.5.0.0.0.0.0.0.0.4.0.0.0.0" x="1.6796201">AGY2329</text>
                                                </g>
                                            </g>
                                        </g>
                                    </g>
                                    <g  transform="scale(0.9501677,1.0524458)">
                                        <g >
                                            <g >
                                                <g id="text5731-0" font-size="1.35024667"  stroke-width="0.0136866" fill-opacity="1" style="font-style:normal;font-variant:normal;font-weight:normal;font-stretch:normal;line-height:125%;font-family:Droid Sans;-inkscape-font-specification:'Malgun Gothic, Normal';font-variant-ligatures:normal;font-variant-caps:normal;font-variant-numeric:normal;font-feature-settings:normal;text-align:start;letter-spacing:0;word-spacing:0;writing-mode:lr-tb;text-anchor:start;stroke-linecap:butt;stroke-linejoin:miter;" stroke="#414141" xml:space="preserve" stroke-opacity="1" xmlns:xml="http://www.w3.org/XML/1998/namespace" fill="#414141" gorn="0.5.0.0.0.0.0.0.0.5.0.0.0">
                                                    <text id="tspan5729" font-size="1.35023618"  stroke-width="0.0136866" fill-opacity="1" style="font-style:normal;font-variant:normal;font-weight:normal;font-stretch:normal;font-family:Droid Sans;-inkscape-font-specification:'Droid Sans, Normal';font-variant-ligatures:normal;font-variant-caps:normal;font-variant-numeric:normal;font-feature-settings:normal;text-align:start;writing-mode:lr-tb;text-anchor:start;" stroke="#414141" stroke-opacity="1" y="5.0140996" fill="#414141" gorn="0.5.0.0.0.0.0.0.0.5.0.0.0.0" x="4.7900209">125VAC</text>
                                                </g>
                                            </g>
                                        </g>
                                    </g>
                                    <g  transform="scale(0.94193897,1.0616399)">
                                        <g >
                                            <g >
                                                <g id="text5731-5-1" font-size="1.33855331"  stroke-width="0.01356807" fill-opacity="1" style="font-style:normal;font-variant:normal;font-weight:normal;font-stretch:normal;line-height:125%;font-family:Droid Sans;-inkscape-font-specification:'Malgun Gothic, Normal';font-variant-ligatures:normal;font-variant-caps:normal;font-variant-numeric:normal;font-feature-settings:normal;text-align:start;letter-spacing:0;word-spacing:0;writing-mode:lr-tb;text-anchor:start;stroke-linecap:butt;stroke-linejoin:miter;" stroke="#414141" xml:space="preserve" stroke-opacity="1" xmlns:xml="http://www.w3.org/XML/1998/namespace" fill="#414141" gorn="0.5.0.0.0.0.0.0.0.6.0.0.0">
                                                    <text id="tspan5729-1" font-size="1.33854306"  stroke-width="0.01356807" fill-opacity="1" style="font-style:normal;font-variant:normal;font-weight:normal;font-stretch:normal;font-family:Droid Sans;-inkscape-font-specification:'Droid Sans, Normal';font-variant-ligatures:normal;font-variant-caps:normal;font-variant-numeric:normal;font-feature-settings:normal;text-align:start;writing-mode:lr-tb;text-anchor:start;" stroke="#414141" stroke-opacity="1" y="6.2018223" fill="#414141" gorn="0.5.0.0.0.0.0.0.0.6.0.0.0.0" x="4.7566733">110VDC</text>
                                                </g>
                                            </g>
                                        </g>
                                    </g>
                                    <g  transform="scale(0.9283098,1.0772266)">
                                        <g >
                                            <g >
                                                <g id="text5753-2" font-size="1.3191855"  stroke-width="0.01337175" fill-opacity="1" style="font-style:normal;font-variant:normal;font-weight:normal;font-stretch:normal;line-height:125%;font-family:Droid Sans;-inkscape-font-specification:'Malgun Gothic, Normal';font-variant-ligatures:normal;font-variant-caps:normal;font-variant-numeric:normal;font-feature-settings:normal;text-align:start;letter-spacing:0;word-spacing:0;writing-mode:lr-tb;text-anchor:start;stroke-linecap:butt;stroke-linejoin:miter;" stroke="#414141" xml:space="preserve" stroke-opacity="1" xmlns:xml="http://www.w3.org/XML/1998/namespace" fill="#414141" gorn="0.5.0.0.0.0.0.0.0.7.0.0.0">
                                                    <text id="tspan5751" font-size="1.31918311"  stroke-width="0.01337175" fill-opacity="1" style="font-style:normal;font-variant:normal;font-weight:normal;font-stretch:normal;font-family:Droid Sans;-inkscape-font-specification:'Droid Sans, Normal';font-variant-ligatures:normal;font-variant-caps:normal;font-variant-numeric:normal;font-feature-settings:normal;text-align:start;writing-mode:lr-tb;text-anchor:start;" stroke="#414141" stroke-opacity="1" y="7.3247771" fill="#414141" gorn="0.5.0.0.0.0.0.0.0.7.0.0.0.0" x="5.6889029">30VDC</text>
                                                </g>
                                            </g>
                                        </g>
                                    </g>
                                    <path id="path5761-5" d="m 11.229089,7.5505438 c -0.005,-0.015399 -0.0654,-0.1901198 -0.13296,-0.38818 -0.0675,-0.1980599 -0.1414,-0.4115998 -0.16416,-0.4745199 l -0.0414,-0.1144201 -0.126209,0.009 c -0.0694,0.005 -0.12975,0.012099 -0.13408,0.0161 -0.005,0.004 -0.061,0.2032299 -0.12602,0.44283 -0.065,0.2396 -0.12558,0.4426199 -0.13464,0.4511598 -0.0295,0.0278 -0.6170895,0.0478 -0.6170895,0.021 0,-0.012999 0.0412,-0.2151798 0.0916,-0.4491699 0.0504,-0.2339999 0.0916,-0.4372599 0.0916,-0.4517001 0,-0.018899 -0.0421,-0.0263 -0.1502,-0.0263 -0.0961,0 -0.15726,-0.009 -0.16982,-0.025699 -0.0232,-0.0304 -0.50022,-1.4979499 -0.49021,-1.5080501 0.0101,-0.0102 1.8527395,-0.0533 1.8623895,-0.0436 0.005,0.005 0.16229,0.4423701 0.35057,0.9728801 l 0.34234,0.96457 0.34358,-0.006 c 0.18897,-0.004 0.34728,-0.0103 0.35178,-0.014801 0.005,-0.005 -0.13963,-0.4291801 -0.32031,-0.9436002 -0.18069,-0.5144199 -0.32853,-0.94067 -0.32853,-0.9471899 0,-0.006 0.13185,-0.011901 0.293,-0.011901 h 0.29298 l 0.10319,0.2829502 c 0.0568,0.1556199 0.2299,0.6348198 0.38476,1.0648997 l 0.28158,0.7819602 -0.008,0.18914 c -0.008,0.18581 -0.009,0.18933 -0.0619,0.1995099 -0.0297,0.005 -0.44096,0.016499 -0.91392,0.024101 -0.71695,0.011499 -0.8616,0.009 -0.87009,-0.014301 z m -0.4993,-1.54339 c 0,-0.012901 -0.0279,-0.1147598 -0.0619,-0.22636 l -0.0619,-0.2029198 h -0.35541 c -0.2813195,0 -0.3554095,0.006 -0.3554095,0.0273 0,0.0234 0.0841,0.3249898 0.1114595,0.3997399 0.0129,0.0352 0.72326,0.0374 0.72326,0.00201 z"  stroke-width="0.02046805" fill-opacity="1" stroke="#414141" stroke-opacity="1" fill="#414141" gorn="0.5.0.0.0.0.0.0.0.8"/>
                                    <g  transform="matrix(0.05386311,0,0,0.05444184,4.0390085,-4.5925683)">
                                        <g >
                                            <g >
                                                <rect id="rect5763-4"  stroke-width="3" fill-opacity="0" style="stroke-miterlimit:4;stroke-dasharray:none;filter:url(#filter6786-4)" stroke="#414141" stroke-opacity="1" y="194.24365" fill="#000000" height="24.856066" gorn="0.5.0.0.0.0.0.0.0.9.0.0.0" width="24.856066" x="174.44588"/>
                                            </g>
                                        </g>
                                    </g>
                                    <g  transform="scale(0.84965376,1.17695)">
                                        <g >
                                            <g >
                                                <g id="text6792-2" font-size="1.20741022"  stroke-width="0.01223875" fill-opacity="1" style="font-style:normal;font-variant:normal;font-weight:normal;font-stretch:normal;line-height:125%;font-family:Droid Sans;-inkscape-font-specification:'Malgun Gothic, Normal';font-variant-ligatures:normal;font-variant-caps:normal;font-variant-numeric:normal;font-feature-settings:normal;text-align:start;letter-spacing:0;word-spacing:0;writing-mode:lr-tb;text-anchor:start;stroke-linecap:butt;stroke-linejoin:miter;" stroke="#414141" xml:space="preserve" stroke-opacity="1" xmlns:xml="http://www.w3.org/XML/1998/namespace" fill="#414141" gorn="0.5.0.0.0.0.0.0.0.10.0.0.0">
                                                    <text id="tspan6790" font-size="1.20740414"  stroke-width="0.01223875" fill-opacity="1" style="font-style:normal;font-variant:normal;font-weight:normal;font-stretch:normal;font-family:Droid Sans;-inkscape-font-specification:'Droid Sans, Normal';font-variant-ligatures:normal;font-variant-caps:normal;font-variant-numeric:normal;font-feature-settings:normal;text-align:start;writing-mode:lr-tb;text-anchor:start;" stroke="#414141" stroke-opacity="1" y="6.096746" fill="#414141" gorn="0.5.0.0.0.0.0.0.0.10.0.0.0.0" x="16.175962">U</text>
                                                </g>
                                            </g>
                                        </g>
                                    </g>
                                    <path id="path6799-6" d="m 17.807589,6.5183738 a 1.1690065,1.1888421 0 0 1 -0.96773,0.5219301 1.1690065,1.1888421 0 0 1 -1.16901,-1.1888399 1.1690065,1.1888421 0 0 1 1.16901,-1.1888401 1.1690065,1.1888421 0 0 1 0.9675,0.5215699"  stroke-width="0.19997683" fill-opacity="0" style="stroke-miterlimit:4;stroke-dasharray:none;" stroke="#414141" stroke-opacity="1" fill="none" gorn="0.5.0.0.0.0.0.0.0.11"/>
                                    <rect id="rect6866-5"  stroke-width="0.10546934" fill-opacity="1" style="stroke-linecap:butt;stroke-linejoin:round;stroke-miterlimit:4;stroke-dasharray:none;" stroke="#414141" stroke-opacity="1" y="-1.242748" fill="none" height="1.5657356" gorn="0.5.0.0.0.0.0.0.0.12" width="1.4771118" ry="0.25276452" x="3.011759"/>
                                    <g  transform="scale(1.1217142,0.89149269)">
                                        <g >
                                            <g >
                                                <g id="text6870-3" font-size="1.2533989"  stroke-width="0.01270491" fill-opacity="1" style="font-style:normal;font-variant:normal;font-weight:normal;font-stretch:normal;line-height:125%;font-family:Droid Sans;-inkscape-font-specification:'Malgun Gothic, Normal';font-variant-ligatures:normal;font-variant-caps:normal;font-variant-numeric:normal;font-feature-settings:normal;text-align:start;letter-spacing:0;word-spacing:0;writing-mode:lr-tb;text-anchor:start;stroke-linecap:butt;stroke-linejoin:miter;" stroke="#414141" xml:space="preserve" stroke-opacity="1" xmlns:xml="http://www.w3.org/XML/1998/namespace" fill="#414141" gorn="0.5.0.0.0.0.0.0.0.13.0.0.0">
                                                    <text id="tspan6868" font-size="1.25340426"  stroke-width="0.01270491" fill-opacity="1" style="font-style:normal;font-variant:normal;font-weight:normal;font-stretch:normal;font-family:Droid Sans;-inkscape-font-specification:'Droid Sans, Normal';font-variant-ligatures:normal;font-variant-caps:normal;font-variant-numeric:normal;font-feature-settings:normal;text-align:start;writing-mode:lr-tb;text-anchor:start;" stroke="#414141" stroke-opacity="1" y="-0.10371688" fill="#414141" gorn="0.5.0.0.0.0.0.0.0.13.0.0.0.0" x="2.7818975">M</text>
                                                </g>
                                            </g>
                                        </g>
                                    </g>
                                    <g  transform="scale(0.99467066,1.0053579)">
                                        <g >
                                            <g >
                                                <g id="text4540" font-size="1.61064541"  stroke-width="0.24159682" fill-opacity="1" style="font-style:normal;font-variant:normal;font-weight:bold;font-stretch:normal;line-height:125%;font-family:Droid Sans;-inkscape-font-specification:'Droid Sans, Bold';font-variant-ligatures:normal;font-variant-caps:normal;font-variant-numeric:normal;font-feature-settings:normal;text-align:start;letter-spacing:0;word-spacing:0;writing-mode:lr-tb;text-anchor:start;stroke-linecap:butt;stroke-linejoin:miter;" stroke="none" xml:space="preserve" stroke-opacity="1" xmlns:xml="http://www.w3.org/XML/1998/namespace" fill="#414141" gorn="0.5.0.0.0.0.0.0.0.14.0.0.0">
                                                    <text id="tspan4538" font-size="1.61064541"  stroke-width="0.068184" fill-opacity="1" style="font-style:normal;font-variant:normal;font-weight:bold;font-stretch:normal;font-family:Droid Sans;-inkscape-font-specification:'Droid Sans, Bold';font-variant-ligatures:normal;font-variant-caps:normal;font-variant-numeric:normal;font-feature-settings:normal;text-align:start;writing-mode:lr-tb;text-anchor:start;" y="6.395577" fill="#414141" gorn="0.5.0.0.0.0.0.0.0.14.0.0.0.0" x="15.957818">SA</text>
                                                </g>
                                            </g>
                                        </g>
                                    </g>
                                    <g  transform="scale(0.99467066,1.0053579)">
                                        <g >
                                            <g >
                                                <g id="text4569" font-size="1.31918299"  stroke-width="0.24159682" fill-opacity="1" style="font-style:normal;font-variant:normal;font-weight:normal;font-stretch:normal;line-height:125%;font-family:Droid Sans;-inkscape-font-specification:'Droid Sans, Normal';font-variant-ligatures:normal;font-variant-caps:normal;font-variant-numeric:normal;font-feature-settings:normal;text-align:start;letter-spacing:0;word-spacing:0;writing-mode:lr-tb;text-anchor:start;stroke-linecap:butt;stroke-linejoin:miter;" stroke="none" xml:space="preserve" stroke-opacity="1" xmlns:xml="http://www.w3.org/XML/1998/namespace" fill="#414141" gorn="0.5.0.0.0.0.0.0.0.15.0.0.0">
                                                    <text id="tspan4567"  stroke-width="0.068184" fill-opacity="1" y="7.8156362" fill="#414141" gorn="0.5.0.0.0.0.0.0.0.15.0.0.0.0" x="2.6889052">1A</text>
                                                </g>
                                            </g>
                                        </g>
                                    </g>
                                    <g  transform="scale(0.99467066,1.0053579)">
                                        <g >
                                            <g >
                                                <g id="text4573" font-size="1.31918299"  stroke-width="0.24159682" fill-opacity="1" style="font-style:normal;font-variant:normal;font-weight:normal;font-stretch:normal;line-height:125%;font-family:Droid Sans;-inkscape-font-specification:'Droid Sans, Normal';font-variant-ligatures:normal;font-variant-caps:normal;font-variant-numeric:normal;font-feature-settings:normal;text-align:start;letter-spacing:0;word-spacing:0;writing-mode:lr-tb;text-anchor:start;stroke-linecap:butt;stroke-linejoin:miter;" stroke="none" xml:space="preserve" stroke-opacity="1" xmlns:xml="http://www.w3.org/XML/1998/namespace" fill="#414141" gorn="0.5.0.0.0.0.0.0.0.16.0.0.0">
                                                    <text id="tspan4571"  stroke-width="0.068184" fill-opacity="1" y="6.5123982" fill="#414141" gorn="0.5.0.0.0.0.0.0.0.16.0.0.0.0" x="1.6093382">0.3A</text>
                                                </g>
                                            </g>
                                        </g>
                                    </g>
                                    <g  transform="scale(0.99467066,1.0053579)">
                                        <g >
                                            <g >
                                                <g id="text4577" font-size="1.31918299"  stroke-width="0.24159682" fill-opacity="1" style="font-style:normal;font-variant:normal;font-weight:normal;font-stretch:normal;line-height:125%;font-family:Droid Sans;-inkscape-font-specification:'Droid Sans, Normal';font-variant-ligatures:normal;font-variant-caps:normal;font-variant-numeric:normal;font-feature-settings:normal;text-align:start;letter-spacing:0;word-spacing:0;writing-mode:lr-tb;text-anchor:start;stroke-linecap:butt;stroke-linejoin:miter;" stroke="none" xml:space="preserve" stroke-opacity="1" xmlns:xml="http://www.w3.org/XML/1998/namespace" fill="#414141" gorn="0.5.0.0.0.0.0.0.0.17.0.0.0">
                                                    <text id="tspan4575"  stroke-width="0.068184" fill-opacity="1" y="5.2130208" fill="#414141" gorn="0.5.0.0.0.0.0.0.0.17.0.0.0.0" x="1.6093382">0.3A</text>
                                                </g>
                                            </g>
                                        </g>
                                    </g>
                                </g>
                            </g>
                        </g>
                    </g>
                </g>
            </g>
        </g>
    </g>
    <g  transform="translate(-2.9296876e-7,-3.6914485)">
        <g >
            <g >
                <g id="layer3"  style="display:inline" gorn="0.6.0.0.0">
                    <g  transform="translate(0.03942471,15.624011)">
                        <g >
                            <g >
                                <g id="g5503"  gorn="0.6.0.0.0.0.0.0.0">
                                    <circle id="circle5461"  stroke-width="0.68372262" fill-opacity="0.46938776" style="stroke-linecap:butt;stroke-linejoin:round;stroke-miterlimit:4;stroke-dasharray:none;" cy="-10.751362" stroke="none" stroke-opacity="1" cx="18.845474" fill="none" r="0.3048" gorn="0.6.0.0.0.0.0.0.0.0"/>
                                    <circle id="circle5449"  stroke-width="0.68372262" fill-opacity="0.46938776" style="stroke-linecap:butt;stroke-linejoin:round;stroke-miterlimit:4;stroke-dasharray:none;" cy="-10.751362" stroke="none" stroke-opacity="1" cx="11.225475" fill="none" r="0.3048" gorn="0.6.0.0.0.0.0.0.0.1"/>
                                    <circle id="circle5437"  stroke-width="0.68372262" fill-opacity="0.46938776" style="stroke-linecap:butt;stroke-linejoin:round;stroke-miterlimit:4;stroke-dasharray:none;" cy="-10.751362" stroke="none" stroke-opacity="1" cx="6.1454759" fill="none" r="0.3048" gorn="0.6.0.0.0.0.0.0.0.2"/>
                                    <circle id="path5344"  stroke-width="0.68372262" fill-opacity="0.46938776" style="stroke-linecap:butt;stroke-linejoin:round;stroke-miterlimit:4;stroke-dasharray:none;" cy="-10.751362" stroke="none" stroke-opacity="1" cx="1.0654764" fill="none" r="0.3048" gorn="0.6.0.0.0.0.0.0.0.3"/>
                                    <circle id="circle5431"  stroke-width="0.68372262" fill-opacity="0.46938776" style="stroke-linecap:butt;stroke-linejoin:round;stroke-miterlimit:4;stroke-dasharray:none;" cy="-3.1313624" stroke="none" stroke-opacity="1" cx="1.0654764" fill="none" r="0.3048" gorn="0.6.0.0.0.0.0.0.0.4"/>
                                    <circle id="circle5443"  stroke-width="0.68372262" fill-opacity="0.46938776" style="stroke-linecap:butt;stroke-linejoin:round;stroke-miterlimit:4;stroke-dasharray:none;" cy="-3.1313624" stroke="none" stroke-opacity="1" cx="6.1454759" fill="none" r="0.3048" gorn="0.6.0.0.0.0.0.0.0.5"/>
                                    <circle id="circle5455"  stroke-width="0.68372262" fill-opacity="0.46938776" style="stroke-linecap:butt;stroke-linejoin:round;stroke-miterlimit:4;stroke-dasharray:none;" cy="-3.1313624" stroke="none" stroke-opacity="1" cx="11.225475" fill="none" r="0.3048" gorn="0.6.0.0.0.0.0.0.0.6"/>
                                    <circle id="circle5467"  stroke-width="0.68372262" fill-opacity="0.46938776" style="stroke-linecap:butt;stroke-linejoin:round;stroke-miterlimit:4;stroke-dasharray:none;" cy="-3.1313624" stroke="none" stroke-opacity="1" cx="18.845474" fill="none" r="0.3048" gorn="0.6.0.0.0.0.0.0.0.7"/>
                                </g>
                            </g>
                        </g>
                    </g>
                </g>
            </g>
        </g>
    </g>
</svg>
