<?xml version='1.0' encoding='UTF-8' standalone='no'?>
<svg
  xmlns:dc="http://purl.org/dc/elements/1.1/"
  xmlns:cc="http://creativecommons.org/ns#"
  xmlns:rdf="http://www.w3.org/1999/02/22-rdf-syntax-ns#"
  xmlns:svg="http://www.w3.org/2000/svg"
  xmlns="http://www.w3.org/2000/svg"
  width="0.59000003in"
  x="0px"
  version="1.1"
  y="0px"
  gorn="0"
  height="0.12in"
  viewBox="0 0 590.00024 120.00004"
  id="Layer_1"
  enable-background="new 0 0 30.24 30.24"
  xml:space="preserve">
  <desc
    id="desc2">
    <referenceFile>keys0000_27d9a17e5b5518b74d94a0189d587517_1_pcb.svg</referenceFile>
  </desc>
  <metadata
    id="metadata29">
    <rdf:RDF>
      <cc:Work
        rdf:about="">
        <dc:format>image/svg+xml</dc:format>
        <dc:type
          rdf:resource="http://purl.org/dc/dcmitype/StillImage"
        />
        <dc:title/>
      </cc:Work>
    </rdf:RDF>
  </metadata>
  <defs
    id="defs27">
          </defs>
  <desc
    id="desc3">Fritzing
    footprint
    SVG</desc>
  <g
    id="silkscreen">
    <rect
      id="rect56"
      width="580.00024"
      height="110.00004"
      x="5"
      y="5"
      fill="none"
      stroke="#000000"
      stroke-width="10"
    />
  </g>
  <g
    id="copper1">
    <g
      id="copper0">
      <rect
        width="58.000031"
        x="-87.000038"
        y="168.79172"
        fill="none"
        gorn="0.4.0.0.0.0.0"
        height="58.000031"
        stroke="#ffbf00"
        id="rect17"
        stroke-width="20"
        transform="rotate(-90)"
      />
      <circle
        fill="none"
        cx="-57.965004"
        gorn="0.4.0.0.0.0.1"
        cy="197.79172"
        stroke="#ffbf00"
        id="connector0pin"
        r="29"
        stroke-width="20"
        transform="rotate(-90)"
      />
      <circle
        fill="none"
        cx="-57.965004"
        gorn="0.4.0.0.0.0.2"
        cy="297.77167"
        stroke="#ffbf00"
        id="connector1pin"
        r="29"
        stroke-width="20"
        transform="rotate(-90)"
      />
      <circle
        fill="none"
        cx="-57.965004"
        gorn="0.4.0.0.0.0.3"
        cy="397.77185"
        stroke="#ffbf00"
        r="29"
        id="connector2pin"
        stroke-width="20"
        transform="rotate(-90)"
      />
    </g>
  </g>
</svg>
