<?xml version='1.0' encoding='UTF-8' standalone='no'?>
<svg
  xmlns="http://www.w3.org/2000/svg"
  xmlns:svg="http://www.w3.org/2000/svg"
  xmlns:rdf="http://www.w3.org/1999/02/22-rdf-syntax-ns#"
  xmlns:cc="http://creativecommons.org/ns#"
  xmlns:dc="http://purl.org/dc/elements/1.1/"
  y="0px"
  width="0.74803126in"
  height="1.2384456in"
  version="1.1"
  id="esp32"
  enable-background="new 0 0 193.484 90.125"
  xml:space="preserve"
  x="0px"
  viewBox="0 0 748.03154 1238.446"
  gorn="0">
  <desc
    id="desc2">
    <referenceFile>ESP32-WROVER-IE_1_breadboard.svg</referenceFile>
  </desc>
  <defs
    id="defs161">
  </defs>
  <metadata
    id="metadata1083">
    <rdf:RDF>
      <cc:Work
        rdf:about="">
        <dc:format>image/svg+xml</dc:format>
        <dc:type
          rdf:resource="http://purl.org/dc/dcmitype/StillImage"
        />
      </cc:Work>
    </rdf:RDF>
  </metadata>
  <g
    id="breadboard">
    <rect
      gorn="0.2.0.0"
      x="-1231.7378"
      id="board_1_"
      height="710.9306"
      y="23.812401"
      transform="rotate(-90)"
      fill="#1f1fcd"
      width="1225.0004"
      stroke-width="15.3344"
    />
    <rect
      id="rect2642"
      width="118.11028"
      height="118.11028"
      x="535.51196"
      y="272.5697"
      fill="#e6e6e6"
      stroke="none"
      stroke-width="0"
    />
    <circle
      id="path2390"
      cx="591.87433"
      cy="330.91238"
      r="36.587795"
      fill="#ffdd55"
      stroke="#ffcc00"
      stroke-width="5"
    />
    <circle
      id="circle2582"
      cx="591.87433"
      cy="330.91238"
      r="10"
      fill="#ffd42a"
      stroke="#ffcc00"
      stroke-width="5"
    />
    <path
      id="shield"
      d="M 73.60409,1216.4087 V 283.55331 h 385.09684 v 129.92028 h 222.3893 v 802.93511 z"
      fill="#b3b3b3"
      stroke="#e3e3e3"
      stroke-width="16.3972"
    />
    <text
      fill="#ffffff"
      font-family="OCRA"
      id="text3685"
      font-size="45.3692"
      y="286.34006"
      x="263.53384"
      transform="scale(0.75615727,1.3224762)"
      stroke-width="0.756158">ESPRESSIF</text>
    <text
      fill="#ffffff"
      font-family="OCRA"
      id="text2366"
      font-size="42.6683"
      y="351.73273"
      x="157.37859"
      transform="scale(0.71113964,1.4061936)"
      stroke-width="0.480677">ESP32-WROVER-IE</text>
    <path
      gorn="0.2.3.0"
      d="m 146.18417,387.97516 c -7.5649,-0.24302 -14.46393,-2.77099 -20.3467,-7.44502 -1.26236,-1.00677 -3.33902,-2.9982 -4.44047,-4.27326 -1.00993,-1.17087 -2.37019,-3.01711 -3.1055,-4.21955 -2.58794,-4.14386 -4.24169,-8.82738 -4.89498,-13.73496 -0.19249,-1.54329 -0.30297,-4.50047 -0.21774,-6.04693 0.42922,-7.66908 3.32008,-14.79537 8.3476,-20.58977 0.30611,-0.33452 0.57756,-0.61544 0.64068,-0.61859 0.10729,-0.003 1.77999,1.51805 1.78315,1.62532 0,0.0346 -0.30931,0.40398 -0.68171,0.8206 -3.47789,3.93554 -6.08476,9.34179 -7.0947,14.69754 -0.47024,2.51533 -0.6028,4.28268 -0.50181,7 0.082,2.19029 0.21149,3.32959 0.60913,5.2958 1.27501,6.13843 4.47834,11.91707 9.02931,16.25658 5.31153,5.06223 12.01171,8.07307 19.37781,8.66642 1.34129,0.11989 4.31109,0.0566 5.68394,-0.0978 7.27141,-0.80478 13.76644,-3.92608 18.876,-9.04513 l 0.77008,-0.7606 0.88999,0.83635 0.91525,0.84581 -0.31247,0.3598 c -0.17041,0.17674 -0.69431,0.69431 -1.16453,1.1393 -5.26423,4.96757 -11.85394,8.09515 -19.10012,9.04512 -1.14877,0.14202 -3.94182,0.26827 -5.06221,0.24302 z m -1.91884,-5.40311 c -1.18665,-0.12937 -2.59736,-0.3566 -3.63571,-0.59646 l -0.80479,-0.18937 -1.35706,-1.11407 c -0.75429,-0.59963 -1.39812,-1.13302 -1.44229,-1.17719 -0.0661,-0.0661 -0.008,-0.21461 0.34086,-0.72588 0.83632,-1.23402 1.44544,-2.82778 1.65058,-4.29532 0.11992,-0.88368 0.0661,-2.41751 -0.11679,-3.28856 -0.72903,-3.47792 -3.33273,-6.34358 -6.66544,-7.38507 -0.98152,-0.31244 -1.80523,-0.4292 -3.02977,-0.4671 -1.89988,-0.066 -3.02657,-0.32507 -4.58249,-1.01937 -2.08297,-0.95944 -3.73355,-2.46799 -4.86658,-4.47522 -0.81736,-1.43282 -1.28764,-2.98873 -1.33181,-4.30794 -0.041,-1.51491 0.23989,-3.87875 0.5744,-4.77506 1.27818,-3.45267 4.15958,-5.97115 7.83319,-6.83908 0.89314,-0.20197 3.38952,-0.29349 4.83811,-0.17673 7.06312,0.60279 13.45405,3.35171 18.64247,8.00366 2.60057,2.31333 4.88232,5.21055 6.58972,8.34133 1.79892,3.2696 2.98875,6.90849 3.56313,10.80932 0.19567,1.35077 0.3377,4.70245 0.25878,5.99642 -0.12624,1.78629 -0.48284,4.43103 -0.65013,4.63617 -0.18303,0.26196 -3.28224,1.51489 -4.75607,1.95987 l -0.7038,0.19568 -1.94093,-0.63754 c -1.06674,-0.36922 -1.95989,-0.68483 -1.98514,-0.70692 -0.0441,-0.0219 0.0378,-0.32506 0.1294,-0.67226 0.42607,-1.30655 0.74483,-3.12441 0.91842,-4.88231 0.0883,-1.05728 -0.0378,-3.96079 -0.22724,-5.09381 -0.59963,-3.59469 -1.90306,-6.73177 -3.97026,-9.65421 -3.87872,-5.41887 -9.92875,-8.79264 -16.64473,-9.32286 -2.15867,-0.18621 -2.88143,0.0156 -3.36742,0.94049 -0.16096,0.2872 -0.1799,0.4166 -0.15782,0.90893 0.0219,0.66593 0.11993,0.89946 0.58389,1.31292 0.4008,0.35031 0.79213,0.44814 2.06398,0.48288 5.82599,0.21457 11.20696,3.14335 14.61229,7.93735 3.85977,5.45673 4.53199,12.67137 1.73263,18.74035 -0.61223,1.36025 -0.79529,1.6443 -0.99097,1.63483 -0.0883,-0.008 -0.58388,-0.0504 -1.10461,-0.0979 z m -15.67268,-4.47202 c -1.94724,-0.27144 -3.52524,-1.62851 -4.06804,-3.50948 -0.19883,-0.64069 -0.25565,-1.7169 -0.10733,-2.39229 0.24932,-1.32236 1.23716,-2.67314 2.42064,-3.29484 0.86475,-0.46079 1.42023,-0.59021 2.45537,-0.60281 0.72902,0.0187 0.94994,0.0314 1.44857,0.202 1.50859,0.5018 2.61952,1.56221 3.12763,3.02976 0.4513,1.23715 0.39135,2.48692 -0.17044,3.7146 -0.53334,1.2498 -1.70425,2.28181 -2.97926,2.67631 -0.51126,0.14201 -1.64742,0.243 -2.12714,0.17675 z m 37.2313,-5.74711 -1.41706,0.0378 -0.0504,-0.77011 c -0.0661,-1.21188 -0.28718,-3.03291 -0.46077,-4.21011 -1.04147,-6.24886 -3.87241,-12.28946 -8.07619,-17.1718 -5.34942,-6.22683 -12.74074,-10.37696 -20.88954,-11.73089 -1.93147,-0.32192 -3.44003,-0.44501 -5.78808,-0.46393 l -1.66004,-0.0251 -0.12624,-2.29757 c -0.0661,-1.25925 -0.10732,-2.33859 -0.0852,-2.39538 0.0566,-0.13574 1.41703,-1.32239 2.21237,-1.94098 0.79531,-0.60594 1.90936,-1.37918 2.72993,-1.88098 l 0.59333,-0.35978 0.6028,0.0629 c 11.86654,1.13931 22.65688,6.93693 30.16501,16.20929 4.532,5.59875 7.64379,12.32104 9.01982,19.51043 0.13255,0.66592 0.23987,1.28133 0.24302,1.38864 0.0187,0.51128 -1.92832,3.74933 -3.22859,5.37154 l -0.4671,0.59648 -0.94995,0.0314 c -0.50181,0.0124 -1.57169,0.0315 -2.36699,0.0378 z m 7.92468,-16.50277 c -0.0441,-0.082 -0.23355,-0.55545 -0.42606,-1.04146 -0.87419,-2.12086 -2.43326,-5.12223 -3.68618,-7.1042 -3.22226,-5.07485 -7.31559,-9.49012 -12.12534,-13.01852 -4.00495,-2.96352 -8.5938,-5.32733 -13.43192,-6.92431 -0.50181,-0.17042 -0.91839,-0.34083 -0.91839,-0.39763 -0.003,-0.0473 0.11047,-0.46077 0.2651,-0.93105 0.30928,-0.98147 0.13885,-0.88048 1.66322,-1.0036 3.62937,-0.29035 7.82684,0.29984 11.56355,1.60641 8.57486,3.01717 15.31605,10.19076 17.86927,19.00549 0.71954,2.44908 0.99726,4.27324 1.10456,7.08841 0.0661,1.78628 0.0567,2.11134 -0.0345,2.17764 -0.0598,0.0472 -0.48285,0.20827 -0.9531,0.37872 l -0.83003,0.3282 z"
      id="logo"
      fill="#e3e3e3"
      stroke-width="3.15607"
    />
    <line
      gorn="0.2.16.0"
      x2="545.89587"
      y1="237.3031"
      id="line48"
      y2="40.038399"
      x1="545.89587"
      stroke-miterlimit="10"
      fill="none"
      stroke="#000000"
      stroke-width="27.7778"
    />
    <line
      gorn="0.2.17.0"
      x2="629.22919"
      y1="237.3031"
      id="line50"
      y2="40.038399"
      x1="629.22919"
      stroke-miterlimit="10"
      fill="none"
      stroke="#000000"
      stroke-width="27.7778"
    />
    <line
      gorn="0.2.18.0"
      x2="454.52084"
      y1="40.038399"
      id="line52"
      y2="40.038399"
      x1="641.60419"
      stroke-miterlimit="10"
      fill="none"
      stroke="#000000"
      stroke-width="27.7778"
    />
    <line
      gorn="0.2.19.0"
      x2="454.52084"
      y1="26.718901"
      id="line54"
      y2="152.30283"
      x1="454.52084"
      stroke-miterlimit="10"
      fill="none"
      stroke="#000000"
      stroke-width="27.7778"
    />
    <line
      gorn="0.2.20.0"
      x2="361.7153"
      y1="138.67773"
      id="line56"
      y2="138.67773"
      x1="454.52084"
      stroke-miterlimit="10"
      fill="none"
      stroke="#000000"
      stroke-width="27.7778"
    />
    <line
      gorn="0.2.21.0"
      x2="361.7153"
      y1="152.30283"
      id="line58"
      y2="26.718901"
      x1="361.7153"
      stroke-miterlimit="10"
      fill="none"
      stroke="#000000"
      stroke-width="27.7778"
    />
    <line
      gorn="0.2.22.0"
      x2="271.64584"
      y1="40.038399"
      id="line60"
      y2="40.038399"
      x1="361.7153"
      stroke-miterlimit="10"
      fill="none"
      stroke="#000000"
      stroke-width="27.7778"
    />
    <line
      gorn="0.2.23.0"
      x2="271.64584"
      y1="26.718901"
      id="line62"
      y2="152.30283"
      x1="271.64584"
      stroke-miterlimit="10"
      fill="none"
      stroke="#000000"
      stroke-width="27.7778"
    />
    <line
      gorn="0.2.24.0"
      x2="171.34026"
      y1="138.67773"
      id="line64"
      y2="138.67773"
      x1="271.64584"
      stroke-miterlimit="10"
      fill="none"
      stroke="#000000"
      stroke-width="27.7778"
    />
    <line
      gorn="0.2.25.0"
      x2="171.34026"
      y1="152.30283"
      id="line66"
      y2="26.718901"
      x1="171.34026"
      stroke-miterlimit="10"
      fill="none"
      stroke="#000000"
      stroke-width="27.7778"
    />
    <line
      gorn="0.2.26.0"
      x2="85.687492"
      y1="40.038399"
      id="line68"
      y2="40.038399"
      x1="171.34026"
      stroke-miterlimit="10"
      fill="none"
      stroke="#000000"
      stroke-width="27.7778"
    />
    <line
      gorn="0.2.27.0"
      x2="85.687492"
      y1="26.718901"
      id="line70"
      y2="203.23347"
      x1="85.687492"
      stroke-miterlimit="10"
      fill="none"
      stroke="#000000"
      stroke-width="27.7778"
    />
    <ellipse
      gorn="0.2.28.0"
      id="hole_1_"
      cx="-237.3031"
      cy="545.89587"
      transform="rotate(-90)"
      fill="#febf10"
      rx="11.277822"
      ry="11.277779"
      stroke-width="13.8889"
    />
    <ellipse
      gorn="0.2.29.0"
      id="hole"
      cx="-237.3031"
      cy="630.3125"
      transform="rotate(-90)"
      fill="#febf10"
      rx="11.277822"
      ry="11.277779"
      stroke-width="13.8889"
    />
    <line
      stroke-linejoin="round"
      stroke-linecap="round"
      stroke-width="10.6181"
      stroke="#000000"
      fill="none"
      gorn="0.3.26"
      x2="732.60785"
      y1="5.3090501"
      id="line349"
      y2="1230.2551"
      x1="732.60785"
    />
    <line
      stroke-linejoin="round"
      stroke-linecap="round"
      stroke-width="10"
      stroke="#000000"
      fill="none"
      gorn="0.3.26"
      x2="733.65295"
      y1="1233.446"
      id="line327"
      y2="1233.446"
      x1="27.220009"
    />
    <line
      stroke-linejoin="round"
      stroke-linecap="round"
      stroke-width="10"
      stroke="#000000"
      fill="none"
      gorn="0.3.26"
      x2="733.65295"
      y1="5.1181016"
      id="line353"
      y2="5.1181016"
      x1="27.220009"
    />
    <line
      stroke-linejoin="round"
      stroke-linecap="round"
      stroke-width="10.6181"
      stroke="#000000"
      fill="none"
      gorn="0.3.26"
      x2="23.933693"
      y1="5.3090501"
      id="line1"
      y2="1230.2551"
      x1="23.933693"
    />
    <path
      d="m 0,302.83369 v -35.43308 h 59.05512 v 35.43308 z"
      id="connector0pin"
      fill="#febf10"
      stroke="none"
      stroke-width="0"
    />
    <path
      d="m 0,352.83369 v -35.43308 h 59.05512 v 35.43308 z"
      id="connector1pin"
      fill="#febf10"
      stroke="none"
      stroke-width="0"
    />
    <path
      d="m 0,402.83368 v -35.43307 h 59.05512 v 35.43307 z"
      id="connector2pin"
      fill="#febf10"
      stroke="none"
      stroke-width="0"
    />
    <path
      d="m 0,452.83368 v -35.43307 h 59.05512 v 35.43307 z"
      id="connector3pin"
      fill="#febf10"
      stroke="none"
      stroke-width="0"
    />
    <path
      d="m 0,502.83368 v -35.43307 h 59.05512 v 35.43307 z"
      id="connector4pin"
      fill="#febf10"
      stroke="none"
      stroke-width="0"
    />
    <path
      d="m 0,552.83368 v -35.43307 h 59.05512 v 35.43307 z"
      id="connector5pin"
      fill="#febf10"
      stroke="none"
      stroke-width="0"
    />
    <path
      d="m 0,602.83368 v -35.43307 h 59.05512 v 35.43307 z"
      id="connector6pin"
      fill="#febf10"
      stroke="none"
      stroke-width="0"
    />
    <path
      d="m 0,652.83368 v -35.43307 h 59.05512 v 35.43307 z"
      id="connector7pin"
      fill="#febf10"
      stroke="none"
      stroke-width="0"
    />
    <path
      d="m 0,702.83368 v -35.43307 h 59.05512 v 35.43307 z"
      id="connector8pin"
      fill="#febf10"
      stroke="none"
      stroke-width="0"
    />
    <path
      d="m 0,752.83368 v -35.43307 h 59.05512 v 35.43307 z"
      id="connector9pin"
      fill="#febf10"
      stroke="none"
      stroke-width="0"
    />
    <path
      d="m 0,802.83368 v -35.43307 h 59.05512 v 35.43307 z"
      id="connector10pin"
      fill="#febf10"
      stroke="none"
      stroke-width="0"
    />
    <path
      d="m 0,852.83368 v -35.43307 h 59.05512 v 35.43307 z"
      id="connector11pin"
      fill="#febf10"
      stroke="none"
      stroke-width="0"
    />
    <path
      d="m 0,902.83368 v -35.43307 h 59.05512 v 35.43307 z"
      id="connector12pin"
      fill="#febf10"
      stroke="none"
      stroke-width="0"
    />
    <path
      d="m 0,952.83368 v -35.43307 h 59.05512 v 35.43307 z"
      id="connector13pin"
      fill="#febf10"
      stroke="none"
      stroke-width="0"
    />
    <path
      d="m 0.00787,1002.8337 v -35.43309 h 59.05512 v 35.43309 z"
      id="connector14pin"
      fill="#febf10"
      stroke="none"
      stroke-width="0"
    />
    <path
      d="m 0.00787,1052.8337 v -35.4331 h 59.05512 v 35.4331 z"
      id="connector15pin"
      fill="#febf10"
      stroke="none"
      stroke-width="0"
    />
    <path
      d="m 0.00787,1102.8337 v -35.4331 h 59.05512 v 35.4331 z"
      id="connector16pin"
      fill="#febf10"
      stroke="none"
      stroke-width="0"
    />
    <path
      d="m 0.00787,1152.8337 v -35.4331 h 59.05512 v 35.4331 z"
      id="connector17pin"
      fill="#febf10"
      stroke="none"
      stroke-width="0"
    />
    <path
      d="m 0.00787,1202.8337 v -35.4331 h 59.05512 v 35.4331 z"
      id="connector18pin"
      fill="#febf10"
      stroke="none"
      stroke-width="0"
    />
    <path
      d="m 688.9764,1202.8337 v -35.433 h 59.05512 v 35.433 z"
      id="connector19pin"
      fill="#febf10"
      stroke="none"
      stroke-width="0"
    />
    <path
      d="m 688.9764,1152.8337 v -35.433 h 59.05512 v 35.433 z"
      id="connector20pin"
      fill="#febf10"
      stroke="none"
      stroke-width="0"
    />
    <path
      d="m 688.9764,1102.8337 v -35.433 h 59.05512 v 35.433 z"
      id="connector21pin"
      fill="#febf10"
      stroke="none"
      stroke-width="0"
    />
    <path
      d="m 688.9764,1052.8337 v -35.433 h 59.05512 v 35.433 z"
      id="connector22pin"
      fill="#febf10"
      stroke="none"
      stroke-width="0"
    />
    <path
      d="m 688.9764,1002.8337 v -35.43306 h 59.05512 v 35.43306 z"
      id="connector23pin"
      fill="#febf10"
      stroke="none"
      stroke-width="0"
    />
    <path
      d="m 688.9764,952.8337 v -35.43307 h 59.05512 v 35.43307 z"
      id="connector24pin"
      fill="#febf10"
      stroke="none"
      stroke-width="0"
    />
    <path
      d="m 688.9764,903.83368 v -35.43307 h 59.05512 v 35.43307 z"
      id="connector25pin"
      fill="#febf10"
      stroke="none"
      stroke-width="0"
    />
    <path
      d="m 688.9764,852.8337 v -35.43307 h 59.05512 v 35.43307 z"
      id="connector26pin"
      fill="#febf10"
      stroke="none"
      stroke-width="0"
    />
    <path
      d="m 688.9764,802.8337 v -35.43307 h 59.05512 v 35.43307 z"
      id="connector27pin"
      fill="#febf10"
      stroke="none"
      stroke-width="0"
    />
    <path
      d="m 688.9764,752.8337 v -35.43307 h 59.05512 v 35.43307 z"
      id="connector28pin"
      fill="#febf10"
      stroke="none"
      stroke-width="0"
    />
    <path
      d="m 688.9764,702.83368 v -35.43307 h 59.05512 v 35.43307 z"
      id="connector29pin"
      fill="#febf10"
      stroke="none"
      stroke-width="0"
    />
    <path
      d="m 688.9764,652.83368 v -35.43307 h 59.05512 v 35.43307 z"
      id="connector30pin"
      fill="#febf10"
      stroke="none"
      stroke-width="0"
    />
    <path
      d="m 688.9764,602.83368 v -35.43307 h 59.05512 v 35.43307 z"
      id="connector31pin"
      fill="#febf10"
      stroke="none"
      stroke-width="0"
    />
    <path
      d="m 688.9764,552.83368 v -35.43307 h 59.05512 v 35.43307 z"
      id="connector32pin"
      fill="#febf10"
      stroke="none"
      stroke-width="0"
    />
    <path
      d="m 688.9764,502.83368 v -35.43307 h 59.05512 v 35.43307 z"
      id="connector33pin"
      fill="#febf10"
      stroke="none"
      stroke-width="0"
    />
    <path
      d="m 688.9764,452.83368 v -35.43307 h 59.05512 v 35.43307 z"
      id="connector34pin"
      fill="#febf10"
      stroke="none"
      stroke-width="0"
    />
    <path
      d="m 688.9764,402.83368 v -35.43307 h 59.05512 v 35.43307 z"
      id="connector35pin"
      fill="#febf10"
      stroke="none"
      stroke-width="0"
    />
    <path
      d="m 688.9764,352.83369 v -35.43308 h 59.05512 v 35.43308 z"
      id="connector36pin"
      fill="#febf10"
      stroke="none"
      stroke-width="0"
    />
    <path
      d="m 688.9764,302.83369 v -35.43308 h 59.05512 v 35.43308 z"
      id="connector37pin"
      fill="#febf10"
      stroke="none"
      stroke-width="0"
    />
    <path
      d="M 298.32293,610.44827 V 575.0152 H 333.756 v 35.43307 z"
      id="connector38pin"
      fill="#febf10"
      stroke="none"
      stroke-width="0"
    />
  </g>
</svg>
