<?xml version='1.0' encoding='UTF-8' standalone='no'?>
<svg
  xmlns:dc="http://purl.org/dc/elements/1.1/"
  xmlns:cc="http://creativecommons.org/ns#"
  xmlns:rdf="http://www.w3.org/1999/02/22-rdf-syntax-ns#"
  xmlns:svg="http://www.w3.org/2000/svg"
  xmlns="http://www.w3.org/2000/svg"
  viewBox="0 0 1010.1425 1210.3336"
  x="0in"
  width="1.0101424in"
  height="1.2103336in"
  version="1.2"
  y="0in"
  id="svg2">
  <metadata
    id="metadata41">
    <rdf:RDF>
      <cc:Work
        rdf:about="">
        <dc:format>image/svg+xml</dc:format>
        <dc:type
          rdf:resource="http://purl.org/dc/dcmitype/StillImage"
        />
        <dc:title/>
      </cc:Work>
    </rdf:RDF>
  </metadata>
  <defs
    id="defs39"
  />
  <desc
    id="desc4">
    <referenceFile>tda7294V_1_schematic.svg</referenceFile>
  </desc>
  <g
    id="schematic">
    <rect
      x="105"
      width="800"
      height="1000"
      y="105.33351"
      id="rect7"
      fill="none"
      stroke="#000000"
      stroke-width="10.00000095"
      stroke-linecap="round"
    />
    <text
      font-size="60"
      y="783.74756"
      x="503.0065"
      id="label"
      font-family="'Droid Sans'"
      text-anchor="middle"
      fill="#000000">TDA7294</text>
    <text
      id="label0"
      x="135"
      y="286.98416"
      font-size="49"
      font-family="'Droid Sans'"
      text-anchor="start"
      fill="#555555">IN-</text>
    <text
      x="62.583008"
      y="285.8335"
      font-size="35"
      id="text15"
      font-family="'Droid Sans'"
      text-anchor="start"
      fill="#555555">2</text>
    <text
      id="label1"
      x="132.18451"
      y="458.50204"
      font-size="49"
      font-family="'Droid Sans'"
      text-anchor="start"
      fill="#555555">IN+</text>
    <text
      x="57.755081"
      y="385.81021"
      font-size="35"
      id="text22"
      font-family="'Droid Sans'"
      text-anchor="start"
      fill="#555555">3</text>
    <text
      font-size="49"
      y="1074.8551"
      x="304.57861"
      id="text83"
      font-family="'Droid Sans'"
      text-anchor="middle"
      fill="#555555">STBY-GND</text>
    <text
      id="text51"
      font-size="35"
      y="1150.8948"
      x="267.02051"
      font-family="'Droid Sans'"
      text-anchor="middle"
      fill="#555555">1</text>
    <text
      font-size="49"
      y="1075.3336"
      x="703.86133"
      id="text87"
      font-family="'Droid Sans'"
      text-anchor="middle"
      fill="#555555">-PWVs</text>
    <text
      x="646.95801"
      y="1151.2196"
      font-size="35"
      id="text53"
      font-family="'Droid Sans'"
      text-anchor="start"
      fill="#555555">15</text>
    <text
      id="text63"
      font-size="35"
      y="385.49173"
      x="932.88623"
      font-family="'Droid Sans'"
      text-anchor="start"
      fill="#555555">14</text>
    <text
      font-size="49"
      y="382.35501"
      x="876.0835"
      id="text81"
      font-family="'Droid Sans'"
      text-anchor="end"
      fill="#555555">OUT</text>
    <text
      font-size="49"
      y="170.75017"
      x="304.7464"
      id="text95"
      font-family="'Droid Sans'"
      text-anchor="middle"
      fill="#555555">+Vs</text>
    <text
      x="276.46582"
      y="75.614365"
      font-size="35"
      id="text75"
      font-family="'Droid Sans'"
      text-anchor="end"
      fill="#555555">7</text>
    <text
      font-size="49"
      y="823.20312"
      x="135"
      id="text44"
      font-family="'Droid Sans'"
      text-anchor="start"
      fill="#555555">MUTE</text>
    <text
      id="text46"
      font-size="35"
      y="784.9917"
      x="41.958008"
      font-family="'Droid Sans'"
      text-anchor="start"
      fill="#555555">10</text>
    <text
      font-size="49"
      y="922.85498"
      x="130.65544"
      id="text48"
      font-family="'Droid Sans'"
      text-anchor="start"
      fill="#555555">STBY</text>
    <text
      id="text50"
      font-size="35"
      y="885.3316"
      x="57.755081"
      font-family="'Droid Sans'"
      text-anchor="start"
      fill="#555555">9</text>
    <text
      font-size="49"
      y="171.31332"
      x="704.33398"
      id="text76"
      font-family="'Droid Sans'"
      text-anchor="middle"
      fill="#555555">+PWVs</text>
    <text
      x="676.35986"
      y="74.906433"
      font-size="35"
      id="text78"
      font-family="'Droid Sans'"
      text-anchor="end"
      fill="#555555">13</text>
    <text
      id="text88"
      x="876.35596"
      y="623.3335"
      font-size="49"
      font-family="'Droid Sans'"
      text-anchor="end"
      fill="#555555">BOOT STRAP</text>
    <text
      x="933.19385"
      y="585.49164"
      font-size="35"
      id="text90"
      font-family="'Droid Sans'"
      text-anchor="start"
      fill="#555555">6</text>
    <line
      y1="256.13336"
      y2="439.66953"
      x2="305"
      x1="305"
      id="line144"
      fill="none"
      stroke="#000000"
      stroke-width="5"
      stroke-linecap="round"
    />
    <line
      id="line146"
      x1="305"
      x2="434.77966"
      y2="355.33353"
      y1="256.13336"
      fill="none"
      stroke="#000000"
      stroke-width="5"
      stroke-linecap="round"
    />
    <line
      y1="439.66953"
      y2="355.33353"
      x2="434.77969"
      x1="305"
      id="line148"
      fill="none"
      stroke="#000000"
      stroke-width="5"
      stroke-linecap="round"
    />
    <line
      id="line150"
      x1="604.52991"
      x2="604.52991"
      y2="489.67291"
      y1="306.13675"
      fill="none"
      stroke="#000000"
      stroke-width="5"
      stroke-linecap="round"
    />
    <line
      y1="306.13675"
      y2="405.33691"
      x2="734.30939"
      x1="604.52991"
      id="line152"
      fill="none"
      stroke="#000000"
      stroke-width="5"
      stroke-linecap="round"
    />
    <line
      id="line154"
      x1="604.52991"
      x2="734.30951"
      y2="405.33691"
      y1="489.67291"
      fill="none"
      stroke="#000000"
      stroke-width="5"
      stroke-linecap="round"
    />
    <line
      class="pin"
      id="line176"
      connectorname="1"
      x1="435.41052"
      y1="355.33344"
      x2="505.51328"
      y2="355.33344"
      stroke="#000000"
      stroke-width="2.83604598"
      stroke-linecap="round"
    />
    <line
      y2="405.50122"
      x2="733.17432"
      y1="405.50122"
      x1="906.9494"
      connectorname="2"
      id="line191"
      class="pin"
      stroke="#000000"
      stroke-width="2.18981242"
      stroke-linecap="round"
    />
    <line
      y2="305.33353"
      x2="301.86392"
      y1="305.33353"
      x1="114.52396"
      connectorname="1"
      id="line206"
      class="pin"
      stroke="#000000"
      stroke-width="2.53825355"
      stroke-linecap="round"
    />
    <line
      class="pin"
      id="line208"
      connectorname="1"
      x1="114.52396"
      y1="405.33508"
      x2="301.86392"
      y2="405.33508"
      stroke="#000000"
      stroke-width="2.53825355"
      stroke-linecap="round"
    />
    <line
      y2="405.3334"
      x2="601.51349"
      y1="405.3334"
      x1="505.25583"
      connectorname="1"
      id="line287"
      class="pin"
      stroke="#000000"
      stroke-width="2.83604598"
      stroke-linecap="round"
    />
    <line
      y2="405.31195"
      x2="505"
      y1="355.10159"
      x1="505"
      connectorname="1"
      id="line289"
      class="pin"
      stroke="#000000"
      stroke-width="2.83604598"
      stroke-linecap="round"
    />
    <text
      id="text291"
      x="135"
      y="622.85498"
      font-size="49"
      font-family="'Droid Sans'"
      text-anchor="start"
      fill="#555555">IN+MUTE</text>
    <text
      x="62.583008"
      y="585.00677"
      font-size="35"
      id="text293"
      font-family="'Droid Sans'"
      text-anchor="start"
      fill="#555555">4</text>
    <text
      id="text299"
      x="503.63086"
      y="1075.3336"
      font-size="49"
      font-family="'Droid Sans'"
      text-anchor="middle"
      fill="#555555">-VS</text>
    <text
      id="text301"
      font-size="35"
      y="1151.2196"
      x="465.25104"
      font-family="'Droid Sans'"
      text-anchor="start"
      fill="#555555">8</text>
    <text
      id="text307"
      font-size="35"
      y="785.32397"
      x="933.5567"
      font-family="'Droid Sans'"
      text-anchor="start"
      fill="#555555">5</text>
    <text
      x="933.5567"
      y="885.32397"
      font-size="35"
      id="text313"
      font-family="'Droid Sans'"
      text-anchor="start"
      fill="#555555">11</text>
    <text
      id="text319"
      font-size="35"
      y="985.32397"
      x="933.5567"
      font-family="'Droid Sans'"
      text-anchor="start"
      fill="#555555">12</text>
    <text
      font-size="49"
      y="822.85498"
      x="876.35596"
      id="text325"
      font-family="'Droid Sans'"
      text-anchor="end"
      fill="#555555">NC</text>
    <text
      id="text327"
      x="876.35596"
      y="922.85498"
      font-size="49"
      font-family="'Droid Sans'"
      text-anchor="end"
      fill="#555555">NC</text>
    <text
      font-size="49"
      y="1022.855"
      x="876.35596"
      id="text329"
      font-family="'Droid Sans'"
      text-anchor="end"
      fill="#555555">NC</text>
    <line
      id="connector0pin"
      x1="305.00052"
      x2="305.00052"
      y2="1205.2623"
      y1="1110.2623"
      fill="none"
      stroke="#555555"
      stroke-width="10"
      stroke-linecap="round"
    />
    <rect
      y="1200.3336"
      height="10"
      width="10"
      x="300"
      id="connector0terminal"
      fill="none"
      stroke-width="0"
    />
    <line
      y1="305.3331"
      y2="305.3331"
      x2="100.26112"
      x1="5.0712123"
      id="connector1pin"
      fill="none"
      stroke="#555555"
      stroke-width="10"
      stroke-linecap="round"
    />
    <rect
      id="connector1terminal"
      x="1.5414597e-07"
      width="10"
      height="10"
      y="300.33359"
      fill="none"
      stroke-width="0"
    />
    <line
      y1="405.97195"
      y2="405.97195"
      x2="100.26112"
      x1="5.0712128"
      id="connector2pin"
      fill="none"
      stroke="#555555"
      stroke-width="10"
      stroke-linecap="round"
    />
    <rect
      id="connector2terminal"
      x="0.14087892"
      width="10"
      height="10"
      y="400.83353"
      fill="none"
      stroke-width="0"
    />
    <line
      y1="605.1452"
      y2="605.1452"
      x2="100.26112"
      x1="5.0712123"
      id="connector3pin"
      fill="none"
      stroke="#555555"
      stroke-width="10"
      stroke-linecap="round"
    />
    <rect
      id="connector3terminal"
      x="0.14087892"
      width="10"
      height="10"
      y="600.28461"
      fill="none"
      stroke-width="0"
    />
    <line
      id="connector4pin"
      x1="910.07123"
      x2="1005.0712"
      y2="805.3335"
      y1="805.3335"
      fill="none"
      stroke="#555555"
      stroke-width="10"
      stroke-linecap="round"
    />
    <rect
      y="800.33362"
      height="10"
      width="10"
      x="1000.0712"
      id="connector4terminal"
      fill="none"
      stroke-width="0"
    />
    <line
      y1="605.50116"
      y2="605.50116"
      x2="1004.7084"
      x1="909.70837"
      id="connector5pin"
      fill="none"
      stroke="#555555"
      stroke-width="10"
      stroke-linecap="round"
    />
    <rect
      id="connector5terminal"
      x="999.70837"
      width="10"
      height="10"
      y="600.33362"
      fill="none"
      stroke-width="0"
    />
    <line
      y1="5.0712123"
      y2="100.00121"
      x2="304.62061"
      x1="304.62061"
      id="connector6pin"
      fill="none"
      stroke="#555555"
      stroke-width="10"
      stroke-linecap="round"
    />
    <rect
      id="connector6terminal"
      x="299.62061"
      width="10"
      height="10"
      y="0.33321285"
      fill="none"
      stroke-width="0"
    />
    <line
      id="connector7pin"
      x1="505.00052"
      x2="505.00052"
      y2="1205.2623"
      y1="1110.2623"
      fill="none"
      stroke="#555555"
      stroke-width="10"
      stroke-linecap="round"
    />
    <rect
      y="1200.3336"
      height="10"
      width="10"
      x="500"
      id="connector7terminal"
      fill="none"
      stroke-width="0"
    />
    <line
      id="connector8pin"
      x1="5.0712128"
      x2="100.26112"
      y2="905.49329"
      y1="905.49329"
      fill="none"
      stroke="#555555"
      stroke-width="10"
      stroke-linecap="round"
    />
    <rect
      y="900.35492"
      height="10"
      width="10"
      x="0.14087892"
      id="connector8terminal"
      fill="none"
      stroke-width="0"
    />
    <line
      id="connector9pin"
      x1="5.0712123"
      x2="100.26112"
      y2="805.49329"
      y1="805.49329"
      fill="none"
      stroke="#555555"
      stroke-width="10"
      stroke-linecap="round"
    />
    <rect
      y="800.63269"
      height="10"
      width="10"
      x="0.14087892"
      id="connector9terminal"
      fill="none"
      stroke-width="0"
    />
    <line
      y1="905.3335"
      y2="905.3335"
      x2="1005.0712"
      x1="910.07123"
      id="connector10pin"
      fill="none"
      stroke="#555555"
      stroke-width="10"
      stroke-linecap="round"
    />
    <rect
      id="connector10terminal"
      x="1000.0712"
      width="10"
      height="10"
      y="900.33362"
      fill="none"
      stroke-width="0"
    />
    <line
      id="connector11pin"
      x1="910.07123"
      x2="1005.0712"
      y2="1005.3335"
      y1="1005.3335"
      fill="none"
      stroke="#555555"
      stroke-width="10"
      stroke-linecap="round"
    />
    <rect
      y="1000.3336"
      height="10"
      width="10"
      x="1000.0712"
      id="connector11terminal"
      fill="none"
      stroke-width="0"
    />
    <line
      y1="5.0712123"
      y2="100.00121"
      x2="704.80811"
      x1="704.80811"
      id="connector12pin"
      fill="none"
      stroke="#555555"
      stroke-width="10"
      stroke-linecap="round"
    />
    <rect
      id="connector12terminal"
      x="699.80811"
      width="10"
      height="10"
      y="0.33321285"
      fill="none"
      stroke-width="0"
    />
    <line
      id="connector13pin"
      x1="909.70837"
      x2="1004.7084"
      y2="405.50122"
      y1="405.50122"
      fill="none"
      stroke="#555555"
      stroke-width="10"
      stroke-linecap="round"
    />
    <rect
      y="400.50122"
      height="10"
      width="10"
      x="999.70837"
      id="connector13terminal"
      fill="none"
      stroke-width="0"
    />
    <line
      y1="1110.2623"
      y2="1205.2623"
      x2="705.00049"
      x1="705.00049"
      id="connector14pin"
      fill="none"
      stroke="#555555"
      stroke-width="10"
      stroke-linecap="round"
    />
    <rect
      id="connector14terminal"
      x="700"
      width="10"
      height="10"
      y="1200.3336"
      fill="none"
      stroke-width="0"
    />
  </g>
</svg>
