<?xml version='1.0' encoding='UTF-8' standalone='no'?>
<svg
  xmlns:dc="http://purl.org/dc/elements/1.1/"
  xmlns:cc="http://creativecommons.org/ns#"
  xmlns:rdf="http://www.w3.org/1999/02/22-rdf-syntax-ns#"
  xmlns:svg="http://www.w3.org/2000/svg"
  xmlns="http://www.w3.org/2000/svg"
  id="svg122"
  y="0in"
  version="1.2"
  width="1.2100in"
  viewBox="0 0 1210 912.5"
  height="0.9125in"
  gorn="0"
  x="0in">
  <metadata
    id="metadata128">
    <rdf:RDF>
      <cc:Work
        rdf:about="">
        <dc:format>image/svg+xml</dc:format>
        <dc:type
          rdf:resource="http://purl.org/dc/dcmitype/StillImage"
        />
        <dc:title/>
      </cc:Work>
    </rdf:RDF>
  </metadata>
  <defs
    id="defs126"
  />
  <desc
    id="desc1">Fritzing
    Schematic
  </desc>
  <desc
    id="desc2">
    <referenceFile>CD4060B_schematic.svg</referenceFile>
  </desc>
  <g
    id="schematic"
    gorn="0.4">
    <text
      id="label"
      y="476.75"
      text-align="center"
      font-size="59.0277786255"
      gorn="0.4.0"
      x="605"
      font-family="'Droid Sans'"
      text-anchor="middle"
      fill="#000000"
      stroke="none">CD4060BE</text>
    <rect
      id="rect6"
      ry="" y="6.25" fill="none" width="800" stroke-linecap="round" rx="" stroke-linejoin="round" height="900" stroke="#000000" gorn="0.4.1" x="205" stroke-width="12.5"
    />
    <line
      id="line0"
      stroke-miterlimit="4"
      stroke-dasharray="none"
      stroke-opacity="1"
      x1="5"
      y2="106.25"
      x2="205"
      fill="none"
      stroke-linecap="round"
      stroke-linejoin="round"
      y1="106.25"
      stroke="#555555"
      gorn="0.4.2"
      stroke-width="10"
    />
    <rect
      id="connector0pin"
      y="101.25"
      fill="none"
      width="198.75"
      connectorName="Q12"
      height="10"
      gorn="0.4.3"
      x="0"
      stroke-width="0"
    />
    <rect
      id="connector0terminal"
      y="101.25"
      fill="none"
      width="10"
      height="10"
      gorn="0.4.4"
      x="0"
      stroke-width="0"
    />
    <text
      id="label0"
      y="119.75"
      font-size="48.6111106873"
      gorn="0.4.5"
      x="243"
      font-family="'Droid Sans'"
      text-anchor="start"
      fill="#555555"
      fill-opacity="1"
      stroke="none">Q12</text>
    <text
      id="text0"
      y="83"
      class="text"
      font-size="34.7222213745"
      gorn="0.4.6"
      x="100"
      font-family="'Droid Sans'"
      text-anchor="middle"
      fill="#555555"
      fill-opacity="1"
      stroke="none"
      stroke-width="0">1</text>
    <line
      id="line1"
      x1="5"
      y2="206.25"
      x2="205"
      fill="none"
      stroke-linecap="round"
      stroke-linejoin="round"
      y1="206.25"
      stroke="#555555"
      gorn="0.4.7"
      stroke-width="10"
    />
    <rect
      id="connector1pin"
      y="201.25"
      fill="none"
      width="198.75"
      connectorName="Q13"
      height="10"
      gorn="0.4.8"
      x="0"
      stroke-width="0"
    />
    <rect
      id="connector1terminal"
      y="201.25"
      fill="none"
      width="10"
      height="10"
      gorn="0.4.9"
      x="0"
      stroke-width="0"
    />
    <text
      id="label1"
      y="219.75"
      font-size="48.6110992432"
      gorn="0.4.10"
      x="243"
      font-family="'Droid Sans'"
      text-anchor="start"
      fill="#555555"
      fill-opacity="1"
      stroke="none">Q13</text>
    <text
      id="text1"
      y="183"
      class="text"
      font-size="34.7222213745"
      gorn="0.4.11"
      x="100"
      font-family="'Droid Sans'"
      text-anchor="middle"
      fill="#555555"
      fill-opacity="1"
      stroke="none"
      stroke-width="0">2</text>
    <line
      id="line2"
      x1="5"
      y2="306.25"
      x2="205"
      fill="none"
      stroke-linecap="round"
      stroke-linejoin="round"
      y1="306.25"
      stroke="#555555"
      gorn="0.4.12"
      stroke-width="10"
    />
    <rect
      id="connector2pin"
      y="301.25"
      fill="none"
      width="198.75"
      connectorName="Q14"
      height="10"
      gorn="0.4.13"
      x="0"
      stroke-width="0"
    />
    <rect
      id="connector2terminal"
      y="301.25"
      fill="none"
      width="10"
      height="10"
      gorn="0.4.14"
      x="0"
      stroke-width="0"
    />
    <text
      id="label2"
      y="319.75"
      font-size="48.6111106873"
      gorn="0.4.15"
      x="243"
      font-family="'Droid Sans'"
      text-anchor="start"
      fill="#555555"
      fill-opacity="1"
      stroke="none">Q14</text>
    <text
      id="text2"
      y="283"
      class="text"
      font-size="34.7222213745"
      gorn="0.4.16"
      x="100"
      font-family="'Droid Sans'"
      text-anchor="middle"
      fill="#555555"
      fill-opacity="1"
      stroke="none"
      stroke-width="0">3</text>
    <line
      id="line3"
      x1="5"
      y2="406.25"
      x2="205"
      fill="none"
      stroke-linecap="round"
      stroke-linejoin="round"
      y1="406.25"
      stroke="#555555"
      gorn="0.4.17"
      stroke-width="10"
    />
    <rect
      id="connector3pin"
      y="401.25"
      fill="none"
      width="198.75"
      connectorName="Q6"
      height="10"
      gorn="0.4.18"
      x="0"
      stroke-width="0"
    />
    <rect
      id="connector3terminal"
      y="401.25"
      fill="none"
      width="10"
      height="10"
      gorn="0.4.19"
      x="0"
      stroke-width="0"
    />
    <text
      id="label3"
      y="419.75"
      font-size="48.6111106873"
      gorn="0.4.20"
      x="243"
      font-family="'Droid Sans'"
      text-anchor="start"
      fill="#555555"
      fill-opacity="1"
      stroke="none">Q6</text>
    <text
      id="text3"
      y="383"
      class="text"
      font-size="34.7222213745"
      gorn="0.4.21"
      x="100"
      font-family="'Droid Sans'"
      text-anchor="middle"
      fill="#555555"
      fill-opacity="1"
      stroke="none"
      stroke-width="0">4</text>
    <line
      id="line4"
      x1="5"
      y2="506.25"
      x2="205"
      fill="none"
      stroke-linecap="round"
      stroke-linejoin="round"
      y1="506.25"
      stroke="#555555"
      gorn="0.4.22"
      stroke-width="10"
    />
    <rect
      id="connector4pin"
      y="501.25"
      fill="none"
      width="198.75"
      connectorName="Q5"
      height="10"
      gorn="0.4.23"
      x="0"
      stroke-width="0"
    />
    <rect
      id="connector4terminal"
      y="501.25"
      fill="none"
      width="10"
      height="10"
      gorn="0.4.24"
      x="0"
      stroke-width="0"
    />
    <text
      id="label4"
      y="519.75"
      font-size="48.6111106873"
      gorn="0.4.25"
      x="243"
      font-family="'Droid Sans'"
      text-anchor="start"
      fill="#555555"
      fill-opacity="1"
      stroke="none">Q5</text>
    <text
      id="text4"
      y="483"
      class="text"
      font-size="34.7222213745"
      gorn="0.4.26"
      x="100"
      font-family="'Droid Sans'"
      text-anchor="middle"
      fill="#555555"
      fill-opacity="1"
      stroke="none"
      stroke-width="0">5</text>
    <line
      id="line5"
      x1="5"
      y2="606.25"
      x2="205"
      fill="none"
      stroke-linecap="round"
      stroke-linejoin="round"
      y1="606.25"
      stroke="#555555"
      gorn="0.4.27"
      stroke-width="10"
    />
    <rect
      id="connector5pin"
      y="601.25"
      fill="none"
      width="198.75"
      connectorName="Q7"
      height="10"
      gorn="0.4.28"
      x="0"
      stroke-width="0"
    />
    <rect
      id="connector5terminal"
      y="601.25"
      fill="none"
      width="10"
      height="10"
      gorn="0.4.29"
      x="0"
      stroke-width="0"
    />
    <text
      id="label5"
      y="619.75"
      font-size="48.6111106873"
      gorn="0.4.30"
      x="243"
      font-family="'Droid Sans'"
      text-anchor="start"
      fill="#555555"
      fill-opacity="1"
      stroke="none">Q7</text>
    <text
      id="text5"
      y="583"
      class="text"
      font-size="34.7222213745"
      gorn="0.4.31"
      x="100"
      font-family="'Droid Sans'"
      text-anchor="middle"
      fill="#555555"
      fill-opacity="1"
      stroke="none"
      stroke-width="0">6</text>
    <line
      id="line6"
      x1="5"
      y2="706.25"
      x2="205"
      fill="none"
      stroke-linecap="round"
      stroke-linejoin="round"
      y1="706.25"
      stroke="#555555"
      gorn="0.4.32"
      stroke-width="10"
    />
    <rect
      id="connector6pin"
      y="701.25"
      fill="none"
      width="198.75"
      connectorName="Q4"
      height="10"
      gorn="0.4.33"
      x="0"
      stroke-width="0"
    />
    <rect
      id="connector6terminal"
      y="701.25"
      fill="none"
      width="10"
      height="10"
      gorn="0.4.34"
      x="0"
      stroke-width="0"
    />
    <text
      id="label6"
      y="719.75"
      font-size="48.6111106873"
      gorn="0.4.35"
      x="243"
      font-family="'Droid Sans'"
      text-anchor="start"
      fill="#555555"
      fill-opacity="1"
      stroke="none">Q4</text>
    <text
      id="text6"
      y="683"
      class="text"
      font-size="34.7222213745"
      gorn="0.4.36"
      x="100"
      font-family="'Droid Sans'"
      text-anchor="middle"
      fill="#555555"
      fill-opacity="1"
      stroke="none"
      stroke-width="0">7</text>
    <line
      id="line7"
      x1="5"
      y2="806.25"
      x2="205"
      fill="none"
      stroke-linecap="round"
      stroke-linejoin="round"
      y1="806.25"
      stroke="#555555"
      gorn="0.4.37"
      stroke-width="10"
    />
    <rect
      id="connector7pin"
      y="801.25"
      fill="none"
      width="198.75"
      connectorName="GND"
      height="10"
      gorn="0.4.38"
      x="0"
      stroke-width="0"
    />
    <rect
      id="connector7terminal"
      y="801.25"
      fill="none"
      width="10"
      height="10"
      gorn="0.4.39"
      x="0"
      stroke-width="0"
    />
    <text
      id="label7"
      y="823.75"
      font-size="48.6111106873"
      gorn="0.4.40"
      x="243"
      font-family="'Droid Sans'"
      text-anchor="start"
      fill="#555555"
      fill-opacity="1"
      stroke="none">GND</text>
    <text
      id="text7"
      y="783"
      class="text"
      font-size="34.7222213745"
      gorn="0.4.41"
      x="100"
      font-family="'Droid Sans'"
      text-anchor="middle"
      fill="#555555"
      fill-opacity="1"
      stroke="none"
      stroke-width="0">8</text>
    <line
      id="line8"
      x1="1005"
      y2="806.25"
      x2="1205"
      fill="none"
      stroke-linecap="round"
      stroke-linejoin="round"
      y1="806.25"
      stroke="#555555"
      gorn="0.4.42"
      stroke-width="10"
    />
    <rect
      id="connector8pin"
      y="801.25"
      fill="none"
      width="198.75"
      connectorname="CLK_OUT"
      height="10"
      gorn="0.4.43"
      x="1011.25"
      stroke-width="0"
    />
    <rect
      id="connector8terminal"
      y="801.25"
      fill="none"
      width="10"
      height="10"
      gorn="0.4.44"
      x="1200"
      stroke-width="0"
    />
    <text
      id="label8"
      y="820.75"
      font-size="48.6111106873"
      gorn="0.4.45"
      x="965"
      font-family="'Droid Sans'"
      text-anchor="end"
      fill="#555555"
      fill-opacity="1"
      stroke="none">CLK_OUT</text>
    <text
      id="text8"
      y="783"
      class="text"
      font-size="34.7222213745"
      gorn="0.4.46"
      x="1106.25"
      font-family="'Droid Sans'"
      text-anchor="middle"
      fill="#555555"
      fill-opacity="1"
      stroke="none"
      stroke-width="0">9</text>
    <line
      id="line9"
      x1="1005"
      y2="706.25"
      x2="1205"
      fill="none"
      stroke-linecap="round"
      stroke-linejoin="round"
      y1="706.25"
      stroke="#555555"
      gorn="0.4.47"
      stroke-width="10"
    />
    <rect
      id="connector9pin"
      y="701.25"
      fill="none"
      width="198.75"
      connectorname="CLK_OUT '"
      height="10"
      gorn="0.4.48"
      x="1011.25"
      stroke-width="0"
    />
    <rect
      id="connector9terminal"
      y="701.25"
      fill="none"
      width="10"
      height="10"
      gorn="0.4.49"
      x="1200"
      stroke-width="0"
    />
    <text
      id="label9"
      y="721.25"
      font-size="48.6111106873"
      gorn="0.4.50"
      x="965"
      font-family="'Droid Sans'"
      text-anchor="end"
      fill="#555555"
      fill-opacity="1"
      stroke="none">CLK_OUT '</text>
    <text
      id="text9"
      y="683"
      class="text"
      font-size="34.7222213745"
      gorn="0.4.51"
      x="1106.25"
      font-family="'Droid Sans'"
      text-anchor="middle"
      fill="#555555"
      fill-opacity="1"
      stroke="none"
      stroke-width="0">10</text>
    <line
      id="line10"
      x1="1005"
      y2="606.25"
      x2="1205"
      fill="none"
      stroke-linecap="round"
      stroke-linejoin="round"
      y1="606.25"
      stroke="#555555"
      gorn="0.4.52"
      stroke-width="10"
    />
    <rect
      id="connector10pin"
      y="601.25"
      fill="none"
      width="198.75"
      connectorname="CLK_IN"
      height="10"
      gorn="0.4.53"
      x="1011.25"
      stroke-width="0"
    />
    <rect
      id="connector10terminal"
      y="601.25"
      fill="none"
      width="10"
      height="10"
      gorn="0.4.54"
      x="1200"
      stroke-width="0"
    />
    <text
      id="label10"
      y="620.75"
      font-size="48.6111106873"
      gorn="0.4.55"
      x="965"
      font-family="'Droid Sans'"
      text-anchor="end"
      fill="#555555"
      fill-opacity="1"
      stroke="none">CLK_IN</text>
    <text
      id="text10"
      y="583"
      class="text"
      font-size="34.7222213745"
      gorn="0.4.56"
      x="1106.25"
      font-family="'Droid Sans'"
      text-anchor="middle"
      fill="#555555"
      fill-opacity="1"
      stroke="none"
      stroke-width="0">11</text>
    <line
      id="line11"
      x1="1005"
      y2="506.25"
      x2="1205"
      fill="none"
      stroke-linecap="round"
      stroke-linejoin="round"
      y1="506.25"
      stroke="#555555"
      gorn="0.4.57"
      stroke-width="10"
    />
    <rect
      id="connector11pin"
      y="501.25"
      fill="none"
      width="198.75"
      connectorname="RST"
      height="10"
      gorn="0.4.58"
      x="1011.25"
      stroke-width="0"
    />
    <rect
      id="connector11terminal"
      y="501.25"
      fill="none"
      width="10"
      height="10"
      gorn="0.4.59"
      x="1200"
      stroke-width="0"
    />
    <text
      id="label11"
      y="524"
      font-size="48.6111106873"
      gorn="0.4.60"
      x="965"
      font-family="'Droid Sans'"
      text-anchor="end"
      fill="#555555"
      fill-opacity="1"
      stroke="none">RST</text>
    <text
      id="text11"
      y="483"
      class="text"
      font-size="34.7222213745"
      gorn="0.4.61"
      x="1106.25"
      font-family="'Droid Sans'"
      text-anchor="middle"
      fill="#555555"
      fill-opacity="1"
      stroke="none"
      stroke-width="0">12</text>
    <line
      id="line12"
      x1="1005"
      y2="406.25"
      x2="1205"
      fill="none"
      stroke-linecap="round"
      stroke-linejoin="round"
      y1="406.25"
      stroke="#555555"
      gorn="0.4.62"
      stroke-width="10"
    />
    <rect
      id="connector12pin"
      y="401.25"
      fill="none"
      width="198.75"
      connectorname="Q9"
      height="10"
      gorn="0.4.63"
      x="1011.25"
      stroke-width="0"
    />
    <rect
      id="connector12terminal"
      y="401.25"
      fill="none"
      width="10"
      height="10"
      gorn="0.4.64"
      x="1200"
      stroke-width="0"
    />
    <text
      id="label12"
      y="419.75"
      font-size="48.6111106873"
      gorn="0.4.65"
      x="965"
      font-family="'Droid Sans'"
      text-anchor="end"
      fill="#555555"
      fill-opacity="1"
      stroke="none">Q9</text>
    <text
      id="text12"
      y="383"
      class="text"
      font-size="34.7222213745"
      gorn="0.4.66"
      x="1106.25"
      font-family="'Droid Sans'"
      text-anchor="middle"
      fill="#555555"
      fill-opacity="1"
      stroke="none"
      stroke-width="0">13</text>
    <line
      id="line13"
      x1="1005"
      y2="306.25"
      x2="1205"
      fill="none"
      stroke-linecap="round"
      stroke-linejoin="round"
      y1="306.25"
      stroke="#555555"
      gorn="0.4.67"
      stroke-width="10"
    />
    <rect
      id="connector13pin"
      y="301.25"
      fill="none"
      width="198.75"
      connectorname="Q8"
      height="10"
      gorn="0.4.68"
      x="1011.25"
      stroke-width="0"
    />
    <rect
      id="connector13terminal"
      y="301.25"
      fill="none"
      width="10"
      height="10"
      gorn="0.4.69"
      x="1200"
      stroke-width="0"
    />
    <text
      id="label13"
      y="319.75"
      font-size="48.6111106873"
      gorn="0.4.70"
      x="965"
      font-family="'Droid Sans'"
      text-anchor="end"
      fill="#555555"
      fill-opacity="1"
      stroke="none">Q8</text>
    <text
      id="text13"
      y="283"
      class="text"
      font-size="34.7222213745"
      gorn="0.4.71"
      x="1106.25"
      font-family="'Droid Sans'"
      text-anchor="middle"
      fill="#555555"
      fill-opacity="1"
      stroke="none"
      stroke-width="0">14</text>
    <line
      id="line14"
      x1="1005"
      y2="206.25"
      x2="1205"
      fill="none"
      stroke-linecap="round"
      stroke-linejoin="round"
      y1="206.25"
      stroke="#555555"
      gorn="0.4.72"
      stroke-width="10"
    />
    <rect
      id="connector14pin"
      y="201.25"
      fill="none"
      width="198.75"
      connectorname="Q10"
      height="10"
      gorn="0.4.73"
      x="1011.25"
      stroke-width="0"
    />
    <rect
      id="connector14terminal"
      y="201.25"
      fill="none"
      width="10"
      height="10"
      gorn="0.4.74"
      x="1200"
      stroke-width="0"
    />
    <text
      id="label14"
      y="219.75"
      font-size="48.6111106873"
      gorn="0.4.75"
      x="965"
      font-family="'Droid Sans'"
      text-anchor="end"
      fill="#555555"
      fill-opacity="1"
      stroke="none">Q10</text>
    <text
      id="text14"
      y="183"
      class="text"
      font-size="34.7222213745"
      gorn="0.4.76"
      x="1106.25"
      font-family="'Droid Sans'"
      text-anchor="middle"
      fill="#555555"
      fill-opacity="1"
      stroke="none"
      stroke-width="0">15</text>
    <line
      id="line15"
      x1="1005"
      y2="106.25"
      x2="1205"
      fill="none"
      stroke-linecap="round"
      stroke-linejoin="round"
      y1="106.25"
      stroke="#555555"
      gorn="0.4.77"
      stroke-width="10"
    />
    <rect
      id="connector15pin"
      y="101.25"
      fill="none"
      width="198.75"
      connectorname="+VCC"
      height="10"
      gorn="0.4.78"
      x="1011.25"
      stroke-width="0"
    />
    <rect
      id="connector15terminal"
      y="101.25"
      fill="none"
      width="10"
      height="10"
      gorn="0.4.79"
      x="1200"
      stroke-width="0"
    />
    <text
      id="label15"
      y="119.75"
      font-size="48.6111106873"
      gorn="0.4.80"
      x="965"
      font-family="'Droid Sans'"
      text-anchor="end"
      fill="#555555"
      fill-opacity="1"
      stroke="none">+Vcc</text>
    <text
      id="text15"
      y="83"
      class="text"
      font-size="34.7222213745"
      gorn="0.4.81"
      x="1106.25"
      font-family="'Droid Sans'"
      text-anchor="middle"
      fill="#555555"
      fill-opacity="1"
      stroke="none"
      stroke-width="0">16</text>
  </g>
</svg>
