<?xml version='1.0' encoding='UTF-8' standalone='no'?>
<!-- Created with Fritzing (https://fritzing.org/) -->
<svg xmlns="http://www.w3.org/2000/svg" x="0in"  gorn="0" height="0.9000001in" width="1.7000002in" viewBox="0 0 122.40001 64.799891" id="svg6069" y="0in" version="1.2">
    <desc >
        <referenceFile >HmIP-MOD-OC8_BreadBoard_-_v0-10-1(Inkscape_version).svg</referenceFile>
    </desc>
    <defs  id="defs6073"/>
    <g  transform="translate(0,-7.6350412e-5)">
        <g >
            <g >
                <g  partID="breadboard" gorn="0.2.0.0.0" id="breadboard">
                    <path d="M 0,0 H 122.4 V 64.8 H 0 Z m 5.94,7.2 c 0,1.6799993 2.52,1.6799993 2.52,0 0,-1.6799993 -2.52,-1.6799993 -2.52,0 z m 7.2,0 c 0,1.6799993 2.52,1.6799993 2.52,0 0,-1.6799993 -2.52,-1.6799993 -2.52,0 z m 7.2,0 c 0,1.6799993 2.52,1.6799993 2.52,0 0,-1.6799994 -2.52,-1.6799994 -2.52,0 z m 7.2,0 c 0,1.6799994 2.52,1.6799994 2.52,0 0,-1.6799993 -2.52,-1.6799993 -2.52,0 z m 7.2,0 c 0,1.6799994 2.52,1.6799994 2.52,0 0,-1.6799993 -2.52,-1.6799993 -2.52,0 z m 7.2,0 c 0,1.6799994 2.52,1.6799994 2.52,0 0,-1.6799993 -2.52,-1.6799993 -2.52,0 z m 7.2,0 c 0,1.6799994 2.52,1.6799994 2.52,0 0,-1.6799993 -2.52,-1.6799993 -2.52,0 z m 7.2,0 c 0,1.6799994 2.52,1.6799994 2.52,0 0,-1.6799993 -2.52,-1.6799993 -2.52,0 z m 7.2,0 c 0,1.6799994 2.52,1.6799994 2.52,0 0,-1.6799993 -2.52,-1.6799993 -2.52,0 z m 7.2,0 c 0,1.6799995 2.52,1.6799995 2.52,0 0,-1.6799993 -2.52,-1.6799993 -2.52,0 z m 7.2,0 c 0,1.6799993 2.52,1.6799993 2.52,0 0,-1.6799995 -2.52,-1.6799995 -2.52,0 z m 7.2,0 c 0,1.6799995 2.52,1.6799995 2.52,0 0,-1.6799993 -2.52,-1.6799993 -2.52,0 z m 7.2,0 c 0,1.6799993 2.52,1.6799993 2.52,0 0,-1.6799995 -2.52,-1.6799995 -2.52,0 z m 7.2,0 c 0,1.6799995 2.52,1.6799995 2.52,0 0,-1.6799993 -2.52,-1.6799993 -2.52,0 z m 7.2,0 c 0,1.6799993 2.52,1.6799993 2.52,0 0,-1.6799995 -2.52,-1.6799995 -2.52,0 z m 7.2,0 c 0,1.6799995 2.52,1.6799995 2.52,0 0,-1.6799993 -2.52,-1.6799993 -2.52,0 z m -108,50.4 c 0,1.679999 2.52,1.679999 2.52,0 0,-1.679999 -2.52,-1.679999 -2.52,0 z m 7.2,0 c 0,1.679999 2.52,1.679999 2.52,0 0,-1.679999 -2.52,-1.679999 -2.52,0 z m 7.2,0 c 0,1.679999 2.52,1.679999 2.52,0 0,-1.679999 -2.52,-1.679999 -2.52,0 z m 7.2,0 c 0,1.679999 2.52,1.679999 2.52,0 0,-1.679999 -2.52,-1.679999 -2.52,0 z m 7.2,0 c 0,1.679999 2.52,1.679999 2.52,0 0,-1.679999 -2.52,-1.679999 -2.52,0 z m 7.2,0 c 0,1.679999 2.52,1.679999 2.52,0 0,-1.679999 -2.52,-1.679999 -2.52,0 z m 7.2,0 c 0,1.679999 2.52,1.679999 2.52,0 0,-1.679999 -2.52,-1.679999 -2.52,0 z m 7.2,0 c 0,1.679999 2.52,1.679999 2.52,0 0,-1.679999 -2.52,-1.679999 -2.52,0 z m 7.2,0 c 0,1.679999 2.52,1.679999 2.52,0 0,-1.68 -2.52,-1.68 -2.52,0 z m 7.2,0 c 0,1.679999 2.52,1.679999 2.52,0 0,-1.679999 -2.52,-1.679999 -2.52,0 z m 7.2,0 c 0,1.679999 2.52,1.679999 2.52,0 0,-1.679999 -2.52,-1.679999 -2.52,0 z m 7.2,0 c 0,1.679999 2.52,1.679999 2.52,0 0,-1.679999 -2.52,-1.679999 -2.52,0 z m 7.2,0 c 0,1.679999 2.52,1.679999 2.52,0 0,-1.679999 -2.52,-1.679999 -2.52,0 z m 7.2,0 c 0,1.679999 2.52,1.679999 2.52,0 0,-1.679999 -2.52,-1.679999 -2.52,0 z m 7.2,0 c 0,1.679999 2.52,1.679999 2.52,0 0,-1.679999 -2.52,-1.679999 -2.52,0 z m 7.2,0 c 0,1.679999 2.52,1.679999 2.52,0 0,-1.679999 -2.52,-1.679999 -2.52,0 z"  gorn="0.2.0.0.0.0" fill="#35a079" stroke="none" stroke-width="0" style="display:inline;fill:#35a079;fill-opacity:1" id="boardoutline" fill-opacity="1"/>
                    <path d="M 0.28897993,0.28897993 H 122.11013 V 64.510129 H 0.28897993 Z"  gorn="0.2.0.0.0.1" stroke-opacity="1" fill="none" stroke="#000000" stroke-width="0.577959" style="display:inline;stroke:#000000;stroke-opacity:1" id="PCBBoarder"/>
                    <g  transform="translate(0,7.6350412e-5)">
                        <g >
                            <g >
                                <g  gorn="0.2.0.0.0.2.0.0.0" id="silkscreen">
                                    <g  transform="matrix(1.0035974,0,0,0.99641551,0,-7.6350412e-5)">
                                        <g >
                                            <g >
                                                <g  gorn="0.2.0.0.0.2.0.0.0.0.0.0.0" style="font-style:normal;font-weight:normal;line-height:1.25;font-family:OCRA;-inkscape-font-specification:OCRA;font-stretch:normal;font-variant:normal" stroke-width="0.747312" stroke="none" fill="#000000" font-size="3.2" id="textpin31" fill-opacity="1" xml:space="preserve" xmlns:xml="http://www.w3.org/XML/1998/namespace">
                                                    <text x="111.90839"  gorn="0.2.0.0.0.2.0.0.0.0.0.0.0.0" style="font-style:normal;font-variant:normal;font-weight:normal;font-stretch:normal;font-family:OCRA;-inkscape-font-specification:OCRA;" stroke-width="0.747312" font-size="3.2" id="tspan824-7-8-06" y="54.412731">32</text>
                                                </g>
                                            </g>
                                        </g>
                                    </g>
                                    <g  transform="matrix(1.0035974,0,0,0.99641551,0,-7.6350412e-5)">
                                        <g >
                                            <g >
                                                <g  gorn="0.2.0.0.0.2.0.0.0.1.0.0.0" style="font-style:normal;font-weight:normal;line-height:1.25;font-family:OCRA;-inkscape-font-specification:OCRA;font-stretch:normal;font-variant:normal" stroke-width="0.747312" stroke="none" fill="#000000" font-size="3.2" id="textpin30" fill-opacity="1" xml:space="preserve" xmlns:xml="http://www.w3.org/XML/1998/namespace">
                                                    <text x="104.5204"  gorn="0.2.0.0.0.2.0.0.0.1.0.0.0.0" style="font-style:normal;font-variant:normal;font-weight:normal;font-stretch:normal;font-family:OCRA;-inkscape-font-specification:OCRA;" stroke-width="0.747312" font-size="3.2" id="tspan824-7-8-06-6" y="54.412731">31</text>
                                                </g>
                                            </g>
                                        </g>
                                    </g>
                                    <g  transform="matrix(1.0035974,0,0,0.99641551,0,-7.6350412e-5)">
                                        <g >
                                            <g >
                                                <g  gorn="0.2.0.0.0.2.0.0.0.2.0.0.0" style="font-style:normal;font-weight:normal;line-height:1.25;font-family:OCRA;-inkscape-font-specification:OCRA;font-stretch:normal;font-variant:normal" stroke-width="0.747312" stroke="none" fill="#000000" font-size="3.2" id="textpin29" fill-opacity="1" xml:space="preserve" xmlns:xml="http://www.w3.org/XML/1998/namespace">
                                                    <text x="97.50808"  gorn="0.2.0.0.0.2.0.0.0.2.0.0.0.0" style="font-style:normal;font-variant:normal;font-weight:normal;font-stretch:normal;font-family:OCRA;-inkscape-font-specification:OCRA;" stroke-width="0.747312" font-size="3.2" id="tspan824-7-8-06-6-5" y="54.412731">30</text>
                                                </g>
                                            </g>
                                        </g>
                                    </g>
                                    <g  transform="matrix(1.0035974,0,0,0.99641551,0,-7.6350412e-5)">
                                        <g >
                                            <g >
                                                <g  gorn="0.2.0.0.0.2.0.0.0.3.0.0.0" style="font-style:normal;font-weight:normal;line-height:1.25;font-family:OCRA;-inkscape-font-specification:OCRA;font-stretch:normal;font-variant:normal" stroke-width="0.747312" stroke="none" fill="#000000" font-size="3.2" id="textpin28" fill-opacity="1" xml:space="preserve" xmlns:xml="http://www.w3.org/XML/1998/namespace">
                                                    <text x="90.406982"  gorn="0.2.0.0.0.2.0.0.0.3.0.0.0.0" style="font-style:normal;font-variant:normal;font-weight:normal;font-stretch:normal;font-family:OCRA;-inkscape-font-specification:OCRA;" stroke-width="0.747312" font-size="3.2" id="tspan824-7-8-06-6-5-8" y="54.412731">29</text>
                                                </g>
                                            </g>
                                        </g>
                                    </g>
                                    <g  transform="matrix(1.0035974,0,0,0.99641551,0,-7.6350412e-5)">
                                        <g >
                                            <g >
                                                <g  gorn="0.2.0.0.0.2.0.0.0.4.0.0.0" style="font-style:normal;font-weight:normal;line-height:1.25;font-family:OCRA;-inkscape-font-specification:OCRA;font-stretch:normal;font-variant:normal" stroke-width="0.747312" stroke="none" fill="#000000" font-size="3.2" id="textpin27" fill-opacity="1" xml:space="preserve" xmlns:xml="http://www.w3.org/XML/1998/namespace">
                                                    <text x="82.950836"  gorn="0.2.0.0.0.2.0.0.0.4.0.0.0.0" style="font-style:normal;font-variant:normal;font-weight:normal;font-stretch:normal;font-family:OCRA;-inkscape-font-specification:OCRA;" stroke-width="0.747312" font-size="3.2" id="tspan824-7-8-06-6-5-8-6" y="54.412731">28</text>
                                                </g>
                                            </g>
                                        </g>
                                    </g>
                                    <g  transform="matrix(1.0035974,0,0,0.99641551,0,-7.6350412e-5)">
                                        <g >
                                            <g >
                                                <g  gorn="0.2.0.0.0.2.0.0.0.5.0.0.0" style="font-style:normal;font-weight:normal;line-height:1.25;font-family:OCRA;-inkscape-font-specification:OCRA;font-stretch:normal;font-variant:normal" stroke-width="0.747312" stroke="none" fill="#000000" font-size="3.2" id="textpin26" fill-opacity="1" xml:space="preserve" xmlns:xml="http://www.w3.org/XML/1998/namespace">
                                                    <text x="75.849739"  gorn="0.2.0.0.0.2.0.0.0.5.0.0.0.0" style="font-style:normal;font-variant:normal;font-weight:normal;font-stretch:normal;font-family:OCRA;-inkscape-font-specification:OCRA;" stroke-width="0.747312" font-size="3.2" id="tspan824-7-8-06-6-5-8-6-4" y="54.412731">27</text>
                                                </g>
                                            </g>
                                        </g>
                                    </g>
                                    <g  transform="matrix(1.0035974,0,0,0.99641551,0,-7.6350412e-5)">
                                        <g >
                                            <g >
                                                <g  gorn="0.2.0.0.0.2.0.0.0.6.0.0.0" style="font-style:normal;font-weight:normal;line-height:1.25;font-family:OCRA;-inkscape-font-specification:OCRA;font-stretch:normal;font-variant:normal" stroke-width="0.747312" stroke="none" fill="#000000" font-size="3.2" id="textpin25" fill-opacity="1" xml:space="preserve" xmlns:xml="http://www.w3.org/XML/1998/namespace">
                                                    <text x="68.926178"  gorn="0.2.0.0.0.2.0.0.0.6.0.0.0.0" style="font-style:normal;font-variant:normal;font-weight:normal;font-stretch:normal;font-family:OCRA;-inkscape-font-specification:OCRA;" stroke-width="0.747312" font-size="3.2" id="tspan824-7-8-06-6-5-8-6-4-0" y="54.412731">26</text>
                                                </g>
                                            </g>
                                        </g>
                                    </g>
                                    <g  transform="matrix(1.0035974,0,0,0.99641551,0,-7.6350412e-5)">
                                        <g >
                                            <g >
                                                <g  gorn="0.2.0.0.0.2.0.0.0.7.0.0.0" style="font-style:normal;font-weight:normal;line-height:1.25;font-family:OCRA;-inkscape-font-specification:OCRA;font-stretch:normal;font-variant:normal" stroke-width="0.747312" stroke="none" fill="#000000" font-size="3.2" id="textpin24" fill-opacity="1" xml:space="preserve" xmlns:xml="http://www.w3.org/XML/1998/namespace">
                                                    <text x="61.558796"  gorn="0.2.0.0.0.2.0.0.0.7.0.0.0.0" style="font-style:normal;font-variant:normal;font-weight:normal;font-stretch:normal;font-family:OCRA;-inkscape-font-specification:OCRA;" stroke-width="0.747312" font-size="3.2" id="tspan824-7-8-06-6-5-8-6-4-0-0" y="54.412731">25</text>
                                                </g>
                                            </g>
                                        </g>
                                    </g>
                                    <g  transform="matrix(1.0035974,0,0,0.99641551,0,-7.6350412e-5)">
                                        <g >
                                            <g >
                                                <g  gorn="0.2.0.0.0.2.0.0.0.8.0.0.0" style="font-style:normal;font-weight:normal;line-height:1.25;font-family:OCRA;-inkscape-font-specification:OCRA;font-stretch:normal;font-variant:normal" stroke-width="0.747312" stroke="none" fill="#000000" font-size="3.2" id="textpin23" fill-opacity="1" xml:space="preserve" xmlns:xml="http://www.w3.org/XML/1998/namespace">
                                                    <text x="54.812752"  gorn="0.2.0.0.0.2.0.0.0.8.0.0.0.0" style="font-style:normal;font-variant:normal;font-weight:normal;font-stretch:normal;font-family:OCRA;-inkscape-font-specification:OCRA;" stroke-width="0.747312" font-size="3.2" id="tspan824-7-8-06-6-5-8-6-4-0-3" y="54.412731">24</text>
                                                </g>
                                            </g>
                                        </g>
                                    </g>
                                    <g  transform="matrix(1.0035974,0,0,0.99641551,0,-7.6350412e-5)">
                                        <g >
                                            <g >
                                                <g  gorn="0.2.0.0.0.2.0.0.0.9.0.0.0" style="font-style:normal;font-weight:normal;line-height:1.25;font-family:OCRA;-inkscape-font-specification:OCRA;font-stretch:normal;font-variant:normal" stroke-width="0.747312" stroke="none" fill="#000000" font-size="3.2" id="textpin22" fill-opacity="1" xml:space="preserve" xmlns:xml="http://www.w3.org/XML/1998/namespace">
                                                    <text x="47.179077"  gorn="0.2.0.0.0.2.0.0.0.9.0.0.0.0" style="font-style:normal;font-variant:normal;font-weight:normal;font-stretch:normal;font-family:OCRA;-inkscape-font-specification:OCRA;" stroke-width="0.747312" font-size="3.2" id="tspan824-7-8-06-6-5-8-6-4-0-09" y="54.412731">23</text>
                                                </g>
                                            </g>
                                        </g>
                                    </g>
                                    <g  transform="matrix(1.0035974,0,0,0.99641551,0,-7.6350412e-5)">
                                        <g >
                                            <g >
                                                <g  gorn="0.2.0.0.0.2.0.0.0.10.0.0.0" style="font-style:normal;font-weight:normal;line-height:1.25;font-family:OCRA;-inkscape-font-specification:OCRA;font-stretch:normal;font-variant:normal" stroke-width="0.747312" stroke="none" fill="#000000" font-size="3.2" id="textpin21" fill-opacity="1" xml:space="preserve" xmlns:xml="http://www.w3.org/XML/1998/namespace">
                                                    <text x="39.811699"  gorn="0.2.0.0.0.2.0.0.0.10.0.0.0.0" style="font-style:normal;font-variant:normal;font-weight:normal;font-stretch:normal;font-family:OCRA;-inkscape-font-specification:OCRA;" stroke-width="0.747312" font-size="3.2" id="tspan824-7-8-06-6-5-8-6-4-0-09-0-5" y="54.412731">22</text>
                                                </g>
                                            </g>
                                        </g>
                                    </g>
                                    <g  transform="matrix(1.0035974,0,0,0.99641551,0,-7.6350412e-5)">
                                        <g >
                                            <g >
                                                <g  gorn="0.2.0.0.0.2.0.0.0.11.0.0.0" style="font-style:normal;font-weight:normal;line-height:1.25;font-family:OCRA;-inkscape-font-specification:OCRA;font-stretch:normal;font-variant:normal" stroke-width="0.747312" stroke="none" fill="#000000" font-size="3.2" id="textpin20" fill-opacity="1" xml:space="preserve" xmlns:xml="http://www.w3.org/XML/1998/namespace">
                                                    <text x="33.154423"  gorn="0.2.0.0.0.2.0.0.0.11.0.0.0.0" style="font-style:normal;font-variant:normal;font-weight:normal;font-stretch:normal;font-family:OCRA;-inkscape-font-specification:OCRA;" stroke-width="0.747312" font-size="3.2" id="tspan824-7-8-06-6-5-8-6-4-0-09-0" y="54.412731">21</text>
                                                </g>
                                            </g>
                                        </g>
                                    </g>
                                    <g  transform="matrix(1.0035974,0,0,0.99641551,0,-7.6350412e-5)">
                                        <g >
                                            <g >
                                                <g  gorn="0.2.0.0.0.2.0.0.0.12.0.0.0" style="font-style:normal;font-weight:normal;line-height:1.25;font-family:OCRA;-inkscape-font-specification:OCRA;font-stretch:normal;font-variant:normal" stroke-width="0.747312" stroke="none" fill="#000000" font-size="3.2" id="textpin19" fill-opacity="1" xml:space="preserve" xmlns:xml="http://www.w3.org/XML/1998/namespace">
                                                    <text x="25.60951"  gorn="0.2.0.0.0.2.0.0.0.12.0.0.0.0" style="font-style:normal;font-variant:normal;font-weight:normal;font-stretch:normal;font-family:OCRA;-inkscape-font-specification:OCRA;" stroke-width="0.747312" font-size="3.2" id="tspan824-7-8-06-6-5-8-6-4-0-09-0-1" y="54.412731">20</text>
                                                </g>
                                            </g>
                                        </g>
                                    </g>
                                    <g  transform="matrix(1.0035974,0,0,0.99641551,0,-7.6350412e-5)">
                                        <g >
                                            <g >
                                                <g  gorn="0.2.0.0.0.2.0.0.0.13.0.0.0" style="font-style:normal;font-weight:normal;line-height:1.25;font-family:OCRA;-inkscape-font-specification:OCRA;font-stretch:normal;font-variant:normal" stroke-width="0.747312" stroke="none" fill="#000000" font-size="3.2" id="textpin18" fill-opacity="1" xml:space="preserve" xmlns:xml="http://www.w3.org/XML/1998/namespace">
                                                    <text x="18.242128"  gorn="0.2.0.0.0.2.0.0.0.13.0.0.0.0" style="font-style:normal;font-variant:normal;font-weight:normal;font-stretch:normal;font-family:OCRA;-inkscape-font-specification:OCRA;" stroke-width="0.747312" font-size="3.2" id="tspan824-7-8-06-6-5-8-6-4-0-09-0-1-8" y="54.412731">19</text>
                                                </g>
                                            </g>
                                        </g>
                                    </g>
                                    <g  transform="matrix(1.0035974,0,0,0.99641551,0,-7.6350412e-5)">
                                        <g >
                                            <g >
                                                <g  gorn="0.2.0.0.0.2.0.0.0.14.0.0.0" style="font-style:normal;font-weight:normal;line-height:1.25;font-family:OCRA;-inkscape-font-specification:OCRA;font-stretch:normal;font-variant:normal" stroke-width="0.747312" stroke="none" fill="#000000" font-size="3.2" id="textpin17" fill-opacity="1" xml:space="preserve" xmlns:xml="http://www.w3.org/XML/1998/namespace">
                                                    <text x="11.229798"  gorn="0.2.0.0.0.2.0.0.0.14.0.0.0.0" style="font-style:normal;font-variant:normal;font-weight:normal;font-stretch:normal;font-family:OCRA;-inkscape-font-specification:OCRA;" stroke-width="0.747312" font-size="3.2" id="tspan824-7-8-06-6-5-8-6-4-0-09-0-1-8-9" y="54.412731">18</text>
                                                </g>
                                            </g>
                                        </g>
                                    </g>
                                    <g  transform="matrix(1.0035974,0,0,0.99641551,0,-7.6350412e-5)">
                                        <g >
                                            <g >
                                                <g  gorn="0.2.0.0.0.2.0.0.0.15.0.0.0" style="font-style:normal;font-weight:normal;line-height:1.25;font-family:OCRA;-inkscape-font-specification:OCRA;font-stretch:normal;font-variant:normal" stroke-width="0.747312" stroke="none" fill="#000000" font-size="3.2" id="textpin16" fill-opacity="1" xml:space="preserve" xmlns:xml="http://www.w3.org/XML/1998/namespace">
                                                    <text x="4.3062315"  gorn="0.2.0.0.0.2.0.0.0.15.0.0.0.0" style="font-style:normal;font-variant:normal;font-weight:normal;font-stretch:normal;font-family:OCRA;-inkscape-font-specification:OCRA;" stroke-width="0.747312" font-size="3.2" id="tspan824-7-8-06-6-5-8-6-4-0-09-0-1-8-9-8" y="54.412731">17</text>
                                                </g>
                                            </g>
                                        </g>
                                    </g>
                                    <g  transform="matrix(1.0035974,0,0,0.99641551,0,-7.6350412e-5)">
                                        <g >
                                            <g >
                                                <g  gorn="0.2.0.0.0.2.0.0.0.16.0.0.0" style="font-style:normal;font-weight:normal;line-height:1.25;font-family:OCRA;-inkscape-font-specification:OCRA;font-stretch:normal;font-variant:normal" stroke-width="0.747312" stroke="none" fill="#000000" font-size="3.2" id="textpin15" fill-opacity="1" xml:space="preserve" xmlns:xml="http://www.w3.org/XML/1998/namespace">
                                                    <text x="3.7106516"  gorn="0.2.0.0.0.2.0.0.0.16.0.0.0.0" style="font-style:normal;font-variant:normal;font-weight:normal;font-stretch:normal;font-family:OCRA;-inkscape-font-specification:OCRA;" stroke-width="0.747312" font-size="3.2" id="tspan824-7-8-0-4-21-2" y="13.947685">16</text>
                                                </g>
                                            </g>
                                        </g>
                                    </g>
                                    <g  transform="matrix(1.0035974,0,0,0.99641551,0,-7.6350412e-5)">
                                        <g >
                                            <g >
                                                <g  gorn="0.2.0.0.0.2.0.0.0.17.0.0.0" style="font-style:normal;font-weight:normal;line-height:1.25;font-family:OCRA;-inkscape-font-specification:OCRA;font-stretch:normal;font-variant:normal" stroke-width="0.747312" stroke="none" fill="#000000" font-size="3.2" id="textpin14" fill-opacity="1" xml:space="preserve" xmlns:xml="http://www.w3.org/XML/1998/namespace">
                                                    <text x="11.095477"  gorn="0.2.0.0.0.2.0.0.0.17.0.0.0.0" style="font-style:normal;font-variant:normal;font-weight:normal;font-stretch:normal;font-family:OCRA;-inkscape-font-specification:OCRA;" stroke-width="0.747312" font-size="3.2" id="tspan824-7-8-0-4-21" y="13.947685">15</text>
                                                </g>
                                            </g>
                                        </g>
                                    </g>
                                    <g  transform="matrix(1.0035974,0,0,0.99641551,0,-7.6350412e-5)">
                                        <g >
                                            <g >
                                                <g  gorn="0.2.0.0.0.2.0.0.0.18.0.0.0" style="font-style:normal;font-weight:normal;line-height:1.25;font-family:OCRA;-inkscape-font-specification:OCRA;font-stretch:normal;font-variant:normal" stroke-width="0.747312" stroke="none" fill="#000000" font-size="3.2" id="textpin13" fill-opacity="1" xml:space="preserve" xmlns:xml="http://www.w3.org/XML/1998/namespace">
                                                    <text x="18.462866"  gorn="0.2.0.0.0.2.0.0.0.18.0.0.0.0" style="font-style:normal;font-variant:normal;font-weight:normal;font-stretch:normal;font-family:OCRA;-inkscape-font-specification:OCRA;" stroke-width="0.747312" font-size="3.2" id="tspan824-7-8-0-4-12" y="13.947685">14</text>
                                                </g>
                                            </g>
                                        </g>
                                    </g>
                                    <g  transform="matrix(1.0035974,0,0,0.99641551,0,-7.6350412e-5)">
                                        <g >
                                            <g >
                                                <g  gorn="0.2.0.0.0.2.0.0.0.19.0.0.0" style="font-style:normal;font-weight:normal;line-height:1.25;font-family:OCRA;-inkscape-font-specification:OCRA;font-stretch:normal;font-variant:normal" stroke-width="0.747312" stroke="none" fill="#000000" font-size="3.2" id="textpin12" fill-opacity="1" xml:space="preserve" xmlns:xml="http://www.w3.org/XML/1998/namespace">
                                                    <text x="25.830244"  gorn="0.2.0.0.0.2.0.0.0.19.0.0.0.0" style="font-style:normal;font-variant:normal;font-weight:normal;font-stretch:normal;font-family:OCRA;-inkscape-font-specification:OCRA;" stroke-width="0.747312" font-size="3.2" id="tspan824-7-8-0-4-4" y="13.947685">13</text>
                                                </g>
                                            </g>
                                        </g>
                                    </g>
                                    <g  transform="matrix(1.0035974,0,0,0.99641551,0,-7.6350412e-5)">
                                        <g >
                                            <g >
                                                <g  gorn="0.2.0.0.0.2.0.0.0.20.0.0.0" style="font-style:normal;font-weight:normal;line-height:1.25;font-family:OCRA;-inkscape-font-specification:OCRA;font-stretch:normal;font-variant:normal" stroke-width="0.747312" stroke="none" fill="#000000" font-size="3.2" id="textpin11" fill-opacity="1" xml:space="preserve" xmlns:xml="http://www.w3.org/XML/1998/namespace">
                                                    <text x="33.197624"  gorn="0.2.0.0.0.2.0.0.0.20.0.0.0.0" style="font-style:normal;font-variant:normal;font-weight:normal;font-stretch:normal;font-family:OCRA;-inkscape-font-specification:OCRA;" stroke-width="0.747312" font-size="3.2" id="tspan824-7-8-0-4-2" y="13.947685">12</text>
                                                </g>
                                            </g>
                                        </g>
                                    </g>
                                    <g  transform="matrix(1.0035974,0,0,0.99641551,0,-7.6350412e-5)">
                                        <g >
                                            <g >
                                                <g  gorn="0.2.0.0.0.2.0.0.0.21.0.0.0" style="font-style:normal;font-weight:normal;line-height:1.25;font-family:OCRA;-inkscape-font-specification:OCRA;font-stretch:normal;font-variant:normal" stroke-width="0.747312" stroke="none" fill="#000000" font-size="3.2" id="textpin10" fill-opacity="1" xml:space="preserve" xmlns:xml="http://www.w3.org/XML/1998/namespace">
                                                    <text x="40.742538"  gorn="0.2.0.0.0.2.0.0.0.21.0.0.0.0" style="font-style:normal;font-variant:normal;font-weight:normal;font-stretch:normal;font-family:OCRA;-inkscape-font-specification:OCRA;" stroke-width="0.747312" font-size="3.2" id="tspan824-7-8-0-4-3" y="13.947685">11</text>
                                                </g>
                                            </g>
                                        </g>
                                    </g>
                                    <g  transform="matrix(1.0035974,0,0,0.99641551,0,-7.6350412e-5)">
                                        <g >
                                            <g >
                                                <g  gorn="0.2.0.0.0.2.0.0.0.22.0.0.0" style="font-style:normal;font-weight:normal;line-height:1.25;font-family:OCRA;-inkscape-font-specification:OCRA;font-stretch:normal;font-variant:normal" stroke-width="0.747312" stroke="none" fill="#000000" font-size="3.2" id="textpin9" fill-opacity="1" xml:space="preserve" xmlns:xml="http://www.w3.org/XML/1998/namespace">
                                                    <text x="47.754868"  gorn="0.2.0.0.0.2.0.0.0.22.0.0.0.0" style="font-style:normal;font-variant:normal;font-weight:normal;font-stretch:normal;font-family:OCRA;-inkscape-font-specification:OCRA;" stroke-width="0.747312" font-size="3.2" id="tspan824-7-8-0-4-9" y="13.947685">10</text>
                                                </g>
                                            </g>
                                        </g>
                                    </g>
                                    <g  transform="matrix(1.0035974,0,0,0.99641551,0,-7.6350412e-5)">
                                        <g >
                                            <g >
                                                <g  gorn="0.2.0.0.0.2.0.0.0.23.0.0.0" style="font-style:normal;font-weight:normal;line-height:1.25;font-family:OCRA;-inkscape-font-specification:OCRA;font-stretch:normal;font-variant:normal" stroke-width="0.747312" stroke="none" fill="#000000" font-size="3.2" id="textpin8" fill-opacity="1" xml:space="preserve" xmlns:xml="http://www.w3.org/XML/1998/namespace">
                                                    <text x="56.187416"  gorn="0.2.0.0.0.2.0.0.0.23.0.0.0.0" style="font-style:normal;font-variant:normal;font-weight:normal;font-stretch:normal;font-family:OCRA;-inkscape-font-specification:OCRA;" stroke-width="0.747312" font-size="3.2" id="tspan824-7-8-0-4-5" y="13.947685">9</text>
                                                </g>
                                            </g>
                                        </g>
                                    </g>
                                    <g  transform="matrix(1.0035974,0,0,0.99641551,0,-7.6350412e-5)">
                                        <g >
                                            <g >
                                                <g  gorn="0.2.0.0.0.2.0.0.0.24.0.0.0" style="font-style:normal;font-weight:normal;line-height:1.25;font-family:OCRA;-inkscape-font-specification:OCRA;font-stretch:normal;font-variant:normal" stroke-width="0.747312" stroke="none" fill="#000000" font-size="3.2" id="textpin7" fill-opacity="1" xml:space="preserve" xmlns:xml="http://www.w3.org/XML/1998/namespace">
                                                    <text x="62.933449"  gorn="0.2.0.0.0.2.0.0.0.24.0.0.0.0" style="font-style:normal;font-variant:normal;font-weight:normal;font-stretch:normal;font-family:OCRA;-inkscape-font-specification:OCRA;" stroke-width="0.747312" font-size="3.2" id="tspan824-7-8-0-4-8" y="13.947685">8</text>
                                                </g>
                                            </g>
                                        </g>
                                    </g>
                                    <g  transform="matrix(1.0035974,0,0,0.99641551,0,-7.6350412e-5)">
                                        <g >
                                            <g >
                                                <g  gorn="0.2.0.0.0.2.0.0.0.25.0.0.0" style="font-style:normal;font-weight:normal;line-height:1.25;font-family:OCRA;-inkscape-font-specification:OCRA;font-stretch:normal;font-variant:normal" stroke-width="0.747312" stroke="none" fill="#000000" font-size="3.2" id="textpin6" fill-opacity="1" xml:space="preserve" xmlns:xml="http://www.w3.org/XML/1998/namespace">
                                                    <text x="70.034554"  gorn="0.2.0.0.0.2.0.0.0.25.0.0.0.0" style="font-style:normal;font-variant:normal;font-weight:normal;font-stretch:normal;font-family:OCRA;-inkscape-font-specification:OCRA;" stroke-width="0.747312" font-size="3.2" id="tspan824-7-8-0-4-6" y="13.947685">7</text>
                                                </g>
                                            </g>
                                        </g>
                                    </g>
                                    <g  transform="matrix(1.0035974,0,0,0.99641551,0,-7.6350412e-5)">
                                        <g >
                                            <g >
                                                <g  gorn="0.2.0.0.0.2.0.0.0.26.0.0.0" style="font-style:normal;font-weight:normal;line-height:1.25;font-family:OCRA;-inkscape-font-specification:OCRA;font-stretch:normal;font-variant:normal" stroke-width="0.747312" stroke="none" fill="#000000" font-size="3.2" id="textpin5" fill-opacity="1" xml:space="preserve" xmlns:xml="http://www.w3.org/XML/1998/namespace">
                                                    <text x="77.401939"  gorn="0.2.0.0.0.2.0.0.0.26.0.0.0.0" style="font-style:normal;font-variant:normal;font-weight:normal;font-stretch:normal;font-family:OCRA;-inkscape-font-specification:OCRA;" stroke-width="0.747312" font-size="3.2" id="tspan824-7-8-0-4-1" y="13.947685">6</text>
                                                </g>
                                            </g>
                                        </g>
                                    </g>
                                    <g  transform="matrix(1.0035974,0,0,0.99641551,0,-7.6350412e-5)">
                                        <g >
                                            <g >
                                                <g  gorn="0.2.0.0.0.2.0.0.0.27.0.0.0" style="font-style:normal;font-weight:normal;line-height:1.25;font-family:OCRA;-inkscape-font-specification:OCRA;font-stretch:normal;font-variant:normal" stroke-width="0.747312" stroke="none" fill="#000000" font-size="3.2" id="textpin4" fill-opacity="1" xml:space="preserve" xmlns:xml="http://www.w3.org/XML/1998/namespace">
                                                    <text x="84.503036"  gorn="0.2.0.0.0.2.0.0.0.27.0.0.0.0" style="font-style:normal;font-variant:normal;font-weight:normal;font-stretch:normal;font-family:OCRA;-inkscape-font-specification:OCRA;" stroke-width="0.747312" font-size="3.2" id="tspan824-7-8-0-4" y="13.947685">5</text>
                                                </g>
                                            </g>
                                        </g>
                                    </g>
                                    <g  transform="matrix(1.0035974,0,0,0.99641551,0,-7.6350412e-5)">
                                        <g >
                                            <g >
                                                <g  gorn="0.2.0.0.0.2.0.0.0.28.0.0.0" style="font-style:normal;font-weight:normal;line-height:1.25;font-family:OCRA;-inkscape-font-specification:OCRA;font-stretch:normal;font-variant:normal" stroke-width="0.747312" stroke="none" fill="#000000" font-size="3.2" id="textpin3" fill-opacity="1" xml:space="preserve" xmlns:xml="http://www.w3.org/XML/1998/namespace">
                                                    <text x="91.601639"  gorn="0.2.0.0.0.2.0.0.0.28.0.0.0.0" style="font-style:normal;font-variant:normal;font-weight:normal;font-stretch:normal;font-family:OCRA;-inkscape-font-specification:OCRA;" stroke-width="0.747312" font-size="3.2" id="tspan824-7-8-0" y="13.947685">4</text>
                                                </g>
                                            </g>
                                        </g>
                                    </g>
                                    <g  transform="matrix(1.0035974,0,0,0.99641551,0,-7.6350412e-5)">
                                        <g >
                                            <g >
                                                <g  gorn="0.2.0.0.0.2.0.0.0.29.0.0.0" style="font-style:normal;font-weight:normal;line-height:1.25;font-family:OCRA;-inkscape-font-specification:OCRA;font-stretch:normal;font-variant:normal" stroke-width="0.747312" stroke="none" fill="#000000" font-size="3.2" id="textpin2" fill-opacity="1" xml:space="preserve" xmlns:xml="http://www.w3.org/XML/1998/namespace">
                                                    <text x="98.880257"  gorn="0.2.0.0.0.2.0.0.0.29.0.0.0.0" style="font-style:normal;font-variant:normal;font-weight:normal;font-stretch:normal;font-family:OCRA;-inkscape-font-specification:OCRA;" stroke-width="0.747312" font-size="3.2" id="tspan824-7-8" y="13.947685">3</text>
                                                </g>
                                            </g>
                                        </g>
                                    </g>
                                    <g  transform="matrix(1.0035974,0,0,0.99641551,0,-7.6350412e-5)">
                                        <g >
                                            <g >
                                                <g  gorn="0.2.0.0.0.2.0.0.0.30.0.0.0" style="font-style:normal;font-weight:normal;line-height:1.25;font-family:OCRA;-inkscape-font-specification:OCRA;font-stretch:normal;font-variant:normal" stroke-width="0.747312" stroke="none" fill="#000000" font-size="3.2" id="textpin1" fill-opacity="1" xml:space="preserve" xmlns:xml="http://www.w3.org/XML/1998/namespace">
                                                    <text x="105.89259"  gorn="0.2.0.0.0.2.0.0.0.30.0.0.0.0" style="font-style:normal;font-variant:normal;font-weight:normal;font-stretch:normal;font-family:OCRA;-inkscape-font-specification:OCRA;" stroke-width="0.747312" font-size="3.2" id="tspan824-7" y="13.947685">2</text>
                                                </g>
                                            </g>
                                        </g>
                                    </g>
                                    <g  transform="matrix(1.0035974,0,0,0.99641551,0,-7.6350412e-5)">
                                        <g >
                                            <g >
                                                <g  gorn="0.2.0.0.0.2.0.0.0.31.0.0.0" style="font-style:normal;font-weight:normal;line-height:1.25;font-family:OCRA;-inkscape-font-specification:OCRA;font-stretch:normal;font-variant:normal" stroke-width="0.747312" stroke="none" fill="#000000" font-size="3.2" id="textpin0" fill-opacity="1" xml:space="preserve" xmlns:xml="http://www.w3.org/XML/1998/namespace">
                                                    <text x="113.28822"  gorn="0.2.0.0.0.2.0.0.0.31.0.0.0.0" style="font-style:normal;font-variant:normal;font-weight:normal;font-stretch:normal;font-family:OCRA;-inkscape-font-specification:OCRA;" stroke-width="0.747312" font-size="3.2" id="tspan824" y="13.947685">1</text>
                                                </g>
                                            </g>
                                        </g>
                                    </g>
                                </g>
                            </g>
                        </g>
                    </g>
                    <g  gorn="0.2.0.0.0.3" id="copper1">
                        <circle connectorname="15.0"  cy="7.1999998" r="1.98" gorn="0.2.0.0.0.3.0" fill="none" stroke="#c49c59" stroke-width="1.44" style="stroke:#9a916c;stroke-opacity:1" id="connector1pin" cx="115.2"/>
                        <circle connectorname="14.0"  cy="7.1999998" r="1.98" gorn="0.2.0.0.0.3.1" fill="none" stroke="#c49c59" stroke-width="1.44" style="stroke:#9a916c;stroke-opacity:1" cx="108" id="connector2pin"/>
                        <circle connectorname="13.0"  cy="7.1999998" r="1.98" gorn="0.2.0.0.0.3.2" fill="none" stroke="#c49c59" stroke-width="1.44" style="stroke:#9a916c;stroke-opacity:1" cx="100.8" id="connector3pin"/>
                        <circle connectorname="12.0"  cy="7.1999998" r="1.98" gorn="0.2.0.0.0.3.3" fill="none" stroke="#c49c59" stroke-width="1.44" style="stroke:#9a916c;stroke-opacity:1" cx="93.599998" id="connector4pin"/>
                        <circle connectorname="11.0"  cy="7.1999998" r="1.98" gorn="0.2.0.0.0.3.4" fill="none" stroke="#c49c59" stroke-width="1.44" style="stroke:#9a916c;stroke-opacity:1" cx="86.400002" id="connector5pin"/>
                        <circle connectorname="10.0"  cy="7.1999998" r="1.98" gorn="0.2.0.0.0.3.5" fill="none" stroke="#c49c59" stroke-width="1.44" style="stroke:#9a916c;stroke-opacity:1" cx="79.199997" id="connector6pin"/>
                        <circle connectorname="9.0"  cy="7.1999998" r="1.98" gorn="0.2.0.0.0.3.6" fill="none" stroke="#c49c59" stroke-width="1.44" style="stroke:#9a916c;stroke-opacity:1" cx="72" id="connector7pin"/>
                        <circle connectorname="8.0"  cy="7.1999998" r="1.98" gorn="0.2.0.0.0.3.7" fill="none" stroke="#c49c59" stroke-width="1.44" style="stroke:#9a916c;stroke-opacity:1" cx="64.800003" id="connector8pin"/>
                        <circle connectorname="7.0"  cy="7.1999998" r="1.98" gorn="0.2.0.0.0.3.8" fill="none" stroke="#c49c59" stroke-width="1.44" style="stroke:#9a916c;stroke-opacity:1" cx="57.599998" id="connector9pin"/>
                        <circle connectorname="6.0"  cy="7.1999998" r="1.98" gorn="0.2.0.0.0.3.9" fill="none" stroke="#c49c59" stroke-width="1.44" style="stroke:#9a916c;stroke-opacity:1" cx="50.400002" id="connector10pin"/>
                        <circle connectorname="5.0"  cy="7.1999998" r="1.98" gorn="0.2.0.0.0.3.10" fill="none" stroke="#c49c59" stroke-width="1.44" style="stroke:#9a916c;stroke-opacity:1" cx="43.200001" id="connector11pin"/>
                        <circle connectorname="4.0"  cy="7.1999998" r="1.98" gorn="0.2.0.0.0.3.11" fill="none" stroke="#c49c59" stroke-width="1.44" style="stroke:#9a916c;stroke-opacity:1" cx="36" id="connector12pin"/>
                        <circle connectorname="3.0"  cy="7.1999998" r="1.98" gorn="0.2.0.0.0.3.12" fill="none" stroke="#c49c59" stroke-width="1.44" style="stroke:#9a916c;stroke-opacity:1" cx="28.799999" id="connector13pin"/>
                        <circle connectorname="2.0"  cy="7.1999998" r="1.98" gorn="0.2.0.0.0.3.13" fill="none" stroke="#c49c59" stroke-width="1.44" style="stroke:#9a916c;stroke-opacity:1" cx="21.6" id="connector14pin"/>
                        <circle connectorname="1.0"  cy="7.1999998" r="1.98" gorn="0.2.0.0.0.3.14" fill="none" stroke="#c49c59" stroke-width="1.44" style="stroke:#9a916c;stroke-opacity:1" cx="14.4" id="connector15pin"/>
                        <circle connectorname="0.0"  cy="7.1999998" r="1.98" gorn="0.2.0.0.0.3.15" fill="none" stroke="#c49c59" stroke-width="1.44" style="stroke:#9a916c;stroke-opacity:1" cx="7.1999998" id="connector16pin"/>
                        <circle connectorname="0.7"  cy="57.599998" r="1.98" gorn="0.2.0.0.0.3.16" fill="none" stroke="#c49c59" stroke-width="1.44" style="stroke:#9a916c;stroke-opacity:1" cx="7.1999998" id="connector17pin"/>
                        <circle connectorname="1.7"  cy="57.599998" r="1.98" gorn="0.2.0.0.0.3.17" fill="none" stroke="#c49c59" stroke-width="1.44" style="stroke:#9a916c;stroke-opacity:1" cx="14.4" id="connector18pin"/>
                        <circle connectorname="2.7"  cy="57.599998" r="1.98" gorn="0.2.0.0.0.3.18" fill="none" stroke="#c49c59" stroke-width="1.44" style="stroke:#9a916c;stroke-opacity:1" cx="21.6" id="connector19pin"/>
                        <circle connectorname="3.7"  cy="57.599998" r="1.98" gorn="0.2.0.0.0.3.19" fill="none" stroke="#c49c59" stroke-width="1.44" style="stroke:#9a916c;stroke-opacity:1" cx="28.799999" id="connector20pin"/>
                        <circle connectorname="4.7"  cy="57.599998" r="1.98" gorn="0.2.0.0.0.3.20" fill="none" stroke="#c49c59" stroke-width="1.44" style="stroke:#9a916c;stroke-opacity:1" cx="36" id="connector21pin"/>
                        <circle connectorname="5.7"  cy="57.599998" r="1.98" gorn="0.2.0.0.0.3.21" fill="none" stroke="#c49c59" stroke-width="1.44" style="stroke:#9a916c;stroke-opacity:1" cx="43.200001" id="connector22pin"/>
                        <circle connectorname="6.7"  cy="57.599998" r="1.98" gorn="0.2.0.0.0.3.22" fill="none" stroke="#c49c59" stroke-width="1.44" style="stroke:#9a916c;stroke-opacity:1" cx="50.400002" id="connector23pin"/>
                        <circle connectorname="7.7"  cy="57.599998" r="1.98" gorn="0.2.0.0.0.3.23" fill="none" stroke="#c49c59" stroke-width="1.44" style="stroke:#9a916c;stroke-opacity:1" cx="57.599998" id="connector24pin"/>
                        <circle connectorname="8.7"  cy="57.599998" r="1.98" gorn="0.2.0.0.0.3.24" fill="none" stroke="#c49c59" stroke-width="1.44" style="stroke:#9a916c;stroke-opacity:1" cx="64.800003" id="connector25pin"/>
                        <circle connectorname="9.7"  cy="57.599998" r="1.98" gorn="0.2.0.0.0.3.25" fill="none" stroke="#c49c59" stroke-width="1.44" style="stroke:#9a916c;stroke-opacity:1" cx="72" id="connector26pin"/>
                        <circle connectorname="10.7"  cy="57.599998" r="1.98" gorn="0.2.0.0.0.3.26" fill="none" stroke="#c49c59" stroke-width="1.44" style="stroke:#9a916c;stroke-opacity:1" cx="79.199997" id="connector27pin"/>
                        <circle connectorname="11.7"  cy="57.599998" r="1.98" gorn="0.2.0.0.0.3.27" fill="none" stroke="#c49c59" stroke-width="1.44" style="stroke:#9a916c;stroke-opacity:1" cx="86.400002" id="connector28pin"/>
                        <circle connectorname="12.7"  cy="57.599998" r="1.98" gorn="0.2.0.0.0.3.28" fill="none" stroke="#c49c59" stroke-width="1.44" style="stroke:#9a916c;stroke-opacity:1" cx="93.599998" id="connector29pin"/>
                        <circle connectorname="13.7"  cy="57.599998" r="1.98" gorn="0.2.0.0.0.3.29" fill="none" stroke="#c49c59" stroke-width="1.44" style="stroke:#9a916c;stroke-opacity:1" cx="100.8" id="connector30pin"/>
                        <circle connectorname="14.7"  cy="57.599998" r="1.98" gorn="0.2.0.0.0.3.30" fill="none" stroke="#c49c59" stroke-width="1.44" style="stroke:#9a916c;stroke-opacity:1" cx="108" id="connector31pin"/>
                        <circle connectorname="15.7"  cy="57.599998" r="1.98" gorn="0.2.0.0.0.3.31" fill="none" stroke="#c49c59" stroke-width="1.44" style="stroke:#9a916c;stroke-opacity:1" cx="115.2" id="connector32pin"/>
                    </g>
                    <g  transform="translate(0,7.6350412e-5)">
                        <g >
                            <g >
                                <g  gorn="0.2.0.0.0.4.0.0.0" id="Chips">
                                    <g  transform="matrix(0.75000001,0,0,0.75000001,16.869685,8.9524324)">
                                        <g >
                                            <g >
                                                <g  gorn="0.2.0.0.0.4.0.0.0.0.0.0.0" id="Component_9">
                                                    <rect x="14.74"  gorn="0.2.0.0.0.4.0.0.0.0.0.0.0.0" fill="#a7a5a6" width="2.3900001" height="4.8299999" id="rect7408" y="50.049999"/>
                                                    <rect x="20.85"  gorn="0.2.0.0.0.4.0.0.0.0.0.0.0.1" fill="#a7a5a6" width="2.3900001" height="4.8299999" id="rect7410" y="50.049999"/>
                                                    <path d="m 21.11,54.33 c 0.51,0 0.93,-0.42 0.93,-0.93 v -1.87 c 0,-0.51 -0.42,-0.93 -0.93,-0.93 h -0.26 v 3.73 z"  gorn="0.2.0.0.0.4.0.0.0.0.0.0.0.2" fill="#806f5c" id="path7412"/>
                                                    <path d="m 16.87,50.6 c -0.51,0 -0.93,0.42 -0.93,0.93 v 1.87 c 0,0.51 0.42,0.93 0.93,0.93 h 0.26 V 50.6 Z"  gorn="0.2.0.0.0.4.0.0.0.0.0.0.0.3" fill="#806f5c" id="path7414"/>
                                                    <rect x="17.129999"  gorn="0.2.0.0.0.4.0.0.0.0.0.0.0.4" fill="#15909c" width="3.72" height="3.73" id="rect7416" y="50.599998"/>
                                                    <rect x="17.129999"  gorn="0.2.0.0.0.4.0.0.0.0.0.0.0.5" fill="#333333" width="3.72" height="3.73" id="rect7418" y="50.34"/>
                                                </g>
                                            </g>
                                        </g>
                                    </g>
                                    <g  transform="matrix(0.75000001,0,0,0.75000001,16.869685,8.9524324)">
                                        <g >
                                            <g >
                                                <g  gorn="0.2.0.0.0.4.0.0.0.1.0.0.0" id="Component_8"/>
                                            </g>
                                        </g>
                                    </g>
                                    <g  transform="matrix(0.75000001,0,0,0.75000001,16.869685,8.9524324)">
                                        <g >
                                            <g >
                                                <g  gorn="0.2.0.0.0.4.0.0.0.2.0.0.0" id="Component_7">
                                                    <path d="m 15.7,44.29 c -0.25,0 -0.45,0.2 -0.45,0.45 h 0.9 c 0,-0.25 -0.2,-0.45 -0.45,-0.45 z"  gorn="0.2.0.0.0.4.0.0.0.2.0.0.0.0" fill="#a7a5a6" id="path7422"/>
                                                    <path d="m 16.6,44.29 c -0.25,0 -0.45,0.2 -0.45,0.45 h 0.9 c 0,-0.25 -0.2,-0.45 -0.45,-0.45 z"  gorn="0.2.0.0.0.4.0.0.0.2.0.0.0.1" fill="#a7a5a6" id="path7424"/>
                                                    <polygon points="15.25,45.89 15.25,45.92 15.25,46.28 15.25,46.31 15.25,46.66 15.25,46.69 15.25,47.04 15.25,47.07 15.25,47.42 15.25,47.45 15.25,47.81 15.25,47.84 15.25,48.22 16.15,48.22 16.15,48.22 17.05,48.22 17.05,47.84 17.05,47.81 17.05,47.45 17.05,47.42 17.05,47.07 17.05,47.04 17.05,46.69 17.05,46.66 17.05,46.31 17.05,46.28 17.05,45.92 17.05,45.89 17.05,45.54 17.05,45.51 17.05,45.16 17.05,45.13 17.05,44.74 16.15,44.74 15.25,44.74 15.25,45.13 15.25,45.16 15.25,45.51 15.25,45.54 "  gorn="0.2.0.0.0.4.0.0.0.2.0.0.0.2" fill="#15909c" id="polygon7426"/>
                                                    <path d="m 16.6,48.19 c 0.25,0 0.45,-0.2 0.45,-0.45 h -0.9 c 0,0.24 0.2,0.45 0.45,0.45 z"  gorn="0.2.0.0.0.4.0.0.0.2.0.0.0.3" fill="#a7a5a6" id="path7428"/>
                                                    <path d="m 15.7,48.19 c 0.25,0 0.45,-0.2 0.45,-0.45 h -0.9 c 0,0.24 0.2,0.45 0.45,0.45 z"  gorn="0.2.0.0.0.4.0.0.0.2.0.0.0.4" fill="#a7a5a6" id="path7430"/>
                                                    <polygon points="15.25,45.63 15.25,45.66 15.25,46.02 15.25,46.05 15.25,46.4 15.25,46.43 15.25,46.78 15.25,46.81 15.25,47.16 15.25,47.19 15.25,47.55 15.25,47.58 15.25,47.96 16.15,47.96 16.15,47.96 17.05,47.96 17.05,47.58 17.05,47.55 17.05,47.19 17.05,47.16 17.05,46.81 17.05,46.78 17.05,46.43 17.05,46.4 17.05,46.05 17.05,46.02 17.05,45.66 17.05,45.63 17.05,45.28 17.05,45.25 17.05,44.9 17.05,44.87 17.05,44.48 16.15,44.48 15.25,44.48 15.25,44.87 15.25,44.9 15.25,45.25 15.25,45.28 "  gorn="0.2.0.0.0.4.0.0.0.2.0.0.0.5" fill="#333333" id="polygon7432"/>
                                                </g>
                                            </g>
                                        </g>
                                    </g>
                                    <g  transform="matrix(0.75000001,0,0,0.75000001,16.869685,8.9524324)">
                                        <g >
                                            <g >
                                                <g  gorn="0.2.0.0.0.4.0.0.0.3.0.0.0" id="Component_6a">
                                                    <rect x="11.58"  gorn="0.2.0.0.0.4.0.0.0.3.0.0.0.0" fill="#867663" width="1.84" height="1.42" id="rect7435" y="51.759998"/>
                                                    <rect x="11.58"  gorn="0.2.0.0.0.4.0.0.0.3.0.0.0.1" fill="#abaaaa" width="1.84" height="0.79000002" id="rect7437" y="53.099998"/>
                                                    <rect x="11.58"  gorn="0.2.0.0.0.4.0.0.0.3.0.0.0.2" fill="#abaaaa" width="1.84" height="0.79000002" id="rect7439" y="51.009998"/>
                                                </g>
                                            </g>
                                        </g>
                                    </g>
                                    <g  transform="matrix(0.75000001,0,0,0.75000001,32.265312,10.769308)">
                                        <g >
                                            <g >
                                                <g  gorn="0.2.0.0.0.4.0.0.0.4.0.0.0" id="Component_6b">
                                                    <rect x="100.98"  gorn="0.2.0.0.0.4.0.0.0.4.0.0.0.0" fill="#867663" width="1.42" height="1.84" id="rect7442" y="48.23"/>
                                                    <rect x="100.27"  gorn="0.2.0.0.0.4.0.0.0.4.0.0.0.1" fill="#abaaaa" width="0.79000002" height="1.84" id="rect7444" y="48.23"/>
                                                    <rect x="102.35"  gorn="0.2.0.0.0.4.0.0.0.4.0.0.0.2" fill="#abaaaa" width="0.79000002" height="1.84" id="rect7446" y="48.23"/>
                                                </g>
                                            </g>
                                        </g>
                                    </g>
                                    <g  transform="matrix(0.75000001,0,0,0.75000001,16.869685,8.9524324)">
                                        <g >
                                            <g >
                                                <g  gorn="0.2.0.0.0.4.0.0.0.5.0.0.0" id="IC2_-_Brown"/>
                                            </g>
                                        </g>
                                    </g>
                                    <g  transform="matrix(1.1937557,0,0,1.1112209,0.24903129,1.7985512)">
                                        <g >
                                            <g >
                                                <g  gorn="0.2.0.0.0.4.0.0.0.6.0.0.0" id="IC1_-_Black">
                                                    <rect x="4.6999998"  gorn="0.2.0.0.0.4.0.0.0.6.0.0.0.0" fill="#15909c" width="7.0799999" height="4.6700001" id="rect7450" y="20.57"/>
                                                    <rect x="4.6999998"  gorn="0.2.0.0.0.4.0.0.0.6.0.0.0.1" fill="#333333" width="10.99" height="11.4" id="rect7452" y="20.309999"/>
                                                    <rect x="5.0300002"  gorn="0.2.0.0.0.4.0.0.0.6.0.0.0.2" fill="#a7a5a6" width="1.22" height="3.3699999" id="rect7454" y="30.73"/>
                                                    <rect x="14.32"  gorn="0.2.0.0.0.4.0.0.0.6.0.0.0.3" fill="#a7a5a6" width="1.22" height="3.3699999" id="rect7456" y="30.73"/>
                                                    <rect x="5.6399999"  gorn="0.2.0.0.0.4.0.0.0.6.0.0.0.4" fill="#a7a5a6" width="9.29" height="1.22" id="rect7458" y="19.540001"/>
                                                </g>
                                            </g>
                                        </g>
                                    </g>
                                    <g  transform="matrix(0.75000001,0,0,0.75000001,32.265312,10.769308)">
                                        <g >
                                            <g >
                                                <g  gorn="0.2.0.0.0.4.0.0.0.7.0.0.0" id="Component_5b">
                                                    <path d="m 71.03,9.91 v 0 h 1.05 0.09 1.05 V 9.9 C 73.8,9.88 74.26,9.41 74.26,8.83 74.26,8.25 73.8,7.78 73.22,7.76 V 7.75 h -1.05 -0.09 -1.05 c -0.6,0 -1.08,0.48 -1.08,1.08 0,0.59 0.48,1.08 1.08,1.08 z"  gorn="0.2.0.0.0.4.0.0.0.7.0.0.0.0" fill="#a7a5a6" id="path7461"/>
                                                    <rect x="71.32"  gorn="0.2.0.0.0.4.0.0.0.7.0.0.0.1" fill="#806f5c" width="1.6" height="2.1600001" id="rect7463" y="7.75"/>
                                                </g>
                                            </g>
                                        </g>
                                    </g>
                                    <g  transform="matrix(0.75000001,0,0,0.75000001,32.265312,10.769308)">
                                        <g >
                                            <g >
                                                <g  gorn="0.2.0.0.0.4.0.0.0.8.0.0.0" id="Component_4a">
                                                    <path d="m 55.87,9.76 v 0 h 1.05 0.09 1.05 V 9.75 C 58.64,9.73 59.1,9.26 59.1,8.68 59.1,8.1 58.64,7.63 58.06,7.61 V 7.6 h -1.05 -0.09 -1.05 c -0.6,0 -1.08,0.48 -1.08,1.08 0,0.6 0.48,1.08 1.08,1.08 z"  gorn="0.2.0.0.0.4.0.0.0.8.0.0.0.0" fill="#a7a5a6" id="path7466"/>
                                                    <rect x="56.16"  gorn="0.2.0.0.0.4.0.0.0.8.0.0.0.1" fill="#806f5c" width="1.6" height="2.1600001" id="rect7468" y="7.5999999"/>
                                                </g>
                                            </g>
                                        </g>
                                    </g>
                                    <g  transform="matrix(0.75000001,0,0,0.75000001,32.265312,10.769308)">
                                        <g >
                                            <g >
                                                <g  gorn="0.2.0.0.0.4.0.0.0.9.0.0.0" id="Component_3b">
                                                    <path d="M 110.64,45.59 V 44.54 44.45 43.4 h -0.01 c -0.02,-0.58 -0.49,-1.04 -1.07,-1.04 -0.58,0 -1.05,0.46 -1.07,1.04 h -0.01 v 1.05 0.09 1.05 c 0,0.6 0.48,1.08 1.08,1.08 0.6,0 1.08,-0.48 1.08,-1.08 z"  gorn="0.2.0.0.0.4.0.0.0.9.0.0.0.0" fill="#a7a5a6" id="path7471"/>
                                                    <rect x="108.49"  gorn="0.2.0.0.0.4.0.0.0.9.0.0.0.1" fill="#806f5c" width="2.1600001" height="1.6" id="rect7473" y="43.709999"/>
                                                </g>
                                            </g>
                                        </g>
                                    </g>
                                    <g  transform="matrix(0.75000001,0,0,0.75000001,32.265312,10.769308)">
                                        <g >
                                            <g >
                                                <g  gorn="0.2.0.0.0.4.0.0.0.10.0.0.0" id="Component_3a">
                                                    <path d="m 111.1,14.73 v -1.05 -0.09 -1.05 h -0.01 c -0.02,-0.58 -0.49,-1.04 -1.07,-1.04 -0.58,0 -1.05,0.46 -1.07,1.04 h -0.01 v 1.05 0.09 1.05 c 0,0.6 0.48,1.08 1.08,1.08 0.6,0 1.08,-0.49 1.08,-1.08 z"  gorn="0.2.0.0.0.4.0.0.0.10.0.0.0.0" fill="#a7a5a6" id="path7476"/>
                                                    <rect x="108.95"  gorn="0.2.0.0.0.4.0.0.0.10.0.0.0.1" fill="#806f5c" width="2.1600001" height="1.6" id="rect7478" y="12.84"/>
                                                </g>
                                            </g>
                                        </g>
                                    </g>
                                    <g  transform="matrix(0.75000001,0,0,0.75000001,16.869685,8.9524324)">
                                        <g >
                                            <g >
                                                <g display="inline"  gorn="0.2.0.0.0.4.0.0.0.11.0.0.0" id="Component_2">
                                                    <rect x="37.73" display="inline"  gorn="0.2.0.0.0.4.0.0.0.11.0.0.0.0" fill="#806f5c" width="2.21" height="4.4299998" id="rect7481" y="21.68"/>
                                                    <rect x="37.73" display="inline"  gorn="0.2.0.0.0.4.0.0.0.11.0.0.0.1" fill="#b6b5b5" width="2.2" height="0.23" id="rect7483" y="21.68"/>
                                                    <rect x="37.73" display="inline"  gorn="0.2.0.0.0.4.0.0.0.11.0.0.0.2" fill="#b6b5b5" width="2.21" height="0.23" id="rect7485" y="25.879999"/>
                                                </g>
                                            </g>
                                        </g>
                                    </g>
                                    <g  transform="matrix(0.75000001,0,0,0.75000001,16.869685,8.9524324)">
                                        <g >
                                            <g >
                                                <g  gorn="0.2.0.0.0.4.0.0.0.12.0.0.0" id="Component_1"/>
                                            </g>
                                        </g>
                                    </g>
                                    <g  transform="matrix(0.75000001,0,0,0.75000001,32.265312,10.769308)">
                                        <g >
                                            <g >
                                                <g  gorn="0.2.0.0.0.4.0.0.0.13.0.0.0" id="LED_1_-_Vertical">
                                                    <rect x="104.78"  gorn="0.2.0.0.0.4.0.0.0.13.0.0.0.0" fill="#a7a5a6" width="2.6900001" height="6.7399998" id="rect7489" y="40.490002"/>
                                                    <path d="m 106.12,45.93 c -1.15,0 -2.07,-0.93 -2.07,-2.07 0,-1.15 0.93,-2.07 2.07,-2.07 1.14,0 2.07,0.93 2.07,2.07 0.01,1.14 -0.92,2.07 -2.07,2.07 z"  gorn="0.2.0.0.0.4.0.0.0.13.0.0.0.1" fill="#e3a100" id="path7491"/>
                                                </g>
                                            </g>
                                        </g>
                                    </g>
                                    <g  transform="matrix(0.75000001,0,0,0.75000001,32.265312,10.769308)">
                                        <g >
                                            <g >
                                                <g  gorn="0.2.0.0.0.4.0.0.0.14.0.0.0" id="LED_2_-_Vertical">
                                                    <rect x="104.78"  gorn="0.2.0.0.0.4.0.0.0.14.0.0.0.0" fill="#a7a5a6" width="2.6900001" height="6.7399998" id="rect7494" y="9.4700003"/>
                                                    <path d="m 106.12,14.91 c -1.15,0 -2.07,-0.93 -2.07,-2.07 0,-1.15 0.93,-2.07 2.07,-2.07 1.14,0 2.07,0.93 2.07,2.07 0.01,1.14 -0.92,2.07 -2.07,2.07 z"  gorn="0.2.0.0.0.4.0.0.0.14.0.0.0.1" fill="#e3a100" id="path7496"/>
                                                </g>
                                            </g>
                                        </g>
                                    </g>
                                    <g  transform="matrix(0.75000001,0,0,0.75000001,32.265312,10.769308)">
                                        <g >
                                            <g >
                                                <g  gorn="0.2.0.0.0.4.0.0.0.15.0.0.0" id="LED_-_Horizont"/>
                                            </g>
                                        </g>
                                    </g>
                                    <g  transform="matrix(0.75000001,0,0,0.75000001,32.265312,10.769308)">
                                        <g >
                                            <g >
                                                <g  gorn="0.2.0.0.0.4.0.0.0.16.0.0.0" id="Button9">
                                                    <polygon points="97.35,19.67 97.14,19.5 96.94,19.3 96.76,19.1 96.6,18.88 96.46,18.65 96.33,18.4 96.23,18.15 96.15,17.89 96.09,17.62 96.05,17.35 96.03,17.07 96.03,16.8 96.06,16.53 96.12,16.26 96.18,16 96.28,15.74 96.39,15.49 96.52,15.25 96.68,15.03 96.85,14.81 97.03,14.61 97.24,14.43 97.45,14.26 97.69,14.11 97.93,13.99 98.18,13.87 98.44,13.79 98.7,13.72 98.98,13.67 99.25,13.65 99.52,13.65 99.79,13.67 100.07,13.72 100.33,13.79 100.59,13.87 100.84,13.99 101.08,14.11 101.31,14.26 101.53,14.43 101.73,14.61 101.92,14.81 102.09,15.03 102.24,15.25 102.38,15.49 102.49,15.74 102.58,16 102.65,16.26 102.7,16.53 102.73,16.8 102.74,17.07 102.72,17.35 102.68,17.62 102.62,17.89 102.54,18.15 102.44,18.4 102.31,18.65 102.17,18.88 102,19.1 101.82,19.3 101.63,19.5 101.42,19.67 101.2,19.83 100.96,19.97 100.71,20.08 100.46,20.19 100.19,20.26 99.93,20.32 99.66,20.35 99.38,20.36 99.11,20.35 98.84,20.32 98.57,20.26 98.31,20.19 98.06,20.08 97.81,19.97 97.57,19.83 "  gorn="0.2.0.0.0.4.0.0.0.16.0.0.0.0" fill="#e5e4e4" id="Button_00000168092350940954358480000010261064727504523454_"/>
                                                    <rect x="96.940002"  gorn="0.2.0.0.0.4.0.0.0.16.0.0.0.1" fill="#a7a5a6" width="4.7600002" height="1.83" id="rect7501" y="22.33"/>
                                                    <rect x="96.940002"  gorn="0.2.0.0.0.4.0.0.0.16.0.0.0.2" fill="#a7a5a6" width="4.7600002" height="1.83" id="rect7503" y="10.22"/>
                                                    <path d="m 95.43,22.94 h 7.8 V 11.65 h -7.8 z m 6.63,-4.96 -0.09,0.21 -0.11,0.2 -0.12,0.2 -0.3,0.36 -0.16,0.16 -0.18,0.15 -0.19,0.13 -0.2,0.12 -0.2,0.11 -0.22,0.09 -0.22,0.07 -0.22,0.04 -0.22,0.03 -0.23,0.01 -0.23,-0.01 -0.23,-0.03 -0.22,-0.04 -0.22,-0.07 -0.21,-0.09 -0.21,-0.11 -0.2,-0.12 -0.18,-0.13 -0.18,-0.15 -0.16,-0.16 -0.16,-0.18 -0.14,-0.18 -0.12,-0.2 -0.11,-0.2 -0.09,-0.21 -0.07,-0.22 -0.04,-0.22 -0.04,-0.23 -0.01,-0.23 v -0.22 l 0.03,-0.24 0.04,-0.23 0.05,-0.21 0.09,-0.22 0.1,-0.21 0.11,-0.19 0.14,-0.2 0.14,-0.18 0.16,-0.17 0.17,-0.15 0.18,-0.15 0.2,-0.12 0.2,-0.11 0.21,-0.09 0.22,-0.08 0.22,-0.05 0.22,-0.04 0.23,-0.02 h 0.23 l 0.22,0.02 0.23,0.04 0.22,0.05 0.22,0.08 0.2,0.09 0.21,0.11 0.19,0.12 0.19,0.15 0.17,0.15 0.16,0.17 0.14,0.18 0.13,0.2 0.12,0.19 0.1,0.21 0.07,0.22 0.06,0.21 0.04,0.23 0.02,0.24 0.01,0.22 -0.02,0.23 -0.03,0.23 -0.05,0.22 z"  gorn="0.2.0.0.0.4.0.0.0.16.0.0.0.3" fill="#d3d2d2" id="Button_00000065789278106030889800000006798333804580109974_"/>
                                                </g>
                                            </g>
                                        </g>
                                    </g>
                                    <g  transform="matrix(0.75000001,0,0,0.75000001,32.265312,10.769308)">
                                        <g >
                                            <g >
                                                <g  gorn="0.2.0.0.0.4.0.0.0.17.0.0.0" id="Button8">
                                                    <polygon points="97.35,43.07 97.14,42.9 96.94,42.71 96.76,42.5 96.6,42.28 96.45,42.05 96.33,41.8 96.23,41.55 96.15,41.29 96.09,41.02 96.05,40.75 96.03,40.48 96.03,40.2 96.06,39.93 96.12,39.66 96.18,39.4 96.28,39.14 96.39,38.89 96.52,38.66 96.68,38.43 96.85,38.21 97.03,38.01 97.23,37.83 97.45,37.66 97.68,37.52 97.93,37.39 98.18,37.28 98.43,37.19 98.7,37.12 98.97,37.08 99.25,37.06 99.52,37.06 99.79,37.08 100.06,37.12 100.33,37.19 100.59,37.28 100.84,37.39 101.08,37.52 101.31,37.66 101.53,37.83 101.73,38.01 101.92,38.21 102.09,38.43 102.24,38.66 102.38,38.89 102.49,39.14 102.58,39.4 102.65,39.66 102.7,39.93 102.73,40.2 102.74,40.48 102.72,40.75 102.68,41.02 102.62,41.29 102.54,41.55 102.43,41.8 102.31,42.05 102.17,42.28 102,42.5 101.82,42.71 101.63,42.9 101.42,43.07 101.2,43.23 100.96,43.37 100.71,43.49 100.46,43.59 100.19,43.66 99.93,43.72 99.65,43.75 99.38,43.76 99.11,43.75 98.84,43.72 98.57,43.66 98.31,43.59 98.05,43.49 97.8,43.37 97.57,43.23 "  gorn="0.2.0.0.0.4.0.0.0.17.0.0.0.0" fill="#e5e4e4" id="Button_00000170248654812909759360000004965333836247625603_"/>
                                                    <path d="m 95.43,46.34 h 7.8 V 35.06 h -7.8 z m 6.63,-4.96 -0.09,0.21 -0.11,0.2 -0.12,0.2 -0.3,0.36 -0.16,0.16 -0.18,0.15 -0.19,0.13 -0.2,0.12 -0.2,0.11 -0.22,0.09 -0.22,0.07 -0.22,0.04 -0.22,0.03 L 99.4,43.26 99.17,43.25 98.94,43.22 98.72,43.18 98.5,43.11 98.29,43.02 98.08,42.91 97.88,42.79 97.7,42.66 97.52,42.51 97.36,42.35 97.2,42.17 97.02,42 96.9,41.8 96.79,41.6 96.7,41.39 96.63,41.17 96.59,40.95 96.55,40.72 96.54,40.49 v -0.22 l 0.03,-0.27 0.04,-0.23 0.05,-0.21 0.09,-0.22 0.1,-0.21 0.11,-0.19 0.14,-0.2 0.14,-0.18 0.16,-0.17 0.17,-0.15 0.18,-0.15 0.2,-0.12 0.2,-0.11 0.21,-0.09 0.22,-0.08 0.22,-0.05 0.22,-0.04 0.23,-0.02 h 0.23 l 0.22,0.02 0.23,0.04 0.22,0.05 0.22,0.08 0.2,0.09 0.21,0.11 0.19,0.12 0.19,0.15 0.17,0.15 0.16,0.17 0.14,0.18 0.13,0.2 0.12,0.19 0.1,0.21 0.07,0.22 0.06,0.21 0.09,0.23 0.02,0.24 0.01,0.22 -0.02,0.23 -0.03,0.23 -0.05,0.22 z"  gorn="0.2.0.0.0.4.0.0.0.17.0.0.0.1" fill="#d3d2d2" id="Button_00000176745442397173723240000006319832704224293520_"/>
                                                    <rect x="96.940002"  gorn="0.2.0.0.0.4.0.0.0.17.0.0.0.2" fill="#a7a5a6" width="4.7600002" height="1.83" id="rect7509" y="45.73"/>
                                                    <rect x="96.940002"  gorn="0.2.0.0.0.4.0.0.0.17.0.0.0.3" fill="#a7a5a6" width="4.7600002" height="1.83" id="rect7511" y="33.619999"/>
                                                </g>
                                            </g>
                                        </g>
                                    </g>
                                    <g  transform="matrix(0.75000001,0,0,0.75000001,32.265312,10.769308)">
                                        <g >
                                            <g >
                                                <g  gorn="0.2.0.0.0.4.0.0.0.18.0.0.0" id="Button7">
                                                    <polygon points="70.12,19.78 69.91,19.61 69.72,19.42 69.54,19.21 69.37,18.99 69.23,18.76 69.11,18.51 69.01,18.26 68.93,18 68.87,17.73 68.82,17.46 68.81,17.19 68.81,16.91 68.84,16.64 68.89,16.37 68.96,16.11 69.06,15.85 69.17,15.6 69.3,15.36 69.46,15.14 69.62,14.92 69.81,14.72 70.01,14.54 70.23,14.37 70.46,14.22 70.71,14.1 70.96,13.99 71.21,13.9 71.48,13.83 71.75,13.79 72.03,13.76 72.3,13.76 72.57,13.79 72.84,13.83 73.11,13.9 73.37,13.99 73.62,14.1 73.86,14.22 74.09,14.37 74.31,14.54 74.51,14.72 74.7,14.92 74.87,15.14 75.02,15.36 75.15,15.6 75.27,15.85 75.36,16.11 75.43,16.37 75.48,16.64 75.51,16.91 75.52,17.19 75.5,17.46 75.46,17.73 75.4,18 75.32,18.26 75.21,18.51 75.09,18.76 74.95,18.99 74.78,19.21 74.6,19.42 74.41,19.61 74.2,19.78 73.98,19.94 73.74,20.08 73.49,20.19 73.24,20.3 72.97,20.37 72.71,20.43 72.43,20.46 72.16,20.47 71.89,20.46 71.62,20.43 71.35,20.37 71.09,20.3 70.83,20.19 70.58,20.08 70.35,19.94 "  gorn="0.2.0.0.0.4.0.0.0.18.0.0.0.0" fill="#e5e4e4" id="Button_00000154407737648643459890000011881439570737506696_"/>
                                                    <rect x="69.720001"  gorn="0.2.0.0.0.4.0.0.0.18.0.0.0.1" fill="#a7a5a6" width="4.7600002" height="1.83" id="rect7515" y="22.440001"/>
                                                    <rect x="69.720001"  gorn="0.2.0.0.0.4.0.0.0.18.0.0.0.2" fill="#a7a5a6" width="4.7600002" height="1.83" id="rect7517" y="10.33"/>
                                                    <path d="M 68.21,23.05 H 76 V 11.76 h -7.8 v 11.29 z m 6.63,-4.96 -0.09,0.21 -0.11,0.2 -0.12,0.2 -0.3,0.36 -0.16,0.16 -0.18,0.15 -0.19,0.13 -0.2,0.12 -0.2,0.11 -0.22,0.09 -0.22,0.07 -0.22,0.04 -0.22,0.03 -0.23,0.01 L 71.95,19.96 71.72,19.93 71.5,19.89 71.28,19.82 71.07,19.73 70.86,19.62 70.66,19.5 70.48,19.37 70.3,19.22 70.14,19.06 69.98,18.88 69.84,18.7 69.72,18.5 69.61,18.3 69.52,18.09 69.45,17.87 69.41,17.65 69.37,17.42 69.36,17.19 v -0.22 l 0.03,-0.24 0.04,-0.23 0.05,-0.21 0.09,-0.22 0.1,-0.21 0.11,-0.19 0.14,-0.2 0.14,-0.18 0.16,-0.17 0.17,-0.15 0.18,-0.15 0.2,-0.12 0.2,-0.11 0.21,-0.09 0.22,-0.08 0.22,-0.05 0.22,-0.04 0.23,-0.02 h 0.23 l 0.22,0.02 0.23,0.04 0.22,0.05 0.22,0.08 0.2,0.09 0.21,0.11 0.19,0.12 0.19,0.15 0.17,0.15 0.16,0.17 0.14,0.18 0.13,0.2 0.12,0.19 0.1,0.21 0.07,0.22 0.06,0.21 0.04,0.23 0.03,0.22 0.01,0.22 -0.02,0.23 -0.03,0.23 -0.05,0.22 z"  gorn="0.2.0.0.0.4.0.0.0.18.0.0.0.3" fill="#d3d2d2" id="Button_00000182517183253793651050000008116103981496063410_"/>
                                                </g>
                                            </g>
                                        </g>
                                    </g>
                                    <g  transform="matrix(0.75000001,0,0,0.75000001,32.265312,10.769308)">
                                        <g >
                                            <g >
                                                <g  gorn="0.2.0.0.0.4.0.0.0.19.0.0.0" id="Button6">
                                                    <polygon points="56.28,19.49 56.07,19.32 55.87,19.13 55.69,18.92 55.53,18.7 55.38,18.47 55.26,18.22 55.16,17.97 55.08,17.71 55.02,17.44 54.98,17.17 54.96,16.9 54.96,16.62 54.99,16.35 55.05,16.08 55.11,15.82 55.21,15.56 55.32,15.31 55.45,15.08 55.61,14.85 55.78,14.63 55.96,14.43 56.16,14.25 56.38,14.08 56.61,13.94 56.86,13.81 57.11,13.7 57.36,13.61 57.63,13.54 57.9,13.5 58.18,13.48 58.45,13.48 58.72,13.5 58.99,13.54 59.26,13.61 59.52,13.7 59.77,13.81 60.01,13.94 60.24,14.08 60.46,14.25 60.66,14.43 60.85,14.63 61.02,14.85 61.17,15.08 61.3,15.31 61.42,15.56 61.51,15.82 61.58,16.08 61.63,16.35 61.66,16.62 61.67,16.9 61.65,17.17 61.61,17.44 61.55,17.71 61.47,17.97 61.36,18.22 61.24,18.47 61.1,18.7 60.93,18.92 60.75,19.13 60.56,19.32 60.35,19.49 60.13,19.65 59.89,19.79 59.64,19.91 59.39,20.01 59.12,20.08 58.86,20.14 58.58,20.17 58.31,20.18 58.04,20.17 57.77,20.14 57.5,20.08 57.24,20.01 56.98,19.91 56.73,19.79 56.5,19.65 "  gorn="0.2.0.0.0.4.0.0.0.19.0.0.0.0" fill="#e5e4e4" id="Button_00000132807437222145419140000009832760563670235582_"/>
                                                    <rect x="55.869999"  gorn="0.2.0.0.0.4.0.0.0.19.0.0.0.1" fill="#a7a5a6" width="4.7600002" height="1.83" id="rect7522" y="22.15"/>
                                                    <rect x="55.869999"  gorn="0.2.0.0.0.4.0.0.0.19.0.0.0.2" fill="#a7a5a6" width="4.7600002" height="1.83" id="rect7524" y="10.04"/>
                                                    <path d="m 54.36,22.76 h 7.8 V 11.48 h -7.8 z m 6.63,-4.96 -0.09,0.21 -0.11,0.2 -0.12,0.2 -0.3,0.36 -0.16,0.16 -0.18,0.15 -0.19,0.13 -0.2,0.12 -0.2,0.11 -0.22,0.09 -0.22,0.06 -0.22,0.04 -0.22,0.03 -0.23,0.01 L 58.1,19.66 57.87,19.63 57.65,19.59 57.43,19.52 57.22,19.43 57.01,19.32 56.81,19.2 56.63,19.07 56.45,18.92 56.29,18.76 56.13,18.58 55.99,18.4 55.87,18.2 55.76,18 55.67,17.79 55.6,17.57 55.56,17.35 55.52,17.12 55.51,16.89 v -0.22 l 0.03,-0.24 0.04,-0.23 0.05,-0.21 0.09,-0.22 0.1,-0.21 0.11,-0.19 0.14,-0.2 0.14,-0.18 0.16,-0.17 0.17,-0.15 0.18,-0.15 0.2,-0.12 0.2,-0.11 0.21,-0.09 0.22,-0.08 0.22,-0.05 0.19,-0.07 0.23,-0.02 h 0.23 l 0.24,0.02 0.23,0.04 0.22,0.05 0.22,0.08 0.2,0.09 0.21,0.11 0.19,0.12 0.19,0.15 0.17,0.15 0.16,0.17 0.14,0.18 0.13,0.2 0.12,0.19 0.1,0.21 0.07,0.22 0.06,0.21 0.04,0.23 0.02,0.24 0.01,0.22 -0.02,0.23 -0.03,0.23 -0.05,0.22 z"  gorn="0.2.0.0.0.4.0.0.0.19.0.0.0.3" fill="#d3d2d2" id="Button_00000083058909692141698200000008228166161708579475_"/>
                                                </g>
                                            </g>
                                        </g>
                                    </g>
                                    <g  transform="matrix(0.75000001,0,0,0.75000001,32.265312,10.769308)">
                                        <g >
                                            <g >
                                                <g  gorn="0.2.0.0.0.4.0.0.0.20.0.0.0" id="Button5">
                                                    <polygon points="83.79,42.89 83.58,42.72 83.39,42.53 83.21,42.32 83.04,42.1 82.9,41.87 82.78,41.63 82.68,41.37 82.6,41.11 82.54,40.84 82.49,40.57 82.48,40.3 82.48,40.03 82.51,39.76 82.56,39.48 82.63,39.22 82.73,38.96 82.84,38.72 82.97,38.48 83.13,38.25 83.29,38.03 83.48,37.84 83.68,37.65 83.9,37.48 84.13,37.34 84.38,37.21 84.63,37.1 84.88,37.01 85.15,36.95 85.42,36.9 85.7,36.88 85.97,36.88 86.24,36.9 86.51,36.95 86.78,37.01 87.04,37.1 87.29,37.21 87.53,37.34 87.76,37.48 87.98,37.65 88.18,37.84 88.37,38.03 88.54,38.25 88.69,38.48 88.82,38.72 88.94,38.96 89.03,39.22 89.1,39.48 89.15,39.76 89.18,40.03 89.19,40.3 89.17,40.57 89.13,40.84 89.06,41.11 88.99,41.37 88.88,41.63 88.76,41.87 88.62,42.1 88.45,42.32 88.27,42.53 88.08,42.72 87.87,42.89 87.65,43.05 87.41,43.19 87.16,43.31 86.9,43.41 86.64,43.49 86.38,43.54 86.1,43.57 85.83,43.59 85.56,43.57 85.29,43.54 85.02,43.49 84.76,43.41 84.5,43.31 84.25,43.19 84.02,43.05 "  gorn="0.2.0.0.0.4.0.0.0.20.0.0.0.0" fill="#e5e4e4" id="Button_00000106846647897652931240000012420341060750642355_"/>
                                                    <rect x="83.389999"  gorn="0.2.0.0.0.4.0.0.0.20.0.0.0.1" fill="#a7a5a6" width="4.7600002" height="1.83" id="rect7529" y="45.549999"/>
                                                    <rect x="83.389999"  gorn="0.2.0.0.0.4.0.0.0.20.0.0.0.2" fill="#a7a5a6" width="4.7600002" height="1.83" id="rect7531" y="33.439999"/>
                                                    <path d="m 81.88,46.16 h 7.8 V 34.88 h -7.8 z m 6.63,-4.96 -0.09,0.21 -0.11,0.2 -0.12,0.2 -0.3,0.36 -0.16,0.16 -0.18,0.15 -0.19,0.13 -0.2,0.12 -0.2,0.11 -0.22,0.09 L 86.52,43 86.3,43.04 86.08,43.07 85.85,43.08 85.62,43.07 85.39,43.04 85.14,43 84.92,42.93 84.71,42.84 84.5,42.73 84.3,42.61 84.12,42.48 83.94,42.33 83.78,42.17 83.6,42 83.46,41.82 83.34,41.62 83.23,41.42 83.14,41.21 83.07,40.99 83.03,40.77 83,40.52 82.99,40.29 v -0.22 l 0.03,-0.24 0.04,-0.23 0.05,-0.21 0.09,-0.22 0.1,-0.21 0.11,-0.19 0.14,-0.2 0.14,-0.18 0.16,-0.17 0.17,-0.15 0.18,-0.15 0.2,-0.12 0.2,-0.11 0.21,-0.09 0.22,-0.08 0.22,-0.05 0.22,-0.04 0.23,-0.02 h 0.23 l 0.22,0.02 0.23,0.04 0.22,0.05 0.22,0.08 0.2,0.09 0.21,0.11 0.19,0.12 0.19,0.15 0.17,0.15 0.16,0.17 0.14,0.18 0.13,0.2 0.12,0.19 0.1,0.21 0.07,0.22 0.06,0.21 0.04,0.23 0.02,0.24 0.01,0.22 -0.02,0.23 -0.03,0.23 -0.05,0.22 z"  gorn="0.2.0.0.0.4.0.0.0.20.0.0.0.3" fill="#d3d2d2" id="Button_00000034779851029771346010000015022816985456299415_"/>
                                                </g>
                                            </g>
                                        </g>
                                    </g>
                                    <g  transform="matrix(0.75000001,0,0,0.75000001,32.265312,10.769308)">
                                        <g >
                                            <g >
                                                <g  gorn="0.2.0.0.0.4.0.0.0.21.0.0.0" id="Button4">
                                                    <polygon points="70.18,42.72 69.97,42.55 69.78,42.35 69.6,42.14 69.43,41.93 69.29,41.7 69.17,41.45 69.07,41.2 68.99,40.94 68.92,40.67 68.88,40.4 68.87,40.12 68.87,39.85 68.9,39.58 68.95,39.31 69.02,39.05 69.12,38.79 69.23,38.54 69.36,38.3 69.51,38.08 69.68,37.86 69.87,37.66 70.07,37.48 70.29,37.31 70.52,37.16 70.77,37.04 71.02,36.92 71.27,36.84 71.54,36.77 71.81,36.72 72.09,36.7 72.36,36.7 72.63,36.72 72.9,36.77 73.17,36.84 73.42,36.92 73.67,37.04 73.92,37.16 74.15,37.31 74.37,37.48 74.57,37.66 74.76,37.86 74.93,38.08 75.08,38.3 75.21,38.54 75.32,38.79 75.42,39.05 75.49,39.31 75.54,39.58 75.57,39.85 75.58,40.12 75.56,40.4 75.52,40.67 75.45,40.94 75.38,41.2 75.27,41.45 75.15,41.7 75.01,41.93 74.84,42.14 74.66,42.35 74.47,42.55 74.26,42.72 74.04,42.88 73.8,43.02 73.55,43.13 73.29,43.23 73.03,43.31 72.77,43.36 72.49,43.4 72.22,43.41 71.95,43.4 71.67,43.36 71.41,43.31 71.15,43.23 70.89,43.13 70.64,43.02 70.4,42.88 "  gorn="0.2.0.0.0.4.0.0.0.21.0.0.0.0" fill="#e5e4e4" id="Button_00000009574596203922438320000016856972636146397080_"/>
                                                    <rect x="69.779999"  gorn="0.2.0.0.0.4.0.0.0.21.0.0.0.1" fill="#a7a5a6" width="4.7600002" height="1.83" id="rect7536" y="45.369999"/>
                                                    <rect x="69.779999"  gorn="0.2.0.0.0.4.0.0.0.21.0.0.0.2" fill="#a7a5a6" width="4.7600002" height="1.83" id="rect7538" y="33.259998"/>
                                                    <path d="m 68.27,45.99 h 7.8 V 34.7 h -7.8 z m 6.63,-4.96 -0.09,0.21 -0.11,0.2 -0.12,0.2 -0.3,0.36 -0.16,0.16 -0.18,0.15 -0.19,0.13 -0.2,0.12 -0.2,0.11 -0.22,0.09 -0.22,0.07 -0.22,0.04 -0.22,0.03 -0.23,0.01 L 72.01,42.9 71.78,42.87 71.56,42.83 71.34,42.76 71.13,42.67 70.92,42.56 70.72,42.44 70.54,42.31 70.36,42.16 70.2,42 70.04,41.82 69.9,41.64 l -0.12,-0.2 -0.11,-0.2 -0.09,-0.21 -0.07,-0.22 -0.04,-0.22 -0.04,-0.23 -0.01,-0.23 v -0.22 l 0.03,-0.24 0.04,-0.23 0.05,-0.21 0.09,-0.22 0.1,-0.21 0.11,-0.19 0.14,-0.2 0.14,-0.18 0.16,-0.17 0.17,-0.15 0.18,-0.15 0.2,-0.12 0.2,-0.11 0.21,-0.09 0.22,-0.08 0.22,-0.05 0.22,-0.04 0.23,-0.02 h 0.23 l 0.22,0.02 0.23,0.04 0.22,0.05 0.22,0.08 0.2,0.09 0.21,0.11 0.19,0.12 0.19,0.15 0.17,0.15 0.16,0.17 0.14,0.18 0.13,0.2 0.12,0.19 0.1,0.21 0.07,0.22 0.07,0.19 0.04,0.23 0.02,0.24 0.01,0.22 -0.02,0.23 -0.03,0.23 -0.05,0.22 z"  gorn="0.2.0.0.0.4.0.0.0.21.0.0.0.3" fill="#d3d2d2" id="Button_00000016063383604599680640000001139745879805398453_"/>
                                                </g>
                                            </g>
                                        </g>
                                    </g>
                                    <g  transform="matrix(0.75000001,0,0,0.75000001,32.265312,10.769308)">
                                        <g >
                                            <g >
                                                <g  gorn="0.2.0.0.0.4.0.0.0.22.0.0.0" id="Button3">
                                                    <polygon points="56.27,42.54 56.06,42.37 55.87,42.18 55.69,41.97 55.52,41.75 55.38,41.52 55.26,41.27 55.16,41.02 55.08,40.76 55.02,40.49 54.97,40.22 54.96,39.95 54.96,39.67 54.99,39.4 55.04,39.13 55.11,38.87 55.21,38.61 55.32,38.36 55.45,38.13 55.61,37.9 55.77,37.68 55.96,37.48 56.16,37.3 56.38,37.13 56.61,36.98 56.86,36.86 57.11,36.75 57.36,36.66 57.63,36.59 57.9,36.55 58.18,36.53 58.45,36.53 58.72,36.55 58.99,36.59 59.26,36.66 59.52,36.75 59.77,36.86 60.01,36.98 60.24,37.13 60.46,37.3 60.66,37.48 60.85,37.68 61.02,37.9 61.17,38.13 61.3,38.36 61.42,38.61 61.51,38.87 61.58,39.13 61.63,39.4 61.66,39.67 61.67,39.95 61.65,40.22 61.61,40.49 61.54,40.76 61.47,41.02 61.36,41.27 61.24,41.52 61.1,41.75 60.93,41.97 60.75,42.18 60.56,42.37 60.35,42.54 60.13,42.7 59.89,42.84 59.64,42.95 59.38,43.06 59.12,43.13 58.86,43.19 58.58,43.22 58.31,43.23 58.04,43.22 57.77,43.19 57.5,43.13 57.24,43.06 56.98,42.95 56.73,42.84 56.5,42.7 "  gorn="0.2.0.0.0.4.0.0.0.22.0.0.0.0" fill="#e5e4e4" id="Button_00000051358096181670616460000002857729349492436897_"/>
                                                    <rect x="55.869999"  gorn="0.2.0.0.0.4.0.0.0.22.0.0.0.1" fill="#a7a5a6" width="4.7600002" height="1.83" id="rect7543" y="45.200001"/>
                                                    <rect x="55.869999"  gorn="0.2.0.0.0.4.0.0.0.22.0.0.0.2" fill="#a7a5a6" width="4.7600002" height="1.83" id="rect7545" y="33.09"/>
                                                    <path d="m 54.36,45.81 h 7.8 V 34.52 h -7.8 z m 6.63,-4.96 -0.09,0.21 -0.11,0.2 -0.12,0.2 -0.3,0.36 -0.16,0.16 -0.18,0.15 -0.19,0.13 -0.2,0.12 -0.2,0.11 -0.22,0.09 -0.22,0.06 -0.22,0.04 -0.22,0.03 -0.23,0.01 -0.23,-0.01 -0.23,-0.03 -0.22,-0.04 -0.22,-0.07 -0.21,-0.09 -0.21,-0.11 -0.2,-0.12 -0.18,-0.13 -0.18,-0.15 -0.16,-0.16 -0.16,-0.18 -0.14,-0.18 -0.12,-0.2 -0.11,-0.2 -0.09,-0.21 -0.07,-0.22 -0.04,-0.22 -0.04,-0.23 -0.01,-0.23 v -0.22 l 0.03,-0.24 0.04,-0.23 0.05,-0.21 0.09,-0.22 0.1,-0.21 0.11,-0.19 0.14,-0.2 0.14,-0.18 0.16,-0.17 0.17,-0.15 0.18,-0.15 0.2,-0.12 0.2,-0.11 0.21,-0.09 0.22,-0.08 0.22,-0.05 0.22,-0.04 0.23,-0.02 h 0.23 l 0.22,0.02 0.23,0.04 0.22,0.05 0.22,0.08 0.2,0.09 0.21,0.11 0.19,0.12 0.19,0.15 0.17,0.15 0.16,0.17 0.14,0.18 0.13,0.2 0.12,0.19 0.1,0.21 0.07,0.22 0.06,0.21 0.04,0.23 0.02,0.24 0.01,0.22 -0.02,0.23 -0.03,0.23 -0.05,0.22 z"  gorn="0.2.0.0.0.4.0.0.0.22.0.0.0.3" fill="#d3d2d2" id="Button_00000113320742954851095120000006802133257735095454_"/>
                                                </g>
                                            </g>
                                        </g>
                                    </g>
                                    <g  transform="matrix(0.75000001,0,0,0.75000001,32.265312,10.769308)">
                                        <g >
                                            <g >
                                                <g  gorn="0.2.0.0.0.4.0.0.0.23.0.0.0" id="Button2">
                                                    <polygon points="38.2,31.73 37.99,31.55 37.79,31.36 37.61,31.15 37.45,30.94 37.3,30.7 37.18,30.46 37.08,30.2 37,29.94 36.94,29.68 36.89,29.4 36.88,29.13 36.88,28.86 36.91,28.59 36.97,28.31 37.03,28.05 37.13,27.8 37.24,27.55 37.37,27.31 37.53,27.08 37.69,26.86 37.88,26.67 38.08,26.48 38.3,26.31 38.53,26.17 38.78,26.04 39.03,25.93 39.28,25.84 39.55,25.78 39.82,25.73 40.1,25.71 40.37,25.71 40.64,25.73 40.91,25.78 41.18,25.84 41.44,25.93 41.69,26.04 41.93,26.17 42.16,26.31 42.38,26.48 42.58,26.67 42.77,26.86 42.94,27.08 43.09,27.31 43.22,27.55 43.34,27.8 43.43,28.05 43.5,28.31 43.55,28.59 43.58,28.86 43.59,29.13 43.57,29.4 43.53,29.68 43.47,29.94 43.39,30.2 43.28,30.46 43.16,30.7 43.02,30.94 42.85,31.15 42.67,31.36 42.48,31.55 42.27,31.73 42.05,31.89 41.81,32.03 41.56,32.14 41.31,32.24 41.04,32.32 40.78,32.37 40.5,32.41 40.23,32.42 39.96,32.41 39.69,32.37 39.42,32.32 39.16,32.24 38.9,32.14 38.65,32.03 38.42,31.89 "  gorn="0.2.0.0.0.4.0.0.0.23.0.0.0.0" fill="#e5e4e4" id="Button_00000160906876192539561360000013519521810963281848_"/>
                                                    <rect x="37.790001"  gorn="0.2.0.0.0.4.0.0.0.23.0.0.0.1" fill="#a7a5a6" width="4.7600002" height="1.83" id="rect7550" y="34.380001"/>
                                                    <rect x="37.790001"  gorn="0.2.0.0.0.4.0.0.0.23.0.0.0.2" fill="#a7a5a6" width="4.7600002" height="1.83" id="rect7552" y="22.27"/>
                                                    <path d="m 36.28,34.99 h 7.8 V 23.71 h -7.8 z m 6.63,-4.96 -0.09,0.21 -0.11,0.2 -0.12,0.2 -0.3,0.36 -0.16,0.16 -0.18,0.15 -0.19,0.13 -0.2,0.12 -0.2,0.11 -0.22,0.09 -0.22,0.07 -0.22,0.04 -0.22,0.03 -0.23,0.01 L 40,31.9 39.77,31.87 39.55,31.83 39.33,31.76 39.12,31.67 38.91,31.56 38.71,31.44 38.53,31.31 38.35,31.16 38.19,31 38.03,30.82 37.89,30.64 37.77,30.44 37.66,30.24 37.57,30.03 37.5,29.81 37.46,29.59 37.42,29.36 37.41,29.13 v -0.22 l 0.03,-0.24 0.04,-0.23 0.05,-0.21 0.09,-0.22 0.1,-0.21 0.11,-0.19 0.14,-0.2 0.14,-0.18 0.16,-0.17 0.17,-0.15 0.18,-0.15 0.2,-0.12 0.18,-0.14 0.21,-0.09 0.22,-0.08 0.22,-0.05 0.22,-0.04 0.23,-0.02 h 0.23 l 0.22,0.02 0.23,0.04 0.22,0.05 0.22,0.08 0.2,0.09 0.21,0.11 0.19,0.12 0.19,0.15 0.17,0.15 0.16,0.17 0.14,0.18 0.13,0.2 0.12,0.19 0.1,0.21 0.07,0.22 0.06,0.21 0.04,0.23 0.02,0.24 0.01,0.22 -0.02,0.23 -0.03,0.23 -0.05,0.22 z"  gorn="0.2.0.0.0.4.0.0.0.23.0.0.0.3" fill="#d3d2d2" id="Button_00000015355519840663217630000015725081487666944157_"/>
                                                </g>
                                            </g>
                                        </g>
                                    </g>
                                    <g  transform="matrix(0.75000001,0,0,0.75000001,32.265312,10.769308)">
                                        <g >
                                            <g >
                                                <g  gorn="0.2.0.0.0.4.0.0.0.24.0.0.0" id="Button1_00000131359352184831346130000009797143451145243318_">
                                                    <polygon points="83.74,19.78 83.53,19.61 83.33,19.42 83.15,19.21 82.99,18.99 82.84,18.76 82.72,18.51 82.62,18.26 82.54,18 82.48,17.73 82.44,17.46 82.42,17.19 82.42,16.91 82.45,16.64 82.51,16.37 82.57,16.11 82.67,15.85 82.78,15.6 82.91,15.36 83.07,15.14 83.24,14.92 83.42,14.72 83.62,14.54 83.84,14.37 84.07,14.22 84.32,14.1 84.57,13.99 84.82,13.9 85.09,13.83 85.36,13.79 85.64,13.76 85.91,13.76 86.18,13.79 86.45,13.83 86.72,13.9 86.98,13.99 87.23,14.1 87.47,14.22 87.7,14.37 87.92,14.54 88.12,14.72 88.31,14.92 88.48,15.14 88.63,15.36 88.77,15.6 88.88,15.85 88.97,16.11 89.04,16.37 89.09,16.64 89.12,16.91 89.13,17.19 89.11,17.46 89.07,17.73 89.01,18 88.93,18.26 88.82,18.51 88.7,18.76 88.56,18.99 88.39,19.21 88.21,19.42 88.02,19.61 87.81,19.78 87.59,19.94 87.35,20.08 87.1,20.19 86.85,20.3 86.58,20.37 86.32,20.43 86.04,20.46 85.77,20.47 85.5,20.46 85.23,20.43 84.96,20.37 84.7,20.3 84.44,20.19 84.19,20.08 83.96,19.94 "  gorn="0.2.0.0.0.4.0.0.0.24.0.0.0.0" fill="#e5e4e4" id="Button_00000003065050541735278520000006101015267682247602_"/>
                                                    <rect x="83.330002"  gorn="0.2.0.0.0.4.0.0.0.24.0.0.0.1" fill="#a7a5a6" width="4.7600002" height="1.83" id="rect7557" y="22.440001"/>
                                                    <rect x="83.330002"  gorn="0.2.0.0.0.4.0.0.0.24.0.0.0.2" fill="#a7a5a6" width="4.7600002" height="1.83" id="rect7559" y="10.33"/>
                                                    <path d="m 81.82,23.05 h 7.8 V 11.76 h -7.8 z m 6.63,-4.96 -0.09,0.21 -0.11,0.2 -0.12,0.2 -0.3,0.36 -0.16,0.16 -0.18,0.15 -0.19,0.13 -0.2,0.12 -0.2,0.11 -0.22,0.09 -0.22,0.07 -0.22,0.04 -0.22,0.03 -0.23,0.01 -0.23,-0.01 -0.23,-0.03 -0.22,-0.04 -0.22,-0.07 -0.21,-0.09 -0.21,-0.11 -0.2,-0.12 -0.18,-0.13 -0.18,-0.15 -0.16,-0.16 -0.16,-0.18 -0.14,-0.18 -0.12,-0.2 -0.11,-0.2 -0.09,-0.21 -0.07,-0.22 -0.04,-0.22 -0.04,-0.23 -0.01,-0.23 V 16.97 L 83,16.73 v -0.25 l 0.05,-0.21 0.09,-0.22 0.1,-0.21 0.11,-0.19 0.14,-0.2 0.14,-0.18 0.16,-0.17 0.17,-0.15 0.18,-0.15 0.2,-0.12 0.2,-0.11 0.21,-0.09 0.22,-0.08 0.22,-0.05 0.22,-0.04 0.23,-0.02 h 0.23 l 0.22,0.02 0.23,0.04 0.22,0.05 0.22,0.08 0.2,0.09 0.21,0.11 0.19,0.12 0.19,0.15 0.17,0.15 0.16,0.17 0.14,0.18 0.13,0.2 0.12,0.19 0.1,0.21 0.07,0.22 0.06,0.21 0.04,0.23 0.02,0.24 0.01,0.22 -0.02,0.23 -0.03,0.23 -0.05,0.22 z"  gorn="0.2.0.0.0.4.0.0.0.24.0.0.0.3" fill="#d3d2d2" id="Button_00000158009702739574897930000006508653051517457851_"/>
                                                </g>
                                            </g>
                                        </g>
                                    </g>
                                </g>
                            </g>
                        </g>
                    </g>
                </g>
            </g>
        </g>
    </g>
</svg>
