<?xml version="1.0" encoding="utf-8"?>
<!-- Generator: Adobe Illustrator 16.0.0, SVG Export Plug-In . SVG Version: 6.00 Build 0)  -->
<!DOCTYPE svg PUBLIC "-//W3C//DTD SVG 1.1//EN" "http://www.w3.org/Graphics/SVG/1.1/DTD/svg11.dtd">
<svg version="1.1" id="Layer_1" xmlns="http://www.w3.org/2000/svg" xmlns:xlink="http://www.w3.org/1999/xlink" x="0px" y="0px"
	 width="8.504px" height="11.338px" viewBox="0 0 8.504 11.338" enable-background="new 0 0 8.504 11.338" xml:space="preserve">
<g id="breadboard" transform="matrix(26.5941, 0, 0, 21.6802, 26.9369, 78.0798)">
	<rect id="rect13688_5_" x="-0.938" y="-3.393" fill="#222222" width="0.171" height="0.105"/>
	<rect x="-0.938" y="-3.393" fill="#BBBBBB" width="0.032" height="0.105"/>
	<rect x="-0.8" y="-3.393" fill="#BBBBBB" width="0.032" height="0.105"/>
	<rect id="connector1pin" x="-0.937" y="-3.393" fill="none" width="0.028" height="0.105"/>
	<rect id="connector0pin" x="-0.799" y="-3.392" fill="none" width="0.029" height="0.105"/>
	<g>
		<g>
			<path fill="#FFFFFF" d="M-0.893-3.362h0.013c0.002,0,0.003,0.001,0.004,0.003c0.001,0.002,0.002,0.004,0.002,0.006v0.003
				c0,0.002-0.001,0.004-0.002,0.006c-0.001,0.002-0.003,0.003-0.004,0.003h-0.002l0.008,0.02c0,0,0,0.001,0,0.001
				c0,0,0,0.001,0,0.001c0,0.001,0,0.001-0.001,0.002c0,0.001-0.001,0.001-0.001,0.001c0,0-0.001,0-0.001,0
				c0,0-0.001-0.001-0.001-0.001l-0.009-0.023h-0.003v0.021c0,0.001,0,0.002-0.001,0.002c0,0.001-0.001,0.001-0.001,0.001
				c-0.001,0-0.001,0-0.001-0.001c0-0.001-0.001-0.001-0.001-0.002V-3.362z M-0.889-3.356v0.009h0.01c0.001,0,0.001,0,0.001-0.001
				c0-0.001,0.001-0.001,0.001-0.002v-0.003c0-0.001,0-0.001-0.001-0.002c0-0.001-0.001-0.001-0.001-0.001H-0.889z"/>
			<path fill="#FFFFFF" d="M-0.869-3.362h0.002c0.001,0,0.001,0,0.002,0.001s0.001,0.001,0.001,0.002c0,0.001,0,0.001-0.001,0.002
				c0,0.001-0.001,0.001-0.001,0.001v0.019h0.011c0.001,0,0.002,0.001,0.003,0.002c0.001,0.001,0.001,0.003,0.001,0.005v0.008
				c0,0.002,0,0.004-0.001,0.005c-0.001,0.001-0.002,0.002-0.003,0.002h-0.011c-0.001,0-0.002-0.001-0.003-0.002
				C-0.87-3.32-0.871-3.321-0.871-3.323v-0.035c0-0.001,0-0.002,0.001-0.002C-0.87-3.361-0.869-3.362-0.869-3.362z M-0.867-3.331
				v0.009h0.012v-0.009H-0.867z"/>
			<path fill="#FFFFFF" d="M-0.845-3.362h0.011c0.001,0,0.002,0.001,0.003,0.002c0.001,0.001,0.001,0.003,0.001,0.005v0.032
				c0,0.002,0,0.004-0.001,0.005c-0.001,0.001-0.002,0.002-0.003,0.002h-0.011c-0.001,0-0.002-0.001-0.003-0.002
				C-0.848-3.32-0.849-3.321-0.849-3.323v-0.032c0-0.002,0-0.004,0.001-0.005C-0.847-3.361-0.846-3.362-0.845-3.362z M-0.845-3.356
				v0.033h0.012v-0.033H-0.845z"/>
			<path fill="#FFFFFF" d="M-0.825-3.362h0.013c0.001,0,0.002,0.001,0.003,0.002c0.001,0.001,0.001,0.003,0.001,0.004v0.011
				c0,0.001,0,0.002,0,0.003c0,0.001-0.001,0.002-0.001,0.003c0,0.001,0.001,0.002,0.001,0.003c0,0.001,0,0.002,0,0.003v0.011
				c0,0.002,0,0.003-0.001,0.004C-0.809-3.317-0.81-3.317-0.811-3.317h-0.013c-0.001,0-0.001,0-0.002-0.001
				c0-0.001-0.001-0.001-0.001-0.002c0-0.001,0-0.002,0.001-0.002s0.001-0.001,0.002-0.001h0.013v-0.011
				c0-0.001,0-0.001-0.001-0.002c0-0.001-0.001-0.001-0.001-0.001h-0.007c-0.001,0-0.001,0-0.002-0.001
				c0-0.001-0.001-0.001-0.001-0.002c0-0.001,0-0.002,0.001-0.002c0-0.001,0.001-0.001,0.002-0.001h0.007
				c0.001,0,0.001,0,0.001-0.001c0-0.001,0.001-0.001,0.001-0.002v-0.011h-0.013c-0.001,0-0.001,0-0.002-0.001
				c0-0.001-0.001-0.001-0.001-0.002c0-0.001,0-0.002,0.001-0.002S-0.825-3.362-0.825-3.362z"/>
		</g>
	</g>
</g>
</svg>
