<?xml version='1.0' encoding='UTF-8' standalone='no'?>
<svg
  xmlns:dc="http://purl.org/dc/elements/1.1/"
  xmlns:cc="http://creativecommons.org/ns#"
  xmlns:rdf="http://www.w3.org/1999/02/22-rdf-syntax-ns#"
  xmlns:svg="http://www.w3.org/2000/svg"
  xmlns="http://www.w3.org/2000/svg"
  height="2.7709587in"
  version="1.2"
  viewBox="0 0 204.44609 2770.9595"
  gorn="0"
  id="svg2"
  x="0in"
  width="0.20444603in"
  y="0in">
  <metadata
    id="metadata265">
    <rdf:RDF>
      <cc:Work
        rdf:about="">
        <dc:format>image/svg+xml</dc:format>
        <dc:type
          rdf:resource="http://purl.org/dc/dcmitype/StillImage"
        />
        <dc:title/>
      </cc:Work>
    </rdf:RDF>
  </metadata>
  <defs
    id="defs263"
  />
  <desc
    id="desc2">
    <referenceFile>DTM13-12PA-12PB-R008_1_schematic.svg</referenceFile>
  </desc>
  <g
    id="schematic">
    <text
      transform="scale(1.0000013,0.9999987)"
      y="2724.7234"
      x="73.826988"
      class="text"
      font-size="34.72237778"
      id="text127"
      font-family="'Droid Sans'"
      text-anchor="middle"
      fill="#8c8c8c"
      stroke="none"
      stroke-width="0">24</text>
    <line
      x2="70.410408"
      id="line125"
      gorn="0.0.113"
      x1="144.10527"
      y1="2738.8896"
      y2="2738.8896"
      fill="none"
      stroke="#000000"
      stroke-width="10"
      stroke-linecap="round"
      stroke-linejoin="round"
    />
    <polyline
      transform="matrix(13.888967,0,0,13.888932,3.6877983,488.881)"
      points="14.1,163.957 9.928,162 14.1,160.043"
      id="polyline123"
      fill="none"
      stroke="#000000"
      stroke-width="0.69999999"
      stroke-linecap="round"
      stroke-linejoin="round"
    />
    <polyline
      id="polyline6"
      points="14.1,5.557 9.928,3.6 14.1,1.643"
      transform="matrix(13.888967,0,0,13.888932,3.6877983,-11.049864)"
      fill="none"
      stroke="#000000"
      stroke-width="0.69999999"
      stroke-linecap="round"
      stroke-linejoin="round"
    />
    <line
      y2="38.951542"
      y1="38.951542"
      x1="144.10527"
      gorn="0.0.3"
      id="line"
      x2="70.410408"
      fill="none"
      stroke="#000000"
      stroke-width="10"
      stroke-linecap="round"
      stroke-linejoin="round"
    />
    <text
      id="text9"
      font-size="34.72237778"
      class="text"
      x="73.826988"
      y="24.787167"
      transform="scale(1.0000013,0.9999987)"
      font-family="'Droid Sans'"
      text-anchor="middle"
      fill="#8c8c8c"
      stroke="none"
      stroke-width="0">1</text>
    <polyline
      id="polyline13"
      points="14.1,12.757 9.928,10.8 14.1,8.843"
      transform="matrix(13.888967,0,0,13.888932,3.6877983,-11.049864)"
      fill="none"
      stroke="#000000"
      stroke-width="0.69999999"
      stroke-linecap="round"
      stroke-linejoin="round"
    />
    <line
      y2="138.9523"
      y1="138.9523"
      x1="144.10527"
      gorn="0.0.8"
      id="line15"
      x2="70.410408"
      fill="none"
      stroke="#000000"
      stroke-width="10"
      stroke-linecap="round"
      stroke-linejoin="round"
    />
    <text
      id="text17"
      font-size="34.72237778"
      class="text"
      x="73.826988"
      y="124.78456"
      transform="scale(1.0000013,0.9999987)"
      font-family="'Droid Sans'"
      text-anchor="middle"
      fill="#8c8c8c"
      stroke="none"
      stroke-width="0">2</text>
    <polyline
      id="polyline21"
      points="14.1,19.957 9.928,18 14.1,16.043"
      transform="matrix(13.888967,0,0,13.888932,3.6877983,-11.049864)"
      fill="none"
      stroke="#000000"
      stroke-width="0.69999999"
      stroke-linecap="round"
      stroke-linejoin="round"
    />
    <line
      y2="238.94965"
      y1="238.94965"
      x1="144.10527"
      gorn="0.0.13"
      id="line23"
      x2="70.410408"
      fill="none"
      stroke="#000000"
      stroke-width="10"
      stroke-linecap="round"
      stroke-linejoin="round"
    />
    <text
      id="text25"
      font-size="34.72237778"
      class="text"
      x="73.826988"
      y="224.78195"
      transform="scale(1.0000013,0.9999987)"
      font-family="'Droid Sans'"
      text-anchor="middle"
      fill="#8c8c8c"
      stroke="none"
      stroke-width="0">3</text>
    <polyline
      id="polyline29"
      points="14.1,27.157 9.928,25.2 14.1,23.243"
      transform="matrix(13.888967,0,0,13.888932,3.6877983,-11.049864)"
      fill="none"
      stroke="#000000"
      stroke-width="0.69999999"
      stroke-linecap="round"
      stroke-linejoin="round"
    />
    <line
      y2="338.9538"
      y1="338.9538"
      x1="144.10527"
      gorn="0.0.18"
      id="line31"
      x2="70.410408"
      fill="none"
      stroke="#000000"
      stroke-width="10"
      stroke-linecap="round"
      stroke-linejoin="round"
    />
    <text
      id="text33"
      font-size="34.72237778"
      class="text"
      x="73.826988"
      y="324.78299"
      transform="scale(1.0000013,0.9999987)"
      font-family="'Droid Sans'"
      text-anchor="middle"
      fill="#8c8c8c"
      stroke="none"
      stroke-width="0">4</text>
    <polyline
      id="polyline37"
      points="14.1,34.357 9.928,32.4 14.1,30.443"
      transform="matrix(13.888967,0,0,13.888932,3.6877983,-11.049864)"
      fill="none"
      stroke="#000000"
      stroke-width="0.69999999"
      stroke-linecap="round"
      stroke-linejoin="round"
    />
    <line
      y2="438.95459"
      y1="438.95459"
      x1="144.10527"
      gorn="0.0.23"
      id="line39"
      x2="70.410408"
      fill="none"
      stroke="#000000"
      stroke-width="10"
      stroke-linecap="round"
      stroke-linejoin="round"
    />
    <text
      id="text41"
      font-size="34.72237778"
      class="text"
      x="73.826988"
      y="424.78769"
      transform="scale(1.0000013,0.9999987)"
      font-family="'Droid Sans'"
      text-anchor="middle"
      fill="#8c8c8c"
      stroke="none"
      stroke-width="0">5</text>
    <polyline
      id="polyline45"
      points="14.1,41.557 9.928,39.6 14.1,37.643"
      transform="matrix(13.888967,0,0,13.888932,3.6877983,-11.049864)"
      fill="none"
      stroke="#000000"
      stroke-width="0.69999999"
      stroke-linecap="round"
      stroke-linejoin="round"
    />
    <line
      y2="538.95538"
      y1="538.95538"
      x1="144.10527"
      gorn="0.0.28"
      id="line47"
      x2="70.410408"
      fill="none"
      stroke="#000000"
      stroke-width="10"
      stroke-linecap="round"
      stroke-linejoin="round"
    />
    <text
      id="text49"
      font-size="34.72237778"
      class="text"
      x="73.826988"
      y="524.7887"
      transform="scale(1.0000013,0.9999987)"
      font-family="'Droid Sans'"
      text-anchor="middle"
      fill="#8c8c8c"
      stroke="none"
      stroke-width="0">6</text>
    <polyline
      id="polyline53"
      points="14.1,48.757 9.928,46.8 14.1,44.843"
      transform="matrix(13.888967,0,0,13.888932,3.6877983,88.879451)"
      fill="none"
      stroke="#000000"
      stroke-width="0.69999999"
      stroke-linecap="round"
      stroke-linejoin="round"
    />
    <line
      y2="738.88184"
      y1="738.88184"
      x1="144.10527"
      gorn="0.0.33"
      id="line55"
      x2="70.410408"
      fill="none"
      stroke="#000000"
      stroke-width="10"
      stroke-linecap="round"
      stroke-linejoin="round"
    />
    <text
      id="text57"
      font-size="34.72237778"
      class="text"
      x="73.826988"
      y="724.71777"
      transform="scale(1.0000013,0.9999987)"
      font-family="'Droid Sans'"
      text-anchor="middle"
      fill="#8c8c8c"
      stroke="none"
      stroke-width="0">7</text>
    <polyline
      id="polyline61"
      points="14.1,55.957 9.928,54 14.1,52.043"
      transform="matrix(13.888967,0,0,13.888932,3.6877983,88.879451)"
      fill="none"
      stroke="#000000"
      stroke-width="0.69999999"
      stroke-linecap="round"
      stroke-linejoin="round"
    />
    <line
      y2="838.88257"
      y1="838.88257"
      x1="144.10527"
      gorn="0.0.38"
      id="line63"
      x2="70.410408"
      fill="none"
      stroke="#000000"
      stroke-width="10"
      stroke-linecap="round"
      stroke-linejoin="round"
    />
    <text
      id="text65"
      font-size="34.72237778"
      class="text"
      x="73.826988"
      y="824.71521"
      transform="scale(1.0000013,0.9999987)"
      font-family="'Droid Sans'"
      text-anchor="middle"
      fill="#8c8c8c"
      stroke="none"
      stroke-width="0">8</text>
    <polyline
      id="polyline69"
      points="14.1,63.157 9.928,61.2 14.1,59.243"
      transform="matrix(13.888967,0,0,13.888932,3.6877983,88.879451)"
      fill="none"
      stroke="#000000"
      stroke-width="0.69999999"
      stroke-linecap="round"
      stroke-linejoin="round"
    />
    <line
      y2="938.88678"
      y1="938.88678"
      x1="144.10527"
      gorn="0.0.43"
      id="line71"
      x2="70.410408"
      fill="none"
      stroke="#000000"
      stroke-width="10"
      stroke-linecap="round"
      stroke-linejoin="round"
    />
    <text
      id="text73"
      font-size="34.72237778"
      class="text"
      x="73.826988"
      y="924.71619"
      transform="scale(1.0000013,0.9999987)"
      font-family="'Droid Sans'"
      text-anchor="middle"
      fill="#8c8c8c"
      stroke="none"
      stroke-width="0">9</text>
    <polyline
      id="polyline77"
      points="14.1,70.357 9.928,68.4 14.1,66.443"
      transform="matrix(13.888967,0,0,13.888932,3.6877983,88.879451)"
      fill="none"
      stroke="#000000"
      stroke-width="0.69999999"
      stroke-linecap="round"
      stroke-linejoin="round"
    />
    <line
      y2="1038.8842"
      y1="1038.8842"
      x1="144.10527"
      gorn="0.0.48"
      id="line79"
      x2="70.410408"
      fill="none"
      stroke="#000000"
      stroke-width="10"
      stroke-linecap="round"
      stroke-linejoin="round"
    />
    <text
      id="text81"
      font-size="34.72237778"
      class="text"
      x="73.826988"
      y="1024.7173"
      transform="scale(1.0000013,0.9999987)"
      font-family="'Droid Sans'"
      text-anchor="middle"
      fill="#8c8c8c"
      stroke="none"
      stroke-width="0">10</text>
    <polyline
      id="polyline85"
      points="14.1,77.557 9.928,75.6 14.1,73.643"
      transform="matrix(13.888967,0,0,13.888932,3.6877983,88.879451)"
      fill="none"
      stroke="#000000"
      stroke-width="0.69999999"
      stroke-linecap="round"
      stroke-linejoin="round"
    />
    <line
      y2="1138.8849"
      y1="1138.8849"
      x1="144.10527"
      gorn="0.0.53"
      id="line87"
      x2="70.410408"
      fill="none"
      stroke="#000000"
      stroke-width="10"
      stroke-linecap="round"
      stroke-linejoin="round"
    />
    <text
      id="text89"
      font-size="34.72237778"
      class="text"
      x="73.826988"
      y="1124.7146"
      transform="scale(1.0000013,0.9999987)"
      font-family="'Droid Sans'"
      text-anchor="middle"
      fill="#8c8c8c"
      stroke="none"
      stroke-width="0">11</text>
    <polyline
      id="polyline93"
      points="14.1,84.757 9.928,82.8 14.1,80.843"
      transform="matrix(13.888967,0,0,13.888932,3.6877983,88.879451)"
      fill="none"
      stroke="#000000"
      stroke-width="0.69999999"
      stroke-linecap="round"
      stroke-linejoin="round"
    />
    <line
      y2="1238.8824"
      y1="1238.8824"
      x1="144.10527"
      gorn="0.0.58"
      id="line95"
      x2="70.410408"
      fill="none"
      stroke="#000000"
      stroke-width="10"
      stroke-linecap="round"
      stroke-linejoin="round"
    />
    <text
      id="text97"
      font-size="34.72237778"
      class="text"
      x="73.826988"
      y="1224.7192"
      transform="scale(1.0000013,0.9999987)"
      font-family="'Droid Sans'"
      text-anchor="middle"
      fill="#8c8c8c"
      stroke="none"
      stroke-width="0">12</text>
    <polyline
      id="polyline101"
      points="14.1,91.957 9.928,90 14.1,88.043"
      transform="matrix(13.888967,0,0,13.888932,3.6877983,288.87907)"
      fill="none"
      stroke="#000000"
      stroke-width="0.69999999"
      stroke-linecap="round"
      stroke-linejoin="round"
    />
    <line
      y2="1538.8845"
      y1="1538.8845"
      x1="144.10527"
      gorn="0.0.63"
      id="line103"
      x2="70.410408"
      fill="none"
      stroke="#000000"
      stroke-width="10"
      stroke-linecap="round"
      stroke-linejoin="round"
    />
    <text
      id="text105"
      font-size="34.72237778"
      class="text"
      x="73.826988"
      y="1524.7186"
      transform="scale(1.0000013,0.9999987)"
      font-family="'Droid Sans'"
      text-anchor="middle"
      fill="#8c8c8c"
      stroke="none"
      stroke-width="0">13</text>
    <polyline
      id="polyline109"
      points="14.1,99.157 9.928,97.2 14.1,95.243"
      transform="matrix(13.888967,0,0,13.888932,3.6877983,288.87907)"
      fill="none"
      stroke="#000000"
      stroke-width="0.69999999"
      stroke-linecap="round"
      stroke-linejoin="round"
    />
    <line
      y2="1638.8853"
      y1="1638.8853"
      x1="144.10527"
      gorn="0.0.68"
      id="line111"
      x2="70.410408"
      fill="none"
      stroke="#000000"
      stroke-width="10"
      stroke-linecap="round"
      stroke-linejoin="round"
    />
    <text
      id="text113"
      font-size="34.72237778"
      class="text"
      x="73.826988"
      y="1624.7197"
      transform="scale(1.0000013,0.9999987)"
      font-family="'Droid Sans'"
      text-anchor="middle"
      fill="#8c8c8c"
      stroke="none"
      stroke-width="0">14</text>
    <polyline
      id="polyline117"
      points="14.1,106.357 9.928,104.4 14.1,102.443"
      transform="matrix(13.888967,0,0,13.888932,3.6877983,288.87907)"
      fill="none"
      stroke="#000000"
      stroke-width="0.69999999"
      stroke-linecap="round"
      stroke-linejoin="round"
    />
    <line
      y2="1738.8828"
      y1="1738.8828"
      x1="144.10527"
      gorn="0.0.73"
      id="line119"
      x2="70.410408"
      fill="none"
      stroke="#000000"
      stroke-width="10"
      stroke-linecap="round"
      stroke-linejoin="round"
    />
    <text
      id="text121"
      font-size="34.72237778"
      class="text"
      x="73.826988"
      y="1724.7209"
      transform="scale(1.0000013,0.9999987)"
      font-family="'Droid Sans'"
      text-anchor="middle"
      fill="#8c8c8c"
      stroke="none"
      stroke-width="0">15</text>
    <polyline
      id="polyline125"
      points="14.1,113.557 9.928,111.6 14.1,109.643"
      transform="matrix(13.888967,0,0,13.888932,3.6877983,288.87907)"
      fill="none"
      stroke="#000000"
      stroke-width="0.69999999"
      stroke-linecap="round"
      stroke-linejoin="round"
    />
    <line
      y2="1838.8834"
      y1="1838.8834"
      x1="144.10527"
      gorn="0.0.78"
      id="line127"
      x2="70.410408"
      fill="none"
      stroke="#000000"
      stroke-width="10"
      stroke-linecap="round"
      stroke-linejoin="round"
    />
    <text
      id="text129"
      font-size="34.72237778"
      class="text"
      x="73.826988"
      y="1824.7183"
      transform="scale(1.0000013,0.9999987)"
      font-family="'Droid Sans'"
      text-anchor="middle"
      fill="#8c8c8c"
      stroke="none"
      stroke-width="0">16</text>
    <polyline
      id="polyline133"
      points="14.1,120.757 9.928,118.8 14.1,116.843"
      transform="matrix(13.888967,0,0,13.888932,3.6877983,288.87907)"
      fill="none"
      stroke="#000000"
      stroke-width="0.69999999"
      stroke-linecap="round"
      stroke-linejoin="round"
    />
    <line
      y2="1938.8877"
      y1="1938.8877"
      x1="144.10527"
      gorn="0.0.83"
      id="line135"
      x2="70.410408"
      fill="none"
      stroke="#000000"
      stroke-width="10"
      stroke-linecap="round"
      stroke-linejoin="round"
    />
    <text
      id="text137"
      font-size="34.72237778"
      class="text"
      x="73.826988"
      y="1924.7191"
      transform="scale(1.0000013,0.9999987)"
      font-family="'Droid Sans'"
      text-anchor="middle"
      fill="#8c8c8c"
      stroke="none"
      stroke-width="0">17</text>
    <polyline
      id="polyline141"
      points="14.1,127.957 9.928,126 14.1,124.043"
      transform="matrix(13.888967,0,0,13.888932,3.6877983,288.88093)"
      fill="none"
      stroke="#000000"
      stroke-width="0.69999999"
      stroke-linecap="round"
      stroke-linejoin="round"
    />
    <line
      y2="2038.8857"
      y1="2038.8857"
      x1="144.10527"
      gorn="0.0.88"
      id="line143"
      x2="70.410408"
      fill="none"
      stroke="#000000"
      stroke-width="10"
      stroke-linecap="round"
      stroke-linejoin="round"
    />
    <text
      id="text145"
      font-size="34.72237778"
      class="text"
      x="73.826988"
      y="2024.7213"
      transform="scale(1.0000013,0.9999987)"
      font-family="'Droid Sans'"
      text-anchor="middle"
      fill="#8c8c8c"
      stroke="none"
      stroke-width="0">18</text>
    <polyline
      id="polyline149"
      points="14.1,135.157 9.928,133.2 14.1,131.243"
      transform="matrix(13.888967,0,0,13.888932,3.6877983,388.88097)"
      fill="none"
      stroke="#000000"
      stroke-width="0.69999999"
      stroke-linecap="round"
      stroke-linejoin="round"
    />
    <line
      y2="2238.8865"
      y1="2238.8865"
      x1="144.10527"
      gorn="0.0.93"
      id="line151"
      x2="70.410408"
      fill="none"
      stroke="#000000"
      stroke-width="10"
      stroke-linecap="round"
      stroke-linejoin="round"
    />
    <text
      id="text153"
      font-size="34.72237778"
      class="text"
      x="73.826988"
      y="2224.7224"
      transform="scale(1.0000013,0.9999987)"
      font-family="'Droid Sans'"
      text-anchor="middle"
      fill="#8c8c8c"
      stroke="none"
      stroke-width="0">19</text>
    <polyline
      id="polyline157"
      points="14.1,142.357 9.928,140.4 14.1,138.443"
      transform="matrix(13.888967,0,0,13.888932,3.6877983,388.88097)"
      fill="none"
      stroke="#000000"
      stroke-width="0.69999999"
      stroke-linecap="round"
      stroke-linejoin="round"
    />
    <line
      y2="2338.884"
      y1="2338.884"
      x1="144.10527"
      gorn="0.0.98"
      id="line159"
      x2="70.410408"
      fill="none"
      stroke="#000000"
      stroke-width="10"
      stroke-linecap="round"
      stroke-linejoin="round"
    />
    <text
      id="text161"
      font-size="34.72237778"
      class="text"
      x="73.826988"
      y="2324.7197"
      transform="scale(1.0000013,0.9999987)"
      font-family="'Droid Sans'"
      text-anchor="middle"
      fill="#8c8c8c"
      stroke="none"
      stroke-width="0">20</text>
    <polyline
      id="polyline165"
      points="14.1,149.557 9.928,147.6 14.1,145.643"
      transform="matrix(13.888967,0,0,13.888932,3.6877983,388.88097)"
      fill="none"
      stroke="#000000"
      stroke-width="0.69999999"
      stroke-linecap="round"
      stroke-linejoin="round"
    />
    <line
      y2="2438.8914"
      y1="2438.8914"
      x1="144.10527"
      gorn="0.0.103"
      id="line167"
      x2="70.410408"
      fill="none"
      stroke="#000000"
      stroke-width="10"
      stroke-linecap="round"
      stroke-linejoin="round"
    />
    <text
      id="text169"
      font-size="34.72237778"
      class="text"
      x="73.826988"
      y="2424.7244"
      transform="scale(1.0000013,0.9999987)"
      font-family="'Droid Sans'"
      text-anchor="middle"
      fill="#8c8c8c"
      stroke="none"
      stroke-width="0">21</text>
    <polyline
      id="polyline173"
      points="14.1,156.757 9.928,154.8 14.1,152.843"
      transform="matrix(13.888967,0,0,13.888932,3.6877983,388.88097)"
      fill="none"
      stroke="#000000"
      stroke-width="0.69999999"
      stroke-linecap="round"
      stroke-linejoin="round"
    />
    <line
      y2="2538.8889"
      y1="2538.8889"
      x1="144.10527"
      gorn="0.0.108"
      id="line175"
      x2="70.410408"
      fill="none"
      stroke="#000000"
      stroke-width="10"
      stroke-linecap="round"
      stroke-linejoin="round"
    />
    <text
      id="text177"
      font-size="34.72237778"
      class="text"
      x="73.826988"
      y="2524.7256"
      transform="scale(1.0000013,0.9999987)"
      font-family="'Droid Sans'"
      text-anchor="middle"
      fill="#8c8c8c"
      stroke="none"
      stroke-width="0">22</text>
    <polyline
      id="polyline181"
      points="14.1,163.957 9.928,162 14.1,160.043"
      transform="matrix(13.888967,0,0,13.888932,3.6877983,388.88097)"
      fill="none"
      stroke="#000000"
      stroke-width="0.69999999"
      stroke-linecap="round"
      stroke-linejoin="round"
    />
    <line
      y2="2638.8896"
      y1="2638.8896"
      x1="144.10527"
      gorn="0.0.113"
      id="line183"
      x2="70.410408"
      fill="none"
      stroke="#000000"
      stroke-width="10"
      stroke-linecap="round"
      stroke-linejoin="round"
    />
    <text
      id="text185"
      font-size="34.72237778"
      class="text"
      x="73.826988"
      y="2624.7231"
      transform="scale(1.0000013,0.9999987)"
      font-family="'Droid Sans'"
      text-anchor="middle"
      fill="#8c8c8c"
      stroke="none"
      stroke-width="0">23</text>
    <line
      y2="39.143192"
      y1="39.143192"
      x1="5.0712123"
      gorn="0.0.0"
      id="connector0pin"
      x2="100.39735"
      fill="none"
      stroke="#000000"
      stroke-width="9.62971783"
      stroke-linecap="round"
      stroke-linejoin="round"
    />
    <rect
      height="10"
      gorn="0.0.1"
      id="connector0terminal"
      x="0.18777815"
      width="10"
      y="33.958534"
      fill="none"
      stroke-width="10"
    />
    <line
      y2="138.9523"
      y1="138.9523"
      x1="5.0712123"
      gorn="0.0.5"
      id="connector1pin"
      x2="100.39735"
      fill="none"
      stroke="#000000"
      stroke-width="10"
      stroke-linecap="round"
      stroke-linejoin="round"
    />
    <rect
      height="10"
      gorn="0.0.6"
      id="connector1terminal"
      x="0.18777815"
      width="10"
      y="133.95847"
      fill="none"
      stroke-width="10"
    />
    <line
      y2="238.94965"
      y1="238.94965"
      x1="5.0712123"
      gorn="0.0.10"
      id="connector2pin"
      x2="100.39735"
      fill="none"
      stroke="#000000"
      stroke-width="10"
      stroke-linecap="round"
      stroke-linejoin="round"
    />
    <rect
      height="10"
      gorn="0.0.11"
      id="connector2terminal"
      x="0.18777815"
      width="10"
      y="233.9585"
      fill="none"
      stroke-width="10"
    />
    <line
      y2="338.9538"
      y1="338.9538"
      x1="5.0712123"
      gorn="0.0.15"
      id="connector3pin"
      x2="100.39735"
      fill="none"
      stroke="#000000"
      stroke-width="10"
      stroke-linecap="round"
      stroke-linejoin="round"
    />
    <rect
      height="10"
      gorn="0.0.16"
      id="connector3terminal"
      x="0.18777815"
      width="10.000003"
      y="333.95853"
      fill="none"
      stroke-width="10"
    />
    <line
      y2="438.95459"
      y1="438.95459"
      x1="5.0712123"
      gorn="0.0.20"
      id="connector4pin"
      x2="100.39735"
      fill="none"
      stroke="#000000"
      stroke-width="10"
      stroke-linecap="round"
      stroke-linejoin="round"
    />
    <rect
      height="10"
      gorn="0.0.21"
      id="connector4terminal"
      x="0.18777815"
      width="10"
      y="433.95856"
      fill="none"
      stroke-width="10"
    />
    <line
      y2="538.95538"
      y1="538.95538"
      x1="5.0712123"
      gorn="0.0.25"
      id="connector5pin"
      x2="100.39735"
      fill="none"
      stroke="#000000"
      stroke-width="10"
      stroke-linecap="round"
      stroke-linejoin="round"
    />
    <rect
      height="10"
      gorn="0.0.26"
      id="connector5terminal"
      x="0.18777815"
      width="10.000003"
      y="533.95856"
      fill="none"
      stroke-width="10"
    />
    <line
      y2="738.88184"
      y1="738.88184"
      x1="5.0712123"
      gorn="0.0.30"
      id="connector6pin"
      x2="100.39735"
      fill="none"
      stroke="#000000"
      stroke-width="10"
      stroke-linecap="round"
      stroke-linejoin="round"
    />
    <rect
      height="10"
      gorn="0.0.31"
      id="connector6terminal"
      x="0.18777815"
      width="10"
      y="733.95862"
      fill="none"
      stroke-width="10"
    />
    <line
      y2="838.88257"
      y1="838.88257"
      x1="5.0712123"
      gorn="0.0.35"
      id="connector7pin"
      x2="100.39735"
      fill="none"
      stroke="#000000"
      stroke-width="10"
      stroke-linecap="round"
      stroke-linejoin="round"
    />
    <rect
      height="10"
      gorn="0.0.36"
      id="connector7terminal"
      x="0.18777815"
      width="10.000003"
      y="833.95868"
      fill="none"
      stroke-width="10"
    />
    <line
      y2="938.88678"
      y1="938.88678"
      x1="5.0712123"
      gorn="0.0.40"
      id="connector8pin"
      x2="100.39735"
      fill="none"
      stroke="#000000"
      stroke-width="10"
      stroke-linecap="round"
      stroke-linejoin="round"
    />
    <rect
      height="10"
      gorn="0.0.41"
      id="connector8terminal"
      x="0.18777815"
      width="10"
      y="933.95868"
      fill="none"
      stroke-width="10"
    />
    <line
      y2="1038.8842"
      y1="1038.8842"
      x1="5.0712123"
      gorn="0.0.45"
      id="connector9pin"
      x2="100.39735"
      fill="none"
      stroke="#000000"
      stroke-width="10"
      stroke-linecap="round"
      stroke-linejoin="round"
    />
    <rect
      height="10"
      gorn="0.0.46"
      id="connector9terminal"
      x="0.18777815"
      width="10.000003"
      y="1033.9587"
      fill="none"
      stroke-width="10"
    />
    <line
      y2="1138.8849"
      y1="1138.8849"
      x1="5.0712123"
      gorn="0.0.50"
      id="connector10pin"
      x2="100.39735"
      fill="none"
      stroke="#000000"
      stroke-width="10"
      stroke-linecap="round"
      stroke-linejoin="round"
    />
    <rect
      height="10"
      gorn="0.0.51"
      id="connector10terminal"
      x="0.18777815"
      width="10.000003"
      y="1133.9587"
      fill="none"
      stroke-width="10"
    />
    <line
      y2="1238.8824"
      y1="1238.8824"
      x1="5.0712123"
      gorn="0.0.55"
      id="connector11pin"
      x2="100.39735"
      fill="none"
      stroke="#000000"
      stroke-width="10"
      stroke-linecap="round"
      stroke-linejoin="round"
    />
    <rect
      height="10"
      gorn="0.0.56"
      id="connector11terminal"
      x="0.18777815"
      width="10"
      y="1233.9587"
      fill="none"
      stroke-width="10"
    />
    <line
      y2="1538.8845"
      y1="1538.8845"
      x1="5.0712123"
      gorn="0.0.60"
      id="connector12pin"
      x2="100.39735"
      fill="none"
      stroke="#000000"
      stroke-width="10"
      stroke-linecap="round"
      stroke-linejoin="round"
    />
    <rect
      height="10"
      gorn="0.0.61"
      id="connector12terminal"
      x="0.18777815"
      width="10.000003"
      y="1533.9589"
      fill="none"
      stroke-width="10"
    />
    <line
      y2="1638.8853"
      y1="1638.8853"
      x1="5.0712123"
      gorn="0.0.65"
      id="connector13pin"
      x2="100.39735"
      fill="none"
      stroke="#000000"
      stroke-width="10"
      stroke-linecap="round"
      stroke-linejoin="round"
    />
    <rect
      height="10"
      gorn="0.0.66"
      id="connector13terminal"
      x="0.18777815"
      width="10"
      y="1633.9589"
      fill="none"
      stroke-width="10"
    />
    <line
      y2="1738.8828"
      y1="1738.8828"
      x1="5.0712123"
      gorn="0.0.70"
      id="connector14pin"
      x2="100.39735"
      fill="none"
      stroke="#000000"
      stroke-width="10"
      stroke-linecap="round"
      stroke-linejoin="round"
    />
    <rect
      height="10"
      gorn="0.0.71"
      id="connector14terminal"
      x="0.18777815"
      width="10.000003"
      y="1733.959"
      fill="none"
      stroke-width="10"
    />
    <line
      y2="1838.8834"
      y1="1838.8834"
      x1="5.0712123"
      gorn="0.0.75"
      id="connector15pin"
      x2="100.39735"
      fill="none"
      stroke="#000000"
      stroke-width="10"
      stroke-linecap="round"
      stroke-linejoin="round"
    />
    <rect
      height="10"
      gorn="0.0.76"
      id="connector15terminal"
      x="0.18777815"
      width="10"
      y="1833.959"
      fill="none"
      stroke-width="10"
    />
    <line
      y2="1938.8877"
      y1="1938.8877"
      x1="5.0712123"
      gorn="0.0.80"
      id="connector16pin"
      x2="100.39735"
      fill="none"
      stroke="#000000"
      stroke-width="10"
      stroke-linecap="round"
      stroke-linejoin="round"
    />
    <rect
      height="10"
      gorn="0.0.81"
      id="connector16terminal"
      x="0.18777815"
      width="10.000003"
      y="1933.959"
      fill="none"
      stroke-width="10"
    />
    <line
      y2="2038.8857"
      y1="2038.8857"
      x1="5.0712123"
      gorn="0.0.85"
      id="connector17pin"
      x2="100.39735"
      fill="none"
      stroke="#000000"
      stroke-width="10"
      stroke-linecap="round"
      stroke-linejoin="round"
    />
    <rect
      height="10"
      gorn="0.0.86"
      id="connector17terminal"
      x="0.18777815"
      width="10"
      y="2033.959"
      fill="none"
      stroke-width="10"
    />
    <line
      y2="2238.8865"
      y1="2238.8865"
      x1="5.0712123"
      gorn="0.0.90"
      id="connector18pin"
      x2="100.39735"
      fill="none"
      stroke="#000000"
      stroke-width="10"
      stroke-linecap="round"
      stroke-linejoin="round"
    />
    <rect
      height="10"
      gorn="0.0.91"
      id="connector18terminal"
      x="0.18777815"
      width="10.000003"
      y="2233.959"
      fill="none"
      stroke-width="10"
    />
    <line
      y2="2338.884"
      y1="2338.884"
      x1="5.0712123"
      gorn="0.0.95"
      id="connector19pin"
      x2="100.39735"
      fill="none"
      stroke="#000000"
      stroke-width="10"
      stroke-linecap="round"
      stroke-linejoin="round"
    />
    <rect
      height="10"
      gorn="0.0.96"
      id="connector19terminal"
      x="0.18777815"
      width="10"
      y="2333.9592"
      fill="none"
      stroke-width="10"
    />
    <line
      y2="2438.8914"
      y1="2438.8914"
      x1="5.0712123"
      gorn="0.0.100"
      id="connector20pin"
      x2="100.39735"
      fill="none"
      stroke="#000000"
      stroke-width="10"
      stroke-linecap="round"
      stroke-linejoin="round"
    />
    <rect
      height="10"
      gorn="0.0.101"
      id="connector20terminal"
      x="0.18777815"
      width="10.000003"
      y="2433.9592"
      fill="none"
      stroke-width="10"
    />
    <line
      y2="2538.8889"
      y1="2538.8889"
      x1="5.0712123"
      gorn="0.0.105"
      id="connector21pin"
      x2="100.39735"
      fill="none"
      stroke="#000000"
      stroke-width="10"
      stroke-linecap="round"
      stroke-linejoin="round"
    />
    <rect
      height="10"
      gorn="0.0.106"
      id="connector21terminal"
      x="0.18777815"
      width="10"
      y="2533.9592"
      fill="none"
      stroke-width="10"
    />
    <line
      y2="2638.8896"
      y1="2638.8896"
      x1="5.0712123"
      gorn="0.0.110"
      id="connector22pin"
      x2="100.39735"
      fill="none"
      stroke="#000000"
      stroke-width="10"
      stroke-linecap="round"
      stroke-linejoin="round"
    />
    <rect
      height="10"
      gorn="0.0.111"
      id="connector22terminal"
      x="0.18777815"
      width="10.000003"
      y="2633.9592"
      fill="none"
      stroke-width="10"
    />
    <line
      x2="100.39735"
      id="connector23pin"
      gorn="0.0.110"
      x1="5.0712123"
      y1="2738.8896"
      y2="2738.8896"
      fill="none"
      stroke="#000000"
      stroke-width="10"
      stroke-linecap="round"
      stroke-linejoin="round"
    />
    <rect
      y="2733.9592"
      width="10"
      x="0.18777815"
      id="connector23terminal"
      gorn="0.0.111"
      height="10"
      fill="none"
      stroke-width="10"
    />
  </g>
</svg>
