<?xml version="1.0" encoding="utf-8"?>
<!-- Generator: Adobe Illustrator 24.1.2, SVG Export Plug-In . SVG Version: 6.00 Build 0)  -->
<svg version="1.1" id="Layer_1" xmlns="http://www.w3.org/2000/svg" xmlns:xlink="http://www.w3.org/1999/xlink" x="0px" y="0px"
	 width="65.8px" height="37px" viewBox="0 0 65.8 37" enable-background="new 0 0 65.8 37" xml:space="preserve">
<g id="Schematic">
	<g id="Connector">
		<ellipse fill="none" stroke="#000000" cx="32.9" cy="18.5" rx="18" ry="18"/>
		<line fill="none" stroke="#000000" stroke-linecap="round" x1="65.3" y1="18.5" x2="50.9" y2="18.5"/>
		<line fill="none" stroke="#000000" stroke-linecap="round" x1="14.9" y1="18.5" x2="0.5" y2="18.5"/>
		<rect id="connector1terminal" x="65.016" y="18.217" fill="none" width="0.567" height="0.567"/>
		<line id="connector1pin" fill="none" stroke="#999999" stroke-linecap="round" x1="58.1" y1="18.5" x2="65.3" y2="18.5"/>
		<text transform="matrix(0.9195 0 0 1 58.1475 14.9021)" font-family="'OCRAExtended'" font-size="8.5039px">-</text>
		<rect id="connector0terminal" x="0.217" y="18.217" fill="none" width="0.567" height="0.567"/>
		<line id="connector0pin" fill="none" stroke="#999999" stroke-linecap="round" x1="0.5" y1="18.5" x2="7.7" y2="18.5"/>
		<text transform="matrix(0.9195 0 0 1 2.2129 14.6735)" font-family="'OCRAExtended'" font-size="8.5039px">+</text>
	</g>
</g>
<g>
	<path d="M31.321,18.631L24.889,5.321l8.854,11.837c0.407,0.669,0.194,1.541-0.475,1.947S31.727,19.299,31.321,18.631z"/>
</g>
</svg>
