<?xml version='1.0' encoding='UTF-8' standalone='no'?>
<!-- Created with Inkscape (http://www.inkscape.org/) -->
  <svg
  xmlns:inkscape="http://www.inkscape.org/namespaces/inkscape"
  xmlns:sodipodi="http://sodipodi.sourceforge.net/DTD/sodipodi-0.dtd"
  xmlns="http://www.w3.org/2000/svg"
  xmlns:svg="http://www.w3.org/2000/svg"
  xmlns:rdf="http://www.w3.org/1999/02/22-rdf-syntax-ns#"
  xmlns:cc="http://creativecommons.org/ns#"
  xmlns:dc="http://purl.org/dc/elements/1.1/"
  viewBox="0 0 11.5407 21.594443"
  fill-rule="evenodd"
  id="svg2985"
  xml:space="preserve"
  gorn="0"
  version="1.1"
  width="0.45435825in"
  height="0.8501749in"
  sodipodi:docname="dht22_6042e559f6c854f9ae0e529623a64313_2_breadboard.svg"
  inkscape:version="1.1.1 (3bf5ae0d25, 2021-09-20)">
  <sodipodi:namedview
    id="namedview144"
    pagecolor="#ffffff"
    bordercolor="#666666"
    borderopacity="1.0"
    inkscape:pageshadow="2"
    inkscape:pageopacity="0.0"
    inkscape:pagecheckerboard="0"
    inkscape:document-units="in"
    showgrid="false"
    units="in"
    inkscape:zoom="8.2711051"
    inkscape:cx="24.603726"
    inkscape:cy="43.464567"
    inkscape:window-width="1920"
    inkscape:window-height="1017"
    inkscape:window-x="-8"
    inkscape:window-y="-8"
    inkscape:window-maximized="1"
    inkscape:current-layer="breadboard"
  />
  <desc
    id="desc2">
    <referenceFile>dht22_6042e559f6c854f9ae0e529623a64313_2_breadboard.svg</referenceFile>
  </desc>
  <metadata
    id="metadata3162">
    <rdf:RDF>
      <cc:Work
        rdf:about="">
        <dc:format>image/svg+xml</dc:format>
        <dc:type
          rdf:resource="http://purl.org/dc/dcmitype/StillImage"
        />
      </cc:Work>
    </rdf:RDF>
  </metadata>
  <defs
    id="defs3160">
    <linearGradient
      x1="4.6118999"
      x2="4.6118999"
      y1="4.9299998"
      id="linearGradient3164"
      gradientUnits="userSpaceOnUse"
      y2="4.2379999"
      href="#id0"
    />
    <linearGradient
      x1="4.6118999"
      x2="4.6118999"
      y1="4.9299998"
      id="linearGradient3166"
      gradientUnits="userSpaceOnUse"
      y2="4.2379999"
      href="#id0"
    />
    <linearGradient
      x1="4.6118999"
      x2="4.6118999"
      y1="4.9299998"
      id="linearGradient3168"
      gradientUnits="userSpaceOnUse"
      y2="4.2379999"
      href="#id0"
    />
    <defs
      id="defs2988">
      <style
        type="text/css"
        id="style2990"
      />
      <linearGradient
        x1="4.6118999"
        x2="4.6118999"
        y1="4.9299998"
        id="id0"
        gradientUnits="userSpaceOnUse"
        y2="4.2379999">
        <stop
          id="stop2993"
          stop-color="#a8a89e"
          offset="0"
          stop-opacity="1"
        />
        <stop
          id="stop2995"
          stop-color="#ffffff"
          offset="1"
          stop-opacity="1"
        />
      </linearGradient>
    </defs>
  </defs>
  <g
    id="breadboard"
    gorn="0.3">
    <g
      id="Capa_x0020_1"
      gorn="0.3.0"
      inkscape:label="Capa 1"
      inkscape:groupmode="layer">
      <metadata
        id="CorelCorpID_0Corel-Layer"
      />
      <g
        id="_144824656"
        gorn="0.3.0.1"
        transform="translate(-0.66600001,-0.61339998)">
        <g
          id="g3000"
          gorn="0.3.0.1.0">
          <rect
            ry="2.8585999"
            id="_144825976"
            y="0.61339998"
            gorn="0.3.0.1.0.0"
            fill="#e6e6e6"
            rx="2.8585999"
            x="0.88529998"
            width="10.9479"
            height="16.616301"
          />
          <ellipse
            stroke="#1e1e1e"
            cy="2.8522999"
            stroke-width="0.0762"
            ry="1.071"
            cx="6.4336801"
            id="_144821416"
            gorn="0.3.0.1.0.1"
            fill="#1e1e1e"
            rx="1.03627"
          />
        </g>
        <g
          id="g3004"
          gorn="0.3.0.1.1">
          <rect
            id="_144822136"
            y="6.5258899"
            gorn="0.3.0.1.1.0"
            fill="#c3c3c3"
            x="0.9914"
            width="11.2103"
            height="10.9803"
          />
          <rect
            ry="0.068400003"
            id="_144818704"
            y="4.3703799"
            gorn="0.3.0.1.1.1"
            fill="#c3c3c3"
            rx="0.068400003"
            x="0.98860002"
            width="0.92940003"
            height="3.8782101"
          />
          <rect
            ry="0.068400003"
            id="_144826744"
            y="4.3703799"
            gorn="0.3.0.1.1.2"
            fill="#c3c3c3"
            rx="0.068400003"
            x="11.2886"
            width="0.9181"
            height="3.8782101"
          />
          <rect
            ry="0.228"
            id="_144823288"
            y="15.4243"
            gorn="0.3.0.1.1.3"
            fill="#c3c3c3"
            rx="0.228"
            x="0.98860002"
            width="0.92940003"
            height="3.65203"
          />
          <rect
            ry="0.228"
            id="_144827656"
            y="17.052"
            gorn="0.3.0.1.1.4"
            fill="#c3c3c3"
            rx="0.228"
            x="10.577"
            width="1.6246001"
            height="2.0243199"
          />
          <rect
            id="_144829120"
            y="5.3063002"
            gorn="0.3.0.1.1.5"
            fill="#c3c3c3"
            x="1.71401"
            width="9.7676897"
            height="12.8996"
          />
          <rect
            id="_144820960"
            y="4.3487"
            gorn="0.3.0.1.1.6"
            fill="#c3c3c3"
            x="1.3713"
            width="10.3351"
            height="14.7276"
          />
        </g>
        <g
          id="g3013"
          gorn="0.3.0.1.2">
          <line
            stroke="#8c8c8c"
            class="fil3 str1"
            stroke-width="0.762"
            x1="7.5868001"
            x2="7.5893998"
            y1="18.934401"
            id="_144824728"
            gorn="0.3.0.1.2.0"
            fill="none"
            y2="22.188499"
          />
          <line
            stroke="#8c8c8c"
            class="fil3 str1"
            stroke-width="0.762"
            x1="10.1268"
            x2="10.1294"
            y1="18.932199"
            id="_144822016"
            gorn="0.3.0.1.2.1"
            fill="none"
            y2="22.1863"
          />
          <line
            stroke="#8c8c8c"
            class="fil3 str1"
            stroke-width="0.762"
            x1="2.5067999"
            x2="2.5093999"
            y1="18.932199"
            id="_144829456"
            gorn="0.3.0.1.2.2"
            fill="none"
            y2="22.1863"
          />
          <line
            stroke="#8c8c8c"
            class="fil3 str1"
            stroke-width="0.762"
            x1="5.0468001"
            x2="5.0493999"
            y1="18.932199"
            id="_144819832"
            gorn="0.3.0.1.2.3"
            fill="none"
            y2="22.1863"
          />
        </g>
        <g
          id="g3019"
          gorn="0.3.0.1.3">
          <g
            id="g3021"
            gorn="0.3.0.1.3.0">
            <rect
              id="_144826048"
              y="6.8729501"
              gorn="0.3.0.1.3.0.0"
              fill="#cbcbcb"
              x="9.3413"
              width="2.5327001"
              height="0.93980002"
            />
            <rect
              id="_144823816"
              y="8.7729502"
              gorn="0.3.0.1.3.0.1"
              fill="#cbcbcb"
              x="9.3413"
              width="2.5327001"
              height="0.93980002"
            />
            <rect
              id="_144826288"
              y="10.6729"
              gorn="0.3.0.1.3.0.2"
              fill="#cbcbcb"
              x="9.3425999"
              width="2.5314"
              height="0.93980002"
            />
            <rect
              id="_144823936"
              y="12.5729"
              gorn="0.3.0.1.3.0.3"
              fill="#cbcbcb"
              x="9.3414001"
              width="2.5325999"
              height="0.93980002"
            />
            <rect
              id="_144820816"
              y="14.4729"
              gorn="0.3.0.1.3.0.4"
              fill="#cbcbcb"
              x="9.3413"
              width="2.5327001"
              height="0.93980002"
            />
          </g>
          <g
            id="g3028"
            gorn="0.3.0.1.3.1">
            <rect
              id="_144817768"
              y="6.8729501"
              gorn="0.3.0.1.3.1.0"
              fill="#cbcbcb"
              x="0.86519998"
              width="0.704"
              height="0.93980002"
            />
            <rect
              id="_144819880"
              y="8.7729502"
              gorn="0.3.0.1.3.1.1"
              fill="#cbcbcb"
              x="0.86519998"
              width="0.704"
              height="0.93980002"
            />
            <rect
              id="_144822112"
              y="10.6729"
              gorn="0.3.0.1.3.1.2"
              fill="#cbcbcb"
              x="0.86519998"
              width="0.704"
              height="0.93980002"
            />
            <rect
              id="_144820576"
              y="12.5729"
              gorn="0.3.0.1.3.1.3"
              fill="#cbcbcb"
              x="0.86519998"
              width="0.704"
              height="0.93980002"
            />
            <rect
              id="_144821872"
              y="14.4729"
              gorn="0.3.0.1.3.1.4"
              fill="#cbcbcb"
              x="0.86519998"
              width="0.704"
              height="0.93980002"
            />
          </g>
        </g>
        <g
          id="g3035"
          gorn="0.3.0.1.4">
          <g
            id="g3037"
            gorn="0.3.0.1.4.0">
            <rect
              id="_144818008"
              y="6.8727298"
              gorn="0.3.0.1.4.0.0"
              fill="#1e1e1e"
              x="4.1430001"
              width="0.93980002"
              height="0.93982202"
            />
            <rect
              id="_144821656"
              y="6.8727298"
              gorn="0.3.0.1.4.0.1"
              fill="#1e1e1e"
              x="5.9429998"
              width="0.93980002"
              height="0.93982202"
            />
            <rect
              id="_144829816"
              y="6.8727298"
              gorn="0.3.0.1.4.0.2"
              fill="#1e1e1e"
              x="7.6430001"
              width="0.93980002"
              height="0.93982202"
            />
            <path
              d="m 9.343,6.8727 h 1.5828 c 0.2071,0 0.3763,0.0839 0.3763,0.1866 v 0.5666 c 0,0.1027 -0.1692,0.1867 -0.3763,0.1867 H 9.343 Z"
              id="_144831328"
              gorn="0.3.0.1.4.0.3"
              fill="#1e1e1e"
            />
            <rect
              id="_144827224"
              y="6.8727298"
              gorn="0.3.0.1.4.0.4"
              fill="#1e1e1e"
              x="1.5695"
              width="1.7133"
              height="0.93982202"
            />
          </g>
          <g
            id="g3044"
            gorn="0.3.0.1.4.1">
            <rect
              id="_144824824"
              y="8.7727299"
              gorn="0.3.0.1.4.1.0"
              fill="#1e1e1e"
              x="4.1430001"
              width="0.93980002"
              height="0.93982202"
            />
            <rect
              id="_144817504"
              y="8.7727299"
              gorn="0.3.0.1.4.1.1"
              fill="#1e1e1e"
              x="5.9429998"
              width="0.93980002"
              height="0.93982202"
            />
            <rect
              id="_144825928"
              y="8.7727299"
              gorn="0.3.0.1.4.1.2"
              fill="#1e1e1e"
              x="7.6430001"
              width="0.93980002"
              height="0.93982202"
            />
            <path
              d="m 9.343,8.7727 h 1.5828 c 0.2071,0 0.3763,0.0839 0.3763,0.1866 v 0.5666 c 0,0.1027 -0.1692,0.1867 -0.3763,0.1867 H 9.343 Z"
              id="_144829048"
              gorn="0.3.0.1.4.1.3"
              fill="#1e1e1e"
            />
            <rect
              id="_144825112"
              y="8.7727299"
              gorn="0.3.0.1.4.1.4"
              fill="#1e1e1e"
              x="1.5695"
              width="1.7133"
              height="0.93982202"
            />
          </g>
          <g
            id="g3051"
            gorn="0.3.0.1.4.2">
            <rect
              id="_144821512"
              y="10.6727"
              gorn="0.3.0.1.4.2.0"
              fill="#1e1e1e"
              x="4.1430001"
              width="0.93980002"
              height="0.93982202"
            />
            <rect
              id="_144822784"
              y="10.6727"
              gorn="0.3.0.1.4.2.1"
              fill="#1e1e1e"
              x="5.9429998"
              width="0.93980002"
              height="0.93982202"
            />
            <rect
              id="_144822664"
              y="10.6727"
              gorn="0.3.0.1.4.2.2"
              fill="#1e1e1e"
              x="7.6430001"
              width="0.93980002"
              height="0.93982202"
            />
            <path
              d="m 9.343,10.6727 h 1.5828 c 0.2071,0 0.3763,0.0839 0.3763,0.1866 v 0.5666 c 0,0.1027 -0.1692,0.1867 -0.3763,0.1867 H 9.343 Z"
              id="_144820672"
              gorn="0.3.0.1.4.2.3"
              fill="#1e1e1e"
            />
            <rect
              id="_144824752"
              y="10.6727"
              gorn="0.3.0.1.4.2.4"
              fill="#1e1e1e"
              x="1.5695"
              width="1.7133"
              height="0.93982202"
            />
          </g>
          <g
            id="g3058"
            gorn="0.3.0.1.4.3">
            <rect
              id="_144828472"
              y="12.5727"
              gorn="0.3.0.1.4.3.0"
              fill="#1e1e1e"
              x="4.1430001"
              width="0.93980002"
              height="0.93982202"
            />
            <rect
              id="_144821968"
              y="12.5727"
              gorn="0.3.0.1.4.3.1"
              fill="#1e1e1e"
              x="5.9429998"
              width="0.93980002"
              height="0.93982202"
            />
            <rect
              id="_144828256"
              y="12.5727"
              gorn="0.3.0.1.4.3.2"
              fill="#1e1e1e"
              x="7.6430001"
              width="0.93980002"
              height="0.93982202"
            />
            <path
              d="m 9.343,12.5727 h 1.5828 c 0.2071,0 0.3763,0.0839 0.3763,0.1866 v 0.5666 c 0,0.1027 -0.1692,0.1867 -0.3763,0.1867 H 9.343 Z"
              id="_144828376"
              gorn="0.3.0.1.4.3.3"
              fill="#1e1e1e"
            />
            <rect
              id="_144823504"
              y="12.5727"
              gorn="0.3.0.1.4.3.4"
              fill="#1e1e1e"
              x="1.5695"
              width="1.7133"
              height="0.93982202"
            />
          </g>
          <g
            id="g3065"
            gorn="0.3.0.1.4.4">
            <rect
              id="_144825784"
              y="14.4727"
              gorn="0.3.0.1.4.4.0"
              fill="#1e1e1e"
              x="4.1430001"
              width="0.93980002"
              height="0.93982202"
            />
            <rect
              id="_144826936"
              y="14.4727"
              gorn="0.3.0.1.4.4.1"
              fill="#1e1e1e"
              x="5.9429998"
              width="0.93980002"
              height="0.93982202"
            />
            <rect
              id="_144826912"
              y="14.4727"
              gorn="0.3.0.1.4.4.2"
              fill="#1e1e1e"
              x="7.6430001"
              width="0.93980002"
              height="0.93982202"
            />
            <path
              d="m 9.343,14.4727 h 1.5828 c 0.2071,0 0.3763,0.0839 0.3763,0.1866 v 0.5666 c 0,0.1027 -0.1692,0.1867 -0.3763,0.1867 H 9.343 Z"
              id="_144827152"
              gorn="0.3.0.1.4.4.3"
              fill="#1e1e1e"
            />
            <rect
              id="_144827080"
              y="14.4727"
              gorn="0.3.0.1.4.4.4"
              fill="#1e1e1e"
              x="1.5695"
              width="1.7133"
              height="0.93982202"
            />
          </g>
        </g>
        <g
          id="g3072"
          gorn="0.3.0.1.5">
          <g
            id="g3074"
            gorn="0.3.0.1.5.0">
            <g
              id="g3076"
              gorn="0.3.0.1.5.0.0">
              <g
                id="g3078"
                gorn="0.3.0.1.5.0.0.0">
                <rect
                  id="_144817024"
                  y="4.2381501"
                  gorn="0.3.0.1.5.0.0.0.0"
                  fill="#f0f0f0"
                  x="3.2832"
                  width="0.8599"
                  height="13.9826"
                />
                <rect
                  ry="0.058800001"
                  id="_144817168"
                  y="3.9563999"
                  gorn="0.3.0.1.5.0.0.0.1"
                  fill="#f0f0f0"
                  rx="0.058800001"
                  x="3.2874501"
                  width="0.85479999"
                  height="0.74903798"
                />
              </g>
              <g
                id="g3082"
                gorn="0.3.0.1.5.0.0.1">
                <rect
                  id="_144817240"
                  y="4.2381501"
                  gorn="0.3.0.1.5.0.0.1.0"
                  fill="#f0f0f0"
                  x="5.0832"
                  width="0.8599"
                  height="13.9826"
                />
                <rect
                  ry="0.058800001"
                  id="_144816328"
                  y="3.9563999"
                  gorn="0.3.0.1.5.0.0.1.1"
                  fill="#f0f0f0"
                  rx="0.058800001"
                  x="5.08745"
                  width="0.85479999"
                  height="0.74903798"
                />
              </g>
              <g
                id="g3086"
                gorn="0.3.0.1.5.0.0.2">
                <rect
                  id="_144815368"
                  y="4.2381501"
                  gorn="0.3.0.1.5.0.0.2.0"
                  fill="#f0f0f0"
                  x="6.8832002"
                  width="0.8599"
                  height="13.9826"
                />
                <rect
                  ry="0.058800001"
                  id="_144818248"
                  y="3.9563999"
                  gorn="0.3.0.1.5.0.0.2.1"
                  fill="#f0f0f0"
                  rx="0.058800001"
                  x="6.8874502"
                  width="0.85479999"
                  height="0.74903798"
                />
              </g>
              <g
                id="g3090"
                gorn="0.3.0.1.5.0.0.3">
                <rect
                  id="_144817960"
                  y="4.2381501"
                  gorn="0.3.0.1.5.0.0.3.0"
                  fill="#f0f0f0"
                  x="8.5832005"
                  width="0.8599"
                  height="13.9826"
                />
                <rect
                  ry="0.058800001"
                  id="_144818128"
                  y="3.9563999"
                  gorn="0.3.0.1.5.0.0.3.1"
                  fill="#f0f0f0"
                  rx="0.058800001"
                  x="8.58745"
                  width="0.85479999"
                  height="0.74903798"
                />
              </g>
            </g>
            <g
              id="g3094"
              gorn="0.3.0.1.5.0.1">
              <g
                id="g3096"
                gorn="0.3.0.1.5.0.1.0">
                <rect
                  id="_144817864"
                  y="5.6143999"
                  gorn="0.3.0.1.5.0.1.0.0"
                  fill="#f0f0f0"
                  x="0.9928"
                  width="10.8352"
                  height="1.2553999"
                />
                <rect
                  ry="0.090400003"
                  id="_144817720"
                  y="5.6173"
                  gorn="0.3.0.1.5.0.1.0.1"
                  fill="#f0f0f0"
                  rx="0.090400003"
                  x="0.66600001"
                  width="1.2051001"
                  height="1.2553"
                />
                <rect
                  ry="0.090400003"
                  id="_144817408"
                  y="5.6173"
                  gorn="0.3.0.1.5.0.1.0.2"
                  fill="#f0f0f0"
                  rx="0.090400003"
                  x="10.766"
                  width="1.2561001"
                  height="1.2553"
                />
              </g>
              <g
                id="g3101"
                gorn="0.3.0.1.5.0.1.1">
                <rect
                  id="_144817744"
                  y="7.8281002"
                  gorn="0.3.0.1.5.0.1.1.0"
                  fill="#f0f0f0"
                  x="0.9928"
                  width="10.8352"
                  height="0.94080198"
                />
                <rect
                  ry="0.090400003"
                  id="_144828448"
                  y="7.8302698"
                  gorn="0.3.0.1.5.0.1.1.1"
                  fill="#f0f0f0"
                  rx="0.090400003"
                  x="0.66600001"
                  width="1.2051001"
                  height="0.940727"
                />
                <rect
                  ry="0.090400003"
                  id="_144815320"
                  y="7.8302698"
                  gorn="0.3.0.1.5.0.1.1.2"
                  fill="#f0f0f0"
                  rx="0.090400003"
                  x="10.766"
                  width="1.2561001"
                  height="0.940727"
                />
              </g>
              <g
                id="g3106"
                gorn="0.3.0.1.5.0.1.2">
                <rect
                  id="_144826264"
                  y="9.7138996"
                  gorn="0.3.0.1.5.0.1.2.0"
                  fill="#f0f0f0"
                  x="0.9928"
                  width="10.8352"
                  height="0.95497"
                />
                <rect
                  ry="0.090400003"
                  id="_144825736"
                  y="9.7161102"
                  gorn="0.3.0.1.5.0.1.2.1"
                  fill="#f0f0f0"
                  rx="0.090400003"
                  x="0.66600001"
                  width="1.2051001"
                  height="0.95489401"
                />
                <rect
                  ry="0.090400003"
                  id="_144821320"
                  y="9.7161102"
                  gorn="0.3.0.1.5.0.1.2.2"
                  fill="#f0f0f0"
                  rx="0.090400003"
                  x="10.766"
                  width="1.2561001"
                  height="0.95489401"
                />
              </g>
              <g
                id="g3111"
                gorn="0.3.0.1.5.0.1.3">
                <rect
                  id="_144828688"
                  y="11.6139"
                  gorn="0.3.0.1.5.0.1.3.0"
                  fill="#f0f0f0"
                  x="0.9928"
                  width="10.8352"
                  height="0.95497"
                />
                <rect
                  ry="0.090400003"
                  id="_144819808"
                  y="11.6161"
                  gorn="0.3.0.1.5.0.1.3.1"
                  fill="#f0f0f0"
                  rx="0.090400003"
                  x="0.66600001"
                  width="1.2051001"
                  height="0.95489401"
                />
                <rect
                  ry="0.090400003"
                  id="_144820288"
                  y="11.6161"
                  gorn="0.3.0.1.5.0.1.3.2"
                  fill="#f0f0f0"
                  rx="0.090400003"
                  x="10.766"
                  width="1.2561001"
                  height="0.95489401"
                />
              </g>
              <g
                id="g3116"
                gorn="0.3.0.1.5.0.1.4">
                <rect
                  id="_144820888"
                  y="13.5139"
                  gorn="0.3.0.1.5.0.1.4.0"
                  fill="#f0f0f0"
                  x="0.9928"
                  width="10.8352"
                  height="0.95497"
                />
                <rect
                  ry="0.090400003"
                  id="_144819568"
                  y="13.5161"
                  gorn="0.3.0.1.5.0.1.4.1"
                  fill="#f0f0f0"
                  rx="0.090400003"
                  x="0.66600001"
                  width="1.2051001"
                  height="0.95489401"
                />
                <rect
                  ry="0.090400003"
                  id="_144818536"
                  y="13.5161"
                  gorn="0.3.0.1.5.0.1.4.2"
                  fill="#f0f0f0"
                  rx="0.090400003"
                  x="10.766"
                  width="1.2561001"
                  height="0.95489401"
                />
              </g>
            </g>
          </g>
          <g
            id="g3121"
            gorn="0.3.0.1.5.1">
            <g
              id="g3123"
              gorn="0.3.0.1.5.1.0">
              <rect
                id="_144827800"
                y="15.9243"
                gorn="0.3.0.1.5.1.0.0"
                fill="#f0f0f0"
                x="0.79140002"
                width="11.2103"
                height="2.5827"
              />
              <rect
                ry="0.068400003"
                id="_144826000"
                y="15.4173"
                gorn="0.3.0.1.5.1.0.1"
                fill="#f0f0f0"
                rx="0.068400003"
                x="0.78860003"
                width="0.92940003"
                height="0.91219997"
              />
              <rect
                ry="0.068400003"
                id="_144827488"
                y="15.4173"
                gorn="0.3.0.1.5.1.0.2"
                fill="#f0f0f0"
                rx="0.068400003"
                x="11.0886"
                width="0.9181"
                height="0.91219997"
              />
              <rect
                ry="0.228"
                id="_144825808"
                y="18.0173"
                gorn="0.3.0.1.5.1.0.3"
                fill="#f0f0f0"
                rx="0.228"
                x="0.78860003"
                width="0.92940003"
                height="0.85900003"
              />
              <rect
                ry="0.228"
                id="_144825208"
                y="18.0173"
                gorn="0.3.0.1.5.1.0.4"
                fill="#f0f0f0"
                rx="0.228"
                x="11.0886"
                width="0.91299999"
                height="0.85900003"
              />
              <rect
                id="_144821752"
                y="15.6374"
                gorn="0.3.0.1.5.1.0.5"
                fill="#f0f0f0"
                x="1.51401"
                width="9.7676897"
                height="3.0341201"
              />
              <rect
                id="_144821560"
                y="15.4122"
                gorn="0.3.0.1.5.1.0.6"
                fill="#f0f0f0"
                x="1.1713001"
                width="10.3351"
                height="3.4640999"
              />
            </g>
            <g
              id="g3132"
              gorn="0.3.0.1.5.1.1">
              <rect
                ry="0.44679999"
                id="_144822040"
                y="3.9540999"
                gorn="0.3.0.1.5.1.1.0"
                fill="#f0f0f0"
                rx="0.44679999"
                x="0.67110002"
                width="3.1861"
                height="2.2342"
              />
              <rect
                ry="0.44679999"
                id="_144822280"
                y="3.9540999"
                gorn="0.3.0.1.5.1.1.1"
                fill="#f0f0f0"
                rx="0.44679999"
                x="8.8664999"
                width="3.1505001"
                height="2.2342"
              />
            </g>
          </g>
        </g>
        <g
          id="g3136"
          gorn="0.3.0.1.6">
          <g
            id="g3138"
            gorn="0.3.0.1.6.0">
            <g
              id="g3140"
              gorn="0.3.0.1.6.0.0">
              <rect
                id="_144827680"
                y="4.9225998"
                gorn="0.3.0.1.6.0.0.0"
                fill="#323232"
                x="4.1434999"
                width="0.93690002"
                height="0.69209999"
              />
              <rect
                id="_144824176"
                y="4.9225998"
                gorn="0.3.0.1.6.0.0.1"
                fill="#323232"
                x="5.9435"
                width="0.93690002"
                height="0.69209999"
              />
              <rect
                id="_144822616"
                y="4.9225998"
                gorn="0.3.0.1.6.0.0.2"
                fill="#323232"
                x="7.7456999"
                width="0.79509997"
                height="0.69209999"
              />
            </g>
            <g
              id="g3145"
              gorn="0.3.0.1.6.0.1">
              <path
                stroke="#78786e"
                stroke-width="0.25"
                d="m 4.1431,5.2274 c 0.9396,0 0.9396,0 0.9396,0"
                id="_144828880"
                gorn="0.3.0.1.6.0.1.0"
                fill="none"
              />
              <path
                stroke="#78786e"
                stroke-width="0.0762"
                d="M 5.9433,5.1839 C 6.2376,5.1821 6.3992,5.3257 6.4179,5.6124"
                id="_144823480"
                gorn="0.3.0.1.6.0.1.1"
                fill="none"
              />
            </g>
          </g>
          <g
            id="g3149"
            gorn="0.3.0.1.6.1">
            <rect
              id="_144817384"
              y="4.2379999"
              gorn="0.3.0.1.6.1.0"
              fill="url(#linearGradient3164)"
              x="4.1434999"
              width="0.93690002"
              height="0.69209999"
            />
            <rect
              id="_144825040"
              y="4.2379999"
              gorn="0.3.0.1.6.1.1"
              fill="url(#linearGradient3166)"
              x="5.9435"
              width="0.93690002"
              height="0.69209999"
            />
            <rect
              id="_144817648"
              y="4.2379999"
              gorn="0.3.0.1.6.1.2"
              fill="url(#linearGradient3168)"
              x="7.7456999"
              width="0.79509997"
              height="0.69209999"
            />
          </g>
        </g>
      </g>
    </g>
    <rect
      id="connector0"
      y="20.116928"
      gorn="0.3.1"
      fill="none"
      x="1.1192287"
      width="1.4111111"
      height="1.4111111"
    />
    <rect
      height="0.0091313003"
      width="0.0014619111"
      gorn="0.1.0.0.0.0.0.33"
      y="21.59"
      id="connector0terminal"
      fill="none"
      stroke="none"
      x="1.778"
      stroke-width="0"
    />
    <rect
      id="connector1"
      y="20.116928"
      gorn="0.3.2"
      fill="none"
      x="3.709033"
      width="1.4111111"
      height="1.4111111"
    />
    <rect
      height="0.0091313003"
      width="0.0014619111"
      gorn="0.1.0.0.0.0.0.33"
      y="21.59"
      id="connector1terminal"
      fill="none"
      stroke="none"
      x="4.3180003"
      stroke-width="0"
    />
    <rect
      id="connector2"
      y="20.183332"
      gorn="0.3.3"
      fill="none"
      x="6.1660261"
      width="1.4111111"
      height="1.4111111"
    />
    <rect
      height="0.0091313003"
      width="0.0014619111"
      gorn="0.1.0.0.0.0.0.33"
      y="21.59"
      id="connector2terminal"
      fill="none"
      stroke="none"
      x="6.8580003"
      stroke-width="0"
    />
    <rect
      id="connector3"
      y="20.116928"
      gorn="0.3.4"
      fill="none"
      x="8.7558298"
      width="1.4111111"
      height="1.4111111"
    />
    <rect
      height="0.0091313003"
      width="0.0014619111"
      gorn="0.1.0.0.0.0.0.33"
      y="21.59"
      id="connector3terminal"
      fill="none"
      stroke="none"
      x="9.3979998"
      stroke-width="0"
    />
  </g>
</svg>
