<?xml version="1.0" encoding="utf-8"?>
<!-- Generator: Adobe Illustrator 16.0.0, SVG Export Plug-In . SVG Version: 6.00 Build 0)  -->
<!DOCTYPE svg PUBLIC "-//W3C//DTD SVG 1.1//EN" "http://www.w3.org/Graphics/SVG/1.1/DTD/svg11.dtd">
<svg version="1.1"
	 id="svg72" xmlns:svg="http://www.w3.org/2000/svg" xmlns:rdf="http://www.w3.org/1999/02/22-rdf-syntax-ns#" xmlns:cc="http://creativecommons.org/ns#" xmlns:dc="http://purl.org/dc/elements/1.1/"
	 xmlns="http://www.w3.org/2000/svg" xmlns:xlink="http://www.w3.org/1999/xlink" x="0px" y="0px" width="33.165px"
	 height="21.543px" viewBox="0 0 33.165 21.543" enable-background="new 0 0 33.165 21.543" xml:space="preserve">
<desc  id="desc2">
	<referenceFile>TSR12450_86a6846d5fd4a7eca4ec8820fd2ce473_1_breadboard.svg</referenceFile>
</desc>
<title  id="title4">TSR12450_breadboard</title>
<g id="breadboard">
	<rect id="rect51" fill="#1A1A1A" width="33.165" height="21.543"/>
	<rect id="connector0pin" x="8.64" y="7.576" fill="#E6E6E6" width="1.44" height="1.44"/>
	<rect id="connector1pin" x="15.874" y="7.576" fill="#E6E6E6" width="1.44" height="1.44"/>
	<rect id="connector2pin" x="23.074" y="7.576" fill="#E6E6E6" width="1.44" height="1.44"/>
	<text id="label" transform="matrix(1 0 0 1 3.7124 14.793)" fill="#E6E6E6" font-family="'OCRA'" font-size="3">TSR 2 SERIES</text>
</g>
</svg>
