<?xml version='1.0' encoding='UTF-8' standalone='no'?>
<svg
  xmlns:dc="http://purl.org/dc/elements/1.1/"
  xmlns:cc="http://creativecommons.org/ns#"
  xmlns:rdf="http://www.w3.org/1999/02/22-rdf-syntax-ns#"
  xmlns:svg="http://www.w3.org/2000/svg"
  xmlns="http://www.w3.org/2000/svg"
  id="svg2"
  y="0in"
  version="1.2"
  height="0.30999997in"
  width="0.40985909in"
  x="0in"
  viewBox="0 0 409.8591 309.99997">
  <metadata
    id="metadata41">
    <rdf:RDF>
      <cc:Work
        rdf:about="">
        <dc:format>image/svg+xml</dc:format>
        <dc:type
          rdf:resource="http://purl.org/dc/dcmitype/StillImage"
        />
        <dc:title/>
      </cc:Work>
    </rdf:RDF>
  </metadata>
  <defs
    id="defs39"
  />
  <desc
    id="desc4">
    <referenceFile>Kaith-switch-socket_1_schematic.svg</referenceFile>
  </desc>
  <g
    id="schematic">
    <rect
      stroke-linecap="round"
      stroke-width="10"
      stroke="#000000"
      fill="none"
      x="5"
      width="300"
      height="300"
      y="5"
      id="rect7"
    />
    <text
      font-size="60"
      y="108.30531"
      x="111.00478"
      id="label"
      font-family="'Droid Sans'"
      text-anchor="middle"
      fill="#000000">MX</text>
    <text
      font-size="60"
      y="208.49973"
      x="111.00478"
      id="text42"
      font-family="'Droid Sans'"
      text-anchor="middle"
      fill="#000000">Key</text>
    <line
      id="line44"
      x1="257.27499"
      x2="306.07492"
      y2="104.6677"
      y1="104.6677"
      fill="none"
      stroke="#000000"
      stroke-width="5"
      stroke-linecap="round"
    />
    <line
      id="line46"
      x1="257.27499"
      x2="306.07492"
      y2="204.16769"
      y1="204.16769"
      fill="none"
      stroke="#000000"
      stroke-width="5"
      stroke-linecap="round"
    />
    <line
      id="line48"
      x1="236.09308"
      x2="257.27499"
      y2="104.6677"
      y1="207.77423"
      fill="none"
      stroke="#000000"
      stroke-width="5"
      stroke-linecap="round"
    />
    <line
      id="connector0pin"
      x1="309.85913"
      x2="404.85913"
      y2="204.66769"
      y1="204.66769"
      fill="none"
      stroke="#555555"
      stroke-width="10"
      stroke-linecap="round"
    />
    <rect
      y="199.66769"
      height="10"
      width="10"
      x="399.85913"
      id="connector0terminal"
      fill="none"
      stroke-width="0"
    />
    <line
      id="connector1pin"
      x1="309.85913"
      x2="404.85913"
      y2="104.6677"
      y1="104.6677"
      fill="none"
      stroke="#555555"
      stroke-width="10"
      stroke-linecap="round"
    />
    <rect
      y="100.6677"
      height="10"
      width="10"
      x="399.85913"
      id="connector1terminal"
      fill="none"
      stroke-width="0"
    />
  </g>
</svg>
