<?xml version='1.0' encoding='UTF-8' standalone='no'?>
<svg
  xmlns:dc="http://purl.org/dc/elements/1.1/"
  xmlns:cc="http://creativecommons.org/ns#"
  xmlns:rdf="http://www.w3.org/1999/02/22-rdf-syntax-ns#"
  xmlns:svg="http://www.w3.org/2000/svg"
  xmlns="http://www.w3.org/2000/svg"
  id="svg2"
  y="0in"
  version="1.2"
  height="0.50525218in"
  width="0.50769728in"
  x="0in"
  viewBox="0 0 507.6973 505.25217">
  <metadata
    id="metadata41">
    <rdf:RDF>
      <cc:Work
        rdf:about="">
        <dc:format>image/svg+xml</dc:format>
        <dc:type
          rdf:resource="http://purl.org/dc/dcmitype/StillImage"
        />
        <dc:title/>
      </cc:Work>
    </rdf:RDF>
  </metadata>
  <defs
    id="defs39"
  />
  <desc
    id="desc4">
    <referenceFile>DHT11-Grove-Temperature-Sensor_1_schematic.svg</referenceFile>
  </desc>
  <g
    id="schematic">
    <rect
      id="rect7"
      y="5"
      height="495.25217"
      width="395.25217"
      x="5"
      fill="none"
      stroke="#000000"
      stroke-width="10"
      stroke-linecap="round"
    />
    <text
      id="label1"
      x="152.37102"
      y="212.35588"
      font-size="49"
      font-family="'Droid Sans'"
      text-anchor="middle"
      fill="#000000">Grove</text>
    <text
      id="text79"
      x="375.99634"
      y="220.1261"
      font-size="49"
      font-family="'Droid Sans'"
      text-anchor="end"
      fill="#555555">NC</text>
    <text
      x="430.80396"
      y="182.2843"
      font-size="35"
      id="text63"
      font-family="'Droid Sans'"
      text-anchor="start"
      fill="#555555">2</text>
    <text
      id="text81"
      x="374.27368"
      y="120.12609"
      font-size="49"
      font-family="'Droid Sans'"
      text-anchor="end"
      fill="#555555">SIG</text>
    <text
      x="431.11157"
      y="82.284286"
      font-size="35"
      id="text65"
      font-family="'Droid Sans'"
      text-anchor="start"
      fill="#555555">1</text>
    <text
      font-size="49"
      y="420.62613"
      x="375.99634"
      id="text42"
      font-family="'Droid Sans'"
      text-anchor="end"
      fill="#555555">GND</text>
    <text
      id="text44"
      font-size="35"
      y="382.7843"
      x="430.80396"
      font-family="'Droid Sans'"
      text-anchor="start"
      fill="#555555">4</text>
    <text
      font-size="49"
      y="320.62607"
      x="374.27368"
      id="text46"
      font-family="'Droid Sans'"
      text-anchor="end"
      fill="#555555">VCC</text>
    <text
      id="text48"
      font-size="35"
      y="282.78427"
      x="431.11157"
      font-family="'Droid Sans'"
      text-anchor="start"
      fill="#555555">3</text>
    <text
      font-size="49"
      y="264.31293"
      x="153.40829"
      id="text58"
      font-family="'Droid Sans'"
      text-anchor="middle"
      fill="#000000">Temp</text>
    <text
      id="text60"
      x="151.32497"
      y="328.6059"
      font-size="49"
      font-family="'Droid Sans'"
      text-anchor="middle"
      fill="#000000">Sensor</text>
    <line
      y1="102.29379"
      y2="102.29379"
      x2="502.62607"
      x1="407.62607"
      id="connector0pin"
      fill="none"
      stroke="#555555"
      stroke-width="10"
      stroke-linecap="round"
    />
    <rect
      id="connector0terminal"
      x="497.62607"
      width="10"
      height="10"
      y="98.293785"
      fill="none"
      stroke-width="0"
    />
    <line
      y1="202.29379"
      y2="202.29379"
      x2="502.62607"
      x1="407.62607"
      id="connector1pin"
      fill="none"
      stroke="#555555"
      stroke-width="10"
      stroke-linecap="round"
    />
    <rect
      id="connector1terminal"
      x="497.62607"
      width="10"
      height="10"
      y="197.29379"
      fill="none"
      stroke-width="0"
    />
    <line
      id="connector2pin"
      x1="407.62607"
      x2="502.62607"
      y2="302.79379"
      y1="302.79379"
      fill="none"
      stroke="#555555"
      stroke-width="10"
      stroke-linecap="round"
    />
    <rect
      y="298.79379"
      height="10"
      width="10"
      x="497.62607"
      id="connector2terminal"
      fill="none"
      stroke-width="0"
    />
    <line
      id="connector3pin"
      x1="407.62607"
      x2="502.62607"
      y2="402.79379"
      y1="402.79379"
      fill="none"
      stroke="#555555"
      stroke-width="10"
      stroke-linecap="round"
    />
    <rect
      y="397.79379"
      height="10"
      width="10"
      x="497.62607"
      id="connector3terminal"
      fill="none"
      stroke-width="0"
    />
  </g>
</svg>
