<?xml version='1.0' encoding='UTF-8' standalone='no'?>
<svg xmlns="http://www.w3.org/2000/svg" height="1.0488994in"  width="0.90551186in" gorn="0" version="1.2" y="0in" x="0in" id="svg2" viewBox="0 0 905.5118 1048.8994">
    <metadata  id="metadata24">
        <rdf:RDF xmlns:rdf="http://www.w3.org/1999/02/22-rdf-syntax-ns#">
            <cc:Work xmlns:rdf="http://www.w3.org/1999/02/22-rdf-syntax-ns#" xmlns:cc="http://creativecommons.org/ns#" rdf:about="">
                <dc:format xmlns:dc="http://purl.org/dc/elements/1.1/">image/svg+xml</dc:format>
                <dc:type xmlns:rdf="http://www.w3.org/1999/02/22-rdf-syntax-ns#" xmlns:dc="http://purl.org/dc/elements/1.1/" rdf:resource="http://purl.org/dc/dcmitype/StillImage"/>
                <dc:title xmlns:dc="http://purl.org/dc/elements/1.1/"/>
            </cc:Work>
        </rdf:RDF>
    </metadata>
    <defs  id="defs22"/>
    <desc  id="desc4">
        <referenceFile >sv17f_1_breadboard.svg</referenceFile>
    </desc>
    <g  gorn="0.3" id="breadboard">
        <g  transform="rotate(-90)">
            <g >
                <g >
                    <g >
                        <g >
                            <circle stroke="none" r="5"  stroke-width="0" gorn="0.3.0.0.0.0.0.0" cy="771.25934" cx="-657.00299" fill="#1f1f1f" id="circle24"/>
                        </g>
                    </g>
                </g>
            </g>
        </g>
        <rect height="1023.622"  width="905.51178" stroke-width="0" gorn="0.3.1" y="25.277378" x="0" fill="#214478" id="upper"/>
        <rect stroke="none" height="43.814526"  width="29.164513" stroke-linecap="round" stroke-width="0" gorn="0.3.2" y="913.40533" x="320.30392" fill="#8c8c8c" id="rect20-6" connectorname="1"/>
        <rect stroke="none" height="43.814526"  width="29.164513" stroke-linecap="round" stroke-width="0" gorn="0.3.3" y="913.40533" x="366.54041" fill="#8c8c8c" id="rect22-5" connectorname="2"/>
        <rect stroke="none" height="43.814526"  width="29.164513" stroke-linecap="round" stroke-width="0" gorn="0.3.4" y="913.40533" x="412.77673" fill="#8c8c8c" id="rect24-8" connectorname="3"/>
        <rect stroke="none" height="43.814526"  width="29.164513" stroke-linecap="round" stroke-width="0" gorn="0.3.5" y="913.40533" x="459.01355" fill="#8c8c8c" id="rect26-4" connectorname="4"/>
        <rect stroke="none" height="43.814526"  width="29.164513" stroke-linecap="round" stroke-width="0" gorn="0.3.6" y="707.21985" x="459.01355" fill="#8c8c8c" id="rect28" connectorname="5"/>
        <rect stroke="none" height="43.814526"  width="29.164513" stroke-linecap="round" stroke-width="0" gorn="0.3.7" y="707.21985" x="412.77673" fill="#8c8c8c" id="rect30" connectorname="6"/>
        <rect stroke="none" height="43.814526"  width="29.164513" stroke-linecap="round" stroke-width="0" gorn="0.3.8" y="707.21985" x="366.54041" fill="#8c8c8c" id="rect32" connectorname="7"/>
        <rect stroke="none" height="43.814526"  width="29.164513" stroke-linecap="round" stroke-width="0" gorn="0.3.9" y="707.21985" x="320.30392" fill="#8c8c8c" id="rect34" connectorname="8"/>
        <rect stroke="none" height="111.68381"  width="184.94635" stroke-linecap="round" stroke-width="0" gorn="0.3.10" y="776.37811" x="311.76804" fill="#8c8c8c" id="rect36" connectorname="EP"/>
        <rect stroke="none" height="147.65518"  width="243.28874" stroke-width="0" gorn="0.3.11" y="758.39264" x="274.87845" fill="#303030" id="rect38-5"/>
        <g  transform="matrix(1.8067694,0,0,1.091067,274.87847,707.21985)">
            <g >
                <g >
                    <g >
                        <g >
                            <polygon  stroke-width="0.888878" gorn="0.3.12.0.0.0.0.0" points="10,56.9016 0,46.9016 134.654,46.9016 124.654,56.9016 " fill="#1f1f1f" id="polygon40"/>
                        </g>
                    </g>
                </g>
            </g>
        </g>
        <g  transform="matrix(1.8067694,0,0,1.091067,274.87847,707.21985)">
            <g >
                <g >
                    <g >
                        <g >
                            <polygon  stroke-width="0.888878" gorn="0.3.13.0.0.0.0.0" points="10,172.232 0,182.232 134.654,182.232 124.654,172.232 " fill="#1f1f1f" id="polygon42"/>
                        </g>
                    </g>
                </g>
            </g>
        </g>
        <g  transform="matrix(1.8067694,0,0,1.091067,274.87847,707.21985)">
            <g >
                <g >
                    <g >
                        <g >
                            <polygon  stroke-width="0.888878" gorn="0.3.14.0.0.0.0.0" points="10,56.9016 0,46.9016 0,182.232 10,172.232 " fill="#000000" id="polygon44"/>
                        </g>
                    </g>
                </g>
            </g>
        </g>
        <g  transform="matrix(1.8067694,0,0,1.091067,274.87847,707.21985)">
            <g >
                <g >
                    <g >
                        <g >
                            <polygon  stroke-width="0.888878" gorn="0.3.15.0.0.0.0.0" points="124.654,56.9016 134.654,46.9016 134.654,182.232 124.654,172.232 " fill="#3d3d3d" id="polygon46"/>
                        </g>
                    </g>
                </g>
            </g>
        </g>
        <ellipse stroke="none"  ry="10.91067" stroke-width="0" gorn="0.3.16" cy="873.31519" rx="18.067694" cx="329.08154" fill="#1f1f1f" id="circle48"/>
        <g  transform="rotate(90)">
            <g >
                <g >
                    <g >
                        <g >
                            <rect height="36.894447"  width="110.639" stroke-width="0.995402" gorn="0.3.17.0.0.0.0.0" y="-800.45587" x="812.75482" fill="#4d4d4d" id="rect3838"/>
                        </g>
                    </g>
                </g>
            </g>
        </g>
        <g  transform="rotate(90)">
            <g >
                <g >
                    <g >
                        <g >
                            <rect height="0.63302708"  opacity="0.2" enable-background="new    " width="110.639" stroke-width="0.995402" gorn="0.3.18.0.0.0.0.0" y="-800.45587" x="820.10614" fill="#ffffff" id="rect3840"/>
                        </g>
                    </g>
                </g>
            </g>
        </g>
        <g  transform="rotate(90)">
            <g >
                <g >
                    <g >
                        <g >
                            <rect height="10.995381"  width="110.639" stroke-width="0.995402" gorn="0.3.19.0.0.0.0.0" y="-772.52014" x="812.75482" fill="#333333" id="rect3842"/>
                        </g>
                    </g>
                </g>
            </g>
        </g>
        <g  transform="rotate(90)">
            <g >
                <g >
                    <g >
                        <g >
                            <rect height="0.44036612"  opacity="0.2" enable-background="new    " width="110.639" stroke-width="0.995402" gorn="0.3.20.0.0.0.0.0" y="-761.89624" x="812.75482" id="rect3844"/>
                        </g>
                    </g>
                </g>
            </g>
        </g>
        <path  stroke-width="0.995402" gorn="0.3.21" fill="#dcdcdc" id="path3846" d="m 800.45586,907.32433 v 0 0 -1.2917 0 c -3.45412,-1.1111 -10.95416,-1.875 -14.79361,-1.875 -4.00458,0 -9.53669,0.6667 -13.1422,1.875 v 0 0 l 10e-5,16.9861 h 27.93571 z"/>
        <path  stroke-width="0.995402" gorn="0.3.22" fill="#dcdcdc" id="path3848" d="m 799.02467,830.04653 h 1.43119 v -16.9723 h -27.93571 v 16.9861 c 3.61919,1.2223 9.06872,2.6806 13.12843,2.6806 4.76141,0 9.23389,-1.0416 13.37609,-2.6944 z"/>
        <path  stroke-width="0.995402" gorn="0.3.23" fill="#999999" id="path3850" d="m 771.06136,923.11573 v -16.9859 l 1.45879,-0.097 v 16.9861 z"/>
        <path  stroke-width="0.995402" gorn="0.3.24" fill="#999999" id="path3852" d="m 771.03391,813.15763 v 16.9861 l 1.48624,-0.097 v -16.9723 l -1.48624,0.083 z"/>
        <g  transform="rotate(90)">
            <g >
                <g >
                    <g >
                        <g >
                            <rect height="0.63302708"  opacity="0.15" enable-background="new    " width="16.986099" stroke-width="0.995402" gorn="0.3.25.0.0.0.0.0" y="-762.08893" x="813.07428" id="rect3854"/>
                        </g>
                    </g>
                </g>
            </g>
        </g>
        <g  transform="rotate(90)">
            <g >
                <g >
                    <g >
                        <g >
                            <rect height="0.63302708"  opacity="0.5" enable-background="new    " width="16.986099" stroke-width="0.995402" gorn="0.3.26.0.0.0.0.0" y="-800.45587" x="813.07428" fill="#ffffff" id="rect3856"/>
                        </g>
                    </g>
                </g>
            </g>
        </g>
        <g  transform="rotate(90)">
            <g >
                <g >
                    <g >
                        <g >
                            <rect height="0.63302708"  opacity="0.15" enable-background="new    " width="17" stroke-width="0.995402" gorn="0.3.27.0.0.0.0.0" y="-762.08893" x="906.04657" id="rect3858"/>
                        </g>
                    </g>
                </g>
            </g>
        </g>
        <g  transform="rotate(90)">
            <g >
                <g >
                    <g >
                        <g >
                            <rect height="0.63302708"  opacity="0.5" enable-background="new    " width="17" stroke-width="0.995402" gorn="0.3.28.0.0.0.0.0" y="-800.45587" x="906.04657" fill="#ffffff" id="rect3860"/>
                        </g>
                    </g>
                </g>
            </g>
        </g>
        <line  x2="761.45593" y2="823.33807" stroke-width="0.995402" x1="761.45593" gorn="0.3.29" y1="823.33807" fill="none" id="line3862"/>
        <g  transform="rotate(90)">
            <g >
                <g >
                    <g >
                        <g >
                            <rect height="9.5229254"  width="1.63889" stroke-width="0.995402" gorn="0.3.30.0.0.0.0.0" y="-771.06134" x="921.74078" fill="#999999" id="rect3864"/>
                        </g>
                    </g>
                </g>
            </g>
        </g>
        <g  transform="rotate(90)">
            <g >
                <g >
                    <g >
                        <g >
                            <rect height="9.5229254"  width="1.6527801" stroke-width="0.995402" gorn="0.3.31.0.0.0.0.0" y="-771.06134" x="813.07428" fill="#999999" id="rect3866"/>
                        </g>
                    </g>
                </g>
            </g>
        </g>
        <rect stroke="none" height="43.814526"  width="29.164513" stroke-linecap="round" stroke-width="0" gorn="0.3.32" y="913.40472" x="563.59265" fill="#8c8c8c" id="rect1186" connectorname="1"/>
        <rect stroke="none" height="43.814526"  width="29.164513" stroke-linecap="round" stroke-width="0" gorn="0.3.33" y="913.40472" x="609.82916" fill="#8c8c8c" id="rect1188" connectorname="2"/>
        <rect stroke="none" height="43.814526"  width="29.164513" stroke-linecap="round" stroke-width="0" gorn="0.3.34" y="913.40472" x="656.06549" fill="#8c8c8c" id="rect1190" connectorname="3"/>
        <rect stroke="none" height="43.814526"  width="29.164513" stroke-linecap="round" stroke-width="0" gorn="0.3.35" y="913.40472" x="702.30231" fill="#8c8c8c" id="rect1192" connectorname="4"/>
        <rect stroke="none" height="43.814526"  width="29.164513" stroke-linecap="round" stroke-width="0" gorn="0.3.36" y="707.21924" x="702.30231" fill="#8c8c8c" id="rect1194" connectorname="5"/>
        <rect stroke="none" height="43.814526"  width="29.164513" stroke-linecap="round" stroke-width="0" gorn="0.3.37" y="707.21924" x="656.06549" fill="#8c8c8c" id="rect1196" connectorname="6"/>
        <rect stroke="none" height="43.814526"  width="29.164513" stroke-linecap="round" stroke-width="0" gorn="0.3.38" y="707.21924" x="609.82916" fill="#8c8c8c" id="rect1198" connectorname="7"/>
        <rect stroke="none" height="43.814526"  width="29.164513" stroke-linecap="round" stroke-width="0" gorn="0.3.39" y="707.21924" x="563.59265" fill="#8c8c8c" id="rect1200" connectorname="8"/>
        <rect stroke="none" height="111.68381"  width="184.94635" stroke-linecap="round" stroke-width="0" gorn="0.3.40" y="776.3775" x="555.05676" fill="#8c8c8c" id="rect1202" connectorname="EP"/>
        <rect stroke="none" height="147.65518"  width="243.28874" stroke-width="0" gorn="0.3.41" y="758.39203" x="518.16718" fill="#303030" id="rect1204"/>
        <g  transform="matrix(1.8067694,0,0,1.091067,518.16721,707.21924)">
            <g >
                <g >
                    <g >
                        <g >
                            <polygon  stroke-width="0.888878" gorn="0.3.42.0.0.0.0.0" points="0,46.9016 134.654,46.9016 124.654,56.9016 10,56.9016 " fill="#1f1f1f" id="polygon1206"/>
                        </g>
                    </g>
                </g>
            </g>
        </g>
        <g  transform="matrix(1.8067694,0,0,1.091067,518.16721,707.21924)">
            <g >
                <g >
                    <g >
                        <g >
                            <polygon  stroke-width="0.888878" gorn="0.3.43.0.0.0.0.0" points="0,182.232 134.654,182.232 124.654,172.232 10,172.232 " fill="#1f1f1f" id="polygon1208"/>
                        </g>
                    </g>
                </g>
            </g>
        </g>
        <g  transform="matrix(1.8067694,0,0,1.091067,518.16721,707.21924)">
            <g >
                <g >
                    <g >
                        <g >
                            <polygon  stroke-width="0.888878" gorn="0.3.44.0.0.0.0.0" points="0,46.9016 0,182.232 10,172.232 10,56.9016 " fill="#000000" id="polygon1210"/>
                        </g>
                    </g>
                </g>
            </g>
        </g>
        <g  transform="matrix(1.8067694,0,0,1.091067,518.16721,707.21924)">
            <g >
                <g >
                    <g >
                        <g >
                            <polygon  stroke-width="0.888878" gorn="0.3.45.0.0.0.0.0" points="134.654,46.9016 134.654,182.232 124.654,172.232 124.654,56.9016 " fill="#3d3d3d" id="polygon1212"/>
                        </g>
                    </g>
                </g>
            </g>
        </g>
        <ellipse stroke="none"  ry="10.91067" stroke-width="0" gorn="0.3.46" cy="873.31458" rx="18.067694" cx="572.3703" fill="#1f1f1f" id="ellipse1214"/>
        <g  transform="rotate(90)">
            <g >
                <g >
                    <g >
                        <g >
                            <rect height="29.039684"  width="76.900902" stroke-width="0.995401" gorn="0.3.47.0.0.0.0.0" y="-792.15283" x="693.54852" fill="#4d4d4d" id="rect1218"/>
                        </g>
                    </g>
                </g>
            </g>
        </g>
        <g  transform="rotate(90)">
            <g >
                <g >
                    <g >
                        <g >
                            <rect height="0.49825674"  opacity="0.2" enable-background="new    " width="76.900902" stroke-width="0.995401" gorn="0.3.48.0.0.0.0.0" y="-792.15283" x="698.65814" fill="#ffffff" id="rect1220"/>
                        </g>
                    </g>
                </g>
            </g>
        </g>
        <g  transform="rotate(90)">
            <g >
                <g >
                    <g >
                        <g >
                            <rect height="8.6544838"  width="76.900902" stroke-width="0.995401" gorn="0.3.49.0.0.0.0.0" y="-770.16461" x="693.54852" fill="#333333" id="rect1222"/>
                        </g>
                    </g>
                </g>
            </g>
        </g>
        <g  transform="rotate(90)">
            <g >
                <g >
                    <g >
                        <g >
                            <rect height="0.34661296"  opacity="0.2" enable-background="new    " width="76.900902" stroke-width="0.995401" gorn="0.3.50.0.0.0.0.0" y="-761.80249" x="693.54852" id="rect1224"/>
                        </g>
                    </g>
                </g>
            </g>
        </g>
        <path  stroke-width="0.995401" gorn="0.3.51" fill="#dcdcdc" id="path1226" d="m 792.15284,759.28015 v 0 0 -0.89781 0 c -2.71874,-0.77228 -8.62203,-1.30324 -11.64407,-1.30324 -3.15201,0 -7.50635,0.4634 -10.34425,1.30324 v 0 0 l 8e-5,11.80639 h 21.98824 z"/>
        <path  stroke-width="0.995401" gorn="0.3.52" fill="#dcdcdc" id="path1228" d="m 791.02635,705.56733 h 1.12649 V 693.77054 H 770.1646 v 11.80639 c 2.84867,0.84957 7.138,1.86318 10.33341,1.86318 3.74771,0 7.26801,-0.72398 10.52834,-1.87278 z"/>
        <path  stroke-width="0.995401" gorn="0.3.53" fill="#999999" id="path1230" d="M 769.01638,770.25615 V 758.4499 l 1.14822,-0.0674 v 11.80639 z"/>
        <path  stroke-width="0.995401" gorn="0.3.54" fill="#999999" id="path1232" d="m 768.99478,693.82851 v 11.80638 l 1.16982,-0.0674 V 693.7707 l -1.16982,0.0577 z"/>
        <g  transform="rotate(90)">
            <g >
                <g >
                    <g >
                        <g >
                            <rect height="0.49825674"  opacity="0.15" enable-background="new    " width="11.806382" stroke-width="0.995401" gorn="0.3.55.0.0.0.0.0" y="-761.95416" x="693.77057" id="rect1234"/>
                        </g>
                    </g>
                </g>
            </g>
        </g>
        <g  transform="rotate(90)">
            <g >
                <g >
                    <g >
                        <g >
                            <rect height="0.49825674"  opacity="0.5" enable-background="new    " width="11.806382" stroke-width="0.995401" gorn="0.3.56.0.0.0.0.0" y="-792.15283" x="693.77057" fill="#ffffff" id="rect1236"/>
                        </g>
                    </g>
                </g>
            </g>
        </g>
        <g  transform="rotate(90)">
            <g >
                <g >
                    <g >
                        <g >
                            <rect height="0.49825674"  opacity="0.15" enable-background="new    " width="11.816045" stroke-width="0.995401" gorn="0.3.57.0.0.0.0.0" y="-761.95416" x="758.39203" id="rect1238"/>
                        </g>
                    </g>
                </g>
            </g>
        </g>
        <g  transform="rotate(90)">
            <g >
                <g >
                    <g >
                        <g >
                            <rect height="0.49825674"  opacity="0.5" enable-background="new    " width="11.816045" stroke-width="0.995401" gorn="0.3.58.0.0.0.0.0" y="-792.15283" x="758.39203" fill="#ffffff" id="rect1240"/>
                        </g>
                    </g>
                </g>
            </g>
        </g>
        <line  x2="761.45593" y2="700.90454" stroke-width="0.995401" x1="761.45593" gorn="0.3.59" y1="700.90454" fill="none" id="line1242"/>
        <g  transform="rotate(90)">
            <g >
                <g >
                    <g >
                        <g >
                            <rect height="7.4955115"  width="1.1391293" stroke-width="0.995401" gorn="0.3.60.0.0.0.0.0" y="-769.01642" x="769.30048" fill="#999999" id="rect1244"/>
                        </g>
                    </g>
                </g>
            </g>
        </g>
        <g  transform="rotate(90)">
            <g >
                <g >
                    <g >
                        <g >
                            <rect height="7.4955115"  width="1.1487837" stroke-width="0.995401" gorn="0.3.61.0.0.0.0.0" y="-769.01642" x="693.77057" fill="#999999" id="rect1246"/>
                        </g>
                    </g>
                </g>
            </g>
        </g>
        <g  transform="rotate(90)">
            <g >
                <g >
                    <g >
                        <g >
                            <rect height="36.894447"  width="110.639" stroke-width="0.995402" gorn="0.3.62.0.0.0.0.0" y="-260.75891" x="859.8053" fill="#4d4d4d" id="rect1282"/>
                        </g>
                    </g>
                </g>
            </g>
        </g>
        <g  transform="rotate(90)">
            <g >
                <g >
                    <g >
                        <g >
                            <rect height="0.63302708"  opacity="0.2" enable-background="new    " width="110.639" stroke-width="0.995402" gorn="0.3.63.0.0.0.0.0" y="-260.75891" x="867.15662" fill="#ffffff" id="rect1284"/>
                        </g>
                    </g>
                </g>
            </g>
        </g>
        <g  transform="rotate(90)">
            <g >
                <g >
                    <g >
                        <g >
                            <rect height="10.995381"  width="110.639" stroke-width="0.995402" gorn="0.3.64.0.0.0.0.0" y="-232.82318" x="859.8053" fill="#333333" id="rect1286"/>
                        </g>
                    </g>
                </g>
            </g>
        </g>
        <g  transform="rotate(90)">
            <g >
                <g >
                    <g >
                        <g >
                            <rect height="0.44036612"  opacity="0.2" enable-background="new    " width="110.639" stroke-width="0.995402" gorn="0.3.65.0.0.0.0.0" y="-222.19928" x="859.8053" id="rect1288"/>
                        </g>
                    </g>
                </g>
            </g>
        </g>
        <path  stroke-width="0.995402" gorn="0.3.66" fill="#dcdcdc" id="path1290" d="m 260.75889,954.37484 v 0 0 -1.2917 0 c -3.45412,-1.1111 -10.95416,-1.875 -14.79361,-1.875 -4.00458,0 -9.53669,0.6667 -13.1422,1.875 v 0 0 l 1e-4,16.9861 h 27.93571 z"/>
        <path  stroke-width="0.995402" gorn="0.3.67" fill="#dcdcdc" id="path1292" d="m 259.3277,877.09704 h 1.43119 v -16.9723 h -27.93571 v 16.9861 c 3.61919,1.2223 9.06872,2.6806 13.12843,2.6806 4.76141,0 9.23389,-1.0416 13.37609,-2.6944 z"/>
        <path  stroke-width="0.995402" gorn="0.3.68" fill="#999999" id="path1294" d="m 231.36439,970.16624 v -16.9859 l 1.45879,-0.097 v 16.9861 z"/>
        <path  stroke-width="0.995402" gorn="0.3.69" fill="#999999" id="path1296" d="m 231.33694,860.20814 v 16.9861 l 1.48624,-0.097 v -16.9723 l -1.48624,0.083 z"/>
        <g  transform="rotate(90)">
            <g >
                <g >
                    <g >
                        <g >
                            <rect height="0.63302708"  opacity="0.15" enable-background="new    " width="16.986099" stroke-width="0.995402" gorn="0.3.70.0.0.0.0.0" y="-222.392" x="860.12476" id="rect1298"/>
                        </g>
                    </g>
                </g>
            </g>
        </g>
        <g  transform="rotate(90)">
            <g >
                <g >
                    <g >
                        <g >
                            <rect height="0.63302708"  opacity="0.5" enable-background="new    " width="16.986099" stroke-width="0.995402" gorn="0.3.71.0.0.0.0.0" y="-260.75891" x="860.12476" fill="#ffffff" id="rect1300"/>
                        </g>
                    </g>
                </g>
            </g>
        </g>
        <g  transform="rotate(90)">
            <g >
                <g >
                    <g >
                        <g >
                            <rect height="0.63302708"  opacity="0.15" enable-background="new    " width="17" stroke-width="0.995402" gorn="0.3.72.0.0.0.0.0" y="-222.392" x="953.09705" id="rect1302"/>
                        </g>
                    </g>
                </g>
            </g>
        </g>
        <g  transform="rotate(90)">
            <g >
                <g >
                    <g >
                        <g >
                            <rect height="0.63302708"  opacity="0.5" enable-background="new    " width="17" stroke-width="0.995402" gorn="0.3.73.0.0.0.0.0" y="-260.75891" x="953.09705" fill="#ffffff" id="rect1304"/>
                        </g>
                    </g>
                </g>
            </g>
        </g>
        <line  x2="221.75893" y2="870.38855" stroke-width="0.995402" x1="221.75893" gorn="0.3.74" y1="870.38855" fill="none" id="line1306"/>
        <g  transform="rotate(90)">
            <g >
                <g >
                    <g >
                        <g >
                            <rect height="9.5229254"  width="1.63889" stroke-width="0.995402" gorn="0.3.75.0.0.0.0.0" y="-231.36441" x="968.79126" fill="#999999" id="rect1308"/>
                        </g>
                    </g>
                </g>
            </g>
        </g>
        <g  transform="rotate(90)">
            <g >
                <g >
                    <g >
                        <g >
                            <rect height="9.5229254"  width="1.6527801" stroke-width="0.995402" gorn="0.3.76.0.0.0.0.0" y="-231.36441" x="860.12476" fill="#999999" id="rect1310"/>
                        </g>
                    </g>
                </g>
            </g>
        </g>
        <g  transform="rotate(90)">
            <g >
                <g >
                    <g >
                        <g >
                            <rect height="71.379608"  width="204.46687" stroke-width="0.995403" gorn="0.3.77.0.0.0.0.0" y="-197.5757" x="766.66241" fill="#d38d5f" id="rect1314"/>
                        </g>
                    </g>
                </g>
            </g>
        </g>
        <g  transform="rotate(90)">
            <g >
                <g >
                    <g >
                        <g >
                            <rect height="1.2247162"  opacity="0.2" enable-background="new    " width="204.46687" stroke-width="0.995403" gorn="0.3.78.0.0.0.0.0" y="-197.5757" x="780.24805" fill="#ffffff" id="rect1316"/>
                        </g>
                    </g>
                </g>
            </g>
        </g>
        <g  transform="rotate(90)">
            <g >
                <g >
                    <g >
                        <g >
                            <rect height="21.272741"  width="204.46687" stroke-width="0.995403" gorn="0.3.79.0.0.0.0.0" y="-143.5285" x="766.66241" fill="#333333" id="rect1318"/>
                        </g>
                    </g>
                </g>
            </g>
        </g>
        <g  transform="rotate(90)">
            <g >
                <g >
                    <g >
                        <g >
                            <rect height="0.85197538"  opacity="0.2" enable-background="new    " width="204.46687" stroke-width="0.995403" gorn="0.3.80.0.0.0.0.0" y="-122.97446" x="766.66241" id="rect1320"/>
                        </g>
                    </g>
                </g>
            </g>
        </g>
        <path  stroke-width="0.995403" gorn="0.3.81" fill="#dcdcdc" id="path1322" d="m 197.57568,941.432 v 0 0 -2.38713 0 c -6.68268,-2.05337 -21.19299,-3.4651 -28.62117,-3.4651 -7.74765,0 -18.45061,1.2321 -25.42618,3.4651 v 0 0 l 1.9e-4,31.39123 h 54.04716 z"/>
        <path  stroke-width="0.995403" gorn="0.3.82" fill="#dcdcdc" id="path1324" d="m 194.80676,798.61843 h 2.76892 V 767.2527 h -54.04716 v 31.39123 c 7.00204,2.25888 17.54523,4.9539 25.39955,4.9539 9.21189,0 17.86478,-1.92494 25.87869,-4.9794 z"/>
        <path  stroke-width="0.995403" gorn="0.3.83" fill="#999999" id="path1326" d="M 140.7062,970.61537 V 939.2245 l 2.82232,-0.17926 v 31.39123 z"/>
        <path  stroke-width="0.995403" gorn="0.3.84" fill="#999999" id="path1328" d="m 140.65309,767.40683 v 31.39123 l 2.87543,-0.17926 v -31.36573 l -2.87543,0.15339 z"/>
        <g  transform="rotate(90)">
            <g >
                <g >
                    <g >
                        <g >
                            <rect height="1.2247162"  opacity="0.15" enable-background="new    " width="31.391233" stroke-width="0.995403" gorn="0.3.85.0.0.0.0.0" y="-123.34732" x="767.25275" id="rect1330"/>
                        </g>
                    </g>
                </g>
            </g>
        </g>
        <g  transform="rotate(90)">
            <g >
                <g >
                    <g >
                        <g >
                            <rect height="1.2247162"  opacity="0.5" enable-background="new    " width="31.391233" stroke-width="0.995403" gorn="0.3.86.0.0.0.0.0" y="-197.5757" x="767.25275" fill="#ffffff" id="rect1332"/>
                        </g>
                    </g>
                </g>
            </g>
        </g>
        <g  transform="rotate(90)">
            <g >
                <g >
                    <g >
                        <g >
                            <rect height="1.2247162"  opacity="0.15" enable-background="new    " width="31.416924" stroke-width="0.995403" gorn="0.3.87.0.0.0.0.0" y="-123.34732" x="939.07062" id="rect1334"/>
                        </g>
                    </g>
                </g>
            </g>
        </g>
        <g  transform="rotate(90)">
            <g >
                <g >
                    <g >
                        <g >
                            <rect height="1.2247162"  opacity="0.5" enable-background="new    " width="31.416924" stroke-width="0.995403" gorn="0.3.88.0.0.0.0.0" y="-197.5757" x="939.07062" fill="#ffffff" id="rect1336"/>
                        </g>
                    </g>
                </g>
            </g>
        </g>
        <line  x2="122.12254" y2="786.22083" stroke-width="0.995403" x1="122.12254" gorn="0.3.89" y1="786.22083" fill="none" id="line1338"/>
        <g  transform="rotate(90)">
            <g >
                <g >
                    <g >
                        <g >
                            <rect height="18.423985"  width="3.0287578" stroke-width="0.995403" gorn="0.3.90.0.0.0.0.0" y="-140.70622" x="968.07434" fill="#999999" id="rect1340"/>
                        </g>
                    </g>
                </g>
            </g>
        </g>
        <g  transform="rotate(90)">
            <g >
                <g >
                    <g >
                        <g >
                            <rect height="18.423985"  width="3.0544274" stroke-width="0.995403" gorn="0.3.91.0.0.0.0.0" y="-140.70622" x="767.25275" fill="#999999" id="rect1342"/>
                        </g>
                    </g>
                </g>
            </g>
        </g>
        <rect height="29.039684"  width="76.900902" stroke-width="0.995401" gorn="0.3.92" y="627.87195" x="584.96069" fill="#4d4d4d" id="rect1346"/>
        <rect height="0.49825674"  opacity="0.2" enable-background="new    " width="76.900902" stroke-width="0.995401" gorn="0.3.93" y="627.87195" x="590.07031" fill="#ffffff" id="rect1348"/>
        <rect height="8.6544838"  width="76.900902" stroke-width="0.995401" gorn="0.3.94" y="649.86023" x="584.96069" fill="#333333" id="rect1350"/>
        <rect height="0.34661296"  opacity="0.2" enable-background="new    " width="76.900902" stroke-width="0.995401" gorn="0.3.95" y="658.22229" x="584.96069" id="rect1352"/>
        <path  stroke-width="0.995401" gorn="0.3.96" fill="#dcdcdc" id="path1354" d="m 650.69234,627.87198 v 0 0 h -0.89781 v 0 c -0.77228,2.71874 -1.30324,8.62203 -1.30324,11.64407 0,3.15201 0.4634,7.50635 1.30324,10.34425 v 0 0 l 11.80639,-8e-5 v -21.98824 z"/>
        <path  stroke-width="0.995401" gorn="0.3.97" fill="#dcdcdc" id="path1356" d="m 596.97952,628.99847 v -1.12649 h -11.79679 v 21.98824 h 11.80639 c 0.84957,-2.84867 1.86318,-7.138 1.86318,-10.33341 0,-3.74771 -0.72398,-7.26801 -1.87278,-10.52834 z"/>
        <path  stroke-width="0.995401" gorn="0.3.98" fill="#999999" id="path1358" d="m 661.66834,651.00844 h -11.80625 l -0.0674,-1.14822 h 11.80639 z"/>
        <path  stroke-width="0.995401" gorn="0.3.99" fill="#999999" id="path1360" d="m 585.2407,651.03004 h 11.80638 l -0.0674,-1.16982 h -11.79679 l 0.0577,1.16982 z"/>
        <rect height="0.49825674"  opacity="0.15" enable-background="new    " width="11.806382" stroke-width="0.995401" gorn="0.3.100" y="658.07062" x="585.18274" id="rect1362"/>
        <rect height="0.49825674"  opacity="0.5" enable-background="new    " width="11.806382" stroke-width="0.995401" gorn="0.3.101" y="627.87195" x="585.18274" fill="#ffffff" id="rect1364"/>
        <rect height="0.49825674"  opacity="0.15" enable-background="new    " width="11.816045" stroke-width="0.995401" gorn="0.3.102" y="658.07062" x="649.8042" id="rect1366"/>
        <rect height="0.49825674"  opacity="0.5" enable-background="new    " width="11.816045" stroke-width="0.995401" gorn="0.3.103" y="627.87195" x="649.8042" fill="#ffffff" id="rect1368"/>
        <line  x2="592.31671" y2="658.56891" stroke-width="0.995401" x1="592.31671" gorn="0.3.104" y1="658.56891" fill="none" id="line1370"/>
        <rect height="7.4955115"  width="1.1391293" stroke-width="0.995401" gorn="0.3.105" y="651.00842" x="660.71265" fill="#999999" id="rect1372"/>
        <rect height="7.4955115"  width="1.1487837" stroke-width="0.995401" gorn="0.3.106" y="651.00842" x="585.18274" fill="#999999" id="rect1374"/>
        <rect height="41.269688"  width="90.276398" stroke-width="0.995402" gorn="0.3.107" y="621.11188" x="449.63486" fill="#d38d5f" id="rect1378"/>
        <rect height="0.7080965"  opacity="0.2" enable-background="new    " width="90.276398" stroke-width="0.995402" gorn="0.3.108" y="621.11188" x="455.63321" fill="#ffffff" id="rect1380"/>
        <rect height="12.299302"  width="90.276398" stroke-width="0.995402" gorn="0.3.109" y="652.36047" x="449.63486" fill="#333333" id="rect1382"/>
        <rect height="0.49258825"  opacity="0.2" enable-background="new    " width="90.276398" stroke-width="0.995402" gorn="0.3.110" y="664.24426" x="449.63486" id="rect1384"/>
        <path  stroke-width="0.995402" gorn="0.3.111" fill="#dcdcdc" id="path1386" d="m 526.79929,621.11191 v 0 0 h -1.05397 v 0 c -0.90661,3.86374 -1.52991,12.25319 -1.52991,16.54795 0,4.47948 0.54399,10.66763 1.52991,14.70071 v 0 0 l 13.85989,-1.1e-4 v -31.24855 z"/>
        <path  stroke-width="0.995402" gorn="0.3.112" fill="#dcdcdc" id="path1388" d="m 463.74412,622.71282 v -1.60091 h -13.84863 v 31.24855 h 13.85989 c 0.99734,-4.04838 2.18725,-10.14416 2.18725,-14.68531 0,-5.32605 -0.8499,-10.32891 -2.19851,-14.96233 z"/>
        <path  stroke-width="0.995402" gorn="0.3.113" fill="#999999" id="path1390" d="m 539.68436,653.99224 h -13.85973 l -0.0791,-1.63178 h 13.85988 z"/>
        <path  stroke-width="0.995402" gorn="0.3.114" fill="#999999" id="path1392" d="m 449.96354,654.02295 h 13.85989 l -0.0791,-1.66249 H 449.8957 l 0.0677,1.66249 z"/>
        <rect height="0.7080965"  opacity="0.15" enable-background="new    " width="13.859885" stroke-width="0.995402" gorn="0.3.115" y="664.02869" x="449.89554" id="rect1394"/>
        <rect height="0.7080965"  opacity="0.5" enable-background="new    " width="13.859885" stroke-width="0.995402" gorn="0.3.116" y="621.11188" x="449.89554" fill="#ffffff" id="rect1396"/>
        <rect height="0.7080965"  opacity="0.15" enable-background="new    " width="13.871227" stroke-width="0.995402" gorn="0.3.117" y="664.02869" x="525.75671" id="rect1398"/>
        <rect height="0.7080965"  opacity="0.5" enable-background="new    " width="13.871227" stroke-width="0.995402" gorn="0.3.118" y="621.11188" x="525.75671" fill="#ffffff" id="rect1400"/>
        <line  x2="458.27032" y2="664.73682" stroke-width="0.995402" x1="458.27032" gorn="0.3.119" y1="664.73682" fill="none" id="line1402"/>
        <rect height="10.65223"  width="1.3372598" stroke-width="0.995402" gorn="0.3.120" y="653.99225" x="538.56244" fill="#999999" id="rect1404"/>
        <rect height="10.65223"  width="1.3485935" stroke-width="0.995402" gorn="0.3.121" y="653.99225" x="449.89554" fill="#999999" id="rect1406"/>
        <rect height="29.039684"  width="76.900902" stroke-width="0.995401" gorn="0.3.122" y="625.10425" x="327.56677" fill="#4d4d4d" id="rect1410"/>
        <rect height="0.49825674"  opacity="0.2" enable-background="new    " width="76.900902" stroke-width="0.995401" gorn="0.3.123" y="625.10425" x="332.67639" fill="#ffffff" id="rect1412"/>
        <rect height="8.6544838"  width="76.900902" stroke-width="0.995401" gorn="0.3.124" y="647.09253" x="327.56677" fill="#333333" id="rect1414"/>
        <rect height="0.34661296"  opacity="0.2" enable-background="new    " width="76.900902" stroke-width="0.995401" gorn="0.3.125" y="655.45459" x="327.56677" id="rect1416"/>
        <path  stroke-width="0.995401" gorn="0.3.126" fill="#dcdcdc" id="path1418" d="m 393.2984,625.10428 v 0 0 h -0.89781 v 0 c -0.77228,2.71874 -1.30324,8.62203 -1.30324,11.64407 0,3.15201 0.4634,7.50635 1.30324,10.34425 v 0 0 l 11.80639,-8e-5 v -21.98824 z"/>
        <path  stroke-width="0.995401" gorn="0.3.127" fill="#dcdcdc" id="path1420" d="m 339.58558,626.23077 v -1.12649 h -11.79679 v 21.98824 h 11.80639 c 0.84957,-2.84867 1.86318,-7.138 1.86318,-10.33341 0,-3.74771 -0.72398,-7.26801 -1.87278,-10.52834 z"/>
        <path  stroke-width="0.995401" gorn="0.3.128" fill="#999999" id="path1422" d="m 404.2744,648.24074 h -11.80625 l -0.0674,-1.14822 h 11.80639 z"/>
        <path  stroke-width="0.995401" gorn="0.3.129" fill="#999999" id="path1424" d="m 327.84676,648.26234 h 11.80638 l -0.0674,-1.16982 h -11.79679 l 0.0577,1.16982 z"/>
        <rect height="0.49825674"  opacity="0.15" enable-background="new    " width="11.806382" stroke-width="0.995401" gorn="0.3.130" y="655.30292" x="327.78882" id="rect1426"/>
        <rect height="0.49825674"  opacity="0.5" enable-background="new    " width="11.806382" stroke-width="0.995401" gorn="0.3.131" y="625.10425" x="327.78882" fill="#ffffff" id="rect1428"/>
        <rect height="0.49825674"  opacity="0.15" enable-background="new    " width="11.816045" stroke-width="0.995401" gorn="0.3.132" y="655.30292" x="392.41028" id="rect1430"/>
        <rect height="0.49825674"  opacity="0.5" enable-background="new    " width="11.816045" stroke-width="0.995401" gorn="0.3.133" y="625.10425" x="392.41028" fill="#ffffff" id="rect1432"/>
        <line  x2="334.92279" y2="655.80121" stroke-width="0.995401" x1="334.92279" gorn="0.3.134" y1="655.80121" fill="none" id="line1434"/>
        <rect height="7.4955115"  width="1.1391293" stroke-width="0.995401" gorn="0.3.135" y="648.24072" x="403.31873" fill="#999999" id="rect1436"/>
        <rect height="7.4955115"  width="1.1487837" stroke-width="0.995401" gorn="0.3.136" y="648.24072" x="327.78882" fill="#999999" id="rect1438"/>
        <rect height="41.269688"  width="90.276398" stroke-width="0.995402" gorn="0.3.137" y="634.95032" x="157.64496" fill="#d38d5f" id="rect1442"/>
        <rect height="0.7080965"  opacity="0.2" enable-background="new    " width="90.276398" stroke-width="0.995402" gorn="0.3.138" y="634.95032" x="163.6433" fill="#ffffff" id="rect1444"/>
        <rect height="12.299302"  width="90.276398" stroke-width="0.995402" gorn="0.3.139" y="666.19885" x="157.64496" fill="#333333" id="rect1446"/>
        <rect height="0.49258825"  opacity="0.2" enable-background="new    " width="90.276398" stroke-width="0.995402" gorn="0.3.140" y="678.08264" x="157.64496" id="rect1448"/>
        <path  stroke-width="0.995402" gorn="0.3.141" fill="#dcdcdc" id="path1450" d="m 234.80939,634.95031 v 0 0 h -1.05397 v 0 c -0.90661,3.86374 -1.52991,12.25319 -1.52991,16.54795 0,4.47948 0.54399,10.66763 1.52991,14.70071 v 0 0 l 13.85989,-1.1e-4 v -31.24855 z"/>
        <path  stroke-width="0.995402" gorn="0.3.142" fill="#dcdcdc" id="path1452" d="m 171.75422,636.55122 v -1.60091 h -13.84863 v 31.24855 h 13.85989 c 0.99734,-4.04838 2.18725,-10.14416 2.18725,-14.68531 0,-5.32605 -0.8499,-10.32891 -2.19851,-14.96233 z"/>
        <path  stroke-width="0.995402" gorn="0.3.143" fill="#999999" id="path1454" d="m 247.69446,667.83064 h -13.85973 l -0.0791,-1.63178 h 13.85988 z"/>
        <path  stroke-width="0.995402" gorn="0.3.144" fill="#999999" id="path1456" d="m 157.97364,667.86135 h 13.85989 l -0.0791,-1.66249 H 157.9058 l 0.0677,1.66249 z"/>
        <rect height="0.7080965"  opacity="0.15" enable-background="new    " width="13.859885" stroke-width="0.995402" gorn="0.3.145" y="677.86707" x="157.90562" id="rect1458"/>
        <rect height="0.7080965"  opacity="0.5" enable-background="new    " width="13.859885" stroke-width="0.995402" gorn="0.3.146" y="634.95032" x="157.90562" fill="#ffffff" id="rect1460"/>
        <rect height="0.7080965"  opacity="0.15" enable-background="new    " width="13.871227" stroke-width="0.995402" gorn="0.3.147" y="677.86707" x="233.76678" id="rect1462"/>
        <rect height="0.7080965"  opacity="0.5" enable-background="new    " width="13.871227" stroke-width="0.995402" gorn="0.3.148" y="634.95032" x="233.76678" fill="#ffffff" id="rect1464"/>
        <line  x2="166.28041" y2="678.5752" stroke-width="0.995402" x1="166.28041" gorn="0.3.149" y1="678.5752" fill="none" id="line1466"/>
        <rect height="10.65223"  width="1.3372598" stroke-width="0.995402" gorn="0.3.150" y="667.83063" x="246.57256" fill="#999999" id="rect1468"/>
        <rect height="10.65223"  width="1.3485935" stroke-width="0.995402" gorn="0.3.151" y="667.83063" x="157.90562" fill="#999999" id="rect1470"/>
        <rect height="29.039684"  width="76.900902" stroke-width="0.995401" gorn="0.3.152" y="699.83154" x="169.8092" fill="#4d4d4d" id="rect1474"/>
        <rect height="0.49825674"  opacity="0.2" enable-background="new    " width="76.900902" stroke-width="0.995401" gorn="0.3.153" y="699.83154" x="174.91882" fill="#ffffff" id="rect1476"/>
        <rect height="8.6544838"  width="76.900902" stroke-width="0.995401" gorn="0.3.154" y="721.81982" x="169.8092" fill="#333333" id="rect1478"/>
        <rect height="0.34661296"  opacity="0.2" enable-background="new    " width="76.900902" stroke-width="0.995401" gorn="0.3.155" y="730.18195" x="169.8092" id="rect1480"/>
        <path  stroke-width="0.995401" gorn="0.3.156" fill="#dcdcdc" id="path1482" d="m 235.54082,699.83158 v 0 0 h -0.89781 v 0 c -0.77228,2.71874 -1.30324,8.62203 -1.30324,11.64407 0,3.15201 0.4634,7.50635 1.30324,10.34425 v 0 0 l 11.80639,-8e-5 v -21.98824 z"/>
        <path  stroke-width="0.995401" gorn="0.3.157" fill="#dcdcdc" id="path1484" d="m 181.828,700.95807 v -1.12649 h -11.79679 v 21.98824 h 11.80639 c 0.84957,-2.84867 1.86318,-7.138 1.86318,-10.33341 0,-3.74771 -0.72398,-7.26801 -1.87278,-10.52834 z"/>
        <path  stroke-width="0.995401" gorn="0.3.158" fill="#999999" id="path1486" d="m 246.51682,722.96804 h -11.80625 l -0.0674,-1.14822 h 11.80639 z"/>
        <path  stroke-width="0.995401" gorn="0.3.159" fill="#999999" id="path1488" d="m 170.08918,722.98964 h 11.80638 l -0.0674,-1.16982 h -11.79679 l 0.0577,1.16982 z"/>
        <rect height="0.49825674"  opacity="0.15" enable-background="new    " width="11.806382" stroke-width="0.995401" gorn="0.3.160" y="730.03021" x="170.03123" id="rect1490"/>
        <rect height="0.49825674"  opacity="0.5" enable-background="new    " width="11.806382" stroke-width="0.995401" gorn="0.3.161" y="699.83154" x="170.03123" fill="#ffffff" id="rect1492"/>
        <rect height="0.49825674"  opacity="0.15" enable-background="new    " width="11.816045" stroke-width="0.995401" gorn="0.3.162" y="730.03021" x="234.65269" id="rect1494"/>
        <rect height="0.49825674"  opacity="0.5" enable-background="new    " width="11.816045" stroke-width="0.995401" gorn="0.3.163" y="699.83154" x="234.65269" fill="#ffffff" id="rect1496"/>
        <line  x2="177.16521" y2="730.5285" stroke-width="0.995401" x1="177.16521" gorn="0.3.164" y1="730.5285" fill="none" id="line1498"/>
        <rect height="7.4955115"  width="1.1391293" stroke-width="0.995401" gorn="0.3.165" y="722.96802" x="245.56114" fill="#999999" id="rect1500"/>
        <rect height="7.4955115"  width="1.1487837" stroke-width="0.995401" gorn="0.3.166" y="722.96802" x="170.03123" fill="#999999" id="rect1502"/>
        <rect height="29.039684"  width="76.900902" stroke-width="0.995401" gorn="0.3.167" y="499.17499" x="201.63748" fill="#4d4d4d" id="rect1506"/>
        <rect height="0.49825674"  opacity="0.2" enable-background="new    " width="76.900902" stroke-width="0.995401" gorn="0.3.168" y="499.17499" x="206.7471" fill="#ffffff" id="rect1508"/>
        <rect height="8.6544838"  width="76.900902" stroke-width="0.995401" gorn="0.3.169" y="521.16327" x="201.63748" fill="#333333" id="rect1510"/>
        <rect height="0.34661296"  opacity="0.2" enable-background="new    " width="76.900902" stroke-width="0.995401" gorn="0.3.170" y="529.52533" x="201.63748" id="rect1512"/>
        <path  stroke-width="0.995401" gorn="0.3.171" fill="#dcdcdc" id="path1514" d="m 267.3691,499.175 v 0 0 h -0.89781 v 0 c -0.77228,2.71874 -1.30324,8.62203 -1.30324,11.64407 0,3.15201 0.4634,7.50635 1.30324,10.34425 v 0 0 l 11.80639,-8e-5 V 499.175 Z"/>
        <path  stroke-width="0.995401" gorn="0.3.172" fill="#dcdcdc" id="path1516" d="M 213.65628,500.30149 V 499.175 h -11.79679 v 21.98824 h 11.80639 c 0.84957,-2.84867 1.86318,-7.138 1.86318,-10.33341 0,-3.74771 -0.72398,-7.26801 -1.87278,-10.52834 z"/>
        <path  stroke-width="0.995401" gorn="0.3.173" fill="#999999" id="path1518" d="m 278.3451,522.31146 h -11.80625 l -0.0674,-1.14822 h 11.80639 z"/>
        <path  stroke-width="0.995401" gorn="0.3.174" fill="#999999" id="path1520" d="m 201.91746,522.33306 h 11.80638 l -0.0674,-1.16982 h -11.79679 l 0.0577,1.16982 z"/>
        <rect height="0.49825674"  opacity="0.15" enable-background="new    " width="11.806382" stroke-width="0.995401" gorn="0.3.175" y="529.37366" x="201.85953" id="rect1522"/>
        <rect height="0.49825674"  opacity="0.5" enable-background="new    " width="11.806382" stroke-width="0.995401" gorn="0.3.176" y="499.17499" x="201.85953" fill="#ffffff" id="rect1524"/>
        <rect height="0.49825674"  opacity="0.15" enable-background="new    " width="11.816045" stroke-width="0.995401" gorn="0.3.177" y="529.37366" x="266.48099" id="rect1526"/>
        <rect height="0.49825674"  opacity="0.5" enable-background="new    " width="11.816045" stroke-width="0.995401" gorn="0.3.178" y="499.17499" x="266.48099" fill="#ffffff" id="rect1528"/>
        <line  x2="208.99348" y2="529.87195" stroke-width="0.995401" x1="208.99348" gorn="0.3.179" y1="529.87195" fill="none" id="line1530"/>
        <rect height="7.4955115"  width="1.1391293" stroke-width="0.995401" gorn="0.3.180" y="522.31146" x="277.3894" fill="#999999" id="rect1532"/>
        <rect height="7.4955115"  width="1.1487837" stroke-width="0.995401" gorn="0.3.181" y="522.31146" x="201.85953" fill="#999999" id="rect1534"/>
        <rect height="29.039684"  width="76.900902" stroke-width="0.995401" gorn="0.3.182" y="439.66989" x="204.40515" fill="#4d4d4d" id="rect1538"/>
        <rect height="0.49825674"  opacity="0.2" enable-background="new    " width="76.900902" stroke-width="0.995401" gorn="0.3.183" y="439.66989" x="209.51477" fill="#ffffff" id="rect1540"/>
        <rect height="8.6544838"  width="76.900902" stroke-width="0.995401" gorn="0.3.184" y="461.65814" x="204.40515" fill="#333333" id="rect1542"/>
        <rect height="0.34661296"  opacity="0.2" enable-background="new    " width="76.900902" stroke-width="0.995401" gorn="0.3.185" y="470.02023" x="204.40515" id="rect1544"/>
        <path  stroke-width="0.995401" gorn="0.3.186" fill="#dcdcdc" id="path1546" d="m 270.13678,439.6699 v 0 0 h -0.89781 v 0 c -0.77228,2.71874 -1.30324,8.62203 -1.30324,11.64407 0,3.15201 0.4634,7.50635 1.30324,10.34425 v 0 0 l 11.80639,-8e-5 V 439.6699 Z"/>
        <path  stroke-width="0.995401" gorn="0.3.187" fill="#dcdcdc" id="path1548" d="m 216.42396,440.79639 v -1.12649 h -11.79679 v 21.98824 h 11.80639 c 0.84957,-2.84867 1.86318,-7.138 1.86318,-10.33341 0,-3.74771 -0.72398,-7.26801 -1.87278,-10.52834 z"/>
        <path  stroke-width="0.995401" gorn="0.3.188" fill="#999999" id="path1550" d="m 281.11278,462.80636 h -11.80625 l -0.0674,-1.14822 h 11.80639 z"/>
        <path  stroke-width="0.995401" gorn="0.3.189" fill="#999999" id="path1552" d="m 204.68514,462.82796 h 11.80638 l -0.0674,-1.16982 h -11.79679 l 0.0577,1.16982 z"/>
        <rect height="0.49825674"  opacity="0.15" enable-background="new    " width="11.806382" stroke-width="0.995401" gorn="0.3.190" y="469.86856" x="204.6272" id="rect1554"/>
        <rect height="0.49825674"  opacity="0.5" enable-background="new    " width="11.806382" stroke-width="0.995401" gorn="0.3.191" y="439.66989" x="204.6272" fill="#ffffff" id="rect1556"/>
        <rect height="0.49825674"  opacity="0.15" enable-background="new    " width="11.816045" stroke-width="0.995401" gorn="0.3.192" y="469.86856" x="269.24866" id="rect1558"/>
        <rect height="0.49825674"  opacity="0.5" enable-background="new    " width="11.816045" stroke-width="0.995401" gorn="0.3.193" y="439.66989" x="269.24866" fill="#ffffff" id="rect1560"/>
        <line  x2="211.76117" y2="470.36682" stroke-width="0.995401" x1="211.76117" gorn="0.3.194" y1="470.36682" fill="none" id="line1562"/>
        <rect height="7.4955115"  width="1.1391293" stroke-width="0.995401" gorn="0.3.195" y="462.80634" x="280.1571" fill="#999999" id="rect1564"/>
        <rect height="7.4955115"  width="1.1487837" stroke-width="0.995401" gorn="0.3.196" y="462.80634" x="204.6272" fill="#999999" id="rect1566"/>
        <rect height="29.039684"  width="76.900902" stroke-width="0.995401" gorn="0.3.197" y="362.17499" x="204.40515" fill="#4d4d4d" id="rect1570"/>
        <rect height="0.49825674"  opacity="0.2" enable-background="new    " width="76.900902" stroke-width="0.995401" gorn="0.3.198" y="362.17499" x="209.51477" fill="#ffffff" id="rect1572"/>
        <rect height="8.6544838"  width="76.900902" stroke-width="0.995401" gorn="0.3.199" y="384.16324" x="204.40515" fill="#333333" id="rect1574"/>
        <rect height="0.34661296"  opacity="0.2" enable-background="new    " width="76.900902" stroke-width="0.995401" gorn="0.3.200" y="392.52533" x="204.40515" id="rect1576"/>
        <path  stroke-width="0.995401" gorn="0.3.201" fill="#dcdcdc" id="path1578" d="m 270.13678,362.175 v 0 0 h -0.89781 v 0 c -0.77228,2.71874 -1.30324,8.62203 -1.30324,11.64407 0,3.15201 0.4634,7.50635 1.30324,10.34425 v 0 0 l 11.80639,-8e-5 V 362.175 Z"/>
        <path  stroke-width="0.995401" gorn="0.3.202" fill="#dcdcdc" id="path1580" d="M 216.42396,363.30149 V 362.175 h -11.79679 v 21.98824 h 11.80639 c 0.84957,-2.84867 1.86318,-7.138 1.86318,-10.33341 0,-3.74771 -0.72398,-7.26801 -1.87278,-10.52834 z"/>
        <path  stroke-width="0.995401" gorn="0.3.203" fill="#999999" id="path1582" d="m 281.11278,385.31146 h -11.80625 l -0.0674,-1.14822 h 11.80639 z"/>
        <path  stroke-width="0.995401" gorn="0.3.204" fill="#999999" id="path1584" d="m 204.68514,385.33306 h 11.80638 l -0.0674,-1.16982 h -11.79679 l 0.0577,1.16982 z"/>
        <rect height="0.49825674"  opacity="0.15" enable-background="new    " width="11.806382" stroke-width="0.995401" gorn="0.3.205" y="392.37366" x="204.6272" id="rect1586"/>
        <rect height="0.49825674"  opacity="0.5" enable-background="new    " width="11.806382" stroke-width="0.995401" gorn="0.3.206" y="362.17499" x="204.6272" fill="#ffffff" id="rect1588"/>
        <rect height="0.49825674"  opacity="0.15" enable-background="new    " width="11.816045" stroke-width="0.995401" gorn="0.3.207" y="392.37366" x="269.24866" id="rect1590"/>
        <rect height="0.49825674"  opacity="0.5" enable-background="new    " width="11.816045" stroke-width="0.995401" gorn="0.3.208" y="362.17499" x="269.24866" fill="#ffffff" id="rect1592"/>
        <line  x2="211.76117" y2="392.87192" stroke-width="0.995401" x1="211.76117" gorn="0.3.209" y1="392.87192" fill="none" id="line1594"/>
        <rect height="7.4955115"  width="1.1391293" stroke-width="0.995401" gorn="0.3.210" y="385.31146" x="280.1571" fill="#999999" id="rect1596"/>
        <rect height="7.4955115"  width="1.1487837" stroke-width="0.995401" gorn="0.3.211" y="385.31146" x="204.6272" fill="#999999" id="rect1598"/>
        <rect height="29.039684"  width="76.900902" stroke-width="0.995401" gorn="0.3.212" y="302.66989" x="205.789" fill="#4d4d4d" id="rect1602"/>
        <rect height="0.49825674"  opacity="0.2" enable-background="new    " width="76.900902" stroke-width="0.995401" gorn="0.3.213" y="302.66989" x="210.89862" fill="#ffffff" id="rect1604"/>
        <rect height="8.6544838"  width="76.900902" stroke-width="0.995401" gorn="0.3.214" y="324.65814" x="205.789" fill="#333333" id="rect1606"/>
        <rect height="0.34661296"  opacity="0.2" enable-background="new    " width="76.900902" stroke-width="0.995401" gorn="0.3.215" y="333.02023" x="205.789" id="rect1608"/>
        <path  stroke-width="0.995401" gorn="0.3.216" fill="#dcdcdc" id="path1610" d="m 271.52062,302.6699 v 0 0 h -0.89781 v 0 c -0.77228,2.71874 -1.30324,8.62203 -1.30324,11.64407 0,3.15201 0.4634,7.50635 1.30324,10.34425 v 0 0 l 11.80639,-8e-5 V 302.6699 Z"/>
        <path  stroke-width="0.995401" gorn="0.3.217" fill="#dcdcdc" id="path1612" d="m 217.8078,303.79639 v -1.12649 h -11.79679 v 21.98824 h 11.80639 c 0.84957,-2.84867 1.86318,-7.138 1.86318,-10.33341 0,-3.74771 -0.72398,-7.26801 -1.87278,-10.52834 z"/>
        <path  stroke-width="0.995401" gorn="0.3.218" fill="#999999" id="path1614" d="m 282.49662,325.80636 h -11.80625 l -0.0674,-1.14822 h 11.80639 z"/>
        <path  stroke-width="0.995401" gorn="0.3.219" fill="#999999" id="path1616" d="m 206.06898,325.82796 h 11.80638 l -0.0674,-1.16982 h -11.79679 l 0.0577,1.16982 z"/>
        <rect height="0.49825674"  opacity="0.15" enable-background="new    " width="11.806382" stroke-width="0.995401" gorn="0.3.220" y="332.86856" x="206.01105" id="rect1618"/>
        <rect height="0.49825674"  opacity="0.5" enable-background="new    " width="11.806382" stroke-width="0.995401" gorn="0.3.221" y="302.66989" x="206.01105" fill="#ffffff" id="rect1620"/>
        <rect height="0.49825674"  opacity="0.15" enable-background="new    " width="11.816045" stroke-width="0.995401" gorn="0.3.222" y="332.86856" x="270.63251" id="rect1622"/>
        <rect height="0.49825674"  opacity="0.5" enable-background="new    " width="11.816045" stroke-width="0.995401" gorn="0.3.223" y="302.66989" x="270.63251" fill="#ffffff" id="rect1624"/>
        <line  x2="213.145" y2="333.36682" stroke-width="0.995401" x1="213.145" gorn="0.3.224" y1="333.36682" fill="none" id="line1626"/>
        <rect height="7.4955115"  width="1.1391293" stroke-width="0.995401" gorn="0.3.225" y="325.80634" x="281.54092" fill="#999999" id="rect1628"/>
        <rect height="7.4955115"  width="1.1487837" stroke-width="0.995401" gorn="0.3.226" y="325.80634" x="206.01105" fill="#999999" id="rect1630"/>
        <rect stroke="none" height="53.033253"  width="13.980904" stroke-linecap="round" stroke-width="0" gorn="0.3.227" y="336.54428" x="622.74353" fill="#8c8c8c" id="rect37" connectorname="4"/>
        <rect stroke="none" height="53.033253"  width="13.980904" stroke-linecap="round" stroke-width="0" gorn="0.3.228" y="512.7832" x="376.3786" fill="#8c8c8c" id="rect20" connectorname="1"/>
        <rect stroke="none" height="53.033253"  width="13.980904" stroke-linecap="round" stroke-width="0" gorn="0.3.229" y="512.7832" x="398.54349" fill="#8c8c8c" id="rect22" connectorname="2"/>
        <rect stroke="none" height="53.033253"  width="13.980904" stroke-linecap="round" stroke-width="0" gorn="0.3.230" y="512.7832" x="420.70828" fill="#8c8c8c" id="rect24" connectorname="3"/>
        <rect stroke="none" height="53.033253"  width="13.980904" stroke-linecap="round" stroke-width="0" gorn="0.3.231" y="512.7832" x="442.87332" fill="#8c8c8c" id="rect26" connectorname="4"/>
        <rect stroke="none" height="53.033253"  width="13.980904" stroke-linecap="round" stroke-width="0" gorn="0.3.232" y="337.51233" x="442.87332" fill="#8c8c8c" id="rect28-1" connectorname="5"/>
        <rect stroke="none" height="53.033253"  width="13.980904" stroke-linecap="round" stroke-width="0" gorn="0.3.233" y="337.51233" x="420.70828" fill="#8c8c8c" id="rect30-0" connectorname="6"/>
        <rect stroke="none" height="53.033253"  width="13.980904" stroke-linecap="round" stroke-width="0" gorn="0.3.234" y="337.51233" x="398.54349" fill="#8c8c8c" id="rect32-5" connectorname="7"/>
        <rect stroke="none" height="53.033253"  width="13.980904" stroke-linecap="round" stroke-width="0" gorn="0.3.235" y="337.51233" x="376.3786" fill="#8c8c8c" id="rect34-6" connectorname="8"/>
        <rect stroke="none" height="53.033253"  width="13.980904" stroke-linecap="round" stroke-width="0" gorn="0.3.236" y="336.54428" x="467.83099" fill="#8c8c8c" id="rect90" connectorname="1"/>
        <rect stroke="none" height="53.033253"  width="13.980904" stroke-linecap="round" stroke-width="0" gorn="0.3.237" y="336.54428" x="489.99594" fill="#8c8c8c" id="rect92" connectorname="2"/>
        <rect stroke="none" height="53.033253"  width="13.980904" stroke-linecap="round" stroke-width="0" gorn="0.3.238" y="336.54428" x="512.16071" fill="#8c8c8c" id="rect94" connectorname="3"/>
        <rect stroke="none" height="53.033253"  width="13.980904" stroke-linecap="round" stroke-width="0" gorn="0.3.239" y="336.54428" x="534.32581" fill="#8c8c8c" id="rect96" connectorname="4"/>
        <rect stroke="none" height="53.033253"  width="13.980904" stroke-linecap="round" stroke-width="0" gorn="0.3.240" y="512.99121" x="467.83337" fill="#8c8c8c" id="rect50" connectorname="1"/>
        <rect stroke="none" height="53.033253"  width="13.980904" stroke-linecap="round" stroke-width="0" gorn="0.3.241" y="512.99121" x="489.99829" fill="#8c8c8c" id="rect52" connectorname="2"/>
        <rect stroke="none" height="53.033253"  width="13.980904" stroke-linecap="round" stroke-width="0" gorn="0.3.242" y="512.99121" x="512.16302" fill="#8c8c8c" id="rect54" connectorname="3"/>
        <rect stroke="none" height="53.033253"  width="13.980904" stroke-linecap="round" stroke-width="0" gorn="0.3.243" y="512.99121" x="534.32812" fill="#8c8c8c" id="rect56" connectorname="4"/>
        <rect stroke="none" height="53.033253"  width="13.980904" stroke-linecap="round" stroke-width="0" gorn="0.3.244" y="336.54428" x="556.24854" fill="#8c8c8c" id="rect31" connectorname="1"/>
        <rect stroke="none" height="53.033253"  width="13.980904" stroke-linecap="round" stroke-width="0" gorn="0.3.245" y="336.54428" x="578.41345" fill="#8c8c8c" id="rect33" connectorname="2"/>
        <rect stroke="none" height="53.033253"  width="13.980904" stroke-linecap="round" stroke-width="0" gorn="0.3.246" y="336.54428" x="600.57831" fill="#8c8c8c" id="rect35" connectorname="3"/>
        <rect stroke="none" height="53.033253"  width="13.980904" stroke-linecap="round" stroke-width="0" gorn="0.3.247" y="512.99121" x="556.25085" fill="#8c8c8c" id="rect39" connectorname="1"/>
        <rect stroke="none" height="53.033253"  width="13.980904" stroke-linecap="round" stroke-width="0" gorn="0.3.248" y="512.99121" x="578.41583" fill="#8c8c8c" id="rect41" connectorname="2"/>
        <rect stroke="none" height="53.033253"  width="13.980904" stroke-linecap="round" stroke-width="0" gorn="0.3.249" y="512.99121" x="600.58069" fill="#8c8c8c" id="rect43" connectorname="3"/>
        <rect stroke="none" height="53.033253"  width="13.980904" stroke-linecap="round" stroke-width="0" gorn="0.3.250" y="512.99121" x="622.74579" fill="#8c8c8c" id="rect45" connectorname="4"/>
        <rect stroke="none" height="53.033253"  width="13.980904" stroke-linecap="round" stroke-width="0" gorn="0.3.251" y="336.54428" x="644.88025" fill="#8c8c8c" id="rect79" connectorname="3"/>
        <rect stroke="none" height="53.033253"  width="13.980904" stroke-linecap="round" stroke-width="0" gorn="0.3.252" y="512.99121" x="644.88025" fill="#8c8c8c" id="rect73" connectorname="3"/>
        <rect stroke="none" height="53.033253"  width="13.980904" stroke-linecap="round" stroke-width="0" gorn="0.3.253" y="512.99121" x="667.04541" fill="#8c8c8c" id="rect75" connectorname="4"/>
        <rect stroke="none" height="53.033253"  width="13.980904" stroke-linecap="round" stroke-width="0" gorn="0.3.254" y="336.54428" x="667.04553" fill="#8c8c8c" id="rect77" connectorname="4"/>
        <rect stroke="none" height="178.72234"  width="332.74414" stroke-width="0" gorn="0.3.255" y="363.8609" x="366.08173" fill="#303030" id="rect38"/>
        <g  transform="matrix(2.5506219,0,-0.14307735,2.1845444,362.0168,261.5988)">
            <g >
                <g >
                    <g >
                        <g >
                            <polygon  stroke-width="0.177541" gorn="0.3.256.0.0.0.0.0" points="124.654,56.9016 10,56.9016 0,46.9016 134.654,46.9016 " fill="#1f1f1f" id="polygon40-0"/>
                        </g>
                    </g>
                </g>
            </g>
        </g>
        <g  transform="matrix(2.544544,0,0.19192353,2.522884,321.43234,82.833044)">
            <g >
                <g >
                    <g >
                        <g >
                            <polygon  stroke-width="0.165405" gorn="0.3.257.0.0.0.0.0" points="10,172.232 0,182.232 134.654,182.232 124.654,172.232 " fill="#1f1f1f" id="polygon42-4"/>
                        </g>
                    </g>
                </g>
            </g>
        </g>
        <g  transform="matrix(1.271551,0,0,1.3202356,356.40695,301.99407)">
            <g >
                <g >
                    <g >
                        <g >
                            <polygon  stroke-width="0.385903" gorn="0.3.258.0.0.0.0.0" points="10,56.9016 0,46.9016 0,182.232 10,172.232 " fill="#000000" id="polygon44-4"/>
                        </g>
                    </g>
                </g>
            </g>
        </g>
        <ellipse stroke="none"  ry="13.206312" stroke-width="0" gorn="0.3.259" cy="500.02499" rx="8.6613045" cx="380.58643" fill="#1f1f1f" id="circle48-9"/>
        <g  transform="matrix(1.0091199,-0.08697794,0,1.3202534,562.94155,313.65084)">
            <g >
                <g >
                    <g >
                        <g >
                            <polygon  stroke-width="0.433181" gorn="0.3.260.0.0.0.0.0" points="134.654,182.232 124.654,172.232 124.654,56.9016 134.654,46.9016 " fill="#000000" id="polygon47"/>
                        </g>
                    </g>
                </g>
            </g>
        </g>
        <g  transform="rotate(-90)">
            <g >
                <g >
                    <g >
                        <g >
                            <rect stroke="none" height="18.568913"  width="39.942532" stroke-linecap="round" stroke-width="0" gorn="0.3.261.0.0.0.0.0" y="708.33179" x="-647.55316" fill="#8c8c8c" id="rect8"/>
                        </g>
                    </g>
                </g>
            </g>
        </g>
        <g  transform="rotate(-90)">
            <g >
                <g >
                    <g >
                        <g >
                            <rect stroke="none" height="21.425669"  width="39.942532" stroke-linecap="round" stroke-width="0" gorn="0.3.262.0.0.0.0.0" y="784.02307" x="-609.60724" fill="#8c8c8c" id="rect10"/>
                        </g>
                    </g>
                </g>
            </g>
        </g>
        <g  transform="rotate(-90)">
            <g >
                <g >
                    <g >
                        <g >
                            <rect stroke="none" height="21.425669"  width="39.942532" stroke-linecap="round" stroke-width="0" gorn="0.3.263.0.0.0.0.0" y="784.02307" x="-685.49847" fill="#8c8c8c" id="rect12"/>
                        </g>
                    </g>
                </g>
            </g>
        </g>
        <g  transform="rotate(-90)">
            <g >
                <g >
                    <g >
                        <g >
                            <rect stroke="none" height="69.933388"  width="119.7157" stroke-width="0" gorn="0.3.264.0.0.0.0.0" y="721.89465" x="-687.43964" fill="#4d4d4d" id="rect14"/>
                        </g>
                    </g>
                </g>
            </g>
        </g>
        <g  transform="matrix(0,-1,0.57863778,-0.81558465,0,0)">
            <g >
                <g >
                    <g >
                        <g >
                            <rect height="11.848889"  width="110.03276" stroke-width="13.6938" gorn="0.3.265.0.0.0.0.0" y="1247.9596" x="-1705.5562" fill="#333333" id="rect25"/>
                        </g>
                    </g>
                </g>
            </g>
        </g>
        <g  transform="matrix(0,-1,0.56060181,0.82808551,0,0)">
            <g >
                <g >
                    <g >
                        <g >
                            <rect height="12.230098"  width="109.58813" stroke-width="13.9124" gorn="0.3.266.0.0.0.0.0" y="1400.0436" x="481.96973" fill="#333333" id="rect31-7"/>
                        </g>
                    </g>
                </g>
            </g>
        </g>
        <g  transform="matrix(-0.51516745,-0.85708955,1,0,0,0)">
            <g >
                <g >
                    <g >
                        <g >
                            <rect height="63.378819"  width="11.837034" stroke-width="11.2516" gorn="0.3.267.0.0.0.0.0" y="381.04208" x="-674.16797" fill="#000000" id="rect29"/>
                        </g>
                    </g>
                </g>
            </g>
        </g>
        <g  transform="matrix(0.56535263,-0.82484932,1,0,0,0)">
            <g >
                <g >
                    <g >
                        <g >
                            <rect height="62.902325"  width="12.299698" stroke-width="11.4694" gorn="0.3.268.0.0.0.0.0" y="1192.9727" x="-833.51239" fill="#000000" id="rect27"/>
                        </g>
                    </g>
                </g>
            </g>
        </g>
        <g  transform="scale(-1)">
            <g >
                <g >
                    <g >
                        <g >
                            <rect height="9.0277796"  width="13.75" gorn="0.3.269.0.0.0.0.0" y="-298.90302" x="-514.92328" fill="#666666" id="rect8-8"/>
                        </g>
                    </g>
                </g>
            </g>
        </g>
        <g  transform="scale(-1)">
            <g >
                <g >
                    <g >
                        <g >
                            <rect height="7.1111102"  width="1.23611" gorn="0.3.270.0.0.0.0.0" y="-298.90302" x="-514.92328" fill="#999999" id="rect10-3"/>
                        </g>
                    </g>
                </g>
            </g>
        </g>
        <g  transform="scale(-1)">
            <g >
                <g >
                    <g >
                        <g >
                            <rect height="9.0277796"  width="13.7639" gorn="0.3.271.0.0.0.0.0" y="-298.90302" x="-489.31229" fill="#666666" id="rect14-0"/>
                        </g>
                    </g>
                </g>
            </g>
        </g>
        <g  transform="scale(-1)">
            <g >
                <g >
                    <g >
                        <g >
                            <rect height="7.1111102"  width="1.23611" gorn="0.3.272.0.0.0.0.0" y="-298.90302" x="-489.31229" fill="#999999" id="rect16"/>
                        </g>
                    </g>
                </g>
            </g>
        </g>
        <g  transform="scale(-1)">
            <g >
                <g >
                    <g >
                        <g >
                            <rect height="9.0277796"  width="13.7639" gorn="0.3.273.0.0.0.0.0" y="-298.90302" x="-463.74329" fill="#666666" id="rect20-9"/>
                        </g>
                    </g>
                </g>
            </g>
        </g>
        <g  transform="scale(-1)">
            <g >
                <g >
                    <g >
                        <g >
                            <rect height="7.1111102"  width="1.23611" gorn="0.3.274.0.0.0.0.0" y="-298.90302" x="-463.74329" fill="#999999" id="rect22-7"/>
                        </g>
                    </g>
                </g>
            </g>
        </g>
        <g  transform="scale(-1)">
            <g >
                <g >
                    <g >
                        <g >
                            <rect height="9.0277796"  width="13.75" gorn="0.3.275.0.0.0.0.0" y="-298.90302" x="-438.13229" fill="#666666" id="rect26-3"/>
                        </g>
                    </g>
                </g>
            </g>
        </g>
        <g  transform="scale(-1)">
            <g >
                <g >
                    <g >
                        <g >
                            <rect height="7.1111102"  width="1.2222199" gorn="0.3.276.0.0.0.0.0" y="-298.90302" x="-438.13229" fill="#999999" id="rect28-9"/>
                        </g>
                    </g>
                </g>
            </g>
        </g>
        <g  transform="scale(-1)">
            <g >
                <g >
                    <g >
                        <g >
                            <rect height="9.0277796"  width="13.75" gorn="0.3.277.0.0.0.0.0" y="-298.90302" x="-412.54828" fill="#666666" id="rect32-9"/>
                        </g>
                    </g>
                </g>
            </g>
        </g>
        <g  transform="scale(-1)">
            <g >
                <g >
                    <g >
                        <g >
                            <rect height="7.1111102"  width="1.23611" gorn="0.3.278.0.0.0.0.0" y="-298.90302" x="-412.54828" fill="#999999" id="rect34-7"/>
                        </g>
                    </g>
                </g>
            </g>
        </g>
        <g  transform="rotate(180,308.05214,149.4515)">
            <g >
                <g >
                    <g >
                        <g >
                            <polygon  gorn="0.3.279.0.0.0.0.0" points="28.6111,5.08333 290.347,5.08333 290.333,265.333 289.556,296.722 30.0556,296.722 28.6111,268.542 " fill="#b3b3b3" id="polygon38"/>
                        </g>
                    </g>
                </g>
            </g>
        </g>
        <g  transform="rotate(180,308.05214,149.4515)">
            <g >
                <g >
                    <g >
                        <g >
                            <polygon  gorn="0.3.280.0.0.0.0.0" points="31.5972,247.028 31.5972,294.403 56.4028,294.333 184.847,294.306 140.556,247.028 " fill="#999999" id="polygon40-03"/>
                        </g>
                    </g>
                </g>
            </g>
        </g>
        <g  transform="scale(-1)">
            <g >
                <g >
                    <g >
                        <g >
                            <rect height="42.236099"  width="25.430599" gorn="0.3.281.0.0.0.0.0" y="-201.9586" x="-322.99329" fill="#666666" id="rect42"/>
                        </g>
                    </g>
                </g>
            </g>
        </g>
        <g  transform="scale(-1)">
            <g >
                <g >
                    <g >
                        <g >
                            <rect height="42.236099"  width="25.4028" gorn="0.3.282.0.0.0.0.0" y="-201.9586" x="-616.10431" fill="#666666" id="rect44"/>
                        </g>
                    </g>
                </g>
            </g>
        </g>
        <g  transform="scale(-1)">
            <g >
                <g >
                    <g >
                        <g >
                            <rect height="1.80556"  width="261.73599" gorn="0.3.283.0.0.0.0.0" y="-293.81967" x="-587.49316" fill="#cccccc" id="rect46"/>
                        </g>
                    </g>
                </g>
            </g>
        </g>
        <g  transform="scale(-1)">
            <g >
                <g >
                    <g >
                        <g >
                            <rect height="255.04201"  width="142.931" gorn="0.3.284.0.0.0.0.0" y="-293.81967" x="-528.31256" fill="#333333" id="rect48"/>
                        </g>
                    </g>
                </g>
            </g>
        </g>
        <g  transform="scale(-1)">
            <g >
                <g >
                    <g >
                        <g >
                            <rect height="15.0278"  width="13.9306" gorn="0.3.285.0.0.0.0.0" y="-46.291992" x="-604.63208" fill="#b3b3b3" id="rect50-0"/>
                        </g>
                    </g>
                </g>
            </g>
        </g>
        <g  transform="scale(-1)">
            <g >
                <g >
                    <g >
                        <g >
                            <rect height="15.0278"  width="8.9166698" gorn="0.3.286.0.0.0.0.0" y="-46.291992" x="-599.59039" fill="#cccccc" id="rect52-6"/>
                        </g>
                    </g>
                </g>
            </g>
        </g>
        <g  transform="scale(-1)">
            <g >
                <g >
                    <g >
                        <g >
                            <rect height="15.0278"  width="13.9028" gorn="0.3.287.0.0.0.0.0" y="-46.291992" x="-323.00729" fill="#b3b3b3" id="rect54-1"/>
                        </g>
                    </g>
                </g>
            </g>
        </g>
        <g  transform="scale(-1)">
            <g >
                <g >
                    <g >
                        <g >
                            <rect height="15.0278"  width="8.9166698" gorn="0.3.288.0.0.0.0.0" y="-46.291992" x="-323.00729" fill="#cccccc" id="rect56-5"/>
                        </g>
                    </g>
                </g>
            </g>
        </g>
        <g  transform="scale(-1)">
            <g >
                <g >
                    <g >
                        <g >
                            <rect height="9"  width="6.625" gorn="0.3.289.0.0.0.0.0" y="-33.569962" x="-402.21527" fill="#f2f2f2" id="rect58"/>
                        </g>
                    </g>
                </g>
            </g>
        </g>
        <g  transform="scale(-1)">
            <g >
                <g >
                    <g >
                        <g >
                            <rect height="9"  width="6.6527801" gorn="0.3.290.0.0.0.0.0" y="-33.569962" x="-431.20126" fill="#f2f2f2" id="rect62"/>
                        </g>
                    </g>
                </g>
            </g>
        </g>
        <g  transform="scale(-1)">
            <g >
                <g >
                    <g >
                        <g >
                            <rect height="9"  width="6.625" gorn="0.3.291.0.0.0.0.0" y="-33.569962" x="-460.1463" fill="#f2f2f2" id="rect66"/>
                        </g>
                    </g>
                </g>
            </g>
        </g>
        <g  transform="scale(-1)">
            <g >
                <g >
                    <g >
                        <g >
                            <rect height="9"  width="6.625" gorn="0.3.292.0.0.0.0.0" y="-33.569962" x="-489.11829" fill="#f2f2f2" id="rect70"/>
                        </g>
                    </g>
                </g>
            </g>
        </g>
        <g  transform="scale(-1)">
            <g >
                <g >
                    <g >
                        <g >
                            <rect height="9"  width="6.625" gorn="0.3.293.0.0.0.0.0" y="-33.569962" x="-518.07648" fill="#f2f2f2" id="rect74"/>
                        </g>
                    </g>
                </g>
            </g>
        </g>
        <g  transform="scale(-1)">
            <g >
                <g >
                    <g >
                        <g >
                            <rect height="9"  width="1.33333" gorn="0.3.294.0.0.0.0.0" y="-33.569962" x="-518.07648" fill="#808080" id="rect78"/>
                        </g>
                    </g>
                </g>
            </g>
        </g>
        <g  transform="scale(-1)">
            <g >
                <g >
                    <g >
                        <g >
                            <rect height="9"  width="1.33333" gorn="0.3.295.0.0.0.0.0" y="-33.569962" x="-489.11829" fill="#808080" id="rect82"/>
                        </g>
                    </g>
                </g>
            </g>
        </g>
        <g  transform="scale(-1)">
            <g >
                <g >
                    <g >
                        <g >
                            <rect height="9"  width="1.36111" gorn="0.3.296.0.0.0.0.0" y="-33.569962" x="-460.1463" fill="#808080" id="rect86"/>
                        </g>
                    </g>
                </g>
            </g>
        </g>
        <g  transform="scale(-1)">
            <g >
                <g >
                    <g >
                        <g >
                            <rect height="9"  width="1.36111" gorn="0.3.297.0.0.0.0.0" y="-33.569962" x="-431.18729" fill="#808080" id="rect90-9"/>
                        </g>
                    </g>
                </g>
            </g>
        </g>
        <g  transform="scale(-1)">
            <g >
                <g >
                    <g >
                        <g >
                            <rect height="9"  width="1.36111" gorn="0.3.298.0.0.0.0.0" y="-33.569962" x="-402.20126" fill="#808080" id="rect94-9"/>
                        </g>
                    </g>
                </g>
            </g>
        </g>
        <path  gorn="0.3.299" fill="#4d4d4d" id="path100" d="m 525.20148,21.986 h -7.13889 v 5.5 h -6.625 v -5.5 h -22.3333 v 5.5 h -6.61101 v -5.5 h -22.3333 v 5.5 h -6.625 v -5.5 h -22.3194 v 5.5 h -6.65278 v -5.5 h -22.34752 v 5.5 h -6.625 v -5.5 h -4.486 -3.73611 c -1.09722,0 -2,0.88889 -2,2.02778 v 14.7778 c 0,1.11111 0.875,2.02778 2,2.02778 L 526.29868,40.82 c 1.09722,0 2.02778,-0.88889 2.02778,-2.02778 v -14.7778 c 0,-1.08333 -0.90278,-2.02778 -2.02778,-2.02778 z"/>
        <path  gorn="0.3.300" fill="#cccccc" id="path102" d="m 590.70148,285.9447 -3.18056,7.875 h -35.1944 c 0,0 31.9722,-1.56944 33.1111,-3.93056 1.1389,-2.36112 -1.52778,-3.94444 -1.52778,-3.94444 z"/>
        <path  gorn="0.3.301" fill="#cccccc" id="path104" d="m 322.99328,285.9447 3.18056,7.86111 35.20844,-3e-5 c 0,0 -31.9583,-1.56944 -33.0972,-3.93056 -1.1389,-2.36112 1.51389,-3.93056 1.51389,-3.93056 z"/>
        <path  gorn="0.3.302" fill="#cccccc" id="path106" d="M 590.70148,67.125 V 0 l -267.722,0.0833 V 67.125 Z M 329.18728,4.5 h 255.3198 v 47.375 h -255.347 z"/>
        <path  gorn="0.3.303" fill="#e6e6e6" id="path108" d="m 370.06228,285.9447 v -14.8195 h 22.292 v 22.69447 h 6.40278 v -7.86111 l 116.16622,4e-5 v 7.86107 h 7.2921 v -22.7083 l 22.3056,-7e-5 v 14.8334 h 46.1805 V 57.6257 h -267.681 l 8e-4,228.319 z M 522.21538,101.361 V 90.0554 l 22.125,6e-4 v 12.2361 c 5.91667,3.84722 9.83333,10.5556 9.83333,18.1528 0,8.30556 -3.04167,15.3472 -9.83333,19.0139 v 0 62.2222 h -22.1111 v -62.25 c -6.77778,-3.66667 -11.4583,-10.7361 -11.4583,-19.0417 3e-4,-8.2923 4.6663,-15.3753 11.4444,-19.0283 z m -151.2221,0 V 90.0554 h 22.1111 v 12.2361 c 5.91667,3.84722 9.81944,10.5556 9.81944,18.1528 0,8.30556 -3.01389,15.3472 -9.81944,19.0139 v 0 62.2222 h -22.1111 v -62.25 c -6.80556,-3.66667 -11.4722,-10.7361 -11.4722,-19.0417 2e-4,-8.2917 4.6522,-15.3747 11.4722,-19.0277 z"/>
        <g  transform="rotate(180,308.05214,149.4515)">
            <g >
                <g >
                    <g >
                        <g >
                            <polygon  gorn="0.3.304.0.0.0.0.0" points="31.0417,241.333 25.4028,241.333 25.4028,12.9583 46.6667,12.9583 " fill="#f2f2f2" id="polygon110"/>
                        </g>
                    </g>
                </g>
            </g>
        </g>
        <g  transform="rotate(180,308.05214,149.4515)">
            <g >
                <g >
                    <g >
                        <g >
                            <polygon  gorn="0.3.305.0.0.0.0.0" points="293.111,241.333 285.208,88.8333 277.333,12.9583 293.111,12.9583 " fill="#999999" id="polygon112"/>
                        </g>
                    </g>
                </g>
            </g>
        </g>
        <g  transform="scale(-1)">
            <g >
                <g >
                    <g >
                        <g >
                            <rect height="1.80556"  width="22.111099" gorn="0.3.306.0.0.0.0.0" y="-201.6669" x="-544.34039" fill="#cccccc" id="rect114"/>
                        </g>
                    </g>
                </g>
            </g>
        </g>
        <g  transform="scale(-1)">
            <g >
                <g >
                    <g >
                        <g >
                            <rect height="1.80556"  width="22.0972" gorn="0.3.307.0.0.0.0.0" y="-201.6669" x="-393.07626" fill="#cccccc" id="rect116"/>
                        </g>
                    </g>
                </g>
            </g>
        </g>
        <g  transform="scale(-1)">
            <g >
                <g >
                    <g >
                        <g >
                            <rect height="9.1666698"  width="241.48599" gorn="0.3.308.0.0.0.0.0" y="-69.570007" x="-577.57648" fill="#b3b3b3" id="rect118"/>
                        </g>
                    </g>
                </g>
            </g>
        </g>
        <g  transform="scale(-1)">
            <g >
                <g >
                    <g >
                        <g >
                            <rect height="4.3472199"  width="241.48599" gorn="0.3.309.0.0.0.0.0" y="-61.916992" x="-577.57648" fill="#cccccc" id="rect120"/>
                        </g>
                    </g>
                </g>
            </g>
        </g>
        <circle stroke="#999999" r="29"  stroke-width="20" gorn="0.3.310" cy="178.28183" cx="49.749012" fill="#ffffff" id="connector0pin"/>
        <circle stroke="#999999" r="29"  stroke-width="20" gorn="0.3.311" cy="278.69955" cx="49.749012" fill="#ffffff" id="connector1pin"/>
        <circle stroke="#999999" r="29"  stroke-width="20" gorn="0.3.312" cy="378.69955" cx="49.370079" fill="#ffffff" id="connector2pin"/>
        <circle stroke="#999999" r="29"  stroke-width="20" gorn="0.3.313" cy="478.69955" cx="49.370079" fill="#ffffff" id="connector3pin"/>
        <circle stroke="#999999" r="29"  stroke-width="20" gorn="0.3.314" cy="578.69952" cx="49.370079" fill="#ffffff" id="connector4pin"/>
        <circle stroke="#999999" r="29"  stroke-width="20" gorn="0.3.315" cy="678.69952" cx="49.370079" fill="#ffffff" id="connector5pin"/>
        <circle stroke="#999999" r="29"  stroke-width="20" gorn="0.3.316" cy="778.69952" cx="49.370079" fill="#ffffff" id="connector6pin"/>
        <circle stroke="#999999" r="29"  stroke-width="20" gorn="0.3.317" cy="878.69952" cx="49.370079" fill="#ffffff" id="connector7pin"/>
        <circle stroke="#999999" r="29"  stroke-width="20" gorn="0.3.318" cy="978.69952" cx="49.370079" fill="#ffffff" id="connector8pin"/>
        <circle stroke="#999999" r="29"  stroke-width="20" gorn="0.3.319" cy="978.69952" cx="849.37" fill="#ffffff" id="connector9pin"/>
        <circle stroke="#999999" r="29"  stroke-width="20" gorn="0.3.320" cy="878.69952" cx="849.37" fill="#ffffff" id="connector10pin"/>
        <circle stroke="#999999" r="29"  stroke-width="20" gorn="0.3.321" cy="778.69952" cx="849.37" fill="#ffffff" id="connector11pin"/>
        <circle stroke="#999999" r="29"  stroke-width="20" gorn="0.3.322" cy="678.69952" cx="849.37" fill="#ffffff" id="connector12pin"/>
        <circle stroke="#999999" r="29"  stroke-width="20" gorn="0.3.323" cy="578.69952" cx="849.37" fill="#ffffff" id="connector13pin"/>
        <circle stroke="#999999" r="29"  stroke-width="20" gorn="0.3.324" cy="478.69955" cx="849.37" fill="#ffffff" id="connector14pin"/>
        <circle stroke="#999999" r="29"  stroke-width="20" gorn="0.3.325" cy="378.69955" cx="849.37" fill="#ffffff" id="connector15pin"/>
        <circle stroke="#999999" r="29"  stroke-width="20" gorn="0.3.326" cy="278.69955" cx="849.37" fill="#ffffff" id="connector16pin"/>
        <circle stroke="#999999" r="29"  stroke-width="20" gorn="0.3.327" cy="178.69955" cx="849.37" fill="#ffffff" id="connector17pin"/>
    </g>
</svg>
