<?xml version='1.0' encoding='UTF-8' standalone='no'?>
<svg
  xmlns:dc="http://purl.org/dc/elements/1.1/"
  xmlns:cc="http://creativecommons.org/ns#"
  xmlns:rdf="http://www.w3.org/1999/02/22-rdf-syntax-ns#"
  xmlns:svg="http://www.w3.org/2000/svg"
  xmlns="http://www.w3.org/2000/svg"
  viewBox="0 0 651.18135 807.14983"
  x="0px"
  height="20.501598mm"
  version="1.2"
  width="16.540001mm"
  gorn="0"
  y="0px"
  id="Layer1"
  xml:space="preserve">
  <desc
    id="desc2">
    <referenceFile>JDY-23_db1aefc1660163fd54f07271302564da_2_pcb.svg</referenceFile>
  </desc>
  <defs
    id="defs1371">
  </defs>
  <metadata
    id="metadata102">
    <rdf:RDF>
      <cc:Work
        rdf:about="">
        <dc:format>image/svg+xml</dc:format>
        <dc:type
          rdf:resource="http://purl.org/dc/dcmitype/StillImage"
        />
        <dc:title/>
      </cc:Work>
    </rdf:RDF>
  </metadata>
  <g
    id="silkscreen">
    <rect
      stroke-width="7.99996"
      x="31.495886"
      height="771.64905"
      fill="none"
      stroke="#000000"
      stroke-opacity="1"
      ry="0"
      rx="0"
      width="588.18561"
      gorn="0.3"
      fill-opacity="1"
      y="3.9999776"
      id="rect355"
      color="#000000"
      display="inline"
      overflow="visible"
      visibility="visible"
      opacity="0.99"
      fill-rule="nonzero"
      stroke-linecap="butt"
      stroke-linejoin="miter"
      stroke-miterlimit="4"
      stroke-dasharray="none"
      stroke-dashoffset="0"
      marker="none"
      enable-background="accumulate"
    />
  </g>
  <g
    id="copper1">
    <rect
      stroke-width="13.8888"
      x="-62.99176"
      height="31.49588"
      fill="#f7bd13"
      stroke="none"
      gorn="0.4.0.1.0.0"
      width="62.99176"
      fill-opacity="1"
      y="-378.0134"
      id="rect350"
      transform="scale(-1)"
    />
    <rect
      stroke-width="13.8888"
      x="-62.99176"
      height="31.49588"
      fill="#f7bd13"
      stroke="none"
      gorn="0.4.0.2.0.0"
      width="62.99176"
      fill-opacity="1"
      id="rect12"
      y="-437.06818"
      transform="scale(-1)"
    />
    <rect
      stroke-width="13.8888"
      x="-62.99176"
      height="31.49588"
      fill="#f7bd13"
      stroke="none"
      gorn="0.4.0.0.0.0"
      width="62.99176"
      fill-opacity="1"
      id="connector0pad"
      y="-318.95862"
      transform="scale(-1)"
    />
    <rect
      stroke-width="13.8888"
      x="-62.99176"
      height="31.49588"
      fill="#f7bd13"
      stroke="none"
      gorn="0.4.0.3.0.0"
      width="62.99176"
      fill-opacity="1"
      id="connector3pad"
      y="-496.12296"
      transform="scale(-1)"
    />
    <rect
      stroke-width="13.8888"
      x="-62.99176"
      height="31.49588"
      fill="#f7bd13"
      stroke="none"
      gorn="0.4.0.4.0.0"
      width="62.99176"
      fill-opacity="1"
      id="connector4pad"
      y="-555.1778"
      transform="scale(-1)"
    />
    <rect
      stroke-width="13.8888"
      x="-62.99176"
      height="31.49588"
      fill="#f7bd13"
      stroke="none"
      gorn="0.4.0.5.0.0"
      width="62.99176"
      fill-opacity="1"
      id="connector5pad"
      y="-614.2326"
      transform="scale(-1)"
    />
    <rect
      stroke-width="13.8888"
      x="-62.99176"
      height="31.49588"
      fill="#f7bd13"
      stroke="none"
      gorn="0.4.0.6.0.0"
      width="62.99176"
      fill-opacity="1"
      id="connector6pad"
      y="-673.28735"
      transform="scale(-1)"
    />
    <rect
      stroke-width="13.8888"
      x="-62.99176"
      height="31.49588"
      fill="#f7bd13"
      stroke="none"
      gorn="0.4.0.7.0.0"
      width="62.99176"
      fill-opacity="1"
      id="connector7pad"
      y="-732.34216"
      transform="scale(-1)"
    />
    <rect
      stroke-width="13.8888"
      x="-807.1449"
      height="31.49588"
      fill="#f7bd13"
      stroke="none"
      gorn="0.4.0.8.0.0"
      width="62.99176"
      fill-opacity="1"
      id="connector8pad"
      y="102.36161"
      transform="rotate(-90)"
    />
    <rect
      stroke-width="13.8888"
      x="-807.1449"
      height="31.49588"
      fill="#f7bd13"
      stroke="none"
      gorn="0.4.0.9.0.0"
      width="62.99176"
      fill-opacity="1"
      id="connector9pad"
      y="161.4164"
      transform="rotate(-90)"
    />
    <rect
      stroke-width="13.8888"
      x="-807.1449"
      height="31.49588"
      fill="#f7bd13"
      stroke="none"
      gorn="0.4.0.10.0.0"
      width="62.99176"
      fill-opacity="1"
      id="connector10pad"
      y="220.47118"
      transform="rotate(-90)"
    />
    <rect
      stroke-width="13.8888"
      x="-807.1449"
      height="31.49588"
      fill="#f7bd13"
      stroke="none"
      gorn="0.4.0.11.0.0"
      width="62.99176"
      fill-opacity="1"
      id="connector11pad"
      y="279.52597"
      transform="rotate(-90)"
    />
    <rect
      stroke-width="13.8888"
      x="-807.1449"
      height="31.49588"
      fill="#f7bd13"
      stroke="none"
      gorn="0.4.0.12.0.0"
      width="62.99176"
      fill-opacity="1"
      id="connector12pad"
      y="338.58081"
      transform="rotate(-90)"
    />
    <rect
      stroke-width="13.8888"
      x="-807.1449"
      height="31.49588"
      fill="#f7bd13"
      stroke="none"
      gorn="0.4.0.13.0.0"
      width="62.99176"
      fill-opacity="1"
      id="connector13pad"
      y="397.63559"
      transform="rotate(-90)"
    />
    <rect
      stroke-width="13.8888"
      x="-807.1449"
      height="31.49588"
      fill="#f7bd13"
      stroke="none"
      gorn="0.4.0.14.0.0"
      width="62.99176"
      fill-opacity="1"
      id="connector14pad"
      y="456.69037"
      transform="rotate(-90)"
    />
    <rect
      stroke-width="13.8888"
      x="-807.1449"
      height="31.49588"
      fill="#f7bd13"
      stroke="none"
      gorn="0.4.0.15.0.0"
      width="62.99176"
      fill-opacity="1"
      id="connector15pad"
      y="515.74518"
      transform="rotate(-90)"
    />
    <rect
      stroke-width="13.8888"
      x="-651.17731"
      height="31.49588"
      fill="#f7bd13"
      stroke="none"
      gorn="0.4.0.16.0.0"
      width="62.99176"
      fill-opacity="1"
      id="connector16pad"
      y="-732.34216"
      transform="scale(-1)"
    />
    <rect
      stroke-width="13.8888"
      x="-651.17731"
      height="31.49588"
      fill="#f7bd13"
      stroke="none"
      gorn="0.4.0.17.0.0"
      width="62.99176"
      fill-opacity="1"
      id="connector17pad"
      y="-673.28735"
      transform="scale(-1)"
    />
    <rect
      stroke-width="13.8888"
      x="-651.17731"
      height="31.49588"
      fill="#f7bd13"
      stroke="none"
      gorn="0.4.0.18.0.0"
      width="62.99176"
      fill-opacity="1"
      id="connector18pad"
      y="-614.2326"
      transform="scale(-1)"
    />
    <rect
      stroke-width="13.8888"
      x="-651.17731"
      height="31.49588"
      fill="#f7bd13"
      stroke="none"
      gorn="0.4.0.19.0.0"
      width="62.99176"
      fill-opacity="1"
      id="connector19pad"
      y="-555.1778"
      transform="scale(-1)"
    />
    <rect
      stroke-width="13.8888"
      x="-651.17731"
      height="31.49588"
      fill="#f7bd13"
      stroke="none"
      gorn="0.4.0.20.0.0"
      width="62.99176"
      fill-opacity="1"
      id="connector20pad"
      y="-496.12296"
      transform="scale(-1)"
    />
    <rect
      stroke-width="13.8888"
      x="-651.17731"
      height="31.49588"
      fill="#f7bd13"
      stroke="none"
      gorn="0.4.0.21.0.0"
      width="62.99176"
      fill-opacity="1"
      id="connector21pad"
      y="-437.06818"
      transform="scale(-1)"
    />
    <rect
      stroke-width="13.8888"
      x="-651.17731"
      height="31.49588"
      fill="#f7bd13"
      stroke="none"
      gorn="0.4.0.22.0.0"
      width="62.99176"
      fill-opacity="1"
      id="connector22pad"
      y="-378.0134"
      transform="scale(-1)"
    />
    <rect
      stroke-width="13.8888"
      x="-651.17731"
      height="31.49588"
      fill="#f7bd13"
      stroke="none"
      gorn="0.4.0.23.0.0"
      width="62.99176"
      fill-opacity="1"
      id="connector23pad"
      y="-318.95862"
      transform="scale(-1)"
    />
  </g>
</svg>
