<?xml version='1.0' encoding='UTF-8' standalone='no'?>
<svg
  xmlns:dc="http://purl.org/dc/elements/1.1/"
  xmlns:cc="http://creativecommons.org/ns#"
  xmlns:rdf="http://www.w3.org/1999/02/22-rdf-syntax-ns#"
  xmlns:svg="http://www.w3.org/2000/svg"
  xmlns="http://www.w3.org/2000/svg"
  viewBox="0 0 590.28142 787.50494"
  x="0px"
  height="0.78750467in"
  version="1.2"
  gorn="0"
  width="0.59028125in"
  id="Layer_1"
  y="0px"
  xml:space="preserve">
  <desc
    id="desc2">
    <referenceFile>JDY-23_db1aefc1660163fd54f07271302564da_2_breadboard.svg</referenceFile>
  </desc>
  <metadata
    id="metadata310">
    <rdf:RDF>
      <cc:Work
        rdf:about="">
        <dc:format>image/svg+xml</dc:format>
        <dc:type
          rdf:resource="http://purl.org/dc/dcmitype/StillImage"
        />
        <dc:title/>
      </cc:Work>
    </rdf:RDF>
  </metadata>
  <defs
    id="defs308">
                      </defs>
  <desc
    id="desc6"
  />
  <g
    id="breadboard">
    <rect
      x="-787.50488"
      height="590.28143"
      gorn="0.4.0.0.0.0.0.0.0.0.0.0"
      width="787.50488"
      id="XMLID_152_"
      y="9.8652682e-15"
      fill="#293b6d"
      transform="rotate(-90)"
      stroke-width="13.889"
    />
    <rect
      x="-230.55704"
      height="37.500233"
      gorn="0.6.0.0.0.0.0.0.0.0.0.0"
      width="218.0569"
      id="XMLID_127_"
      y="11.111182"
      fill="#e3e37e"
      transform="rotate(-90)"
      stroke-width="13.889"
    />
    <rect
      x="-216.66806"
      height="19.444565"
      gorn="0.7.0.0.0.0.0.0.0.0.0.0"
      width="204.16792"
      id="XMLID_126_"
      y="104.16731"
      fill="#e3e37e"
      transform="rotate(-90)"
      stroke-width="13.889"
    />
    <rect
      x="-212.50133"
      height="30.555744"
      gorn="0.8.0.0.0.0.0.0.0.0.0.0"
      width="31.944641"
      id="XMLID_125_"
      y="98.611717"
      fill="#e3e37e"
      transform="rotate(-90)"
      stroke-width="13.889"
    />
    <rect
      x="-126.38972"
      height="20.833462"
      gorn="0.9.0.0.0.0.0.0.0.0.0.0"
      width="113.88959"
      id="XMLID_124_"
      y="190.27895"
      fill="#e3e37e"
      transform="rotate(-90)"
      stroke-width="13.889"
    />
    <rect
      x="-126.38972"
      height="19.444565"
      gorn="0.10.0.0.0.0.0.0.0.0.0.0"
      width="116.66738"
      id="XMLID_123_"
      y="288.89066"
      fill="#e3e37e"
      transform="rotate(-90)"
      stroke-width="13.889"
    />
    <rect
      x="-126.38972"
      height="20.833462"
      gorn="0.11.0.0.0.0.0.0.0.0.0.0"
      width="116.66738"
      id="XMLID_122_"
      y="475.00293"
      fill="#e3e37e"
      transform="rotate(-90)"
      stroke-width="13.889"
    />
    <rect
      x="-176.39001"
      height="19.444565"
      gorn="0.12.0.0.0.0.0.0.0.0.0.0"
      width="166.66769"
      id="XMLID_121_"
      y="561.11462"
      fill="#e3e37e"
      transform="rotate(-90)"
      stroke-width="13.889"
    />
    <rect
      x="-27.777969"
      height="105.55621"
      gorn="0.13.0.0.0.0.0.0.0.0.0.0"
      width="18.055666"
      id="XMLID_120_"
      y="475.00293"
      fill="#e3e37e"
      transform="rotate(-90)"
      stroke-width="13.889"
    />
    <rect
      x="-126.38972"
      height="19.444565"
      gorn="0.14.0.0.0.0.0.0.0.0.0.0"
      width="116.66738"
      id="XMLID_119_"
      y="375.00229"
      fill="#e3e37e"
      transform="rotate(-90)"
      stroke-width="13.889"
    />
    <rect
      x="-126.38972"
      height="119.44519"
      gorn="0.15.0.0.0.0.0.0.0.0.0.0"
      width="22.222361"
      id="XMLID_118_"
      y="375.00229"
      fill="#e3e37e"
      transform="rotate(-90)"
      stroke-width="13.889"
    />
    <rect
      x="-29.166899"
      height="105.55621"
      gorn="0.16.0.0.0.0.0.0.0.0.0.0"
      width="20.833462"
      id="XMLID_117_"
      y="288.89066"
      fill="#e3e37e"
      transform="rotate(-90)"
      stroke-width="13.889"
    />
    <rect
      x="-126.38972"
      height="118.05628"
      gorn="0.17.0.0.0.0.0.0.0.0.0.0"
      width="20.833462"
      id="XMLID_116_"
      y="190.27895"
      fill="#e3e37e"
      transform="rotate(-90)"
      stroke-width="13.889"
    />
    <rect
      x="-29.166899"
      height="200.00124"
      gorn="0.18.0.0.0.0.0.0.0.0.0.0"
      width="18.055666"
      id="XMLID_115_"
      y="11.111182"
      fill="#e3e37e"
      transform="rotate(-90)"
      stroke-width="13.889"
    />
    <rect
      x="411.90146"
      height="61.111488"
      gorn="0.19"
      width="22.222361"
      id="XMLID_82_"
      y="621.32971"
      fill="#838383"
      stroke-width="13.889"
    />
    <rect
      x="411.90146"
      height="44.444721"
      gorn="0.20"
      width="22.222361"
      id="XMLID_81_"
      y="629.66309"
      fill="#a9a97a"
      stroke-width="13.889"
    />
    <rect
      x="-596.65326"
      height="234.72366"
      gorn="0.21.0.0.0.0.0.0.0.0.0.0"
      width="244.44595"
      id="XMLID_114_"
      y="184.37581"
      fill="#2d2d2e"
      transform="rotate(-90)"
      stroke-width="13.889"
    />
    <rect
      x="-575.81982"
      height="22.222361"
      gorn="0.22.0.0.0.0.0.0.0.0.0.0"
      width="13.888974"
      id="XMLID_74_"
      y="419.09949"
      fill="#838383"
      transform="rotate(-90)"
      stroke-width="13.889"
    />
    <rect
      x="-554.98633"
      height="22.222361"
      gorn="0.23.0.0.0.0.0.0.0.0.0.0"
      width="13.888974"
      id="XMLID_73_"
      y="419.09949"
      fill="#838383"
      transform="rotate(-90)"
      stroke-width="13.889"
    />
    <rect
      x="-532.76398"
      height="22.222361"
      gorn="0.24.0.0.0.0.0.0.0.0.0.0"
      width="13.888974"
      id="XMLID_72_"
      y="419.09949"
      fill="#838383"
      transform="rotate(-90)"
      stroke-width="13.889"
    />
    <rect
      x="-513.3194"
      height="22.222361"
      gorn="0.25.0.0.0.0.0.0.0.0.0.0"
      width="13.888974"
      id="XMLID_71_"
      y="419.09949"
      fill="#838383"
      transform="rotate(-90)"
      stroke-width="13.889"
    />
    <rect
      x="-492.48596"
      height="22.222361"
      gorn="0.26.0.0.0.0.0.0.0.0.0.0"
      width="13.888974"
      id="XMLID_70_"
      y="419.09949"
      fill="#838383"
      transform="rotate(-90)"
      stroke-width="13.889"
    />
    <rect
      x="-471.6525"
      height="22.222361"
      gorn="0.27.0.0.0.0.0.0.0.0.0.0"
      width="13.888974"
      id="XMLID_69_"
      y="419.09949"
      fill="#838383"
      transform="rotate(-90)"
      stroke-width="13.889"
    />
    <rect
      x="-452.20792"
      height="22.222361"
      gorn="0.28.0.0.0.0.0.0.0.0.0.0"
      width="13.888974"
      id="XMLID_68_"
      y="419.09949"
      fill="#838383"
      transform="rotate(-90)"
      stroke-width="13.889"
    />
    <rect
      x="-432.7634"
      height="22.222361"
      gorn="0.29.0.0.0.0.0.0.0.0.0.0"
      width="13.888974"
      id="XMLID_67_"
      y="419.09949"
      fill="#838383"
      transform="rotate(-90)"
      stroke-width="13.889"
    />
    <rect
      x="-411.92993"
      height="22.222361"
      gorn="0.30.0.0.0.0.0.0.0.0.0.0"
      width="13.888974"
      id="XMLID_66_"
      y="419.09949"
      fill="#838383"
      transform="rotate(-90)"
      stroke-width="13.889"
    />
    <rect
      x="-391.09647"
      height="22.222361"
      gorn="0.31.0.0.0.0.0.0.0.0.0.0"
      width="13.888974"
      id="XMLID_65_"
      y="419.09949"
      fill="#838383"
      transform="rotate(-90)"
      stroke-width="13.889"
    />
    <rect
      x="-575.81982"
      height="22.222361"
      gorn="0.32.0.0.0.0.0.0.0.0.0.0"
      width="13.888974"
      id="XMLID_64_"
      y="162.15344"
      fill="#838383"
      transform="rotate(-90)"
      stroke-width="13.889"
    />
    <rect
      x="-554.98633"
      height="22.222361"
      gorn="0.33.0.0.0.0.0.0.0.0.0.0"
      width="13.888974"
      id="XMLID_63_"
      y="162.15344"
      fill="#838383"
      transform="rotate(-90)"
      stroke-width="13.889"
    />
    <rect
      x="-532.76398"
      height="22.222361"
      gorn="0.34.0.0.0.0.0.0.0.0.0.0"
      width="13.888974"
      id="XMLID_62_"
      y="162.15344"
      fill="#838383"
      transform="rotate(-90)"
      stroke-width="13.889"
    />
    <rect
      x="-513.3194"
      height="22.222361"
      gorn="0.35.0.0.0.0.0.0.0.0.0.0"
      width="13.888974"
      id="XMLID_61_"
      y="162.15344"
      fill="#838383"
      transform="rotate(-90)"
      stroke-width="13.889"
    />
    <rect
      x="-492.48596"
      height="22.222361"
      gorn="0.36.0.0.0.0.0.0.0.0.0.0"
      width="13.888974"
      id="XMLID_60_"
      y="162.15344"
      fill="#838383"
      transform="rotate(-90)"
      stroke-width="13.889"
    />
    <rect
      x="-471.6525"
      height="22.222361"
      gorn="0.37.0.0.0.0.0.0.0.0.0.0"
      width="13.888974"
      id="XMLID_59_"
      y="162.15344"
      fill="#838383"
      transform="rotate(-90)"
      stroke-width="13.889"
    />
    <rect
      x="-452.20792"
      height="22.222361"
      gorn="0.38.0.0.0.0.0.0.0.0.0.0"
      width="13.888974"
      id="XMLID_58_"
      y="162.15344"
      fill="#838383"
      transform="rotate(-90)"
      stroke-width="13.889"
    />
    <rect
      x="-432.7634"
      height="22.222361"
      gorn="0.39.0.0.0.0.0.0.0.0.0.0"
      width="13.888974"
      id="XMLID_57_"
      y="162.15344"
      fill="#838383"
      transform="rotate(-90)"
      stroke-width="13.889"
    />
    <rect
      x="-411.92993"
      height="22.222361"
      gorn="0.40.0.0.0.0.0.0.0.0.0.0"
      width="13.888974"
      id="XMLID_56_"
      y="162.15344"
      fill="#838383"
      transform="rotate(-90)"
      stroke-width="13.889"
    />
    <rect
      x="-391.09647"
      height="22.222361"
      gorn="0.41.0.0.0.0.0.0.0.0.0.0"
      width="13.888974"
      id="XMLID_55_"
      y="162.15344"
      fill="#838383"
      transform="rotate(-90)"
      stroke-width="13.889"
    />
    <rect
      x="-618.87561"
      height="13.888974"
      gorn="0.42.0.0.0.0.0.0.0.0.0.0"
      width="22.222361"
      id="XMLID_54_"
      y="206.59816"
      fill="#838383"
      transform="rotate(-90)"
      stroke-width="13.889"
    />
    <rect
      x="-618.87561"
      height="13.888974"
      gorn="0.43.0.0.0.0.0.0.0.0.0.0"
      width="22.222361"
      id="XMLID_53_"
      y="227.43164"
      fill="#838383"
      transform="rotate(-90)"
      stroke-width="13.889"
    />
    <rect
      x="-618.87561"
      height="13.888974"
      gorn="0.44.0.0.0.0.0.0.0.0.0.0"
      width="22.222361"
      id="XMLID_52_"
      y="248.26511"
      fill="#838383"
      transform="rotate(-90)"
      stroke-width="13.889"
    />
    <rect
      x="-618.87561"
      height="13.888974"
      gorn="0.45.0.0.0.0.0.0.0.0.0.0"
      width="22.222361"
      id="XMLID_51_"
      y="267.70966"
      fill="#838383"
      transform="rotate(-90)"
      stroke-width="13.889"
    />
    <rect
      x="-618.87561"
      height="13.888974"
      gorn="0.46.0.0.0.0.0.0.0.0.0.0"
      width="22.222361"
      id="XMLID_50_"
      y="288.54312"
      fill="#838383"
      transform="rotate(-90)"
      stroke-width="13.889"
    />
    <rect
      x="-618.87561"
      height="13.888974"
      gorn="0.47.0.0.0.0.0.0.0.0.0.0"
      width="22.222361"
      id="XMLID_49_"
      y="307.98767"
      fill="#838383"
      transform="rotate(-90)"
      stroke-width="13.889"
    />
    <rect
      x="-618.87561"
      height="13.888974"
      gorn="0.48.0.0.0.0.0.0.0.0.0.0"
      width="22.222361"
      id="XMLID_48_"
      y="327.43225"
      fill="#838383"
      transform="rotate(-90)"
      stroke-width="13.889"
    />
    <rect
      x="-618.87561"
      height="13.888974"
      gorn="0.49.0.0.0.0.0.0.0.0.0.0"
      width="22.222361"
      id="XMLID_47_"
      y="346.87683"
      fill="#838383"
      transform="rotate(-90)"
      stroke-width="13.889"
    />
    <rect
      x="-618.87561"
      height="13.888974"
      gorn="0.50.0.0.0.0.0.0.0.0.0.0"
      width="22.222361"
      id="XMLID_46_"
      y="367.7103"
      fill="#838383"
      transform="rotate(-90)"
      stroke-width="13.889"
    />
    <rect
      x="-618.87561"
      height="13.888974"
      gorn="0.51.0.0.0.0.0.0.0.0.0.0"
      width="22.222361"
      id="XMLID_45_"
      y="387.15485"
      fill="#838383"
      transform="rotate(-90)"
      stroke-width="13.889"
    />
    <rect
      x="-350.81842"
      height="13.888974"
      gorn="0.52.0.0.0.0.0.0.0.0.0.0"
      width="22.222361"
      id="XMLID_44_"
      y="209.37596"
      fill="#838383"
      transform="rotate(-90)"
      stroke-width="13.889"
    />
    <rect
      x="-350.81842"
      height="13.888974"
      gorn="0.53.0.0.0.0.0.0.0.0.0.0"
      width="22.222361"
      id="XMLID_43_"
      y="230.20943"
      fill="#838383"
      transform="rotate(-90)"
      stroke-width="13.889"
    />
    <rect
      x="-350.81842"
      height="13.888974"
      gorn="0.54.0.0.0.0.0.0.0.0.0.0"
      width="22.222361"
      id="XMLID_42_"
      y="251.04288"
      fill="#838383"
      transform="rotate(-90)"
      stroke-width="13.889"
    />
    <rect
      x="-350.81842"
      height="13.888974"
      gorn="0.55.0.0.0.0.0.0.0.0.0.0"
      width="22.222361"
      id="XMLID_41_"
      y="270.48746"
      fill="#838383"
      transform="rotate(-90)"
      stroke-width="13.889"
    />
    <rect
      x="-350.81842"
      height="13.888974"
      gorn="0.56.0.0.0.0.0.0.0.0.0.0"
      width="22.222361"
      id="XMLID_40_"
      y="289.93204"
      fill="#838383"
      transform="rotate(-90)"
      stroke-width="13.889"
    />
    <rect
      x="-350.81842"
      height="13.888974"
      gorn="0.57.0.0.0.0.0.0.0.0.0.0"
      width="22.222361"
      id="XMLID_39_"
      y="310.7655"
      fill="#838383"
      transform="rotate(-90)"
      stroke-width="13.889"
    />
    <rect
      x="-350.81842"
      height="13.888974"
      gorn="0.58.0.0.0.0.0.0.0.0.0.0"
      width="22.222361"
      id="XMLID_38_"
      y="328.82114"
      fill="#838383"
      transform="rotate(-90)"
      stroke-width="13.889"
    />
    <rect
      x="-350.81842"
      height="13.888974"
      gorn="0.59.0.0.0.0.0.0.0.0.0.0"
      width="22.222361"
      id="XMLID_37_"
      y="349.6546"
      fill="#838383"
      transform="rotate(-90)"
      stroke-width="13.889"
    />
    <rect
      x="-350.81842"
      height="13.888974"
      gorn="0.60.0.0.0.0.0.0.0.0.0.0"
      width="22.222361"
      id="XMLID_36_"
      y="369.09915"
      fill="#838383"
      transform="rotate(-90)"
      stroke-width="13.889"
    />
    <rect
      x="-350.81842"
      height="13.888974"
      gorn="0.61.0.0.0.0.0.0.0.0.0.0"
      width="22.222361"
      id="XMLID_35_"
      y="389.93262"
      fill="#838383"
      transform="rotate(-90)"
      stroke-width="13.889"
    />
    <rect
      x="52.419289"
      height="119.44519"
      gorn="0.62"
      width="95.833923"
      id="XMLID_113_"
      y="388.12274"
      fill="#acadad"
      stroke-width="13.889"
    />
    <rect
      x="59.363777"
      height="102.77841"
      gorn="0.63"
      width="81.944954"
      id="XMLID_29_"
      y="396.45615"
      fill="#d7d6d6"
      stroke-width="13.889"
    />
    <text
      stroke-width="13.7368"
      x="-470.0705"
      fill="#838383"
      font-size="12.3873"
      gorn="0.64.0.0.0.0.0.0.0.0.0.0"
      id="XMLID_28_"
      y="122.57253"
      font-family="OCRA"
      transform="matrix(0,-0.98903995,1.0110815,0,0,0)">MHZ</text>
    <text
      stroke-width="13.7368"
      x="-479.77527"
      fill="#838383"
      font-size="12.3873"
      gorn="0.65.0.0.0.0.0.0.0.0.0.0"
      id="XMLID_27_"
      y="99.258522"
      font-family="OCRA"
      transform="matrix(0,-0.98903995,1.0110815,0,0,0)">16.000</text>
    <text
      stroke-width="14.043"
      x="-321.88281"
      fill="#d7d6d6"
      font-size="12.8261"
      gorn="0.66.0.0.0.0.0.0.0.0.0.0"
      id="text138"
      y="45.323727"
      font-family="DroidSans"
      transform="matrix(0,-1.0110885,0.9890331,0,0,0)">V</text>
    <text
      stroke-width="14.043"
      x="-310.90311"
      fill="#d7d6d6"
      font-size="12.8261"
      gorn="0.67.0.0.0.0.0.0.0.0.0.0"
      id="text144"
      y="45.323727"
      font-family="DroidSans"
      transform="matrix(0,-1.0110885,0.9890331,0,0,0)">C</text>
    <text
      stroke-width="14.043"
      x="-299.21872"
      fill="#d7d6d6"
      font-size="12.8261"
      gorn="0.68.0.0.0.0.0.0.0.0.0.0"
      id="text150"
      y="45.323727"
      font-family="DroidSans"
      transform="matrix(0,-1.0110885,0.9890331,0,0,0)">C</text>
    <text
      stroke-width="14.043"
      x="-497.13135"
      fill="#d7d6d6"
      font-size="12.8261"
      gorn="0.69.0.0.0.0.0.0.0.0.0.0"
      id="XMLID_23_"
      y="45.323727"
      font-family="DroidSans"
      transform="matrix(0,-1.0110885,0.9890331,0,0,0)">IO1</text>
    <text
      stroke-width="14.043"
      x="-557.06158"
      fill="#d7d6d6"
      font-size="12.8261"
      gorn="0.70.0.0.0.0.0.0.0.0.0.0"
      id="XMLID_22_"
      y="45.323727"
      font-family="DroidSans"
      transform="matrix(0,-1.0110885,0.9890331,0,0,0)">IO2</text>
    <text
      stroke-width="14.043"
      x="-620.88312"
      fill="#d7d6d6"
      font-size="12.8261"
      gorn="0.71.0.0.0.0.0.0.0.0.0.0"
      id="XMLID_21_"
      y="45.323727"
      font-family="DroidSans"
      transform="matrix(0,-1.0110885,0.9890331,0,0,0)">STAT</text>
    <text
      stroke-width="13.7368"
      x="-159.00798"
      fill="#d7d6d6"
      font-size="12.826"
      gorn="0.72.0.0.0.0.0.0.0.0.0.0"
      id="XMLID_20_"
      y="-734.62494"
      font-family="DroidSans"
      transform="scale(-0.98903995,-1.0110815)">IO5</text>
    <text
      stroke-width="13.7368"
      x="-338.76956"
      fill="#d7d6d6"
      font-size="12.826"
      gorn="0.73.0.0.0.0.0.0.0.0.0.0"
      id="XMLID_19_"
      y="-734.6181"
      font-family="DroidSans"
      transform="scale(-0.98903995,-1.0110815)">IO6</text>
    <text
      stroke-width="13.7368"
      x="-99.676804"
      fill="#d7d6d6"
      font-size="12.826"
      gorn="0.74.0.0.0.0.0.0.0.0.0.0"
      id="XMLID_18_"
      y="-734.62494"
      font-family="DroidSans"
      transform="scale(-0.98903995,-1.0110815)">IO4</text>
    <text
      stroke-width="14.043"
      x="-735.85559"
      fill="#d7d6d6"
      font-size="12.8261"
      gorn="0.75.0.0.0.0.0.0.0.0.0.0"
      id="XMLID_17_"
      y="45.323727"
      font-family="DroidSans"
      transform="matrix(0,-1.0110885,0.9890331,0,0,0)">IO3</text>
    <text
      stroke-width="14.043"
      x="-677.87787"
      fill="#d7d6d6"
      font-size="12.8261"
      gorn="0.76.0.0.0.0.0.0.0.0.0.0"
      id="XMLID_16_"
      y="45.323727"
      font-family="DroidSans"
      transform="matrix(0,-1.0110885,0.9890331,0,0,0)">IN7</text>
    <text
      stroke-width="13.7368"
      x="-399.68857"
      fill="#d7d6d6"
      font-size="12.826"
      gorn="0.77.0.0.0.0.0.0.0.0.0.0"
      id="XMLID_15_"
      y="-734.6181"
      font-family="DroidSans"
      transform="scale(-0.98903995,-1.0110815)">IO7</text>
    <text
      stroke-width="13.7368"
      x="-459.60815"
      fill="#d7d6d6"
      font-size="12.826"
      gorn="0.78.0.0.0.0.0.0.0.0.0.0"
      id="XMLID_14_"
      y="-734.6181"
      font-family="DroidSans"
      transform="scale(-0.98903995,-1.0110815)">IN4</text>
    <text
      stroke-width="13.7368"
      x="-522.49359"
      fill="#d7d6d6"
      font-size="12.826"
      gorn="0.79.0.0.0.0.0.0.0.0.0.0"
      id="XMLID_13_"
      y="-734.6181"
      font-family="DroidSans"
      transform="scale(-0.98903995,-1.0110815)">INT2</text>
    <text
      stroke-width="14.043"
      x="-741.78351"
      fill="#d7d6d6"
      font-size="12.8261"
      gorn="0.80.0.0.0.0.0.0.0.0.0.0"
      id="XMLID_12_"
      y="567.80835"
      font-family="DroidSans"
      transform="matrix(0,-1.0110885,0.9890331,0,0,0)">ALED</text>
    <text
      stroke-width="14.043"
      x="-678.93146"
      fill="#d7d6d6"
      font-size="12.8261"
      gorn="0.81.0.0.0.0.0.0.0.0.0.0"
      id="XMLID_11_"
      y="567.80835"
      font-family="DroidSans"
      transform="matrix(0,-1.0110885,0.9890331,0,0,0)">IN3</text>
    <text
      stroke-width="14.043"
      x="-621.92981"
      fill="#d7d6d6"
      font-size="12.8261"
      gorn="0.82.0.0.0.0.0.0.0.0.0.0"
      id="XMLID_10_"
      y="567.80835"
      font-family="DroidSans"
      transform="matrix(0,-1.0110885,0.9890331,0,0,0)">TXD</text>
    <text
      stroke-width="14.043"
      x="-562.00647"
      fill="#d7d6d6"
      font-size="12.8261"
      gorn="0.83.0.0.0.0.0.0.0.0.0.0"
      id="XMLID_9_"
      y="567.80835"
      font-family="DroidSans"
      transform="matrix(0,-1.0110885,0.9890331,0,0,0)">RXD</text>
    <text
      stroke-width="14.043"
      x="-322.92957"
      fill="#d7d6d6"
      font-size="12.8261"
      gorn="0.84.0.0.0.0.0.0.0.0.0.0"
      id="XMLID_6_"
      y="567.80835"
      font-family="DroidSans"
      transform="matrix(0,-1.0110885,0.9890331,0,0,0)">GND</text>
    <text
      stroke-width="14.043"
      x="-381.25311"
      fill="#d7d6d6"
      font-size="12.8261"
      gorn="0.85.0.0.0.0.0.0.0.0.0.0"
      id="XMLID_5_"
      y="567.79431"
      font-family="DroidSans"
      transform="matrix(0,-1.0110885,0.9890331,0,0,0)">RST</text>
    <text
      stroke-width="13.7368"
      x="-217.87622"
      fill="#d7d6d6"
      font-size="12.826"
      gorn="0.86.0.0.0.0.0.0.0.0.0.0"
      id="XMLID_4_"
      y="-734.62494"
      font-family="DroidSans"
      transform="scale(-0.98903995,-1.0110815)">IN6</text>
    <text
      stroke-width="13.7368"
      x="-278.79242"
      fill="#d7d6d6"
      font-size="12.826"
      gorn="0.87.0.0.0.0.0.0.0.0.0.0"
      id="text266"
      y="-734.62494"
      font-family="DroidSans"
      transform="scale(-0.98903995,-1.0110815)">IN5</text>
    <text
      stroke-width="14.043"
      x="342.68918"
      fill="#acadad"
      font-size="41.1539"
      gorn="0.88.0.0.0.0.0.0.0.0.0.0"
      id="Title"
      y="235.9044"
      font-family="OCRA"
      transform="scale(1.0110885,0.9890331)">JDY-23</text>
    <circle
      stroke-width="10.4167"
      cx="-718.41089"
      r="12.831743"
      fill="#e3e37e"
      stroke="none"
      stroke-opacity="1"
      gorn="0.89.0.0.0.0.0.0.0.0.0.0"
      fill-opacity="1"
      id="path633"
      cy="83.921204"
      opacity="1"
      stroke-linejoin="round"
      stroke-miterlimit="4"
      stroke-dasharray="none"
      stroke-dashoffset="0"
      transform="rotate(-90)"
    />
    <circle
      stroke-width="10.4167"
      cx="-305.82101"
      r="12.831744"
      fill="#e3e37e"
      stroke="none"
      stroke-opacity="1"
      gorn="0.90.0.0.0.0.0.0.0.0.0.0"
      fill-opacity="1"
      id="path633-3"
      cy="527.10986"
      opacity="1"
      stroke-linejoin="round"
      stroke-miterlimit="4"
      stroke-dasharray="none"
      stroke-dashoffset="0"
      transform="rotate(-90)"
    />
    <rect
      x="237.25069"
      height="20.833462"
      gorn="0.91"
      width="62.500385"
      id="XMLID_34_-7"
      y="690.22711"
      fill="#838383"
      stroke-width="13.889"
    />
    <rect
      x="245.58408"
      height="20.833462"
      gorn="0.92"
      width="44.444721"
      id="XMLID_33_-5"
      y="690.22711"
      fill="#111010"
      stroke-width="13.889"
    />
    <rect
      x="317.20233"
      height="20.833462"
      gorn="0.93"
      width="62.500385"
      id="XMLID_34_-5"
      y="663.5766"
      fill="#838383"
      stroke-width="13.889"
    />
    <rect
      x="325.53571"
      height="20.833462"
      gorn="0.94"
      width="44.444721"
      id="XMLID_33_-6"
      y="663.5766"
      fill="#111010"
      stroke-width="13.889"
    />
    <rect
      x="71.530342"
      height="20.833462"
      gorn="0.95"
      width="62.500385"
      id="XMLID_34_-5-9"
      y="524.40155"
      fill="#838383"
      stroke-width="13.889"
    />
    <rect
      x="79.863731"
      height="20.833462"
      gorn="0.96"
      width="44.444721"
      id="XMLID_33_-6-1"
      y="524.40155"
      fill="#111010"
      stroke-width="13.889"
    />
    <rect
      x="74.491524"
      height="20.833462"
      gorn="0.97"
      width="62.500385"
      id="XMLID_34_-5-9-7"
      y="321.94952"
      fill="#838383"
      stroke-width="13.889"
    />
    <rect
      x="82.824913"
      height="20.833462"
      gorn="0.98"
      width="44.444721"
      id="XMLID_33_-6-1-0"
      y="321.94952"
      fill="#111010"
      stroke-width="13.889"
    />
    <rect
      x="75.478584"
      height="20.833462"
      gorn="0.99"
      width="62.500385"
      id="XMLID_34_-5-9-3"
      y="290.46896"
      fill="#838383"
      stroke-width="13.889"
    />
    <rect
      x="83.811974"
      height="20.833462"
      gorn="0.100"
      width="44.444721"
      id="XMLID_33_-6-1-6"
      y="290.46896"
      fill="#111010"
      stroke-width="13.889"
    />
    <rect
      x="208.43799"
      height="20.833462"
      gorn="0.101.0.0.0.0.0.0.0.0.0.0"
      width="62.500385"
      id="XMLID_34_-5-9-6"
      y="-279.02289"
      fill="#838383"
      transform="rotate(90)"
      stroke-width="13.889"
    />
    <rect
      x="216.77136"
      height="20.833462"
      gorn="0.102.0.0.0.0.0.0.0.0.0.0"
      width="44.444721"
      id="XMLID_33_-6-1-2"
      y="-279.02289"
      fill="#111010"
      transform="rotate(90)"
      stroke-width="13.889"
    />
    <rect
      x="149.4026"
      height="20.833462"
      gorn="0.103"
      width="62.500385"
      id="XMLID_34_-5-9-3-1"
      y="291.45602"
      fill="#838383"
      stroke-width="13.889"
    />
    <rect
      x="157.73599"
      height="20.833462"
      gorn="0.104"
      width="44.444721"
      id="XMLID_33_-6-1-6-8"
      y="291.45602"
      fill="#111010"
      stroke-width="13.889"
    />
    <text
      stroke-width="14.043"
      x="-501.28134"
      fill="#d7d6d6"
      font-size="12.8261"
      gorn="0.105.0.0.0.0.0.0.0.0.0.0"
      id="XMLID_9_-2"
      y="567.74072"
      font-family="DroidSans"
      transform="matrix(0,-1.0110885,0.9890331,0,0,0)">INT1</text>
    <text
      stroke-width="14.043"
      x="-447.46954"
      fill="#d7d6d6"
      font-size="12.8261"
      gorn="0.106.0.0.0.0.0.0.0.0.0.0"
      id="XMLID_9_-2-3"
      y="567.74072"
      font-family="DroidSans"
      transform="matrix(0,-1.0110885,0.9890331,0,0,0)">PWRC</text>
    <rect
      x="-323.61313"
      height="20.833462"
      gorn="0.5.15.0.0.0.0.0.0.0.0.0.0"
      width="33.333542"
      id="connector0pin"
      y="6.1318646e-15"
      fill="#e3e37e"
      transform="rotate(-90)"
      stroke-width="13.889"
    />
    <rect
      x="-384.72464"
      height="20.833462"
      gorn="0.5.14.0.0.0.0.0.0.0.0.0.0"
      width="33.333542"
      id="connector1pin"
      y="9.8738681e-15"
      fill="#e3e37e"
      transform="rotate(-90)"
      stroke-width="13.889"
    />
    <rect
      x="-444.44724"
      height="20.833462"
      gorn="0.5.13.0.0.0.0.0.0.0.0.0.0"
      width="33.333542"
      id="connector2pin"
      y="1.1949325e-15"
      fill="#e3e37e"
      transform="rotate(-90)"
      stroke-width="13.889"
    />
    <rect
      x="-505.55875"
      height="20.833462"
      gorn="0.5.12.0.0.0.0.0.0.0.0.0.0"
      width="33.333542"
      id="connector3pin"
      y="4.9369324e-15"
      fill="#e3e37e"
      transform="rotate(-90)"
      stroke-width="13.889"
    />
    <rect
      x="-566.67023"
      height="20.833462"
      gorn="0.5.11.0.0.0.0.0.0.0.0.0.0"
      width="33.333542"
      id="connector4pin"
      y="8.6789317e-15"
      fill="#e3e37e"
      transform="rotate(-90)"
      stroke-width="13.889"
    />
    <rect
      x="-626.39276"
      height="20.833462"
      gorn="0.5.10.0.0.0.0.0.0.0.0.0.0"
      width="33.333542"
      id="connector5pin"
      y="0"
      fill="#e3e37e"
      transform="rotate(-90)"
      stroke-width="13.889"
    />
    <rect
      x="-687.50427"
      height="20.833462"
      gorn="0.5.9.0.0.0.0.0.0.0.0.0.0"
      width="33.333542"
      id="connector6pin"
      y="3.7420001e-15"
      fill="#e3e37e"
      transform="rotate(-90)"
      stroke-width="13.889"
    />
    <rect
      x="-747.22687"
      height="20.833462"
      gorn="0.5.8.0.0.0.0.0.0.0.0.0.0"
      width="33.333542"
      id="connector7pin"
      y="7.3989514e-15"
      fill="#e3e37e"
      transform="rotate(-90)"
      stroke-width="13.889"
    />
    <rect
      x="-787.50488"
      height="33.333542"
      gorn="0.5.0.0.0.0.0.0.0.0.0.0.0"
      width="22.222361"
      id="connector8pin"
      y="66.667084"
      fill="#e3e37e"
      transform="rotate(-90)"
      stroke-width="13.889"
    />
    <rect
      x="-787.50488"
      height="33.333542"
      gorn="0.5.1.0.0.0.0.0.0.0.0.0.0"
      width="22.222361"
      id="connector9pin"
      y="126.38969"
      fill="#e3e37e"
      transform="rotate(-90)"
      stroke-width="13.889"
    />
    <rect
      x="-787.50488"
      height="33.333542"
      gorn="0.5.2.0.0.0.0.0.0.0.0.0.0"
      width="22.222361"
      id="connector10pin"
      y="186.11227"
      fill="#e3e37e"
      transform="rotate(-90)"
      stroke-width="13.889"
    />
    <rect
      x="-787.50488"
      height="33.333542"
      gorn="0.5.3.0.0.0.0.0.0.0.0.0.0"
      width="22.222361"
      id="connector11pin"
      y="245.83485"
      fill="#e3e37e"
      transform="rotate(-90)"
      stroke-width="13.889"
    />
    <rect
      x="-787.50488"
      height="33.333542"
      gorn="0.5.4.0.0.0.0.0.0.0.0.0.0"
      width="22.222361"
      id="connector12pin"
      y="304.16855"
      fill="#e3e37e"
      transform="rotate(-90)"
      stroke-width="13.889"
    />
    <rect
      x="-787.50488"
      height="33.333542"
      gorn="0.5.5.0.0.0.0.0.0.0.0.0.0"
      width="22.222361"
      id="connector13pin"
      y="363.89111"
      fill="#e3e37e"
      transform="rotate(-90)"
      stroke-width="13.889"
    />
    <rect
      x="-787.50488"
      height="33.333542"
      gorn="0.5.6.0.0.0.0.0.0.0.0.0.0"
      width="22.222361"
      id="connector14pin"
      y="423.61371"
      fill="#e3e37e"
      transform="rotate(-90)"
      stroke-width="13.889"
    />
    <rect
      x="-787.50488"
      height="33.333542"
      gorn="0.5.7.0.0.0.0.0.0.0.0.0.0"
      width="22.222361"
      id="connector15pin"
      y="483.3363"
      fill="#e3e37e"
      transform="rotate(-90)"
      stroke-width="13.889"
    />
    <rect
      x="-747.22687"
      height="20.833462"
      gorn="0.5.16.0.0.0.0.0.0.0.0.0.0"
      width="33.333542"
      id="connector16pin"
      y="568.05908"
      fill="#e3e37e"
      transform="rotate(-90)"
      stroke-width="13.889"
    />
    <rect
      x="-687.50427"
      height="20.833462"
      gorn="0.5.17.0.0.0.0.0.0.0.0.0.0"
      width="33.333542"
      id="connector17pin"
      y="568.05908"
      fill="#e3e37e"
      transform="rotate(-90)"
      stroke-width="13.889"
    />
    <rect
      x="-626.39276"
      height="20.833462"
      gorn="0.5.18.0.0.0.0.0.0.0.0.0.0"
      width="33.333542"
      id="connector18pin"
      y="568.05908"
      fill="#e3e37e"
      transform="rotate(-90)"
      stroke-width="13.889"
    />
    <rect
      x="-566.67023"
      height="20.833462"
      gorn="0.5.19.0.0.0.0.0.0.0.0.0.0"
      width="33.333542"
      id="connector19pin"
      y="568.05908"
      fill="#e3e37e"
      transform="rotate(-90)"
      stroke-width="13.889"
    />
    <rect
      x="-505.55875"
      height="20.833462"
      gorn="0.5.20.0.0.0.0.0.0.0.0.0.0"
      width="33.333542"
      id="connector20pin"
      y="568.05908"
      fill="#e3e37e"
      transform="rotate(-90)"
      stroke-width="13.889"
    />
    <rect
      x="-444.44724"
      height="20.833462"
      gorn="0.5.21.0.0.0.0.0.0.0.0.0.0"
      width="33.333542"
      id="connector21pin"
      y="568.05908"
      fill="#e3e37e"
      transform="rotate(-90)"
      stroke-width="13.889"
    />
    <rect
      x="-384.72464"
      height="20.833462"
      gorn="0.5.22.0.0.0.0.0.0.0.0.0.0"
      width="33.333542"
      id="connector22pin"
      y="568.05908"
      fill="#e3e37e"
      transform="rotate(-90)"
      stroke-width="13.889"
    />
    <rect
      x="-323.61313"
      height="20.833462"
      gorn="0.5.23.0.0.0.0.0.0.0.0.0.0"
      width="33.333542"
      id="connector23pin"
      y="568.05908"
      fill="#e3e37e"
      transform="rotate(-90)"
      stroke-width="13.889"
    />
  </g>
</svg>
