<?xml version='1.0' encoding='UTF-8' standalone='no'?>
<svg
  xmlns:dc="http://purl.org/dc/elements/1.1/"
  xmlns:cc="http://creativecommons.org/ns#"
  xmlns:rdf="http://www.w3.org/1999/02/22-rdf-syntax-ns#"
  xmlns:svg="http://www.w3.org/2000/svg"
  xmlns="http://www.w3.org/2000/svg"
  width="2.758086in"
  gorn="0"
  id="svg10"
  xml:space="preserve"
  version="1.1"
  viewBox="0 0 2758.0868 5254.9423"
  height="5.2549405in">
  <desc
    id="desc2">
    <referenceFile>Nucleo-144-MB1137_1_pcb.svg</referenceFile>
  </desc>
  <metadata
    id="metadata16">
    <rdf:RDF>
      <cc:Work
        rdf:about="">
        <dc:format>image/svg+xml</dc:format>
        <dc:type
          rdf:resource="http://purl.org/dc/dcmitype/StillImage"
        />
        <dc:title/>
      </cc:Work>
    </rdf:RDF>
  </metadata>
  <defs
    id="defs14">
  </defs>
  <g
    id="silkscreen">
    <path
      stroke="#000000"
      id="path27839"
      d="m 5.000001,5170.5947 c 0.1948,39.8363 29.9779,77.9229 78.3168,79.225 l 1388.262499,0.1221 0.624,-252.1201 c -51.2083,-8.7202 -38.281,-71.2733 -2.0272,-69.9882 l 548.8612,-0.7528 c 0,0 34.4662,-1.6358 37.4431,32.7764 -0.2208,38.3253 -35.7083,38.4528 -35.7083,38.4528 l 0.3114,251.6318 654.0568,-0.062 c 44.7656,-0.4603 76.4029,-36.2076 77.9465,-79.0215 l -0.526,-5092.716394 c 1.0915,-33.2037 -34.8509,-71.6158001 -69.7797,-72.9179001 L 78.073701,5.0000059 c -32.5898,0.8948 -72.0211,32.1050001 -72.6447,73.9352001 z"
      stroke-width="10"
      fill="none"
    />
    <circle
      id="circle162"
      cx="489.60504"
      cy="4119.4351"
      r="60"
      fill="#000000"
      stroke="none"
      stroke-width="0"
    />
    <circle
      id="circle160"
      cx="2282.1577"
      cy="4117.3516"
      r="60"
      fill="#000000"
      stroke="none"
      stroke-width="0"
    />
    <circle
      id="circle158"
      cx="1733.5846"
      cy="3172.5491"
      r="60"
      fill="#000000"
      stroke="none"
      stroke-width="0"
    />
    <circle
      id="circle156"
      cx="2334.8142"
      cy="1158.8713"
      r="60"
      fill="#000000"
      stroke="none"
      stroke-width="0"
    />
    <circle
      id="path3951"
      cx="430.33417"
      cy="1109.0692"
      r="60"
      fill="#000000"
      stroke="none"
      stroke-width="0"
    />
  </g>
  <g
    id="copper1">
    <g
      id="copper0">
      <circle
        gorn="0.19.0.0.0.0.0.0.0.0.0.0.0.0.0.0.0.0.0.0.0.0.0.34"
        stroke="#F7BD13"
        id="connector0pin"
        stroke-width="20"
        r="29"
        cx="-1250.6733"
        cy="132.47165"
        fill="none"
        transform="rotate(-90)"
        fill-opacity="1"
      />
      <circle
        gorn="0.19.0.0.0.0.0.0.0.0.0.0.0.0.0.0.0.0.0.0.0.0.0.69"
        stroke="#F7BD13"
        id="connector1pin"
        stroke-width="20"
        r="29"
        cx="-1250.6733"
        cy="232.47165"
        fill="none"
        transform="rotate(-90)"
        fill-opacity="1"
      />
      <circle
        gorn="0.19.0.0.0.0.0.0.0.0.0.0.0.0.0.0.0.0.0.0.0.0.0.33"
        stroke="#F7BD13"
        id="connector2pin"
        stroke-width="20"
        r="29"
        cx="-1350.6733"
        cy="132.47165"
        fill="none"
        transform="rotate(-90)"
        fill-opacity="1"
      />
      <circle
        gorn="0.19.0.0.0.0.0.0.0.0.0.0.0.0.0.0.0.0.0.0.0.0.0.68"
        stroke="#F7BD13"
        id="connector3pin"
        stroke-width="20"
        r="29"
        cx="-1350.6733"
        cy="232.47165"
        fill="none"
        transform="rotate(-90)"
        fill-opacity="1"
      />
      <circle
        gorn="0.19.0.0.0.0.0.0.0.0.0.0.0.0.0.0.0.0.0.0.0.0.0.32"
        stroke="#F7BD13"
        id="connector4pin"
        stroke-width="20"
        r="29"
        cx="-1450.6736"
        cy="132.47165"
        fill="none"
        transform="rotate(-90)"
        fill-opacity="1"
      />
      <circle
        gorn="0.19.0.0.0.0.0.0.0.0.0.0.0.0.0.0.0.0.0.0.0.0.0.67"
        stroke="#F7BD13"
        id="connector5pin"
        stroke-width="20"
        r="29"
        cx="-1450.6736"
        cy="232.47165"
        fill="none"
        transform="rotate(-90)"
        fill-opacity="1"
      />
      <circle
        gorn="0.19.0.0.0.0.0.0.0.0.0.0.0.0.0.0.0.0.0.0.0.0.0.30"
        stroke="#F7BD13"
        id="connector6pin"
        stroke-width="20"
        r="29"
        cx="-1550.6736"
        cy="132.47165"
        fill="none"
        transform="rotate(-90)"
        fill-opacity="1"
      />
      <circle
        gorn="0.19.0.0.0.0.0.0.0.0.0.0.0.0.0.0.0.0.0.0.0.0.0.65"
        stroke="#F7BD13"
        id="connector7pin"
        stroke-width="20"
        r="29"
        cx="-1550.6736"
        cy="232.47165"
        fill="none"
        transform="rotate(-90)"
        fill-opacity="1"
      />
      <circle
        gorn="0.19.0.0.0.0.0.0.0.0.0.0.0.0.0.0.0.0.0.0.0.0.0.31"
        stroke="#F7BD13"
        id="connector8pin"
        stroke-width="20"
        r="29"
        cx="-1650.6738"
        cy="132.47165"
        fill="none"
        transform="rotate(-90)"
        fill-opacity="1"
      />
      <circle
        gorn="0.19.0.0.0.0.0.0.0.0.0.0.0.0.0.0.0.0.0.0.0.0.0.66"
        stroke="#F7BD13"
        id="connector9pin"
        stroke-width="20"
        r="29"
        cx="-1650.6738"
        cy="232.47165"
        fill="none"
        transform="rotate(-90)"
        fill-opacity="1"
      />
      <circle
        gorn="0.19.0.0.0.0.0.0.0.0.0.0.0.0.0.0.0.0.0.0.0.0.0.29"
        stroke="#F7BD13"
        id="connector10pin"
        stroke-width="20"
        r="29"
        cx="-1750.6738"
        cy="132.47165"
        fill="none"
        transform="rotate(-90)"
        fill-opacity="1"
      />
      <circle
        gorn="0.19.0.0.0.0.0.0.0.0.0.0.0.0.0.0.0.0.0.0.0.0.0.64"
        stroke="#F7BD13"
        id="connector11pin"
        stroke-width="20"
        r="29"
        cx="-1750.6738"
        cy="232.47165"
        fill="none"
        transform="rotate(-90)"
        fill-opacity="1"
      />
      <circle
        gorn="0.19.0.0.0.0.0.0.0.0.0.0.0.0.0.0.0.0.0.0.0.0.0.28"
        stroke="#F7BD13"
        id="connector12pin"
        stroke-width="20"
        r="29"
        cx="-1850.6738"
        cy="132.47165"
        fill="none"
        transform="rotate(-90)"
        fill-opacity="1"
      />
      <circle
        gorn="0.19.0.0.0.0.0.0.0.0.0.0.0.0.0.0.0.0.0.0.0.0.0.63"
        stroke="#F7BD13"
        id="connector13pin"
        stroke-width="20"
        r="29"
        cx="-1850.6738"
        cy="232.47165"
        fill="none"
        transform="rotate(-90)"
        fill-opacity="1"
      />
      <circle
        gorn="0.19.0.0.0.0.0.0.0.0.0.0.0.0.0.0.0.0.0.0.0.0.0.27"
        stroke="#F7BD13"
        id="connector14pin"
        stroke-width="20"
        r="29"
        cx="-1950.6741"
        cy="132.47165"
        fill="none"
        transform="rotate(-90)"
        fill-opacity="1"
      />
      <circle
        gorn="0.19.0.0.0.0.0.0.0.0.0.0.0.0.0.0.0.0.0.0.0.0.0.62"
        stroke="#F7BD13"
        id="connector15pin"
        stroke-width="20"
        r="29"
        cx="-1950.6741"
        cy="232.47165"
        fill="none"
        transform="rotate(-90)"
        fill-opacity="1"
      />
      <circle
        gorn="0.19.0.0.0.0.0.0.0.0.0.0.0.0.0.0.0.0.0.0.0.0.0.26"
        stroke="#F7BD13"
        id="connector16pin"
        stroke-width="20"
        r="29"
        cx="-2050.6741"
        cy="132.47165"
        fill="none"
        transform="rotate(-90)"
        fill-opacity="1"
      />
      <circle
        gorn="0.19.0.0.0.0.0.0.0.0.0.0.0.0.0.0.0.0.0.0.0.0.0.61"
        stroke="#F7BD13"
        id="connector17pin"
        stroke-width="20"
        r="29"
        cx="-2050.6741"
        cy="232.47165"
        fill="none"
        transform="rotate(-90)"
        fill-opacity="1"
      />
      <circle
        gorn="0.19.0.0.0.0.0.0.0.0.0.0.0.0.0.0.0.0.0.0.0.0.0.25"
        stroke="#F7BD13"
        id="connector18pin"
        stroke-width="20"
        r="29"
        cx="-2150.6741"
        cy="132.47165"
        fill="none"
        transform="rotate(-90)"
        fill-opacity="1"
      />
      <circle
        gorn="0.19.0.0.0.0.0.0.0.0.0.0.0.0.0.0.0.0.0.0.0.0.0.60"
        stroke="#F7BD13"
        id="connector19pin"
        stroke-width="20"
        r="29"
        cx="-2150.6741"
        cy="232.47165"
        fill="none"
        transform="rotate(-90)"
        fill-opacity="1"
      />
      <circle
        gorn="0.19.0.0.0.0.0.0.0.0.0.0.0.0.0.0.0.0.0.0.0.0.0.24"
        stroke="#F7BD13"
        id="connector20pin"
        stroke-width="20"
        r="29"
        cx="-2250.6743"
        cy="132.47165"
        fill="none"
        transform="rotate(-90)"
        fill-opacity="1"
      />
      <circle
        gorn="0.19.0.0.0.0.0.0.0.0.0.0.0.0.0.0.0.0.0.0.0.0.0.59"
        stroke="#F7BD13"
        id="connector21pin"
        stroke-width="20"
        r="29"
        cx="-2250.6743"
        cy="232.47165"
        fill="none"
        transform="rotate(-90)"
        fill-opacity="1"
      />
      <circle
        gorn="0.19.0.0.0.0.0.0.0.0.0.0.0.0.0.0.0.0.0.0.0.0.0.23"
        stroke="#F7BD13"
        id="connector22pin"
        stroke-width="20"
        r="29"
        cx="-2350.6743"
        cy="132.47165"
        fill="none"
        transform="rotate(-90)"
        fill-opacity="1"
      />
      <circle
        gorn="0.19.0.0.0.0.0.0.0.0.0.0.0.0.0.0.0.0.0.0.0.0.0.58"
        stroke="#F7BD13"
        id="connector23pin"
        stroke-width="20"
        r="29"
        cx="-2350.6743"
        cy="232.47165"
        fill="none"
        transform="rotate(-90)"
        fill-opacity="1"
      />
      <circle
        gorn="0.19.0.0.0.0.0.0.0.0.0.0.0.0.0.0.0.0.0.0.0.0.0.22"
        stroke="#F7BD13"
        id="connector24pin"
        stroke-width="20"
        r="29"
        cx="-2450.6748"
        cy="132.47165"
        fill="none"
        transform="rotate(-90)"
        fill-opacity="1"
      />
      <circle
        gorn="0.19.0.0.0.0.0.0.0.0.0.0.0.0.0.0.0.0.0.0.0.0.0.57"
        stroke="#F7BD13"
        id="connector25pin"
        stroke-width="20"
        r="29"
        cx="-2450.6748"
        cy="232.47165"
        fill="none"
        transform="rotate(-90)"
        fill-opacity="1"
      />
      <circle
        gorn="0.19.0.0.0.0.0.0.0.0.0.0.0.0.0.0.0.0.0.0.0.0.0.20"
        stroke="#F7BD13"
        id="connector26pin"
        stroke-width="20"
        r="29"
        cx="-2550.675"
        cy="132.47165"
        fill="none"
        transform="rotate(-90)"
        fill-opacity="1"
      />
      <circle
        gorn="0.19.0.0.0.0.0.0.0.0.0.0.0.0.0.0.0.0.0.0.0.0.0.55"
        stroke="#F7BD13"
        id="connector27pin"
        stroke-width="20"
        r="29"
        cx="-2550.675"
        cy="232.47165"
        fill="none"
        transform="rotate(-90)"
        fill-opacity="1"
      />
      <circle
        gorn="0.19.0.0.0.0.0.0.0.0.0.0.0.0.0.0.0.0.0.0.0.0.0.21"
        stroke="#F7BD13"
        id="connector28pin"
        stroke-width="20"
        r="29"
        cx="-2650.675"
        cy="132.47165"
        fill="none"
        transform="rotate(-90)"
        fill-opacity="1"
      />
      <circle
        gorn="0.19.0.0.0.0.0.0.0.0.0.0.0.0.0.0.0.0.0.0.0.0.0.56"
        stroke="#F7BD13"
        id="connector29pin"
        stroke-width="20"
        r="29"
        cx="-2650.675"
        cy="232.47165"
        fill="none"
        transform="rotate(-90)"
        fill-opacity="1"
      />
      <circle
        gorn="0.19.0.0.0.0.0.0.0.0.0.0.0.0.0.0.0.0.0.0.0.0.0.19"
        stroke="#F7BD13"
        id="connector30pin"
        stroke-width="20"
        r="29"
        cx="-2750.675"
        cy="132.47165"
        fill="none"
        transform="rotate(-90)"
        fill-opacity="1"
      />
      <circle
        gorn="0.19.0.0.0.0.0.0.0.0.0.0.0.0.0.0.0.0.0.0.0.0.0.54"
        stroke="#F7BD13"
        id="connector31pin"
        stroke-width="20"
        r="29"
        cx="-2750.675"
        cy="232.47165"
        fill="none"
        transform="rotate(-90)"
        fill-opacity="1"
      />
      <circle
        gorn="0.19.0.0.0.0.0.0.0.0.0.0.0.0.0.0.0.0.0.0.0.0.0.18"
        stroke="#F7BD13"
        id="connector32pin"
        stroke-width="20"
        r="29"
        cx="-2850.6748"
        cy="132.47165"
        fill="none"
        transform="rotate(-90)"
        fill-opacity="1"
      />
      <circle
        gorn="0.19.0.0.0.0.0.0.0.0.0.0.0.0.0.0.0.0.0.0.0.0.0.53"
        stroke="#F7BD13"
        id="connector33pin"
        stroke-width="20"
        r="29"
        cx="-2850.6748"
        cy="232.47165"
        fill="none"
        transform="rotate(-90)"
        fill-opacity="1"
      />
      <circle
        gorn="0.19.0.0.0.0.0.0.0.0.0.0.0.0.0.0.0.0.0.0.0.0.0.17"
        stroke="#F7BD13"
        id="connector34pin"
        stroke-width="20"
        r="29"
        cx="-2950.675"
        cy="132.47165"
        fill="none"
        transform="rotate(-90)"
        fill-opacity="1"
      />
      <circle
        gorn="0.19.0.0.0.0.0.0.0.0.0.0.0.0.0.0.0.0.0.0.0.0.0.52"
        stroke="#F7BD13"
        id="connector35pin"
        stroke-width="20"
        r="29"
        cx="-2950.675"
        cy="232.47165"
        fill="none"
        transform="rotate(-90)"
        fill-opacity="1"
      />
      <circle
        gorn="0.19.0.0.0.0.0.0.0.0.0.0.0.0.0.0.0.0.0.0.0.0.0.16"
        stroke="#F7BD13"
        id="connector36pin"
        stroke-width="20"
        r="29"
        cx="-3050.675"
        cy="132.47165"
        fill="none"
        transform="rotate(-90)"
        fill-opacity="1"
      />
      <circle
        gorn="0.19.0.0.0.0.0.0.0.0.0.0.0.0.0.0.0.0.0.0.0.0.0.51"
        stroke="#F7BD13"
        id="connector37pin"
        stroke-width="20"
        r="29"
        cx="-3050.675"
        cy="232.47165"
        fill="none"
        transform="rotate(-90)"
        fill-opacity="1"
      />
      <circle
        gorn="0.19.0.0.0.0.0.0.0.0.0.0.0.0.0.0.0.0.0.0.0.0.0.15"
        stroke="#F7BD13"
        id="connector38pin"
        stroke-width="20"
        r="29"
        cx="-3150.675"
        cy="132.47165"
        fill="none"
        transform="rotate(-90)"
        fill-opacity="1"
      />
      <circle
        gorn="0.19.0.0.0.0.0.0.0.0.0.0.0.0.0.0.0.0.0.0.0.0.0.50"
        stroke="#F7BD13"
        id="connector39pin"
        stroke-width="20"
        r="29"
        cx="-3150.675"
        cy="232.47165"
        fill="none"
        transform="rotate(-90)"
        fill-opacity="1"
      />
      <circle
        gorn="0.19.0.0.0.0.0.0.0.0.0.0.0.0.0.0.0.0.0.0.0.0.0.14"
        stroke="#F7BD13"
        id="connector40pin"
        stroke-width="20"
        r="29"
        cx="-3250.6753"
        cy="132.47165"
        fill="none"
        transform="rotate(-90)"
        fill-opacity="1"
      />
      <circle
        gorn="0.19.0.0.0.0.0.0.0.0.0.0.0.0.0.0.0.0.0.0.0.0.0.49"
        stroke="#F7BD13"
        id="connector41pin"
        stroke-width="20"
        r="29"
        cx="-3250.6753"
        cy="232.47165"
        fill="none"
        transform="rotate(-90)"
        fill-opacity="1"
      />
      <circle
        gorn="0.19.0.0.0.0.0.0.0.0.0.0.0.0.0.0.0.0.0.0.0.0.0.13"
        stroke="#F7BD13"
        id="connector42pin"
        stroke-width="20"
        r="29"
        cx="-3350.6753"
        cy="132.47165"
        fill="none"
        transform="rotate(-90)"
        fill-opacity="1"
      />
      <circle
        gorn="0.19.0.0.0.0.0.0.0.0.0.0.0.0.0.0.0.0.0.0.0.0.0.48"
        stroke="#F7BD13"
        id="connector43pin"
        stroke-width="20"
        r="29"
        cx="-3350.6753"
        cy="232.47165"
        fill="none"
        transform="rotate(-90)"
        fill-opacity="1"
      />
      <circle
        gorn="0.19.0.0.0.0.0.0.0.0.0.0.0.0.0.0.0.0.0.0.0.0.0.12"
        stroke="#F7BD13"
        id="connector44pin"
        stroke-width="20"
        r="29"
        cx="-3450.6753"
        cy="132.47165"
        fill="none"
        transform="rotate(-90)"
        fill-opacity="1"
      />
      <circle
        gorn="0.19.0.0.0.0.0.0.0.0.0.0.0.0.0.0.0.0.0.0.0.0.0.47"
        stroke="#F7BD13"
        id="connector45pin"
        stroke-width="20"
        r="29"
        cx="-3450.6753"
        cy="232.47165"
        fill="none"
        transform="rotate(-90)"
        fill-opacity="1"
      />
      <circle
        gorn="0.19.0.0.0.0.0.0.0.0.0.0.0.0.0.0.0.0.0.0.0.0.0.10"
        stroke="#F7BD13"
        id="connector46pin"
        stroke-width="20"
        r="29"
        cx="-3550.6753"
        cy="132.47165"
        fill="none"
        transform="rotate(-90)"
        fill-opacity="1"
      />
      <circle
        gorn="0.19.0.0.0.0.0.0.0.0.0.0.0.0.0.0.0.0.0.0.0.0.0.45"
        stroke="#F7BD13"
        id="connector47pin"
        stroke-width="20"
        r="29"
        cx="-3550.6753"
        cy="232.47165"
        fill="none"
        transform="rotate(-90)"
        fill-opacity="1"
      />
      <circle
        gorn="0.19.0.0.0.0.0.0.0.0.0.0.0.0.0.0.0.0.0.0.0.0.0.11"
        stroke="#F7BD13"
        id="connector48pin"
        stroke-width="20"
        r="29"
        cx="-3650.6755"
        cy="132.47165"
        fill="none"
        transform="rotate(-90)"
        fill-opacity="1"
      />
      <circle
        gorn="0.19.0.0.0.0.0.0.0.0.0.0.0.0.0.0.0.0.0.0.0.0.0.46"
        stroke="#F7BD13"
        id="connector49pin"
        stroke-width="20"
        r="29"
        cx="-3650.6755"
        cy="232.47165"
        fill="none"
        transform="rotate(-90)"
        fill-opacity="1"
      />
      <circle
        gorn="0.19.0.0.0.0.0.0.0.0.0.0.0.0.0.0.0.0.0.0.0.0.0.9"
        stroke="#F7BD13"
        id="connector50pin"
        stroke-width="20"
        r="29"
        cx="-3750.6755"
        cy="132.47165"
        fill="none"
        transform="rotate(-90)"
        fill-opacity="1"
      />
      <circle
        gorn="0.19.0.0.0.0.0.0.0.0.0.0.0.0.0.0.0.0.0.0.0.0.0.44"
        stroke="#F7BD13"
        id="connector51pin"
        stroke-width="20"
        r="29"
        cx="-3750.6755"
        cy="232.47165"
        fill="none"
        transform="rotate(-90)"
        fill-opacity="1"
      />
      <circle
        gorn="0.19.0.0.0.0.0.0.0.0.0.0.0.0.0.0.0.0.0.0.0.0.0.8"
        stroke="#F7BD13"
        id="connector52pin"
        stroke-width="20"
        r="29"
        cx="-3850.6755"
        cy="132.47165"
        fill="none"
        transform="rotate(-90)"
        fill-opacity="1"
      />
      <circle
        gorn="0.19.0.0.0.0.0.0.0.0.0.0.0.0.0.0.0.0.0.0.0.0.0.43"
        stroke="#F7BD13"
        id="connector53pin"
        stroke-width="20"
        r="29"
        cx="-3850.6755"
        cy="232.47165"
        fill="none"
        transform="rotate(-90)"
        fill-opacity="1"
      />
      <circle
        gorn="0.19.0.0.0.0.0.0.0.0.0.0.0.0.0.0.0.0.0.0.0.0.0.7"
        stroke="#F7BD13"
        id="connector54pin"
        stroke-width="20"
        r="29"
        cx="-3950.6758"
        cy="132.47165"
        fill="none"
        transform="rotate(-90)"
        fill-opacity="1"
      />
      <circle
        gorn="0.19.0.0.0.0.0.0.0.0.0.0.0.0.0.0.0.0.0.0.0.0.0.42"
        stroke="#F7BD13"
        id="connector55pin"
        stroke-width="20"
        r="29"
        cx="-3950.6758"
        cy="232.47165"
        fill="none"
        transform="rotate(-90)"
        fill-opacity="1"
      />
      <circle
        gorn="0.19.0.0.0.0.0.0.0.0.0.0.0.0.0.0.0.0.0.0.0.0.0.6"
        stroke="#F7BD13"
        id="connector56pin"
        stroke-width="20"
        r="29"
        cx="-4050.6755"
        cy="132.47165"
        fill="none"
        transform="rotate(-90)"
        fill-opacity="1"
      />
      <circle
        gorn="0.19.0.0.0.0.0.0.0.0.0.0.0.0.0.0.0.0.0.0.0.0.0.41"
        stroke="#F7BD13"
        id="connector57pin"
        stroke-width="20"
        r="29"
        cx="-4050.6755"
        cy="232.47165"
        fill="none"
        transform="rotate(-90)"
        fill-opacity="1"
      />
      <circle
        gorn="0.19.0.0.0.0.0.0.0.0.0.0.0.0.0.0.0.0.0.0.0.0.0.5"
        stroke="#F7BD13"
        id="connector58pin"
        stroke-width="20"
        r="29"
        cx="-4150.6763"
        cy="132.47165"
        fill="none"
        transform="rotate(-90)"
        fill-opacity="1"
      />
      <circle
        gorn="0.19.0.0.0.0.0.0.0.0.0.0.0.0.0.0.0.0.0.0.0.0.0.40"
        stroke="#F7BD13"
        id="connector59pin"
        stroke-width="20"
        r="29"
        cx="-4150.6763"
        cy="232.47165"
        fill="none"
        transform="rotate(-90)"
        fill-opacity="1"
      />
      <circle
        gorn="0.19.0.0.0.0.0.0.0.0.0.0.0.0.0.0.0.0.0.0.0.0.0.4"
        stroke="#F7BD13"
        id="connector60pin"
        stroke-width="20"
        r="29"
        cx="-4250.6763"
        cy="132.47165"
        fill="none"
        transform="rotate(-90)"
        fill-opacity="1"
      />
      <circle
        gorn="0.19.0.0.0.0.0.0.0.0.0.0.0.0.0.0.0.0.0.0.0.0.0.39"
        stroke="#F7BD13"
        id="connector61pin"
        stroke-width="20"
        r="29"
        cx="-4250.6763"
        cy="232.47165"
        fill="none"
        transform="rotate(-90)"
        fill-opacity="1"
      />
      <circle
        gorn="0.19.0.0.0.0.0.0.0.0.0.0.0.0.0.0.0.0.0.0.0.0.0.3"
        stroke="#F7BD13"
        id="connector62pin"
        stroke-width="20"
        r="29"
        cx="-4350.6763"
        cy="132.47165"
        fill="none"
        transform="rotate(-90)"
        fill-opacity="1"
      />
      <circle
        gorn="0.19.0.0.0.0.0.0.0.0.0.0.0.0.0.0.0.0.0.0.0.0.0.38"
        stroke="#F7BD13"
        id="connector63pin"
        stroke-width="20"
        r="29"
        cx="-4350.6763"
        cy="232.47165"
        fill="none"
        transform="rotate(-90)"
        fill-opacity="1"
      />
      <circle
        gorn="0.19.0.0.0.0.0.0.0.0.0.0.0.0.0.0.0.0.0.0.0.0.0.2"
        stroke="#F7BD13"
        id="connector64pin"
        stroke-width="20"
        r="29"
        cx="-4450.6768"
        cy="132.47165"
        fill="none"
        transform="rotate(-90)"
        fill-opacity="1"
      />
      <circle
        gorn="0.19.0.0.0.0.0.0.0.0.0.0.0.0.0.0.0.0.0.0.0.0.0.37"
        stroke="#F7BD13"
        id="connector65pin"
        stroke-width="20"
        r="29"
        cx="-4450.6768"
        cy="232.47165"
        fill="none"
        transform="rotate(-90)"
        fill-opacity="1"
      />
      <circle
        gorn="0.19.0.0.0.0.0.0.0.0.0.0.0.0.0.0.0.0.0.0.0.0.0.0"
        stroke="#F7BD13"
        id="connector66pin"
        stroke-width="20"
        r="29"
        cx="-4550.6768"
        cy="132.47165"
        fill="none"
        transform="rotate(-90)"
        fill-opacity="1"
      />
      <circle
        gorn="0.19.0.0.0.0.0.0.0.0.0.0.0.0.0.0.0.0.0.0.0.0.0.35"
        stroke="#F7BD13"
        id="connector67pin"
        stroke-width="20"
        r="29"
        cx="-4550.6768"
        cy="232.47165"
        fill="none"
        transform="rotate(-90)"
        fill-opacity="1"
      />
      <circle
        gorn="0.19.0.0.0.0.0.0.0.0.0.0.0.0.0.0.0.0.0.0.0.0.0.1"
        stroke="#F7BD13"
        id="connector68pin"
        stroke-width="20"
        r="29"
        cx="-4650.6768"
        cy="132.47165"
        fill="none"
        transform="rotate(-90)"
        fill-opacity="1"
      />
      <circle
        gorn="0.19.0.0.0.0.0.0.0.0.0.0.0.0.0.0.0.0.0.0.0.0.0.36"
        stroke="#F7BD13"
        id="connector69pin"
        stroke-width="20"
        cx="-4650.6768"
        cy="232.47165"
        fill="none"
        transform="rotate(-90)"
        r="29"
        fill-opacity="1"
      />
      <circle
        gorn="0.19.0.0.0.0.0.0.0.0.0.0.0.0.0.0.0.0.0.0.0.0.0.1"
        stroke="#F7BD13"
        id="connector116pin"
        stroke-width="20"
        r="29"
        cx="-4750.9663"
        cy="132.47165"
        fill="none"
        transform="rotate(-90)"
        fill-opacity="1"
      />
      <circle
        gorn="0.19.0.0.0.0.0.0.0.0.0.0.0.0.0.0.0.0.0.0.0.0.0.36"
        stroke="#F7BD13"
        id="connector117pin"
        stroke-width="20"
        r="29"
        cx="-4750.9663"
        cy="232.47165"
        fill="none"
        transform="rotate(-90)"
        fill-opacity="1"
      />
      <circle
        gorn="0.19.0.0.0.0.0.0.0.0.0.0.1.0.0.0.0.0.0.0.0.0.0.1"
        stroke="#F7BD13"
        id="connector122pin"
        stroke-width="20"
        r="29"
        cx="-4750.9663"
        cy="2525.9431"
        fill="none"
        transform="rotate(-90)"
        fill-opacity="1"
      />
      <circle
        gorn="0.19.0.0.0.0.0.0.0.0.0.0.1.0.0.0.0.0.0.0.0.0.0.36"
        stroke="#F7BD13"
        id="connector123pin"
        stroke-width="20"
        r="29"
        cx="-4750.9663"
        cy="2625.9429"
        fill="none"
        transform="rotate(-90)"
        fill-opacity="1"
      />
      <circle
        gorn="0.19.0.0.0.0.0.0.0.0.0.0.1.0.0.0.0.0.0.0.0.0.0.1"
        stroke="#F7BD13"
        id="connector178pin"
        stroke-width="20"
        r="29"
        cx="-4650.6768"
        cy="2525.9431"
        fill="none"
        transform="rotate(-90)"
        fill-opacity="1"
      />
      <circle
        gorn="0.19.0.0.0.0.0.0.0.0.0.0.1.0.0.0.0.0.0.0.0.0.0.36"
        stroke="#F7BD13"
        id="connector179pin"
        stroke-width="20"
        r="29"
        cx="-4650.6768"
        cy="2625.9429"
        fill="none"
        transform="rotate(-90)"
        fill-opacity="1"
      />
      <circle
        gorn="0.19.0.0.0.0.0.0.0.0.0.0.1.0.0.0.0.0.0.0.0.0.0.0"
        stroke="#F7BD13"
        id="connector180pin"
        stroke-width="20"
        r="29"
        cx="-4550.6768"
        cy="2525.9431"
        fill="none"
        transform="rotate(-90)"
        fill-opacity="1"
      />
      <circle
        gorn="0.19.0.0.0.0.0.0.0.0.0.0.1.0.0.0.0.0.0.0.0.0.0.35"
        stroke="#F7BD13"
        id="connector181pin"
        stroke-width="20"
        r="29"
        cx="-4550.6768"
        cy="2625.9429"
        fill="none"
        transform="rotate(-90)"
        fill-opacity="1"
      />
      <circle
        gorn="0.19.0.0.0.0.0.0.0.0.0.0.1.0.0.0.0.0.0.0.0.0.0.2"
        stroke="#F7BD13"
        id="connector182pin"
        stroke-width="20"
        r="29"
        cx="-4450.6768"
        cy="2525.9431"
        fill="none"
        transform="rotate(-90)"
        fill-opacity="1"
      />
      <circle
        gorn="0.19.0.0.0.0.0.0.0.0.0.0.1.0.0.0.0.0.0.0.0.0.0.37"
        stroke="#F7BD13"
        id="connector183pin"
        stroke-width="20"
        r="29"
        cx="-4450.6768"
        cy="2625.9429"
        fill="none"
        transform="rotate(-90)"
        fill-opacity="1"
      />
      <circle
        gorn="0.19.0.0.0.0.0.0.0.0.0.0.1.0.0.0.0.0.0.0.0.0.0.3"
        stroke="#F7BD13"
        id="connector184pin"
        stroke-width="20"
        r="29"
        cx="-4350.6763"
        cy="2523.3364"
        fill="none"
        transform="rotate(-90)"
        fill-opacity="1"
      />
      <circle
        gorn="0.19.0.0.0.0.0.0.0.0.0.0.1.0.0.0.0.0.0.0.0.0.0.38"
        stroke="#F7BD13"
        id="connector185pin"
        stroke-width="20"
        r="29"
        cx="-4350.6763"
        cy="2625.9429"
        fill="none"
        transform="rotate(-90)"
        fill-opacity="1"
      />
      <circle
        gorn="0.19.0.0.0.0.0.0.0.0.0.0.1.0.0.0.0.0.0.0.0.0.0.4"
        stroke="#F7BD13"
        id="connector186pin"
        stroke-width="20"
        r="29"
        cx="-4248.0698"
        cy="2525.9431"
        fill="none"
        transform="rotate(-90)"
        fill-opacity="1"
      />
      <circle
        gorn="0.19.0.0.0.0.0.0.0.0.0.0.1.0.0.0.0.0.0.0.0.0.0.39"
        stroke="#F7BD13"
        id="connector187pin"
        stroke-width="20"
        r="29"
        cx="-4250.6763"
        cy="2625.9429"
        fill="none"
        transform="rotate(-90)"
        fill-opacity="1"
      />
      <circle
        gorn="0.19.0.0.0.0.0.0.0.0.0.0.1.0.0.0.0.0.0.0.0.0.0.5"
        stroke="#F7BD13"
        id="connector188pin"
        stroke-width="20"
        r="29"
        cx="-4150.6763"
        cy="2525.9431"
        fill="none"
        transform="rotate(-90)"
        fill-opacity="1"
      />
      <circle
        gorn="0.19.0.0.0.0.0.0.0.0.0.0.1.0.0.0.0.0.0.0.0.0.0.40"
        stroke="#F7BD13"
        id="connector189pin"
        stroke-width="20"
        r="29"
        cx="-4150.6763"
        cy="2625.9429"
        fill="none"
        transform="rotate(-90)"
        fill-opacity="1"
      />
      <circle
        gorn="0.19.0.0.0.0.0.0.0.0.0.0.1.0.0.0.0.0.0.0.0.0.0.6"
        stroke="#F7BD13"
        id="connector190pin"
        stroke-width="20"
        r="29"
        cx="-4050.6755"
        cy="2525.9431"
        fill="none"
        transform="rotate(-90)"
        fill-opacity="1"
      />
      <circle
        gorn="0.19.0.0.0.0.0.0.0.0.0.0.1.0.0.0.0.0.0.0.0.0.0.41"
        stroke="#F7BD13"
        id="connector191pin"
        stroke-width="20"
        r="29"
        cx="-4050.6755"
        cy="2625.9429"
        fill="none"
        transform="rotate(-90)"
        fill-opacity="1"
      />
      <circle
        gorn="0.19.0.0.0.0.0.0.0.0.0.0.1.0.0.0.0.0.0.0.0.0.0.7"
        stroke="#F7BD13"
        id="connector192pin"
        stroke-width="20"
        r="29"
        cx="-3950.6758"
        cy="2525.9431"
        fill="none"
        transform="rotate(-90)"
        fill-opacity="1"
      />
      <circle
        gorn="0.19.0.0.0.0.0.0.0.0.0.0.1.0.0.0.0.0.0.0.0.0.0.42"
        stroke="#F7BD13"
        id="connector193pin"
        stroke-width="20"
        r="29"
        cx="-3950.6758"
        cy="2625.9429"
        fill="none"
        transform="rotate(-90)"
        fill-opacity="1"
      />
      <circle
        gorn="0.19.0.0.0.0.0.0.0.0.0.0.1.0.0.0.0.0.0.0.0.0.0.8"
        stroke="#F7BD13"
        id="connector194pin"
        stroke-width="20"
        r="29"
        cx="-3850.6755"
        cy="2525.9431"
        fill="none"
        transform="rotate(-90)"
        fill-opacity="1"
      />
      <circle
        gorn="0.19.0.0.0.0.0.0.0.0.0.0.1.0.0.0.0.0.0.0.0.0.0.43"
        stroke="#F7BD13"
        id="connector195pin"
        stroke-width="20"
        r="29"
        cx="-3850.6755"
        cy="2625.9429"
        fill="none"
        transform="rotate(-90)"
        fill-opacity="1"
      />
      <circle
        gorn="0.19.0.0.0.0.0.0.0.0.0.0.1.0.0.0.0.0.0.0.0.0.0.9"
        stroke="#F7BD13"
        id="connector196pin"
        stroke-width="20"
        r="29"
        cx="-3750.6755"
        cy="2525.9431"
        fill="none"
        transform="rotate(-90)"
        fill-opacity="1"
      />
      <circle
        gorn="0.19.0.0.0.0.0.0.0.0.0.0.1.0.0.0.0.0.0.0.0.0.0.44"
        stroke="#F7BD13"
        id="connector197pin"
        stroke-width="20"
        r="29"
        cx="-3750.6755"
        cy="2625.9429"
        fill="none"
        transform="rotate(-90)"
        fill-opacity="1"
      />
      <circle
        gorn="0.19.0.0.0.0.0.0.0.0.0.0.1.0.0.0.0.0.0.0.0.0.0.11"
        stroke="#F7BD13"
        id="connector198pin"
        stroke-width="20"
        r="29"
        cx="-3650.6755"
        cy="2525.9431"
        fill="none"
        transform="rotate(-90)"
        fill-opacity="1"
      />
      <circle
        gorn="0.19.0.0.0.0.0.0.0.0.0.0.1.0.0.0.0.0.0.0.0.0.0.46"
        stroke="#F7BD13"
        id="connector199pin"
        stroke-width="20"
        r="29"
        cx="-3650.6755"
        cy="2625.9429"
        fill="none"
        transform="rotate(-90)"
        fill-opacity="1"
      />
      <circle
        gorn="0.19.0.0.0.0.0.0.0.0.0.0.1.0.0.0.0.0.0.0.0.0.0.10"
        stroke="#F7BD13"
        id="connector200pin"
        stroke-width="20"
        r="29"
        cx="-3550.6753"
        cy="2525.9431"
        fill="none"
        transform="rotate(-90)"
        fill-opacity="1"
      />
      <circle
        gorn="0.19.0.0.0.0.0.0.0.0.0.0.1.0.0.0.0.0.0.0.0.0.0.45"
        stroke="#F7BD13"
        id="connector201pin"
        stroke-width="20"
        r="29"
        cx="-3550.6753"
        cy="2625.9429"
        fill="none"
        transform="rotate(-90)"
        fill-opacity="1"
      />
      <circle
        gorn="0.19.0.0.0.0.0.0.0.0.0.0.1.0.0.0.0.0.0.0.0.0.0.12"
        stroke="#F7BD13"
        id="connector202pin"
        stroke-width="20"
        r="29"
        cx="-3450.6753"
        cy="2525.9431"
        fill="none"
        transform="rotate(-90)"
        fill-opacity="1"
      />
      <circle
        gorn="0.19.0.0.0.0.0.0.0.0.0.0.1.0.0.0.0.0.0.0.0.0.0.47"
        stroke="#F7BD13"
        id="connector203pin"
        stroke-width="20"
        r="29"
        cx="-3450.6753"
        cy="2625.9429"
        fill="none"
        transform="rotate(-90)"
        fill-opacity="1"
      />
      <circle
        gorn="0.19.0.0.0.0.0.0.0.0.0.0.1.0.0.0.0.0.0.0.0.0.0.13"
        stroke="#F7BD13"
        id="connector204pin"
        stroke-width="20"
        r="29"
        cx="-3350.6753"
        cy="2525.9431"
        fill="none"
        transform="rotate(-90)"
        fill-opacity="1"
      />
      <circle
        gorn="0.19.0.0.0.0.0.0.0.0.0.0.1.0.0.0.0.0.0.0.0.0.0.48"
        stroke="#F7BD13"
        id="connector205pin"
        stroke-width="20"
        r="29"
        cx="-3350.6753"
        cy="2625.9429"
        fill="none"
        transform="rotate(-90)"
        fill-opacity="1"
      />
      <circle
        gorn="0.19.0.0.0.0.0.0.0.0.0.0.1.0.0.0.0.0.0.0.0.0.0.14"
        stroke="#F7BD13"
        id="connector206pin"
        stroke-width="20"
        r="29"
        cx="-3250.6753"
        cy="2525.9431"
        fill="none"
        transform="rotate(-90)"
        fill-opacity="1"
      />
      <circle
        gorn="0.19.0.0.0.0.0.0.0.0.0.0.1.0.0.0.0.0.0.0.0.0.0.49"
        stroke="#F7BD13"
        id="connector207pin"
        stroke-width="20"
        r="29"
        cx="-3250.6753"
        cy="2625.9429"
        fill="none"
        transform="rotate(-90)"
        fill-opacity="1"
      />
      <circle
        gorn="0.19.0.0.0.0.0.0.0.0.0.0.1.0.0.0.0.0.0.0.0.0.0.15"
        stroke="#F7BD13"
        id="connector208pin"
        stroke-width="20"
        r="29"
        cx="-3150.675"
        cy="2525.9431"
        fill="none"
        transform="rotate(-90)"
        fill-opacity="1"
      />
      <circle
        gorn="0.19.0.0.0.0.0.0.0.0.0.0.1.0.0.0.0.0.0.0.0.0.0.50"
        stroke="#F7BD13"
        id="connector209pin"
        stroke-width="20"
        r="29"
        cx="-3150.675"
        cy="2625.9429"
        fill="none"
        transform="rotate(-90)"
        fill-opacity="1"
      />
      <circle
        gorn="0.19.0.0.0.0.0.0.0.0.0.0.1.0.0.0.0.0.0.0.0.0.0.16"
        stroke="#F7BD13"
        id="connector210pin"
        stroke-width="20"
        r="29"
        cx="-3050.675"
        cy="2525.9431"
        fill="none"
        transform="rotate(-90)"
        fill-opacity="1"
      />
      <circle
        gorn="0.19.0.0.0.0.0.0.0.0.0.0.1.0.0.0.0.0.0.0.0.0.0.51"
        stroke="#F7BD13"
        id="connector211pin"
        stroke-width="20"
        r="29"
        cx="-3050.675"
        cy="2625.9429"
        fill="none"
        transform="rotate(-90)"
        fill-opacity="1"
      />
      <circle
        gorn="0.19.0.0.0.0.0.0.0.0.0.0.1.0.0.0.0.0.0.0.0.0.0.17"
        stroke="#F7BD13"
        id="connector212pin"
        stroke-width="20"
        r="29"
        cx="-2950.675"
        cy="2525.9431"
        fill="none"
        transform="rotate(-90)"
        fill-opacity="1"
      />
      <circle
        gorn="0.19.0.0.0.0.0.0.0.0.0.0.1.0.0.0.0.0.0.0.0.0.0.52"
        stroke="#F7BD13"
        id="connector213pin"
        stroke-width="20"
        r="29"
        cx="-2950.675"
        cy="2625.9429"
        fill="none"
        transform="rotate(-90)"
        fill-opacity="1"
      />
      <circle
        gorn="0.19.0.0.0.0.0.0.0.0.0.0.1.0.0.0.0.0.0.0.0.0.0.18"
        stroke="#F7BD13"
        id="connector214pin"
        stroke-width="20"
        r="29"
        cx="-2850.6748"
        cy="2525.9431"
        fill="none"
        transform="rotate(-90)"
        fill-opacity="1"
      />
      <circle
        gorn="0.19.0.0.0.0.0.0.0.0.0.0.1.0.0.0.0.0.0.0.0.0.0.53"
        stroke="#F7BD13"
        id="connector215pin"
        stroke-width="20"
        r="29"
        cx="-2850.6748"
        cy="2625.9429"
        fill="none"
        transform="rotate(-90)"
        fill-opacity="1"
      />
      <circle
        gorn="0.19.0.0.0.0.0.0.0.0.0.0.1.0.0.0.0.0.0.0.0.0.0.19"
        stroke="#F7BD13"
        id="connector216pin"
        stroke-width="20"
        r="29"
        cx="-2750.675"
        cy="2525.9431"
        fill="none"
        transform="rotate(-90)"
        fill-opacity="1"
      />
      <circle
        gorn="0.19.0.0.0.0.0.0.0.0.0.0.1.0.0.0.0.0.0.0.0.0.0.54"
        stroke="#F7BD13"
        id="connector217pin"
        stroke-width="20"
        r="29"
        cx="-2750.675"
        cy="2625.9429"
        fill="none"
        transform="rotate(-90)"
        fill-opacity="1"
      />
      <circle
        gorn="0.19.0.0.0.0.0.0.0.0.0.0.1.0.0.0.0.0.0.0.0.0.0.21"
        stroke="#F7BD13"
        id="connector218pin"
        stroke-width="20"
        r="29"
        cx="-2650.675"
        cy="2525.9431"
        fill="none"
        transform="rotate(-90)"
        fill-opacity="1"
      />
      <circle
        gorn="0.19.0.0.0.0.0.0.0.0.0.0.1.0.0.0.0.0.0.0.0.0.0.56"
        stroke="#F7BD13"
        id="connector219pin"
        stroke-width="20"
        r="29"
        cx="-2650.675"
        cy="2625.9429"
        fill="none"
        transform="rotate(-90)"
        fill-opacity="1"
      />
      <circle
        gorn="0.19.0.0.0.0.0.0.0.0.0.0.1.0.0.0.0.0.0.0.0.0.0.20"
        stroke="#F7BD13"
        id="connector220pin"
        stroke-width="20"
        r="29"
        cx="-2550.675"
        cy="2525.9431"
        fill="none"
        transform="rotate(-90)"
        fill-opacity="1"
      />
      <circle
        gorn="0.19.0.0.0.0.0.0.0.0.0.0.1.0.0.0.0.0.0.0.0.0.0.55"
        stroke="#F7BD13"
        id="connector221pin"
        stroke-width="20"
        r="29"
        cx="-2550.675"
        cy="2625.9429"
        fill="none"
        transform="rotate(-90)"
        fill-opacity="1"
      />
      <circle
        gorn="0.19.0.0.0.0.0.0.0.0.0.0.1.0.0.0.0.0.0.0.0.0.0.22"
        stroke="#F7BD13"
        id="connector222pin"
        stroke-width="20"
        r="29"
        cx="-2450.6748"
        cy="2525.9431"
        fill="none"
        transform="rotate(-90)"
        fill-opacity="1"
      />
      <circle
        gorn="0.19.0.0.0.0.0.0.0.0.0.0.1.0.0.0.0.0.0.0.0.0.0.57"
        stroke="#F7BD13"
        id="connector223pin"
        stroke-width="20"
        r="29"
        cx="-2450.6748"
        cy="2625.9429"
        fill="none"
        transform="rotate(-90)"
        fill-opacity="1"
      />
      <circle
        gorn="0.19.0.0.0.0.0.0.0.0.0.0.1.0.0.0.0.0.0.0.0.0.0.23"
        stroke="#F7BD13"
        id="connector224pin"
        stroke-width="20"
        r="29"
        cx="-2350.6743"
        cy="2525.9431"
        fill="none"
        transform="rotate(-90)"
        fill-opacity="1"
      />
      <circle
        gorn="0.19.0.0.0.0.0.0.0.0.0.0.1.0.0.0.0.0.0.0.0.0.0.58"
        stroke="#F7BD13"
        id="connector225pin"
        stroke-width="20"
        r="29"
        cx="-2350.6743"
        cy="2625.9429"
        fill="none"
        transform="rotate(-90)"
        fill-opacity="1"
      />
      <circle
        gorn="0.19.0.0.0.0.0.0.0.0.0.0.1.0.0.0.0.0.0.0.0.0.0.24"
        stroke="#F7BD13"
        id="connector226pin"
        stroke-width="20"
        r="29"
        cx="-2250.6743"
        cy="2525.9431"
        fill="none"
        transform="rotate(-90)"
        fill-opacity="1"
      />
      <circle
        gorn="0.19.0.0.0.0.0.0.0.0.0.0.1.0.0.0.0.0.0.0.0.0.0.59"
        stroke="#F7BD13"
        id="connector227pin"
        stroke-width="20"
        r="29"
        cx="-2250.6743"
        cy="2625.9429"
        fill="none"
        transform="rotate(-90)"
        fill-opacity="1"
      />
      <circle
        gorn="0.19.0.0.0.0.0.0.0.0.0.0.1.0.0.0.0.0.0.0.0.0.0.25"
        stroke="#F7BD13"
        id="connector228pin"
        stroke-width="20"
        r="29"
        cx="-2150.6741"
        cy="2525.9431"
        fill="none"
        transform="rotate(-90)"
        fill-opacity="1"
      />
      <circle
        gorn="0.19.0.0.0.0.0.0.0.0.0.0.1.0.0.0.0.0.0.0.0.0.0.60"
        stroke="#F7BD13"
        id="connector229pin"
        stroke-width="20"
        r="29"
        cx="-2150.6741"
        cy="2625.9429"
        fill="none"
        transform="rotate(-90)"
        fill-opacity="1"
      />
      <circle
        gorn="0.19.0.0.0.0.0.0.0.0.0.0.1.0.0.0.0.0.0.0.0.0.0.26"
        stroke="#F7BD13"
        id="connector230pin"
        stroke-width="20"
        r="29"
        cx="-2050.6741"
        cy="2525.9431"
        fill="none"
        transform="rotate(-90)"
        fill-opacity="1"
      />
      <circle
        gorn="0.19.0.0.0.0.0.0.0.0.0.0.1.0.0.0.0.0.0.0.0.0.0.61"
        stroke="#F7BD13"
        id="connector231pin"
        stroke-width="20"
        r="29"
        cx="-2050.6741"
        cy="2625.9429"
        fill="none"
        transform="rotate(-90)"
        fill-opacity="1"
      />
      <circle
        gorn="0.19.0.0.0.0.0.0.0.0.0.0.1.0.0.0.0.0.0.0.0.0.0.27"
        stroke="#F7BD13"
        id="connector232pin"
        stroke-width="20"
        r="29"
        cx="-1950.6741"
        cy="2525.9431"
        fill="none"
        transform="rotate(-90)"
        fill-opacity="1"
      />
      <circle
        gorn="0.19.0.0.0.0.0.0.0.0.0.0.1.0.0.0.0.0.0.0.0.0.0.62"
        stroke="#F7BD13"
        id="connector233pin"
        stroke-width="20"
        r="29"
        cx="-1950.6741"
        cy="2625.9429"
        fill="none"
        transform="rotate(-90)"
        fill-opacity="1"
      />
      <circle
        gorn="0.19.0.0.0.0.0.0.0.0.0.0.1.0.0.0.0.0.0.0.0.0.0.28"
        stroke="#F7BD13"
        id="connector234pin"
        stroke-width="20"
        r="29"
        cx="-1850.6738"
        cy="2525.9431"
        fill="none"
        transform="rotate(-90)"
        fill-opacity="1"
      />
      <circle
        gorn="0.19.0.0.0.0.0.0.0.0.0.0.1.0.0.0.0.0.0.0.0.0.0.63"
        stroke="#F7BD13"
        id="connector235pin"
        stroke-width="20"
        r="29"
        cx="-1850.6738"
        cy="2625.9429"
        fill="none"
        transform="rotate(-90)"
        fill-opacity="1"
      />
      <circle
        gorn="0.19.0.0.0.0.0.0.0.0.0.0.1.0.0.0.0.0.0.0.0.0.0.29"
        stroke="#F7BD13"
        id="connector236pin"
        stroke-width="20"
        r="29"
        cx="-1750.6738"
        cy="2525.9431"
        fill="none"
        transform="rotate(-90)"
        fill-opacity="1"
      />
      <circle
        gorn="0.19.0.0.0.0.0.0.0.0.0.0.1.0.0.0.0.0.0.0.0.0.0.64"
        stroke="#F7BD13"
        id="connector237pin"
        stroke-width="20"
        r="29"
        cx="-1750.6738"
        cy="2625.9429"
        fill="none"
        transform="rotate(-90)"
        fill-opacity="1"
      />
      <circle
        gorn="0.19.0.0.0.0.0.0.0.0.0.0.1.0.0.0.0.0.0.0.0.0.0.31"
        stroke="#F7BD13"
        id="connector238pin"
        stroke-width="20"
        r="29"
        cx="-1650.6738"
        cy="2525.9431"
        fill="none"
        transform="rotate(-90)"
        fill-opacity="1"
      />
      <circle
        gorn="0.19.0.0.0.0.0.0.0.0.0.0.1.0.0.0.0.0.0.0.0.0.0.66"
        stroke="#F7BD13"
        id="connector239pin"
        stroke-width="20"
        r="29"
        cx="-1650.6738"
        cy="2625.9429"
        fill="none"
        transform="rotate(-90)"
        fill-opacity="1"
      />
      <circle
        gorn="0.19.0.0.0.0.0.0.0.0.0.0.1.0.0.0.0.0.0.0.0.0.0.30"
        stroke="#F7BD13"
        id="connector240pin"
        stroke-width="20"
        r="29"
        cx="-1550.6736"
        cy="2525.9431"
        fill="none"
        transform="rotate(-90)"
        fill-opacity="1"
      />
      <circle
        gorn="0.19.0.0.0.0.0.0.0.0.0.0.1.0.0.0.0.0.0.0.0.0.0.65"
        stroke="#F7BD13"
        id="connector241pin"
        stroke-width="20"
        r="29"
        cx="-1550.6736"
        cy="2625.9429"
        fill="none"
        transform="rotate(-90)"
        fill-opacity="1"
      />
      <circle
        gorn="0.19.0.0.0.0.0.0.0.0.0.0.1.0.0.0.0.0.0.0.0.0.0.32"
        stroke="#F7BD13"
        id="connector242pin"
        stroke-width="20"
        r="29"
        cx="-1450.6736"
        cy="2525.9431"
        fill="none"
        transform="rotate(-90)"
        fill-opacity="1"
      />
      <circle
        gorn="0.19.0.0.0.0.0.0.0.0.0.0.1.0.0.0.0.0.0.0.0.0.0.67"
        stroke="#F7BD13"
        id="connector243pin"
        stroke-width="20"
        r="29"
        cx="-1450.6736"
        cy="2625.9429"
        fill="none"
        transform="rotate(-90)"
        fill-opacity="1"
      />
      <circle
        gorn="0.19.0.0.0.0.0.0.0.0.0.0.1.0.0.0.0.0.0.0.0.0.0.33"
        stroke="#F7BD13"
        id="connector244pin"
        stroke-width="20"
        r="29"
        cx="-1350.6733"
        cy="2525.9431"
        fill="none"
        transform="rotate(-90)"
        fill-opacity="1"
      />
      <circle
        gorn="0.19.0.0.0.0.0.0.0.0.0.0.1.0.0.0.0.0.0.0.0.0.0.68"
        stroke="#F7BD13"
        id="connector245pin"
        stroke-width="20"
        r="29"
        cx="-1350.6733"
        cy="2625.9429"
        fill="none"
        transform="rotate(-90)"
        fill-opacity="1"
      />
      <circle
        gorn="0.19.0.0.0.0.0.0.0.0.0.0.1.0.0.0.0.0.0.0.0.0.0.34"
        stroke="#F7BD13"
        id="connector246pin"
        stroke-width="20"
        r="29"
        cx="-1250.6733"
        cy="2525.9431"
        fill="none"
        transform="rotate(-90)"
        fill-opacity="1"
      />
      <circle
        gorn="0.19.0.0.0.0.0.0.0.0.0.0.1.0.0.0.0.0.0.0.0.0.0.69"
        stroke="#F7BD13"
        id="connector247pin"
        stroke-width="20"
        r="29"
        cx="-1250.6733"
        cy="2625.9429"
        fill="none"
        transform="rotate(-90)"
        fill-opacity="1"
      />
    </g>
  </g>
</svg>
