<?xml version='1.0' encoding='UTF-8' standalone='no'?>
<!-- Created with Inkscape (http://www.inkscape.org/) -->
<svg xmlns="http://www.w3.org/2000/svg" viewBox="0 0 10.16 10.16" id="svg5" height="0.40000001in" gorn="0" width="0.40000001in"  version="1.1">
    <desc >
        <referenceFile >if tx_bread.svg</referenceFile>
    </desc>
    <defs id="defs2" />
    <g id="layer1" gorn="0.2" >
        <rect x="-4.7460244e-07" stroke-width="0.27326" style="opacity:0.6;fill-rule:evenodd;" id="rect1516" height="10.403839" ry="1.3871781" fill="#000000" rx="1.3004794" gorn="0.2.0" width="10.403839"  y="1.4028042e-06"/>
        <path stroke-width="0.0516342" style="opacity:1;fill-rule:evenodd;" id="path864" fill="#8c8c8c" d="M 1.61991,1.95072 V 1.6409147 H 1.9297151 2.2395205 V 1.95072 2.2605251 H 1.9297151 1.61991 Z" fill-opacity="1" gorn="0.2.1" />
        <path stroke-width="0.0516342" style="opacity:1;fill-rule:evenodd;" id="path1085" fill="#f2f2f2" d="M 4.8711099,1.9717246 V 1.6619193 H 5.180915 5.4907204 V 1.9717246 2.2815297 H 5.180915 4.8711099 Z" gorn="0.2.2" />
        <path stroke-width="0.0516342" style="opacity:1;fill-rule:evenodd;" id="path1087" fill="#f2f2f2" d="M 8.1433145,1.9200904 V 1.6102851 H 8.4531196 8.762925 V 1.9200904 2.2298955 H 8.4531196 8.1433145 Z" gorn="0.2.3" />
        <path stroke-width="0.0516342" style="opacity:1;fill-rule:evenodd;" id="path1089" fill="#f2f2f2" d="M 1.7135535,8.5047539 V 8.1949486 H 2.0233586 2.333164 V 8.5047539 8.8145593 H 2.0233586 1.7135535 Z" gorn="0.2.4" />
        <path stroke-width="0.0516342" style="opacity:1;fill-rule:evenodd;" id="path1091" fill="#f2f2f2" d="M 8.1223097,8.504754 V 8.1949487 H 8.4321148 8.7419202 V 8.504754 8.8145591 H 8.4321148 8.1223097 Z" gorn="0.2.5" />
        <circle stroke-width="0.264583" r="1.6256" style="opacity:1;fill-rule:evenodd;" id="path1705" fill="#1a1a1a" cy="5.186605" cx="5.2172346" gorn="0.2.6" />
        <rect x="4.5516796" stroke-width="0.264583" style="opacity:0.6;fill-rule:evenodd;" id="rect1853" height="0.65024" fill="#808080" gorn="0.2.7" width="1.30048"  y="4.9131198"/>
        <g  transform="scale(0.26458332)">
            <g >
                <path stroke-width="0.195153" style="opacity:0.6;fill-rule:evenodd;" id="path3597" fill="#8c8c8c" d="M 18.441952,7.4158116 V 6.3424704 h 1.073342 1.073341 v 1.0733412 1.0733411 h -1.073341 -1.073342 z" fill-opacity="1" gorn="0.2.8.0.0" />
            </g>
        </g>
        <g  transform="scale(0.26458332)">
            <g >
                <path stroke-width="0.195153" style="opacity:0.6;fill-rule:evenodd;" id="path3636" fill="#8c8c8c" d="M 30.93174,7.2206586 V 6.1473175 h 1.073341 1.073342 V 7.2206586 8.2939998 H 32.005081 30.93174 Z" fill-opacity="1" gorn="0.2.9.0.0" />
            </g>
        </g>
        <g  transform="scale(0.26458332)">
            <g >
                <path stroke-width="0.195153" style="opacity:0.6;fill-rule:evenodd;" id="path3675" fill="#8c8c8c" d="m 30.736587,32.200234 v -1.073341 h 1.073342 1.073341 v 1.073341 1.073342 h -1.073341 -1.073342 z" fill-opacity="1" gorn="0.2.10.0.0" />
            </g>
        </g>
        <g  transform="scale(0.26458332)">
            <g >
                <path stroke-width="0.195153" style="opacity:1;fill-rule:evenodd;" id="path3714" fill="#8c8c8c" d="m 6.5376233,32.200234 v -1.073341 h 1.0733412 1.0733411 v 1.073341 1.073342 H 7.6109645 6.5376233 Z" fill-opacity="1" gorn="0.2.11.0.0" />
            </g>
        </g>
        <g  transform="scale(0.26458332)">
            <g >
                <path stroke-width="0.195153" style="opacity:1;fill-rule:evenodd;" id="path3790" fill="#8c8c8c" d="M 6.1473175,7.4158116 V 6.3424704 H 7.2206586 8.2939998 V 7.4158116 8.4891527 H 7.2206586 6.1473175 Z" fill-opacity="1" gorn="0.2.12.0.0" />
            </g>
        </g>
        <g  transform="scale(0.26458332)">
            <g >
                <path stroke-width="0.195153" style="opacity:1;fill-rule:evenodd;" id="path3829" fill="#8c8c8c" d="M 18.441952,7.4158116 V 6.3424704 h 1.073342 1.073341 v 1.0733412 1.0733411 h -1.073341 -1.073342 z" fill-opacity="1" gorn="0.2.13.0.0" />
            </g>
        </g>
        <g  transform="scale(0.26458332)">
            <g >
                <path stroke-width="0.195153" style="opacity:1;fill-rule:evenodd;" id="path3868" fill="#8c8c8c" d="M 30.93174,7.2206586 V 6.1473175 h 1.073341 1.073342 V 7.2206586 8.2939998 H 32.005081 30.93174 Z" fill-opacity="1" gorn="0.2.14.0.0" />
            </g>
        </g>
        <g  transform="scale(0.26458332)">
            <g >
                <path stroke-width="0.195153" style="opacity:1;fill-rule:evenodd;" id="path3907" fill="#8c8c8c" d="m 30.736587,32.200234 v -1.073341 h 1.073342 1.073341 v 1.073341 1.073342 h -1.073341 -1.073342 z" fill-opacity="1" gorn="0.2.15.0.0" />
            </g>
        </g>
        <g  transform="scale(0.26458332)">
            <g >
                <path stroke-width="0.195153" style="opacity:1;fill-rule:evenodd;" id="path3946" fill="#8c8c8c" d="m 6.5376233,32.200234 v -1.073341 h 1.0733412 1.0733411 v 1.073341 1.073342 H 7.6109645 6.5376233 Z" fill-opacity="1" gorn="0.2.16.0.0" />
            </g>
        </g>
    </g>
</svg>
