<?xml version='1.0' encoding='UTF-8' standalone='no'?>
<svg
  xmlns:dc="http://purl.org/dc/elements/1.1/"
  xmlns:cc="http://creativecommons.org/ns#"
  xmlns:rdf="http://www.w3.org/1999/02/22-rdf-syntax-ns#"
  xmlns:svg="http://www.w3.org/2000/svg"
  xmlns="http://www.w3.org/2000/svg"
  id="svg2"
  y="0in"
  version="1.2"
  height="0.59212601in"
  width="0.87062997in"
  x="0in"
  viewBox="0 0 870.62992 592.12598">
  <metadata
    id="metadata24">
    <rdf:RDF>
      <cc:Work
        rdf:about="">
        <dc:format>image/svg+xml</dc:format>
        <dc:type
          rdf:resource="http://purl.org/dc/dcmitype/StillImage"
        />
        <dc:title/>
      </cc:Work>
    </rdf:RDF>
  </metadata>
  <defs
    id="defs22"
  />
  <desc
    id="desc4">
    <referenceFile>mics-4515_1_breadboard.svg</referenceFile>
  </desc>
  <g
    id="breadboard">
    <rect
      y="-870.62988"
      height="870.62988"
      width="592.12598"
      x="0"
      gorn="0.1.0"
      id="upper"
      stroke-width="0"
      fill="#800080"
      transform="rotate(90)"
    />
    <circle
      id="path4155"
      cx="774.73828"
      cy="491.1322"
      r="60"
      fill-opacity="1"
      fill="#ffffff"
    />
    <text
      fill="#ffffff"
      font-family="OCRA"
      x="108.53687"
      y="223.20398"
      font-size="70"
      id="text3683">GND</text>
    <text
      fill="#ffffff"
      font-family="OCRA"
      id="text3685"
      font-size="70"
      y="122.18372"
      x="107.60474">VCC</text>
    <text
      fill="#ffffff"
      font-family="OCRA"
      id="text3687"
      font-size="70"
      y="324.18542"
      x="106.70142">RED</text>
    <circle
      id="circle1193"
      cx="777.5061"
      cy="92.496094"
      r="60"
      fill-opacity="1"
      fill="#ffffff"
    />
    <text
      fill="#ffffff"
      font-family="OCRA"
      id="text1195"
      font-size="70"
      y="424.22522"
      x="106.70142">NOX</text>
    <text
      fill="#ffffff"
      font-family="OCRA"
      id="text1197"
      font-size="70"
      y="524.22522"
      x="106.70142">PRE</text>
    <rect
      height="33.485073"
      width="73.130348"
      x="468.98621"
      id="rect1263"
      y="-390.52075"
      fill="#4d4d4d"
      transform="rotate(90)"
      stroke-width="1.06944"
    />
    <rect
      height="0.57452971"
      width="73.130348"
      enable-background="new    "
      x="468.98621"
      id="rect1265"
      y="-390.52075"
      fill="#ffffff"
      opacity="0.2"
      transform="rotate(90)"
      stroke-width="1.06944"
    />
    <rect
      height="9.97931"
      width="73.130348"
      y="-365.1665"
      x="468.98621"
      id="rect1267"
      fill="#333333"
      transform="rotate(90)"
      stroke-width="1.06944"
    />
    <rect
      height="0.39967236"
      width="73.130348"
      y="-355.52417"
      enable-background="new    "
      x="468.98621"
      id="rect1269"
      opacity="0.2"
      transform="rotate(90)"
      stroke-width="1.06944"
    />
    <path
      d="m 390.52068,531.49482 v 0 0 -0.8538 0 c -3.1349,-0.7344 -9.9419,-1.2393 -13.4265,-1.2393 -3.6346,0 -8.6555,0.4407 -11.9278,1.2393 v 0 0 l 10e-5,11.2275 h 25.3542 z"
      id="path1271"
      fill="#dcdcdc"
      stroke-width="1.06944"
    />
    <path
      d="m 389.22168,480.41572 h 1.299 v -11.2184 h -25.3542 v 11.2274 c 3.2847,0.8079 8.2307,1.7719 11.9152,1.7719 4.3215,0 8.3806,-0.6885 12.14,-1.7809 z"
      id="path1273"
      fill="#dcdcdc"
      stroke-width="1.06944"
    />
    <path
      d="m 363.84248,541.93272 v -11.2274 l 1.324,-0.064 v 11.2275 z"
      id="path1275"
      fill="#999999"
      stroke-width="1.06944"
    />
    <path
      d="m 363.81758,469.25242 v 11.2274 l 1.3489,-0.064 v -11.2183 l -1.3489,0.055 z"
      id="path1277"
      fill="#999999"
      stroke-width="1.06944"
    />
    <rect
      height="0.57452971"
      width="11.227499"
      y="-355.69922"
      enable-background="new    "
      x="469.19739"
      id="rect1279"
      opacity="0.15"
      transform="rotate(90)"
      stroke-width="1.06944"
    />
    <rect
      height="0.57452971"
      width="11.227499"
      enable-background="new    "
      x="469.19739"
      id="rect1281"
      y="-390.52075"
      fill="#ffffff"
      opacity="0.5"
      transform="rotate(90)"
      stroke-width="1.06944"
    />
    <rect
      height="0.57452971"
      width="11.236687"
      y="-355.69922"
      enable-background="new    "
      x="530.65027"
      id="rect1283"
      opacity="0.15"
      transform="rotate(90)"
      stroke-width="1.06944"
    />
    <rect
      height="0.57452971"
      width="11.236687"
      enable-background="new    "
      x="530.65027"
      id="rect1285"
      y="-390.52075"
      fill="#ffffff"
      opacity="0.5"
      transform="rotate(90)"
      stroke-width="1.06944"
    />
    <line
      x1="355.12476"
      y2="475.98157"
      y1="475.98157"
      x2="355.12476"
      id="line1287"
      fill="none"
      stroke-width="1.06944"
    />
    <rect
      height="8.6429224"
      width="1.0832762"
      y="-363.84253"
      x="541.0238"
      id="rect1289"
      fill="#999999"
      transform="rotate(90)"
      stroke-width="1.06944"
    />
    <rect
      height="8.6429224"
      width="1.0924572"
      y="-363.84253"
      x="469.19739"
      id="rect1291"
      fill="#999999"
      transform="rotate(90)"
      stroke-width="1.06944"
    />
    <rect
      id="rect1996"
      width="41.515148"
      height="20.757576"
      x="-425.68835"
      y="491.41724"
      fill="#808080"
      stroke="none"
      stroke-width="0"
      transform="rotate(-90)"
    />
    <rect
      id="rect1998"
      width="41.515148"
      height="20.757576"
      x="-425.68835"
      y="538.66138"
      fill="#808080"
      stroke="none"
      stroke-width="0"
      transform="rotate(-90)"
    />
    <rect
      id="rect1994"
      width="41.515148"
      height="20.757576"
      x="-425.68835"
      y="440.24536"
      fill="#808080"
      stroke="none"
      stroke-width="0"
      transform="rotate(-90)"
    />
    <rect
      id="rect1992"
      width="41.515148"
      height="20.757576"
      x="-197.34265"
      y="538.66138"
      fill="#808080"
      stroke="none"
      stroke-width="0"
      transform="rotate(-90)"
    />
    <rect
      id="rect1990"
      width="41.515148"
      height="20.757576"
      x="-197.34265"
      y="491.41724"
      fill="#808080"
      stroke="none"
      stroke-width="0"
      transform="rotate(-90)"
    />
    <rect
      id="rect1988"
      width="41.515148"
      height="20.757576"
      x="-197.34265"
      y="440.24536"
      fill="#808080"
      stroke="none"
      stroke-width="0"
      transform="rotate(-90)"
    />
    <path
      id="rect1327"
      d="m 375.14538,203.87382 c 4.7802,-3.4041 6.9979,-5.4778 18.6819,-6.2273 l 219.0498,0.6723 c 6.7267,0.3431 11.4955,1.9098 14.5323,4.5591 5.8921,3.4117 5.5157,7.7319 5.5353,12.8005 v 143.2273 c 0.8307,6.8457 -0.3709,12.0656 -4.1515,15.2222 -4.2334,4.7154 -9.6191,7.5103 -16.6184,7.6158 h -222.0937 c -8.7987,-0.1579 -13.5967,-1.6302 -17.298,-5.54 -3.8263,-3.897 -4.962,-8.5272 -5.5354,-16.6061 v -138.6704 c 0.581,-9.2039 3.5483,-12.8413 7.8977,-17.0534 z"
      fill="#b3b3b3"
      stroke="#666666"
      stroke-width="10.4167"
    />
    <circle
      id="path1330"
      cx="399.76782"
      cy="255.46375"
      r="10"
      fill="#333333"
      stroke="none"
      stroke-width="0"
    />
    <circle
      id="ellipse1332"
      cx="399.77002"
      cy="287.94592"
      r="10"
      fill="#333333"
      stroke="none"
      stroke-width="0"
    />
    <circle
      id="circle1334"
      cx="399.77002"
      cy="322.54187"
      r="10"
      fill="#333333"
      stroke="none"
      stroke-width="0"
    />
    <circle
      id="circle1336"
      cx="440.95093"
      cy="322.19592"
      r="10"
      fill="#333333"
      stroke="none"
      stroke-width="0"
    />
    <circle
      id="circle1338"
      cx="440.95093"
      cy="287.94592"
      r="10"
      fill="#808080"
      stroke="none"
      stroke-width="0"
    />
    <circle
      id="circle1340"
      cx="440.93701"
      cy="255.42566"
      r="10"
      fill="#333333"
      stroke="none"
      stroke-width="0"
    />
    <circle
      id="circle1342"
      cx="480.32104"
      cy="255.42566"
      r="10"
      fill="#333333"
      stroke="none"
      stroke-width="0"
    />
    <circle
      id="circle1344"
      cx="519.69116"
      cy="255.42566"
      r="10"
      fill="#333333"
      stroke="none"
      stroke-width="0"
    />
    <circle
      id="circle1346"
      cx="559.06128"
      cy="255.42566"
      r="10"
      fill="#333333"
      stroke="none"
      stroke-width="0"
    />
    <circle
      id="circle1348"
      cx="602.36841"
      cy="255.42566"
      r="10"
      fill="#333333"
      stroke="none"
      stroke-width="0"
    />
    <circle
      id="circle1350"
      cx="480.32104"
      cy="287.94592"
      r="10"
      fill="#333333"
      stroke="none"
      stroke-width="0"
    />
    <circle
      id="circle1352"
      cx="519.69116"
      cy="287.94592"
      r="10"
      fill="#333333"
      stroke="none"
      stroke-width="0"
    />
    <circle
      id="circle1354"
      cx="559.06128"
      cy="287.94592"
      r="10"
      fill="#333333"
      stroke="none"
      stroke-width="0"
    />
    <circle
      id="circle1356"
      cx="602.36841"
      cy="287.94592"
      r="10"
      fill="#333333"
      stroke="none"
      stroke-width="0"
    />
    <circle
      id="circle1358"
      cx="480.32104"
      cy="322.19592"
      r="10"
      fill="#333333"
      stroke="none"
      stroke-width="0"
    />
    <circle
      id="circle1360"
      cx="519.69116"
      cy="322.19592"
      r="10"
      fill="#333333"
      stroke="none"
      stroke-width="0"
    />
    <circle
      id="circle1362"
      cx="559.06128"
      cy="322.19592"
      r="10"
      fill="#333333"
      stroke="none"
      stroke-width="0"
    />
    <circle
      id="circle1364"
      cx="598.4314"
      cy="322.19592"
      r="10"
      fill="#333333"
      stroke="none"
      stroke-width="0"
    />
    <rect
      id="rect1366"
      width="41.515148"
      height="20.757576"
      x="637.44214"
      y="232.63049"
      fill="#808080"
      stroke="none"
      stroke-width="0"
    />
    <rect
      id="rect1368"
      width="41.515148"
      height="20.757576"
      x="637.44214"
      y="334.97473"
      fill="#808080"
      stroke="none"
      stroke-width="0"
    />
    <rect
      id="rect1370"
      width="41.515148"
      height="20.757576"
      x="320.79346"
      y="334.97473"
      fill="#808080"
      stroke="none"
      stroke-width="0"
    />
    <rect
      id="rect1372"
      width="41.515148"
      height="20.757576"
      x="320.79346"
      y="232.61243"
      fill="#808080"
      stroke="none"
      stroke-width="0"
    />
    <circle
      id="connector0pin"
      cx="55.423096"
      cy="98.325562"
      r="29"
      fill="#ffffff"
      stroke="#999999"
      stroke-width="20"
    />
    <circle
      id="connector1pin"
      cx="55.423096"
      cy="198.62512"
      r="29"
      fill="#ffffff"
      stroke="#999999"
      stroke-width="20"
    />
    <circle
      id="connector2pin"
      cx="55.423096"
      cy="298.62512"
      r="29"
      fill="#ffffff"
      stroke="#999999"
      stroke-width="20"
    />
    <circle
      id="connector3pin"
      cx="55.423096"
      cy="398.62512"
      r="29"
      fill="#ffffff"
      stroke="#999999"
      stroke-width="20"
    />
    <circle
      id="connector4pin"
      cx="55.423096"
      cy="498.62512"
      r="29"
      fill="#ffffff"
      stroke="#999999"
      stroke-width="20"
    />
    <rect
      height="33.485073"
      width="73.130348"
      x="468.98621"
      id="rect1664"
      y="-453.50635"
      fill="#4d4d4d"
      transform="rotate(90)"
      stroke-width="1.06944"
    />
    <rect
      height="0.57452971"
      width="73.130348"
      enable-background="new    "
      x="468.98621"
      id="rect1666"
      y="-453.50635"
      fill="#ffffff"
      opacity="0.2"
      transform="rotate(90)"
      stroke-width="1.06944"
    />
    <rect
      height="9.97931"
      width="73.130348"
      y="-428.1521"
      x="468.98621"
      id="rect1668"
      fill="#333333"
      transform="rotate(90)"
      stroke-width="1.06944"
    />
    <rect
      height="0.39967236"
      width="73.130348"
      y="-418.51001"
      enable-background="new    "
      x="468.98621"
      id="rect1670"
      opacity="0.2"
      transform="rotate(90)"
      stroke-width="1.06944"
    />
    <path
      d="m 453.50638,531.49482 v 0 0 -0.8538 0 c -3.135,-0.7344 -9.9419,-1.2393 -13.4266,-1.2393 -3.6345,0 -8.6554,0.4407 -11.9277,1.2393 v 0 0 l 10e-5,11.2275 h 25.3542 z"
      id="path1672"
      fill="#dcdcdc"
      stroke-width="1.06944"
    />
    <path
      d="m 452.20738,480.41572 h 1.299 v -11.2184 h -25.3542 v 11.2274 c 3.2847,0.8079 8.2306,1.7719 11.9152,1.7719 4.3214,0 8.3806,-0.6885 12.14,-1.7809 z"
      id="path1674"
      fill="#dcdcdc"
      stroke-width="1.06944"
    />
    <path
      d="m 426.82818,541.93272 v -11.2274 l 1.324,-0.064 v 11.2275 z"
      id="path1676"
      fill="#999999"
      stroke-width="1.06944"
    />
    <path
      d="m 426.80328,469.25242 v 11.2274 l 1.3489,-0.064 v -11.2183 l -1.3489,0.055 z"
      id="path1678"
      fill="#999999"
      stroke-width="1.06944"
    />
    <rect
      height="0.57452971"
      width="11.227499"
      y="-418.68481"
      enable-background="new    "
      x="469.19739"
      id="rect1680"
      opacity="0.15"
      transform="rotate(90)"
      stroke-width="1.06944"
    />
    <rect
      height="0.57452971"
      width="11.227499"
      enable-background="new    "
      x="469.19739"
      id="rect1682"
      y="-453.50635"
      fill="#ffffff"
      opacity="0.5"
      transform="rotate(90)"
      stroke-width="1.06944"
    />
    <rect
      height="0.57452971"
      width="11.236687"
      y="-418.68481"
      enable-background="new    "
      x="530.65027"
      id="rect1684"
      opacity="0.15"
      transform="rotate(90)"
      stroke-width="1.06944"
    />
    <rect
      height="0.57452971"
      width="11.236687"
      enable-background="new    "
      x="530.65027"
      id="rect1686"
      y="-453.50635"
      fill="#ffffff"
      opacity="0.5"
      transform="rotate(90)"
      stroke-width="1.06944"
    />
    <line
      x1="418.11035"
      y2="475.98157"
      y1="475.98157"
      x2="418.11035"
      id="line1688"
      fill="none"
      stroke-width="1.06944"
    />
    <rect
      height="8.6429224"
      width="1.0832762"
      y="-426.82812"
      x="541.0238"
      id="rect1690"
      fill="#999999"
      transform="rotate(90)"
      stroke-width="1.06944"
    />
    <rect
      height="8.6429224"
      width="1.0924572"
      y="-426.82812"
      x="469.19739"
      id="rect1692"
      fill="#999999"
      transform="rotate(90)"
      stroke-width="1.06944"
    />
    <rect
      height="33.485073"
      width="73.130348"
      x="468.98621"
      id="rect1696"
      y="-512.56152"
      fill="#4d4d4d"
      transform="rotate(90)"
      stroke-width="1.06944"
    />
    <rect
      height="0.57452971"
      width="73.130348"
      enable-background="new    "
      x="468.98621"
      id="rect1698"
      y="-512.56152"
      fill="#ffffff"
      opacity="0.2"
      transform="rotate(90)"
      stroke-width="1.06944"
    />
    <rect
      height="9.97931"
      width="73.130348"
      y="-487.20728"
      x="468.98621"
      id="rect1700"
      fill="#333333"
      transform="rotate(90)"
      stroke-width="1.06944"
    />
    <rect
      height="0.39967236"
      width="73.130348"
      y="-477.56494"
      enable-background="new    "
      x="468.98621"
      id="rect1702"
      opacity="0.2"
      transform="rotate(90)"
      stroke-width="1.06944"
    />
    <path
      d="m 512.56148,531.49482 v 0 0 -0.8538 0 c -3.135,-0.7344 -9.9419,-1.2393 -13.4266,-1.2393 -3.6345,0 -8.6554,0.4407 -11.9277,1.2393 v 0 0 l 1e-4,11.2275 h 25.3542 z"
      id="path1704"
      fill="#dcdcdc"
      stroke-width="1.06944"
    />
    <path
      d="m 511.26248,480.41572 h 1.299 v -11.2184 h -25.3542 v 11.2274 c 3.2847,0.8079 8.2307,1.7719 11.9152,1.7719 4.3214,0 8.3806,-0.6885 12.14,-1.7809 z"
      id="path1706"
      fill="#dcdcdc"
      stroke-width="1.06944"
    />
    <path
      d="m 485.88328,541.93272 v -11.2274 l 1.324,-0.064 v 11.2275 z"
      id="path1708"
      fill="#999999"
      stroke-width="1.06944"
    />
    <path
      d="m 485.85838,469.25242 v 11.2274 l 1.3489,-0.064 v -11.2183 l -1.3489,0.055 z"
      id="path1710"
      fill="#999999"
      stroke-width="1.06944"
    />
    <rect
      height="0.57452971"
      width="11.227499"
      y="-477.73999"
      enable-background="new    "
      x="469.19739"
      id="rect1712"
      opacity="0.15"
      transform="rotate(90)"
      stroke-width="1.06944"
    />
    <rect
      height="0.57452971"
      width="11.227499"
      enable-background="new    "
      x="469.19739"
      id="rect1714"
      y="-512.56152"
      fill="#ffffff"
      opacity="0.5"
      transform="rotate(90)"
      stroke-width="1.06944"
    />
    <rect
      height="0.57452971"
      width="11.236687"
      y="-477.73999"
      enable-background="new    "
      x="530.65027"
      id="rect1716"
      opacity="0.15"
      transform="rotate(90)"
      stroke-width="1.06944"
    />
    <rect
      height="0.57452971"
      width="11.236687"
      enable-background="new    "
      x="530.65027"
      id="rect1718"
      y="-512.56152"
      fill="#ffffff"
      opacity="0.5"
      transform="rotate(90)"
      stroke-width="1.06944"
    />
    <line
      x1="477.16553"
      y2="475.98157"
      y1="475.98157"
      x2="477.16553"
      id="line1720"
      fill="none"
      stroke-width="1.06944"
    />
    <rect
      height="8.6429224"
      width="1.0832762"
      y="-485.8833"
      x="541.0238"
      id="rect1722"
      fill="#999999"
      transform="rotate(90)"
      stroke-width="1.06944"
    />
    <rect
      height="8.6429224"
      width="1.0924572"
      y="-485.8833"
      x="469.19739"
      id="rect1724"
      fill="#999999"
      transform="rotate(90)"
      stroke-width="1.06944"
    />
    <rect
      height="33.485073"
      width="73.130348"
      x="468.98621"
      id="rect1728"
      y="-575.55347"
      fill="#4d4d4d"
      transform="rotate(90)"
      stroke-width="1.06944"
    />
    <rect
      height="0.57452971"
      width="73.130348"
      enable-background="new    "
      x="468.98621"
      id="rect1730"
      y="-575.55347"
      fill="#ffffff"
      opacity="0.2"
      transform="rotate(90)"
      stroke-width="1.06944"
    />
    <rect
      height="9.97931"
      width="73.130348"
      y="-550.19946"
      x="468.98621"
      id="rect1732"
      fill="#333333"
      transform="rotate(90)"
      stroke-width="1.06944"
    />
    <rect
      height="0.39967236"
      width="73.130348"
      y="-540.55713"
      enable-background="new    "
      x="468.98621"
      id="rect1734"
      opacity="0.2"
      transform="rotate(90)"
      stroke-width="1.06944"
    />
    <path
      d="m 575.55358,531.49482 v 0 0 -0.8538 0 c -3.1349,-0.7344 -9.9419,-1.2393 -13.4266,-1.2393 -3.6345,0 -8.6554,0.4407 -11.9277,1.2393 v 0 0 l 10e-5,11.2275 h 25.3542 z"
      id="path1736"
      fill="#dcdcdc"
      stroke-width="1.06944"
    />
    <path
      d="m 574.25458,480.41572 h 1.299 v -11.2184 h -25.3542 v 11.2274 c 3.2847,0.8079 8.2307,1.7719 11.9152,1.7719 4.3214,0 8.3806,-0.6885 12.14,-1.7809 z"
      id="path1738"
      fill="#dcdcdc"
      stroke-width="1.06944"
    />
    <path
      d="m 548.87538,541.93272 v -11.2274 l 1.324,-0.064 v 11.2275 z"
      id="path1740"
      fill="#999999"
      stroke-width="1.06944"
    />
    <path
      d="m 548.85048,469.25242 v 11.2274 l 1.3489,-0.064 v -11.2183 l -1.3489,0.055 z"
      id="path1742"
      fill="#999999"
      stroke-width="1.06944"
    />
    <rect
      height="0.57452971"
      width="11.227499"
      y="-540.73218"
      enable-background="new    "
      x="469.19739"
      id="rect1744"
      opacity="0.15"
      transform="rotate(90)"
      stroke-width="1.06944"
    />
    <rect
      height="0.57452971"
      width="11.227499"
      enable-background="new    "
      x="469.19739"
      id="rect1746"
      y="-575.55347"
      fill="#ffffff"
      opacity="0.5"
      transform="rotate(90)"
      stroke-width="1.06944"
    />
    <rect
      height="0.57452971"
      width="11.236687"
      y="-540.73218"
      enable-background="new    "
      x="530.65027"
      id="rect1748"
      opacity="0.15"
      transform="rotate(90)"
      stroke-width="1.06944"
    />
    <rect
      height="0.57452971"
      width="11.236687"
      enable-background="new    "
      x="530.65027"
      id="rect1750"
      y="-575.55347"
      fill="#ffffff"
      opacity="0.5"
      transform="rotate(90)"
      stroke-width="1.06944"
    />
    <line
      x1="540.15747"
      y2="475.98157"
      y1="475.98157"
      x2="540.15747"
      id="line1752"
      fill="none"
      stroke-width="1.06944"
    />
    <rect
      height="8.6429224"
      width="1.0832762"
      y="-548.87524"
      x="541.0238"
      id="rect1754"
      fill="#999999"
      transform="rotate(90)"
      stroke-width="1.06944"
    />
    <rect
      height="8.6429224"
      width="1.0924572"
      y="-548.87524"
      x="469.19739"
      id="rect1756"
      fill="#999999"
      transform="rotate(90)"
      stroke-width="1.06944"
    />
    <rect
      height="33.485073"
      width="73.130348"
      x="468.98621"
      id="rect1760"
      y="-634.60864"
      fill="#4d4d4d"
      transform="rotate(90)"
      stroke-width="1.06944"
    />
    <rect
      height="0.57452971"
      width="73.130348"
      enable-background="new    "
      x="468.98621"
      id="rect1762"
      y="-634.60864"
      fill="#ffffff"
      opacity="0.2"
      transform="rotate(90)"
      stroke-width="1.06944"
    />
    <rect
      height="9.97931"
      width="73.130348"
      y="-609.25439"
      x="468.98621"
      id="rect1764"
      fill="#333333"
      transform="rotate(90)"
      stroke-width="1.06944"
    />
    <rect
      height="0.39967236"
      width="73.130348"
      y="-599.6123"
      enable-background="new    "
      x="468.98621"
      id="rect1766"
      opacity="0.2"
      transform="rotate(90)"
      stroke-width="1.06944"
    />
    <path
      d="m 634.60868,531.49482 v 0 0 -0.8538 0 c -3.1349,-0.7344 -9.9419,-1.2393 -13.4265,-1.2393 -3.6346,0 -8.6555,0.4407 -11.9278,1.2393 v 0 0 l 10e-5,11.2275 h 25.3542 z"
      id="path1768"
      fill="#dcdcdc"
      stroke-width="1.06944"
    />
    <path
      d="m 633.30968,480.41572 h 1.299 v -11.2184 h -25.3542 v 11.2274 c 3.2847,0.8079 8.2307,1.7719 11.9152,1.7719 4.3215,0 8.3806,-0.6885 12.14,-1.7809 z"
      id="path1770"
      fill="#dcdcdc"
      stroke-width="1.06944"
    />
    <path
      d="m 607.93048,541.93272 v -11.2274 l 1.324,-0.064 v 11.2275 z"
      id="path1772"
      fill="#999999"
      stroke-width="1.06944"
    />
    <path
      d="m 607.90558,469.25242 v 11.2274 l 1.3489,-0.064 v -11.2183 l -1.3489,0.055 z"
      id="path1774"
      fill="#999999"
      stroke-width="1.06944"
    />
    <rect
      height="0.57452971"
      width="11.227499"
      y="-599.78711"
      enable-background="new    "
      x="469.19739"
      id="rect1776"
      opacity="0.15"
      transform="rotate(90)"
      stroke-width="1.06944"
    />
    <rect
      height="0.57452971"
      width="11.227499"
      enable-background="new    "
      x="469.19739"
      id="rect1778"
      y="-634.60864"
      fill="#ffffff"
      opacity="0.5"
      transform="rotate(90)"
      stroke-width="1.06944"
    />
    <rect
      height="0.57452971"
      width="11.236687"
      y="-599.78711"
      enable-background="new    "
      x="530.65027"
      id="rect1780"
      opacity="0.15"
      transform="rotate(90)"
      stroke-width="1.06944"
    />
    <rect
      height="0.57452971"
      width="11.236687"
      enable-background="new    "
      x="530.65027"
      id="rect1782"
      y="-634.60864"
      fill="#ffffff"
      opacity="0.5"
      transform="rotate(90)"
      stroke-width="1.06944"
    />
    <line
      x1="599.21265"
      y2="475.98157"
      y1="475.98157"
      x2="599.21265"
      id="line1784"
      fill="none"
      stroke-width="1.06944"
    />
    <rect
      height="8.6429224"
      width="1.0832762"
      y="-607.93042"
      x="541.0238"
      id="rect1786"
      fill="#999999"
      transform="rotate(90)"
      stroke-width="1.06944"
    />
    <rect
      height="8.6429224"
      width="1.0924572"
      y="-607.93042"
      x="469.19739"
      id="rect1788"
      fill="#999999"
      transform="rotate(90)"
      stroke-width="1.06944"
    />
    <rect
      height="33.485073"
      width="73.130348"
      x="36.479736"
      id="rect1792"
      y="-327.35278"
      fill="#4d4d4d"
      transform="rotate(90)"
      stroke-width="1.06944"
    />
    <rect
      height="0.57452971"
      width="73.130348"
      enable-background="new    "
      x="36.479736"
      id="rect1794"
      y="-327.35278"
      fill="#ffffff"
      opacity="0.2"
      transform="rotate(90)"
      stroke-width="1.06944"
    />
    <rect
      height="9.97931"
      width="73.130348"
      y="-301.99878"
      x="36.479736"
      id="rect1796"
      fill="#333333"
      transform="rotate(90)"
      stroke-width="1.06944"
    />
    <rect
      height="0.39967236"
      width="73.130348"
      y="-292.35645"
      enable-background="new    "
      x="36.479736"
      id="rect1798"
      opacity="0.2"
      transform="rotate(90)"
      stroke-width="1.06944"
    />
    <path
      d="m 327.35288,98.988324 v 0 0 -0.8538 0 c -3.1349,-0.7344 -9.9419,-1.2393 -13.4265,-1.2393 -3.6346,0 -8.6554,0.4407 -11.9277,1.2393 v 0 0 11.227496 h 25.3542 z"
      id="path1800"
      fill="#dcdcdc"
      stroke-width="1.06944"
    />
    <path
      d="m 326.05398,47.909224 h 1.2989 v -11.2184 h -25.3542 v 11.2274 c 3.2848,0.8079 8.2307,1.7719 11.9153,1.7719 4.3214,0 8.3806,-0.6885 12.14,-1.7809 z"
      id="path1802"
      fill="#dcdcdc"
      stroke-width="1.06944"
    />
    <path
      d="M 300.67478,109.42622 V 98.198824 l 1.3239,-0.064 v 11.227496 z"
      id="path1804"
      fill="#999999"
      stroke-width="1.06944"
    />
    <path
      d="m 300.64978,36.745924 v 11.2274 l 1.3489,-0.064 v -11.2183 l -1.3489,0.055 z"
      id="path1806"
      fill="#999999"
      stroke-width="1.06944"
    />
    <rect
      height="0.57452971"
      width="11.227499"
      y="-292.53149"
      enable-background="new    "
      x="36.690796"
      id="rect1808"
      opacity="0.15"
      transform="rotate(90)"
      stroke-width="1.06944"
    />
    <rect
      height="0.57452971"
      width="11.227499"
      enable-background="new    "
      x="36.690796"
      id="rect1810"
      y="-327.35278"
      fill="#ffffff"
      opacity="0.5"
      transform="rotate(90)"
      stroke-width="1.06944"
    />
    <rect
      height="0.57452971"
      width="11.236687"
      y="-292.53149"
      enable-background="new    "
      x="98.143799"
      id="rect1812"
      opacity="0.15"
      transform="rotate(90)"
      stroke-width="1.06944"
    />
    <rect
      height="0.57452971"
      width="11.236687"
      enable-background="new    "
      x="98.143799"
      id="rect1814"
      y="-327.35278"
      fill="#ffffff"
      opacity="0.5"
      transform="rotate(90)"
      stroke-width="1.06944"
    />
    <line
      x1="291.95679"
      y2="43.474976"
      y1="43.474976"
      x2="291.95679"
      id="line1816"
      fill="none"
      stroke-width="1.06944"
    />
    <rect
      height="8.6429224"
      width="1.0832762"
      y="-300.67456"
      x="108.51733"
      id="rect1818"
      fill="#999999"
      transform="rotate(90)"
      stroke-width="1.06944"
    />
    <rect
      height="8.6429224"
      width="1.0924572"
      y="-300.67456"
      x="36.690796"
      id="rect1820"
      fill="#999999"
      transform="rotate(90)"
      stroke-width="1.06944"
    />
    <rect
      height="33.485073"
      width="73.130348"
      x="36.479736"
      id="rect1824"
      y="-390.35669"
      fill="#4d4d4d"
      transform="rotate(90)"
      stroke-width="1.06944"
    />
    <rect
      height="0.57452971"
      width="73.130348"
      enable-background="new    "
      x="36.479736"
      id="rect1826"
      y="-390.35669"
      fill="#ffffff"
      opacity="0.2"
      transform="rotate(90)"
      stroke-width="1.06944"
    />
    <rect
      height="9.97931"
      width="73.130348"
      y="-365.00244"
      x="36.479736"
      id="rect1828"
      fill="#333333"
      transform="rotate(90)"
      stroke-width="1.06944"
    />
    <rect
      height="0.39967236"
      width="73.130348"
      y="-355.36035"
      enable-background="new    "
      x="36.479736"
      id="rect1830"
      opacity="0.2"
      transform="rotate(90)"
      stroke-width="1.06944"
    />
    <path
      d="m 390.35668,98.988324 v 0 0 -0.8538 0 c -3.1349,-0.7344 -9.9419,-1.2393 -13.4265,-1.2393 -3.6346,0 -8.6554,0.4407 -11.9277,1.2393 v 0 0 11.227496 h 25.3542 z"
      id="path1832"
      fill="#dcdcdc"
      stroke-width="1.06944"
    />
    <path
      d="m 389.05778,47.909224 h 1.2989 v -11.2184 h -25.3542 v 11.2274 c 3.2848,0.8079 8.2307,1.7719 11.9153,1.7719 4.3214,0 8.3806,-0.6885 12.14,-1.7809 z"
      id="path1834"
      fill="#dcdcdc"
      stroke-width="1.06944"
    />
    <path
      d="M 363.67858,109.42622 V 98.198824 l 1.3239,-0.064 v 11.227496 z"
      id="path1836"
      fill="#999999"
      stroke-width="1.06944"
    />
    <path
      d="m 363.65358,36.745924 v 11.2274 l 1.3489,-0.064 v -11.2183 l -1.3489,0.055 z"
      id="path1838"
      fill="#999999"
      stroke-width="1.06944"
    />
    <rect
      height="0.57452971"
      width="11.227499"
      y="-355.53516"
      enable-background="new    "
      x="36.690796"
      id="rect1840"
      opacity="0.15"
      transform="rotate(90)"
      stroke-width="1.06944"
    />
    <rect
      height="0.57452971"
      width="11.227499"
      enable-background="new    "
      x="36.690796"
      id="rect1842"
      y="-390.35669"
      fill="#ffffff"
      opacity="0.5"
      transform="rotate(90)"
      stroke-width="1.06944"
    />
    <rect
      height="0.57452971"
      width="11.236687"
      y="-355.53516"
      enable-background="new    "
      x="98.143799"
      id="rect1844"
      opacity="0.15"
      transform="rotate(90)"
      stroke-width="1.06944"
    />
    <rect
      height="0.57452971"
      width="11.236687"
      enable-background="new    "
      x="98.143799"
      id="rect1846"
      y="-390.35669"
      fill="#ffffff"
      opacity="0.5"
      transform="rotate(90)"
      stroke-width="1.06944"
    />
    <line
      x1="354.96069"
      y2="43.474976"
      y1="43.474976"
      x2="354.96069"
      id="line1848"
      fill="none"
      stroke-width="1.06944"
    />
    <rect
      height="8.6429224"
      width="1.0832762"
      y="-363.67847"
      x="108.51733"
      id="rect1850"
      fill="#999999"
      transform="rotate(90)"
      stroke-width="1.06944"
    />
    <rect
      height="8.6429224"
      width="1.0924572"
      y="-363.67847"
      x="36.690796"
      id="rect1852"
      fill="#999999"
      transform="rotate(90)"
      stroke-width="1.06944"
    />
    <rect
      height="33.485073"
      width="73.130348"
      x="36.479736"
      id="rect1856"
      y="-449.41187"
      fill="#4d4d4d"
      transform="rotate(90)"
      stroke-width="1.06944"
    />
    <rect
      height="0.57452971"
      width="73.130348"
      enable-background="new    "
      x="36.479736"
      id="rect1858"
      y="-449.41187"
      fill="#ffffff"
      opacity="0.2"
      transform="rotate(90)"
      stroke-width="1.06944"
    />
    <rect
      height="9.97931"
      width="73.130348"
      y="-424.05762"
      x="36.479736"
      id="rect1860"
      fill="#333333"
      transform="rotate(90)"
      stroke-width="1.06944"
    />
    <rect
      height="0.39967236"
      width="73.130348"
      y="-414.41528"
      enable-background="new    "
      x="36.479736"
      id="rect1862"
      opacity="0.2"
      transform="rotate(90)"
      stroke-width="1.06944"
    />
    <path
      d="m 449.41188,98.988324 v 0 0 -0.8538 0 c -3.135,-0.7344 -9.9419,-1.2393 -13.4266,-1.2393 -3.6345,0 -8.6554,0.4407 -11.9277,1.2393 v 0 0 l 1e-4,11.227496 h 25.3542 z"
      id="path1864"
      fill="#dcdcdc"
      stroke-width="1.06944"
    />
    <path
      d="m 448.11288,47.909224 h 1.299 v -11.2184 h -25.3542 v 11.2274 c 3.2847,0.8079 8.2307,1.7719 11.9152,1.7719 4.3214,0 8.3806,-0.6885 12.14,-1.7809 z"
      id="path1866"
      fill="#dcdcdc"
      stroke-width="1.06944"
    />
    <path
      d="M 422.73368,109.42622 V 98.198824 l 1.324,-0.064 v 11.227496 z"
      id="path1868"
      fill="#999999"
      stroke-width="1.06944"
    />
    <path
      d="m 422.70878,36.745924 v 11.2274 l 1.3489,-0.064 v -11.2183 l -1.3489,0.055 z"
      id="path1870"
      fill="#999999"
      stroke-width="1.06944"
    />
    <rect
      height="0.57452971"
      width="11.227499"
      y="-414.59033"
      enable-background="new    "
      x="36.690796"
      id="rect1872"
      opacity="0.15"
      transform="rotate(90)"
      stroke-width="1.06944"
    />
    <rect
      height="0.57452971"
      width="11.227499"
      enable-background="new    "
      x="36.690796"
      id="rect1874"
      y="-449.41187"
      fill="#ffffff"
      opacity="0.5"
      transform="rotate(90)"
      stroke-width="1.06944"
    />
    <rect
      height="0.57452971"
      width="11.236687"
      y="-414.59033"
      enable-background="new    "
      x="98.143799"
      id="rect1876"
      opacity="0.15"
      transform="rotate(90)"
      stroke-width="1.06944"
    />
    <rect
      height="0.57452971"
      width="11.236687"
      enable-background="new    "
      x="98.143799"
      id="rect1878"
      y="-449.41187"
      fill="#ffffff"
      opacity="0.5"
      transform="rotate(90)"
      stroke-width="1.06944"
    />
    <line
      x1="414.01587"
      y2="43.474976"
      y1="43.474976"
      x2="414.01587"
      id="line1880"
      fill="none"
      stroke-width="1.06944"
    />
    <rect
      height="8.6429224"
      width="1.0832762"
      y="-422.73364"
      x="108.51733"
      id="rect1882"
      fill="#999999"
      transform="rotate(90)"
      stroke-width="1.06944"
    />
    <rect
      height="8.6429224"
      width="1.0924572"
      y="-422.73364"
      x="36.690796"
      id="rect1884"
      fill="#999999"
      transform="rotate(90)"
      stroke-width="1.06944"
    />
    <rect
      height="33.485073"
      width="73.130348"
      x="36.479736"
      id="rect1888"
      y="-508.46704"
      fill="#4d4d4d"
      transform="rotate(90)"
      stroke-width="1.06944"
    />
    <rect
      height="0.57452971"
      width="73.130348"
      enable-background="new    "
      x="36.479736"
      id="rect1890"
      y="-508.46704"
      fill="#ffffff"
      opacity="0.2"
      transform="rotate(90)"
      stroke-width="1.06944"
    />
    <rect
      height="9.97931"
      width="73.130348"
      y="-483.11279"
      x="36.479736"
      id="rect1892"
      fill="#333333"
      transform="rotate(90)"
      stroke-width="1.06944"
    />
    <rect
      height="0.39967236"
      width="73.130348"
      y="-473.47046"
      enable-background="new    "
      x="36.479736"
      id="rect1894"
      opacity="0.2"
      transform="rotate(90)"
      stroke-width="1.06944"
    />
    <path
      d="m 508.46698,98.988324 v 0 0 -0.8538 0 c -3.135,-0.7344 -9.9419,-1.2393 -13.4266,-1.2393 -3.6345,0 -8.6554,0.4407 -11.9277,1.2393 v 0 0 l 10e-5,11.227496 h 25.3542 z"
      id="path1896"
      fill="#dcdcdc"
      stroke-width="1.06944"
    />
    <path
      d="m 507.16798,47.909224 h 1.299 v -11.2184 h -25.3542 v 11.2274 c 3.2847,0.8079 8.2307,1.7719 11.9152,1.7719 4.3214,0 8.3806,-0.6885 12.14,-1.7809 z"
      id="path1898"
      fill="#dcdcdc"
      stroke-width="1.06944"
    />
    <path
      d="M 481.78878,109.42622 V 98.198824 l 1.324,-0.064 v 11.227496 z"
      id="path1900"
      fill="#999999"
      stroke-width="1.06944"
    />
    <path
      d="m 481.76388,36.745924 v 11.2274 l 1.3489,-0.064 v -11.2183 l -1.3489,0.055 z"
      id="path1902"
      fill="#999999"
      stroke-width="1.06944"
    />
    <rect
      height="0.57452971"
      width="11.227499"
      y="-473.64551"
      enable-background="new    "
      x="36.690796"
      id="rect1904"
      opacity="0.15"
      transform="rotate(90)"
      stroke-width="1.06944"
    />
    <rect
      height="0.57452971"
      width="11.227499"
      enable-background="new    "
      x="36.690796"
      id="rect1906"
      y="-508.46704"
      fill="#ffffff"
      opacity="0.5"
      transform="rotate(90)"
      stroke-width="1.06944"
    />
    <rect
      height="0.57452971"
      width="11.236687"
      y="-473.64551"
      enable-background="new    "
      x="98.143799"
      id="rect1908"
      opacity="0.15"
      transform="rotate(90)"
      stroke-width="1.06944"
    />
    <rect
      height="0.57452971"
      width="11.236687"
      enable-background="new    "
      x="98.143799"
      id="rect1910"
      y="-508.46704"
      fill="#ffffff"
      opacity="0.5"
      transform="rotate(90)"
      stroke-width="1.06944"
    />
    <line
      x1="473.07104"
      y2="43.474976"
      y1="43.474976"
      x2="473.07104"
      id="line1912"
      fill="none"
      stroke-width="1.06944"
    />
    <rect
      height="8.6429224"
      width="1.0832762"
      y="-481.78882"
      x="108.51733"
      id="rect1914"
      fill="#999999"
      transform="rotate(90)"
      stroke-width="1.06944"
    />
    <rect
      height="8.6429224"
      width="1.0924572"
      y="-481.78882"
      x="36.690796"
      id="rect1916"
      fill="#999999"
      transform="rotate(90)"
      stroke-width="1.06944"
    />
    <rect
      height="33.485073"
      width="73.130348"
      x="36.479736"
      id="rect1920"
      y="-508.46704"
      fill="#4d4d4d"
      transform="rotate(90)"
      stroke-width="1.06944"
    />
    <rect
      height="0.57452971"
      width="73.130348"
      enable-background="new    "
      x="36.479736"
      id="rect1922"
      y="-508.46704"
      fill="#ffffff"
      opacity="0.2"
      transform="rotate(90)"
      stroke-width="1.06944"
    />
    <rect
      height="9.97931"
      width="73.130348"
      y="-483.11279"
      x="36.479736"
      id="rect1924"
      fill="#333333"
      transform="rotate(90)"
      stroke-width="1.06944"
    />
    <rect
      height="0.39967236"
      width="73.130348"
      y="-473.47046"
      enable-background="new    "
      x="36.479736"
      id="rect1926"
      opacity="0.2"
      transform="rotate(90)"
      stroke-width="1.06944"
    />
    <path
      d="m 508.46698,98.988324 v 0 0 -0.8538 0 c -3.135,-0.7344 -9.9419,-1.2393 -13.4266,-1.2393 -3.6345,0 -8.6554,0.4407 -11.9277,1.2393 v 0 0 l 10e-5,11.227496 h 25.3542 z"
      id="path1928"
      fill="#dcdcdc"
      stroke-width="1.06944"
    />
    <path
      d="m 507.16798,47.909224 h 1.299 v -11.2184 h -25.3542 v 11.2274 c 3.2847,0.8079 8.2307,1.7719 11.9152,1.7719 4.3214,0 8.3806,-0.6885 12.14,-1.7809 z"
      id="path1930"
      fill="#dcdcdc"
      stroke-width="1.06944"
    />
    <path
      d="M 481.78878,109.42622 V 98.198824 l 1.324,-0.064 v 11.227496 z"
      id="path1932"
      fill="#999999"
      stroke-width="1.06944"
    />
    <path
      d="m 481.76388,36.745924 v 11.2274 l 1.3489,-0.064 v -11.2183 l -1.3489,0.055 z"
      id="path1934"
      fill="#999999"
      stroke-width="1.06944"
    />
    <rect
      height="0.57452971"
      width="11.227499"
      y="-473.64551"
      enable-background="new    "
      x="36.690796"
      id="rect1936"
      opacity="0.15"
      transform="rotate(90)"
      stroke-width="1.06944"
    />
    <rect
      height="0.57452971"
      width="11.227499"
      enable-background="new    "
      x="36.690796"
      id="rect1938"
      y="-508.46704"
      fill="#ffffff"
      opacity="0.5"
      transform="rotate(90)"
      stroke-width="1.06944"
    />
    <rect
      height="0.57452971"
      width="11.236687"
      y="-473.64551"
      enable-background="new    "
      x="98.143799"
      id="rect1940"
      opacity="0.15"
      transform="rotate(90)"
      stroke-width="1.06944"
    />
    <rect
      height="0.57452971"
      width="11.236687"
      enable-background="new    "
      x="98.143799"
      id="rect1942"
      y="-508.46704"
      fill="#ffffff"
      opacity="0.5"
      transform="rotate(90)"
      stroke-width="1.06944"
    />
    <line
      x1="473.07104"
      y2="43.474976"
      y1="43.474976"
      x2="473.07104"
      id="line1944"
      fill="none"
      stroke-width="1.06944"
    />
    <rect
      height="8.6429224"
      width="1.0832762"
      y="-481.78882"
      x="108.51733"
      id="rect1946"
      fill="#999999"
      transform="rotate(90)"
      stroke-width="1.06944"
    />
    <rect
      height="8.6429224"
      width="1.0924572"
      y="-481.78882"
      x="36.690796"
      id="rect1948"
      fill="#999999"
      transform="rotate(90)"
      stroke-width="1.06944"
    />
    <rect
      height="31.716335"
      x="63.020874"
      width="30.472631"
      y="-653.03271"
      id="rect8"
      transform="rotate(90)"
      fill="#8c8c8c"
      stroke="none"
      stroke-width="0"
      stroke-linecap="round"
    />
    <rect
      height="31.439718"
      x="103.07666"
      width="30.472631"
      y="-577.93237"
      id="rect10"
      transform="rotate(90)"
      fill="#8c8c8c"
      stroke="none"
      stroke-width="0"
      stroke-linecap="round"
    />
    <rect
      height="28.993414"
      x="26.390625"
      width="27.047806"
      y="-577.93237"
      id="rect12"
      transform="rotate(90)"
      fill="#8c8c8c"
      stroke="none"
      stroke-width="0"
      stroke-linecap="round"
    />
    <rect
      height="53.11388"
      x="11.570679"
      width="129.45923"
      y="-625.11841"
      id="rect14"
      transform="rotate(90)"
      fill="#4d4d4d"
      stroke="none"
      stroke-width="0"
    />
    <circle
      cx="44.484375"
      cy="-587.62646"
      id="circle24"
      transform="rotate(90)"
      r="5"
      fill="#1f1f1f"
      stroke="none"
      stroke-width="0"
    />
    <rect
      transform="matrix(0,1,-0.44598639,0.89503974,0,0)"
      y="-1401.2758"
      x="1265.4438"
      height="11.67579"
      width="118.98821"
      id="rect25"
      fill="#333333"
      stroke-width="15.5981"
    />
    <rect
      transform="matrix(0,1,-0.42940128,-0.9031138,0,0)"
      y="-1344.4102"
      x="-1191.7129"
      height="12.126754"
      width="118.50739"
      id="rect31"
      fill="#333333"
      stroke-width="15.8963"
    />
    <rect
      transform="matrix(0.38891326,0.92127438,-1,0,0,0)"
      y="-565.28918"
      x="141.22789"
      height="48.135735"
      width="11.908636"
      id="rect29"
      fill="#000000"
      stroke-width="10.8526"
    />
    <rect
      transform="matrix(-0.43374001,0.90103807,-1,0,0,0)"
      y="-630.75952"
      x="12.742306"
      height="47.773842"
      width="12.17609"
      id="rect27"
      fill="#000000"
      stroke-width="10.9738"
    />
  </g>
</svg>
