<?xml version='1.0' encoding='utf-8'?>
<!DOCTYPE svg>
<!-- Generator: Adobe Illustrator 15.0.0, SVG Export Plug-In . SVG Version: 6.00 Build 0)  -->
<svg xmlns="http://www.w3.org/2000/svg" width="0.566556in" x="0px" version="1.1" y="0px" gorn="0"  height="0.785681in" viewBox="0 0 40.792 56.569" xmlns:xml="http://www.w3.org/XML/1998/namespace" id="svg2" enable-background="new -10.743 -34.906 40.792 56.569" xml:space="preserve">
    <desc >
        <referenceFile >keyes_tilt_switch3.svg</referenceFile>
    </desc>
    <g  transform="translate(10.743,34.906)">
        <g >
            <g >
                <g >
                    <g >
                        <g >
                            <rect width="40.792" x="-10.743" y="-34.906" fill="#2E2E2E"  height="49.623"/>
                            <rect width="21.506" x="-1.039" y="5.012" fill="#FFFFFF"  height="7.415"/>
                            <g >
                                <rect width="10.169" x="6.527" y="-1.749"  height="5.182"/>
                                <path fill="#E0E0E0"  d="M17.131,3.871H6.091v-6.058h11.041V3.871z M6.964,3h9.293v-4.314H6.964V3z"/>
                            </g>
                            <g >
                                <path fill="#FFFFFF"  d="M20.036-0.71c1.145,0,2.068,0.929,2.068,2.074c0,1.143-0.924,2.069-2.068,2.069c-1.146,0-2.074-0.926-2.074-2.069C17.961,0.219,18.89-0.71,20.036-0.71z"/>
                                <path fill="#BCBCBC"  d="M20.036,3.871c-1.385,0-2.509-1.125-2.509-2.507c0-1.385,1.124-2.509,2.509-2.509c1.382,0,2.509,1.125,2.509,2.509C22.544,2.746,21.417,3.871,20.036,3.871z M20.036-0.274c-0.904,0-1.637,0.733-1.637,1.638c0,0.9,0.732,1.636,1.637,1.636c0.902,0,1.635-0.736,1.635-1.636C21.67,0.459,20.938-0.274,20.036-0.274z"/>
                            </g>
                            <g >
                                <path fill="#FFFFFF"  d="M20.036-34.518c1.145,0,2.068,0.929,2.068,2.072c0,1.146-0.924,2.074-2.068,2.074c-1.146,0-2.074-0.928-2.074-2.074C17.961-33.59,18.89-34.518,20.036-34.518z"/>
                                <path fill="#BCBCBC"  d="M20.036-29.936c-1.385,0-2.509-1.125-2.509-2.51c0-1.384,1.124-2.508,2.509-2.508c1.382,0,2.509,1.124,2.509,2.508C22.544-31.061,21.417-29.936,20.036-29.936z M20.036-34.081c-0.904,0-1.637,0.733-1.637,1.635c0,0.902,0.732,1.639,1.637,1.639c0.902,0,1.635-0.737,1.635-1.639C21.67-33.348,20.938-34.081,20.036-34.081z"/>
                            </g>
                            <g >
                                <circle fill="#FFFFFF" cx="-0.692"  cy="-32.445" r="2.073"/>
                                <path fill="#BCBCBC"  d="M-0.692-29.936c-1.386,0-2.51-1.125-2.51-2.51c0-1.384,1.124-2.508,2.51-2.508c1.379,0,2.507,1.124,2.507,2.508C1.814-31.061,0.687-29.936-0.692-29.936z M-0.692-34.081c-0.906,0-1.638,0.733-1.638,1.635c0,0.902,0.732,1.639,1.638,1.639c0.899,0,1.636-0.737,1.636-1.639C0.943-33.348,0.207-34.081-0.692-34.081z"/>
                            </g>
                            <g >
                                <circle fill="#FFFFFF" cx="3.451"  cy="-5.416" r="2.073"/>
                                <path fill="#BCBCBC"  d="M3.451-2.904c-1.384,0-2.507-1.126-2.507-2.51c0-1.383,1.124-2.508,2.507-2.508c1.382,0,2.508,1.125,2.508,2.508C5.959-4.031,4.833-2.904,3.451-2.904z M3.451-7.049c-0.904,0-1.636,0.732-1.636,1.635c0,0.903,0.732,1.637,1.636,1.637c0.901,0,1.636-0.733,1.636-1.637C5.087-6.317,4.352-7.049,3.451-7.049z"/>
                            </g>
                            <g >
                                <circle fill="#FFFFFF" cx="15.89"  cy="-22.319" r="2.073"/>
                                <path fill="#BCBCBC"  d="M15.89-19.811c-1.382,0-2.51-1.128-2.51-2.51c0-1.384,1.128-2.506,2.51-2.506c1.384,0,2.509,1.122,2.509,2.506C18.399-20.939,17.274-19.811,15.89-19.811z M15.89-23.956c-0.902,0-1.636,0.734-1.636,1.635c0,0.902,0.733,1.637,1.636,1.637c0.901,0,1.637-0.735,1.637-1.637C17.527-23.221,16.792-23.956,15.89-23.956z"/>
                            </g>
                            <g >
                                <circle fill="#FFFFFF" cx="-0.692"  cy="1.361" r="2.072"/>
                                <path fill="#BCBCBC"  d="M-0.692,3.871c-1.386,0-2.51-1.125-2.51-2.507c0-1.385,1.124-2.509,2.51-2.509c1.379,0,2.507,1.125,2.507,2.509C1.814,2.746,0.687,3.871-0.692,3.871z M-0.692-0.274c-0.906,0-1.638,0.733-1.638,1.638C-2.33,2.264-1.598,3-0.692,3c0.899,0,1.636-0.736,1.636-1.636C0.943,0.459,0.207-0.274-0.692-0.274z"/>
                            </g>
                            <path fill="#FFFFFF"  d="M-6.437-26.291c1.899,0,3.438,1.537,3.438,3.435c0,1.9-1.539,3.436-3.438,3.436c-1.896,0-3.434-1.536-3.434-3.436C-9.87-24.754-8.333-26.291-6.437-26.291z"/>
                            <path fill="#BCBCBC"  d="M-6.437-18.984c-2.134,0-3.871-1.736-3.871-3.873c0-2.137,1.737-3.87,3.871-3.87c2.138,0,3.873,1.733,3.873,3.87C-2.563-20.72-4.299-18.984-6.437-18.984z M-6.437-25.855c-1.654,0-2.998,1.345-2.998,2.999s1.344,3,2.998,3c1.656,0,3-1.346,3-3S-4.781-25.855-6.437-25.855z"/>
                            <g >
                                <path fill="#FFFFFF"  d="M25.743-25.755c1.894,0,3.433,1.537,3.433,3.435c0,1.898-1.539,3.437-3.433,3.437c-1.898,0-3.439-1.539-3.439-3.437C22.303-24.218,23.844-25.755,25.743-25.755z"/>
                                <path fill="#BCBCBC"  d="M25.743-18.449c-2.137,0-3.873-1.735-3.873-3.872c0-2.133,1.736-3.873,3.873-3.873c2.135,0,3.867,1.74,3.867,3.873C29.61-20.184,27.877-18.449,25.743-18.449z M25.743-25.319c-1.655,0-3.004,1.344-3.004,2.999c0,1.655,1.349,3,3.004,3c1.651,0,2.995-1.345,2.995-3C28.738-23.975,27.394-25.319,25.743-25.319z"/>
                            </g>
                            <g >
                                <path fill="#FFFFFF"  d="M-9.169,1.004c0-0.01,0.002-0.021,0.004-0.033c0.004-0.015,0.004-0.023,0.004-0.029c0.009-0.028,0.028-0.062,0.057-0.111c0.029-0.043,0.049-0.064,0.057-0.064h2.148C-8.407-0.948-9.161-1.81-9.165-1.826c-0.002-0.011-0.004-0.025-0.004-0.034c0-0.008,0.002-0.019,0.004-0.034c0.004-0.011,0.004-0.021,0.004-0.025c0.009-0.015,0.028-0.035,0.057-0.064c0.029-0.03,0.049-0.051,0.057-0.059c0.011,0,0.032,0,0.062-0.003c0.034-0.004,0.059-0.004,0.078-0.004c0.011,0,0.045,0.002,0.101,0.007l1.908,1.909c0.004,0.006,0.014,0.007,0.028,0.01c0.013,0.001,0.027,0.004,0.034,0.004c0.009,0,0.02-0.002,0.033-0.004c0.014-0.002,0.024-0.004,0.027-0.01c0.003,0,0.022-0.012,0.05-0.046c0.033-0.029,0.052-0.051,0.067-0.072c0.02-0.021,0.06-0.064,0.122-0.13c0.064-0.066,0.137-0.146,0.22-0.237c0.079-0.09,0.167-0.186,0.257-0.288c0.094-0.103,0.176-0.201,0.258-0.289c0.083-0.092,0.154-0.171,0.219-0.237c0.058-0.064,0.101-0.111,0.115-0.132l0.479-0.478c0.004,0,0.021,0,0.047-0.003c0.027-0.004,0.051-0.004,0.066-0.004c0.015,0,0.057,0.002,0.124,0.007c0.014,0.008,0.038,0.029,0.065,0.059c0.03,0.029,0.047,0.045,0.051,0.056c0.005,0.003,0.007,0.016,0.01,0.031c0.002,0.016,0.002,0.029,0.002,0.037c0,0.009-0.001,0.03-0.007,0.056c-0.008,0.012-0.034,0.049-0.073,0.098C-4.745-1.655-4.788-1.598-4.84-1.533c-0.049,0.066-0.098,0.128-0.148,0.189c-0.049,0.061-0.09,0.109-0.116,0.139c-0.014,0.017-0.043,0.056-0.094,0.108c-0.05,0.056-0.109,0.12-0.174,0.194c-0.067,0.078-0.139,0.155-0.21,0.238c-0.077,0.081-0.146,0.158-0.21,0.232C-5.858-0.36-5.912-0.298-5.965-0.243c-0.05,0.054-0.081,0.092-0.096,0.108c-0.026,0.037-0.06,0.08-0.105,0.131C-6.208,0.05-6.249,0.103-6.289,0.15c-0.037,0.054-0.082,0.116-0.134,0.194l0.362,0.423h1.309c0.01,0,0.032,0.021,0.062,0.064c0.033,0.049,0.052,0.083,0.06,0.111c0,0.006,0.002,0.014,0.004,0.029c0.002,0.012,0.002,0.022,0.002,0.033c0,0.008-0.001,0.027-0.007,0.054c-0.008,0.023-0.027,0.051-0.06,0.078c-0.03,0.032-0.051,0.047-0.062,0.047h-4.295c-0.008,0-0.028-0.015-0.057-0.047C-9.133,1.109-9.15,1.085-9.155,1.074c-0.003-0.01-0.006-0.024-0.01-0.035C-9.167,1.025-9.169,1.012-9.169,1.004z"/>
                                <path fill="#FFFFFF"  d="M-7.014-2.733l-0.839-0.839v-1.543l0.839-0.839H-6v2.652c0.014,0,0.042,0.006,0.082,0.018c0.042,0.016,0.084,0.029,0.127,0.044c0.044,0.013,0.085,0.021,0.126,0.032c0.042,0.009,0.067,0.009,0.082,0C-5.542-3.227-5.49-3.258-5.43-3.308c0.062-0.046,0.122-0.095,0.178-0.146c0.057-0.05,0.105-0.099,0.147-0.141c0.04-0.049,0.06-0.077,0.06-0.09v-1.431c0-0.007,0.025-0.029,0.068-0.061c0.045-0.028,0.082-0.051,0.111-0.064h0.06h0.055c0.023,0.008,0.051,0.033,0.078,0.06C-4.643-5.147-4.63-5.123-4.63-5.116v1.543l-0.838,0.839H-7.014z M-6.61-5.557c-0.032,0.004-0.067,0.015-0.108,0.026c-0.037,0.006-0.073,0.017-0.109,0.029C-6.861-5.49-6.885-5.483-6.898-5.481C-6.933-5.456-6.98-5.422-7.035-5.376C-7.089-5.331-7.14-5.282-7.193-5.233c-0.049,0.054-0.09,0.103-0.129,0.145C-7.357-5.04-7.377-5.015-7.377-5.002v1.317c0,0.013,0.02,0.041,0.055,0.09c0.039,0.042,0.081,0.091,0.129,0.141c0.053,0.051,0.104,0.1,0.158,0.146c0.055,0.05,0.102,0.081,0.136,0.099C-6.885-3.2-6.861-3.19-6.827-3.181c0.036,0.011,0.072,0.021,0.109,0.028c0.041,0.013,0.076,0.021,0.108,0.03c0.034,0.005,0.061,0.009,0.073,0.009v-2.454C-6.55-5.569-6.576-5.566-6.61-5.557z"/>
                                <path fill="#FFFFFF"  d="M-3.346-7.948c-0.008,0-0.023,0-0.042,0c-0.014,0-0.021-0.001-0.021-0.006c-0.014-0.009-0.035-0.025-0.067-0.057c-0.032-0.031-0.049-0.048-0.056-0.056C-3.535-8.082-3.542-8.12-3.553-8.18c-0.006-0.058-0.018-0.122-0.029-0.188c-0.011-0.068-0.022-0.133-0.034-0.19c-0.011-0.059-0.02-0.096-0.03-0.113c0-0.004-0.015-0.026-0.043-0.063c-0.031-0.037-0.065-0.083-0.104-0.137c-0.039-0.051-0.078-0.101-0.115-0.151c-0.04-0.05-0.072-0.09-0.1-0.123c-0.014-0.019-0.035-0.042-0.064-0.072c-0.03-0.03-0.046-0.045-0.052-0.045c-0.014-0.003-0.041-0.003-0.083,0c-0.04,0.005-0.082,0.013-0.125,0.02c-0.043,0.004-0.085,0.011-0.127,0.016c-0.04,0.003-0.068,0.005-0.082,0.005v1.747c0,0.004-0.015,0.023-0.048,0.06C-4.62-7.378-4.657-7.335-4.703-7.281c-0.042,0.053-0.093,0.104-0.141,0.156C-4.891-7.075-4.932-7.03-4.963-7c-0.021,0.028-0.053,0.062-0.095,0.104c-0.041,0.04-0.078,0.08-0.115,0.119C-5.209-6.74-5.257-6.69-5.315-6.637h-2.271c-0.01,0-0.029-0.017-0.062-0.045c-0.032-0.029-0.05-0.051-0.055-0.061C-7.706-6.755-7.711-6.767-7.714-6.78c0-0.012-0.002-0.023-0.002-0.037c0-0.009,0.002-0.029,0.006-0.057c0.013-0.032,0.03-0.064,0.062-0.113c0.033-0.043,0.052-0.066,0.062-0.066h2.032c0.008-0.015,0.028-0.044,0.057-0.089c0.03-0.052,0.05-0.08,0.057-0.097c0.015-0.017,0.039-0.044,0.073-0.092c0.033-0.041,0.069-0.092,0.107-0.144c0.041-0.05,0.079-0.1,0.112-0.144c0.034-0.048,0.056-0.08,0.07-0.095v-1.609h-2.508c-0.004,0-0.025-0.025-0.059-0.07c-0.036-0.051-0.053-0.085-0.066-0.106c0-0.007,0-0.017-0.003-0.028c0-0.016-0.002-0.026-0.002-0.035c0-0.01,0.002-0.032,0.006-0.064c0.013-0.017,0.03-0.039,0.062-0.071c0.033-0.03,0.052-0.043,0.062-0.043h3.701c0.005,0,0.022,0.011,0.05,0.041c0.032,0.026,0.064,0.058,0.101,0.094c0.038,0.036,0.074,0.077,0.109,0.118c0.041,0.038,0.071,0.076,0.094,0.103c0.027,0.025,0.061,0.068,0.1,0.117c0.04,0.051,0.078,0.104,0.116,0.156c0.04,0.049,0.073,0.091,0.101,0.136c0.032,0.039,0.045,0.062,0.045,0.068c0,0.005,0.001,0.021,0.004,0.056c0.006,0.034,0.01,0.075,0.01,0.12c0.004,0.047,0.007,0.09,0.008,0.132C-3.144-8.554-3.141-8.52-3.141-8.49c0,0.017-0.003,0.044-0.005,0.09C-3.147-8.362-3.15-8.321-3.154-8.276c0,0.042-0.004,0.084-0.01,0.128c-0.003,0.036-0.004,0.066-0.004,0.082c-0.009,0.008-0.029,0.024-0.058,0.059c-0.029,0.032-0.051,0.051-0.065,0.053c0,0.005-0.008,0.006-0.021,0.006C-3.327-7.948-3.338-7.948-3.346-7.948z"/>
                                <path fill="#FFFFFF"  d="M-7.014-10.422l-0.839-0.838v-1.548l0.839-0.839H-6v2.653c0.014,0,0.042,0.006,0.082,0.02c0.042,0.015,0.084,0.028,0.127,0.042c0.044,0.013,0.085,0.024,0.126,0.032c0.042,0.011,0.067,0.011,0.082,0c0.041-0.017,0.092-0.05,0.152-0.096c0.062-0.051,0.122-0.098,0.178-0.148c0.057-0.053,0.105-0.1,0.147-0.145c0.04-0.045,0.06-0.075,0.06-0.088v-1.433c0-0.009,0.025-0.027,0.068-0.055c0.045-0.032,0.082-0.052,0.111-0.067h0.06h0.055c0.023,0.01,0.051,0.03,0.078,0.063c0.031,0.03,0.044,0.05,0.044,0.059v1.548l-0.838,0.838H-7.014z M-6.61-13.247c-0.032,0.007-0.067,0.014-0.108,0.025c-0.037,0.009-0.073,0.018-0.109,0.029c-0.034,0.013-0.058,0.019-0.071,0.026c-0.034,0.021-0.082,0.056-0.136,0.101c-0.054,0.043-0.105,0.094-0.158,0.147c-0.049,0.051-0.09,0.097-0.129,0.142c-0.035,0.043-0.055,0.072-0.055,0.085v1.315c0,0.013,0.02,0.042,0.055,0.088c0.039,0.044,0.081,0.092,0.129,0.145c0.053,0.05,0.104,0.097,0.158,0.148c0.055,0.045,0.102,0.079,0.136,0.096c0.014,0.011,0.037,0.02,0.071,0.03c0.036,0.009,0.072,0.019,0.109,0.03c0.041,0.011,0.076,0.021,0.108,0.025c0.034,0.009,0.061,0.013,0.073,0.013v-2.455C-6.55-13.256-6.576-13.253-6.61-13.247z"/>
                                <path fill="#FFFFFF"  d="M-4.806-14.334c-0.008,0-0.029-0.003-0.06-0.006c-0.029-0.01-0.065-0.03-0.111-0.062c-0.043-0.031-0.068-0.052-0.068-0.061v-2.024c0-0.004-0.014-0.023-0.047-0.054c-0.029-0.032-0.07-0.069-0.116-0.106c-0.044-0.039-0.093-0.076-0.141-0.112c-0.047-0.036-0.078-0.062-0.093-0.072c-0.016-0.011-0.033-0.018-0.048-0.021c-0.016-0.002-0.027-0.003-0.039-0.003c-0.007,0-0.025,0.003-0.053,0.007c-0.015,0.014-0.038,0.036-0.075,0.068c-0.036,0.032-0.075,0.069-0.113,0.106c-0.038,0.037-0.075,0.075-0.105,0.111s-0.057,0.062-0.069,0.076c0,0.05-0.005,0.137-0.017,0.263c-0.012,0.124-0.022,0.256-0.034,0.395c-0.011,0.14-0.023,0.271-0.035,0.395c-0.008,0.126-0.02,0.212-0.031,0.258c-0.002,0.012-0.019,0.05-0.05,0.111c-0.03,0.061-0.054,0.104-0.073,0.126c-0.007,0.014-0.029,0.041-0.061,0.084c-0.031,0.043-0.065,0.089-0.104,0.141c-0.034,0.048-0.07,0.099-0.108,0.146c-0.036,0.048-0.062,0.084-0.082,0.106c-0.012,0.017-0.036,0.043-0.068,0.075c-0.029,0.03-0.05,0.048-0.053,0.048c-0.004,0.003-0.033,0.006-0.083,0.008c-0.049,0.001-0.085,0.004-0.108,0.004s-0.056-0.003-0.099-0.004c-0.043-0.002-0.064-0.005-0.064-0.008c-0.003-0.005-0.023-0.024-0.055-0.052c-0.03-0.031-0.067-0.062-0.106-0.099s-0.075-0.075-0.114-0.117c-0.036-0.039-0.063-0.071-0.089-0.095c-0.025-0.029-0.061-0.071-0.101-0.123c-0.04-0.049-0.077-0.102-0.116-0.152c-0.036-0.052-0.069-0.099-0.094-0.137c-0.029-0.039-0.042-0.06-0.042-0.064v-2.147c0-0.01,0.016-0.03,0.046-0.058c0.03-0.031,0.055-0.051,0.069-0.059c0-0.005,0.012-0.007,0.029-0.007c0.012,0,0.025,0,0.034,0c0.01,0,0.021,0,0.035,0c0.013,0,0.022,0.002,0.025,0.007c0.025,0.007,0.061,0.03,0.107,0.062c0.048,0.029,0.072,0.049,0.072,0.055v1.907l0.415,0.478c0.01-0.004,0.028-0.019,0.053-0.039c0.023-0.023,0.05-0.049,0.072-0.074c0.028-0.024,0.051-0.051,0.072-0.074c0.027-0.025,0.038-0.042,0.042-0.05c0.02-0.027,0.042-0.064,0.071-0.124c0.031-0.059,0.046-0.098,0.051-0.116c0.011-0.055,0.021-0.149,0.032-0.282c0.011-0.134,0.022-0.275,0.032-0.43c0.015-0.151,0.024-0.296,0.034-0.434c0.016-0.135,0.018-0.23,0.018-0.286c0.012-0.009,0.033-0.028,0.063-0.058c0.032-0.03,0.052-0.048,0.061-0.057c0.023-0.019,0.058-0.046,0.105-0.082c0.049-0.037,0.096-0.075,0.147-0.113c0.051-0.04,0.096-0.074,0.14-0.107c0.042-0.031,0.071-0.05,0.084-0.059c0.01-0.005,0.027-0.013,0.048-0.025c0.023-0.012,0.048-0.025,0.07-0.037c0.026-0.014,0.051-0.026,0.073-0.039c0.023-0.01,0.041-0.016,0.048-0.016c0-0.005,0.009-0.007,0.027-0.007c0.013,0,0.025,0,0.035,0c0.007,0,0.019,0,0.034,0c0.011,0,0.018,0.002,0.018,0.007c0.012,0,0.027,0.006,0.051,0.016c0.021,0.012,0.046,0.025,0.069,0.039c0.027,0.012,0.049,0.025,0.073,0.037c0.024,0.013,0.041,0.02,0.047,0.025c0.013,0.009,0.043,0.028,0.085,0.059c0.044,0.033,0.091,0.067,0.14,0.107c0.052,0.038,0.1,0.076,0.147,0.113c0.048,0.036,0.083,0.063,0.105,0.082c0.023,0.012,0.051,0.034,0.078,0.063c0.031,0.031,0.044,0.048,0.044,0.052v2.386c0,0.009-0.013,0.03-0.044,0.061c-0.026,0.032-0.047,0.051-0.06,0.055c-0.011,0.004-0.025,0.008-0.039,0.01C-4.784-14.334-4.796-14.334-4.806-14.334z"/>
                            </g>
                            <g >
                                <path fill="#FFFFFF"  d="M-8.584,9.572c0-0.008,0.003-0.029,0.006-0.064c0.011-0.013,0.032-0.03,0.06-0.062c0.029-0.029,0.049-0.043,0.056-0.051c0.007-0.008,0.017-0.01,0.029-0.01c0.014-0.003,0.023-0.003,0.034-0.003c0.01,0,0.021,0,0.035,0.003c0.013,0,0.021,0,0.027,0c0.017,0.039,0.061,0.086,0.124,0.148C-8.15,9.597-8.08,9.657-8.006,9.721c0.077,0.067,0.149,0.123,0.223,0.173c0.072,0.048,0.128,0.079,0.164,0.096c0.003,0.003,0.032,0.009,0.081,0.013c0.052,0.003,0.109,0.007,0.172,0.011c0.064,0.01,0.128,0.01,0.193,0.014c0.062,0.005,0.116,0.005,0.156,0.005c0.023,0,0.064,0,0.12-0.005c0.058-0.004,0.117-0.004,0.179-0.014c0.061-0.004,0.119-0.008,0.176-0.011c0.057-0.004,0.098-0.01,0.12-0.013c0.015-0.017,0.041-0.036,0.075-0.07c0.037-0.028,0.075-0.062,0.115-0.107c0.037-0.035,0.073-0.073,0.106-0.105c0.03-0.041,0.054-0.067,0.066-0.076c0.015-0.021,0.037-0.059,0.067-0.123c0.028-0.057,0.046-0.096,0.051-0.123c0.004-0.003,0.007-0.024,0.008-0.072C-5.932,9.269-5.93,9.233-5.93,9.21c0-0.026-0.002-0.06-0.004-0.101c-0.001-0.046-0.004-0.074-0.008-0.078c0-0.019-0.018-0.059-0.048-0.117c-0.032-0.057-0.056-0.1-0.071-0.12c-0.021-0.032-0.052-0.073-0.09-0.123c-0.04-0.049-0.078-0.096-0.118-0.14c-0.038-0.046-0.071-0.082-0.102-0.12C-6.4,8.384-6.417,8.368-6.422,8.368h-1.312l-0.844-0.896V6.63l0.844-0.835h1.674c0.009,0,0.024,0.016,0.052,0.047c0.03,0.03,0.053,0.055,0.066,0.072c0.017,0.021,0.045,0.054,0.081,0.102c0.037,0.052,0.075,0.097,0.114,0.149c0.039,0.05,0.071,0.097,0.104,0.138C-5.61,6.349-5.589,6.377-5.58,6.391c0.01,0.023,0.028,0.063,0.062,0.122c0.032,0.062,0.05,0.098,0.054,0.117c0.005,0.005,0.008,0.013,0.008,0.033c0,0.02,0,0.025,0,0.036c0,0.009,0,0.018,0,0.033c0,0.018-0.003,0.021-0.008,0.021c-0.01,0.016-0.028,0.035-0.059,0.069C-5.552,6.849-5.57,6.865-5.58,6.869c-0.003,0.005-0.024,0.007-0.058,0.012c-0.034,0-0.061,0.004-0.078,0.004c-0.013,0-0.034-0.004-0.059-0.004c-0.024-0.005-0.039-0.007-0.046-0.012l-0.601-0.595h-1.196c-0.023,0-0.058,0.019-0.101,0.057c-0.047,0.033-0.094,0.081-0.146,0.128c-0.049,0.049-0.097,0.103-0.143,0.156c-0.044,0.058-0.075,0.102-0.088,0.138c0,0.008-0.003,0.019-0.007,0.039c-0.003,0.023-0.007,0.053-0.011,0.084C-8.118,6.91-8.118,6.941-8.122,6.972C-8.124,7.002-8.125,7.03-8.125,7.05c0,0.02,0.001,0.047,0.003,0.079c0.004,0.034,0.004,0.064,0.006,0.098c0.004,0.031,0.008,0.059,0.011,0.081c0.003,0.032,0.007,0.045,0.007,0.048c0.018,0.042,0.05,0.089,0.092,0.151c0.043,0.057,0.09,0.114,0.145,0.174c0.053,0.056,0.102,0.105,0.146,0.145c0.045,0.043,0.079,0.065,0.096,0.065h1.558c0.011,0.008,0.031,0.042,0.059,0.089c0.028,0.049,0.05,0.081,0.06,0.091c0.007,0.018,0.031,0.048,0.068,0.093c0.037,0.047,0.075,0.095,0.116,0.149c0.042,0.049,0.08,0.099,0.114,0.145c0.034,0.054,0.055,0.08,0.064,0.097c0.01,0.013,0.021,0.03,0.033,0.054c0.015,0.022,0.029,0.048,0.036,0.075c0.015,0.025,0.025,0.051,0.033,0.073c0.01,0.021,0.014,0.031,0.014,0.038c0,0.001,0.003,0.021,0.005,0.058c0.002,0.033,0.003,0.068,0.007,0.116C-5.451,9.012-5.451,9.054-5.451,9.1c0,0.047,0,0.084,0,0.11s0,0.062,0,0.105c0,0.052,0,0.096-0.001,0.14c-0.004,0.049-0.005,0.087-0.007,0.116C-5.461,9.606-5.464,9.619-5.464,9.63c0,0.009-0.015,0.045-0.046,0.108c-0.027,0.064-0.05,0.105-0.069,0.128c-0.009,0.012-0.03,0.042-0.063,0.086c-0.032,0.043-0.065,0.089-0.104,0.138c-0.04,0.049-0.078,0.1-0.114,0.147c-0.036,0.052-0.064,0.085-0.081,0.107c-0.013,0.021-0.036,0.05-0.066,0.077c-0.028,0.027-0.043,0.047-0.052,0.047h-1.674c-0.562-0.564-0.844-0.85-0.845-0.863C-8.584,9.592-8.584,9.579-8.584,9.572z"/>
                            </g>
                            <g >
                                <path fill="#FFFFFF"  d="M26.816,8.216v0.678h-2.585V8.216H26.816z"/>
                            </g>
                            <g >
                                <rect width="5.578" x="-0.054" y="5.505" fill="#231F20"  height="6.433"/>
                                <rect width="5.578" x="6.925" y="5.505" fill="#231F20"  height="6.433"/>
                                <rect width="5.579" x="13.906" y="5.505" fill="#231F20"  height="6.433"/>
                            </g>
                            <g >
                                <rect width="2.072" x="1.379" y="8.721" fill="#B7B7B7"  height="12.942"/>
                                <rect width="2.073" x="8.359" y="8.721" fill="#B7B7B7"  height="12.942"/>
                                <rect width="2.073" x="15.34" y="8.721" fill="#B7B7B7"  height="12.942"/>
                            </g>
                            <g >
                                <g >
                                    <path fill="#FFFFFF"  d="M4.133,3.038L3.54,2.443V1.26c0-0.005,0.009-0.013,0.028-0.036c0.019-0.02,0.043-0.041,0.07-0.069C3.666,1.13,3.691,1.105,3.72,1.077c0.033-0.03,0.053-0.049,0.075-0.068c0.016-0.015,0.044-0.037,0.083-0.071c0.043-0.033,0.081-0.063,0.126-0.102C4.048,0.801,4.09,0.767,4.128,0.735c0.043-0.03,0.07-0.051,0.086-0.064c-0.45-0.508-0.678-0.765-0.68-0.775c0-0.007,0-0.019,0-0.024c0-0.006,0-0.018,0.004-0.043c0.006-0.01,0.017-0.025,0.042-0.044c0.02-0.02,0.035-0.037,0.042-0.042c0.005,0,0.013,0,0.022-0.003c0.006-0.001,0.016-0.001,0.023-0.001s0.019,0.001,0.039,0.005l1.014,0.93h0.805v-0.843c0-0.007,0.015-0.021,0.048-0.042C5.607-0.237,5.633-0.253,5.65-0.259c0.005,0,0.012,0,0.021-0.003C5.68-0.264,5.688-0.264,5.696-0.264c0.004,0,0.019,0.001,0.039,0.005c0.016,0.006,0.033,0.022,0.054,0.044C5.81-0.193,5.821-0.179,5.821-0.172v3.21H4.133z M5.481,1.092c-0.786,0-1.193,0.013-1.221,0.029C4.233,1.14,4.201,1.164,4.167,1.192C4.131,1.22,4.095,1.247,4.057,1.275c-0.036,0.03-0.068,0.053-0.092,0.071C3.95,1.361,3.933,1.375,3.909,1.392C3.888,1.416,3.875,1.426,3.875,1.431v0.931L4.215,2.7h1.267V1.092z"/>
                                    <path fill="#FFFFFF"  d="M3.053-0.135c0,0.007-0.002,0.023-0.005,0.044c-0.007,0.01-0.021,0.025-0.042,0.049C2.983-0.023,2.968-0.008,2.96-0.007C2.947-0.001,2.927,0.007,2.896,0.018C2.863,0.027,2.829,0.035,2.793,0.046c-0.038,0.006-0.071,0.015-0.105,0.02c-0.031,0.01-0.054,0.013-0.065,0.013v2.284C2.631,2.351,2.647,2.34,2.671,2.323c0.025-0.017,0.051-0.031,0.075-0.051c0.027-0.02,0.052-0.036,0.081-0.049C2.85,2.206,2.868,2.197,2.879,2.191c0.003-0.001,0.007-0.004,0.019-0.004c0.01,0,0.019,0,0.022,0c0.009,0,0.016,0,0.026,0c0.009,0,0.015,0.002,0.015,0.004c0.008,0.006,0.022,0.018,0.046,0.041c0.02,0.018,0.035,0.033,0.042,0.045c0,0,0,0.01,0.003,0.018c0,0.01,0.002,0.016,0.002,0.024c0,0.004-0.002,0.014-0.002,0.023c-0.003,0.009-0.003,0.02-0.003,0.02C2.65,2.753,2.449,2.95,2.44,2.952C2.433,2.955,2.428,2.955,2.42,2.955c-0.008,0-0.016,0-0.026-0.002C2.382,2.95,2.375,2.95,2.371,2.95c-0.02-0.006-0.045-0.021-0.076-0.04C2.259,2.889,2.246,2.876,2.246,2.869V0.078c-0.014,0-0.036-0.002-0.074-0.013c-0.038-0.004-0.079-0.013-0.117-0.02C2.01,0.035,1.973,0.027,1.937,0.018c-0.034-0.011-0.06-0.02-0.073-0.025C1.859-0.008,1.842-0.023,1.824-0.042C1.797-0.066,1.785-0.081,1.777-0.091v-0.044v-0.038c0.008-0.015,0.021-0.034,0.047-0.053c0.019-0.021,0.035-0.034,0.041-0.034H2.96c0.005,0,0.02,0.012,0.042,0.034c0.021,0.019,0.036,0.034,0.04,0.043c0.004,0.006,0.006,0.017,0.009,0.027C3.051-0.147,3.053-0.14,3.053-0.135z"/>
                                </g>
                            </g>
                            <g >
                                <rect width="8.252" x="7.484" y="-0.955" fill="#E0E0E0"  height="3.597"/>
                                <rect width="5.573" x="8.824" y="-0.955"  height="3.597"/>
                            </g>
                            <g  transform="matrix(-0.5489 -0.8359 0.8359 -0.5489 25.4234 -14.106)">
                                <g >
                                    <g >
                                        <g >
                                            <rect width="25.067" x="-3.628" y="-20.486" fill="#F1F2EC"  height="13.146"/>
                                        </g>
                                    </g>
                                </g>
                            </g>
                            <g  transform="matrix(-0.5487 -0.836 0.836 -0.5487 25.4373 -13.9222)">
                                <g >
                                    <g >
                                        <g >
                                            <rect width="15.484" x="1.219" y="-20.399" fill="#00D2FF"  height="13.145"/>
                                        </g>
                                    </g>
                                </g>
                            </g>
                        </g>
                    </g>
                </g>
            </g>
        </g>
    </g>
</svg>
