<?xml version='1.0' encoding='UTF-8' standalone='no'?>
<svg
  xmlns:inkscape="http://www.inkscape.org/namespaces/inkscape"
  xmlns:sodipodi="http://sodipodi.sourceforge.net/DTD/sodipodi-0.dtd"
  xmlns="http://www.w3.org/2000/svg"
  xmlns:svg="http://www.w3.org/2000/svg"
  width="0.20999998in"
  xml:space="preserve"
  y="0px"
  viewBox="0 0 209.99998 329.99999"
  x="0px"
  version="1.1"
  height="0.33000001in"
  gorn="0"
  id="svg2"
  sodipodi:docname="svg.schematic.Screw-terminal-3-pins_5_schematic.svg"
  inkscape:version="1.1.2 (0a00cf5339, 2022-02-04, custom)">
  <sodipodi:namedview
    id="namedview23"
    pagecolor="#ffffff"
    bordercolor="#666666"
    borderopacity="1.0"
    inkscape:pageshadow="2"
    inkscape:pageopacity="0.0"
    inkscape:pagecheckerboard="0"
    inkscape:document-units="in"
    showgrid="false"
    inkscape:zoom="8.7088195"
    inkscape:cx="-4.1911536"
    inkscape:cy="21.070594"
    inkscape:window-width="1440"
    inkscape:window-height="810"
    inkscape:window-x="26"
    inkscape:window-y="26"
    inkscape:window-maximized="0"
    inkscape:current-layer="svg2"
  />
  <defs
    id="defs24">
  </defs>
  <desc
    id="desc2">
    <referenceFile>screw-terminal-OSTTA034163_1_schematic.svg</referenceFile>
  </desc>
  <g
    id="schematic">
    <rect
      id="rect60"
      width="120"
      height="320.00003"
      x="84.999992"
      y="4.9999852"
      fill="none"
      stroke="#000000"
      stroke-width="9.99997"
    />
    <line
      stroke-linejoin="round"
      stroke-linecap="round"
      y1="271.29169"
      x2="166.02859"
      y2="258"
      stroke-width="10"
      stroke="#000000"
      fill="none"
      x1="129.50999"
      gorn="0.0.0"
      id="line146"
    />
    <line
      stroke-linejoin="round"
      stroke-linecap="round"
      y1="171.2917"
      x2="166.02859"
      y2="158.00002"
      stroke-width="10"
      stroke="#000000"
      fill="none"
      x1="129.50999"
      gorn="0.0.0"
      id="line144"
    />
    <line
      stroke-linejoin="round"
      stroke-linecap="round"
      y1="71.645851"
      x2="166.02859"
      y2="58.354168"
      stroke-width="10"
      stroke="#000000"
      fill="none"
      x1="129.50999"
      gorn="0.0.0"
      id="line142"
    />
    <circle
      stroke-width="10"
      cy="65.363785"
      cx="145.35609"
      stroke="#000000"
      r="40.277782"
      fill="none"
      id="circle6"
    />
    <circle
      stroke-width="10"
      cy="165.3638"
      cx="145.35609"
      stroke="#000000"
      r="40.277782"
      fill="none"
      id="circle10"
    />
    <circle
      stroke-width="10"
      cy="265.36383"
      cx="145.35609"
      stroke="#000000"
      r="40.277782"
      fill="none"
      id="circle14"
    />
    <line
      stroke-linejoin="round"
      stroke-linecap="round"
      y1="65.224899"
      x2="100.43443"
      y2="65.224899"
      stroke-width="10"
      stroke="#555555"
      fill="none"
      x1="5"
      gorn="0.0.0"
      id="connector0pin"
    />
    <rect
      width="10"
      y="60.502689"
      x="0.21722263"
      height="10"
      id="connector0terminal"
      fill="none"
      stroke="none"
      stroke-width="0"
    />
    <line
      stroke-linecap="round"
      y1="165.086"
      x2="100.09612"
      y2="165.086"
      stroke-width="10"
      stroke="#555555"
      fill="none"
      x1="5.0783162"
      gorn="0.0.3"
      id="connector1pin"
    />
    <rect
      width="10"
      y="160.50269"
      x="0.21722263"
      height="10"
      id="connector1terminal"
      fill="none"
      stroke="none"
      stroke-width="0"
    />
    <line
      stroke-linejoin="round"
      stroke-linecap="round"
      y1="265.08603"
      x2="100.09612"
      y2="265.08603"
      stroke-width="10"
      stroke="#555555"
      fill="none"
      x1="5.0783162"
      id="connector2pin"
    />
    <rect
      width="10"
      y="260.50272"
      x="0.21722263"
      height="10"
      id="connector2terminal"
      fill="none"
      stroke="none"
      stroke-width="0"
    />
  </g>
</svg>
