<?xml version="1.0" encoding="utf-8"?>
<!-- Generator: Adobe Illustrator 16.0.0, SVG Export Plug-In . SVG Version: 6.00 Build 0)  -->
<!DOCTYPE svg PUBLIC "-//W3C//DTD SVG 1.1//EN" "http://www.w3.org/Graphics/SVG/1.1/DTD/svg11.dtd">
<svg version="1.1" id="Layer_1" xmlns="http://www.w3.org/2000/svg" xmlns:xlink="http://www.w3.org/1999/xlink" x="0px" y="0px"
	 width="34.516px" height="64.031px" viewBox="0 0 34.516 64.031" enable-background="new 0 0 34.516 64.031" xml:space="preserve">
<g id="silkscreen">
	
		<rect x="0.25" y="0.126" fill="none" stroke="#000000" stroke-width="0.5" stroke-miterlimit="10" width="34.016" height="59.528"/>
	<line fill="none" stroke="#000000" stroke-width="0.75" stroke-miterlimit="10" x1="10.057" y1="59.654" x2="10.057" y2="63.906"/>
	<line fill="none" stroke="#000000" stroke-width="0.75" stroke-miterlimit="10" x1="24.457" y1="59.654" x2="24.457" y2="63.906"/>
	
		<rect x="0.251" y="0.126" fill="none" stroke="#000000" stroke-width="0.5" stroke-miterlimit="10" width="17.008" height="59.526"/>
	<g>
		<line fill="none" stroke="#000000" stroke-width="0.5" stroke-miterlimit="10" x1="17.259" y1="0.126" x2="0.25" y2="17.135"/>
		<line fill="none" stroke="#000000" stroke-width="0.5" stroke-miterlimit="10" x1="17.259" y1="4.707" x2="0.25" y2="21.715"/>
		<line fill="none" stroke="#000000" stroke-width="0.5" stroke-miterlimit="10" x1="17.259" y1="9.287" x2="0.25" y2="26.296"/>
		<line fill="none" stroke="#000000" stroke-width="0.5" stroke-miterlimit="10" x1="17.259" y1="13.867" x2="0.25" y2="30.876"/>
		<line fill="none" stroke="#000000" stroke-width="0.5" stroke-miterlimit="10" x1="17.259" y1="18.448" x2="0.25" y2="35.457"/>
		<line fill="none" stroke="#000000" stroke-width="0.5" stroke-miterlimit="10" x1="17.259" y1="23.028" x2="0.25" y2="40.037"/>
		<line fill="none" stroke="#000000" stroke-width="0.5" stroke-miterlimit="10" x1="17.259" y1="27.609" x2="0.25" y2="44.617"/>
		<line fill="none" stroke="#000000" stroke-width="0.5" stroke-miterlimit="10" x1="17.259" y1="32.189" x2="0.25" y2="49.198"/>
		<line fill="none" stroke="#000000" stroke-width="0.5" stroke-miterlimit="10" x1="17.259" y1="36.77" x2="0.25" y2="53.779"/>
		<line fill="none" stroke="#000000" stroke-width="0.5" stroke-miterlimit="10" x1="17.259" y1="41.351" x2="0.25" y2="58.359"/>
		<line fill="none" stroke="#000000" stroke-width="0.5" stroke-miterlimit="10" x1="17.259" y1="45.931" x2="3.538" y2="59.652"/>
		<line fill="none" stroke="#000000" stroke-width="0.5" stroke-miterlimit="10" x1="17.259" y1="50.512" x2="8.116" y2="59.654"/>
		<line fill="none" stroke="#000000" stroke-width="0.5" stroke-miterlimit="10" x1="17.259" y1="55.092" x2="12.688" y2="59.652"/>
		<line fill="none" stroke="#000000" stroke-width="0.5" stroke-miterlimit="10" x1="3.517" y1="0.126" x2="0.251" y2="3.393"/>
		<line fill="none" stroke="#000000" stroke-width="0.5" stroke-miterlimit="10" x1="8.098" y1="0.125" x2="0.251" y2="7.974"/>
		<line fill="none" stroke="#000000" stroke-width="0.5" stroke-miterlimit="10" x1="12.678" y1="0.126" x2="0.251" y2="12.554"/>
	</g>
</g>
</svg>
