<?xml version='1.0' encoding='UTF-8' standalone='no'?>
<!-- Created with Inkscape (http://www.inkscape.org/) -->
<svg xmlns="http://www.w3.org/2000/svg" width="18.029995mm" viewBox="0 0 17.524282 17.443065" style="enable-background:new" gorn="0" id="svg8" version="1.1" height="17.946434mm" >
    <desc >
        <referenceFile >2KBP06Mbreadboard.svg</referenceFile>
    </desc>
    <defs id="defs2" >
        <clipPath id="clipPath3567"  clipPathUnits="userSpaceOnUse">
            <path style="clip-rule:evenodd" gorn="0.1.0.0" id="path3565" d="M 196.25,20.04 H 389.59 V 61.584 H 196.25 Z" />
        </clipPath>
        <linearGradient y1="0" gradientTransform="matrix(11.490783,0,0,11.490783,38.165417,95.619425)" x2="1" x1="0" gradientUnits="userSpaceOnUse" spreadMethod="pad" id="linearGradient4615"  y2="0">
            <stop style="stop-opacity:1;stop-color:#231f20" id="stop4607" offset="0" />
            <stop style="stop-opacity:1;stop-color:#5a5758" id="stop4609" offset="0.2921" />
            <stop style="stop-opacity:1;stop-color:#231f20" id="stop4611" offset="0.7528" />
            <stop style="stop-opacity:1;stop-color:#6a6868" id="stop4613" offset="1" />
        </linearGradient>
        <linearGradient y1="0" gradientTransform="matrix(2.5712913,11.999136,-11.999136,2.5712913,39.008556,84.567955)" x2="1" x1="0" gradientUnits="userSpaceOnUse" spreadMethod="pad" id="linearGradient4623"  y2="0">
            <stop style="stop-opacity:1;stop-color:#393637" id="stop4619" offset="0" />
            <stop style="stop-opacity:1;stop-color:#706e6e" id="stop4621" offset="1" />
        </linearGradient>
        <linearGradient y1="0" gradientTransform="matrix(-6.2317488,0.32660166,-0.32660166,-6.2317488,38.178117,97.971041)" x2="1" x1="0" gradientUnits="userSpaceOnUse" spreadMethod="pad" id="linearGradient4633"  y2="0">
            <stop style="stop-opacity:1;stop-color:#231f20" id="stop4627" offset="0" />
            <stop style="stop-opacity:1;stop-color:#656263" id="stop4629" offset="0.1348" />
            <stop style="stop-opacity:1;stop-color:#918f90" id="stop4631" offset="1" />
        </linearGradient>
        <linearGradient y1="0" gradientTransform="matrix(16.405401,0,0,16.405401,31.645978,95.822977)" x2="1" x1="0" gradientUnits="userSpaceOnUse" spreadMethod="pad" id="linearGradient4663"  y2="0">
            <stop style="stop-opacity:1;stop-color:#231f20" id="stop4653" offset="0" />
            <stop style="stop-opacity:1;stop-color:#6a6868" id="stop4655" offset="0.5449" />
            <stop style="stop-opacity:1;stop-color:#231f20" id="stop4657" offset="0.7247" />
            <stop style="stop-opacity:1;stop-color:#6a6868" id="stop4659" offset="0.7697" />
            <stop style="stop-opacity:1;stop-color:#231f20" id="stop4661" offset="1" />
        </linearGradient>
        <linearGradient y1="0" gradientTransform="matrix(16.40586,0,0,16.40586,31.645837,98.289952)" x2="1" x1="0" gradientUnits="userSpaceOnUse" spreadMethod="pad" id="linearGradient4677"  y2="0">
            <stop style="stop-opacity:1;stop-color:#231f20" id="stop4667" offset="0" />
            <stop style="stop-opacity:1;stop-color:#6a6868" id="stop4669" offset="0.5449" />
            <stop style="stop-opacity:1;stop-color:#231f20" id="stop4671" offset="0.7247" />
            <stop style="stop-opacity:1;stop-color:#6a6868" id="stop4673" offset="0.7697" />
            <stop style="stop-opacity:1;stop-color:#231f20" id="stop4675" offset="1" />
        </linearGradient>
        <linearGradient y1="0" gradientTransform="matrix(6.4928043,0,0,6.4928043,41.558434,95.822977)" x2="1" x1="0" gradientUnits="userSpaceOnUse" spreadMethod="pad" id="linearGradient4693"  y2="0">
            <stop style="stop-opacity:1;stop-color:#231f20" id="stop4681" offset="0" />
            <stop style="stop-opacity:1;stop-color:#706e6e" id="stop4683" offset="0.1742" />
            <stop style="stop-opacity:1;stop-color:#4f4c4c" id="stop4685" offset="0.6629" />
            <stop style="stop-opacity:1;stop-color:#231f20" id="stop4687" offset="0.9438" />
            <stop style="stop-opacity:1;stop-color:#656263" id="stop4689" offset="0.9944" />
            <stop style="stop-opacity:1;stop-color:#656263" id="stop4691" offset="1" />
        </linearGradient>
        <linearGradient y1="0" gradientTransform="matrix(10.065596,0,0,10.065596,31.645837,98.289952)" x2="1" x1="0" gradientUnits="userSpaceOnUse" spreadMethod="pad" id="linearGradient4709"  y2="0">
            <stop style="stop-opacity:1;stop-color:#231f20" id="stop4697" offset="0" />
            <stop style="stop-opacity:1;stop-color:#6a6868" id="stop4699" offset="0.6348" />
            <stop style="stop-opacity:1;stop-color:#231f20" id="stop4701" offset="0.7247" />
            <stop style="stop-opacity:1;stop-color:#6a6868" id="stop4703" offset="0.7697" />
            <stop style="stop-opacity:1;stop-color:#231f20" id="stop4705" offset="0.9719" />
            <stop style="stop-opacity:1;stop-color:#656263" id="stop4707" offset="1" />
        </linearGradient>
        <linearGradient y1="0" gradientTransform="matrix(2.2795,2.6445,2.6445,-2.2795,135.1569,567.5956)" x2="1" x1="0" gradientUnits="userSpaceOnUse" spreadMethod="pad" id="linearGradient4735"  y2="0">
            <stop style="stop-opacity:1;stop-color:#d8d8d8" id="stop4723" offset="0" />
            <stop style="stop-opacity:1;stop-color:#d8d8d8" id="stop4725" offset="0.2135" />
            <stop style="stop-opacity:1;stop-color:#5a5758" id="stop4727" offset="0.3202" />
            <stop style="stop-opacity:1;stop-color:#ffffff" id="stop4729" offset="0.5281" />
            <stop style="stop-opacity:1;stop-color:#918f90" id="stop4731" offset="0.7978" />
            <stop style="stop-opacity:1;stop-color:#918f90" id="stop4733" offset="1" />
        </linearGradient>
        <linearGradient y1="0" gradientTransform="matrix(2.3659,2.7702,2.7702,-2.3659,139.8887,579.4331)" x2="1" x1="0" gradientUnits="userSpaceOnUse" spreadMethod="pad" id="linearGradient4763"  y2="0">
            <stop style="stop-opacity:1;stop-color:#d8d8d8" id="stop4751" offset="0" />
            <stop style="stop-opacity:1;stop-color:#d8d8d8" id="stop4753" offset="0.2135" />
            <stop style="stop-opacity:1;stop-color:#5a5758" id="stop4755" offset="0.3202" />
            <stop style="stop-opacity:1;stop-color:#ffffff" id="stop4757" offset="0.5281" />
            <stop style="stop-opacity:1;stop-color:#918f90" id="stop4759" offset="0.7978" />
            <stop style="stop-opacity:1;stop-color:#918f90" id="stop4761" offset="1" />
        </linearGradient>
        <linearGradient y1="0" gradientTransform="matrix(2.3393,2.739,2.739,-2.3393,148.4337,587.3465)" x2="1" x1="0" gradientUnits="userSpaceOnUse" spreadMethod="pad" id="linearGradient4791"  y2="0">
            <stop style="stop-opacity:1;stop-color:#d8d8d8" id="stop4779" offset="0" />
            <stop style="stop-opacity:1;stop-color:#d8d8d8" id="stop4781" offset="0.2135" />
            <stop style="stop-opacity:1;stop-color:#5a5758" id="stop4783" offset="0.3202" />
            <stop style="stop-opacity:1;stop-color:#ffffff" id="stop4785" offset="0.5281" />
            <stop style="stop-opacity:1;stop-color:#918f90" id="stop4787" offset="0.7978" />
            <stop style="stop-opacity:1;stop-color:#918f90" id="stop4789" offset="1" />
        </linearGradient>
        <linearGradient y1="0" gradientTransform="matrix(2.3398,2.7396,2.7396,-2.3398,157.3016,595.4432)" x2="1" x1="0" gradientUnits="userSpaceOnUse" spreadMethod="pad" id="linearGradient4819"  y2="0">
            <stop style="stop-opacity:1;stop-color:#d8d8d8" id="stop4807" offset="0" />
            <stop style="stop-opacity:1;stop-color:#d8d8d8" id="stop4809" offset="0.2135" />
            <stop style="stop-opacity:1;stop-color:#5a5758" id="stop4811" offset="0.3202" />
            <stop style="stop-opacity:1;stop-color:#ffffff" id="stop4813" offset="0.5281" />
            <stop style="stop-opacity:1;stop-color:#918f90" id="stop4815" offset="0.7978" />
            <stop style="stop-opacity:1;stop-color:#918f90" id="stop4817" offset="1" />
        </linearGradient>
        <filter style="color-interpolation-filters:sRGB" id="filter3503" >
            <feBlend in2="BackgroundImage" id="feBlend3505"  mode="screen"/>
        </filter>
    </defs>
    <metadata id="metadata5" >
        <rdf:RDF xmlns:rdf="http://www.w3.org/1999/02/22-rdf-syntax-ns#">
            <cc:Work rdf:about="" xmlns:rdf="http://www.w3.org/1999/02/22-rdf-syntax-ns#" xmlns:cc="http://creativecommons.org/ns#">
                <dc:format xmlns:dc="http://purl.org/dc/elements/1.1/">image/svg+xml</dc:format>
                <dc:type xmlns:rdf="http://www.w3.org/1999/02/22-rdf-syntax-ns#" rdf:resource="http://purl.org/dc/dcmitype/StillImage" xmlns:dc="http://purl.org/dc/elements/1.1/"/>
                <dc:title xmlns:dc="http://purl.org/dc/elements/1.1/"/>
            </cc:Work>
        </rdf:RDF>
    </metadata>
    <g transform="translate(-66.86826,-87.760595)" >
        <g >
            <g >
                <g >
                    <g >
                        <g style="filter:url(#filter3503)" gorn="0.3.0.0.0.0.0" id="layer1" >
                            <g gorn="0.3.0.0.0.0.0.0" id="schematic" >
                                <path stroke-width="0.0705412" stroke="#b3b3b3" fill="none" style="stroke-linecap:butt;stroke-linejoin:miter;" gorn="0.3.0.0.0.0.0.0.0" id="connector0pin" d="m 69.458511,100.22587 v 4.93751"  stroke-opacity="1"/>
                                <rect stroke-width="0" width="0.000141082" stroke="none" fill="none" gorn="0.3.0.0.0.0.0.0.1" y="105.194" id="connector0terminal" x="69.4584" height="0.0100161" />
                                <path stroke-width="0.0705412" stroke="#b3b3b3" fill="none" style="stroke-linecap:butt;stroke-linejoin:miter;" gorn="0.3.0.0.0.0.0.0.2" id="connector5pin" d="m 73.561366,100.26615 v 4.93751"  stroke-opacity="1"/>
                                <rect stroke-width="0" width="0.000141082" stroke="none" fill="none" gorn="0.3.0.0.0.0.0.0.3" y="105.234" id="connector5terminal" x="73.5613" height="0.0100161" />
                                <path stroke-width="0.0705412" stroke="#b3b3b3" fill="none" style="stroke-linecap:butt;stroke-linejoin:miter;" gorn="0.3.0.0.0.0.0.0.4" id="connector3pin" d="m 77.673375,100.22587 v 4.93751"  stroke-opacity="1"/>
                                <rect stroke-width="0" width="0.000141082" stroke="none" fill="none" gorn="0.3.0.0.0.0.0.0.5" y="105.194" id="connector3terminal" x="77.6733" height="0.0100161" />
                                <path stroke-width="0.0705412" stroke="#b3b3b3" fill="none" style="stroke-linecap:butt;stroke-linejoin:miter;" gorn="0.3.0.0.0.0.0.0.6" id="connector2pin" d="m 81.78213,100.22587 v 4.93751"  stroke-opacity="1"/>
                                <rect stroke-width="0" width="0.000141082" stroke="none" fill="none" gorn="0.3.0.0.0.0.0.0.7" y="105.194" id="connector2terminal" x="81.7821" height="0.0100161" />
                                <path stroke-width="0.24298792" stroke="#a1a1a1" fill="none" style="opacity:0.98000004;stroke-linecap:butt;stroke-linejoin:miter;stroke-miterlimit:4;stroke-dasharray:none;" gorn="0.3.0.0.0.0.0.0.8" id="path4563" d="m 69.458511,100.22587 -0.01199,-9.254147 H 81.78213 v 9.294427 M 69.446514,96.575637 h 12.335612 m -4.108751,0 v 3.650233 m -4.1116,-9.254147 v 4.578865 c 0.609048,0.375926 0.659297,1.400976 -4.09e-4,1.845256 v 2.870306"  stroke-opacity="1"/>
                                <path stroke-width="0.14812542" fill-opacity="1" stroke="#a1a1a1" fill="#000000" style="opacity:0.98000004;fill-rule:nonzero;stroke-miterlimit:4;stroke-dasharray:none;" gorn="0.3.0.0.0.0.0.0.9" id="path4565" d="m 77.868253,96.575637 c 0,0.107393 -0.08684,0.194679 -0.19446,0.194679 -0.107613,0 -0.195088,-0.08725 -0.195088,-0.194679 0,-0.107204 0.08747,-0.19468 0.195088,-0.19468 0.107613,0 0.19446,0.08747 0.19446,0.19468"  stroke-opacity="1"/>
                                <path stroke-width="0.14812542" fill-opacity="1" stroke="#a1a1a1" fill="#a1a1a1" style="opacity:0.98000004;stroke-linecap:butt;stroke-linejoin:miter;stroke-miterlimit:4;stroke-dasharray:none;" gorn="0.3.0.0.0.0.0.0.10" id="path4567" d="m 77.868253,96.575637 c 0,0.107393 -0.08684,0.194679 -0.19446,0.194679 -0.107613,0 -0.195088,-0.08725 -0.195088,-0.194679 0,-0.107204 0.08747,-0.19468 0.195088,-0.19468 0.107613,0 0.19446,0.08747 0.19446,0.19468 z"  stroke-opacity="1"/>
                                <path stroke-width="0.14812542" fill-opacity="1" stroke="#a1a1a1" fill="#000000" style="opacity:0.98000004;fill-rule:nonzero;stroke-miterlimit:4;stroke-dasharray:none;" gorn="0.3.0.0.0.0.0.0.11" id="path4569" d="m 81.976598,96.575637 c 0,0.107393 -0.08688,0.194679 -0.194459,0.194679 -0.107802,0 -0.194869,-0.08725 -0.194869,-0.194679 0,-0.107204 0.08706,-0.19468 0.194869,-0.19468 0.107613,0 0.194459,0.08747 0.194459,0.19468"  stroke-opacity="1"/>
                                <path stroke-width="0.14812542" fill-opacity="1" stroke="#a1a1a1" fill="#a1a1a1" style="opacity:0.98000004;stroke-linecap:butt;stroke-linejoin:miter;stroke-miterlimit:4;stroke-dasharray:none;" gorn="0.3.0.0.0.0.0.0.12" id="path4571" d="m 81.976598,96.575637 c 0,0.107393 -0.08688,0.194679 -0.194459,0.194679 -0.107802,0 -0.194869,-0.08725 -0.194869,-0.194679 0,-0.107204 0.08706,-0.19468 0.194869,-0.19468 0.107613,0 0.194459,0.08747 0.194459,0.19468 z"  stroke-opacity="1"/>
                                <path stroke-width="0.14812542" fill-opacity="1" stroke="#a1a1a1" fill="#000000" style="opacity:0.98000004;fill-rule:nonzero;stroke-miterlimit:4;stroke-dasharray:none;" gorn="0.3.0.0.0.0.0.0.13" id="path4573" d="m 69.64119,96.575637 c 0,0.107393 -0.08688,0.194679 -0.194679,0.194679 -0.107614,0 -0.19468,-0.08725 -0.19468,-0.194679 0,-0.107204 0.08706,-0.19468 0.19468,-0.19468 0.107802,0 0.194679,0.08747 0.194679,0.19468"  stroke-opacity="1"/>
                                <path stroke-width="0.14812542" fill-opacity="1" stroke="#a1a1a1" fill="#a1a1a1" style="opacity:0.98000004;stroke-linecap:butt;stroke-linejoin:miter;stroke-miterlimit:4;stroke-dasharray:none;" gorn="0.3.0.0.0.0.0.0.14" id="path4575" d="m 69.64119,96.575637 c 0,0.107393 -0.08688,0.194679 -0.194679,0.194679 -0.107614,0 -0.19468,-0.08725 -0.19468,-0.194679 0,-0.107204 0.08706,-0.19468 0.19468,-0.19468 0.107802,0 0.194679,0.08747 0.194679,0.19468 z"  stroke-opacity="1"/>
                                <path stroke-width="0.14812542" fill-opacity="1" stroke="#a1a1a1" fill="#000000" style="opacity:0.98000004;fill-rule:nonzero;stroke-miterlimit:4;stroke-dasharray:none;" gorn="0.3.0.0.0.0.0.0.15" id="path4577" d="m 73.756248,90.971518 c 0,0.107613 -0.08666,0.19468 -0.19446,0.19468 -0.107613,0 -0.194868,-0.08706 -0.194868,-0.19468 0,-0.107204 0.08725,-0.19446 0.194868,-0.19446 0.107803,0 0.19446,0.08728 0.19446,0.19446"  stroke-opacity="1"/>
                                <path stroke-width="0.14812542" fill-opacity="1" stroke="#a1a1a1" fill="#a1a1a1" style="opacity:0.98000004;stroke-linecap:butt;stroke-linejoin:miter;stroke-miterlimit:4;stroke-dasharray:none;" gorn="0.3.0.0.0.0.0.0.16" id="path4579" d="m 73.756248,90.971518 c 0,0.107613 -0.08666,0.19468 -0.19446,0.19468 -0.107613,0 -0.194868,-0.08706 -0.194868,-0.19468 0,-0.107204 0.08725,-0.19446 0.194868,-0.19446 0.107803,0 0.19446,0.08728 0.19446,0.19446 z m -2.813756,-0.648512 v 1.297434"  stroke-opacity="1"/>
                                <path stroke-width="0.14812542" fill-opacity="1" stroke="#a1a1a1" fill="#a1a1a1" style="opacity:0.98000004;fill-rule:nonzero;stroke-miterlimit:4;stroke-dasharray:none;" gorn="0.3.0.0.0.0.0.0.17" id="path4581" d="m 72.066002,91.62044 -1.12351,-0.648717 1.12351,-0.648717 v 1.297434"  stroke-opacity="1"/>
                                <path stroke-width="0.14812542" stroke="#a1a1a1" fill="none" style="opacity:0.98000004;stroke-linecap:butt;stroke-linejoin:miter;stroke-miterlimit:4;stroke-dasharray:none;" gorn="0.3.0.0.0.0.0.0.18" id="path4583" d="m 70.942492,95.92692 v 1.297437"  stroke-opacity="1"/>
                                <path stroke-width="0.14812542" fill-opacity="1" stroke="#a1a1a1" fill="#a1a1a1" style="opacity:0.98000004;fill-rule:nonzero;stroke-miterlimit:4;stroke-dasharray:none;" gorn="0.3.0.0.0.0.0.0.19" id="path4585" d="m 72.066002,97.224357 -1.12351,-0.64872 1.12351,-0.648717 v 1.297437"  stroke-opacity="1"/>
                                <path stroke-width="0.14812542" stroke="#a1a1a1" fill="none" style="opacity:0.98000004;stroke-linecap:butt;stroke-linejoin:miter;stroke-miterlimit:4;stroke-dasharray:none;" gorn="0.3.0.0.0.0.0.0.20" id="path4587" d="M 79.162638,90.323006 V 91.62044"  stroke-opacity="1"/>
                                <path stroke-width="0.14812542" fill-opacity="1" stroke="#a1a1a1" fill="#a1a1a1" style="opacity:0.98000004;fill-rule:nonzero;stroke-miterlimit:4;stroke-dasharray:none;" gorn="0.3.0.0.0.0.0.0.21" id="path4589" d="m 80.286147,91.62044 -1.123509,-0.648717 1.123509,-0.648717 v 1.297434"  stroke-opacity="1"/>
                                <path stroke-width="0.14812542" stroke="#a1a1a1" fill="none" style="opacity:0.98000004;stroke-linecap:butt;stroke-linejoin:miter;stroke-miterlimit:4;stroke-dasharray:none;" gorn="0.3.0.0.0.0.0.0.22" id="path4591" d="m 79.162638,95.92692 v 1.297437"  stroke-opacity="1"/>
                                <path stroke-width="0.14812542" fill-opacity="1" stroke="#a1a1a1" fill="#a1a1a1" style="opacity:0.98000004;fill-rule:nonzero;stroke-miterlimit:4;stroke-dasharray:none;" gorn="0.3.0.0.0.0.0.0.23" id="path4593" d="m 80.286147,97.224357 -1.123509,-0.64872 1.123509,-0.648717 v 1.297437"  stroke-opacity="1"/>
                                <path stroke-width="0.2429879" stroke="#000000" fill="none" style="stroke-linecap:butt;stroke-linejoin:miter;stroke-miterlimit:4;stroke-dasharray:none;" gorn="0.3.0.0.0.0.0.0.24" id="path3495" d="m 66.989754,90.469332 2.587242,-2.587243"  stroke-opacity="1"/>
                                <g transform="matrix(0.2571622,0,0,0.2571622,66.86826,87.760595)" >
                                    <g >
                                        <g >
                                            <g >
                                                <g >
                                                    <path stroke-width="0.94488186" fill-opacity="1" stroke="#000000" fill="#000000" style="opacity:1;stroke-linecap:butt;stroke-linejoin:bevel;stroke-miterlimit:4;stroke-dasharray:none;" gorn="0.3.0.0.0.0.0.0.25.0.0.0.0.0" id="path3497" d="M 10.533203 0.47265625 L 0.47265625 10.533203 L 0.47265625 48.472656 L 67.671875 48.472656 L 67.671875 0.47265625 L 10.533203 0.47265625 z "  stroke-opacity="1"/>
                                                </g>
                                            </g>
                                        </g>
                                    </g>
                                </g>
                                <g stroke-width="0.14812542" fill-opacity="1" stroke="#a1a1a1" fill="#a1a1a1" style="font-style:normal;font-weight:normal;line-height:1.25;font-family:Droid Sans;letter-spacing:0px;word-spacing:0px;opacity:0.98000004;stroke-miterlimit:4;stroke-dasharray:none;" gorn="0.3.0.0.0.0.0.0.26" id="text1004" xmlns:xml="http://www.w3.org/XML/1998/namespace" font-size="2.84793162"  stroke-opacity="1" xml:space="preserve">
                                    <text stroke-width="0.14812542" fill-opacity="1" stroke="#a1a1a1" fill="#a1a1a1" style="font-style:normal;font-variant:normal;font-weight:normal;font-stretch:normal;font-family:Droid Sans;-inkscape-font-specification:Droid Sans;stroke-miterlimit:4;stroke-dasharray:none;" gorn="0.3.0.0.0.0.0.0.26.0" y="99.216553" id="tspan1002" x="68.675591" font-size="2.84793162"  stroke-opacity="1">+</text>
                                </g>
                                <g stroke-width="0.14812542" fill-opacity="1" stroke="#a1a1a1" fill="#a1a1a1" style="font-style:normal;font-weight:normal;line-height:1.25;font-family:Droid Sans;letter-spacing:0px;word-spacing:0px;opacity:0.98000004;stroke-miterlimit:4;stroke-dasharray:none;" gorn="0.3.0.0.0.0.0.0.27" id="text1008" xmlns:xml="http://www.w3.org/XML/1998/namespace" font-size="2.84793162"  stroke-opacity="1" xml:space="preserve">
                                    <text stroke-width="0.14812542" fill-opacity="1" stroke="#a1a1a1" fill="#a1a1a1" style="font-style:normal;font-variant:normal;font-weight:normal;font-stretch:normal;font-family:Droid Sans;-inkscape-font-specification:Droid Sans;stroke-miterlimit:4;stroke-dasharray:none;" gorn="0.3.0.0.0.0.0.0.27.0" y="99.195694" id="tspan1006" x="76.844597" font-size="2.84793162"  stroke-opacity="1">~</text>
                                </g>
                                <g transform="scale(1.2372062,0.8082727)" >
                                    <g >
                                        <g >
                                            <g >
                                                <g >
                                                    <g stroke-width="0.14812542" fill-opacity="1" stroke="#a1a1a1" fill="#a1a1a1" style="font-style:normal;font-variant:normal;font-weight:normal;font-stretch:normal;line-height:1.25;font-family:Droid Sans;-inkscape-font-specification:Droid Sans;letter-spacing:0px;word-spacing:0px;opacity:0.98000004;stroke-miterlimit:4;stroke-dasharray:none;" gorn="0.3.0.0.0.0.0.0.28.0.0.0.0.0" id="text1012" xmlns:xml="http://www.w3.org/XML/1998/namespace" font-size="3.52347851"  stroke-opacity="1" xml:space="preserve">
                                                        <text stroke-width="0.14812542" fill-opacity="1" stroke="#a1a1a1" fill="#a1a1a1" style="stroke-miterlimit:4;stroke-dasharray:none;" gorn="0.3.0.0.0.0.0.0.28.0.0.0.0.0.0" y="122.38033" id="tspan1010" x="65.622513" font-size="3.52347851"  stroke-opacity="1">-</text>
                                                    </g>
                                                </g>
                                            </g>
                                        </g>
                                    </g>
                                </g>
                                <g stroke-width="0.14812542" fill-opacity="1" stroke="#a1a1a1" fill="#a1a1a1" style="font-style:normal;font-weight:normal;line-height:1.25;font-family:Droid Sans;letter-spacing:0px;word-spacing:0px;opacity:0.98000004;stroke-miterlimit:4;stroke-dasharray:none;" gorn="0.3.0.0.0.0.0.0.29" id="text1026" xmlns:xml="http://www.w3.org/XML/1998/namespace" font-size="2.84793162"  stroke-opacity="1" xml:space="preserve">
                                    <text stroke-width="0.14812542" fill-opacity="1" stroke="#a1a1a1" fill="#a1a1a1" style="font-style:normal;font-variant:normal;font-weight:normal;font-stretch:normal;font-family:Droid Sans;-inkscape-font-specification:Droid Sans;stroke-miterlimit:4;stroke-dasharray:none;" gorn="0.3.0.0.0.0.0.0.29.0" y="99.214951" id="tspan1024" x="72.741249" font-size="2.84793162"  stroke-opacity="1">~</text>
                                </g>
                            </g>
                            <g stroke-width="0.25716221" fill-opacity="1" stroke="none" fill="#f3f3f3" style="font-style:normal;font-weight:normal;line-height:1.25;font-family:Droid Sans;letter-spacing:0px;word-spacing:0px;" gorn="0.3.0.0.0.0.0.1" id="text1066" xmlns:xml="http://www.w3.org/XML/1998/namespace" font-size="3.16048551"  xml:space="preserve">
                                <text stroke-width="0.25716221" fill-opacity="1" fill="#f3f3f3" gorn="0.3.0.0.0.0.0.1.0" y="94.86039" id="tspan1064" x="68.866882" >2KBP06M</text>
                            </g>
                        </g>
                    </g>
                </g>
            </g>
        </g>
    </g>
</svg>
