<?xml version='1.0' encoding='UTF-8' standalone='no'?>
<svg
  xmlns:dc="http://purl.org/dc/elements/1.1/"
  xmlns:cc="http://creativecommons.org/ns#"
  xmlns:rdf="http://www.w3.org/1999/02/22-rdf-syntax-ns#"
  xmlns:svg="http://www.w3.org/2000/svg"
  xmlns="http://www.w3.org/2000/svg"
  width="0.3172138in"
  id="svg2"
  y="0in"
  x="0in"
  height="4.1114168in"
  version="1.2"
  viewBox="0 0 317.21391 4111.4181">
  <metadata
    id="metadata329">
    <rdf:RDF>
      <cc:Work
        rdf:about="">
        <dc:format>image/svg+xml</dc:format>
        <dc:type
          rdf:resource="http://purl.org/dc/dcmitype/StillImage"
        />
        <dc:title/>
      </cc:Work>
    </rdf:RDF>
  </metadata>
  <defs
    id="defs327"
  />
  <desc
    id="desc2">
    <referenceFile>RPiHeader40p_1_schematic.svg</referenceFile>
  </desc>
  <g
    id="schematic">
    <text
      y="165.27217"
      x="254.55162"
      id="text9"
      font-size="35"
      font-family="'Droid Sans'"
      text-anchor="middle"
      fill="#555555"
      stroke="none"
      stroke-width="0">1</text>
    <text
      y="265.30283"
      x="254.55162"
      id="text17"
      font-size="35"
      font-family="'Droid Sans'"
      text-anchor="middle"
      fill="#555555"
      stroke="none"
      stroke-width="0">2</text>
    <text
      y="365.32983"
      x="254.55162"
      id="text25"
      font-size="35"
      font-family="'Droid Sans'"
      text-anchor="middle"
      fill="#555555"
      stroke="none"
      stroke-width="0">3</text>
    <text
      y="465.35684"
      x="254.55162"
      id="text33"
      font-size="35"
      font-family="'Droid Sans'"
      text-anchor="middle"
      fill="#555555"
      stroke="none"
      stroke-width="0">4</text>
    <text
      y="565.39111"
      x="254.55162"
      id="text41"
      font-size="35"
      font-family="'Droid Sans'"
      text-anchor="middle"
      fill="#555555"
      stroke="none"
      stroke-width="0">5</text>
    <text
      y="665.41815"
      x="254.55162"
      id="text49"
      font-size="35"
      font-family="'Droid Sans'"
      text-anchor="middle"
      fill="#555555"
      stroke="none"
      stroke-width="0">6</text>
    <text
      y="765.44879"
      x="254.55162"
      id="text57"
      font-size="35"
      font-family="'Droid Sans'"
      text-anchor="middle"
      fill="#555555"
      stroke="none"
      stroke-width="0">7</text>
    <text
      y="865.47589"
      x="254.55162"
      id="text65"
      font-size="35"
      font-family="'Droid Sans'"
      text-anchor="middle"
      fill="#555555"
      stroke="none"
      stroke-width="0">8</text>
    <text
      y="965.50287"
      x="254.55162"
      id="text73"
      font-size="35"
      font-family="'Droid Sans'"
      text-anchor="middle"
      fill="#555555"
      stroke="none"
      stroke-width="0">9</text>
    <text
      y="1065.5299"
      x="254.55162"
      id="text81"
      font-size="35"
      font-family="'Droid Sans'"
      text-anchor="middle"
      fill="#555555"
      stroke="none"
      stroke-width="0">10</text>
    <text
      y="1165.5604"
      x="254.55162"
      id="text89"
      font-size="35"
      font-family="'Droid Sans'"
      text-anchor="middle"
      fill="#555555"
      stroke="none"
      stroke-width="0">11</text>
    <text
      y="1265.5912"
      x="254.55162"
      id="text97"
      font-size="35"
      font-family="'Droid Sans'"
      text-anchor="middle"
      fill="#555555"
      stroke="none"
      stroke-width="0">12</text>
    <text
      y="1365.6145"
      x="254.55162"
      id="text105"
      font-size="35"
      font-family="'Droid Sans'"
      text-anchor="middle"
      fill="#555555"
      stroke="none"
      stroke-width="0">13</text>
    <text
      y="1465.6451"
      x="254.55162"
      id="text113"
      font-size="35"
      font-family="'Droid Sans'"
      text-anchor="middle"
      fill="#555555"
      stroke="none"
      stroke-width="0">14</text>
    <text
      y="1565.6759"
      x="254.55162"
      id="text121"
      font-size="35"
      font-family="'Droid Sans'"
      text-anchor="middle"
      fill="#555555"
      stroke="none"
      stroke-width="0">15</text>
    <text
      y="1665.7065"
      x="254.55162"
      id="text129"
      font-size="35"
      font-family="'Droid Sans'"
      text-anchor="middle"
      fill="#555555"
      stroke="none"
      stroke-width="0">16</text>
    <text
      y="1765.7336"
      x="254.55162"
      id="text137"
      font-size="35"
      font-family="'Droid Sans'"
      text-anchor="middle"
      fill="#555555"
      stroke="none"
      stroke-width="0">17</text>
    <text
      y="1865.7606"
      x="254.55162"
      id="text145"
      font-size="35"
      font-family="'Droid Sans'"
      text-anchor="middle"
      fill="#555555"
      stroke="none"
      stroke-width="0">18</text>
    <text
      y="1965.7875"
      x="254.55162"
      id="text153"
      font-size="35"
      font-family="'Droid Sans'"
      text-anchor="middle"
      fill="#555555"
      stroke="none"
      stroke-width="0">19</text>
    <text
      y="2065.8218"
      x="254.55162"
      id="text161"
      font-size="35"
      font-family="'Droid Sans'"
      text-anchor="middle"
      fill="#555555"
      stroke="none"
      stroke-width="0">20</text>
    <text
      y="2165.8489"
      x="254.55162"
      id="text169"
      font-size="35"
      font-family="'Droid Sans'"
      text-anchor="middle"
      fill="#555555"
      stroke="none"
      stroke-width="0">21</text>
    <text
      y="2265.8723"
      x="254.55162"
      id="text177"
      font-size="35"
      font-family="'Droid Sans'"
      text-anchor="middle"
      fill="#555555"
      stroke="none"
      stroke-width="0">22</text>
    <text
      y="2365.9031"
      x="254.55162"
      id="text185"
      font-size="35"
      font-family="'Droid Sans'"
      text-anchor="middle"
      fill="#555555"
      stroke="none"
      stroke-width="0">23</text>
    <text
      y="2465.9336"
      x="254.55162"
      id="text193"
      font-size="35"
      font-family="'Droid Sans'"
      text-anchor="middle"
      fill="#555555"
      stroke="none"
      stroke-width="0">24</text>
    <text
      y="2565.9644"
      x="254.55162"
      id="text201"
      font-size="35"
      font-family="'Droid Sans'"
      text-anchor="middle"
      fill="#555555"
      stroke="none"
      stroke-width="0">25</text>
    <text
      y="2665.9912"
      x="254.55162"
      id="text209"
      font-size="35"
      font-family="'Droid Sans'"
      text-anchor="middle"
      fill="#555555"
      stroke="none"
      stroke-width="0">26</text>
    <text
      y="2766.0183"
      x="254.55162"
      id="text217"
      font-size="35"
      font-family="'Droid Sans'"
      text-anchor="middle"
      fill="#555555"
      stroke="none"
      stroke-width="0">27</text>
    <text
      y="2866.0454"
      x="254.55162"
      id="text225"
      font-size="35"
      font-family="'Droid Sans'"
      text-anchor="middle"
      fill="#555555"
      stroke="none"
      stroke-width="0">28</text>
    <text
      y="2966.0759"
      x="254.55162"
      id="text233"
      font-size="35"
      font-family="'Droid Sans'"
      text-anchor="middle"
      fill="#555555"
      stroke="none"
      stroke-width="0">29</text>
    <text
      y="3066.1069"
      x="254.55162"
      id="text241"
      font-size="35"
      font-family="'Droid Sans'"
      text-anchor="middle"
      fill="#555555"
      stroke="none"
      stroke-width="0">30</text>
    <text
      y="3166.1299"
      x="254.55162"
      id="text249"
      font-size="35"
      font-family="'Droid Sans'"
      text-anchor="middle"
      fill="#555555"
      stroke="none"
      stroke-width="0">31</text>
    <text
      y="3266.1643"
      x="254.55162"
      id="text257"
      font-size="35"
      font-family="'Droid Sans'"
      text-anchor="middle"
      fill="#555555"
      stroke="none"
      stroke-width="0">32</text>
    <text
      y="3366.1914"
      x="254.55162"
      id="text265"
      font-size="35"
      font-family="'Droid Sans'"
      text-anchor="middle"
      fill="#555555"
      stroke="none"
      stroke-width="0">33</text>
    <text
      y="3466.2219"
      x="254.55162"
      id="text273"
      font-size="35"
      font-family="'Droid Sans'"
      text-anchor="middle"
      fill="#555555"
      stroke="none"
      stroke-width="0">34</text>
    <text
      y="3566.2493"
      x="254.55162"
      id="text281"
      font-size="35"
      font-family="'Droid Sans'"
      text-anchor="middle"
      fill="#555555"
      stroke="none"
      stroke-width="0">35</text>
    <text
      y="3666.2759"
      x="254.55162"
      id="text289"
      font-size="35"
      font-family="'Droid Sans'"
      text-anchor="middle"
      fill="#555555"
      stroke="none"
      stroke-width="0">36</text>
    <text
      y="3766.3032"
      x="254.55162"
      id="text297"
      font-size="35"
      font-family="'Droid Sans'"
      text-anchor="middle"
      fill="#555555"
      stroke="none"
      stroke-width="0">37</text>
    <text
      y="3866.3337"
      x="254.55162"
      id="text305"
      font-size="35"
      font-family="'Droid Sans'"
      text-anchor="middle"
      fill="#555555"
      stroke="none"
      stroke-width="0">38</text>
    <text
      y="3966.3608"
      x="254.55162"
      id="text313"
      font-size="35"
      font-family="'Droid Sans'"
      text-anchor="middle"
      fill="#555555"
      stroke="none"
      stroke-width="0">39</text>
    <text
      y="4066.3879"
      x="254.55162"
      id="text321"
      font-size="35"
      font-family="'Droid Sans'"
      text-anchor="middle"
      fill="#555555"
      stroke="none"
      stroke-width="0">40</text>
    <line
      y2="4079.3242"
      x1="154.94214"
      y1="4107.3271"
      x2="214.66101"
      id="line129"
      fill="none"
      stroke="#000000"
      stroke-width="8.13214016"
      stroke-linecap="round"
      stroke-linejoin="round"
    />
    <line
      id="line131"
      x2="214.66251"
      y1="4049.9885"
      x1="154.94376"
      y2="4078.822"
      fill="none"
      stroke="#000000"
      stroke-width="8.13214016"
      stroke-linecap="round"
      stroke-linejoin="round"
    />
    <line
      id="line133"
      x2="214.66214"
      y1="4007.3271"
      x1="154.94217"
      y2="3979.3242"
      fill="none"
      stroke="#000000"
      stroke-width="8.13220978"
      stroke-linecap="round"
      stroke-linejoin="round"
    />
    <line
      y2="3978.822"
      x1="154.94379"
      y1="3949.9888"
      x2="214.66367"
      id="line135"
      fill="none"
      stroke="#000000"
      stroke-width="8.13220978"
      stroke-linecap="round"
      stroke-linejoin="round"
    />
    <line
      y2="3879.3242"
      x1="154.94217"
      y1="3907.3271"
      x2="214.66214"
      id="line137"
      fill="none"
      stroke="#000000"
      stroke-width="8.13220978"
      stroke-linecap="round"
      stroke-linejoin="round"
    />
    <line
      id="line139"
      x2="214.66367"
      y1="3849.9885"
      x1="154.94379"
      y2="3878.822"
      fill="none"
      stroke="#000000"
      stroke-width="8.13220978"
      stroke-linecap="round"
      stroke-linejoin="round"
    />
    <line
      id="line141"
      x2="214.66101"
      y1="3807.3271"
      x1="154.94214"
      y2="3779.3242"
      fill="none"
      stroke="#000000"
      stroke-width="8.13214016"
      stroke-linecap="round"
      stroke-linejoin="round"
    />
    <line
      y2="3778.822"
      x1="154.94376"
      y1="3749.9885"
      x2="214.66251"
      id="line143"
      fill="none"
      stroke="#000000"
      stroke-width="8.13214016"
      stroke-linecap="round"
      stroke-linejoin="round"
    />
    <line
      y2="3679.3242"
      x1="154.94214"
      y1="3707.3271"
      x2="214.66101"
      id="line145"
      fill="none"
      stroke="#000000"
      stroke-width="8.13214016"
      stroke-linecap="round"
      stroke-linejoin="round"
    />
    <line
      id="line147"
      x2="214.66251"
      y1="3649.9885"
      x1="154.94376"
      y2="3678.822"
      fill="none"
      stroke="#000000"
      stroke-width="8.13214016"
      stroke-linecap="round"
      stroke-linejoin="round"
    />
    <line
      id="line149"
      x2="214.66101"
      y1="3607.3271"
      x1="154.94214"
      y2="3579.3242"
      fill="none"
      stroke="#000000"
      stroke-width="8.13214016"
      stroke-linecap="round"
      stroke-linejoin="round"
    />
    <line
      y2="3578.822"
      x1="154.94376"
      y1="3549.9885"
      x2="214.66251"
      id="line151"
      fill="none"
      stroke="#000000"
      stroke-width="8.13214016"
      stroke-linecap="round"
      stroke-linejoin="round"
    />
    <line
      y2="3479.3242"
      x1="154.94214"
      y1="3507.3271"
      x2="214.66101"
      id="line153"
      fill="none"
      stroke="#000000"
      stroke-width="8.13214016"
      stroke-linecap="round"
      stroke-linejoin="round"
    />
    <line
      id="line155"
      x2="214.66251"
      y1="3449.9885"
      x1="154.94376"
      y2="3478.822"
      fill="none"
      stroke="#000000"
      stroke-width="8.13214016"
      stroke-linecap="round"
      stroke-linejoin="round"
    />
    <line
      id="line157"
      x2="214.66101"
      y1="3407.3271"
      x1="154.94214"
      y2="3379.3242"
      fill="none"
      stroke="#000000"
      stroke-width="8.13214016"
      stroke-linecap="round"
      stroke-linejoin="round"
    />
    <line
      y2="3378.822"
      x1="154.94376"
      y1="3349.9885"
      x2="214.66251"
      id="line159"
      fill="none"
      stroke="#000000"
      stroke-width="8.13214016"
      stroke-linecap="round"
      stroke-linejoin="round"
    />
    <line
      y2="3279.324"
      x1="154.94214"
      y1="3307.3269"
      x2="214.66101"
      id="line161"
      fill="none"
      stroke="#000000"
      stroke-width="8.13214016"
      stroke-linecap="round"
      stroke-linejoin="round"
    />
    <line
      id="line163"
      x2="214.66251"
      y1="3249.9883"
      x1="154.94376"
      y2="3278.8218"
      fill="none"
      stroke="#000000"
      stroke-width="8.13214016"
      stroke-linecap="round"
      stroke-linejoin="round"
    />
    <line
      id="line165"
      x2="214.66101"
      y1="3207.3269"
      x1="154.94214"
      y2="3179.324"
      fill="none"
      stroke="#000000"
      stroke-width="8.13214016"
      stroke-linecap="round"
      stroke-linejoin="round"
    />
    <line
      y2="3178.8218"
      x1="154.94376"
      y1="3149.9883"
      x2="214.66251"
      id="line167"
      fill="none"
      stroke="#000000"
      stroke-width="8.13214016"
      stroke-linecap="round"
      stroke-linejoin="round"
    />
    <line
      y2="3079.324"
      x1="154.94214"
      y1="3107.3269"
      x2="214.66101"
      id="line169"
      fill="none"
      stroke="#000000"
      stroke-width="8.13214016"
      stroke-linecap="round"
      stroke-linejoin="round"
    />
    <line
      id="line171"
      x2="214.66251"
      y1="3049.9883"
      x1="154.94376"
      y2="3078.8218"
      fill="none"
      stroke="#000000"
      stroke-width="8.13214016"
      stroke-linecap="round"
      stroke-linejoin="round"
    />
    <line
      id="line173"
      x2="214.66101"
      y1="3007.3269"
      x1="154.94214"
      y2="2979.324"
      fill="none"
      stroke="#000000"
      stroke-width="8.13214016"
      stroke-linecap="round"
      stroke-linejoin="round"
    />
    <line
      y2="2978.8218"
      x1="154.94376"
      y1="2949.9883"
      x2="214.66251"
      id="line175"
      fill="none"
      stroke="#000000"
      stroke-width="8.13214016"
      stroke-linecap="round"
      stroke-linejoin="round"
    />
    <line
      y2="2879.324"
      x1="154.94214"
      y1="2907.3269"
      x2="214.66101"
      id="line177"
      fill="none"
      stroke="#000000"
      stroke-width="8.13214016"
      stroke-linecap="round"
      stroke-linejoin="round"
    />
    <line
      id="line179"
      x2="214.66251"
      y1="2849.9883"
      x1="154.94376"
      y2="2878.8218"
      fill="none"
      stroke="#000000"
      stroke-width="8.13214016"
      stroke-linecap="round"
      stroke-linejoin="round"
    />
    <line
      id="line181"
      x2="214.66101"
      y1="2807.3269"
      x1="154.94214"
      y2="2779.324"
      fill="none"
      stroke="#000000"
      stroke-width="8.13214016"
      stroke-linecap="round"
      stroke-linejoin="round"
    />
    <line
      y2="2778.8218"
      x1="154.94376"
      y1="2749.9883"
      x2="214.66251"
      id="line183"
      fill="none"
      stroke="#000000"
      stroke-width="8.13214016"
      stroke-linecap="round"
      stroke-linejoin="round"
    />
    <line
      y2="2679.3237"
      x1="154.94214"
      y1="2707.3267"
      x2="214.66101"
      id="line185"
      fill="none"
      stroke="#000000"
      stroke-width="8.13214016"
      stroke-linecap="round"
      stroke-linejoin="round"
    />
    <line
      id="line187"
      x2="214.66251"
      y1="2649.988"
      x1="154.94376"
      y2="2678.8215"
      fill="none"
      stroke="#000000"
      stroke-width="8.13214016"
      stroke-linecap="round"
      stroke-linejoin="round"
    />
    <line
      id="line189"
      x2="214.66101"
      y1="2607.3267"
      x1="154.94214"
      y2="2579.3237"
      fill="none"
      stroke="#000000"
      stroke-width="8.13214016"
      stroke-linecap="round"
      stroke-linejoin="round"
    />
    <line
      y2="2578.8215"
      x1="154.94376"
      y1="2549.988"
      x2="214.66251"
      id="line191"
      fill="none"
      stroke="#000000"
      stroke-width="8.13214016"
      stroke-linecap="round"
      stroke-linejoin="round"
    />
    <line
      y2="2479.3237"
      x1="154.94214"
      y1="2507.3267"
      x2="214.66101"
      id="line193"
      fill="none"
      stroke="#000000"
      stroke-width="8.13214016"
      stroke-linecap="round"
      stroke-linejoin="round"
    />
    <line
      id="line195"
      x2="214.66251"
      y1="2449.988"
      x1="154.94376"
      y2="2478.8215"
      fill="none"
      stroke="#000000"
      stroke-width="8.13214016"
      stroke-linecap="round"
      stroke-linejoin="round"
    />
    <line
      id="line197"
      x2="214.66101"
      y1="2407.3267"
      x1="154.94214"
      y2="2379.3237"
      fill="none"
      stroke="#000000"
      stroke-width="8.13214016"
      stroke-linecap="round"
      stroke-linejoin="round"
    />
    <line
      y2="2378.8215"
      x1="154.94376"
      y1="2349.988"
      x2="214.66251"
      id="line199"
      fill="none"
      stroke="#000000"
      stroke-width="8.13214016"
      stroke-linecap="round"
      stroke-linejoin="round"
    />
    <line
      y2="2279.3237"
      x1="154.94214"
      y1="2307.3267"
      x2="214.66101"
      id="line201"
      fill="none"
      stroke="#000000"
      stroke-width="8.13214016"
      stroke-linecap="round"
      stroke-linejoin="round"
    />
    <line
      id="line203"
      x2="214.66251"
      y1="2249.988"
      x1="154.94376"
      y2="2278.8215"
      fill="none"
      stroke="#000000"
      stroke-width="8.13214016"
      stroke-linecap="round"
      stroke-linejoin="round"
    />
    <line
      id="line205"
      x2="214.66101"
      y1="2207.3267"
      x1="154.94214"
      y2="2179.3237"
      fill="none"
      stroke="#000000"
      stroke-width="8.13214016"
      stroke-linecap="round"
      stroke-linejoin="round"
    />
    <line
      y2="2178.8215"
      x1="154.94376"
      y1="2149.988"
      x2="214.66251"
      id="line207"
      fill="none"
      stroke="#000000"
      stroke-width="8.13214016"
      stroke-linecap="round"
      stroke-linejoin="round"
    />
    <line
      y2="2079.3237"
      x1="154.94214"
      y1="2107.3264"
      x2="214.66101"
      id="line209"
      fill="none"
      stroke="#000000"
      stroke-width="8.13214016"
      stroke-linecap="round"
      stroke-linejoin="round"
    />
    <line
      id="line211"
      x2="214.66251"
      y1="2049.988"
      x1="154.94376"
      y2="2078.8215"
      fill="none"
      stroke="#000000"
      stroke-width="8.13214016"
      stroke-linecap="round"
      stroke-linejoin="round"
    />
    <line
      id="line213"
      x2="214.66101"
      y1="2007.3264"
      x1="154.94214"
      y2="1979.3237"
      fill="none"
      stroke="#000000"
      stroke-width="8.13214016"
      stroke-linecap="round"
      stroke-linejoin="round"
    />
    <line
      y2="1978.8215"
      x1="154.94376"
      y1="1949.988"
      x2="214.66251"
      id="line215"
      fill="none"
      stroke="#000000"
      stroke-width="8.13214016"
      stroke-linecap="round"
      stroke-linejoin="round"
    />
    <line
      y2="1879.3237"
      x1="154.94214"
      y1="1907.3264"
      x2="214.66101"
      id="line217"
      fill="none"
      stroke="#000000"
      stroke-width="8.13214016"
      stroke-linecap="round"
      stroke-linejoin="round"
    />
    <line
      id="line219"
      x2="214.66251"
      y1="1849.988"
      x1="154.94376"
      y2="1878.8215"
      fill="none"
      stroke="#000000"
      stroke-width="8.13214016"
      stroke-linecap="round"
      stroke-linejoin="round"
    />
    <line
      id="line221"
      x2="214.66101"
      y1="1807.3264"
      x1="154.94214"
      y2="1779.3235"
      fill="none"
      stroke="#000000"
      stroke-width="8.13214016"
      stroke-linecap="round"
      stroke-linejoin="round"
    />
    <line
      y2="1778.8213"
      x1="154.94376"
      y1="1749.9878"
      x2="214.66251"
      id="line223"
      fill="none"
      stroke="#000000"
      stroke-width="8.13214016"
      stroke-linecap="round"
      stroke-linejoin="round"
    />
    <line
      y2="1679.3235"
      x1="154.94214"
      y1="1707.3264"
      x2="214.66101"
      id="line225"
      fill="none"
      stroke="#000000"
      stroke-width="8.13214016"
      stroke-linecap="round"
      stroke-linejoin="round"
    />
    <line
      id="line227"
      x2="214.66251"
      y1="1649.9878"
      x1="154.94376"
      y2="1678.8213"
      fill="none"
      stroke="#000000"
      stroke-width="8.13214016"
      stroke-linecap="round"
      stroke-linejoin="round"
    />
    <line
      id="line229"
      x2="214.66101"
      y1="1607.3264"
      x1="154.94214"
      y2="1579.3235"
      fill="none"
      stroke="#000000"
      stroke-width="8.13214016"
      stroke-linecap="round"
      stroke-linejoin="round"
    />
    <line
      y2="1578.8213"
      x1="154.94376"
      y1="1549.9878"
      x2="214.66251"
      id="line231"
      fill="none"
      stroke="#000000"
      stroke-width="8.13214016"
      stroke-linecap="round"
      stroke-linejoin="round"
    />
    <line
      y2="1479.3235"
      x1="154.94214"
      y1="1507.3262"
      x2="214.66101"
      id="line233"
      fill="none"
      stroke="#000000"
      stroke-width="8.13214016"
      stroke-linecap="round"
      stroke-linejoin="round"
    />
    <line
      id="line235"
      x2="214.66251"
      y1="1449.9878"
      x1="154.94376"
      y2="1478.8213"
      fill="none"
      stroke="#000000"
      stroke-width="8.13214016"
      stroke-linecap="round"
      stroke-linejoin="round"
    />
    <line
      id="line237"
      x2="214.66101"
      y1="1407.3262"
      x1="154.94214"
      y2="1379.3235"
      fill="none"
      stroke="#000000"
      stroke-width="8.13214016"
      stroke-linecap="round"
      stroke-linejoin="round"
    />
    <line
      y2="1378.8213"
      x1="154.94376"
      y1="1349.9878"
      x2="214.66251"
      id="line239"
      fill="none"
      stroke="#000000"
      stroke-width="8.13214016"
      stroke-linecap="round"
      stroke-linejoin="round"
    />
    <line
      y2="1279.3235"
      x1="154.94214"
      y1="1307.3262"
      x2="214.66101"
      id="line241"
      fill="none"
      stroke="#000000"
      stroke-width="8.13214016"
      stroke-linecap="round"
      stroke-linejoin="round"
    />
    <line
      id="line243"
      x2="214.66251"
      y1="1249.9878"
      x1="154.94376"
      y2="1278.8213"
      fill="none"
      stroke="#000000"
      stroke-width="8.13214016"
      stroke-linecap="round"
      stroke-linejoin="round"
    />
    <line
      id="line245"
      x2="214.66101"
      y1="1207.3262"
      x1="154.94214"
      y2="1179.3235"
      fill="none"
      stroke="#000000"
      stroke-width="8.13214016"
      stroke-linecap="round"
      stroke-linejoin="round"
    />
    <line
      y2="1178.8213"
      x1="154.94376"
      y1="1149.9878"
      x2="214.66251"
      id="line247"
      fill="none"
      stroke="#000000"
      stroke-width="8.13214016"
      stroke-linecap="round"
      stroke-linejoin="round"
    />
    <line
      y2="1079.3234"
      x1="154.94214"
      y1="1107.3262"
      x2="214.66101"
      id="line249"
      fill="none"
      stroke="#000000"
      stroke-width="8.13214016"
      stroke-linecap="round"
      stroke-linejoin="round"
    />
    <line
      id="line251"
      x2="214.66251"
      y1="1049.9878"
      x1="154.94376"
      y2="1078.8212"
      fill="none"
      stroke="#000000"
      stroke-width="8.13214016"
      stroke-linecap="round"
      stroke-linejoin="round"
    />
    <line
      id="line253"
      x2="214.66101"
      y1="1007.3261"
      x1="154.94214"
      y2="979.3233"
      fill="none"
      stroke="#000000"
      stroke-width="8.13214016"
      stroke-linecap="round"
      stroke-linejoin="round"
    />
    <line
      y2="978.82111"
      x1="154.94376"
      y1="949.98767"
      x2="214.66251"
      id="line255"
      fill="none"
      stroke="#000000"
      stroke-width="8.13214016"
      stroke-linecap="round"
      stroke-linejoin="round"
    />
    <line
      y2="879.3233"
      x1="154.94214"
      y1="907.32611"
      x2="214.66101"
      id="line257"
      fill="none"
      stroke="#000000"
      stroke-width="8.13214016"
      stroke-linecap="round"
      stroke-linejoin="round"
    />
    <line
      id="line259"
      x2="214.66251"
      y1="849.98767"
      x1="154.94376"
      y2="878.82111"
      fill="none"
      stroke="#000000"
      stroke-width="8.13214016"
      stroke-linecap="round"
      stroke-linejoin="round"
    />
    <line
      id="line261"
      x2="214.66101"
      y1="807.32605"
      x1="154.94214"
      y2="779.32324"
      fill="none"
      stroke="#000000"
      stroke-width="8.13214016"
      stroke-linecap="round"
      stroke-linejoin="round"
    />
    <line
      y2="778.82104"
      x1="154.94376"
      y1="749.98761"
      x2="214.66251"
      id="line263"
      fill="none"
      stroke="#000000"
      stroke-width="8.13214016"
      stroke-linecap="round"
      stroke-linejoin="round"
    />
    <line
      y2="679.32318"
      x1="154.94214"
      y1="707.32599"
      x2="214.66101"
      id="line265"
      fill="none"
      stroke="#000000"
      stroke-width="8.13214016"
      stroke-linecap="round"
      stroke-linejoin="round"
    />
    <line
      id="line267"
      x2="214.66251"
      y1="649.98755"
      x1="154.94376"
      y2="678.82098"
      fill="none"
      stroke="#000000"
      stroke-width="8.13214016"
      stroke-linecap="round"
      stroke-linejoin="round"
    />
    <line
      id="line269"
      x2="214.66101"
      y1="607.32599"
      x1="154.94214"
      y2="579.32318"
      fill="none"
      stroke="#000000"
      stroke-width="8.13214016"
      stroke-linecap="round"
      stroke-linejoin="round"
    />
    <line
      y2="578.82098"
      x1="154.94376"
      y1="549.98755"
      x2="214.66251"
      id="line271"
      fill="none"
      stroke="#000000"
      stroke-width="8.13214016"
      stroke-linecap="round"
      stroke-linejoin="round"
    />
    <line
      y2="479.32312"
      x1="154.94214"
      y1="507.32593"
      x2="214.66101"
      id="line273"
      fill="none"
      stroke="#000000"
      stroke-width="8.13214016"
      stroke-linecap="round"
      stroke-linejoin="round"
    />
    <line
      id="line275"
      x2="214.66251"
      y1="449.98749"
      x1="154.94376"
      y2="478.82092"
      fill="none"
      stroke="#000000"
      stroke-width="8.13214016"
      stroke-linecap="round"
      stroke-linejoin="round"
    />
    <line
      id="line277"
      x2="214.66101"
      y1="407.3259"
      x1="154.94214"
      y2="379.32309"
      fill="none"
      stroke="#000000"
      stroke-width="8.13214016"
      stroke-linecap="round"
      stroke-linejoin="round"
    />
    <line
      y2="378.82089"
      x1="154.94376"
      y1="349.98746"
      x2="214.66251"
      id="line279"
      fill="none"
      stroke="#000000"
      stroke-width="8.13214016"
      stroke-linecap="round"
      stroke-linejoin="round"
    />
    <line
      y2="279.32306"
      x1="154.94214"
      y1="307.32587"
      x2="214.66101"
      id="line281"
      fill="none"
      stroke="#000000"
      stroke-width="8.13214016"
      stroke-linecap="round"
      stroke-linejoin="round"
    />
    <line
      id="line283"
      x2="214.66251"
      y1="249.98741"
      x1="154.94376"
      y2="278.82086"
      fill="none"
      stroke="#000000"
      stroke-width="8.13214016"
      stroke-linecap="round"
      stroke-linejoin="round"
    />
    <line
      id="line285"
      x2="214.66101"
      y1="207.32584"
      x1="154.94214"
      y2="179.32303"
      fill="none"
      stroke="#000000"
      stroke-width="8.13214016"
      stroke-linecap="round"
      stroke-linejoin="round"
    />
    <line
      y2="178.82083"
      x1="154.94376"
      y1="149.9874"
      x2="214.66251"
      id="line287"
      fill="none"
      stroke="#000000"
      stroke-width="8.13214016"
      stroke-linecap="round"
      stroke-linejoin="round"
    />
    <text
      id="text290"
      x="104.55566"
      y="197.5632"
      font-size="49"
      font-family="'Droid Sans'"
      text-anchor="end"
      fill="#555555">3V3</text>
    <text
      y="297.93823"
      x="104.55566"
      id="text294"
      font-size="49"
      font-family="'Droid Sans'"
      text-anchor="end"
      fill="#555555">5V</text>
    <text
      id="text296"
      x="104.55566"
      y="397.93826"
      font-size="49"
      font-family="'Droid Sans'"
      text-anchor="end"
      fill="#555555">IO2</text>
    <text
      id="text298"
      x="104.55566"
      y="497.93832"
      font-size="49"
      font-family="'Droid Sans'"
      text-anchor="end"
      fill="#555555">5V</text>
    <text
      y="597.93835"
      x="104.55566"
      id="text300"
      font-size="49"
      font-family="'Droid Sans'"
      text-anchor="end"
      fill="#555555">IO3</text>
    <text
      id="text302"
      x="104.55566"
      y="697.93835"
      font-size="49"
      font-family="'Droid Sans'"
      text-anchor="end"
      fill="#555555">GND</text>
    <text
      id="text304"
      x="104.55566"
      y="797.93842"
      font-size="49"
      font-family="'Droid Sans'"
      text-anchor="end"
      fill="#555555">IO4</text>
    <text
      y="897.93848"
      x="104.55566"
      id="text306"
      font-size="49"
      font-family="'Droid Sans'"
      text-anchor="end"
      fill="#555555">IO14</text>
    <text
      y="997.93848"
      x="104.55566"
      id="text308"
      font-size="49"
      font-family="'Droid Sans'"
      text-anchor="end"
      fill="#555555">GND</text>
    <text
      id="text310"
      x="104.55566"
      y="1097.9385"
      font-size="49"
      font-family="'Droid Sans'"
      text-anchor="end"
      fill="#555555">IO15</text>
    <text
      y="1197.9385"
      x="104.55566"
      id="text312"
      font-size="49"
      font-family="'Droid Sans'"
      text-anchor="end"
      fill="#555555">IO17</text>
    <text
      id="text314"
      x="104.55566"
      y="1297.9385"
      font-size="49"
      font-family="'Droid Sans'"
      text-anchor="end"
      fill="#555555">IO18</text>
    <text
      y="1397.9387"
      x="104.55566"
      id="text316"
      font-size="49"
      font-family="'Droid Sans'"
      text-anchor="end"
      fill="#555555">IO27</text>
    <text
      id="text318"
      x="104.55566"
      y="1497.9387"
      font-size="49"
      font-family="'Droid Sans'"
      text-anchor="end"
      fill="#555555">GND</text>
    <text
      id="text322"
      x="104.55566"
      y="1597.9387"
      font-size="49"
      font-family="'Droid Sans'"
      text-anchor="end"
      fill="#555555">IO22</text>
    <text
      y="1697.9387"
      x="104.55566"
      id="text324"
      font-size="49"
      font-family="'Droid Sans'"
      text-anchor="end"
      fill="#555555">IO23</text>
    <text
      id="text326"
      x="104.55566"
      y="1797.9387"
      font-size="49"
      font-family="'Droid Sans'"
      text-anchor="end"
      fill="#555555">3V3</text>
    <text
      y="1897.9387"
      x="104.55566"
      id="text328"
      font-size="49"
      font-family="'Droid Sans'"
      text-anchor="end"
      fill="#555555">IO24</text>
    <text
      id="text330"
      x="104.55566"
      y="1997.9387"
      font-size="49"
      font-family="'Droid Sans'"
      text-anchor="end"
      fill="#555555">IO10</text>
    <text
      y="2097.939"
      x="104.55566"
      id="text332"
      font-size="49"
      font-family="'Droid Sans'"
      text-anchor="end"
      fill="#555555">GND</text>
    <text
      y="2197.939"
      x="104.55566"
      id="text334"
      font-size="49"
      font-family="'Droid Sans'"
      text-anchor="end"
      fill="#555555">IO9</text>
    <text
      id="text336"
      x="104.55566"
      y="2297.939"
      font-size="49"
      font-family="'Droid Sans'"
      text-anchor="end"
      fill="#555555">IO25</text>
    <text
      y="2397.939"
      x="104.55566"
      id="text338"
      font-size="49"
      font-family="'Droid Sans'"
      text-anchor="end"
      fill="#555555">IO11</text>
    <text
      id="text340"
      x="104.55566"
      y="2497.939"
      font-size="49"
      font-family="'Droid Sans'"
      text-anchor="end"
      fill="#555555">IO8</text>
    <text
      y="2597.9392"
      x="104.55566"
      id="text342"
      font-size="49"
      font-family="'Droid Sans'"
      text-anchor="end"
      fill="#555555">GND</text>
    <text
      id="text344"
      x="104.55566"
      y="2697.9392"
      font-size="49"
      font-family="'Droid Sans'"
      text-anchor="end"
      fill="#555555">IO7</text>
    <text
      y="2797.9392"
      x="104.55566"
      id="text346"
      font-size="49"
      font-family="'Droid Sans'"
      text-anchor="end"
      fill="#555555">IO0</text>
    <text
      id="text348"
      x="104.55566"
      y="2897.9392"
      font-size="49"
      font-family="'Droid Sans'"
      text-anchor="end"
      fill="#555555">IO1</text>
    <text
      y="2997.9392"
      x="104.55566"
      id="text350"
      font-size="49"
      font-family="'Droid Sans'"
      text-anchor="end"
      fill="#555555">IO5</text>
    <text
      id="text352"
      x="104.55566"
      y="3097.9392"
      font-size="49"
      font-family="'Droid Sans'"
      text-anchor="end"
      fill="#555555">GND</text>
    <text
      y="3197.9392"
      x="104.55566"
      id="text354"
      font-size="49"
      font-family="'Droid Sans'"
      text-anchor="end"
      fill="#555555">IO6</text>
    <text
      id="text356"
      x="104.55566"
      y="3297.9395"
      font-size="49"
      font-family="'Droid Sans'"
      text-anchor="end"
      fill="#555555">IO12</text>
    <text
      y="3397.9395"
      x="104.55566"
      id="text358"
      font-size="49"
      font-family="'Droid Sans'"
      text-anchor="end"
      fill="#555555">IO13</text>
    <text
      id="text360"
      x="104.55566"
      y="3497.9395"
      font-size="49"
      font-family="'Droid Sans'"
      text-anchor="end"
      fill="#555555">GND</text>
    <text
      y="3597.9395"
      x="104.55566"
      id="text362"
      font-size="49"
      font-family="'Droid Sans'"
      text-anchor="end"
      fill="#555555">IO19</text>
    <text
      id="text364"
      x="104.55566"
      y="3697.9395"
      font-size="49"
      font-family="'Droid Sans'"
      text-anchor="end"
      fill="#555555">IO16</text>
    <text
      y="3797.9395"
      x="104.55566"
      id="text366"
      font-size="49"
      font-family="'Droid Sans'"
      text-anchor="end"
      fill="#555555">IO26</text>
    <text
      id="text368"
      x="104.55566"
      y="3897.9395"
      font-size="49"
      font-family="'Droid Sans'"
      text-anchor="end"
      fill="#555555">IO20</text>
    <text
      y="3997.9397"
      x="104.55566"
      id="text370"
      font-size="49"
      font-family="'Droid Sans'"
      text-anchor="end"
      fill="#555555">GND</text>
    <text
      y="4097.9395"
      x="104.55566"
      id="text372"
      font-size="49"
      font-family="'Droid Sans'"
      text-anchor="end"
      fill="#555555">IO21</text>
    <text
      y="37.228516"
      x="160.56265"
      id="text374"
      font-size="49"
      font-family="'Droid Sans'"
      text-anchor="middle"
      fill="#000000">Raspberry PI</text>
    <text
      id="text376"
      x="160.56265"
      y="97.645203"
      font-size="49"
      font-family="'Droid Sans'"
      text-anchor="middle"
      fill="#000000">GPIO</text>
    <line
      id="connector0pin"
      x2="312.14267"
      y1="179.43402"
      x1="217.14267"
      y2="179.43402"
      fill="none"
      stroke="#555555"
      stroke-width="10"
      stroke-linecap="round"
    />
    <rect
      width="10"
      id="connector0terminal"
      y="174.49884"
      x="307.1427"
      height="10"
      fill="none"
      stroke-width="0"
    />
    <line
      id="connector1pin"
      x2="312.14267"
      y1="279.4306"
      x1="217.14267"
      y2="279.4306"
      fill="none"
      stroke="#555555"
      stroke-width="10"
      stroke-linecap="round"
      stroke-linejoin="round"
    />
    <rect
      width="10"
      id="connector1terminal"
      y="274.41644"
      x="307.00009"
      height="10"
      fill="none"
      stroke-width="0"
    />
    <line
      id="connector2pin"
      x2="312.14267"
      y1="379.42715"
      x1="217.14267"
      y2="379.42715"
      fill="none"
      stroke="#000000"
      stroke-width="10"
      stroke-linecap="round"
      stroke-linejoin="round"
    />
    <rect
      width="10"
      id="connector2terminal"
      y="374.41647"
      x="307.00009"
      height="10"
      fill="none"
      stroke-width="0"
    />
    <line
      id="connector3pin"
      x2="312.14267"
      y1="479.42035"
      x1="217.14267"
      y2="479.42035"
      fill="none"
      stroke="#000000"
      stroke-width="10"
      stroke-linecap="round"
      stroke-linejoin="round"
    />
    <rect
      width="10"
      id="connector3terminal"
      y="474.4165"
      x="307.00009"
      height="10"
      fill="none"
      stroke-width="0"
    />
    <line
      id="connector4pin"
      x2="312.14267"
      y1="579.41687"
      x1="217.14267"
      y2="579.41687"
      fill="none"
      stroke="#000000"
      stroke-width="10"
      stroke-linecap="round"
      stroke-linejoin="round"
    />
    <rect
      width="10"
      id="connector4terminal"
      y="574.4165"
      x="307.00009"
      height="10"
      fill="none"
      stroke-width="0"
    />
    <line
      id="connector5pin"
      x2="312.14267"
      y1="679.41687"
      x1="217.14267"
      y2="679.41687"
      fill="none"
      stroke="#000000"
      stroke-width="10"
      stroke-linecap="round"
      stroke-linejoin="round"
    />
    <rect
      width="10"
      id="connector5terminal"
      y="674.41656"
      x="307.00009"
      height="10"
      fill="none"
      stroke-width="0"
    />
    <line
      id="connector6pin"
      x2="312.14267"
      y1="779.41339"
      x1="217.14267"
      y2="779.41339"
      fill="none"
      stroke="#000000"
      stroke-width="10"
      stroke-linecap="round"
      stroke-linejoin="round"
    />
    <rect
      width="10"
      id="connector6terminal"
      y="774.41656"
      x="307.00009"
      height="10"
      fill="none"
      stroke-width="0"
    />
    <line
      id="connector7pin"
      x2="312.14267"
      y1="879.41003"
      x1="217.14267"
      y2="879.41003"
      fill="none"
      stroke="#000000"
      stroke-width="10"
      stroke-linecap="round"
      stroke-linejoin="round"
    />
    <rect
      width="10"
      id="connector7terminal"
      y="874.41663"
      x="307.00009"
      height="10"
      fill="none"
      stroke-width="0"
    />
    <line
      id="connector8pin"
      x2="312.14267"
      y1="979.40656"
      x1="217.14267"
      y2="979.40656"
      fill="none"
      stroke="#000000"
      stroke-width="10"
      stroke-linecap="round"
      stroke-linejoin="round"
    />
    <rect
      width="10"
      id="connector8terminal"
      y="974.52032"
      x="307.00009"
      height="10"
      fill="none"
      stroke-width="0"
    />
    <line
      id="connector9pin"
      x2="312.14267"
      y1="1079.4032"
      x1="217.14267"
      y2="1079.4032"
      fill="none"
      stroke="#000000"
      stroke-width="10"
      stroke-linecap="round"
      stroke-linejoin="round"
    />
    <rect
      width="10"
      id="connector9terminal"
      y="1074.5168"
      x="307.00009"
      height="10"
      fill="none"
      stroke-width="0"
    />
    <line
      id="connector10pin"
      x2="312.14267"
      y1="1179.3997"
      x1="217.14267"
      y2="1179.3997"
      fill="none"
      stroke="#000000"
      stroke-width="10"
      stroke-linecap="round"
      stroke-linejoin="round"
    />
    <rect
      width="10"
      id="connector10terminal"
      y="1174.5135"
      x="307.00009"
      height="10"
      fill="none"
      stroke-width="0"
    />
    <line
      id="connector11pin"
      x2="312.14267"
      y1="1279.3962"
      x1="217.14267"
      y2="1279.3962"
      fill="none"
      stroke="#000000"
      stroke-width="10"
      stroke-linecap="round"
      stroke-linejoin="round"
    />
    <rect
      width="10"
      id="connector11terminal"
      y="1274.5133"
      x="307.00009"
      height="10"
      fill="none"
      stroke-width="0"
    />
    <line
      id="connector12pin"
      x2="312.14267"
      y1="1379.3928"
      x1="217.14267"
      y2="1379.3928"
      fill="none"
      stroke="#000000"
      stroke-width="10"
      stroke-linecap="round"
      stroke-linejoin="round"
    />
    <rect
      width="10"
      id="connector12terminal"
      y="1374.5065"
      x="307.00009"
      height="10"
      fill="none"
      stroke-width="0"
    />
    <line
      id="connector13pin"
      x2="312.14267"
      y1="1479.3894"
      x1="217.14267"
      y2="1479.3894"
      fill="none"
      stroke="#000000"
      stroke-width="10"
      stroke-linecap="round"
      stroke-linejoin="round"
    />
    <rect
      width="10"
      id="connector13terminal"
      y="1474.5031"
      x="307.00009"
      height="10"
      fill="none"
      stroke-width="0"
    />
    <line
      id="connector14pin"
      x2="312.14267"
      y1="1579.386"
      x1="217.14267"
      y2="1579.386"
      fill="none"
      stroke="#000000"
      stroke-width="10"
      stroke-linecap="round"
      stroke-linejoin="round"
    />
    <rect
      width="10"
      id="connector14terminal"
      y="1574.4996"
      x="307.00009"
      height="10"
      fill="none"
      stroke-width="0"
    />
    <line
      id="connector15pin"
      x2="312.14267"
      y1="1679.386"
      x1="217.14267"
      y2="1679.386"
      fill="none"
      stroke="#000000"
      stroke-width="10"
      stroke-linecap="round"
      stroke-linejoin="round"
    />
    <rect
      width="10"
      id="connector15terminal"
      y="1674.4962"
      x="307.00009"
      height="10"
      fill="none"
      stroke-width="0"
    />
    <line
      id="connector16pin"
      x2="312.14267"
      y1="1779.3826"
      x1="217.14267"
      y2="1779.3826"
      fill="none"
      stroke="#000000"
      stroke-width="10"
      stroke-linecap="round"
      stroke-linejoin="round"
    />
    <rect
      width="10"
      id="connector16terminal"
      y="1774.4962"
      x="307.00009"
      height="10"
      fill="none"
      stroke-width="0"
    />
    <line
      id="connector17pin"
      x2="312.14267"
      y1="1879.3757"
      x1="217.14267"
      y2="1879.3757"
      fill="none"
      stroke="#000000"
      stroke-width="10"
      stroke-linecap="round"
      stroke-linejoin="round"
    />
    <rect
      width="10"
      id="connector17terminal"
      y="1874.4928"
      x="307.00009"
      height="10"
      fill="none"
      stroke-width="0"
    />
    <line
      id="connector18pin"
      x2="312.14267"
      y1="1979.3721"
      x1="217.14267"
      y2="1979.3721"
      fill="none"
      stroke="#000000"
      stroke-width="10"
      stroke-linecap="round"
      stroke-linejoin="round"
    />
    <rect
      width="10"
      id="connector18terminal"
      y="1974.4894"
      x="307.00009"
      height="10"
      fill="none"
      stroke-width="0"
    />
    <line
      id="connector19pin"
      x2="312.14267"
      y1="2079.3689"
      x1="217.14267"
      y2="2079.3689"
      fill="none"
      stroke="#000000"
      stroke-width="10"
      stroke-linecap="round"
      stroke-linejoin="round"
    />
    <rect
      width="10"
      id="connector19terminal"
      y="2074.4827"
      x="307.00009"
      height="10"
      fill="none"
      stroke-width="0"
    />
    <line
      id="connector20pin"
      x2="312.14267"
      y1="2179.3689"
      x1="217.14267"
      y2="2179.3689"
      fill="none"
      stroke="#000000"
      stroke-width="10"
      stroke-linecap="round"
      stroke-linejoin="round"
    />
    <rect
      width="10"
      id="connector20terminal"
      y="2174.4792"
      x="307.00009"
      height="10"
      fill="none"
      stroke-width="0"
    />
    <line
      id="connector21pin"
      x2="312.14267"
      y1="2279.3655"
      x1="217.14267"
      y2="2279.3655"
      fill="none"
      stroke="#000000"
      stroke-width="10"
      stroke-linecap="round"
      stroke-linejoin="round"
    />
    <rect
      width="10"
      id="connector21terminal"
      y="2274.4792"
      x="307.00009"
      height="10"
      fill="none"
      stroke-width="0"
    />
    <line
      id="connector22pin"
      x2="312.14267"
      y1="2379.3621"
      x1="217.14267"
      y2="2379.3621"
      fill="none"
      stroke="#000000"
      stroke-width="10"
      stroke-linecap="round"
      stroke-linejoin="round"
    />
    <rect
      width="10"
      id="connector22terminal"
      y="2374.4758"
      x="307.00009"
      height="10"
      fill="none"
      stroke-width="0"
    />
    <line
      id="connector23pin"
      x2="312.14267"
      y1="2479.3552"
      x1="217.14267"
      y2="2479.3552"
      fill="none"
      stroke="#000000"
      stroke-width="10"
      stroke-linecap="round"
      stroke-linejoin="round"
    />
    <rect
      width="10"
      id="connector23terminal"
      y="2474.4724"
      x="307.00009"
      height="10"
      fill="none"
      stroke-width="0"
    />
    <line
      id="connector24pin"
      x2="312.14267"
      y1="2579.3518"
      x1="217.14267"
      y2="2579.3518"
      fill="none"
      stroke="#000000"
      stroke-width="10"
      stroke-linecap="round"
      stroke-linejoin="round"
    />
    <rect
      width="10"
      id="connector24terminal"
      y="2574.469"
      x="307.00009"
      height="10"
      fill="none"
      stroke-width="0"
    />
    <line
      id="connector25pin"
      x2="312.14267"
      y1="2679.3516"
      x1="217.14267"
      y2="2679.3516"
      fill="none"
      stroke="#000000"
      stroke-width="10"
      stroke-linecap="round"
      stroke-linejoin="round"
    />
    <rect
      width="10"
      id="connector25terminal"
      y="2674.4653"
      x="307.00009"
      height="10"
      fill="none"
      stroke-width="0"
    />
    <line
      id="connector26pin"
      x2="312.14267"
      y1="2779.3484"
      x1="217.14267"
      y2="2779.3484"
      fill="none"
      stroke="#000000"
      stroke-width="10"
      stroke-linecap="round"
      stroke-linejoin="round"
    />
    <rect
      width="10"
      id="connector26terminal"
      y="2774.4622"
      x="307.00009"
      height="10"
      fill="none"
      stroke-width="0"
    />
    <line
      id="connector27pin"
      x2="312.14267"
      y1="2879.345"
      x1="217.14267"
      y2="2879.345"
      fill="none"
      stroke="#000000"
      stroke-width="10"
      stroke-linecap="round"
      stroke-linejoin="round"
    />
    <rect
      width="10"
      id="connector27terminal"
      y="2874.4587"
      x="307.00009"
      height="10"
      fill="none"
      stroke-width="0"
    />
    <line
      id="connector28pin"
      x2="312.14267"
      y1="2979.3413"
      x1="217.14267"
      y2="2979.3413"
      fill="none"
      stroke="#000000"
      stroke-width="10"
      stroke-linecap="round"
      stroke-linejoin="round"
    />
    <rect
      width="10"
      id="connector28terminal"
      y="2974.4553"
      x="307.00009"
      height="10"
      fill="none"
      stroke-width="0"
    />
    <line
      id="connector29pin"
      x2="312.14267"
      y1="3079.3381"
      x1="217.14267"
      y2="3079.3381"
      fill="none"
      stroke="#000000"
      stroke-width="10"
      stroke-linecap="round"
      stroke-linejoin="round"
    />
    <rect
      width="10"
      id="connector29terminal"
      y="3074.4519"
      x="307.00009"
      height="10"
      fill="none"
      stroke-width="0"
    />
    <line
      id="connector30pin"
      x2="312.14267"
      y1="3179.3345"
      x1="217.14267"
      y2="3179.3345"
      fill="none"
      stroke="#000000"
      stroke-width="10"
      stroke-linecap="round"
      stroke-linejoin="round"
    />
    <rect
      width="10"
      id="connector30terminal"
      y="3174.4482"
      x="307.00009"
      height="10"
      fill="none"
      stroke-width="0"
    />
    <line
      id="connector31pin"
      x2="312.14267"
      y1="3279.3311"
      x1="217.14267"
      y2="3279.3311"
      fill="none"
      stroke="#000000"
      stroke-width="10"
      stroke-linecap="round"
      stroke-linejoin="round"
    />
    <rect
      width="10"
      id="connector31terminal"
      y="3274.4485"
      x="307.00009"
      height="10"
      fill="none"
      stroke-width="0"
    />
    <line
      id="connector32pin"
      x2="312.14267"
      y1="3379.3279"
      x1="217.14267"
      y2="3379.3279"
      fill="none"
      stroke="#000000"
      stroke-width="10"
      stroke-linecap="round"
      stroke-linejoin="round"
    />
    <rect
      width="10"
      id="connector32terminal"
      y="3374.4417"
      x="307.00009"
      height="10"
      fill="none"
      stroke-width="0"
    />
    <line
      id="connector33pin"
      x2="312.14267"
      y1="3479.3242"
      x1="217.14267"
      y2="3479.3242"
      fill="none"
      stroke="#000000"
      stroke-width="10"
      stroke-linecap="round"
      stroke-linejoin="round"
    />
    <rect
      width="10"
      id="connector33terminal"
      y="3474.438"
      x="307.00009"
      height="10"
      fill="none"
      stroke-width="0"
    />
    <line
      id="connector34pin"
      x2="312.14267"
      y1="3579.321"
      x1="217.14267"
      y2="3579.321"
      fill="none"
      stroke="#000000"
      stroke-width="10"
      stroke-linecap="round"
      stroke-linejoin="round"
    />
    <rect
      width="10"
      id="connector34terminal"
      y="3574.4348"
      x="307.00009"
      height="10"
      fill="none"
      stroke-width="0"
    />
    <line
      id="connector35pin"
      x2="312.14267"
      y1="3679.3208"
      x1="217.14267"
      y2="3679.3208"
      fill="none"
      stroke="#000000"
      stroke-width="10"
      stroke-linecap="round"
      stroke-linejoin="round"
    />
    <rect
      width="10"
      id="connector35terminal"
      y="3674.4312"
      x="307.00009"
      height="10"
      fill="none"
      stroke-width="0"
    />
    <line
      id="connector36pin"
      x2="312.14267"
      y1="3779.3174"
      x1="217.14267"
      y2="3779.3174"
      fill="none"
      stroke="#000000"
      stroke-width="10"
      stroke-linecap="round"
      stroke-linejoin="round"
    />
    <rect
      width="10"
      id="connector36terminal"
      y="3774.4312"
      x="307.00009"
      height="10"
      fill="none"
      stroke-width="0"
    />
    <line
      id="connector37pin"
      x2="312.14267"
      y1="3879.303"
      x1="217.14267"
      y2="3879.303"
      fill="none"
      stroke="#000000"
      stroke-width="10"
      stroke-linecap="round"
      stroke-linejoin="round"
    />
    <rect
      width="10"
      id="connector37terminal"
      y="3874.428"
      x="307.00009"
      height="10"
      fill="none"
      stroke-width="0"
    />
    <line
      id="connector38pin"
      x2="312.14267"
      y1="3979.3071"
      x1="217.14267"
      y2="3979.3071"
      fill="none"
      stroke="#000000"
      stroke-width="10"
      stroke-linecap="round"
      stroke-linejoin="round"
    />
    <rect
      width="10"
      id="connector38terminal"
      y="3974.4241"
      x="307.00009"
      height="10"
      fill="none"
      stroke-width="0"
    />
    <line
      id="connector39pin"
      x2="312.14267"
      y1="4079.3035"
      x1="217.14267"
      y2="4079.3035"
      fill="none"
      stroke="#000000"
      stroke-width="10"
      stroke-linecap="round"
      stroke-linejoin="round"
    />
    <rect
      width="10"
      id="connector39terminal"
      y="4074.4177"
      x="307.00009"
      height="10"
      fill="none"
      stroke-width="0"
    />
  </g>
</svg>
