<?xml version='1.0' encoding='UTF-8' standalone='no'?>
<svg
  xmlns:dc="http://purl.org/dc/elements/1.1/"
  xmlns:cc="http://creativecommons.org/ns#"
  xmlns:rdf="http://www.w3.org/1999/02/22-rdf-syntax-ns#"
  xmlns:svg="http://www.w3.org/2000/svg"
  xmlns="http://www.w3.org/2000/svg"
  viewBox="0 0 2100.019 208.95841"
  version="1.1"
  height="5.3075418mm"
  x="0px"
  y="0px"
  enable-background="new 0 0 241.818 159.695"
  id="Layer_1"
  width="53.340466mm">
  <metadata
    id="metadata52">
    <rdf:RDF>
      <cc:Work
        rdf:about="">
        <dc:format>image/svg+xml</dc:format>
        <dc:type
          rdf:resource="http://purl.org/dc/dcmitype/StillImage"
        />
        <dc:title/>
      </cc:Work>
    </rdf:RDF>
  </metadata>
  <defs
    id="defs50"
  />
  <desc
    id="desc3">
    <referenceFile>RPiHeader40p_1_pcb.svg</referenceFile>
  </desc>
  <g
    id="silkscreen">
    <line
      id="line281"
      x1="2036.5515"
      x2="2036.5515"
      y2="203.48965"
      y1="3.4895916"
      stroke="#000000"
      stroke-width="10"
    />
    <line
      y1="5"
      y2="5"
      x2="2034.5516"
      x1="34.550819"
      id="line279"
      stroke="#000000"
      stroke-width="10"
    />
    <line
      id="line9"
      x1="35.550819"
      x2="2035.5515"
      y2="203.9584"
      y1="203.9584"
      stroke="#000000"
      stroke-width="10"
    />
    <line
      id="line7"
      x1="34.550819"
      x2="34.550819"
      y2="203.9584"
      y1="3.9583454"
      stroke="#000000"
      stroke-width="10"
    />
    <text
      font-size="35"
      id="text277"
      y="166.51791"
      x="-3.9549999"
      font-family="OCRA"
      fill="#000000"
      stroke-width="1">1</text>
    <text
      x="-3.9549999"
      y="65.479164"
      id="text101"
      font-size="35"
      font-family="OCRA"
      fill="#000000"
      stroke-width="1">2</text>
    <text
      x="2053.3411"
      y="166.51791"
      id="text105"
      font-size="35"
      font-family="OCRA"
      fill="#000000"
      stroke-width="1">39</text>
    <text
      font-size="35"
      id="text107"
      y="65.479164"
      x="2052.7412"
      font-family="OCRA"
      fill="#000000"
      stroke-width="1">40</text>
  </g>
  <g
    id="copper1">
    <g
      id="copper0">
      <path
        d="m 53.454139,174.24044 c 0,11.077 12.125,19.9992 27.0183,19.9992 14.8933,0 26.997901,-8.9222 26.997901,-19.9992 v -39.9984 c 0,-11.0769 -12.104601,-19.9992 -26.997901,-19.9992 -14.5089,0 -26.459,8.4569 -27.0183,19.2261 z m 8.016,-19.9178 a 19.000006,19.000006 0 0 1 19.0023,-19.0023 19.000006,19.000006 0 0 1 18.9819,19.0023 19.000006,19.000006 0 0 1 -18.9819,19.0023 19.000006,19.000006 0 0 1 -19.0023,-19.0023 z"
        id="path44"
        fill="#f7bd13"
        stroke="none"
        stroke-width="0"
      />
      <path
        id="path284"
        d="m 153.00005,174.24044 c 0,11.077 12.125,19.9992 27.0183,19.9992 14.8933,0 26.9979,-8.9222 26.9979,-19.9992 v -39.9984 c 0,-11.0769 -12.1046,-19.9992 -26.9979,-19.9992 -14.5089,0 -26.459,8.4569 -27.0183,19.2261 z m 8.016,-19.9178 a 19.000006,19.000006 0 0 1 19.0023,-19.0023 19.000006,19.000006 0 0 1 18.9819,19.0023 19.000006,19.000006 0 0 1 -18.9819,19.0023 19.000006,19.000006 0 0 1 -19.0023,-19.0023 z"
        fill="#f7bd13"
        stroke="none"
        stroke-width="0"
      />
      <path
        d="m 253.00008,174.24044 c 0,11.077 12.125,19.9992 27.0183,19.9992 14.8933,0 26.9979,-8.9222 26.9979,-19.9992 v -39.9984 c 0,-11.0769 -12.1046,-19.9992 -26.9979,-19.9992 -14.5089,0 -26.459,8.4569 -27.0183,19.2261 z m 8.016,-19.9178 a 19.000006,19.000006 0 0 1 19.0023,-19.0023 19.000006,19.000006 0 0 1 18.9819,19.0023 19.000006,19.000006 0 0 1 -18.9819,19.0023 19.000006,19.000006 0 0 1 -19.0023,-19.0023 z"
        id="path288"
        fill="#f7bd13"
        stroke="none"
        stroke-width="0"
      />
      <path
        id="path292"
        d="m 353.00012,174.24044 c 0,11.077 12.125,19.9992 27.0183,19.9992 14.8933,0 26.9979,-8.9222 26.9979,-19.9992 v -39.9984 c 0,-11.0769 -12.1046,-19.9992 -26.9979,-19.9992 -14.5089,0 -26.459,8.4569 -27.0183,19.2261 z m 8.016,-19.9178 a 19.000006,19.000006 0 0 1 19.0023,-19.0023 19.000006,19.000006 0 0 1 18.9819,19.0023 19.000006,19.000006 0 0 1 -18.9819,19.0023 19.000006,19.000006 0 0 1 -19.0023,-19.0023 z"
        fill="#f7bd13"
        stroke="none"
        stroke-width="0"
      />
      <path
        d="m 453.00015,174.24044 c 0,11.077 12.125,19.9992 27.0183,19.9992 14.8933,0 26.9979,-8.9222 26.9979,-19.9992 v -39.9984 c 0,-11.0769 -12.1046,-19.9992 -26.9979,-19.9992 -14.5089,0 -26.459,8.4569 -27.0183,19.2261 z m 8.016,-19.9178 a 19.000006,19.000006 0 0 1 19.0023,-19.0023 19.000006,19.000006 0 0 1 18.9819,19.0023 19.000006,19.000006 0 0 1 -18.9819,19.0023 19.000006,19.000006 0 0 1 -19.0023,-19.0023 z"
        id="path296"
        fill="#f7bd13"
        stroke="none"
        stroke-width="0"
      />
      <path
        id="path300"
        d="m 553.00018,174.24044 c 0,11.077 12.125,19.9992 27.0183,19.9992 14.8933,0 26.9979,-8.9222 26.9979,-19.9992 v -39.9984 c 0,-11.0769 -12.1046,-19.9992 -26.9979,-19.9992 -14.5089,0 -26.459,8.4569 -27.0183,19.2261 z m 8.016,-19.9178 a 19.000006,19.000006 0 0 1 19.0023,-19.0023 19.000006,19.000006 0 0 1 18.9819,19.0023 19.000006,19.000006 0 0 1 -18.9819,19.0023 19.000006,19.000006 0 0 1 -19.0023,-19.0023 z"
        fill="#f7bd13"
        stroke="none"
        stroke-width="0"
      />
      <path
        d="m 653.00021,174.24044 c 0,11.077 12.125,19.9992 27.0183,19.9992 14.8933,0 26.9979,-8.9222 26.9979,-19.9992 v -39.9984 c 0,-11.0769 -12.1046,-19.9992 -26.9979,-19.9992 -14.5089,0 -26.459,8.4569 -27.0183,19.2261 z m 8.016,-19.9178 a 19.000006,19.000006 0 0 1 19.0023,-19.0023 19.000006,19.000006 0 0 1 18.9819,19.0023 19.000006,19.000006 0 0 1 -18.9819,19.0023 19.000006,19.000006 0 0 1 -19.0023,-19.0023 z"
        id="path304"
        fill="#f7bd13"
        stroke="none"
        stroke-width="0"
      />
      <path
        id="path308"
        d="m 753.00025,174.24044 c 0,11.077 12.125,19.9992 27.0183,19.9992 14.8933,0 26.9979,-8.9222 26.9979,-19.9992 v -39.9984 c 0,-11.0769 -12.1046,-19.9992 -26.9979,-19.9992 -14.5089,0 -26.459,8.4569 -27.0183,19.2261 z m 8.016,-19.9178 a 19.000006,19.000006 0 0 1 19.0023,-19.0023 19.000006,19.000006 0 0 1 18.9819,19.0023 19.000006,19.000006 0 0 1 -18.9819,19.0023 19.000006,19.000006 0 0 1 -19.0023,-19.0023 z"
        fill="#f7bd13"
        stroke="none"
        stroke-width="0"
      />
      <path
        d="m 853.00028,174.24044 c 0,11.077 12.125,19.9992 27.0183,19.9992 14.8933,0 26.9979,-8.9222 26.9979,-19.9992 v -39.9984 c 0,-11.0769 -12.1046,-19.9992 -26.9979,-19.9992 -14.5089,0 -26.459,8.4569 -27.0183,19.2261 z m 8.016,-19.9178 a 19.000006,19.000006 0 0 1 19.0023,-19.0023 19.000006,19.000006 0 0 1 18.9819,19.0023 19.000006,19.000006 0 0 1 -18.9819,19.0023 19.000006,19.000006 0 0 1 -19.0023,-19.0023 z"
        id="path312"
        fill="#f7bd13"
        stroke="none"
        stroke-width="0"
      />
      <path
        id="path316"
        d="m 953.00031,174.24044 c 0,11.077 12.125,19.9992 27.0183,19.9992 14.8933,0 26.99789,-8.9222 26.99789,-19.9992 v -39.9984 c 0,-11.0769 -12.10459,-19.9992 -26.99789,-19.9992 -14.5089,0 -26.459,8.4569 -27.0183,19.2261 z m 8.016,-19.9178 a 19.000006,19.000006 0 0 1 19.0023,-19.0023 19.000006,19.000006 0 0 1 18.9819,19.0023 19.000006,19.000006 0 0 1 -18.9819,19.0023 19.000006,19.000006 0 0 1 -19.0023,-19.0023 z"
        fill="#f7bd13"
        stroke="none"
        stroke-width="0"
      />
      <path
        d="m 1053.0003,174.24044 c 0,11.077 12.125,19.9992 27.0183,19.9992 14.8933,0 26.9979,-8.9222 26.9979,-19.9992 v -39.9984 c 0,-11.0769 -12.1046,-19.9992 -26.9979,-19.9992 -14.5089,0 -26.459,8.4569 -27.0183,19.2261 z m 8.016,-19.9178 a 19.000006,19.000006 0 0 1 19.0023,-19.0023 19.000006,19.000006 0 0 1 18.9819,19.0023 19.000006,19.000006 0 0 1 -18.9819,19.0023 19.000006,19.000006 0 0 1 -19.0023,-19.0023 z"
        id="path320"
        fill="#f7bd13"
        stroke="none"
        stroke-width="0"
      />
      <path
        id="path324"
        d="m 1153.0004,174.24044 c 0,11.077 12.125,19.9992 27.0183,19.9992 14.8933,0 26.9979,-8.9222 26.9979,-19.9992 v -39.9984 c 0,-11.0769 -12.1046,-19.9992 -26.9979,-19.9992 -14.5089,0 -26.459,8.4569 -27.0183,19.2261 z m 8.016,-19.9178 a 19.000006,19.000006 0 0 1 19.0023,-19.0023 19.000006,19.000006 0 0 1 18.9819,19.0023 19.000006,19.000006 0 0 1 -18.9819,19.0023 19.000006,19.000006 0 0 1 -19.0023,-19.0023 z"
        fill="#f7bd13"
        stroke="none"
        stroke-width="0"
      />
      <path
        d="m 1253.0004,174.24044 c 0,11.077 12.125,19.9992 27.0183,19.9992 14.8933,0 26.9979,-8.9222 26.9979,-19.9992 v -39.9984 c 0,-11.0769 -12.1046,-19.9992 -26.9979,-19.9992 -14.5089,0 -26.459,8.4569 -27.0183,19.2261 z m 8.016,-19.9178 a 19.000006,19.000006 0 0 1 19.0023,-19.0023 19.000006,19.000006 0 0 1 18.9819,19.0023 19.000006,19.000006 0 0 1 -18.9819,19.0023 19.000006,19.000006 0 0 1 -19.0023,-19.0023 z"
        id="path328"
        fill="#f7bd13"
        stroke="none"
        stroke-width="0"
      />
      <path
        id="path332"
        d="m 1353.0004,174.24044 c 0,11.077 12.125,19.9992 27.0183,19.9992 14.8933,0 26.9979,-8.9222 26.9979,-19.9992 v -39.9984 c 0,-11.0769 -12.1046,-19.9992 -26.9979,-19.9992 -14.5089,0 -26.459,8.4569 -27.0183,19.2261 z m 8.016,-19.9178 a 19.000006,19.000006 0 0 1 19.0023,-19.0023 19.000006,19.000006 0 0 1 18.9819,19.0023 19.000006,19.000006 0 0 1 -18.9819,19.0023 19.000006,19.000006 0 0 1 -19.0023,-19.0023 z"
        fill="#f7bd13"
        stroke="none"
        stroke-width="0"
      />
      <path
        d="m 1453.0005,174.24044 c 0,11.077 12.125,19.9992 27.0183,19.9992 14.8933,0 26.9979,-8.9222 26.9979,-19.9992 v -39.9984 c 0,-11.0769 -12.1046,-19.9992 -26.9979,-19.9992 -14.5089,0 -26.459,8.4569 -27.0183,19.2261 z m 8.016,-19.9178 a 19.000006,19.000006 0 0 1 19.0023,-19.0023 19.000006,19.000006 0 0 1 18.9819,19.0023 19.000006,19.000006 0 0 1 -18.9819,19.0023 19.000006,19.000006 0 0 1 -19.0023,-19.0023 z"
        id="path336"
        fill="#f7bd13"
        stroke="none"
        stroke-width="0"
      />
      <path
        id="path340"
        d="m 1553.0005,174.24044 c 0,11.077 12.125,19.9992 27.0183,19.9992 14.8933,0 26.9979,-8.9222 26.9979,-19.9992 v -39.9984 c 0,-11.0769 -12.1046,-19.9992 -26.9979,-19.9992 -14.5089,0 -26.459,8.4569 -27.0183,19.2261 z m 8.016,-19.9178 a 19.000006,19.000006 0 0 1 19.0023,-19.0023 19.000006,19.000006 0 0 1 18.9819,19.0023 19.000006,19.000006 0 0 1 -18.9819,19.0023 19.000006,19.000006 0 0 1 -19.0023,-19.0023 z"
        fill="#f7bd13"
        stroke="none"
        stroke-width="0"
      />
      <path
        d="m 1653.0005,174.24044 c 0,11.077 12.125,19.9992 27.0183,19.9992 14.8933,0 26.9979,-8.9222 26.9979,-19.9992 v -39.9984 c 0,-11.0769 -12.1046,-19.9992 -26.9979,-19.9992 -14.5089,0 -26.459,8.4569 -27.0183,19.2261 z m 8.016,-19.9178 a 19.000006,19.000006 0 0 1 19.0023,-19.0023 19.000006,19.000006 0 0 1 18.9819,19.0023 19.000006,19.000006 0 0 1 -18.9819,19.0023 19.000006,19.000006 0 0 1 -19.0023,-19.0023 z"
        id="path344"
        fill="#f7bd13"
        stroke="none"
        stroke-width="0"
      />
      <path
        id="path348"
        d="m 1753.0006,174.24044 c 0,11.077 12.125,19.9992 27.0183,19.9992 14.8933,0 26.9979,-8.9222 26.9979,-19.9992 v -39.9984 c 0,-11.0769 -12.1046,-19.9992 -26.9979,-19.9992 -14.5089,0 -26.459,8.4569 -27.0183,19.2261 z m 8.016,-19.9178 a 19.000006,19.000006 0 0 1 19.0023,-19.0023 19.000006,19.000006 0 0 1 18.9819,19.0023 19.000006,19.000006 0 0 1 -18.9819,19.0023 19.000006,19.000006 0 0 1 -19.0023,-19.0023 z"
        fill="#f7bd13"
        stroke="none"
        stroke-width="0"
      />
      <path
        d="m 1853.0006,174.24044 c 0,11.077 12.125,19.9992 27.0183,19.9992 14.8933,0 26.9979,-8.9222 26.9979,-19.9992 v -39.9984 c 0,-11.0769 -12.1046,-19.9992 -26.9979,-19.9992 -14.5089,0 -26.459,8.4569 -27.0183,19.2261 z m 8.016,-19.9178 a 19.000006,19.000006 0 0 1 19.0023,-19.0023 19.000006,19.000006 0 0 1 18.9819,19.0023 19.000006,19.000006 0 0 1 -18.9819,19.0023 19.000006,19.000006 0 0 1 -19.0023,-19.0023 z"
        id="path352"
        fill="#f7bd13"
        stroke="none"
        stroke-width="0"
      />
      <path
        id="path356"
        d="m 1953.0006,174.24044 c 0,11.077 12.125,19.9992 27.0183,19.9992 14.8933,0 26.9979,-8.9222 26.9979,-19.9992 v -39.9984 c 0,-11.0769 -12.1046,-19.9992 -26.9979,-19.9992 -14.5089,0 -26.459,8.4569 -27.0183,19.2261 z m 8.016,-19.9178 a 19.000006,19.000006 0 0 1 19.0023,-19.0023 19.000006,19.000006 0 0 1 18.9819,19.0023 19.000006,19.000006 0 0 1 -18.9819,19.0023 19.000006,19.000006 0 0 1 -19.0023,-19.0023 z"
        fill="#f7bd13"
        stroke="none"
        stroke-width="0"
      />
      <path
        id="path360"
        d="m 53.454139,73.750828 c 0,11.076996 12.125,19.999196 27.0183,19.999196 14.8933,0 26.997901,-8.9222 26.997901,-19.999196 v -39.9984 c 0,-11.0769 -12.104601,-19.9992 -26.997901,-19.9992 -14.5089,0 -26.459,8.4569 -27.0183,19.2261 z m 8.016,-19.9178 a 19.000006,19.000006 0 0 1 19.0023,-19.0023 19.000006,19.000006 0 0 1 18.9819,19.0023 19.000006,19.000006 0 0 1 -18.9819,19.0023 19.000006,19.000006 0 0 1 -19.0023,-19.0023 z"
        fill="#f7bd13"
        stroke="none"
        stroke-width="0"
      />
      <path
        d="m 153.00005,73.750828 c 0,11.076996 12.125,19.999196 27.0183,19.999196 14.8933,0 26.9979,-8.9222 26.9979,-19.999196 v -39.9984 c 0,-11.0769 -12.1046,-19.9992 -26.9979,-19.9992 -14.5089,0 -26.459,8.4569 -27.0183,19.2261 z m 8.016,-19.9178 a 19.000006,19.000006 0 0 1 19.0023,-19.0023 19.000006,19.000006 0 0 1 18.9819,19.0023 19.000006,19.000006 0 0 1 -18.9819,19.0023 19.000006,19.000006 0 0 1 -19.0023,-19.0023 z"
        id="path364"
        fill="#f7bd13"
        stroke="none"
        stroke-width="0"
      />
      <path
        id="path368"
        d="m 253.00008,73.750828 c 0,11.076996 12.125,19.999196 27.0183,19.999196 14.8933,0 26.9979,-8.9222 26.9979,-19.999196 v -39.9984 c 0,-11.0769 -12.1046,-19.9992 -26.9979,-19.9992 -14.5089,0 -26.459,8.4569 -27.0183,19.2261 z m 8.016,-19.9178 a 19.000006,19.000006 0 0 1 19.0023,-19.0023 19.000006,19.000006 0 0 1 18.9819,19.0023 19.000006,19.000006 0 0 1 -18.9819,19.0023 19.000006,19.000006 0 0 1 -19.0023,-19.0023 z"
        fill="#f7bd13"
        stroke="none"
        stroke-width="0"
      />
      <path
        d="m 353.00012,73.750828 c 0,11.076996 12.125,19.999196 27.0183,19.999196 14.8933,0 26.9979,-8.9222 26.9979,-19.999196 v -39.9984 c 0,-11.0769 -12.1046,-19.9992 -26.9979,-19.9992 -14.5089,0 -26.459,8.4569 -27.0183,19.2261 z m 8.016,-19.9178 a 19.000006,19.000006 0 0 1 19.0023,-19.0023 19.000006,19.000006 0 0 1 18.9819,19.0023 19.000006,19.000006 0 0 1 -18.9819,19.0023 19.000006,19.000006 0 0 1 -19.0023,-19.0023 z"
        id="path372"
        fill="#f7bd13"
        stroke="none"
        stroke-width="0"
      />
      <path
        id="path376"
        d="m 453.00015,73.750828 c 0,11.076996 12.125,19.999196 27.0183,19.999196 14.8933,0 26.9979,-8.9222 26.9979,-19.999196 v -39.9984 c 0,-11.0769 -12.1046,-19.9992 -26.9979,-19.9992 -14.5089,0 -26.459,8.4569 -27.0183,19.2261 z m 8.016,-19.9178 a 19.000006,19.000006 0 0 1 19.0023,-19.0023 19.000006,19.000006 0 0 1 18.9819,19.0023 19.000006,19.000006 0 0 1 -18.9819,19.0023 19.000006,19.000006 0 0 1 -19.0023,-19.0023 z"
        fill="#f7bd13"
        stroke="none"
        stroke-width="0"
      />
      <path
        d="m 553.00018,73.750828 c 0,11.076996 12.125,19.999196 27.0183,19.999196 14.8933,0 26.9979,-8.9222 26.9979,-19.999196 v -39.9984 c 0,-11.0769 -12.1046,-19.9992 -26.9979,-19.9992 -14.5089,0 -26.459,8.4569 -27.0183,19.2261 z m 8.016,-19.9178 a 19.000006,19.000006 0 0 1 19.0023,-19.0023 19.000006,19.000006 0 0 1 18.9819,19.0023 19.000006,19.000006 0 0 1 -18.9819,19.0023 19.000006,19.000006 0 0 1 -19.0023,-19.0023 z"
        id="path380"
        fill="#f7bd13"
        stroke="none"
        stroke-width="0"
      />
      <path
        id="path386"
        d="m 653.00021,73.750828 c 0,11.076996 12.125,19.999196 27.0183,19.999196 14.8933,0 26.9979,-8.9222 26.9979,-19.999196 v -39.9984 c 0,-11.0769 -12.1046,-19.9992 -26.9979,-19.9992 -14.5089,0 -26.459,8.4569 -27.0183,19.2261 z m 8.016,-19.9178 a 19.000006,19.000006 0 0 1 19.0023,-19.0023 19.000006,19.000006 0 0 1 18.9819,19.0023 19.000006,19.000006 0 0 1 -18.9819,19.0023 19.000006,19.000006 0 0 1 -19.0023,-19.0023 z"
        fill="#f7bd13"
        stroke="none"
        stroke-width="0"
      />
      <path
        d="m 753.00025,73.750828 c 0,11.076996 12.125,19.999196 27.0183,19.999196 14.8933,0 26.9979,-8.9222 26.9979,-19.999196 v -39.9984 c 0,-11.0769 -12.1046,-19.9992 -26.9979,-19.9992 -14.5089,0 -26.459,8.4569 -27.0183,19.2261 z m 8.016,-19.9178 a 19.000006,19.000006 0 0 1 19.0023,-19.0023 19.000006,19.000006 0 0 1 18.9819,19.0023 19.000006,19.000006 0 0 1 -18.9819,19.0023 19.000006,19.000006 0 0 1 -19.0023,-19.0023 z"
        id="path392"
        fill="#f7bd13"
        stroke="none"
        stroke-width="0"
      />
      <path
        id="path396"
        d="m 853.00028,73.750828 c 0,11.076996 12.125,19.999196 27.0183,19.999196 14.8933,0 26.9979,-8.9222 26.9979,-19.999196 v -39.9984 c 0,-11.0769 -12.1046,-19.9992 -26.9979,-19.9992 -14.5089,0 -26.459,8.4569 -27.0183,19.2261 z m 8.016,-19.9178 a 19.000006,19.000006 0 0 1 19.0023,-19.0023 19.000006,19.000006 0 0 1 18.9819,19.0023 19.000006,19.000006 0 0 1 -18.9819,19.0023 19.000006,19.000006 0 0 1 -19.0023,-19.0023 z"
        fill="#f7bd13"
        stroke="none"
        stroke-width="0"
      />
      <path
        d="m 953.00031,73.750828 c 0,11.076996 12.125,19.999196 27.0183,19.999196 14.8933,0 26.99789,-8.9222 26.99789,-19.999196 v -39.9984 c 0,-11.0769 -12.10459,-19.9992 -26.99789,-19.9992 -14.5089,0 -26.459,8.4569 -27.0183,19.2261 z m 8.016,-19.9178 a 19.000006,19.000006 0 0 1 19.0023,-19.0023 19.000006,19.000006 0 0 1 18.9819,19.0023 19.000006,19.000006 0 0 1 -18.9819,19.0023 19.000006,19.000006 0 0 1 -19.0023,-19.0023 z"
        id="path400"
        fill="#f7bd13"
        stroke="none"
        stroke-width="0"
      />
      <path
        id="path404"
        d="m 1053.0003,73.750828 c 0,11.076996 12.125,19.999196 27.0183,19.999196 14.8933,0 26.9979,-8.9222 26.9979,-19.999196 v -39.9984 c 0,-11.0769 -12.1046,-19.9992 -26.9979,-19.9992 -14.5089,0 -26.459,8.4569 -27.0183,19.2261 z m 8.016,-19.9178 a 19.000006,19.000006 0 0 1 19.0023,-19.0023 19.000006,19.000006 0 0 1 18.9819,19.0023 19.000006,19.000006 0 0 1 -18.9819,19.0023 19.000006,19.000006 0 0 1 -19.0023,-19.0023 z"
        fill="#f7bd13"
        stroke="none"
        stroke-width="0"
      />
      <path
        d="m 1153.0004,73.750828 c 0,11.076996 12.125,19.999196 27.0183,19.999196 14.8933,0 26.9979,-8.9222 26.9979,-19.999196 v -39.9984 c 0,-11.0769 -12.1046,-19.9992 -26.9979,-19.9992 -14.5089,0 -26.459,8.4569 -27.0183,19.2261 z m 8.016,-19.9178 a 19.000006,19.000006 0 0 1 19.0023,-19.0023 19.000006,19.000006 0 0 1 18.9819,19.0023 19.000006,19.000006 0 0 1 -18.9819,19.0023 19.000006,19.000006 0 0 1 -19.0023,-19.0023 z"
        id="path408"
        fill="#f7bd13"
        stroke="none"
        stroke-width="0"
      />
      <path
        id="path412"
        d="m 1253.0004,73.750828 c 0,11.076996 12.125,19.999196 27.0183,19.999196 14.8933,0 26.9979,-8.9222 26.9979,-19.999196 v -39.9984 c 0,-11.0769 -12.1046,-19.9992 -26.9979,-19.9992 -14.5089,0 -26.459,8.4569 -27.0183,19.2261 z m 8.016,-19.9178 a 19.000006,19.000006 0 0 1 19.0023,-19.0023 19.000006,19.000006 0 0 1 18.9819,19.0023 19.000006,19.000006 0 0 1 -18.9819,19.0023 19.000006,19.000006 0 0 1 -19.0023,-19.0023 z"
        fill="#f7bd13"
        stroke="none"
        stroke-width="0"
      />
      <path
        d="m 1353.0004,73.750828 c 0,11.076996 12.125,19.999196 27.0183,19.999196 14.8933,0 26.9979,-8.9222 26.9979,-19.999196 v -39.9984 c 0,-11.0769 -12.1046,-19.9992 -26.9979,-19.9992 -14.5089,0 -26.459,8.4569 -27.0183,19.2261 z m 8.016,-19.9178 a 19.000006,19.000006 0 0 1 19.0023,-19.0023 19.000006,19.000006 0 0 1 18.9819,19.0023 19.000006,19.000006 0 0 1 -18.9819,19.0023 19.000006,19.000006 0 0 1 -19.0023,-19.0023 z"
        id="path416"
        fill="#f7bd13"
        stroke="none"
        stroke-width="0"
      />
      <path
        id="path420"
        d="m 1453.0005,73.750828 c 0,11.076996 12.125,19.999196 27.0183,19.999196 14.8933,0 26.9979,-8.9222 26.9979,-19.999196 v -39.9984 c 0,-11.0769 -12.1046,-19.9992 -26.9979,-19.9992 -14.5089,0 -26.459,8.4569 -27.0183,19.2261 z m 8.016,-19.9178 a 19.000006,19.000006 0 0 1 19.0023,-19.0023 19.000006,19.000006 0 0 1 18.9819,19.0023 19.000006,19.000006 0 0 1 -18.9819,19.0023 19.000006,19.000006 0 0 1 -19.0023,-19.0023 z"
        fill="#f7bd13"
        stroke="none"
        stroke-width="0"
      />
      <path
        d="m 1553.0005,73.750828 c 0,11.076996 12.125,19.999196 27.0183,19.999196 14.8933,0 26.9979,-8.9222 26.9979,-19.999196 v -39.9984 c 0,-11.0769 -12.1046,-19.9992 -26.9979,-19.9992 -14.5089,0 -26.459,8.4569 -27.0183,19.2261 z m 8.016,-19.9178 a 19.000006,19.000006 0 0 1 19.0023,-19.0023 19.000006,19.000006 0 0 1 18.9819,19.0023 19.000006,19.000006 0 0 1 -18.9819,19.0023 19.000006,19.000006 0 0 1 -19.0023,-19.0023 z"
        id="path424"
        fill="#f7bd13"
        stroke="none"
        stroke-width="0"
      />
      <path
        id="path428"
        d="m 1653.0005,73.750828 c 0,11.076996 12.125,19.999196 27.0183,19.999196 14.8933,0 26.9979,-8.9222 26.9979,-19.999196 v -39.9984 c 0,-11.0769 -12.1046,-19.9992 -26.9979,-19.9992 -14.5089,0 -26.459,8.4569 -27.0183,19.2261 z m 8.016,-19.9178 a 19.000006,19.000006 0 0 1 19.0023,-19.0023 19.000006,19.000006 0 0 1 18.9819,19.0023 19.000006,19.000006 0 0 1 -18.9819,19.0023 19.000006,19.000006 0 0 1 -19.0023,-19.0023 z"
        fill="#f7bd13"
        stroke="none"
        stroke-width="0"
      />
      <path
        d="m 1753.0006,73.750828 c 0,11.076996 12.125,19.999196 27.0183,19.999196 14.8933,0 26.9979,-8.9222 26.9979,-19.999196 v -39.9984 c 0,-11.0769 -12.1046,-19.9992 -26.9979,-19.9992 -14.5089,0 -26.459,8.4569 -27.0183,19.2261 z m 8.016,-19.9178 a 19.000006,19.000006 0 0 1 19.0023,-19.0023 19.000006,19.000006 0 0 1 18.9819,19.0023 19.000006,19.000006 0 0 1 -18.9819,19.0023 19.000006,19.000006 0 0 1 -19.0023,-19.0023 z"
        id="path432"
        fill="#f7bd13"
        stroke="none"
        stroke-width="0"
      />
      <path
        id="path438"
        d="m 1853.0006,73.750828 c 0,11.076996 12.125,19.999196 27.0183,19.999196 14.8933,0 26.9979,-8.9222 26.9979,-19.999196 v -39.9984 c 0,-11.0769 -12.1046,-19.9992 -26.9979,-19.9992 -14.5089,0 -26.459,8.4569 -27.0183,19.2261 z m 8.016,-19.9178 a 19.000006,19.000006 0 0 1 19.0023,-19.0023 19.000006,19.000006 0 0 1 18.9819,19.0023 19.000006,19.000006 0 0 1 -18.9819,19.0023 19.000006,19.000006 0 0 1 -19.0023,-19.0023 z"
        fill="#f7bd13"
        stroke="none"
        stroke-width="0"
      />
      <path
        d="m 1953.0006,73.750828 c 0,11.076996 12.125,19.999196 27.0183,19.999196 14.8933,0 26.9979,-8.9222 26.9979,-19.999196 v -39.9984 c 0,-11.0769 -12.1046,-19.9992 -26.9979,-19.9992 -14.5089,0 -26.459,8.4569 -27.0183,19.2261 z m 8.016,-19.9178 a 19.000006,19.000006 0 0 1 19.0023,-19.0023 19.000006,19.000006 0 0 1 18.9819,19.0023 19.000006,19.000006 0 0 1 -18.9819,19.0023 19.000006,19.000006 0 0 1 -19.0023,-19.0023 z"
        id="path442"
        fill="#f7bd13"
        stroke="none"
        stroke-width="0"
      />
      <circle
        gorn="0.2.0.0"
        id="connector0pin"
        cy="154.23888"
        cx="80.474228"
        r="23.000008"
        fill="none"
        stroke="#ffbf00"
        stroke-width="8.00000286"
      />
      <circle
        r="23.000008"
        cx="80.474228"
        cy="53.749252"
        id="connector1pin"
        gorn="0.2.0.0"
        fill="none"
        stroke="#ffbf00"
        stroke-width="8.00000286"
      />
      <circle
        r="23.000008"
        cx="180.02014"
        cy="154.23888"
        id="connector2pin"
        gorn="0.2.0.0"
        fill="none"
        stroke="#ffbf00"
        stroke-width="8.00000286"
      />
      <circle
        gorn="0.2.0.0"
        id="connector3pin"
        cy="53.749252"
        cx="180.02014"
        r="23.000008"
        fill="none"
        stroke="#ffbf00"
        stroke-width="8.00000286"
      />
      <circle
        gorn="0.2.0.0"
        id="connector4pin"
        cy="154.23888"
        cx="280.02017"
        r="23.000008"
        fill="none"
        stroke="#ffbf00"
        stroke-width="8.00000286"
      />
      <circle
        r="23.000008"
        cx="280.02017"
        cy="53.749252"
        id="connector5pin"
        gorn="0.2.0.0"
        fill="none"
        stroke="#ffbf00"
        stroke-width="8.00000286"
      />
      <circle
        r="23.000008"
        cx="380.0202"
        cy="154.23888"
        id="connector6pin"
        gorn="0.2.0.0"
        fill="none"
        stroke="#ffbf00"
        stroke-width="8.00000286"
      />
      <circle
        gorn="0.2.0.0"
        id="connector7pin"
        cy="53.749252"
        cx="380.0202"
        r="23.000008"
        fill="none"
        stroke="#ffbf00"
        stroke-width="8.00000286"
      />
      <circle
        gorn="0.2.0.0"
        id="connector8pin"
        cy="154.23888"
        cx="480.02023"
        r="23.000008"
        fill="none"
        stroke="#ffbf00"
        stroke-width="8.00000286"
      />
      <circle
        r="23.000008"
        cx="480.02023"
        cy="53.749252"
        id="connector9pin"
        gorn="0.2.0.0"
        fill="none"
        stroke="#ffbf00"
        stroke-width="8.00000286"
      />
      <circle
        r="23.000008"
        cx="580.02026"
        cy="154.23888"
        id="connector10pin"
        gorn="0.2.0.0"
        fill="none"
        stroke="#ffbf00"
        stroke-width="8.00000286"
      />
      <circle
        gorn="0.2.0.0"
        id="connector11pin"
        cy="53.749252"
        cx="580.02026"
        r="23.000008"
        fill="none"
        stroke="#ffbf00"
        stroke-width="8.00000286"
      />
      <circle
        gorn="0.2.0.0"
        id="connector12pin"
        cy="154.23888"
        cx="680.02032"
        r="23.000008"
        fill="none"
        stroke="#ffbf00"
        stroke-width="8.00000286"
      />
      <circle
        r="23.000008"
        cx="680.02032"
        cy="53.749252"
        id="connector13pin"
        gorn="0.2.0.0"
        fill="none"
        stroke="#ffbf00"
        stroke-width="8.00000286"
      />
      <circle
        r="23.000008"
        cx="780.02039"
        cy="154.23888"
        id="connector14pin"
        gorn="0.2.0.0"
        fill="none"
        stroke="#ffbf00"
        stroke-width="8.00000286"
      />
      <circle
        gorn="0.2.0.0"
        id="connector15pin"
        cy="53.749252"
        cx="780.02039"
        r="23.000008"
        fill="none"
        stroke="#ffbf00"
        stroke-width="8.00000286"
      />
      <circle
        gorn="0.2.0.0"
        id="connector16pin"
        cy="154.23888"
        cx="880.02039"
        r="23.000008"
        fill="none"
        stroke="#ffbf00"
        stroke-width="8.00000286"
      />
      <circle
        r="23.000008"
        cx="880.02039"
        cy="53.749252"
        id="connector17pin"
        gorn="0.2.0.0"
        fill="none"
        stroke="#ffbf00"
        stroke-width="8.00000286"
      />
      <circle
        r="23.000008"
        cx="980.02045"
        cy="154.23888"
        id="connector18pin"
        gorn="0.2.0.0"
        fill="none"
        stroke="#ffbf00"
        stroke-width="8.00000286"
      />
      <circle
        gorn="0.2.0.0"
        id="connector19pin"
        cy="53.749252"
        cx="980.02045"
        r="23.000008"
        fill="none"
        stroke="#ffbf00"
        stroke-width="8.00000286"
      />
      <circle
        gorn="0.2.0.0"
        id="connector20pin"
        cy="154.23888"
        cx="1080.0205"
        r="23.000008"
        fill="none"
        stroke="#ffbf00"
        stroke-width="8.00000286"
      />
      <circle
        r="23.000008"
        cx="1080.0205"
        cy="53.749252"
        id="connector21pin"
        gorn="0.2.0.0"
        fill="none"
        stroke="#ffbf00"
        stroke-width="8.00000286"
      />
      <circle
        r="23.000008"
        cx="1180.0206"
        cy="154.23888"
        id="connector22pin"
        gorn="0.2.0.0"
        fill="none"
        stroke="#ffbf00"
        stroke-width="8.00000286"
      />
      <circle
        gorn="0.2.0.0"
        id="connector23pin"
        cy="53.749252"
        cx="1180.0206"
        r="23.000008"
        fill="none"
        stroke="#ffbf00"
        stroke-width="8.00000286"
      />
      <circle
        gorn="0.2.0.0"
        id="connector24pin"
        cy="154.23888"
        cx="1280.0206"
        r="23.000008"
        fill="none"
        stroke="#ffbf00"
        stroke-width="8.00000286"
      />
      <circle
        r="23.000008"
        cx="1280.0206"
        cy="53.749252"
        id="connector25pin"
        gorn="0.2.0.0"
        fill="none"
        stroke="#ffbf00"
        stroke-width="8.00000286"
      />
      <circle
        r="23.000008"
        cx="1380.0206"
        cy="154.23888"
        id="connector26pin"
        gorn="0.2.0.0"
        fill="none"
        stroke="#ffbf00"
        stroke-width="8.00000286"
      />
      <circle
        gorn="0.2.0.0"
        id="connector27pin"
        cy="53.749252"
        cx="1380.0206"
        r="23.000008"
        fill="none"
        stroke="#ffbf00"
        stroke-width="8.00000286"
      />
      <circle
        gorn="0.2.0.0"
        id="connector28pin"
        cy="154.23888"
        cx="1480.0208"
        r="23.000008"
        fill="none"
        stroke="#ffbf00"
        stroke-width="8.00000286"
      />
      <circle
        r="23.000008"
        cx="1480.0208"
        cy="53.749252"
        id="connector29pin"
        gorn="0.2.0.0"
        fill="none"
        stroke="#ffbf00"
        stroke-width="8.00000286"
      />
      <circle
        r="23.000008"
        cx="1580.0208"
        cy="154.23888"
        id="connector30pin"
        gorn="0.2.0.0"
        fill="none"
        stroke="#ffbf00"
        stroke-width="8.00000286"
      />
      <circle
        gorn="0.2.0.0"
        id="connector31pin"
        cy="53.749252"
        cx="1580.0208"
        r="23.000008"
        fill="none"
        stroke="#ffbf00"
        stroke-width="8.00000286"
      />
      <circle
        gorn="0.2.0.0"
        id="connector32pin"
        cy="154.23888"
        cx="1680.0208"
        r="23.000008"
        fill="none"
        stroke="#ffbf00"
        stroke-width="8.00000286"
      />
      <circle
        r="23.000008"
        cx="1680.0208"
        cy="53.749252"
        id="connector33pin"
        gorn="0.2.0.0"
        fill="none"
        stroke="#ffbf00"
        stroke-width="8.00000286"
      />
      <circle
        r="23.000008"
        cx="1780.0209"
        cy="154.23888"
        id="connector34pin"
        gorn="0.2.0.0"
        fill="none"
        stroke="#ffbf00"
        stroke-width="8.00000286"
      />
      <circle
        gorn="0.2.0.0"
        id="connector35pin"
        cy="53.749252"
        cx="1780.0209"
        r="23.000008"
        fill="none"
        stroke="#ffbf00"
        stroke-width="8.00000286"
      />
      <circle
        gorn="0.2.0.0"
        id="connector36pin"
        cy="154.23888"
        cx="1880.0209"
        r="23.000008"
        fill="none"
        stroke="#ffbf00"
        stroke-width="8.00000286"
      />
      <circle
        r="23.000008"
        cx="1880.0209"
        cy="53.749252"
        id="connector37pin"
        gorn="0.2.0.0"
        fill="none"
        stroke="#ffbf00"
        stroke-width="8.00000286"
      />
      <circle
        r="23.000008"
        cx="1980.0209"
        cy="154.23888"
        id="connector38pin"
        gorn="0.2.0.0"
        fill="none"
        stroke="#ffbf00"
        stroke-width="8.00000286"
      />
      <circle
        gorn="0.2.0.0"
        id="connector39pin"
        cy="53.749252"
        cx="1980.0209"
        r="23.000008"
        fill="none"
        stroke="#ffbf00"
        stroke-width="8.00000286"
      />
    </g>
  </g>
</svg>
