<?xml version='1.0' encoding='UTF-8' standalone='no'?>
<svg
  xmlns:dc="http://purl.org/dc/elements/1.1/"
  xmlns:cc="http://creativecommons.org/ns#"
  xmlns:rdf="http://www.w3.org/1999/02/22-rdf-syntax-ns#"
  xmlns:svg="http://www.w3.org/2000/svg"
  xmlns="http://www.w3.org/2000/svg"
  version="1.1"
  height="0.31542572in"
  viewBox="0 0 192.63549 315.42581"
  gorn="0"
  y="0px"
  xml:space="preserve"
  x="0px"
  width="0.19263543in"
  enable-background="new 0 0 14.111 22.3"
  id="Layer_1">
  <metadata
    id="metadata52">
    <rdf:RDF>
      <cc:Work
        rdf:about="">
        <dc:format>image/svg+xml</dc:format>
        <dc:type
          rdf:resource="http://purl.org/dc/dcmitype/StillImage"
        />
        <dc:title/>
      </cc:Work>
    </rdf:RDF>
  </metadata>
  <defs
    id="defs50">
                        </defs>
  <desc
    id="desc2">
    <referenceFile>67-21s_kk5c-h402633z6_2t_smd_led_1_schematic.svg</referenceFile>
  </desc>
  <g
    id="schematic">
    <line
      fill="none"
      stroke-linecap="round"
      x2="136.3867"
      stroke-width="6.94434"
      stroke="#000000"
      y2="205.20523"
      y1="205.20523"
      x1="186.38594"
      id="line4"
    />
    <line
      fill="none"
      stroke-linecap="round"
      x2="86.387466"
      stroke-width="6.94434"
      stroke="#000000"
      y2="205.20523"
      y1="205.20523"
      x1="136.3867"
      id="line6"
    />
    <polygon
      fill="#ffffff"
      stroke-linecap="round"
      stroke-width="0.9"
      points="10.152,14.75 6.552,7.55 10.152,7.55 13.752,7.55 "
      stroke-linejoin="round"
      stroke="#000000"
      id="polygon8"
      transform="matrix(13.88868,0,0,13.88868,-4.611165,0.34721713)"
    />
    <line
      fill="none"
      stroke-linecap="round"
      x2="16.819067"
      stroke-width="6.94434"
      stroke="#000000"
      y2="174.76125"
      y1="135.20628"
      x1="56.387924"
      id="line10"
    />
    <line
      fill="none"
      stroke-linecap="round"
      x2="21.20789"
      stroke-width="6.94434"
      stroke="#000000"
      y2="220.38557"
      y1="180.2195"
      x1="61.387844"
      id="line12"
    />
    <text
      fill="#8c8c8c"
      font-family="DroidSans"
      font-size="34.7217"
      id="text16"
      transform="rotate(-90)"
      x="-264.75394"
      y="121.80054"
      stroke-width="13.8887">1</text>
    <text
      fill="#8c8c8c"
      font-family="DroidSans"
      font-size="34.7217"
      id="text30"
      transform="rotate(-90)"
      x="-64.779167"
      y="121.80054"
      stroke-width="13.8887">2</text>
    <path
      stroke-linecap="round"
      stroke-width="2.77774"
      stroke-linejoin="round"
      stroke="#000000"
      d="M 1.3887445,190.19158 16.388519,155.19211 36.388217,175.17792 Z"
      id="path42"
    />
    <path
      stroke-linecap="round"
      stroke-width="2.77774"
      stroke-linejoin="round"
      stroke="#000000"
      d="M 6.3886692,235.20479 21.388444,200.20532 41.374253,220.19113 Z"
      id="path44"
    />
    <line
      fill="none"
      stroke-linecap="round"
      x2="136.3867"
      stroke-width="10"
      gorn="0.0.5"
      stroke="#555555"
      y2="199.99704"
      y1="310.42581"
      id="connector0pin"
      x1="136.3867"
    />
    <rect
      fill="none"
      height="10"
      gorn="0.0.6"
      y="300.00009"
      x="131.00005"
      width="10"
      id="connector0terminal"
      stroke-width="0"
    />
    <line
      fill="none"
      stroke-linecap="round"
      x2="136.3867"
      stroke-width="10"
      gorn="0.0.8"
      stroke="#555555"
      y2="105.20675"
      y1="5.2082548"
      id="connector1pin"
      x1="136.3867"
    />
    <rect
      fill="none"
      height="10"
      gorn="0.0.9"
      y="0"
      x="131.00005"
      width="10"
      id="connector1terminal"
      stroke-width="0"
    />
  </g>
</svg>
