<?xml version='1.0' encoding='UTF-8' standalone='no'?>
<!-- Generator: Adobe Illustrator 13.0.1, SVG Export Plug-In . SVG Version: 6.00 Build 14948)  -->
  <svg
  xmlns="http://www.w3.org/2000/svg"
  width="1.1135in"
  id="schematic"
  x="0px"
  y="0px"
  version="1.2"
  gorn="0"
  xml:space="preserve"
  baseProfile="tiny"
  viewBox="0 0 80.172 115.307"
  height="1.60149in">
  <desc>
    <referenceFile>AmicaNodeMCUDevKit0000_1_schematic.svg</referenceFile>
  </desc>
  <rect
    width="64.907"
    id="outline"
    x="7.648"
    stroke-width="0.9"
    gorn="0.1"
    stroke="#393738"
    fill="#FDFDFD"
    height="115.307"
  />
  <g
    id="pins"
    gorn="0.2">
    <line
      id="connector29pin"
      stroke-width="1"
      y1="108.053"
      y2="108.053"
      x1="0.486"
      gorn="0.2.0"
      stroke-linecap="round"
      x2="7.35"
      stroke="#565656"
      fill="none"
    />
    <rect
      id="connector29terminal"
      x="-0.021864"
      width="0.015728"
      y="108.052"
      stroke-width="0"
      gorn="0.2.1"
      stroke="none"
      fill="none"
      height="0.002"
    />
    <rect
      width="0.015728"
      id="connector30terminal"
      x="-0.021864"
      y="108.052"
      stroke-width="0"
      gorn="0.2.2"
      stroke="none"
      fill="none"
      height="0.002"
    />
    <line
      id="connector28pin"
      stroke-width="1"
      y1="100.853"
      y2="100.853"
      x1="0.486"
      gorn="0.2.3"
      stroke-linecap="round"
      x2="7.35"
      stroke="#565656"
      fill="none"
    />
    <rect
      id="connector28terminal"
      x="-0.021864"
      width="0.015728"
      y="100.852"
      stroke-width="0"
      gorn="0.2.4"
      stroke="none"
      fill="none"
      height="0.002"
    />
    <rect
      width="0.015728"
      x="-0.021864"
      y="100.852"
      stroke-width="0"
      stroke="none"
      fill="none"
      height="0.002"
    />
    <line
      id="connector27pin"
      stroke-width="1"
      y1="93.651"
      y2="93.651"
      x1="0.473"
      gorn="0.2.6"
      stroke-linecap="round"
      x2="7.336"
      stroke="#565656"
      fill="none"
    />
    <rect
      id="connector27terminal"
      x="-0.034863"
      width="0.015726"
      y="93.65"
      stroke-width="0"
      gorn="0.2.7"
      stroke="none"
      fill="none"
      height="0.002"
    />
    <rect
      width="0.015726"
      x="-0.034863"
      y="93.65"
      stroke-width="0"
      stroke="none"
      fill="none"
      height="0.002"
    />
    <line
      id="connector26pin"
      stroke-width="1"
      y1="86.452"
      y2="86.452"
      x1="7.336"
      gorn="0.2.9"
      stroke-linecap="round"
      x2="0.473"
      stroke="#565656"
      fill="none"
    />
    <rect
      id="connector26terminal"
      x="-0.034863"
      width="0.015726"
      y="86.451"
      stroke-width="0"
      gorn="0.2.10"
      stroke="none"
      fill="none"
      height="0.002"
    />
    <rect
      width="0.015726"
      x="-0.034863"
      y="86.451"
      stroke-width="0"
      stroke="none"
      fill="none"
      height="0.002"
    />
    <line
      id="connector25pin"
      stroke-width="1"
      y1="79.271"
      y2="79.271"
      x1="7.343"
      gorn="0.2.12"
      stroke-linecap="round"
      x2="0.507"
      stroke="#565656"
      fill="none"
    />
    <rect
      id="connector25terminal"
      x="-0.000836"
      width="0.015672"
      y="79.27"
      stroke-width="0"
      gorn="0.2.13"
      stroke="none"
      fill="none"
      height="0.002"
    />
    <rect
      width="0.015672"
      x="-0.000836"
      y="79.27"
      stroke-width="0"
      stroke="none"
      fill="none"
      height="0.002"
    />
    <line
      id="connector24pin"
      stroke-width="1"
      y1="72.053"
      y2="72.053"
      x1="0.507"
      gorn="0.2.15"
      stroke-linecap="round"
      x2="7.372"
      stroke="#565656"
      fill="none"
    />
    <rect
      id="connector24terminal"
      x="-0.000865"
      width="0.01573"
      y="72.052"
      stroke-width="0"
      gorn="0.2.16"
      stroke="none"
      fill="none"
      height="0.002"
    />
    <rect
      width="0.01573"
      x="-0.000865"
      y="72.052"
      stroke-width="0"
      stroke="none"
      fill="none"
      height="0.002"
    />
    <line
      id="connector23pin"
      stroke-width="1"
      y1="64.871"
      y2="64.871"
      x1="7.385"
      gorn="0.2.18"
      stroke-linecap="round"
      x2="0.488"
      stroke="#565656"
      fill="none"
    />
    <rect
      id="connector23terminal"
      x="-0.019897"
      width="0.015794"
      y="64.87"
      stroke-width="0"
      gorn="0.2.19"
      stroke="none"
      fill="none"
      height="0.002"
    />
    <rect
      width="0.015794"
      x="-0.019897"
      y="64.87"
      stroke-width="0"
      stroke="none"
      fill="none"
      height="0.002"
    />
    <line
      id="connector22pin"
      stroke-width="1"
      y1="57.671"
      y2="57.671"
      x1="7.369"
      gorn="0.2.21"
      stroke-linecap="round"
      x2="0.474"
      stroke="#565656"
      fill="none"
    />
    <rect
      id="connector22terminal"
      x="-0.033895"
      width="0.01579"
      y="57.67"
      stroke-width="0"
      gorn="0.2.22"
      stroke="none"
      fill="none"
      height="0.002"
    />
    <rect
      width="0.01579"
      x="-0.033895"
      y="57.67"
      stroke-width="0"
      stroke="none"
      fill="none"
      height="0.002"
    />
    <line
      id="connector21pin"
      stroke-width="1"
      y1="50.471"
      y2="50.471"
      x1="7.369"
      gorn="0.2.24"
      stroke-linecap="round"
      x2="0.474"
      stroke="#565656"
      fill="none"
    />
    <rect
      id="connector21terminal"
      x="-0.033895"
      width="0.01579"
      y="50.47"
      stroke-width="0"
      gorn="0.2.25"
      stroke="none"
      fill="none"
      height="0.002"
    />
    <rect
      width="0.01579"
      x="-0.033895"
      y="50.47"
      stroke-width="0"
      stroke="none"
      fill="none"
      height="0.002"
    />
    <line
      id="connector20pin"
      stroke-width="1"
      y1="43.271"
      y2="43.271"
      x1="0.474"
      gorn="0.2.27"
      stroke-linecap="round"
      x2="7.369"
      stroke="#565656"
      fill="none"
    />
    <rect
      id="connector20terminal"
      x="-0.033895"
      width="0.01579"
      y="43.27"
      stroke-width="0"
      gorn="0.2.28"
      stroke="none"
      fill="none"
      height="0.002"
    />
    <rect
      width="0.01579"
      x="-0.033895"
      y="43.27"
      stroke-width="0"
      stroke="none"
      fill="none"
      height="0.002"
    />
    <line
      id="connector19pin"
      stroke-width="1"
      y1="36.07"
      y2="36.07"
      x1="7.385"
      gorn="0.2.30"
      stroke-linecap="round"
      x2="0.488"
      stroke="#565656"
      fill="none"
    />
    <rect
      id="connector19terminal"
      x="-0.019897"
      width="0.015794"
      y="36.069"
      stroke-width="0"
      gorn="0.2.31"
      stroke="none"
      fill="none"
      height="0.002"
    />
    <rect
      width="0.015794"
      x="-0.019897"
      y="36.069"
      stroke-width="0"
      stroke="none"
      fill="none"
      height="0.002"
    />
    <line
      id="connector18pin"
      stroke-width="1"
      y1="28.854"
      y2="28.854"
      x1="7.354"
      gorn="0.2.33"
      stroke-linecap="round"
      x2="0.49"
      stroke="#565656"
      fill="none"
    />
    <rect
      id="connector18terminal"
      x="-0.017864"
      width="0.015728"
      y="28.853"
      stroke-width="0"
      gorn="0.2.34"
      stroke="none"
      fill="none"
      height="0.002"
    />
    <rect
      width="0.015728"
      x="-0.017864"
      y="28.853"
      stroke-width="0"
      stroke="none"
      fill="none"
      height="0.002"
    />
    <line
      id="connector17pin"
      stroke-width="1"
      y1="21.652"
      y2="21.652"
      x1="7.372"
      gorn="0.2.36"
      stroke-linecap="round"
      x2="0.507"
      stroke="#565656"
      fill="none"
    />
    <rect
      id="connector17terminal"
      x="-0.000865"
      width="0.01573"
      y="21.651"
      stroke-width="0"
      gorn="0.2.37"
      stroke="none"
      fill="none"
      height="0.002"
    />
    <rect
      width="0.01573"
      x="-0.000865"
      y="21.651"
      stroke-width="0"
      stroke="none"
      fill="none"
      height="0.002"
    />
    <line
      id="connector16pin"
      stroke-width="1"
      y1="14.471"
      y2="14.471"
      x1="7.385"
      gorn="0.2.39"
      stroke-linecap="round"
      x2="0.488"
      stroke="#565656"
      fill="none"
    />
    <rect
      id="connector16terminal"
      x="-0.019897"
      width="0.015794"
      y="14.47"
      stroke-width="0"
      gorn="0.2.40"
      stroke="none"
      fill="none"
      height="0.002"
    />
    <rect
      width="0.015794"
      x="-0.019897"
      y="14.47"
      stroke-width="0"
      stroke="none"
      fill="none"
      height="0.002"
    />
    <line
      id="connector15pin"
      stroke-width="1"
      y1="7.253"
      y2="7.253"
      x1="7.372"
      gorn="0.2.42"
      stroke-linecap="round"
      x2="0.507"
      stroke="#565656"
      fill="none"
    />
    <rect
      id="connector15terminal"
      x="-0.000865"
      width="0.01573"
      y="7.252"
      stroke-width="0"
      gorn="0.2.43"
      stroke="none"
      fill="none"
      height="0.002"
    />
    <rect
      width="0.01573"
      x="-0.000865"
      y="7.252"
      stroke-width="0"
      stroke="none"
      fill="none"
      height="0.002"
    />
    <line
      id="connector14pin"
      stroke-width="1"
      y1="7.253"
      y2="7.253"
      x1="79.709"
      gorn="0.2.45"
      stroke-linecap="round"
      x2="72.844"
      stroke="#565656"
      fill="none"
    />
    <rect
      id="connector14terminal"
      x="80.2011"
      width="0.01573"
      y="7.252"
      stroke-width="0"
      gorn="0.2.46"
      stroke="none"
      fill="none"
      height="0.002"
    />
    <rect
      width="0.01573"
      x="80.2011"
      y="7.252"
      stroke-width="0"
      stroke="none"
      fill="none"
      height="0.002"
    />
    <line
      id="connector13pin"
      stroke-width="1"
      y1="14.452"
      y2="14.452"
      x1="79.709"
      gorn="0.2.48"
      stroke-linecap="round"
      x2="72.844"
      stroke="#565656"
      fill="none"
    />
    <rect
      id="connector13terminal"
      x="80.2011"
      width="0.01573"
      y="14.451"
      stroke-width="0"
      gorn="0.2.49"
      stroke="none"
      fill="none"
      height="0.002"
    />
    <rect
      width="0.01573"
      x="80.2011"
      y="14.451"
      stroke-width="0"
      stroke="none"
      fill="none"
      height="0.002"
    />
    <line
      id="connector12pin"
      stroke-width="1"
      y1="21.652"
      y2="21.652"
      x1="79.709"
      gorn="0.2.51"
      stroke-linecap="round"
      x2="72.844"
      stroke="#565656"
      fill="none"
    />
    <rect
      id="connector12terminal"
      x="80.2011"
      width="0.01573"
      y="21.651"
      stroke-width="0"
      gorn="0.2.52"
      stroke="none"
      fill="none"
      height="0.002"
    />
    <rect
      width="0.01573"
      x="80.2011"
      y="21.651"
      stroke-width="0"
      stroke="none"
      fill="none"
      height="0.002"
    />
    <line
      id="connector11pin"
      stroke-width="1"
      y1="28.854"
      y2="28.854"
      x1="79.709"
      gorn="0.2.54"
      stroke-linecap="round"
      x2="72.844"
      stroke="#565656"
      fill="none"
    />
    <rect
      id="connector11terminal"
      x="80.2011"
      width="0.01573"
      y="28.853"
      stroke-width="0"
      stroke="none"
      fill="none"
      height="0.002"
    />
    <rect
      x="80.2011"
      width="0.01573"
      y="28.853"
      stroke-width="0"
      stroke="none"
      fill="none"
      height="0.002"
    />
    <rect
      width="0.01573"
      x="80.2011"
      y="28.853"
      stroke-width="0"
      stroke="none"
      fill="none"
      height="0.002"
    />
    <line
      id="connector10pin"
      stroke-width="1"
      y1="36.052"
      y2="36.052"
      x1="79.709"
      gorn="0.2.57"
      stroke-linecap="round"
      x2="72.844"
      stroke="#565656"
      fill="none"
    />
    <rect
      id="connector10terminal"
      x="80.2011"
      width="0.01573"
      y="36.051"
      stroke-width="0"
      gorn="0.2.58"
      stroke="none"
      fill="none"
      height="0.002"
    />
    <rect
      width="0.01573"
      x="80.2011"
      y="36.051"
      stroke-width="0"
      stroke="none"
      fill="none"
      height="0.002"
    />
    <line
      id="connector9pin"
      stroke-width="1"
      y1="43.271"
      y2="43.271"
      x1="72.844"
      gorn="0.2.60"
      stroke-linecap="round"
      x2="79.68"
      stroke="#565656"
      fill="none"
    />
    <rect
      id="connector9terminal"
      x="80.1722"
      width="0.015672"
      y="43.27"
      stroke-width="0"
      gorn="0.2.61"
      stroke="none"
      fill="none"
      height="0.002"
    />
    <rect
      width="0.015672"
      x="80.1722"
      y="43.27"
      stroke-width="0"
      stroke="none"
      fill="none"
      height="0.002"
    />
    <line
      id="connector8pin"
      stroke-width="1"
      y1="50.451"
      y2="50.451"
      x1="72.844"
      gorn="0.2.63"
      stroke-linecap="round"
      x2="79.709"
      stroke="#565656"
      fill="none"
    />
    <rect
      id="connector8terminal"
      x="80.2011"
      width="0.01573"
      y="50.45"
      stroke-width="0"
      gorn="0.2.64"
      stroke="none"
      fill="none"
      height="0.002"
    />
    <rect
      width="0.01573"
      x="80.2011"
      y="50.45"
      stroke-width="0"
      stroke="none"
      fill="none"
      height="0.002"
    />
    <line
      id="connector7pin"
      stroke-width="1"
      y1="57.652"
      y2="57.652"
      x1="72.844"
      gorn="0.2.66"
      stroke-linecap="round"
      x2="79.709"
      stroke="#565656"
      fill="none"
    />
    <rect
      width="0.01573"
      id="connector7terminal"
      x="80.2011"
      y="57.651"
      stroke-width="0"
      gorn="0.2.67"
      stroke="none"
      fill="none"
      height="0.002"
    />
    <line
      id="connector6pin"
      stroke-width="1"
      y1="64.854"
      y2="64.854"
      x1="72.844"
      gorn="0.2.68"
      stroke-linecap="round"
      x2="79.709"
      stroke="#565656"
      fill="none"
    />
    <rect
      width="0.01573"
      id="connector6terminal"
      x="80.2011"
      y="64.853"
      stroke-width="0"
      gorn="0.2.69"
      stroke="none"
      fill="none"
      height="0.002"
    />
    <line
      id="connector5pin"
      stroke-width="1"
      y1="72.052"
      y2="72.052"
      x1="79.709"
      gorn="0.2.70"
      stroke-linecap="round"
      x2="72.844"
      stroke="#565656"
      fill="none"
    />
    <rect
      width="0.01573"
      id="connector5terminal"
      x="80.2011"
      y="72.051"
      stroke-width="0"
      gorn="0.2.71"
      stroke="none"
      fill="none"
      height="0.002"
    />
    <line
      id="connector4pin"
      stroke-width="1"
      y1="79.252"
      y2="79.252"
      x1="79.709"
      gorn="0.2.72"
      stroke-linecap="round"
      x2="72.844"
      stroke="#565656"
      fill="none"
    />
    <rect
      width="0.01573"
      id="connector4terminal"
      x="80.2011"
      y="79.251"
      stroke-width="0"
      gorn="0.2.73"
      stroke="none"
      fill="none"
      height="0.002"
    />
    <line
      id="connector3pin"
      stroke-width="1"
      y1="86.452"
      y2="86.452"
      x1="79.709"
      gorn="0.2.74"
      stroke-linecap="round"
      x2="72.844"
      stroke="#565656"
      fill="none"
    />
    <rect
      width="0.01573"
      id="connector3terminal"
      x="80.2011"
      y="86.451"
      stroke-width="0"
      gorn="0.2.75"
      stroke="none"
      fill="none"
      height="0.002"
    />
    <line
      id="connector2pin"
      stroke-width="1"
      y1="93.651"
      y2="93.651"
      x1="79.709"
      gorn="0.2.76"
      stroke-linecap="round"
      x2="72.844"
      stroke="#565656"
      fill="none"
    />
    <rect
      width="0.01573"
      id="connector2terminal"
      x="80.2011"
      y="93.65"
      stroke-width="0"
      gorn="0.2.77"
      stroke="none"
      fill="none"
      height="0.002"
    />
    <line
      id="connector1pin"
      stroke-width="1"
      y1="100.871"
      y2="100.871"
      x1="72.844"
      gorn="0.2.78"
      stroke-linecap="round"
      x2="79.68"
      stroke="#565656"
      fill="none"
    />
    <rect
      width="0.015672"
      id="connector1terminal"
      x="80.1722"
      y="100.87"
      stroke-width="0"
      gorn="0.2.79"
      stroke="none"
      fill="none"
      height="0.002"
    />
    <line
      id="connector0pin"
      stroke-width="1"
      y1="108.053"
      y2="108.053"
      x1="72.848"
      gorn="0.2.80"
      stroke-linecap="round"
      x2="79.743"
      stroke="#565656"
      fill="none"
    />
    <rect
      width="0.01579"
      id="connector0terminal"
      x="80.2351"
      y="108.052"
      stroke-width="0"
      gorn="0.2.81"
      stroke="none"
      fill="none"
      height="0.002"
    />
  </g>
  <g
    id="pin_numbers"
    gorn="0.3">
    <g
      transform="matrix(1 0 0 1 2.0469 106.7549)">
      <g>
        <g>
          <g>
            <g>
              <g>
                <text
                  id="_x33_0"
                  gorn="0.3.0.0.0.0.0.0.0"
                  font-size="3"
                  fill="#565656"
                  font-family="DroidSans">30</text>
              </g>
            </g>
          </g>
        </g>
      </g>
    </g>
    <g
      transform="matrix(1.026 0 0 1 2.0459 99.5527)">
      <g>
        <g>
          <g>
            <g>
              <g>
                <text
                  id="_x32_9"
                  gorn="0.3.1.0.0.0.0.0.0"
                  font-size="3"
                  fill="#565656"
                  font-family="DroidSans">29</text>
              </g>
            </g>
          </g>
        </g>
      </g>
    </g>
    <g
      transform="matrix(1 0 0 1 2.0464 92.376)">
      <g>
        <g>
          <g>
            <g>
              <g>
                <text
                  id="_x32_8"
                  gorn="0.3.2.0.0.0.0.0.0"
                  font-size="3"
                  fill="#565656"
                  font-family="DroidSans">28</text>
              </g>
            </g>
          </g>
        </g>
      </g>
    </g>
    <g
      transform="matrix(1 0 0 1 2.0464 85.1533)">
      <g>
        <g>
          <g>
            <g>
              <g>
                <text
                  id="_x32_7"
                  gorn="0.3.3.0.0.0.0.0.0"
                  font-size="3"
                  fill="#565656"
                  font-family="DroidSans">27</text>
              </g>
            </g>
          </g>
        </g>
      </g>
    </g>
    <g
      transform="matrix(1 0 0 1 2.0464 77.9775)">
      <g>
        <g>
          <g>
            <g>
              <g>
                <text
                  id="_x32_6"
                  gorn="0.3.4.0.0.0.0.0.0"
                  font-size="3"
                  fill="#565656"
                  font-family="DroidSans">26</text>
              </g>
            </g>
          </g>
        </g>
      </g>
    </g>
    <g
      transform="matrix(1 0 0 1 2.0464 70.7783)">
      <g>
        <g>
          <g>
            <g>
              <g>
                <text
                  id="_x32_5"
                  gorn="0.3.5.0.0.0.0.0.0"
                  font-size="3"
                  fill="#565656"
                  font-family="DroidSans">25</text>
              </g>
            </g>
          </g>
        </g>
      </g>
    </g>
    <g
      transform="matrix(1 0 0 1 2.0464 63.5518)">
      <g>
        <g>
          <g>
            <g>
              <g>
                <text
                  id="_x32_4"
                  gorn="0.3.6.0.0.0.0.0.0"
                  font-size="3"
                  fill="#565656"
                  font-family="DroidSans">24</text>
              </g>
            </g>
          </g>
        </g>
      </g>
    </g>
    <g
      transform="matrix(1 0 0 1 1.9458 56.3525)">
      <g>
        <g>
          <g>
            <g>
              <g>
                <text
                  id="_x32_3"
                  gorn="0.3.7.0.0.0.0.0.0"
                  font-size="3"
                  fill="#565656"
                  font-family="DroidSans">23</text>
              </g>
            </g>
          </g>
        </g>
      </g>
    </g>
    <g
      transform="matrix(1 0 0 1 1.9458 49.1533)">
      <g>
        <g>
          <g>
            <g>
              <g>
                <text
                  id="_x32_2"
                  gorn="0.3.8.0.0.0.0.0.0"
                  font-size="3"
                  fill="#565656"
                  font-family="DroidSans">22</text>
              </g>
            </g>
          </g>
        </g>
      </g>
    </g>
    <g
      transform="matrix(1 0 0 1 1.9458 41.9775)">
      <g>
        <g>
          <g>
            <g>
              <g>
                <text
                  id="_x32_1"
                  gorn="0.3.9.0.0.0.0.0.0"
                  font-size="3"
                  fill="#565656"
                  font-family="DroidSans">21</text>
              </g>
            </g>
          </g>
        </g>
      </g>
    </g>
    <g
      transform="matrix(1 0 0 1 1.9458 34.751)">
      <g>
        <g>
          <g>
            <g>
              <g>
                <text
                  id="_x32_0"
                  gorn="0.3.10.0.0.0.0.0.0"
                  font-size="3"
                  fill="#565656"
                  font-family="DroidSans">20</text>
              </g>
            </g>
          </g>
        </g>
      </g>
    </g>
    <g
      transform="matrix(1 0 0 1 1.9458 27.6377)">
      <g>
        <g>
          <g>
            <g>
              <g>
                <text
                  id="_x31_9"
                  gorn="0.3.11.0.0.0.0.0.0"
                  font-size="3"
                  fill="#565656"
                  font-family="DroidSans">19</text>
              </g>
            </g>
          </g>
        </g>
      </g>
    </g>
    <g
      transform="matrix(1 0 0 1 1.9458 20.4346)">
      <g>
        <g>
          <g>
            <g>
              <g>
                <text
                  id="_x31_8"
                  gorn="0.3.12.0.0.0.0.0.0"
                  font-size="3"
                  fill="#565656"
                  font-family="DroidSans">18</text>
              </g>
            </g>
          </g>
        </g>
      </g>
    </g>
    <g
      transform="matrix(1 0 0 1 1.9458 13.2627)">
      <g>
        <g>
          <g>
            <g>
              <g>
                <text
                  id="_x31_7"
                  gorn="0.3.13.0.0.0.0.0.0"
                  font-size="3"
                  fill="#565656"
                  font-family="DroidSans">17</text>
              </g>
            </g>
          </g>
        </g>
      </g>
    </g>
    <g
      transform="matrix(1 0 0 1 1.9458 6.0361)">
      <g>
        <g>
          <g>
            <g>
              <g>
                <text
                  id="_x31_6"
                  gorn="0.3.14.0.0.0.0.0.0"
                  font-size="3"
                  fill="#565656"
                  font-family="DroidSans">16</text>
              </g>
            </g>
          </g>
        </g>
      </g>
    </g>
    <g
      transform="matrix(1 0 0 1 74.3853 5.876)">
      <g>
        <g>
          <g>
            <g>
              <g>
                <text
                  id="_x31_5"
                  gorn="0.3.15.0.0.0.0.0.0"
                  font-size="3"
                  fill="#565656"
                  font-family="DroidSans">15</text>
              </g>
            </g>
          </g>
        </g>
      </g>
    </g>
    <g
      transform="matrix(1 0 0 1 74.3853 13.1025)">
      <g>
        <g>
          <g>
            <g>
              <g>
                <text
                  id="_x31_4"
                  gorn="0.3.16.0.0.0.0.0.0"
                  font-size="3"
                  fill="#565656"
                  font-family="DroidSans">14</text>
              </g>
            </g>
          </g>
        </g>
      </g>
    </g>
    <g
      transform="matrix(1 0 0 1 74.3853 20.2783)">
      <g>
        <g>
          <g>
            <g>
              <g>
                <text
                  id="_x31_3"
                  gorn="0.3.17.0.0.0.0.0.0"
                  font-size="3"
                  fill="#565656"
                  font-family="DroidSans">13</text>
              </g>
            </g>
          </g>
        </g>
      </g>
    </g>
    <g
      transform="matrix(1 0 0 1 74.3853 27.501)">
      <g>
        <g>
          <g>
            <g>
              <g>
                <text
                  id="_x31_2"
                  gorn="0.3.18.0.0.0.0.0.0"
                  font-size="3"
                  fill="#565656"
                  font-family="DroidSans">12</text>
              </g>
            </g>
          </g>
        </g>
      </g>
    </g>
    <g
      transform="matrix(1 0 0 1 74.3853 34.751)">
      <g>
        <g>
          <g>
            <g>
              <g>
                <text
                  id="_x31_1"
                  gorn="0.3.19.0.0.0.0.0.0"
                  font-size="3"
                  fill="#565656"
                  font-family="DroidSans">11</text>
              </g>
            </g>
          </g>
        </g>
      </g>
    </g>
    <g
      transform="matrix(1 0 0 1 74.3853 41.9775)">
      <g>
        <g>
          <g>
            <g>
              <g>
                <text
                  id="_x31_0"
                  gorn="0.3.20.0.0.0.0.0.0"
                  font-size="3"
                  fill="#565656"
                  font-family="DroidSans">10</text>
              </g>
            </g>
          </g>
        </g>
      </g>
    </g>
    <g
      transform="matrix(1 0 0 1 75.772 49.1533)">
      <g>
        <g>
          <g>
            <g>
              <g>
                <text
                  id="_x39_"
                  gorn="0.3.21.0.0.0.0.0.0"
                  font-size="3"
                  fill="#565656"
                  font-family="DroidSans">9</text>
              </g>
            </g>
          </g>
        </g>
      </g>
    </g>
    <g
      transform="matrix(1 0 0 1 75.772 56.376)">
      <g>
        <g>
          <g>
            <g>
              <g>
                <text
                  id="_x38_"
                  gorn="0.3.22.0.0.0.0.0.0"
                  font-size="3"
                  fill="#565656"
                  font-family="DroidSans">8</text>
              </g>
            </g>
          </g>
        </g>
      </g>
    </g>
    <g
      transform="matrix(1 0 0 1 75.772 63.5791)">
      <g>
        <g>
          <g>
            <g>
              <g>
                <text
                  id="_x37_"
                  gorn="0.3.23.0.0.0.0.0.0"
                  font-size="3"
                  fill="#565656"
                  font-family="DroidSans">7</text>
              </g>
            </g>
          </g>
        </g>
      </g>
    </g>
    <g
      transform="matrix(1 0 0 1 75.772 70.7666)">
      <g>
        <g>
          <g>
            <g>
              <g>
                <text
                  id="_x36_"
                  gorn="0.3.24.0.0.0.0.0.0"
                  font-size="3"
                  fill="#565656"
                  font-family="DroidSans">6</text>
              </g>
            </g>
          </g>
        </g>
      </g>
    </g>
    <g
      transform="matrix(1 0 0 1 75.772 77.9541)">
      <g>
        <g>
          <g>
            <g>
              <g>
                <text
                  id="_x35_"
                  gorn="0.3.25.0.0.0.0.0.0"
                  font-size="3"
                  fill="#565656"
                  font-family="DroidSans">5</text>
              </g>
            </g>
          </g>
        </g>
      </g>
    </g>
    <g
      transform="matrix(1 0 0 1 75.772 85.1533)">
      <g>
        <g>
          <g>
            <g>
              <g>
                <text
                  id="_x34_"
                  gorn="0.3.26.0.0.0.0.0.0"
                  font-size="3"
                  fill="#565656"
                  font-family="DroidSans">4</text>
              </g>
            </g>
          </g>
        </g>
      </g>
    </g>
    <g
      transform="matrix(1 0 0 1 75.772 92.376)">
      <g>
        <g>
          <g>
            <g>
              <g>
                <text
                  id="_x33_"
                  gorn="0.3.27.0.0.0.0.0.0"
                  font-size="3"
                  fill="#565656"
                  font-family="DroidSans">3</text>
              </g>
            </g>
          </g>
        </g>
      </g>
    </g>
    <g
      transform="matrix(1 0 0 1 75.7729 99.5518)">
      <g>
        <g>
          <g>
            <g>
              <g>
                <text
                  id="_x32_"
                  gorn="0.3.28.0.0.0.0.0.0"
                  font-size="3"
                  fill="#565656"
                  font-family="DroidSans">2</text>
              </g>
            </g>
          </g>
        </g>
      </g>
    </g>
    <g
      transform="matrix(1 0 0 1 75.7729 106.751)">
      <g>
        <g>
          <g>
            <g>
              <g>
                <text
                  id="_x31_"
                  gorn="0.3.29.0.0.0.0.0.0"
                  font-size="3"
                  fill="#565656"
                  font-family="DroidSans">1</text>
              </g>
            </g>
          </g>
        </g>
      </g>
    </g>
  </g>
  <g
    id="pin_labels"
    gorn="0.4">
    <g
      transform="matrix(0.9957 0 0 1 10.2666 109.2314)">
      <g>
        <g>
          <g>
            <g>
              <g>
                <text
                  id="pin33-GPIO36"
                  gorn="0.4.0.0.0.0.0.0.0"
                  font-size="4.5"
                  fill="#565656"
                  font-family="DroidSans">Vin</text>
              </g>
            </g>
          </g>
        </g>
      </g>
    </g>
    <g
      transform="matrix(1 0 0 1 10.2671 102.0439)">
      <g>
        <g>
          <g>
            <g>
              <g>
                <text
                  id="pin32-GPIO37"
                  gorn="0.4.1.0.0.0.0.0.0"
                  font-size="4.5"
                  fill="#565656"
                  font-family="DroidSans">GND</text>
              </g>
            </g>
          </g>
        </g>
      </g>
    </g>
    <g
      transform="matrix(1.0032 0 0 1 10.2676 94.8496)">
      <g>
        <g>
          <g>
            <g>
              <g>
                <text
                  id="pin31-GPIO38"
                  gorn="0.4.2.0.0.0.0.0.0"
                  font-size="4.5"
                  fill="#565656"
                  font-family="DroidSans">RST</text>
              </g>
            </g>
          </g>
        </g>
      </g>
    </g>
    <g
      transform="matrix(1 0 0 1 10.2671 87.6455)">
      <g>
        <g>
          <g>
            <g>
              <g>
                <text
                  id="pin30-GPIO39"
                  gorn="0.4.3.0.0.0.0.0.0"
                  font-size="4.5"
                  fill="#565656"
                  font-family="DroidSans">EN</text>
              </g>
            </g>
          </g>
        </g>
      </g>
    </g>
    <g
      transform="matrix(1 0 0 1 10.2671 80.4424)">
      <g>
        <g>
          <g>
            <g>
              <g>
                <text
                  id="pin29-GPIO34"
                  gorn="0.4.4.0.0.0.0.0.0"
                  font-size="4.5"
                  fill="#565656"
                  font-family="DroidSans">3V3</text>
              </g>
            </g>
          </g>
        </g>
      </g>
    </g>
    <g
      transform="matrix(1.0002 0 0 1 10.2676 73.2441)">
      <g>
        <g>
          <g>
            <g>
              <g>
                <text
                  id="pin28-GPIO35"
                  gorn="0.4.5.0.0.0.0.0.0"
                  font-size="4.5"
                  fill="#565656"
                  font-family="DroidSans">GND</text>
              </g>
            </g>
          </g>
        </g>
      </g>
    </g>
    <g
      transform="matrix(1 0 0 1 10.2671 66.1143)">
      <g>
        <g>
          <g>
            <g>
              <g>
                <text
                  id="pin27-GPIO32"
                  gorn="0.4.6.0.0.0.0.0.0"
                  font-size="4.5"
                  fill="#565656"
                  font-family="DroidSans">CLK</text>
              </g>
            </g>
          </g>
        </g>
      </g>
    </g>
    <g
      transform="matrix(1.0021 0 0 1 10.2681 58.8418)">
      <g>
        <g>
          <g>
            <g>
              <g>
                <text
                  id="pin26-GPIO33"
                  gorn="0.4.7.0.0.0.0.0.0"
                  font-size="4.5"
                  fill="#565656"
                  font-family="DroidSans">SD0</text>
              </g>
            </g>
          </g>
        </g>
      </g>
    </g>
    <g
      transform="matrix(1 0 0 1 10.2671 51.6416)">
      <g>
        <g>
          <g>
            <g>
              <g>
                <text
                  id="pin25-GPIO25"
                  gorn="0.4.8.0.0.0.0.0.0"
                  font-size="4.5"
                  fill="#565656"
                  font-family="DroidSans">CMD</text>
              </g>
            </g>
          </g>
        </g>
      </g>
    </g>
    <g
      transform="matrix(1 0 0 1 10.2671 44.4424)">
      <g>
        <g>
          <g>
            <g>
              <g>
                <text
                  id="pin24-GPIO26"
                  gorn="0.4.9.0.0.0.0.0.0"
                  font-size="4.5"
                  fill="#565656"
                  font-family="DroidSans">SD1</text>
              </g>
            </g>
          </g>
        </g>
      </g>
    </g>
    <g
      transform="matrix(1 0 0 1 10.2671 37.2432)">
      <g>
        <g>
          <g>
            <g>
              <g>
                <text
                  id="pin23-GPIO27"
                  gorn="0.4.10.0.0.0.0.0.0"
                  font-size="4.5"
                  fill="#565656"
                  font-family="DroidSans">SD2</text>
              </g>
            </g>
          </g>
        </g>
      </g>
    </g>
    <g
      transform="matrix(1 0 0 1 10.2671 30.0439)">
      <g>
        <g>
          <g>
            <g>
              <g>
                <text
                  id="pin22-GPIO14"
                  gorn="0.4.11.0.0.0.0.0.0"
                  font-size="4.5"
                  fill="#565656"
                  font-family="DroidSans">SD3</text>
              </g>
            </g>
          </g>
        </g>
      </g>
    </g>
    <g
      transform="matrix(1 0 0 1 10.2671 22.8447)">
      <g>
        <g>
          <g>
            <g>
              <g>
                <text
                  id="pin21-GPIO12"
                  gorn="0.4.12.0.0.0.0.0.0"
                  font-size="4.5"
                  fill="#565656"
                  font-family="DroidSans">RSV</text>
              </g>
            </g>
          </g>
        </g>
      </g>
    </g>
    <g
      transform="matrix(1 0 0 1 10.2671 15.6416)">
      <g>
        <g>
          <g>
            <g>
              <g>
                <text
                  id="pin20-GPIO13"
                  gorn="0.4.13.0.0.0.0.0.0"
                  font-size="4.5"
                  fill="#565656"
                  font-family="DroidSans">RSV</text>
              </g>
            </g>
          </g>
        </g>
      </g>
    </g>
    <g
      transform="matrix(1 0 0 1 10.2671 8.4424)">
      <g>
        <g>
          <g>
            <g>
              <g>
                <text
                  id="pin19-GPIO21"
                  gorn="0.4.14.0.0.0.0.0.0"
                  font-size="4.5"
                  fill="#565656"
                  font-family="DroidSans">A0</text>
              </g>
            </g>
          </g>
        </g>
      </g>
    </g>
    <g
      transform="matrix(0.9989 0 0 1 64.3774 8.3711)">
      <g>
        <g>
          <g>
            <g>
              <g>
                <text
                  id="pin18-GPIO16"
                  gorn="0.4.15.0.0.0.0.0.0"
                  font-size="4.5"
                  fill="#565656"
                  font-family="DroidSans">D0</text>
              </g>
            </g>
          </g>
        </g>
      </g>
    </g>
    <g
      transform="matrix(1 0 0 1 64.3794 15.5713)">
      <g>
        <g>
          <g>
            <g>
              <g>
                <text
                  id="pin17-GPIO17"
                  gorn="0.4.16.0.0.0.0.0.0"
                  font-size="4.5"
                  fill="#565656"
                  font-family="DroidSans">D1</text>
              </g>
            </g>
          </g>
        </g>
      </g>
    </g>
    <g
      transform="matrix(1 0 0 1 64.3794 22.7705)">
      <g>
        <g>
          <g>
            <g>
              <g>
                <text
                  id="pin16-GPIO4"
                  gorn="0.4.17.0.0.0.0.0.0"
                  font-size="4.5"
                  fill="#565656"
                  font-family="DroidSans">D2</text>
              </g>
            </g>
          </g>
        </g>
      </g>
    </g>
    <g
      transform="matrix(1 0 0 1 64.395 29.9697)">
      <g>
        <g>
          <g>
            <g>
              <g>
                <text
                  id="pin15-GPIO2"
                  gorn="0.4.18.0.0.0.0.0.0"
                  font-size="4.5"
                  fill="#565656"
                  font-family="DroidSans">D3</text>
              </g>
            </g>
          </g>
        </g>
      </g>
    </g>
    <g
      transform="matrix(1 0 0 1 64.354 37.1729)">
      <g>
        <g>
          <g>
            <g>
              <g>
                <text
                  id="pin14-GPIO5"
                  gorn="0.4.19.0.0.0.0.0.0"
                  font-size="4.5"
                  fill="#565656"
                  font-family="DroidSans">D4</text>
              </g>
            </g>
          </g>
        </g>
      </g>
    </g>
    <g
      transform="matrix(1 0 0 1 62.4243 44.3721)">
      <g>
        <g>
          <g>
            <g>
              <g>
                <text
                  id="pin13-GPIO15"
                  gorn="0.4.20.0.0.0.0.0.0"
                  font-size="4.5"
                  fill="#565656"
                  font-family="DroidSans">3V3</text>
              </g>
            </g>
          </g>
        </g>
      </g>
    </g>
    <g
      transform="matrix(1 0 0 1 60.4888 51.5713)">
      <g>
        <g>
          <g>
            <g>
              <g>
                <text
                  id="pin12-GPIO18"
                  gorn="0.4.21.0.0.0.0.0.0"
                  font-size="4.5"
                  fill="#565656"
                  font-family="DroidSans">GND</text>
              </g>
            </g>
          </g>
        </g>
      </g>
    </g>
    <g
      transform="matrix(1 0 0 1 64.4106 58.7705)">
      <g>
        <g>
          <g>
            <g>
              <g>
                <text
                  id="pin11-GPIO23"
                  gorn="0.4.22.0.0.0.0.0.0"
                  font-size="4.5"
                  fill="#565656"
                  font-family="DroidSans">D5</text>
              </g>
            </g>
          </g>
        </g>
      </g>
    </g>
    <g
      transform="matrix(1 0 0 1 64.4106 65.9736)">
      <g>
        <g>
          <g>
            <g>
              <g>
                <text
                  id="pin10-GPIO19"
                  gorn="0.4.23.0.0.0.0.0.0"
                  font-size="4.5"
                  fill="#565656"
                  font-family="DroidSans">D6</text>
              </g>
            </g>
          </g>
        </g>
      </g>
    </g>
    <g
      transform="matrix(1 0 0 1 64.3813 73.1729)">
      <g>
        <g>
          <g>
            <g>
              <g>
                <text
                  id="pin9-GPIO22"
                  gorn="0.4.24.0.0.0.0.0.0"
                  font-size="4.5"
                  fill="#565656"
                  font-family="DroidSans">D7</text>
              </g>
            </g>
          </g>
        </g>
      </g>
    </g>
    <g
      transform="matrix(1 0 0 1 64.4116 80.3721)">
      <g>
        <g>
          <g>
            <g>
              <g>
                <text
                  id="pin8-GPIO0"
                  gorn="0.4.25.0.0.0.0.0.0"
                  font-size="4.5"
                  fill="#565656"
                  font-family="DroidSans">D8</text>
              </g>
            </g>
          </g>
        </g>
      </g>
    </g>
    <g
      transform="matrix(1 0 0 1 64.853 87.5713)">
      <g>
        <g>
          <g>
            <g>
              <g>
                <text
                  id="pin7_x3D_RST"
                  gorn="0.4.26.0.0.0.0.0.0"
                  font-size="4.5"
                  fill="#565656"
                  font-family="DroidSans">RX</text>
              </g>
            </g>
          </g>
        </g>
      </g>
    </g>
    <g
      transform="matrix(1 0 0 1 65.1108 94.7705)">
      <g>
        <g>
          <g>
            <g>
              <g>
                <text
                  id="pin6-TX"
                  gorn="0.4.27.0.0.0.0.0.0"
                  font-size="4.5"
                  fill="#565656"
                  font-family="DroidSans">TX</text>
              </g>
            </g>
          </g>
        </g>
      </g>
    </g>
    <g
      transform="matrix(1 0 0 1 60.4751 101.9736)">
      <g>
        <g>
          <g>
            <g>
              <g>
                <text
                  id="pin5-RX"
                  gorn="0.4.28.0.0.0.0.0.0"
                  font-size="4.5"
                  fill="#565656"
                  font-family="DroidSans">GND</text>
              </g>
            </g>
          </g>
        </g>
      </g>
    </g>
    <g
      transform="matrix(1 0 0 1 62.4897 109.1729)">
      <g>
        <g>
          <g>
            <g>
              <g>
                <text
                  id="pin4-GND"
                  gorn="0.4.29.0.0.0.0.0.0"
                  font-size="4.5"
                  fill="#565656"
                  font-family="DroidSans">3V3</text>
              </g>
            </g>
          </g>
        </g>
      </g>
    </g>
    <g
      transform="matrix(1 0 0 1 31.4927 53.6963)">
      <g>
        <g>
          <g>
            <g>
              <g>
                <text
                  font-size="4.5"
                  font-family="DroidSans">ESP8266</text>
              </g>
            </g>
          </g>
        </g>
      </g>
    </g>
    <g
      transform="matrix(1 0 0 1 29.7544 59.0967)">
      <g>
        <g>
          <g>
            <g>
              <g>
                <text
                  font-size="4.5"
                  font-family="DroidSans">NodeMCU</text>
              </g>
            </g>
          </g>
        </g>
      </g>
    </g>
    <g
      transform="matrix(1 0 0 1 37.02 64.4961)">
      <g>
        <g>
          <g>
            <g>
              <g>
                <text
                  font-size="4.5"
                  font-family="DroidSans">1.0</text>
              </g>
            </g>
          </g>
        </g>
      </g>
    </g>
  </g>
</svg>
