<?xml version='1.0' encoding='UTF-8' standalone='no'?>
<svg
  xmlns:dc="http://purl.org/dc/elements/1.1/"
  xmlns:cc="http://creativecommons.org/ns#"
  xmlns:rdf="http://www.w3.org/1999/02/22-rdf-syntax-ns#"
  xmlns:svg="http://www.w3.org/2000/svg"
  xmlns="http://www.w3.org/2000/svg"
  id="svg2"
  y="0in"
  version="1.2"
  height="1.6331301in"
  width="1.4671801in"
  x="0in"
  viewBox="0 0 1467.18 1633.13">
  <metadata
    id="metadata24">
    <rdf:RDF>
      <cc:Work
        rdf:about="">
        <dc:format>image/svg+xml</dc:format>
        <dc:type
          rdf:resource="http://purl.org/dc/dcmitype/StillImage"
        />
        <dc:title/>
      </cc:Work>
    </rdf:RDF>
  </metadata>
  <defs
    id="defs22"
  />
  <desc
    id="desc4">
    <referenceFile>WG3166A-Atomizer_1_breadboard.svg</referenceFile>
  </desc>
  <g
    id="breadboard">
    <path
      id="rect603"
      d="m 441.8364,80.782898 h 583.5103 L 1467.1801,260.8245 V 382.387 c -64.4551,33.3511 -69.7674,63.1276 -86.1728,135.4141 -21.9178,96.575 81.7653,205.4996 86.1728,181.5859 v 930.6654 h -255.9385 l -4.058,-165.9688 -949.9983,-3.2992 3.0776,172.3456 L 0,1630.0524 1.5388,699.387 C 62.8424,662.0606 96.5821,609.4312 93.8668,533.1891 94.3923,453.0955 65.1172,410.1733 0,382.387 V 260.8245 C 160.2638,194.488 283.7599,135.5124 441.8334,80.784998 Z"
      fill="#decd87"
      stroke="none"
      stroke-width="0"
    />
    <circle
      cy="1537.3805"
      gorn="0.2.0.6"
      cx="1300.7463"
      id="circle1175"
      fill="#ffffff"
      stroke="none"
      stroke-width="0"
      r="60"
    />
    <circle
      cy="314.46265"
      gorn="0.2.0.6"
      cx="1300.7463"
      id="circle1177"
      fill="#ffffff"
      stroke="none"
      stroke-width="0"
      r="60"
    />
    <circle
      cy="1537.3805"
      gorn="0.2.0.6"
      cx="157.0005"
      id="circle1179"
      fill="#ffffff"
      stroke="none"
      stroke-width="0"
      r="60"
    />
    <circle
      cy="314.46265"
      gorn="0.2.0.6"
      cx="157.0005"
      id="circle1181"
      fill="#ffffff"
      stroke="none"
      stroke-width="0"
      r="60"
    />
    <circle
      cy="606.83472"
      gorn="0.2.0.6"
      cx="661.72705"
      id="circle1183"
      fill="#cccccc"
      stroke="#000000"
      stroke-width="50"
      r="140"
    />
    <circle
      cy="939.21558"
      gorn="0.2.0.6"
      cx="424.75195"
      id="circle1185"
      fill="#cccccc"
      stroke="#000000"
      stroke-width="50"
      r="120"
    />
    <circle
      cy="1265.4412"
      gorn="0.2.0.6"
      cx="584.78711"
      id="circle1187"
      fill="#cccccc"
      stroke="#000000"
      stroke-width="50"
      r="120"
    />
    <rect
      id="rect1189"
      width="157.38693"
      height="236.97525"
      x="33.016125"
      y="1151.7898"
      fill="#cccccc"
      stroke="#f2f2f2"
      stroke-width="20"
    />
    <rect
      id="rect1198"
      width="172.77493"
      height="437.01932"
      x="365.39697"
      y="10"
      fill="#333333"
      stroke="#000000"
      stroke-width="20"
    />
    <rect
      id="rect1200"
      width="243.55975"
      height="129.25923"
      x="833.19226"
      y="170.03516"
      fill="#333333"
      stroke="#000000"
      stroke-width="20"
    />
    <rect
      id="rect1202"
      width="123.53333"
      height="129.25923"
      x="897.8219"
      y="40.775879"
      fill="#000000"
      stroke="none"
      stroke-width="0"
    />
    <rect
      id="connector0pin"
      width="31.999998"
      height="32.083332"
      x="383.61499"
      y="8.4211426"
      fill="#ffe680"
      stroke="#f2f2f2"
      stroke-width="10"
    />
    <rect
      id="connector1pin"
      width="31.999998"
      height="32.083332"
      x="483.61499"
      y="8.7192383"
      fill="#ffe680"
      stroke="#f2f2f2"
      stroke-width="10"
    />
    <rect
      id="connector2pin"
      width="31.999998"
      height="32.083332"
      x="100.7234"
      y="1208.4209"
      fill="#ffe680"
      stroke="#f2f2f2"
      stroke-width="10"
    />
    <rect
      id="connector3pin"
      width="31.999998"
      height="32.083332"
      x="100.7234"
      y="1308.1227"
      fill="#ffe680"
      stroke="#f2f2f2"
      stroke-width="10"
    />
  </g>
</svg>
