<?xml version='1.0' encoding='UTF-8' standalone='no'?>
<svg xmlns="http://www.w3.org/2000/svg" width="0.68418998in" x="0in" version="1.2" y="0in" gorn="0"  height="0.42184001in" viewBox="0 0 49.261637 30.372463" id="svg1214">
    <desc >
        <referenceFile >proto3.svg</referenceFile>
    </desc>
    <metadata  id="metadata1220">
        <rdf:RDF xmlns:rdf="http://www.w3.org/1999/02/22-rdf-syntax-ns#">
            <cc:Work xmlns:rdf="http://www.w3.org/1999/02/22-rdf-syntax-ns#" xmlns:cc="http://creativecommons.org/ns#" rdf:about="">
                <dc:format xmlns:dc="http://purl.org/dc/elements/1.1/">image/svg+xml</dc:format>
                <dc:type xmlns:rdf="http://www.w3.org/1999/02/22-rdf-syntax-ns#" rdf:resource="http://purl.org/dc/dcmitype/StillImage" xmlns:dc="http://purl.org/dc/elements/1.1/"/>
                <dc:title xmlns:dc="http://purl.org/dc/elements/1.1/"/>
            </cc:Work>
        </rdf:RDF>
    </metadata>
    <defs  id="defs1218"/>
    <g  transform="translate(4.3765522,0.56103231)">
        <g >
            <g >
                <g >
                    <g >
                        <g >
                            <g >
                                <g >
                                    <g gorn="0.3.0.0.0.0.0.0.0.0"  id="g1212" partID="255550">
                                        <g gorn="0.3.0.0.0.0.0.0.0.0.0"  id="breadboard">
                                            <rect width="37.429165" x="0.72000003" y="0.72000003" fill="#cccccc" gorn="0.3.0.0.0.0.0.0.0.0.0.0"  height="27.212601" ry="0" stroke="#999999" id="rect596" stroke-width="1.44"/>
                                            <rect width="8.7451601" x="27.1891" y="16.2136" fill="#e6e6e6" gorn="0.3.0.0.0.0.0.0.0.0.0.1"  height="8.7451601" stroke="#f2f2f2" id="rect614" stroke-width="0.892637"/>
                                            <rect width="8.7451601" x="15.2836" y="16.2136" fill="#e6e6e6" gorn="0.3.0.0.0.0.0.0.0.0.0.2"  height="8.7451601" stroke="#f2f2f2" id="rect612" stroke-width="0.892637"/>
                                            <rect width="8.7451601" x="27.1891" y="3.6413701" fill="#e6e6e6" gorn="0.3.0.0.0.0.0.0.0.0.0.3"  height="8.7451601" stroke="#f2f2f2" id="rect604" stroke-width="0.892637"/>
                                            <rect width="8.7451601" x="15.2836" y="3.6413701" fill="#e6e6e6" gorn="0.3.0.0.0.0.0.0.0.0.0.4"  height="8.7451601" stroke="#f2f2f2" id="rect606" stroke-width="0.892637"/>
                                            <rect width="8.7451601" x="3.3780601" y="3.6413701" fill="#e6e6e6" gorn="0.3.0.0.0.0.0.0.0.0.0.5"  height="8.7451601" stroke="#f2f2f2" id="rect600" stroke-width="0.892637"/>
                                            <rect width="8.7451601" x="3.3780601" y="16.2136" fill="#e6e6e6" gorn="0.3.0.0.0.0.0.0.0.0.0.6"  height="8.7451601" stroke="#f2f2f2" id="rect598" stroke-width="0.892637"/>
                                            <rect width="2.7913799" x="6.2681499" y="19.1453" fill="none" gorn="0.3.0.0.0.0.0.0.0.0.0.7"  height="2.7913799" id="connector2pin" stroke-width="0.0072"/>
                                            <rect width="2.2983201" x="6.5151801" y="19.392401" fill="#8d8c8c" gorn="0.3.0.0.0.0.0.0.0.0.0.8"  height="2.2983201" id="rect8" stroke-width="0.0072"/>
                                            <rect width="1.18216" x="7.0732598" y="19.950399" fill="#8c8663" gorn="0.3.0.0.0.0.0.0.0.0.0.9"  height="1.18216" id="rect10" stroke-width="0.0072"/>
                                            <g  transform="matrix(0.1,0,0,0.1,4.06384,16.941)">
                                                <g >
                                                    <g >
                                                        <g >
                                                            <g >
                                                                <g >
                                                                    <g >
                                                                        <g >
                                                                            <g gorn="0.3.0.0.0.0.0.0.0.0.0.10.0.0.0.0.0.0.0.0"  id="g1065">
                                                                                <polygon fill="#b8af82" points="47.4965,24.5133 24.5133,24.5133 30.0941,30.0941 41.9058,30.0941 " gorn="0.3.0.0.0.0.0.0.0.0.0.10.0.0.0.0.0.0.0.0.0"  id="polygon12"/>
                                                                            </g>
                                                                        </g>
                                                                    </g>
                                                                </g>
                                                            </g>
                                                        </g>
                                                    </g>
                                                </g>
                                            </g>
                                            <g  transform="matrix(0.1,0,0,0.1,4.06384,16.941)">
                                                <g >
                                                    <g >
                                                        <g >
                                                            <g >
                                                                <g >
                                                                    <g >
                                                                        <g >
                                                                            <g gorn="0.3.0.0.0.0.0.0.0.0.0.11.0.0.0.0.0.0.0.0"  id="g1068">
                                                                                <polygon fill="#80795b" points="47.4965,47.4965 41.9058,41.9058 41.9058,30.0941 47.4965,24.5133 " gorn="0.3.0.0.0.0.0.0.0.0.0.11.0.0.0.0.0.0.0.0.0"  id="polygon14"/>
                                                                            </g>
                                                                        </g>
                                                                    </g>
                                                                </g>
                                                            </g>
                                                        </g>
                                                    </g>
                                                </g>
                                            </g>
                                            <g  transform="matrix(0.1,0,0,0.1,4.06384,16.941)">
                                                <g >
                                                    <g >
                                                        <g >
                                                            <g >
                                                                <g >
                                                                    <g >
                                                                        <g >
                                                                            <g gorn="0.3.0.0.0.0.0.0.0.0.0.12.0.0.0.0.0.0.0.0"  id="g1071">
                                                                                <polygon fill="#5e5b43" points="24.5133,47.4965 30.0941,41.9058 41.9058,41.9058 47.4965,47.4965 " gorn="0.3.0.0.0.0.0.0.0.0.0.12.0.0.0.0.0.0.0.0.0"  id="polygon16"/>
                                                                            </g>
                                                                        </g>
                                                                    </g>
                                                                </g>
                                                            </g>
                                                        </g>
                                                    </g>
                                                </g>
                                            </g>
                                            <g  transform="matrix(0.1,0,0,0.1,4.06384,16.941)">
                                                <g >
                                                    <g >
                                                        <g >
                                                            <g >
                                                                <g >
                                                                    <g >
                                                                        <g >
                                                                            <g gorn="0.3.0.0.0.0.0.0.0.0.0.13.0.0.0.0.0.0.0.0"  id="g1074">
                                                                                <polygon fill="#9a916c" points="24.5133,47.4965 24.5133,24.5133 30.0941,30.0941 30.0941,41.9058 " gorn="0.3.0.0.0.0.0.0.0.0.0.13.0.0.0.0.0.0.0.0.0"  id="polygon18"/>
                                                                            </g>
                                                                        </g>
                                                                    </g>
                                                                </g>
                                                            </g>
                                                        </g>
                                                    </g>
                                                </g>
                                            </g>
                                            <rect width="2.7913799" x="18.1737" y="19.1453" fill="none" gorn="0.3.0.0.0.0.0.0.0.0.0.14"  height="2.7913799" id="connector1pin" stroke-width="0.0072"/>
                                            <rect width="2.2983201" x="18.4207" y="19.392401" fill="#8d8c8c" gorn="0.3.0.0.0.0.0.0.0.0.0.15"  height="2.2983201" id="rect24" stroke-width="0.0072"/>
                                            <rect width="1.18216" x="18.9788" y="19.950399" fill="#8c8663"  height="1.18216" stroke-width="0.0072"/>
                                            <g  transform="matrix(0.1,0,0,0.1,8.76938,16.941)">
                                                <g >
                                                    <g >
                                                        <g >
                                                            <g >
                                                                <g >
                                                                    <g >
                                                                        <g >
                                                                            <g gorn="0.3.0.0.0.0.0.0.0.0.0.17.0.0.0.0.0.0.0.0"  id="g1080">
                                                                                <polygon fill="#b8af82" points="96.5131,24.5133 102.094,30.0941 113.906,30.0941 119.496,24.5133 " gorn="0.3.0.0.0.0.0.0.0.0.0.17.0.0.0.0.0.0.0.0.0"  id="polygon28"/>
                                                                            </g>
                                                                        </g>
                                                                    </g>
                                                                </g>
                                                            </g>
                                                        </g>
                                                    </g>
                                                </g>
                                            </g>
                                            <g  transform="matrix(0.1,0,0,0.1,8.76938,16.941)">
                                                <g >
                                                    <g >
                                                        <g >
                                                            <g >
                                                                <g >
                                                                    <g >
                                                                        <g >
                                                                            <g gorn="0.3.0.0.0.0.0.0.0.0.0.18.0.0.0.0.0.0.0.0"  id="g1083">
                                                                                <polygon fill="#80795b" points="113.906,41.9058 113.906,30.0941 119.496,24.5133 119.496,47.4965 " gorn="0.3.0.0.0.0.0.0.0.0.0.18.0.0.0.0.0.0.0.0.0"  id="polygon30"/>
                                                                            </g>
                                                                        </g>
                                                                    </g>
                                                                </g>
                                                            </g>
                                                        </g>
                                                    </g>
                                                </g>
                                            </g>
                                            <g  transform="matrix(0.1,0,0,0.1,8.76938,16.941)">
                                                <g >
                                                    <g >
                                                        <g >
                                                            <g >
                                                                <g >
                                                                    <g >
                                                                        <g >
                                                                            <g gorn="0.3.0.0.0.0.0.0.0.0.0.19.0.0.0.0.0.0.0.0"  id="g1086">
                                                                                <polygon fill="#5e5b43" points="102.094,41.9058 113.906,41.9058 119.496,47.4965 96.5131,47.4965 " gorn="0.3.0.0.0.0.0.0.0.0.0.19.0.0.0.0.0.0.0.0.0"  id="polygon32"/>
                                                                            </g>
                                                                        </g>
                                                                    </g>
                                                                </g>
                                                            </g>
                                                        </g>
                                                    </g>
                                                </g>
                                            </g>
                                            <g  transform="matrix(0.1,0,0,0.1,8.76938,16.941)">
                                                <g >
                                                    <g >
                                                        <g >
                                                            <g >
                                                                <g >
                                                                    <g >
                                                                        <g >
                                                                            <g gorn="0.3.0.0.0.0.0.0.0.0.0.20.0.0.0.0.0.0.0.0"  id="g1089">
                                                                                <polygon fill="#9a916c" points="96.5131,24.5133 102.094,30.0941 102.094,41.9058 96.5131,47.4965 " gorn="0.3.0.0.0.0.0.0.0.0.0.20.0.0.0.0.0.0.0.0.0"  id="polygon34"/>
                                                                            </g>
                                                                        </g>
                                                                    </g>
                                                                </g>
                                                            </g>
                                                        </g>
                                                    </g>
                                                </g>
                                            </g>
                                            <rect width="2.7913799" x="30.079201" y="19.1453" fill="none" gorn="0.3.0.0.0.0.0.0.0.0.0.21"  height="2.7913799" id="connector0pin" stroke-width="0.0072"/>
                                            <rect width="2.2983201" x="30.3262" y="19.392401" fill="#8d8c8c" gorn="0.3.0.0.0.0.0.0.0.0.0.22"  height="2.2983201" id="rect40" stroke-width="0.0072"/>
                                            <rect width="1.18216" x="30.8843" y="19.950399" fill="#8c8663"  height="1.18216" stroke-width="0.0072"/>
                                            <g  transform="matrix(0.1,0,0,0.1,13.4749,16.941)">
                                                <g >
                                                    <g >
                                                        <g >
                                                            <g >
                                                                <g >
                                                                    <g >
                                                                        <g >
                                                                            <g gorn="0.3.0.0.0.0.0.0.0.0.0.24.0.0.0.0.0.0.0.0"  id="g1095">
                                                                                <polygon fill="#b8af82" points="174.094,30.0941 185.906,30.0941 191.496,24.5133 168.513,24.5133 " gorn="0.3.0.0.0.0.0.0.0.0.0.24.0.0.0.0.0.0.0.0.0"  id="polygon44"/>
                                                                            </g>
                                                                        </g>
                                                                    </g>
                                                                </g>
                                                            </g>
                                                        </g>
                                                    </g>
                                                </g>
                                            </g>
                                            <g  transform="matrix(0.1,0,0,0.1,13.4749,16.941)">
                                                <g >
                                                    <g >
                                                        <g >
                                                            <g >
                                                                <g >
                                                                    <g >
                                                                        <g >
                                                                            <g gorn="0.3.0.0.0.0.0.0.0.0.0.25.0.0.0.0.0.0.0.0"  id="g1098">
                                                                                <polygon fill="#80795b" points="185.906,30.0941 191.496,24.5133 191.496,47.4965 185.906,41.9058 " gorn="0.3.0.0.0.0.0.0.0.0.0.25.0.0.0.0.0.0.0.0.0"  id="polygon46"/>
                                                                            </g>
                                                                        </g>
                                                                    </g>
                                                                </g>
                                                            </g>
                                                        </g>
                                                    </g>
                                                </g>
                                            </g>
                                            <g  transform="matrix(0.1,0,0,0.1,13.4749,16.941)">
                                                <g >
                                                    <g >
                                                        <g >
                                                            <g >
                                                                <g >
                                                                    <g >
                                                                        <g >
                                                                            <g gorn="0.3.0.0.0.0.0.0.0.0.0.26.0.0.0.0.0.0.0.0"  id="g1101">
                                                                                <polygon fill="#5e5b43" points="185.906,41.9058 191.496,47.4965 168.513,47.4965 174.094,41.9058 " gorn="0.3.0.0.0.0.0.0.0.0.0.26.0.0.0.0.0.0.0.0.0"  id="polygon48"/>
                                                                            </g>
                                                                        </g>
                                                                    </g>
                                                                </g>
                                                            </g>
                                                        </g>
                                                    </g>
                                                </g>
                                            </g>
                                            <g  transform="matrix(0.1,0,0,0.1,13.4749,16.941)">
                                                <g >
                                                    <g >
                                                        <g >
                                                            <g >
                                                                <g >
                                                                    <g >
                                                                        <g >
                                                                            <g gorn="0.3.0.0.0.0.0.0.0.0.0.27.0.0.0.0.0.0.0.0"  id="g1104">
                                                                                <polygon fill="#9a916c" points="174.094,30.0941 174.094,41.9058 168.513,47.4965 168.513,24.5133 " gorn="0.3.0.0.0.0.0.0.0.0.0.27.0.0.0.0.0.0.0.0.0"  id="polygon50"/>
                                                                            </g>
                                                                        </g>
                                                                    </g>
                                                                </g>
                                                            </g>
                                                        </g>
                                                    </g>
                                                </g>
                                            </g>
                                            <rect width="2.7913799" x="41.984699" y="19.1453" fill="none" gorn="0.3.0.0.0.0.0.0.0.0.0.28"  height="2.7913799" id="connector8pin" stroke-width="0.0072"/>
                                            <g  transform="matrix(0.1,0,0,0.1,18.1804,16.941)">
                                                <g >
                                                    <g >
                                                        <g >
                                                            <g >
                                                                <g >
                                                                    <g >
                                                                        <g >
                                                                            <g gorn="0.3.0.0.0.0.0.0.0.0.0.29.0.0.0.0.0.0.0.0"  id="g1110"/>
                                                                        </g>
                                                                    </g>
                                                                </g>
                                                            </g>
                                                        </g>
                                                    </g>
                                                </g>
                                            </g>
                                            <g  transform="matrix(0.1,0,0,0.1,18.1804,16.941)">
                                                <g >
                                                    <g >
                                                        <g >
                                                            <g >
                                                                <g >
                                                                    <g >
                                                                        <g >
                                                                            <g gorn="0.3.0.0.0.0.0.0.0.0.0.30.0.0.0.0.0.0.0.0"  id="g1113"/>
                                                                        </g>
                                                                    </g>
                                                                </g>
                                                            </g>
                                                        </g>
                                                    </g>
                                                </g>
                                            </g>
                                            <g  transform="matrix(0.1,0,0,0.1,18.1804,16.941)">
                                                <g >
                                                    <g >
                                                        <g >
                                                            <g >
                                                                <g >
                                                                    <g >
                                                                        <g >
                                                                            <g gorn="0.3.0.0.0.0.0.0.0.0.0.31.0.0.0.0.0.0.0.0"  id="g1116"/>
                                                                        </g>
                                                                    </g>
                                                                </g>
                                                            </g>
                                                        </g>
                                                    </g>
                                                </g>
                                            </g>
                                            <g  transform="matrix(0.1,0,0,0.1,18.1804,16.941)">
                                                <g >
                                                    <g >
                                                        <g >
                                                            <g >
                                                                <g >
                                                                    <g >
                                                                        <g >
                                                                            <g gorn="0.3.0.0.0.0.0.0.0.0.0.32.0.0.0.0.0.0.0.0"  id="g1119"/>
                                                                        </g>
                                                                    </g>
                                                                </g>
                                                            </g>
                                                        </g>
                                                    </g>
                                                </g>
                                            </g>
                                            <rect width="2.7913799" x="53.890202" y="19.1453" fill="none" gorn="0.3.0.0.0.0.0.0.0.0.0.33"  height="2.7913799" id="connector9pin" stroke-width="0.0072"/>
                                            <g  transform="matrix(0.1,0,0,0.1,22.8859,16.941)">
                                                <g >
                                                    <g >
                                                        <g >
                                                            <g >
                                                                <g >
                                                                    <g >
                                                                        <g >
                                                                            <g gorn="0.3.0.0.0.0.0.0.0.0.0.34.0.0.0.0.0.0.0.0"  id="g1125"/>
                                                                        </g>
                                                                    </g>
                                                                </g>
                                                            </g>
                                                        </g>
                                                    </g>
                                                </g>
                                            </g>
                                            <g  transform="matrix(0.1,0,0,0.1,22.8859,16.941)">
                                                <g >
                                                    <g >
                                                        <g >
                                                            <g >
                                                                <g >
                                                                    <g >
                                                                        <g >
                                                                            <g gorn="0.3.0.0.0.0.0.0.0.0.0.35.0.0.0.0.0.0.0.0"  id="g1128"/>
                                                                        </g>
                                                                    </g>
                                                                </g>
                                                            </g>
                                                        </g>
                                                    </g>
                                                </g>
                                            </g>
                                            <g  transform="matrix(0.1,0,0,0.1,22.8859,16.941)">
                                                <g >
                                                    <g >
                                                        <g >
                                                            <g >
                                                                <g >
                                                                    <g >
                                                                        <g >
                                                                            <g gorn="0.3.0.0.0.0.0.0.0.0.0.36.0.0.0.0.0.0.0.0"  id="g1131"/>
                                                                        </g>
                                                                    </g>
                                                                </g>
                                                            </g>
                                                        </g>
                                                    </g>
                                                </g>
                                            </g>
                                            <g  transform="matrix(0.1,0,0,0.1,22.8859,16.941)">
                                                <g >
                                                    <g >
                                                        <g >
                                                            <g >
                                                                <g >
                                                                    <g >
                                                                        <g >
                                                                            <g gorn="0.3.0.0.0.0.0.0.0.0.0.37.0.0.0.0.0.0.0.0"  id="g1134"/>
                                                                        </g>
                                                                    </g>
                                                                </g>
                                                            </g>
                                                        </g>
                                                    </g>
                                                </g>
                                            </g>
                                            <rect width="2.7913799" x="6.2681499" y="6.38941" fill="none" gorn="0.3.0.0.0.0.0.0.0.0.0.38"  height="2.7913799" id="connector5pin" stroke-width="0.0072"/>
                                            <rect width="2.2983201" x="6.5151801" y="6.6364498" fill="#8d8c8c" gorn="0.3.0.0.0.0.0.0.0.0.0.39"  height="2.2983201" id="rect8-5" stroke-width="0.0072"/>
                                            <rect width="1.18216" x="7.0732598" y="7.19453" fill="#8c8663" gorn="0.3.0.0.0.0.0.0.0.0.0.40"  height="1.18216" id="rect10-2" stroke-width="0.0072"/>
                                            <g  transform="matrix(0.1,0,0,0.1,4.06384,4.18511)">
                                                <g >
                                                    <g >
                                                        <g >
                                                            <g >
                                                                <g >
                                                                    <g >
                                                                        <g >
                                                                            <g gorn="0.3.0.0.0.0.0.0.0.0.0.41.0.0.0.0.0.0.0.0"  id="g1140">
                                                                                <polygon fill="#b8af82" points="47.4965,24.5133 24.5133,24.5133 30.0941,30.0941 41.9058,30.0941 " gorn="0.3.0.0.0.0.0.0.0.0.0.41.0.0.0.0.0.0.0.0.0"  id="polygon12-3"/>
                                                                            </g>
                                                                        </g>
                                                                    </g>
                                                                </g>
                                                            </g>
                                                        </g>
                                                    </g>
                                                </g>
                                            </g>
                                            <g  transform="matrix(0.1,0,0,0.1,4.06384,4.18511)">
                                                <g >
                                                    <g >
                                                        <g >
                                                            <g >
                                                                <g >
                                                                    <g >
                                                                        <g >
                                                                            <g gorn="0.3.0.0.0.0.0.0.0.0.0.42.0.0.0.0.0.0.0.0"  id="g1143">
                                                                                <polygon fill="#80795b" points="47.4965,47.4965 41.9058,41.9058 41.9058,30.0941 47.4965,24.5133 " gorn="0.3.0.0.0.0.0.0.0.0.0.42.0.0.0.0.0.0.0.0.0"  id="polygon14-6"/>
                                                                            </g>
                                                                        </g>
                                                                    </g>
                                                                </g>
                                                            </g>
                                                        </g>
                                                    </g>
                                                </g>
                                            </g>
                                            <g  transform="matrix(0.1,0,0,0.1,4.06384,4.18511)">
                                                <g >
                                                    <g >
                                                        <g >
                                                            <g >
                                                                <g >
                                                                    <g >
                                                                        <g >
                                                                            <g gorn="0.3.0.0.0.0.0.0.0.0.0.43.0.0.0.0.0.0.0.0"  id="g1146">
                                                                                <polygon fill="#5e5b43" points="24.5133,47.4965 30.0941,41.9058 41.9058,41.9058 47.4965,47.4965 " gorn="0.3.0.0.0.0.0.0.0.0.0.43.0.0.0.0.0.0.0.0.0"  id="polygon16-6"/>
                                                                            </g>
                                                                        </g>
                                                                    </g>
                                                                </g>
                                                            </g>
                                                        </g>
                                                    </g>
                                                </g>
                                            </g>
                                            <g  transform="matrix(0.1,0,0,0.1,4.06384,4.18511)">
                                                <g >
                                                    <g >
                                                        <g >
                                                            <g >
                                                                <g >
                                                                    <g >
                                                                        <g >
                                                                            <g gorn="0.3.0.0.0.0.0.0.0.0.0.44.0.0.0.0.0.0.0.0"  id="g1149">
                                                                                <polygon fill="#9a916c" points="24.5133,47.4965 24.5133,24.5133 30.0941,30.0941 30.0941,41.9058 " gorn="0.3.0.0.0.0.0.0.0.0.0.44.0.0.0.0.0.0.0.0.0"  id="polygon18-7"/>
                                                                            </g>
                                                                        </g>
                                                                    </g>
                                                                </g>
                                                            </g>
                                                        </g>
                                                    </g>
                                                </g>
                                            </g>
                                            <rect width="2.7913799" x="18.1737" y="6.38941" fill="none" gorn="0.3.0.0.0.0.0.0.0.0.0.45"  height="2.7913799" id="connector4pin" stroke-width="0.0072"/>
                                            <rect width="2.2983201" x="18.4207" y="6.6364498" fill="#8d8c8c" gorn="0.3.0.0.0.0.0.0.0.0.0.46"  height="2.2983201" id="rect24-4" stroke-width="0.0072"/>
                                            <rect width="1.18216" x="18.9788" y="7.19453" fill="#8c8663" gorn="0.3.0.0.0.0.0.0.0.0.0.47"  height="1.18216" id="rect26-1" stroke-width="0.0072"/>
                                            <g  transform="matrix(0.1,0,0,0.1,8.76938,4.18511)">
                                                <g >
                                                    <g >
                                                        <g >
                                                            <g >
                                                                <g >
                                                                    <g >
                                                                        <g >
                                                                            <g gorn="0.3.0.0.0.0.0.0.0.0.0.48.0.0.0.0.0.0.0.0"  id="g1155">
                                                                                <polygon fill="#b8af82" points="96.5131,24.5133 102.094,30.0941 113.906,30.0941 119.496,24.5133 " gorn="0.3.0.0.0.0.0.0.0.0.0.48.0.0.0.0.0.0.0.0.0"  id="polygon28-6"/>
                                                                            </g>
                                                                        </g>
                                                                    </g>
                                                                </g>
                                                            </g>
                                                        </g>
                                                    </g>
                                                </g>
                                            </g>
                                            <g  transform="matrix(0.1,0,0,0.1,8.76938,4.18511)">
                                                <g >
                                                    <g >
                                                        <g >
                                                            <g >
                                                                <g >
                                                                    <g >
                                                                        <g >
                                                                            <g gorn="0.3.0.0.0.0.0.0.0.0.0.49.0.0.0.0.0.0.0.0"  id="g1158">
                                                                                <polygon fill="#80795b" points="113.906,41.9058 113.906,30.0941 119.496,24.5133 119.496,47.4965 " gorn="0.3.0.0.0.0.0.0.0.0.0.49.0.0.0.0.0.0.0.0.0"  id="polygon30-2"/>
                                                                            </g>
                                                                        </g>
                                                                    </g>
                                                                </g>
                                                            </g>
                                                        </g>
                                                    </g>
                                                </g>
                                            </g>
                                            <g  transform="matrix(0.1,0,0,0.1,8.76938,4.18511)">
                                                <g >
                                                    <g >
                                                        <g >
                                                            <g >
                                                                <g >
                                                                    <g >
                                                                        <g >
                                                                            <g gorn="0.3.0.0.0.0.0.0.0.0.0.50.0.0.0.0.0.0.0.0"  id="g1161">
                                                                                <polygon fill="#5e5b43" points="102.094,41.9058 113.906,41.9058 119.496,47.4965 96.5131,47.4965 " gorn="0.3.0.0.0.0.0.0.0.0.0.50.0.0.0.0.0.0.0.0.0"  id="polygon32-3"/>
                                                                            </g>
                                                                        </g>
                                                                    </g>
                                                                </g>
                                                            </g>
                                                        </g>
                                                    </g>
                                                </g>
                                            </g>
                                            <g  transform="matrix(0.1,0,0,0.1,8.76938,4.18511)">
                                                <g >
                                                    <g >
                                                        <g >
                                                            <g >
                                                                <g >
                                                                    <g >
                                                                        <g >
                                                                            <g gorn="0.3.0.0.0.0.0.0.0.0.0.51.0.0.0.0.0.0.0.0"  id="g1164">
                                                                                <polygon fill="#9a916c" points="96.5131,24.5133 102.094,30.0941 102.094,41.9058 96.5131,47.4965 " gorn="0.3.0.0.0.0.0.0.0.0.0.51.0.0.0.0.0.0.0.0.0"  id="polygon34-4"/>
                                                                            </g>
                                                                        </g>
                                                                    </g>
                                                                </g>
                                                            </g>
                                                        </g>
                                                    </g>
                                                </g>
                                            </g>
                                            <rect width="2.7913799" x="30.079201" y="6.38941" fill="none" gorn="0.3.0.0.0.0.0.0.0.0.0.52"  height="2.7913799" id="connector3pin" stroke-width="0.0072"/>
                                            <rect width="2.2983201" x="30.3262" y="6.6364498" fill="#8d8c8c" gorn="0.3.0.0.0.0.0.0.0.0.0.53"  height="2.2983201" id="rect40-3" stroke-width="0.0072"/>
                                            <rect width="1.18216" x="30.8843" y="7.19453" fill="#8c8663" gorn="0.3.0.0.0.0.0.0.0.0.0.54"  height="1.18216" id="rect42-6" stroke-width="0.0072"/>
                                            <g  transform="matrix(0.1,0,0,0.1,13.4749,4.18511)">
                                                <g >
                                                    <g >
                                                        <g >
                                                            <g >
                                                                <g >
                                                                    <g >
                                                                        <g >
                                                                            <g gorn="0.3.0.0.0.0.0.0.0.0.0.55.0.0.0.0.0.0.0.0"  id="g1170">
                                                                                <polygon fill="#b8af82" points="174.094,30.0941 185.906,30.0941 191.496,24.5133 168.513,24.5133 " gorn="0.3.0.0.0.0.0.0.0.0.0.55.0.0.0.0.0.0.0.0.0"  id="polygon44-3"/>
                                                                            </g>
                                                                        </g>
                                                                    </g>
                                                                </g>
                                                            </g>
                                                        </g>
                                                    </g>
                                                </g>
                                            </g>
                                            <g  transform="matrix(0.1,0,0,0.1,13.4749,4.18511)">
                                                <g >
                                                    <g >
                                                        <g >
                                                            <g >
                                                                <g >
                                                                    <g >
                                                                        <g >
                                                                            <g gorn="0.3.0.0.0.0.0.0.0.0.0.56.0.0.0.0.0.0.0.0"  id="g1173">
                                                                                <polygon fill="#80795b" points="185.906,30.0941 191.496,24.5133 191.496,47.4965 185.906,41.9058 " gorn="0.3.0.0.0.0.0.0.0.0.0.56.0.0.0.0.0.0.0.0.0"  id="polygon46-2"/>
                                                                            </g>
                                                                        </g>
                                                                    </g>
                                                                </g>
                                                            </g>
                                                        </g>
                                                    </g>
                                                </g>
                                            </g>
                                            <g  transform="matrix(0.1,0,0,0.1,13.4749,4.18511)">
                                                <g >
                                                    <g >
                                                        <g >
                                                            <g >
                                                                <g >
                                                                    <g >
                                                                        <g >
                                                                            <g gorn="0.3.0.0.0.0.0.0.0.0.0.57.0.0.0.0.0.0.0.0"  id="g1176">
                                                                                <polygon fill="#5e5b43" points="185.906,41.9058 191.496,47.4965 168.513,47.4965 174.094,41.9058 " gorn="0.3.0.0.0.0.0.0.0.0.0.57.0.0.0.0.0.0.0.0.0"  id="polygon48-3"/>
                                                                            </g>
                                                                        </g>
                                                                    </g>
                                                                </g>
                                                            </g>
                                                        </g>
                                                    </g>
                                                </g>
                                            </g>
                                            <g  transform="matrix(0.1,0,0,0.1,13.4749,4.18511)">
                                                <g >
                                                    <g >
                                                        <g >
                                                            <g >
                                                                <g >
                                                                    <g >
                                                                        <g >
                                                                            <g gorn="0.3.0.0.0.0.0.0.0.0.0.58.0.0.0.0.0.0.0.0"  id="g1179">
                                                                                <polygon fill="#9a916c" points="174.094,30.0941 174.094,41.9058 168.513,47.4965 168.513,24.5133 " gorn="0.3.0.0.0.0.0.0.0.0.0.58.0.0.0.0.0.0.0.0.0"  id="polygon50-2"/>
                                                                            </g>
                                                                        </g>
                                                                    </g>
                                                                </g>
                                                            </g>
                                                        </g>
                                                    </g>
                                                </g>
                                            </g>
                                            <rect width="2.7913799" x="41.984699" y="6.38941" fill="none"  height="2.7913799" stroke-width="0.0072"/>
                                            <g  transform="matrix(0.1,0,0,0.1,18.1804,4.18511)">
                                                <g >
                                                    <g >
                                                        <g >
                                                            <g >
                                                                <g >
                                                                    <g >
                                                                        <g >
                                                                            <g gorn="0.3.0.0.0.0.0.0.0.0.0.60.0.0.0.0.0.0.0.0"  id="g1185"/>
                                                                        </g>
                                                                    </g>
                                                                </g>
                                                            </g>
                                                        </g>
                                                    </g>
                                                </g>
                                            </g>
                                            <g  transform="matrix(0.1,0,0,0.1,18.1804,4.18511)">
                                                <g >
                                                    <g >
                                                        <g >
                                                            <g >
                                                                <g >
                                                                    <g >
                                                                        <g >
                                                                            <g gorn="0.3.0.0.0.0.0.0.0.0.0.61.0.0.0.0.0.0.0.0"  id="g1188"/>
                                                                        </g>
                                                                    </g>
                                                                </g>
                                                            </g>
                                                        </g>
                                                    </g>
                                                </g>
                                            </g>
                                            <g  transform="matrix(0.1,0,0,0.1,18.1804,4.18511)">
                                                <g >
                                                    <g >
                                                        <g >
                                                            <g >
                                                                <g >
                                                                    <g >
                                                                        <g >
                                                                            <g gorn="0.3.0.0.0.0.0.0.0.0.0.62.0.0.0.0.0.0.0.0"  id="g1191"/>
                                                                        </g>
                                                                    </g>
                                                                </g>
                                                            </g>
                                                        </g>
                                                    </g>
                                                </g>
                                            </g>
                                            <g  transform="matrix(0.1,0,0,0.1,18.1804,4.18511)">
                                                <g >
                                                    <g >
                                                        <g >
                                                            <g >
                                                                <g >
                                                                    <g >
                                                                        <g >
                                                                            <g gorn="0.3.0.0.0.0.0.0.0.0.0.63.0.0.0.0.0.0.0.0"  id="g1194"/>
                                                                        </g>
                                                                    </g>
                                                                </g>
                                                            </g>
                                                        </g>
                                                    </g>
                                                </g>
                                            </g>
                                            <rect width="2.7913799" x="53.890202" y="6.38941" fill="none"  height="2.7913799" stroke-width="0.0072"/>
                                            <g  transform="matrix(0.1,0,0,0.1,22.8859,4.18511)">
                                                <g >
                                                    <g >
                                                        <g >
                                                            <g >
                                                                <g >
                                                                    <g >
                                                                        <g >
                                                                            <g gorn="0.3.0.0.0.0.0.0.0.0.0.65.0.0.0.0.0.0.0.0"  id="g1200"/>
                                                                        </g>
                                                                    </g>
                                                                </g>
                                                            </g>
                                                        </g>
                                                    </g>
                                                </g>
                                            </g>
                                            <g  transform="matrix(0.1,0,0,0.1,22.8859,4.18511)">
                                                <g >
                                                    <g >
                                                        <g >
                                                            <g >
                                                                <g >
                                                                    <g >
                                                                        <g >
                                                                            <g gorn="0.3.0.0.0.0.0.0.0.0.0.66.0.0.0.0.0.0.0.0"  id="g1203"/>
                                                                        </g>
                                                                    </g>
                                                                </g>
                                                            </g>
                                                        </g>
                                                    </g>
                                                </g>
                                            </g>
                                            <g  transform="matrix(0.1,0,0,0.1,22.8859,4.18511)">
                                                <g >
                                                    <g >
                                                        <g >
                                                            <g >
                                                                <g >
                                                                    <g >
                                                                        <g >
                                                                            <g gorn="0.3.0.0.0.0.0.0.0.0.0.67.0.0.0.0.0.0.0.0"  id="g1206"/>
                                                                        </g>
                                                                    </g>
                                                                </g>
                                                            </g>
                                                        </g>
                                                    </g>
                                                </g>
                                            </g>
                                            <g  transform="matrix(0.1,0,0,0.1,22.8859,4.18511)">
                                                <g >
                                                    <g >
                                                        <g >
                                                            <g >
                                                                <g >
                                                                    <g >
                                                                        <g >
                                                                            <g gorn="0.3.0.0.0.0.0.0.0.0.0.68.0.0.0.0.0.0.0.0"  id="g1209"/>
                                                                        </g>
                                                                    </g>
                                                                </g>
                                                            </g>
                                                        </g>
                                                    </g>
                                                </g>
                                            </g>
                                        </g>
                                    </g>
                                </g>
                            </g>
                        </g>
                    </g>
                </g>
            </g>
        </g>
    </g>
    <rect width="4.2638454" x="21.673693" y="28.425636" fill="#cccccc" gorn="0.4"  height="1.4960862" style="opacity:1;" fill-opacity="1" id="rect1222" stroke-width="0.749999"/>
</svg>
