<?xml version='1.0' encoding='UTF-8' standalone='no'?>
<svg
  xmlns:dc="http://purl.org/dc/elements/1.1/"
  xmlns:cc="http://creativecommons.org/ns#"
  xmlns:rdf="http://www.w3.org/1999/02/22-rdf-syntax-ns#"
  xmlns:svg="http://www.w3.org/2000/svg"
  xmlns="http://www.w3.org/2000/svg"
  viewBox="0 0 1610 810"
  x="0in"
  width="1.61in"
  height="0.81in"
  version="1.2"
  y="0in"
  id="svg2">
  <metadata
    id="metadata41">
    <rdf:RDF>
      <cc:Work
        rdf:about="">
        <dc:format>image/svg+xml</dc:format>
        <dc:type
          rdf:resource="http://purl.org/dc/dcmitype/StillImage"
        />
        <dc:title/>
      </cc:Work>
    </rdf:RDF>
    <rdf:RDF>
      <cc:Work
        rdf:about="">
        <dc:title/>
      </cc:Work>
    </rdf:RDF>
    <rdf:RDF>
      <cc:Work
        rdf:about="">
        <dc:title/>
      </cc:Work>
    </rdf:RDF>
    <rdf:RDF>
      <cc:Work
        rdf:about="">
        <dc:title/>
      </cc:Work>
    </rdf:RDF>
  </metadata>
  <defs
    id="defs39"
  />
  <desc
    id="desc4">
    <referenceFile>pcf8574-io-expansion-board_1_schematic.svg</referenceFile>
  </desc>
  <g
    id="schematic">
    <rect
      fill="none"
      height="600"
      width="1400"
      stroke-width="10"
      stroke="#000000"
      stroke-linejoin="round"
      stroke-linecap="round"
      id="symbol"
      x="105"
      y="105"
    />
    <text
      x="-125"
      y="416.97949"
      text-anchor="end"
      transform="rotate(-90)"
      font-family="'Droid Sans'"
      font-size="49"
      fill="#555555"
      id="text379">INT</text>
    <text
      x="805"
      y="504.20898"
      font-family="'Droid Sans'"
      font-size="60"
      fill="#000000"
      id="text369"
      text-anchor="middle">board</text>
    <text
      x="805"
      y="404.50586"
      font-family="'Droid Sans'"
      font-size="60"
      fill="#000000"
      id="text367"
      text-anchor="middle">IO Expansion</text>
    <text
      x="805"
      y="304.50586"
      font-family="'Droid Sans'"
      font-size="60"
      fill="#000000"
      id="label"
      text-anchor="middle">PCF8574</text>
    <text
      x="125"
      y="216.98535"
      text-anchor="start"
      font-family="'Droid Sans'"
      font-size="49"
      fill="#555555"
      id="pin0label">VCC</text>
    <text
      x="125"
      y="316.98535"
      text-anchor="start"
      font-family="'Droid Sans'"
      font-size="49"
      fill="#555555"
      id="pin1label">GND</text>
    <text
      x="125"
      y="416.98535"
      text-anchor="start"
      font-family="'Droid Sans'"
      font-size="49"
      fill="#555555"
      id="pin2label">SDA</text>
    <text
      x="125"
      y="516.98535"
      text-anchor="start"
      font-family="'Droid Sans'"
      font-size="49"
      fill="#555555"
      id="pin3label">SCL</text>
    <text
      x="-685"
      y="317.03857"
      text-anchor="start"
      transform="rotate(-90)"
      font-family="'Droid Sans'"
      font-size="49"
      fill="#555555"
      id="pin4label">A2+</text>
    <text
      x="-685"
      y="417.03857"
      text-anchor="start"
      transform="rotate(-90)"
      font-family="'Droid Sans'"
      font-size="49"
      fill="#555555"
      id="pin5label">A2c</text>
    <text
      x="-685"
      y="517.03857"
      text-anchor="start"
      transform="rotate(-90)"
      font-family="'Droid Sans'"
      font-size="49"
      fill="#555555"
      id="pin6label">A2-</text>
    <text
      x="-685"
      y="717.46582"
      text-anchor="start"
      transform="rotate(-90)"
      font-family="'Droid Sans'"
      font-size="49"
      fill="#555555"
      id="pin7label">A1+</text>
    <text
      x="-685"
      y="817.46582"
      text-anchor="start"
      transform="rotate(-90)"
      font-family="'Droid Sans'"
      font-size="49"
      fill="#555555"
      id="pin8label">A1c</text>
    <text
      x="-685"
      y="917.46582"
      text-anchor="start"
      transform="rotate(-90)"
      font-family="'Droid Sans'"
      font-size="49"
      fill="#555555"
      id="pin9label">A1-</text>
    <text
      x="-685"
      y="1117"
      text-anchor="start"
      transform="rotate(-90)"
      font-family="'Droid Sans'"
      font-size="49"
      fill="#555555"
      id="pin10label">A0+</text>
    <text
      x="-685"
      y="1217"
      text-anchor="start"
      transform="rotate(-90)"
      font-family="'Droid Sans'"
      font-size="49"
      fill="#555555"
      id="pin11label">A0c</text>
    <text
      x="-685"
      y="1317"
      text-anchor="start"
      transform="rotate(-90)"
      font-family="'Droid Sans'"
      font-size="49"
      fill="#555555"
      id="pin12label">A0-</text>
    <text
      x="1485"
      y="517"
      text-anchor="end"
      font-family="'Droid Sans'"
      font-size="49"
      fill="#555555"
      id="pin13label">SCL</text>
    <text
      x="1485"
      y="417"
      text-anchor="end"
      font-family="'Droid Sans'"
      font-size="49"
      fill="#555555"
      id="pin14label">SDA</text>
    <text
      x="1485"
      y="317"
      text-anchor="end"
      font-family="'Droid Sans'"
      font-size="49"
      fill="#555555"
      id="pin15label">GND</text>
    <text
      x="1485"
      y="217"
      text-anchor="end"
      font-family="'Droid Sans'"
      font-size="49"
      fill="#555555"
      id="pin16label">VCC</text>
    <text
      x="-125"
      y="516.52979"
      text-anchor="end"
      transform="rotate(-90)"
      font-family="'Droid Sans'"
      font-size="49"
      fill="#555555"
      id="pin17label">O7</text>
    <text
      x="-125"
      y="616.52979"
      text-anchor="end"
      transform="rotate(-90)"
      font-family="'Droid Sans'"
      font-size="49"
      fill="#555555"
      id="pin18label">O6</text>
    <text
      x="-125"
      y="716.52979"
      text-anchor="end"
      transform="rotate(-90)"
      font-family="'Droid Sans'"
      font-size="49"
      fill="#555555"
      id="pin19label">O5</text>
    <text
      x="-125"
      y="816.52979"
      text-anchor="end"
      transform="rotate(-90)"
      font-family="'Droid Sans'"
      font-size="49"
      fill="#555555"
      id="pin20label">O4</text>
    <text
      x="-125"
      y="916.52979"
      text-anchor="end"
      transform="rotate(-90)"
      font-family="'Droid Sans'"
      font-size="49"
      fill="#555555"
      id="pin21label">O3</text>
    <text
      x="-125"
      y="1016.5298"
      text-anchor="end"
      transform="rotate(-90)"
      font-family="'Droid Sans'"
      font-size="49"
      fill="#555555"
      id="pin22label">O2</text>
    <text
      x="-125"
      y="1116.5298"
      text-anchor="end"
      transform="rotate(-90)"
      font-family="'Droid Sans'"
      font-size="49"
      fill="#555555"
      id="pin23label">O1</text>
    <text
      x="-125"
      y="1216.5298"
      text-anchor="end"
      transform="rotate(-90)"
      font-family="'Droid Sans'"
      font-size="49"
      fill="#555555"
      id="pin24label">O0</text>
    <line
      fill="none"
      id="connector0pin"
      stroke="#555555"
      stroke-linecap="round"
      stroke-width="10"
      x1="105"
      x2="5"
      y1="204.98535"
      y2="204.98535"
    />
    <rect
      fill="none"
      id="connector0terminal"
      height="10"
      width="10"
      x="0"
      y="199.98535"
      stroke="none"
      stroke-width="0"
    />
    <line
      fill="none"
      id="connector1pin"
      stroke="#555555"
      stroke-linecap="round"
      stroke-width="10"
      x1="105"
      x2="5"
      y1="304.98535"
      y2="304.98535"
    />
    <rect
      fill="none"
      id="connector1terminal"
      height="10"
      width="10"
      x="0"
      y="299.98535"
      stroke="none"
      stroke-width="0"
    />
    <line
      fill="none"
      id="connector2pin"
      stroke="#555555"
      stroke-linecap="round"
      stroke-width="10"
      x1="105"
      x2="5"
      y1="404.98535"
      y2="404.98535"
    />
    <rect
      fill="none"
      id="connector2terminal"
      height="10"
      width="10"
      x="0"
      y="399.98535"
      stroke="none"
      stroke-width="0"
    />
    <line
      fill="none"
      id="connector3pin"
      stroke="#555555"
      stroke-linecap="round"
      stroke-width="10"
      x1="105"
      x2="5"
      y1="504.98535"
      y2="504.98535"
    />
    <rect
      fill="none"
      id="connector3terminal"
      height="10"
      width="10"
      x="0"
      y="499.98535"
      stroke="none"
      stroke-width="0"
    />
    <line
      fill="none"
      id="connector4pin"
      stroke="#555555"
      stroke-linecap="round"
      stroke-width="10"
      x1="305.03857"
      x2="305.03857"
      y1="705"
      y2="805"
    />
    <rect
      fill="none"
      id="connector4terminal"
      height="10"
      width="10"
      x="300.03857"
      y="800"
      stroke="none"
      stroke-width="0"
    />
    <line
      fill="none"
      id="connector5pin"
      stroke="#555555"
      stroke-linecap="round"
      stroke-width="10"
      x1="405.03857"
      x2="405.03857"
      y1="705"
      y2="805"
    />
    <rect
      fill="none"
      id="connector5terminal"
      height="10"
      width="10"
      x="400.03857"
      y="800"
      stroke="none"
      stroke-width="0"
    />
    <line
      fill="none"
      id="connector6pin"
      stroke="#555555"
      stroke-linecap="round"
      stroke-width="10"
      x1="505.03857"
      x2="505.03857"
      y1="705"
      y2="805"
    />
    <rect
      fill="none"
      id="connector6terminal"
      height="10"
      width="10"
      x="500.03857"
      y="800"
      stroke="none"
      stroke-width="0"
    />
    <line
      fill="none"
      id="connector7pin"
      stroke="#555555"
      stroke-linecap="round"
      stroke-width="10"
      x1="705.46582"
      x2="705.46582"
      y1="705"
      y2="805"
    />
    <rect
      fill="none"
      id="connector7terminal"
      height="10"
      width="10"
      x="700.46582"
      y="800"
      stroke="none"
      stroke-width="0"
    />
    <line
      fill="none"
      id="connector8pin"
      stroke="#555555"
      stroke-linecap="round"
      stroke-width="10"
      x1="805.46582"
      x2="805.46582"
      y1="705"
      y2="805"
    />
    <rect
      fill="none"
      id="connector8terminal"
      height="10"
      width="10"
      x="800.46582"
      y="800"
      stroke="none"
      stroke-width="0"
    />
    <line
      fill="none"
      id="connector9pin"
      stroke="#555555"
      stroke-linecap="round"
      stroke-width="10"
      x1="905.46582"
      x2="905.46582"
      y1="705"
      y2="805"
    />
    <rect
      fill="none"
      id="connector9terminal"
      height="10"
      width="10"
      x="900.46582"
      y="800"
      stroke="none"
      stroke-width="0"
    />
    <line
      fill="none"
      id="connector10pin"
      stroke="#555555"
      stroke-linecap="round"
      stroke-width="10"
      x1="1105"
      x2="1105"
      y1="705"
      y2="805"
    />
    <rect
      fill="none"
      id="connector10terminal"
      height="10"
      width="10"
      x="1100"
      y="800"
      stroke="none"
      stroke-width="0"
    />
    <line
      fill="none"
      id="connector11pin"
      stroke="#555555"
      stroke-linecap="round"
      stroke-width="10"
      x1="1205"
      x2="1205"
      y1="705"
      y2="805"
    />
    <rect
      fill="none"
      id="connector11terminal"
      height="10"
      width="10"
      x="1200"
      y="800"
      stroke="none"
      stroke-width="0"
    />
    <line
      fill="none"
      id="connector12pin"
      stroke="#555555"
      stroke-linecap="round"
      stroke-width="10"
      x1="1305"
      x2="1305"
      y1="705"
      y2="805"
    />
    <rect
      fill="none"
      id="connector12terminal"
      height="10"
      width="10"
      x="1300"
      y="800"
      stroke="none"
      stroke-width="0"
    />
    <line
      fill="none"
      id="connector13pin"
      stroke="#555555"
      stroke-linecap="round"
      stroke-width="10"
      x1="1505"
      x2="1605"
      y1="505"
      y2="505"
    />
    <rect
      fill="none"
      id="connector13terminal"
      height="10"
      width="10"
      x="1600"
      y="500"
      stroke="none"
      stroke-width="0"
    />
    <line
      fill="none"
      id="connector14pin"
      stroke="#555555"
      stroke-linecap="round"
      stroke-width="10"
      x1="1505"
      x2="1605"
      y1="405"
      y2="405"
    />
    <rect
      fill="none"
      id="connector14terminal"
      height="10"
      width="10"
      x="1600"
      y="400"
      stroke="none"
      stroke-width="0"
    />
    <line
      fill="none"
      id="connector15pin"
      stroke="#555555"
      stroke-linecap="round"
      stroke-width="10"
      x1="1505"
      x2="1605"
      y1="305"
      y2="305"
    />
    <rect
      fill="none"
      id="connector15terminal"
      height="10"
      width="10"
      x="1600"
      y="300"
      stroke="none"
      stroke-width="0"
    />
    <line
      fill="none"
      id="connector16pin"
      stroke="#555555"
      stroke-linecap="round"
      stroke-width="10"
      x1="1505"
      x2="1605"
      y1="205"
      y2="205"
    />
    <rect
      fill="none"
      id="connector16terminal"
      height="10"
      width="10"
      x="1600"
      y="200"
      stroke="none"
      stroke-width="0"
    />
    <line
      fill="none"
      id="connector17pin"
      stroke="#555555"
      stroke-linecap="round"
      stroke-width="10"
      x1="1204.9141"
      x2="1204.9141"
      y1="105"
      y2="5"
    />
    <rect
      fill="none"
      id="connector17terminal"
      height="10"
      width="10"
      x="1199.9141"
      y="0"
      stroke="none"
      stroke-width="0"
    />
    <line
      fill="none"
      id="connector18pin"
      stroke="#555555"
      stroke-linecap="round"
      stroke-width="10"
      x1="1104.9141"
      x2="1104.9141"
      y1="105"
      y2="5"
    />
    <rect
      fill="none"
      id="connector18terminal"
      height="10"
      width="10"
      x="1099.9141"
      y="0"
      stroke="none"
      stroke-width="0"
    />
    <line
      fill="none"
      id="connector19pin"
      stroke="#555555"
      stroke-linecap="round"
      stroke-width="10"
      x1="1004.9141"
      x2="1004.9141"
      y1="105"
      y2="5"
    />
    <rect
      fill="none"
      id="connector19terminal"
      height="10"
      width="10"
      x="999.91406"
      y="0"
      stroke="none"
      stroke-width="0"
    />
    <line
      fill="none"
      id="connector20pin"
      stroke="#555555"
      stroke-linecap="round"
      stroke-width="10"
      x1="904.91406"
      x2="904.91406"
      y1="105"
      y2="5"
    />
    <rect
      fill="none"
      id="connector20terminal"
      height="10"
      width="10"
      x="899.91406"
      y="0"
      stroke="none"
      stroke-width="0"
    />
    <line
      fill="none"
      id="connector21pin"
      stroke="#555555"
      stroke-linecap="round"
      stroke-width="10"
      x1="804.91406"
      x2="804.91406"
      y1="105"
      y2="5"
    />
    <rect
      fill="none"
      id="connector21terminal"
      height="10"
      width="10"
      x="799.91406"
      y="0"
      stroke="none"
      stroke-width="0"
    />
    <line
      fill="none"
      id="connector22pin"
      stroke="#555555"
      stroke-linecap="round"
      stroke-width="10"
      x1="704.91406"
      x2="704.91406"
      y1="105"
      y2="5"
    />
    <rect
      fill="none"
      id="connector22terminal"
      height="10"
      width="10"
      x="699.91406"
      y="0"
      stroke="none"
      stroke-width="0"
    />
    <line
      fill="none"
      id="connector23pin"
      stroke="#555555"
      stroke-linecap="round"
      stroke-width="10"
      x1="604.91406"
      x2="604.91406"
      y1="105"
      y2="5"
    />
    <rect
      fill="none"
      id="connector23terminal"
      height="10"
      width="10"
      x="599.91406"
      y="0"
      stroke="none"
      stroke-width="0"
    />
    <line
      fill="none"
      id="connector24pin"
      stroke="#555555"
      stroke-linecap="round"
      stroke-width="10"
      x1="504.91406"
      x2="504.91406"
      y1="105"
      y2="5"
    />
    <rect
      fill="none"
      id="connector24terminal"
      height="10"
      width="10"
      x="499.91406"
      y="0"
      stroke="none"
      stroke-width="0"
    />
    <line
      fill="none"
      id="connector25pin"
      stroke="#555555"
      stroke-linecap="round"
      stroke-width="10"
      x1="404.91406"
      x2="404.91406"
      y1="105"
      y2="5"
    />
    <rect
      fill="none"
      id="connector25terminal"
      height="10"
      width="10"
      x="399.91406"
      y="0"
      stroke="none"
      stroke-width="0"
    />
  </g>
</svg>
