<?xml version='1.0' encoding='UTF-8' standalone='no'?>
<svg
  xmlns:dc="http://purl.org/dc/elements/1.1/"
  xmlns:cc="http://creativecommons.org/ns#"
  xmlns:rdf="http://www.w3.org/1999/02/22-rdf-syntax-ns#"
  xmlns:svg="http://www.w3.org/2000/svg"
  xmlns="http://www.w3.org/2000/svg"
  x="0in"
  viewBox="0 0 1234.404 748.03924"
  id="svg94"
  width="1.234404in"
  height="0.74803925in"
  version="1.2"
  y="0in">
  <desc
    id="desc2">
    <referenceFile>ESP32S2-WROVER_1_pcb.svg</referenceFile>
  </desc>
  <metadata
    id="metadata100">
    <rdf:RDF>
      <cc:Work
        rdf:about="">
        <dc:format>image/svg+xml</dc:format>
        <dc:type
          rdf:resource="http://purl.org/dc/dcmitype/StillImage"
        />
        <dc:title/>
      </cc:Work>
    </rdf:RDF>
  </metadata>
  <defs
    id="defs98"
  />
  <g
    id="silkscreen">
    <line
      y1="705.38544"
      y2="17.507612"
      x2="980.15796"
      x1="1211.6133"
      id="line118"
      fill="none"
      stroke="#000000"
      stroke-width="9.99999809"
      stroke-linecap="round"
      stroke-linejoin="round"
    />
    <line
      y1="705.45105"
      y2="26.167723"
      x2="1214.2111"
      x1="984.90503"
      id="line116"
      fill="none"
      stroke="#000000"
      stroke-width="9.99999809"
      stroke-linecap="round"
      stroke-linejoin="round"
    />
    <line
      id="line59"
      x1="980.15796"
      x2="980.15796"
      y2="17.507612"
      y1="703.71606"
      fill="none"
      stroke="#000000"
      stroke-width="9.99999809"
      stroke-linecap="round"
      stroke-linejoin="round"
    />
    <path
      d="m 1228.9038,56.19605 c 0,-39.16529 -51.9218,-35.90151 -82.1092,-35.2092 C 782.13379,21.28356 417.47261,20.29454 53.777503,21.48136 13.326664,22.76709 20.45083,61.53678 20.45083,86.16344 c 0,200.87039 -2.294223,403.6199 0,604.39137 4.829939,34.61577 52.404948,25.71457 83.3166,27.69262 362.00467,-1.97805 723.04338,0 1085.28937,-1.97805 39.847,0 39.847,-40.54989 39.847,-64.28643 0,-198.79342 0,-397.58685 0,-595.7869 z"
      id="path3529"
      fill="none"
      stroke="#000000"
      stroke-width="10.99900627"
    />
    <circle
      id="circle102"
      cx="656.88953"
      cy="267.20166"
      r="4"
      fill="none"
      stroke="#000000"
      stroke-width="15"
    />
    <circle
      r="4"
      cy="327.20853"
      cx="656.6181"
      id="circle104"
      fill="none"
      stroke="#000000"
      stroke-width="15"
    />
    <circle
      id="circle106"
      cx="656.88953"
      cy="384.72595"
      r="4"
      fill="none"
      stroke="#000000"
      stroke-width="15"
    />
    <circle
      id="circle108"
      cx="627.96741"
      cy="357.75354"
      r="4"
      fill="none"
      stroke="#000000"
      stroke-width="15"
    />
    <circle
      cy="298.96078"
      cx="627.46198"
      id="circle110"
      r="4"
      fill="none"
      stroke="#000000"
      stroke-width="15"
    />
    <circle
      r="4"
      cy="357.12177"
      cx="686.71112"
      id="circle112"
      fill="none"
      stroke="#000000"
      stroke-width="15"
    />
    <circle
      r="4"
      id="circle114"
      cx="687.79938"
      cy="298.96078"
      fill="none"
      stroke="#000000"
      stroke-width="15"
    />
    <circle
      r="4"
      id="ellipse94"
      cx="569.29712"
      cy="297.87256"
      fill="none"
      stroke="#000000"
      stroke-width="15"
    />
    <circle
      r="4"
      cy="384.37387"
      cx="597.68109"
      id="circle100"
      fill="none"
      stroke="#000000"
      stroke-width="15"
    />
    <ellipse
      ry="4"
      rx="3.9960628"
      id="circle98"
      cx="597.55908"
      cy="327.20853"
      fill="none"
      stroke="#000000"
      stroke-width="15"
    />
    <circle
      r="4"
      cy="268.28986"
      cx="597.31573"
      id="ellipse96"
      fill="none"
      stroke="#000000"
      stroke-width="15"
    />
    <circle
      r="4"
      cy="357.12177"
      cx="569.29712"
      id="path92"
      fill="none"
      stroke="#000000"
      stroke-width="15"
    />
  </g>
  <g
    id="copper1">
    <path
      id="path63"
      d="m 546.81101,305.832 h 43.30709 v 43.30709 h -43.30709 z"
      fill="#febf10"
      stroke="none"
      stroke-width="0"
    />
    <path
      d="m 664.92124,364.88964 h 43.30708 v 43.30708 h -43.30708 z"
      id="path80"
      fill="#febf10"
      stroke="none"
      stroke-width="0"
    />
    <path
      id="path82"
      d="m 664.92124,246.7794 h 43.30708 v 43.30708 h -43.30708 z"
      fill="#febf10"
      stroke="none"
      stroke-width="0"
    />
    <path
      id="path84"
      d="m 605.86613,364.88964 h 43.30708 v 43.30708 h -43.30708 z"
      fill="#febf10"
      stroke="none"
      stroke-width="0"
    />
    <path
      id="path86"
      d="m 605.86613,246.7794 h 43.30708 v 43.30708 h -43.30708 z"
      fill="#febf10"
      stroke="none"
      stroke-width="0"
    />
    <path
      d="m 546.81101,364.88964 h 43.30708 v 43.30708 h -43.30708 z"
      id="path88"
      fill="#febf10"
      stroke="none"
      stroke-width="0"
    />
    <path
      id="path61"
      d="m 664.92124,305.83201 h 43.30708 v 43.30708 h -43.30708 z"
      fill="#febf10"
      stroke="none"
      stroke-width="0"
    />
    <path
      d="m 605.87277,305.83201 h 43.30708 v 43.30708 h -43.30708 z"
      id="rect589_1_"
      fill="#febf10"
      stroke="none"
      stroke-width="0"
    />
    <path
      d="m 927.16538,0.00628 h 35.43307 V 59.0614 h -35.43307 z"
      id="connector0pad"
      fill="#febf10"
      stroke="none"
      stroke-width="0"
    />
    <path
      d="m 868.11026,0.00628 h 35.43307 V 59.0614 h -35.43307 z"
      id="connector1pad"
      fill="#febf10"
      stroke="none"
      stroke-width="0"
    />
    <path
      d="m 809.05514,0.00628 h 35.43307 V 59.0614 h -35.43307 z"
      id="connector2pad"
      fill="#febf10"
      stroke="none"
      stroke-width="0"
    />
    <path
      d="m 750.00002,0.00628 h 35.43307 V 59.0614 h -35.43307 z"
      id="connector3pad"
      fill="#febf10"
      stroke="none"
      stroke-width="0"
    />
    <path
      d="m 690.9449,0.00628 h 35.43307 V 59.0614 H 690.9449 Z"
      id="connector4pad"
      fill="#febf10"
      stroke="none"
      stroke-width="0"
    />
    <path
      d="m 631.88978,0.00628 h 35.43307 V 59.0614 h -35.43307 z"
      id="connector5pad"
      fill="#febf10"
      stroke="none"
      stroke-width="0"
    />
    <path
      d="m 572.83466,0.00628 h 35.43307 V 59.0614 h -35.43307 z"
      id="connector6pad"
      fill="#febf10"
      stroke="none"
      stroke-width="0"
    />
    <path
      d="m 513.77954,0.00628 h 35.43307 V 59.0614 h -35.43307 z"
      id="connector7pad"
      fill="#febf10"
      stroke="none"
      stroke-width="0"
    />
    <path
      d="m 454.72442,0.00628 h 35.43307 V 59.0614 h -35.43307 z"
      id="connector8pad"
      fill="#febf10"
      stroke="none"
      stroke-width="0"
    />
    <path
      d="m 395.6693,0.00628 h 35.43307 V 59.0614 H 395.6693 Z"
      id="connector9pad"
      fill="#febf10"
      stroke="none"
      stroke-width="0"
    />
    <path
      d="m 336.61418,0.00628 h 35.43307 V 59.0614 h -35.43307 z"
      id="connector10pad"
      fill="#febf10"
      stroke="none"
      stroke-width="0"
    />
    <path
      d="m 277.55906,0.00628 h 35.43307 V 59.0614 h -35.43307 z"
      id="connector11pad"
      fill="#febf10"
      stroke="none"
      stroke-width="0"
    />
    <path
      d="m 218.50394,0.00628 h 35.43307 V 59.0614 h -35.43307 z"
      id="connector12pad"
      fill="#febf10"
      stroke="none"
      stroke-width="0"
    />
    <path
      d="m 159.44882,0.00628 h 35.43305 V 59.0614 h -35.43305 z"
      id="connector13pad"
      fill="#febf10"
      stroke="none"
      stroke-width="0"
    />
    <path
      d="M 135.82678,0 V 59.05512 H 100.3937 V 0 Z"
      id="connector14pad"
      fill="#febf10"
      stroke="none"
      stroke-width="0"
    />
    <path
      d="M 76.771652,0.00627 V 59.0614 H 41.33858 V 0.00627 Z"
      id="connector15pad"
      fill="#febf10"
      stroke="none"
      stroke-width="0"
    />
    <rect
      y="90.67704"
      x="0"
      height="35.433071"
      width="59.055122"
      id="connector16pad"
      fill="#febf10"
      stroke="none"
      stroke-width="0"
    />
    <path
      d="m 59.05512,149.73216 v 35.43307 H 0 v -35.43307 z"
      id="connector17pad"
      fill="#febf10"
      stroke="none"
      stroke-width="0"
    />
    <path
      d="m 0,244.22034 v -35.43307 h 59.05512 v 35.43307 z"
      id="connector18pad"
      fill="#febf10"
      stroke="none"
      stroke-width="0"
    />
    <path
      d="m 0,303.27546 v -35.43307 h 59.055118 v 35.43307 z"
      id="connector19pad"
      fill="#febf10"
      stroke="none"
      stroke-width="0"
    />
    <path
      d="m 0,362.33058 v -35.43307 h 59.055122 v 35.43307 z"
      id="connector20pad"
      fill="#febf10"
      stroke="none"
      stroke-width="0"
    />
    <path
      d="m 0,421.38569 v -35.43307 h 59.05511 v 35.43307 z"
      id="connector21pad"
      fill="#febf10"
      stroke="none"
      stroke-width="0"
    />
    <path
      d="m 0,480.44081 v -35.43307 h 59.055115 v 35.43307 z"
      id="connector22pad"
      fill="#febf10"
      stroke="none"
      stroke-width="0"
    />
    <path
      d="m 0,539.49593 v -35.43307 h 59.05512 v 35.43307 z"
      id="connector23pad"
      fill="#febf10"
      stroke="none"
      stroke-width="0"
    />
    <path
      d="m 0,563.11797 h 59.05511 v 35.43307 H 0 Z"
      id="connector24pad"
      fill="#febf10"
      stroke="none"
      stroke-width="0"
    />
    <path
      d="m 0,622.17309 h 59.05512 v 35.43307 H 0 Z"
      id="connector25pad"
      fill="#febf10"
      stroke="none"
      stroke-width="0"
    />
    <path
      d="m 41.338581,688.98412 h 35.43307 v 59.05512 h -35.43307 z"
      id="connector26pad"
      fill="#febf10"
      stroke="none"
      stroke-width="0"
    />
    <path
      d="m 100.3937,688.98411 h 35.43307 v 59.05512 H 100.3937 Z"
      id="connector27pad"
      fill="#febf10"
      stroke="none"
      stroke-width="0"
    />
    <path
      d="m 159.44882,688.98411 h 35.43307 v 59.05512 h -35.43307 z"
      id="connector28pad"
      fill="#febf10"
      stroke="none"
      stroke-width="0"
    />
    <path
      d="M 218.50393,688.98411 H 253.937 v 59.05512 h -35.43307 z"
      id="connector29pad"
      fill="#febf10"
      stroke="none"
      stroke-width="0"
    />
    <path
      d="m 277.55905,688.98411 h 35.43307 v 59.05512 h -35.43307 z"
      id="connector30pad"
      fill="#febf10"
      stroke="none"
      stroke-width="0"
    />
    <path
      d="m 336.61417,688.98411 h 35.43307 v 59.05512 h -35.43307 z"
      id="connector31pad"
      fill="#febf10"
      stroke="none"
      stroke-width="0"
    />
    <path
      d="m 395.66928,688.98411 h 35.43307 v 59.05512 h -35.43307 z"
      id="connector32pad"
      fill="#febf10"
      stroke="none"
      stroke-width="0"
    />
    <path
      d="m 454.7244,688.98411 h 35.43307 v 59.05512 H 454.7244 Z"
      id="connector33pad"
      fill="#febf10"
      stroke="none"
      stroke-width="0"
    />
    <path
      d="m 513.77952,688.98411 h 35.43307 v 59.05512 h -35.43307 z"
      id="connector34pad"
      fill="#febf10"
      stroke="none"
      stroke-width="0"
    />
    <path
      d="m 572.83463,688.98411 h 35.43307 v 59.05512 h -35.43307 z"
      id="connector35pad"
      fill="#febf10"
      stroke="none"
      stroke-width="0"
    />
    <path
      d="m 631.88975,688.98411 h 35.43303 v 59.05512 h -35.43303 z"
      id="connector36pad"
      fill="#febf10"
      stroke="none"
      stroke-width="0"
    />
    <path
      d="m 690.94487,688.98411 h 35.433 v 59.05512 h -35.433 z"
      id="connector37pad"
      fill="#febf10"
      stroke="none"
      stroke-width="0"
    />
    <path
      id="connector38pad"
      d="m 749.99998,688.98411 h 35.433 v 59.05512 h -35.433 z"
      fill="#febf10"
      stroke="none"
      stroke-width="0"
    />
    <path
      d="m 809.0551,688.98411 h 35.433 v 59.05512 h -35.433 z"
      id="connector39pad"
      fill="#febf10"
      stroke="none"
      stroke-width="0"
    />
    <path
      id="connector40pad"
      d="m 868.11022,688.98411 h 35.433 v 59.05512 h -35.433 z"
      fill="#febf10"
      stroke="none"
      stroke-width="0"
    />
    <path
      d="m 927.16533,688.98411 h 35.433 v 59.05512 h -35.433 z"
      id="connector41pad"
      fill="#febf10"
      stroke="none"
      stroke-width="0"
    />
    <path
      d="m 546.81101,246.7794 h 43.30708 v 43.30708 h -43.30708 z"
      id="connector42pad"
      fill="#febf10"
      stroke="none"
      stroke-width="0"
    />
  </g>
</svg>
