<?xml version='1.0' encoding='UTF-8' standalone='no'?>
<!-- Created with Fritzing (https://fritzing.org/) -->
  <svg
  xmlns="http://www.w3.org/2000/svg"
  xmlns:svg="http://www.w3.org/2000/svg"
  x="0in"
  gorn="0"
  height="0.90000004in"
  width="1.7in"
  viewBox="0 0 1700.0001 900.00004"
  id="svg6069"
  y="0in"
  version="1.2">
  <desc
    id="desc2">
    <referenceFile>HmIP-MOD-OC8_9174525ffffa7433faeff00146cf4557_20_breadboard.svg</referenceFile>
  </desc>
  <defs
    id="defs6073">
                        </defs>
  <g
    id="breadboard">
    <path
      d="M 0,0 H 1700.0001 V 900.00005 H 0 Z m 82.500003,100 c 0,23.33333 34.999997,23.33333 34.999997,0 0,-23.333321 -34.999997,-23.333321 -34.999997,0 z m 100.000007,0 c 0,23.33333 35,23.33333 35,0 0,-23.333321 -35,-23.333321 -35,0 z m 100,0 c 0,23.33333 35,23.33333 35,0 0,-23.333323 -35,-23.333323 -35,0 z m 100.00001,0 c 0,23.33333 35,23.33333 35,0 0,-23.333321 -35,-23.333321 -35,0 z m 100,0 c 0,23.33333 35,23.33333 35,0 0,-23.333321 -35,-23.333321 -35,0 z m 100,0 c 0,23.33333 35.00001,23.33333 35.00001,0 0,-23.333321 -35.00001,-23.333321 -35.00001,0 z m 100.00001,0 c 0,23.33333 35,23.33333 35,0 0,-23.333321 -35,-23.333321 -35,0 z m 100,0 c 0,23.33333 35,23.33333 35,0 0,-23.333321 -35,-23.333321 -35,0 z m 100.00001,0 c 0,23.33333 35,23.33333 35,0 0,-23.333321 -35,-23.333321 -35,0 z m 100,0 c 0,23.33333 34.99996,23.33333 34.99996,0 0,-23.333321 -34.99996,-23.333321 -34.99996,0 z m 99.99996,0 c 0,23.33333 35,23.33333 35,0 0,-23.333324 -35,-23.333324 -35,0 z m 100,0 c 0,23.33333 35.0001,23.33333 35.0001,0 0,-23.333321 -35.0001,-23.333321 -35.0001,0 z m 100.0001,0 c 0,23.33333 35,23.33333 35,0 0,-23.333324 -35,-23.333324 -35,0 z m 100,0 c 0,23.33333 35,23.33333 35,0 0,-23.333321 -35,-23.333321 -35,0 z m 100,0 c 0,23.33333 35,23.33333 35,0 0,-23.333324 -35,-23.333324 -35,0 z m 100,0 c 0,23.33333 35,23.33333 35,0 0,-23.333321 -35,-23.333321 -35,0 z M 82.500003,800.00004 c 0,23.33332 34.999997,23.33332 34.999997,0 0,-23.33332 -34.999997,-23.33332 -34.999997,0 z m 100.000007,0 c 0,23.33332 35,23.33332 35,0 0,-23.33332 -35,-23.33332 -35,0 z m 100,0 c 0,23.33332 35,23.33332 35,0 0,-23.33332 -35,-23.33332 -35,0 z m 100.00001,0 c 0,23.33332 35,23.33332 35,0 0,-23.33332 -35,-23.33332 -35,0 z m 100,0 c 0,23.33332 35,23.33332 35,0 0,-23.33332 -35,-23.33332 -35,0 z m 100,0 c 0,23.33332 35.00001,23.33332 35.00001,0 0,-23.33332 -35.00001,-23.33332 -35.00001,0 z m 100.00001,0 c 0,23.33332 35,23.33332 35,0 0,-23.33332 -35,-23.33332 -35,0 z m 100,0 c 0,23.33332 35,23.33332 35,0 0,-23.33332 -35,-23.33332 -35,0 z m 100.00001,0 c 0,23.33332 35,23.33332 35,0 0,-23.33333 -35,-23.33333 -35,0 z m 100,0 c 0,23.33332 34.99996,23.33332 34.99996,0 0,-23.33332 -34.99996,-23.33332 -34.99996,0 z m 99.99996,0 c 0,23.33332 35,23.33332 35,0 0,-23.33332 -35,-23.33332 -35,0 z m 100,0 c 0,23.33332 35.0001,23.33332 35.0001,0 0,-23.33332 -35.0001,-23.33332 -35.0001,0 z m 100.0001,0 c 0,23.33332 35,23.33332 35,0 0,-23.33332 -35,-23.33332 -35,0 z m 100,0 c 0,23.33332 35,23.33332 35,0 0,-23.33332 -35,-23.33332 -35,0 z m 100,0 c 0,23.33332 35,23.33332 35,0 0,-23.33332 -35,-23.33332 -35,0 z m 100,0 c 0,23.33332 35,23.33332 35,0 0,-23.33332 -35,-23.33332 -35,0 z"
      gorn="0.2.0.0.0.0"
      fill="#35a079"
      stroke="none"
      stroke-width="0"
      id="boardoutline"
      fill-opacity="1"
      display="inline"
    />
    <path
      d="M 4.0136103,4.0136104 H 1695.9741 V 895.97406 H 4.0136103 Z"
      gorn="0.2.0.0.0.1"
      stroke-opacity="1"
      fill="none"
      stroke="#000000"
      stroke-width="8.02721"
      id="PCBBoarder"
      display="inline"
    />
    <text
      x="1554.2832"
      gorn="0.2.0.0.0.2.0.0.0.0.0.0.0.0"
      stroke-width="10.3793"
      font-size="44.4444"
      id="tspan824-7-8-06"
      y="755.73242"
      font-style="normal"
      font-variant="normal"
      font-weight="normal"
      font-stretch="normal"
      font-family="OCRA"
      transform="scale(1.0035974,0.9964155)"
      line-height="1.25"
      fill="#000000"
      fill-opacity="1"
      stroke="none">32</text>
    <text
      x="1451.6722"
      gorn="0.2.0.0.0.2.0.0.0.1.0.0.0.0"
      stroke-width="10.3793"
      font-size="44.4444"
      id="tspan824-7-8-06-6"
      y="755.73242"
      font-style="normal"
      font-variant="normal"
      font-weight="normal"
      font-stretch="normal"
      font-family="OCRA"
      transform="scale(1.0035974,0.9964155)"
      line-height="1.25"
      fill="#000000"
      fill-opacity="1"
      stroke="none">31</text>
    <text
      x="1354.2789"
      gorn="0.2.0.0.0.2.0.0.0.2.0.0.0.0"
      stroke-width="10.3793"
      font-size="44.4444"
      id="tspan824-7-8-06-6-5"
      y="755.73242"
      font-style="normal"
      font-variant="normal"
      font-weight="normal"
      font-stretch="normal"
      font-family="OCRA"
      transform="scale(1.0035974,0.9964155)"
      line-height="1.25"
      fill="#000000"
      fill-opacity="1"
      stroke="none">30</text>
    <text
      x="1255.6526"
      gorn="0.2.0.0.0.2.0.0.0.3.0.0.0.0"
      stroke-width="10.3793"
      font-size="44.4444"
      id="tspan824-7-8-06-6-5-8"
      y="755.73242"
      font-style="normal"
      font-variant="normal"
      font-weight="normal"
      font-stretch="normal"
      font-family="OCRA"
      transform="scale(1.0035974,0.9964155)"
      line-height="1.25"
      fill="#000000"
      fill-opacity="1"
      stroke="none">29</text>
    <text
      x="1152.095"
      gorn="0.2.0.0.0.2.0.0.0.4.0.0.0.0"
      stroke-width="10.3793"
      font-size="44.4444"
      id="tspan824-7-8-06-6-5-8-6"
      y="755.73242"
      font-style="normal"
      font-variant="normal"
      font-weight="normal"
      font-stretch="normal"
      font-family="OCRA"
      transform="scale(1.0035974,0.9964155)"
      line-height="1.25"
      fill="#000000"
      fill-opacity="1"
      stroke="none">28</text>
    <text
      x="1053.4686"
      gorn="0.2.0.0.0.2.0.0.0.5.0.0.0.0"
      stroke-width="10.3793"
      font-size="44.4444"
      id="tspan824-7-8-06-6-5-8-6-4"
      y="755.73242"
      font-style="normal"
      font-variant="normal"
      font-weight="normal"
      font-stretch="normal"
      font-family="OCRA"
      transform="scale(1.0035974,0.9964155)"
      line-height="1.25"
      fill="#000000"
      fill-opacity="1"
      stroke="none">27</text>
    <text
      x="957.30804"
      gorn="0.2.0.0.0.2.0.0.0.6.0.0.0.0"
      stroke-width="10.3793"
      font-size="44.4444"
      id="tspan824-7-8-06-6-5-8-6-4-0"
      y="755.73242"
      font-style="normal"
      font-variant="normal"
      font-weight="normal"
      font-stretch="normal"
      font-family="OCRA"
      transform="scale(1.0035974,0.9964155)"
      line-height="1.25"
      fill="#000000"
      fill-opacity="1"
      stroke="none">26</text>
    <text
      x="854.98334"
      gorn="0.2.0.0.0.2.0.0.0.7.0.0.0.0"
      stroke-width="10.3793"
      font-size="44.4444"
      id="tspan824-7-8-06-6-5-8-6-4-0-0"
      y="755.73242"
      font-style="normal"
      font-variant="normal"
      font-weight="normal"
      font-stretch="normal"
      font-family="OCRA"
      transform="scale(1.0035974,0.9964155)"
      line-height="1.25"
      fill="#000000"
      fill-opacity="1"
      stroke="none">25</text>
    <text
      x="761.28827"
      gorn="0.2.0.0.0.2.0.0.0.8.0.0.0.0"
      stroke-width="10.3793"
      font-size="44.4444"
      id="tspan824-7-8-06-6-5-8-6-4-0-3"
      y="755.73242"
      font-style="normal"
      font-variant="normal"
      font-weight="normal"
      font-stretch="normal"
      font-family="OCRA"
      transform="scale(1.0035974,0.9964155)"
      line-height="1.25"
      fill="#000000"
      fill-opacity="1"
      stroke="none">24</text>
    <text
      x="655.26501"
      gorn="0.2.0.0.0.2.0.0.0.9.0.0.0.0"
      stroke-width="10.3793"
      font-size="44.4444"
      id="tspan824-7-8-06-6-5-8-6-4-0-09"
      y="755.73242"
      font-style="normal"
      font-variant="normal"
      font-weight="normal"
      font-stretch="normal"
      font-family="OCRA"
      transform="scale(1.0035974,0.9964155)"
      line-height="1.25"
      fill="#000000"
      fill-opacity="1"
      stroke="none">23</text>
    <text
      x="552.94031"
      gorn="0.2.0.0.0.2.0.0.0.10.0.0.0.0"
      stroke-width="10.3793"
      font-size="44.4444"
      id="tspan824-7-8-06-6-5-8-6-4-0-09-0-5"
      y="755.73242"
      font-style="normal"
      font-variant="normal"
      font-weight="normal"
      font-stretch="normal"
      font-family="OCRA"
      transform="scale(1.0035974,0.9964155)"
      line-height="1.25"
      fill="#000000"
      fill-opacity="1"
      stroke="none">22</text>
    <text
      x="460.47812"
      gorn="0.2.0.0.0.2.0.0.0.11.0.0.0.0"
      stroke-width="10.3793"
      font-size="44.4444"
      id="tspan824-7-8-06-6-5-8-6-4-0-09-0"
      y="755.73242"
      font-style="normal"
      font-variant="normal"
      font-weight="normal"
      font-stretch="normal"
      font-family="OCRA"
      transform="scale(1.0035974,0.9964155)"
      line-height="1.25"
      fill="#000000"
      fill-opacity="1"
      stroke="none">21</text>
    <text
      x="355.68765"
      gorn="0.2.0.0.0.2.0.0.0.12.0.0.0.0"
      stroke-width="10.3793"
      font-size="44.4444"
      id="tspan824-7-8-06-6-5-8-6-4-0-09-0-1"
      y="755.73242"
      font-style="normal"
      font-variant="normal"
      font-weight="normal"
      font-stretch="normal"
      font-family="OCRA"
      transform="scale(1.0035974,0.9964155)"
      line-height="1.25"
      fill="#000000"
      fill-opacity="1"
      stroke="none">20</text>
    <text
      x="253.3629"
      gorn="0.2.0.0.0.2.0.0.0.13.0.0.0.0"
      stroke-width="10.3793"
      font-size="44.4444"
      id="tspan824-7-8-06-6-5-8-6-4-0-09-0-1-8"
      y="755.73242"
      font-style="normal"
      font-variant="normal"
      font-weight="normal"
      font-stretch="normal"
      font-family="OCRA"
      transform="scale(1.0035974,0.9964155)"
      line-height="1.25"
      fill="#000000"
      fill-opacity="1"
      stroke="none">19</text>
    <text
      x="155.96942"
      gorn="0.2.0.0.0.2.0.0.0.14.0.0.0.0"
      stroke-width="10.3793"
      font-size="44.4444"
      id="tspan824-7-8-06-6-5-8-6-4-0-09-0-1-8-9"
      y="755.73242"
      font-style="normal"
      font-variant="normal"
      font-weight="normal"
      font-stretch="normal"
      font-family="OCRA"
      transform="scale(1.0035974,0.9964155)"
      line-height="1.25"
      fill="#000000"
      fill-opacity="1"
      stroke="none">18</text>
    <text
      x="59.808773"
      gorn="0.2.0.0.0.2.0.0.0.15.0.0.0.0"
      stroke-width="10.3793"
      font-size="44.4444"
      id="tspan824-7-8-06-6-5-8-6-4-0-09-0-1-8-9-8"
      y="755.73242"
      font-style="normal"
      font-variant="normal"
      font-weight="normal"
      font-stretch="normal"
      font-family="OCRA"
      transform="scale(1.0035974,0.9964155)"
      line-height="1.25"
      fill="#000000"
      fill-opacity="1"
      stroke="none">17</text>
    <text
      x="51.536831"
      gorn="0.2.0.0.0.2.0.0.0.16.0.0.0.0"
      stroke-width="10.3793"
      font-size="44.4444"
      id="tspan824-7-8-0-4-21-2"
      y="193.71786"
      font-style="normal"
      font-variant="normal"
      font-weight="normal"
      font-stretch="normal"
      font-family="OCRA"
      transform="scale(1.0035974,0.9964155)"
      line-height="1.25"
      fill="#000000"
      fill-opacity="1"
      stroke="none">16</text>
    <text
      x="154.10385"
      gorn="0.2.0.0.0.2.0.0.0.17.0.0.0.0"
      stroke-width="10.3793"
      font-size="44.4444"
      id="tspan824-7-8-0-4-21"
      y="193.71786"
      font-style="normal"
      font-variant="normal"
      font-weight="normal"
      font-stretch="normal"
      font-family="OCRA"
      transform="scale(1.0035974,0.9964155)"
      line-height="1.25"
      fill="#000000"
      fill-opacity="1"
      stroke="none">15</text>
    <text
      x="256.42871"
      gorn="0.2.0.0.0.2.0.0.0.18.0.0.0.0"
      stroke-width="10.3793"
      font-size="44.4444"
      id="tspan824-7-8-0-4-12"
      y="193.71786"
      font-style="normal"
      font-variant="normal"
      font-weight="normal"
      font-stretch="normal"
      font-family="OCRA"
      transform="scale(1.0035974,0.9964155)"
      line-height="1.25"
      fill="#000000"
      fill-opacity="1"
      stroke="none">14</text>
    <text
      x="358.75342"
      gorn="0.2.0.0.0.2.0.0.0.19.0.0.0.0"
      stroke-width="10.3793"
      font-size="44.4444"
      id="tspan824-7-8-0-4-4"
      y="193.71786"
      font-style="normal"
      font-variant="normal"
      font-weight="normal"
      font-stretch="normal"
      font-family="OCRA"
      transform="scale(1.0035974,0.9964155)"
      line-height="1.25"
      fill="#000000"
      fill-opacity="1"
      stroke="none">13</text>
    <text
      x="461.07812"
      gorn="0.2.0.0.0.2.0.0.0.20.0.0.0.0"
      stroke-width="10.3793"
      font-size="44.4444"
      id="tspan824-7-8-0-4-2"
      y="193.71786"
      font-style="normal"
      font-variant="normal"
      font-weight="normal"
      font-stretch="normal"
      font-family="OCRA"
      transform="scale(1.0035974,0.9964155)"
      line-height="1.25"
      fill="#000000"
      fill-opacity="1"
      stroke="none">12</text>
    <text
      x="565.86859"
      gorn="0.2.0.0.0.2.0.0.0.21.0.0.0.0"
      stroke-width="10.3793"
      font-size="44.4444"
      id="tspan824-7-8-0-4-3"
      y="193.71786"
      font-style="normal"
      font-variant="normal"
      font-weight="normal"
      font-stretch="normal"
      font-family="OCRA"
      transform="scale(1.0035974,0.9964155)"
      line-height="1.25"
      fill="#000000"
      fill-opacity="1"
      stroke="none">11</text>
    <text
      x="663.26208"
      gorn="0.2.0.0.0.2.0.0.0.22.0.0.0.0"
      stroke-width="10.3793"
      font-size="44.4444"
      id="tspan824-7-8-0-4-9"
      y="193.71786"
      font-style="normal"
      font-variant="normal"
      font-weight="normal"
      font-stretch="normal"
      font-family="OCRA"
      transform="scale(1.0035974,0.9964155)"
      line-height="1.25"
      fill="#000000"
      fill-opacity="1"
      stroke="none">10</text>
    <text
      x="780.3808"
      gorn="0.2.0.0.0.2.0.0.0.23.0.0.0.0"
      stroke-width="10.3793"
      font-size="44.4444"
      id="tspan824-7-8-0-4-5"
      y="193.71786"
      font-style="normal"
      font-variant="normal"
      font-weight="normal"
      font-stretch="normal"
      font-family="OCRA"
      transform="scale(1.0035974,0.9964155)"
      line-height="1.25"
      fill="#000000"
      fill-opacity="1"
      stroke="none">9</text>
    <text
      x="874.07574"
      gorn="0.2.0.0.0.2.0.0.0.24.0.0.0.0"
      stroke-width="10.3793"
      font-size="44.4444"
      id="tspan824-7-8-0-4-8"
      y="193.71786"
      font-style="normal"
      font-variant="normal"
      font-weight="normal"
      font-stretch="normal"
      font-family="OCRA"
      transform="scale(1.0035974,0.9964155)"
      line-height="1.25"
      fill="#000000"
      fill-opacity="1"
      stroke="none">8</text>
    <text
      x="972.70215"
      gorn="0.2.0.0.0.2.0.0.0.25.0.0.0.0"
      stroke-width="10.3793"
      font-size="44.4444"
      id="tspan824-7-8-0-4-6"
      y="193.71786"
      font-style="normal"
      font-variant="normal"
      font-weight="normal"
      font-stretch="normal"
      font-family="OCRA"
      transform="scale(1.0035974,0.9964155)"
      line-height="1.25"
      fill="#000000"
      fill-opacity="1"
      stroke="none">7</text>
    <text
      x="1075.027"
      gorn="0.2.0.0.0.2.0.0.0.26.0.0.0.0"
      stroke-width="10.3793"
      font-size="44.4444"
      id="tspan824-7-8-0-4-1"
      y="193.71786"
      font-style="normal"
      font-variant="normal"
      font-weight="normal"
      font-stretch="normal"
      font-family="OCRA"
      transform="scale(1.0035974,0.9964155)"
      line-height="1.25"
      fill="#000000"
      fill-opacity="1"
      stroke="none">6</text>
    <text
      x="1173.6533"
      gorn="0.2.0.0.0.2.0.0.0.27.0.0.0.0"
      stroke-width="10.3793"
      font-size="44.4444"
      id="tspan824-7-8-0-4"
      y="193.71786"
      font-style="normal"
      font-variant="normal"
      font-weight="normal"
      font-stretch="normal"
      font-family="OCRA"
      transform="scale(1.0035974,0.9964155)"
      line-height="1.25"
      fill="#000000"
      fill-opacity="1"
      stroke="none">5</text>
    <text
      x="1272.245"
      gorn="0.2.0.0.0.2.0.0.0.28.0.0.0.0"
      stroke-width="10.3793"
      font-size="44.4444"
      id="tspan824-7-8-0"
      y="193.71786"
      font-style="normal"
      font-variant="normal"
      font-weight="normal"
      font-stretch="normal"
      font-family="OCRA"
      transform="scale(1.0035974,0.9964155)"
      line-height="1.25"
      fill="#000000"
      fill-opacity="1"
      stroke="none">4</text>
    <text
      x="1373.3369"
      gorn="0.2.0.0.0.2.0.0.0.29.0.0.0.0"
      stroke-width="10.3793"
      font-size="44.4444"
      id="tspan824-7-8"
      y="193.71786"
      font-style="normal"
      font-variant="normal"
      font-weight="normal"
      font-stretch="normal"
      font-family="OCRA"
      transform="scale(1.0035974,0.9964155)"
      line-height="1.25"
      fill="#000000"
      fill-opacity="1"
      stroke="none">3</text>
    <text
      x="1470.7305"
      gorn="0.2.0.0.0.2.0.0.0.30.0.0.0.0"
      stroke-width="10.3793"
      font-size="44.4444"
      id="tspan824-7"
      y="193.71786"
      font-style="normal"
      font-variant="normal"
      font-weight="normal"
      font-stretch="normal"
      font-family="OCRA"
      transform="scale(1.0035974,0.9964155)"
      line-height="1.25"
      fill="#000000"
      fill-opacity="1"
      stroke="none">2</text>
    <text
      x="1573.4476"
      gorn="0.2.0.0.0.2.0.0.0.31.0.0.0.0"
      stroke-width="10.3793"
      font-size="44.4444"
      id="tspan824"
      y="193.71786"
      font-style="normal"
      font-variant="normal"
      font-weight="normal"
      font-stretch="normal"
      font-family="OCRA"
      transform="scale(1.0035974,0.9964155)"
      line-height="1.25"
      fill="#000000"
      fill-opacity="1"
      stroke="none">1</text>
    <rect
      x="387.84286"
      gorn="0.2.0.0.0.4.0.0.0.0.0.0.0.0"
      fill="#a7a5a6"
      width="24.895836"
      height="50.3125"
      id="rect7408"
      y="645.69458"
      stroke-width="10.4167"
    />
    <rect
      x="451.48874"
      gorn="0.2.0.0.0.4.0.0.0.0.0.0.0.1"
      fill="#a7a5a6"
      width="24.895836"
      height="50.3125"
      id="rect7410"
      y="645.69458"
      stroke-width="10.4167"
    />
    <path
      d="m 454.19703,690.27794 c 5.3125,0 9.6875,-4.375 9.6875,-9.6875 v -19.47917 c 0,-5.3125 -4.375,-9.6875 -9.6875,-9.6875 h -2.70833 v 38.85417 z"
      gorn="0.2.0.0.0.4.0.0.0.0.0.0.0.2"
      fill="#806f5c"
      id="path7412"
      stroke-width="10.4167"
    />
    <path
      d="m 410.03036,651.42377 c -5.3125,0 -9.6875,4.375 -9.6875,9.6875 v 19.47917 c 0,5.3125 4.375,9.6875 9.6875,9.6875 h 2.70834 v -38.85417 z"
      gorn="0.2.0.0.0.4.0.0.0.0.0.0.0.3"
      fill="#806f5c"
      id="path7414"
      stroke-width="10.4167"
    />
    <rect
      x="412.73868"
      gorn="0.2.0.0.0.4.0.0.0.0.0.0.0.4"
      fill="#15909c"
      width="38.75"
      height="38.854172"
      id="rect7416"
      y="651.42371"
      stroke-width="10.4167"
    />
    <rect
      x="412.73868"
      gorn="0.2.0.0.0.4.0.0.0.0.0.0.0.5"
      fill="#333333"
      width="38.75"
      height="38.854172"
      id="rect7418"
      y="648.71539"
      stroke-width="10.4167"
    />
    <path
      d="m 397.84286,585.6946 c -2.60416,0 -4.6875,2.08334 -4.6875,4.6875 h 9.375 c 0,-2.60416 -2.08333,-4.6875 -4.6875,-4.6875 z"
      gorn="0.2.0.0.0.4.0.0.0.2.0.0.0.0"
      fill="#a7a5a6"
      id="path7422"
      stroke-width="10.4167"
    />
    <path
      d="m 407.21786,585.6946 c -2.60416,0 -4.6875,2.08334 -4.6875,4.6875 h 9.375 c 0,-2.60416 -2.08333,-4.6875 -4.6875,-4.6875 z"
      gorn="0.2.0.0.0.4.0.0.0.2.0.0.0.1"
      fill="#a7a5a6"
      id="path7424"
      stroke-width="10.4167"
    />
    <polygon
      points="17.05,45.16 17.05,45.13 17.05,44.74 16.15,44.74 15.25,44.74 15.25,45.13 15.25,45.16 15.25,45.51 15.25,45.54 15.25,45.89 15.25,45.92 15.25,46.28 15.25,46.31 15.25,46.66 15.25,46.69 15.25,47.04 15.25,47.07 15.25,47.42 15.25,47.45 15.25,47.81 15.25,47.84 15.25,48.22 16.15,48.22 17.05,48.22 17.05,47.84 17.05,47.81 17.05,47.45 17.05,47.42 17.05,47.07 17.05,47.04 17.05,46.69 17.05,46.66 17.05,46.31 17.05,46.28 17.05,45.92 17.05,45.89 17.05,45.54 17.05,45.51 "
      gorn="0.2.0.0.0.4.0.0.0.2.0.0.0.2"
      fill="#15909c"
      id="polygon7426"
      transform="matrix(10.416667,0,0,10.416667,234.30119,124.34041)"
    />
    <path
      d="m 407.21786,626.3196 c 2.60417,0 4.6875,-2.08333 4.6875,-4.6875 h -9.375 c 0,2.5 2.08334,4.6875 4.6875,4.6875 z"
      gorn="0.2.0.0.0.4.0.0.0.2.0.0.0.3"
      fill="#a7a5a6"
      id="path7428"
      stroke-width="10.4167"
    />
    <path
      d="m 397.84286,626.3196 c 2.60417,0 4.6875,-2.08333 4.6875,-4.6875 h -9.375 c 0,2.5 2.08334,4.6875 4.6875,4.6875 z"
      gorn="0.2.0.0.0.4.0.0.0.2.0.0.0.4"
      fill="#a7a5a6"
      id="path7430"
      stroke-width="10.4167"
    />
    <polygon
      points="17.05,44.9 17.05,44.87 17.05,44.48 16.15,44.48 15.25,44.48 15.25,44.87 15.25,44.9 15.25,45.25 15.25,45.28 15.25,45.63 15.25,45.66 15.25,46.02 15.25,46.05 15.25,46.4 15.25,46.43 15.25,46.78 15.25,46.81 15.25,47.16 15.25,47.19 15.25,47.55 15.25,47.58 15.25,47.96 16.15,47.96 17.05,47.96 17.05,47.58 17.05,47.55 17.05,47.19 17.05,47.16 17.05,46.81 17.05,46.78 17.05,46.43 17.05,46.4 17.05,46.05 17.05,46.02 17.05,45.66 17.05,45.63 17.05,45.28 17.05,45.25 "
      gorn="0.2.0.0.0.4.0.0.0.2.0.0.0.5"
      fill="#333333"
      id="polygon7432"
      transform="matrix(10.416667,0,0,10.416667,234.30119,124.34041)"
    />
    <rect
      x="354.92621"
      gorn="0.2.0.0.0.4.0.0.0.3.0.0.0.0"
      fill="#867663"
      width="19.166668"
      height="14.791666"
      id="rect7435"
      y="663.50708"
      stroke-width="10.4167"
    />
    <rect
      x="354.92621"
      gorn="0.2.0.0.0.4.0.0.0.3.0.0.0.1"
      fill="#abaaaa"
      width="19.166668"
      height="8.229167"
      id="rect7437"
      y="677.46539"
      stroke-width="10.4167"
    />
    <rect
      x="354.92621"
      gorn="0.2.0.0.0.4.0.0.0.3.0.0.0.2"
      fill="#abaaaa"
      width="19.166668"
      height="8.229167"
      id="rect7439"
      y="655.69458"
      stroke-width="10.4167"
    />
    <rect
      x="1500.0044"
      gorn="0.2.0.0.0.4.0.0.0.4.0.0.0.0"
      fill="#867663"
      width="14.791666"
      height="19.166668"
      id="rect7442"
      y="651.97058"
      stroke-width="10.4167"
    />
    <rect
      x="1492.6085"
      gorn="0.2.0.0.0.4.0.0.0.4.0.0.0.1"
      fill="#abaaaa"
      width="8.229167"
      height="19.166668"
      id="rect7444"
      y="651.97058"
      stroke-width="10.4167"
    />
    <rect
      x="1514.2751"
      gorn="0.2.0.0.0.4.0.0.0.4.0.0.0.2"
      fill="#abaaaa"
      width="8.229167"
      height="19.166668"
      id="rect7446"
      y="651.97058"
      stroke-width="10.4167"
    />
    <rect
      x="81.384491"
      gorn="0.2.0.0.0.4.0.0.0.6.0.0.0.0"
      fill="#15909c"
      width="117.38598"
      height="72.075027"
      id="rect7450"
      y="342.45059"
      stroke-width="15.9965"
    />
    <rect
      x="81.384491"
      gorn="0.2.0.0.0.4.0.0.0.6.0.0.0.1"
      fill="#333333"
      width="182.21355"
      height="175.94331"
      id="rect7452"
      y="338.43787"
      stroke-width="15.9965"
    />
    <rect
      x="86.855873"
      gorn="0.2.0.0.0.4.0.0.0.6.0.0.0.2"
      fill="#a7a5a6"
      width="20.22753"
      height="52.011314"
      id="rect7454"
      y="499.25623"
      stroke-width="15.9965"
    />
    <rect
      x="240.88351"
      gorn="0.2.0.0.0.4.0.0.0.6.0.0.0.3"
      fill="#a7a5a6"
      width="20.22753"
      height="52.011314"
      id="rect7456"
      y="499.25623"
      stroke-width="15.9965"
    />
    <rect
      x="96.969635"
      gorn="0.2.0.0.0.4.0.0.0.6.0.0.0.4"
      fill="#a7a5a6"
      width="154.02765"
      height="18.829021"
      id="rect7458"
      y="326.55399"
      stroke-width="15.9965"
    />
    <path
      d="m 1188.0252,252.80396 v 0 h 10.9375 0.9375 10.9375 v -0.10416 c 6.0417,-0.20834 10.8334,-5.10417 10.8334,-11.14584 0,-6.04166 -4.7917,-10.9375 -10.8334,-11.14583 v -0.10417 h -10.9375 -0.9375 -10.9375 c -6.25,0 -11.25,5 -11.25,11.25 0,6.14584 5,11.25 11.25,11.25 z"
      gorn="0.2.0.0.0.4.0.0.0.7.0.0.0.0"
      fill="#a7a5a6"
      id="path7461"
      stroke-width="10.4167"
    />
    <rect
      x="1191.046"
      gorn="0.2.0.0.0.4.0.0.0.7.0.0.0.1"
      fill="#806f5c"
      width="16.666668"
      height="22.500002"
      id="rect7463"
      y="230.30396"
      stroke-width="10.4167"
    />
    <path
      d="m 1030.1086,251.24146 v 0 h 10.9375 0.9375 10.9375 v -0.10416 c 6.0416,-0.20834 10.8333,-5.10417 10.8333,-11.14584 0,-6.04166 -4.7917,-10.9375 -10.8333,-11.14583 v -0.10417 h -10.9375 -0.9375 -10.9375 c -6.25,0 -11.25,5 -11.25,11.25 0,6.25 5,11.25 11.25,11.25 z"
      gorn="0.2.0.0.0.4.0.0.0.8.0.0.0.0"
      fill="#a7a5a6"
      id="path7466"
      stroke-width="10.4167"
    />
    <rect
      x="1033.1294"
      gorn="0.2.0.0.0.4.0.0.0.8.0.0.0.1"
      fill="#806f5c"
      width="16.666668"
      height="22.500002"
      id="rect7468"
      y="228.74147"
      stroke-width="10.4167"
    />
    <path
      d="m 1600.6294,624.47065 v -10.93751 -0.9375 -10.9375 h -0.1111 c -0.2084,-6.04166 -5.1042,-10.83333 -11.1459,-10.83333 -6.0416,0 -10.9375,4.79167 -11.1458,10.83333 h -0.1111 v 10.9375 0.9375 10.93751 c 0,6.25 5,11.25 11.25,11.25 6.25,0 11.25,-5 11.25,-11.25 z"
      gorn="0.2.0.0.0.4.0.0.0.9.0.0.0.0"
      fill="#a7a5a6"
      id="path7471"
      stroke-width="10.4167"
    />
    <rect
      x="1578.2335"
      gorn="0.2.0.0.0.4.0.0.0.9.0.0.0.1"
      fill="#806f5c"
      width="22.500002"
      height="16.666668"
      id="rect7473"
      y="604.88727"
      stroke-width="10.4167"
    />
    <path
      d="m 1605.421,303.0123 v -10.9375 -0.9375 -10.9375 h -0.1111 c -0.2083,-6.04167 -5.1041,-10.83334 -11.1458,-10.83334 -6.0417,0 -10.9375,4.79167 -11.1458,10.83334 h -0.1112 v 10.9375 0.9375 10.9375 c 0,6.25 5,11.25 11.25,11.25 6.25,0 11.25,-5.10417 11.25,-11.25 z"
      gorn="0.2.0.0.0.4.0.0.0.10.0.0.0.0"
      fill="#a7a5a6"
      id="path7476"
      stroke-width="10.4167"
    />
    <rect
      x="1583.0253"
      gorn="0.2.0.0.0.4.0.0.0.10.0.0.0.1"
      fill="#806f5c"
      width="22.500002"
      height="16.666668"
      id="rect7478"
      y="283.32483"
      stroke-width="10.4167"
    />
    <rect
      x="627.32208"
      display="inline"
      gorn="0.2.0.0.0.4.0.0.0.11.0.0.0.0"
      fill="#806f5c"
      width="23.020834"
      height="46.145836"
      id="rect7481"
      y="350.17377"
      stroke-width="10.4167"
    />
    <rect
      x="627.32208"
      display="inline"
      gorn="0.2.0.0.0.4.0.0.0.11.0.0.0.1"
      fill="#b6b5b5"
      width="22.91667"
      height="2.3958335"
      id="rect7483"
      y="350.17377"
      stroke-width="10.4167"
    />
    <rect
      x="627.32208"
      display="inline"
      gorn="0.2.0.0.0.4.0.0.0.11.0.0.0.2"
      fill="#b6b5b5"
      width="23.020834"
      height="2.3958335"
      id="rect7485"
      y="393.92377"
      stroke-width="10.4167"
    />
    <rect
      x="1539.5878"
      gorn="0.2.0.0.0.4.0.0.0.13.0.0.0.0"
      fill="#a7a5a6"
      width="28.020836"
      height="70.208336"
      id="rect7489"
      y="571.34564"
      stroke-width="10.4167"
    />
    <path
      d="m 1553.546,628.01231 c -11.9791,0 -21.5625,-9.6875 -21.5625,-21.5625 0,-11.97917 9.6875,-21.5625 21.5625,-21.5625 11.875,0 21.5625,9.6875 21.5625,21.5625 0.1111,11.875 -9.5833,21.5625 -21.5625,21.5625 z"
      gorn="0.2.0.0.0.4.0.0.0.13.0.0.0.1"
      fill="#e3a100"
      id="path7491"
      stroke-width="10.4167"
    />
    <rect
      x="1539.5878"
      gorn="0.2.0.0.0.4.0.0.0.14.0.0.0.0"
      fill="#a7a5a6"
      width="28.020836"
      height="70.208336"
      id="rect7494"
      y="248.22064"
      stroke-width="10.4167"
    />
    <path
      d="m 1553.546,304.8873 c -11.9791,0 -21.5625,-9.6875 -21.5625,-21.5625 0,-11.97917 9.6875,-21.5625 21.5625,-21.5625 11.875,0 21.5625,9.6875 21.5625,21.5625 0.1111,11.875 -9.5833,21.5625 -21.5625,21.5625 z"
      gorn="0.2.0.0.0.4.0.0.0.14.0.0.0.1"
      fill="#e3a100"
      id="path7496"
      stroke-width="10.4167"
    />
    <polygon
      points="99.25,13.65 99.52,13.65 99.79,13.67 100.07,13.72 100.33,13.79 100.59,13.87 100.84,13.99 101.08,14.11 101.31,14.26 101.53,14.43 101.73,14.61 101.92,14.81 102.09,15.03 102.24,15.25 102.38,15.49 102.49,15.74 102.58,16 102.65,16.26 102.7,16.53 102.73,16.8 102.74,17.07 102.72,17.35 102.68,17.62 102.62,17.89 102.54,18.15 102.44,18.4 102.31,18.65 102.17,18.88 102,19.1 101.82,19.3 101.63,19.5 101.42,19.67 101.2,19.83 100.96,19.97 100.71,20.08 100.46,20.19 100.19,20.26 99.93,20.32 99.66,20.35 99.38,20.36 99.11,20.35 98.84,20.32 98.57,20.26 98.31,20.19 98.06,20.08 97.81,19.97 97.57,19.83 97.35,19.67 97.14,19.5 96.94,19.3 96.76,19.1 96.6,18.88 96.46,18.65 96.33,18.4 96.23,18.15 96.15,17.89 96.09,17.62 96.05,17.35 96.03,17.07 96.03,16.8 96.06,16.53 96.12,16.26 96.18,16 96.28,15.74 96.39,15.49 96.52,15.25 96.68,15.03 96.85,14.81 97.03,14.61 97.24,14.43 97.45,14.26 97.69,14.11 97.93,13.99 98.18,13.87 98.44,13.79 98.7,13.72 98.98,13.67 "
      gorn="0.2.0.0.0.4.0.0.0.16.0.0.0.0"
      fill="#e5e4e4"
      id="Button_00000168092350940954358480000010261064727504523454_"
      transform="matrix(10.416667,0,0,10.416667,448.12935,149.57479)"
    />
    <rect
      x="1457.921"
      gorn="0.2.0.0.0.4.0.0.0.16.0.0.0.1"
      fill="#a7a5a6"
      width="49.583336"
      height="19.062502"
      id="rect7501"
      y="382.17899"
      stroke-width="10.4167"
    />
    <rect
      x="1457.921"
      gorn="0.2.0.0.0.4.0.0.0.16.0.0.0.2"
      fill="#a7a5a6"
      width="49.583336"
      height="19.062502"
      id="rect7503"
      y="256.03314"
      stroke-width="10.4167"
    />
    <path
      d="m 1442.1919,388.53314 h 81.25 V 270.92896 h -81.25 z m 69.0625,-51.66667 -0.9375,2.1875 -1.1459,2.08333 -1.25,2.08333 -3.125,3.75 -1.6666,1.66667 -1.875,1.5625 -1.9792,1.35417 -2.0833,1.25 -2.0834,1.14583 -2.2916,0.9375 -2.2917,0.72917 -2.2917,0.41666 -2.2916,0.3125 -2.3959,0.10417 -2.3958,-0.10417 -2.3958,-0.3125 -2.2917,-0.41666 -2.2917,-0.72917 -2.1875,-0.9375 -2.1875,-1.14583 -2.0833,-1.25 -1.875,-1.35417 -1.875,-1.5625 -1.6667,-1.66667 -1.6666,-1.875 -1.4584,-1.875 -1.25,-2.08333 -1.1458,-2.08333 -0.9375,-2.1875 -0.7292,-2.29167 -0.4166,-2.29167 -0.4167,-2.39583 -0.097,-2.39583 v -2.29167 l 0.3125,-2.5 0.4166,-2.39583 0.5209,-2.1875 0.9375,-2.29167 1.0416,-2.1875 1.1459,-1.97917 1.4583,-2.08333 1.4583,-1.875 1.6667,-1.77083 1.7708,-1.5625 1.875,-1.5625 2.0834,-1.25 2.0833,-1.14584 2.1875,-0.9375 2.2917,-0.83333 2.2916,-0.52083 2.2917,-0.41667 2.3958,-0.20833 h 2.3959 l 2.2916,0.20833 2.3959,0.41667 2.2916,0.52083 2.2917,0.83333 2.0833,0.9375 2.1875,1.14584 1.9792,1.25 1.9792,1.5625 1.7708,1.5625 1.6667,1.77083 1.4583,1.875 1.3542,2.08333 1.25,1.97917 1.0416,2.1875 0.7292,2.29167 0.625,2.1875 0.4167,2.39583 0.2083,2.5 0.1111,2.29167 -0.2083,2.39583 -0.3125,2.39583 -0.5208,2.29167 z"
      gorn="0.2.0.0.0.4.0.0.0.16.0.0.0.3"
      fill="#d3d2d2"
      id="Button_00000065789278106030889800000006798333804580109974_"
      stroke-width="10.4167"
    />
    <polygon
      points="99.25,37.06 99.52,37.06 99.79,37.08 100.06,37.12 100.33,37.19 100.59,37.28 100.84,37.39 101.08,37.52 101.31,37.66 101.53,37.83 101.73,38.01 101.92,38.21 102.09,38.43 102.24,38.66 102.38,38.89 102.49,39.14 102.58,39.4 102.65,39.66 102.7,39.93 102.73,40.2 102.74,40.48 102.72,40.75 102.68,41.02 102.62,41.29 102.54,41.55 102.43,41.8 102.31,42.05 102.17,42.28 102,42.5 101.82,42.71 101.63,42.9 101.42,43.07 101.2,43.23 100.96,43.37 100.71,43.49 100.46,43.59 100.19,43.66 99.93,43.72 99.65,43.75 99.38,43.76 99.11,43.75 98.84,43.72 98.57,43.66 98.31,43.59 98.05,43.49 97.8,43.37 97.57,43.23 97.35,43.07 97.14,42.9 96.94,42.71 96.76,42.5 96.6,42.28 96.45,42.05 96.33,41.8 96.23,41.55 96.15,41.29 96.09,41.02 96.05,40.75 96.03,40.48 96.03,40.2 96.06,39.93 96.12,39.66 96.18,39.4 96.28,39.14 96.39,38.89 96.52,38.66 96.68,38.43 96.85,38.21 97.03,38.01 97.23,37.83 97.45,37.66 97.68,37.52 97.93,37.39 98.18,37.28 98.43,37.19 98.7,37.12 98.97,37.08 "
      gorn="0.2.0.0.0.4.0.0.0.17.0.0.0.0"
      fill="#e5e4e4"
      id="Button_00000170248654812909759360000004965333836247625603_"
      transform="matrix(10.416667,0,0,10.416667,448.12935,149.57479)"
    />
    <path
      d="m 1442.1919,632.28315 h 81.25 V 514.78314 h -81.25 z m 69.0625,-51.66667 -0.9375,2.1875 -1.1459,2.08333 -1.25,2.08333 -3.125,3.75 -1.6666,1.66667 -1.875,1.5625 -1.9792,1.35417 -2.0833,1.25 -2.0834,1.14583 -2.2916,0.9375 -2.2917,0.72917 -2.2917,0.41666 -2.2916,0.3125 -2.3959,0.10417 -2.3958,-0.10417 -2.3958,-0.3125 -2.2917,-0.41666 -2.2917,-0.72917 -2.1875,-0.9375 -2.1875,-1.14583 -2.0833,-1.25 -1.875,-1.35417 -1.875,-1.5625 -1.6667,-1.66667 -1.6666,-1.875 -1.875,-1.77083 -1.25,-2.08333 -1.1459,-2.08334 -0.9375,-2.1875 -0.7291,-2.29166 -0.4167,-2.29167 -0.4167,-2.39583 -0.097,-2.39584 v -2.29166 l 0.3125,-2.8125 0.4167,-2.39584 0.5208,-2.1875 0.9375,-2.29166 1.0417,-2.1875 1.1458,-1.97917 1.4583,-2.08333 1.4584,-1.875 1.6666,-1.77084 1.7709,-1.5625 1.875,-1.5625 2.0833,-1.25 2.0833,-1.14583 2.1875,-0.9375 2.2917,-0.83333 2.2917,-0.52084 2.2916,-0.41666 2.3959,-0.20834 h 2.3958 l 2.2917,0.20834 2.3958,0.41666 2.2917,0.52084 2.2916,0.83333 2.0834,0.9375 2.1875,1.14583 1.9791,1.25 1.9792,1.5625 1.7708,1.5625 1.6667,1.77084 1.4583,1.875 1.3542,2.08333 1.25,1.97917 1.0417,2.1875 0.7291,2.29166 0.625,2.1875 0.9375,2.39584 0.2084,2.5 0.097,2.29166 -0.2083,2.39584 -0.3125,2.39583 -0.5209,2.29167 z"
      gorn="0.2.0.0.0.4.0.0.0.17.0.0.0.1"
      fill="#d3d2d2"
      id="Button_00000176745442397173723240000006319832704224293520_"
      stroke-width="10.4167"
    />
    <rect
      x="1457.921"
      gorn="0.2.0.0.0.4.0.0.0.17.0.0.0.2"
      fill="#a7a5a6"
      width="49.583336"
      height="19.062502"
      id="rect7509"
      y="625.92896"
      stroke-width="10.4167"
    />
    <rect
      x="1457.921"
      gorn="0.2.0.0.0.4.0.0.0.17.0.0.0.3"
      fill="#a7a5a6"
      width="49.583336"
      height="19.062502"
      id="rect7511"
      y="499.78314"
      stroke-width="10.4167"
    />
    <polygon
      points="72.03,13.76 72.3,13.76 72.57,13.79 72.84,13.83 73.11,13.9 73.37,13.99 73.62,14.1 73.86,14.22 74.09,14.37 74.31,14.54 74.51,14.72 74.7,14.92 74.87,15.14 75.02,15.36 75.15,15.6 75.27,15.85 75.36,16.11 75.43,16.37 75.48,16.64 75.51,16.91 75.52,17.19 75.5,17.46 75.46,17.73 75.4,18 75.32,18.26 75.21,18.51 75.09,18.76 74.95,18.99 74.78,19.21 74.6,19.42 74.41,19.61 74.2,19.78 73.98,19.94 73.74,20.08 73.49,20.19 73.24,20.3 72.97,20.37 72.71,20.43 72.43,20.46 72.16,20.47 71.89,20.46 71.62,20.43 71.35,20.37 71.09,20.3 70.83,20.19 70.58,20.08 70.35,19.94 70.12,19.78 69.91,19.61 69.72,19.42 69.54,19.21 69.37,18.99 69.23,18.76 69.11,18.51 69.01,18.26 68.93,18 68.87,17.73 68.82,17.46 68.81,17.19 68.81,16.91 68.84,16.64 68.89,16.37 68.96,16.11 69.06,15.85 69.17,15.6 69.3,15.36 69.46,15.14 69.62,14.92 69.81,14.72 70.01,14.54 70.23,14.37 70.46,14.22 70.71,14.1 70.96,13.99 71.21,13.9 71.48,13.83 71.75,13.79 "
      gorn="0.2.0.0.0.4.0.0.0.18.0.0.0.0"
      fill="#e5e4e4"
      id="Button_00000154407737648643459890000011881439570737506696_"
      transform="matrix(10.416667,0,0,10.416667,448.12935,149.57479)"
    />
    <rect
      x="1174.3794"
      gorn="0.2.0.0.0.4.0.0.0.18.0.0.0.1"
      fill="#a7a5a6"
      width="49.583336"
      height="19.062502"
      id="rect7515"
      y="383.32483"
      stroke-width="10.4167"
    />
    <rect
      x="1174.3794"
      gorn="0.2.0.0.0.4.0.0.0.18.0.0.0.2"
      fill="#a7a5a6"
      width="49.583336"
      height="19.062502"
      id="rect7517"
      y="257.17896"
      stroke-width="10.4167"
    />
    <path
      d="m 1158.6502,389.67897 h 81.1459 V 272.0748 h -81.25 v 117.60417 z m 69.0625,-51.66667 -0.9375,2.1875 -1.1458,2.08333 -1.25,2.08334 -3.125,3.75 -1.6667,1.66666 -1.875,1.5625 -1.9791,1.35417 -2.0834,1.25 -2.0833,1.14583 -2.2917,0.9375 -2.2916,0.72917 -2.2917,0.41667 -2.2917,0.3125 -2.3958,0.10416 -2.3958,-0.10416 -2.3959,-0.3125 -2.2916,-0.41667 -2.2917,-0.72917 -2.1875,-0.9375 -2.1875,-1.14583 -2.0833,-1.25 -1.875,-1.35417 -1.875,-1.5625 -1.6667,-1.66666 -1.6667,-1.875 -1.4583,-1.875 -1.25,-2.08334 -1.1458,-2.08333 -0.9375,-2.1875 -0.7292,-2.29167 -0.4167,-2.29166 -0.4166,-2.39584 -0.1042,-2.39583 v -2.29167 l 0.3125,-2.5 0.4167,-2.39583 0.5208,-2.1875 0.9375,-2.29167 1.0417,-2.1875 1.1458,-1.97916 1.4583,-2.08334 1.4584,-1.875 1.6666,-1.77083 1.7709,-1.5625 1.875,-1.5625 2.0833,-1.25 2.0833,-1.14583 2.1875,-0.9375 2.2917,-0.83334 2.2917,-0.52083 2.2916,-0.41667 2.3959,-0.20833 h 2.3958 l 2.2917,0.20833 2.3958,0.41667 2.2917,0.52083 2.2916,0.83334 2.0834,0.9375 2.1875,1.14583 1.9791,1.25 1.9792,1.5625 1.7708,1.5625 1.6667,1.77083 1.4583,1.875 1.3542,2.08334 1.25,1.97916 1.0417,2.1875 0.7291,2.29167 0.625,2.1875 0.4167,2.39583 0.3125,2.29167 0.1042,2.29167 -0.2084,2.39583 -0.3125,2.39583 -0.5208,2.29167 z"
      gorn="0.2.0.0.0.4.0.0.0.18.0.0.0.3"
      fill="#d3d2d2"
      id="Button_00000182517183253793651050000008116103981496063410_"
      stroke-width="10.4167"
    />
    <polygon
      points="58.18,13.48 58.45,13.48 58.72,13.5 58.99,13.54 59.26,13.61 59.52,13.7 59.77,13.81 60.01,13.94 60.24,14.08 60.46,14.25 60.66,14.43 60.85,14.63 61.02,14.85 61.17,15.08 61.3,15.31 61.42,15.56 61.51,15.82 61.58,16.08 61.63,16.35 61.66,16.62 61.67,16.9 61.65,17.17 61.61,17.44 61.55,17.71 61.47,17.97 61.36,18.22 61.24,18.47 61.1,18.7 60.93,18.92 60.75,19.13 60.56,19.32 60.35,19.49 60.13,19.65 59.89,19.79 59.64,19.91 59.39,20.01 59.12,20.08 58.86,20.14 58.58,20.17 58.31,20.18 58.04,20.17 57.77,20.14 57.5,20.08 57.24,20.01 56.98,19.91 56.73,19.79 56.5,19.65 56.28,19.49 56.07,19.32 55.87,19.13 55.69,18.92 55.53,18.7 55.38,18.47 55.26,18.22 55.16,17.97 55.08,17.71 55.02,17.44 54.98,17.17 54.96,16.9 54.96,16.62 54.99,16.35 55.05,16.08 55.11,15.82 55.21,15.56 55.32,15.31 55.45,15.08 55.61,14.85 55.78,14.63 55.96,14.43 56.16,14.25 56.38,14.08 56.61,13.94 56.86,13.81 57.11,13.7 57.36,13.61 57.63,13.54 57.9,13.5 "
      gorn="0.2.0.0.0.4.0.0.0.19.0.0.0.0"
      fill="#e5e4e4"
      id="Button_00000132807437222145419140000009832760563670235582_"
      transform="matrix(10.416667,0,0,10.416667,448.12935,149.57479)"
    />
    <rect
      x="1030.1085"
      gorn="0.2.0.0.0.4.0.0.0.19.0.0.0.1"
      fill="#a7a5a6"
      width="49.583336"
      height="19.062502"
      id="rect7522"
      y="380.30399"
      stroke-width="10.4167"
    />
    <rect
      x="1030.1085"
      gorn="0.2.0.0.0.4.0.0.0.19.0.0.0.2"
      fill="#a7a5a6"
      width="49.583336"
      height="19.062502"
      id="rect7524"
      y="254.15814"
      stroke-width="10.4167"
    />
    <path
      d="m 1014.3794,386.65814 h 81.25 V 269.15813 h -81.25 z m 69.0625,-51.66667 -0.9375,2.1875 -1.1458,2.08333 -1.25,2.08333 -3.125,3.75 -1.6667,1.66667 -1.875,1.5625 -1.9792,1.35417 -2.0833,1.25 -2.0833,1.14583 -2.2917,0.9375 -2.2917,0.625 -2.2916,0.41667 -2.2917,0.3125 -2.3958,0.10416 -2.3959,-0.10416 -2.3958,-0.3125 -2.2917,-0.41667 -2.2916,-0.72917 -2.1875,-0.9375 -2.1875,-1.14583 -2.0834,-1.25 -1.875,-1.35417 -1.875,-1.5625 -1.6666,-1.66666 -1.6667,-1.875 -1.4583,-1.875 -1.25,-2.08334 -1.1459,-2.08333 -0.9375,-2.1875 -0.7291,-2.29167 -0.4167,-2.29166 -0.4167,-2.39584 -0.1041,-2.39583 v -2.29167 l 0.3125,-2.5 0.4166,-2.39583 0.5209,-2.1875 0.9375,-2.29167 1.0416,-2.1875 1.1459,-1.97916 1.4583,-2.08334 1.4583,-1.875 1.6667,-1.77083 1.7708,-1.5625 1.875,-1.5625 2.0834,-1.25 2.0833,-1.14583 2.1875,-0.9375 2.2917,-0.83334 2.2916,-0.52083 1.9792,-0.72917 2.3958,-0.20833 h 2.3959 l 2.5,0.20833 2.3958,0.41667 2.2917,0.52083 2.2916,0.83334 2.0834,0.9375 2.1875,1.14583 1.9791,1.25 1.9792,1.5625 1.7708,1.5625 1.6667,1.77083 1.4583,1.875 1.3542,2.08334 1.25,1.97916 1.0417,2.1875 0.7291,2.29167 0.625,2.1875 0.4167,2.39583 0.2083,2.5 0.1042,2.29167 -0.2083,2.39583 -0.3125,2.39584 -0.5209,2.29166 z"
      gorn="0.2.0.0.0.4.0.0.0.19.0.0.0.3"
      fill="#d3d2d2"
      id="Button_00000083058909692141698200000008228166161708579475_"
      stroke-width="10.4167"
    />
    <polygon
      points="85.7,36.88 85.97,36.88 86.24,36.9 86.51,36.95 86.78,37.01 87.04,37.1 87.29,37.21 87.53,37.34 87.76,37.48 87.98,37.65 88.18,37.84 88.37,38.03 88.54,38.25 88.69,38.48 88.82,38.72 88.94,38.96 89.03,39.22 89.1,39.48 89.15,39.76 89.18,40.03 89.19,40.3 89.17,40.57 89.13,40.84 89.06,41.11 88.99,41.37 88.88,41.63 88.76,41.87 88.62,42.1 88.45,42.32 88.27,42.53 88.08,42.72 87.87,42.89 87.65,43.05 87.41,43.19 87.16,43.31 86.9,43.41 86.64,43.49 86.38,43.54 86.1,43.57 85.83,43.59 85.56,43.57 85.29,43.54 85.02,43.49 84.76,43.41 84.5,43.31 84.25,43.19 84.02,43.05 83.79,42.89 83.58,42.72 83.39,42.53 83.21,42.32 83.04,42.1 82.9,41.87 82.78,41.63 82.68,41.37 82.6,41.11 82.54,40.84 82.49,40.57 82.48,40.3 82.48,40.03 82.51,39.76 82.56,39.48 82.63,39.22 82.73,38.96 82.84,38.72 82.97,38.48 83.13,38.25 83.29,38.03 83.48,37.84 83.68,37.65 83.9,37.48 84.13,37.34 84.38,37.21 84.63,37.1 84.88,37.01 85.15,36.95 85.42,36.9 "
      gorn="0.2.0.0.0.4.0.0.0.20.0.0.0.0"
      fill="#e5e4e4"
      id="Button_00000106846647897652931240000012420341060750642355_"
      transform="matrix(10.416667,0,0,10.416667,448.12935,149.57479)"
    />
    <rect
      x="1316.7753"
      gorn="0.2.0.0.0.4.0.0.0.20.0.0.0.1"
      fill="#a7a5a6"
      width="49.583336"
      height="19.062502"
      id="rect7529"
      y="624.05396"
      stroke-width="10.4167"
    />
    <rect
      x="1316.7753"
      gorn="0.2.0.0.0.4.0.0.0.20.0.0.0.2"
      fill="#a7a5a6"
      width="49.583336"
      height="19.062502"
      id="rect7531"
      y="497.90814"
      stroke-width="10.4167"
    />
    <path
      d="m 1301.0461,630.40815 h 81.25 V 512.90814 h -81.25 z m 69.0625,-51.66667 -0.9375,2.1875 -1.1459,2.08333 -1.25,2.08333 -3.125,3.75 -1.6666,1.66667 -1.875,1.5625 -1.9792,1.35417 -2.0833,1.25 -2.0834,1.14583 -2.2916,0.9375 -2.2917,0.72917 -2.2917,0.41666 -2.2916,0.3125 -2.3959,0.10417 -2.3958,-0.10417 -2.3958,-0.3125 -2.6042,-0.41666 -2.2917,-0.72917 -2.1875,-0.9375 -2.1875,-1.14583 -2.0833,-1.25 -1.875,-1.35417 -1.875,-1.5625 -1.6667,-1.66667 -1.875,-1.77083 -1.4583,-1.875 -1.25,-2.08333 -1.1458,-2.08334 -0.9375,-2.1875 -0.7292,-2.29166 -0.4167,-2.29167 -0.3125,-2.60417 -0.1041,-2.39583 v -2.29167 l 0.3125,-2.5 0.4166,-2.39583 0.5209,-2.1875 0.9375,-2.29167 1.0416,-2.1875 1.1459,-1.97916 1.4583,-2.08334 1.4583,-1.875 1.6667,-1.77083 1.7708,-1.5625 1.875,-1.5625 2.0834,-1.25 2.0833,-1.14583 2.1875,-0.9375 2.2917,-0.83334 2.2916,-0.52083 2.2917,-0.41667 2.3958,-0.20833 h 2.3959 l 2.2916,0.20833 2.3959,0.41667 2.2916,0.52083 2.2917,0.83334 2.0833,0.9375 2.1875,1.14583 1.9792,1.25 1.9792,1.5625 1.7708,1.5625 1.6667,1.77083 1.4583,1.875 1.3542,2.08334 1.25,1.97916 1.0416,2.1875 0.7292,2.29167 0.625,2.1875 0.4167,2.39583 0.2083,2.5 0.1042,2.29167 -0.2084,2.39583 -0.3125,2.39584 -0.5208,2.29166 z"
      gorn="0.2.0.0.0.4.0.0.0.20.0.0.0.3"
      fill="#d3d2d2"
      id="Button_00000034779851029771346010000015022816985456299415_"
      stroke-width="10.4167"
    />
    <polygon
      points="72.09,36.7 72.36,36.7 72.63,36.72 72.9,36.77 73.17,36.84 73.42,36.92 73.67,37.04 73.92,37.16 74.15,37.31 74.37,37.48 74.57,37.66 74.76,37.86 74.93,38.08 75.08,38.3 75.21,38.54 75.32,38.79 75.42,39.05 75.49,39.31 75.54,39.58 75.57,39.85 75.58,40.12 75.56,40.4 75.52,40.67 75.45,40.94 75.38,41.2 75.27,41.45 75.15,41.7 75.01,41.93 74.84,42.14 74.66,42.35 74.47,42.55 74.26,42.72 74.04,42.88 73.8,43.02 73.55,43.13 73.29,43.23 73.03,43.31 72.77,43.36 72.49,43.4 72.22,43.41 71.95,43.4 71.67,43.36 71.41,43.31 71.15,43.23 70.89,43.13 70.64,43.02 70.4,42.88 70.18,42.72 69.97,42.55 69.78,42.35 69.6,42.14 69.43,41.93 69.29,41.7 69.17,41.45 69.07,41.2 68.99,40.94 68.92,40.67 68.88,40.4 68.87,40.12 68.87,39.85 68.9,39.58 68.95,39.31 69.02,39.05 69.12,38.79 69.23,38.54 69.36,38.3 69.51,38.08 69.68,37.86 69.87,37.66 70.07,37.48 70.29,37.31 70.52,37.16 70.77,37.04 71.02,36.92 71.27,36.84 71.54,36.77 71.81,36.72 "
      gorn="0.2.0.0.0.4.0.0.0.21.0.0.0.0"
      fill="#e5e4e4"
      id="Button_00000009574596203922438320000016856972636146397080_"
      transform="matrix(10.416667,0,0,10.416667,448.12935,149.57479)"
    />
    <rect
      x="1175.0044"
      gorn="0.2.0.0.0.4.0.0.0.21.0.0.0.1"
      fill="#a7a5a6"
      width="49.583336"
      height="19.062502"
      id="rect7536"
      y="622.17896"
      stroke-width="10.4167"
    />
    <rect
      x="1175.0044"
      gorn="0.2.0.0.0.4.0.0.0.21.0.0.0.2"
      fill="#a7a5a6"
      width="49.583336"
      height="19.062502"
      id="rect7538"
      y="496.03311"
      stroke-width="10.4167"
    />
    <path
      d="m 1159.2752,628.63731 h 81.25 V 511.03314 h -81.25 z m 69.0625,-51.66667 -0.9375,2.1875 -1.1458,2.08334 -1.25,2.08333 -3.125,3.75 -1.6667,1.66667 -1.875,1.5625 -1.9791,1.35416 -2.0834,1.25 -2.0833,1.14584 -2.2917,0.9375 -2.2916,0.72916 -2.2917,0.41667 -2.2917,0.3125 -2.3958,0.10417 -2.3958,-0.10417 -2.3959,-0.3125 -2.2916,-0.41667 -2.2917,-0.72916 -2.1875,-0.9375 -2.1875,-1.14584 -2.0833,-1.25 -1.875,-1.35416 -1.875,-1.5625 -1.6667,-1.66667 -1.6667,-1.875 -1.4583,-1.875 -1.25,-2.08333 -1.1458,-2.08334 -0.9375,-2.1875 -0.7292,-2.29166 -0.4167,-2.29167 -0.4166,-2.39583 -0.1042,-2.39584 v -2.29166 l 0.3125,-2.5 0.4167,-2.39584 0.5208,-2.1875 0.9375,-2.29166 1.0417,-2.1875 1.1458,-1.97917 1.4583,-2.08333 1.4584,-1.875 1.6666,-1.77084 1.7709,-1.5625 1.875,-1.5625 2.0833,-1.25 2.0833,-1.14583 2.1875,-0.9375 2.2917,-0.83333 2.2917,-0.52084 2.2916,-0.41666 2.3959,-0.20834 h 2.3958 l 2.2917,0.20834 2.3958,0.41666 2.2917,0.52084 2.2916,0.83333 2.0834,0.9375 2.1875,1.14583 1.9791,1.25 1.9792,1.5625 1.7708,1.5625 1.6667,1.77084 1.4583,1.875 1.3542,2.08333 1.25,1.97917 1.0417,2.1875 0.7291,2.29166 0.7292,1.97917 0.4167,2.39583 0.2083,2.5 0.1042,2.29167 -0.2084,2.39583 -0.3125,2.39584 -0.5208,2.29166 z"
      gorn="0.2.0.0.0.4.0.0.0.21.0.0.0.3"
      fill="#d3d2d2"
      id="Button_00000016063383604599680640000001139745879805398453_"
      stroke-width="10.4167"
    />
    <polygon
      points="58.18,36.53 58.45,36.53 58.72,36.55 58.99,36.59 59.26,36.66 59.52,36.75 59.77,36.86 60.01,36.98 60.24,37.13 60.46,37.3 60.66,37.48 60.85,37.68 61.02,37.9 61.17,38.13 61.3,38.36 61.42,38.61 61.51,38.87 61.58,39.13 61.63,39.4 61.66,39.67 61.67,39.95 61.65,40.22 61.61,40.49 61.54,40.76 61.47,41.02 61.36,41.27 61.24,41.52 61.1,41.75 60.93,41.97 60.75,42.18 60.56,42.37 60.35,42.54 60.13,42.7 59.89,42.84 59.64,42.95 59.38,43.06 59.12,43.13 58.86,43.19 58.58,43.22 58.31,43.23 58.04,43.22 57.77,43.19 57.5,43.13 57.24,43.06 56.98,42.95 56.73,42.84 56.5,42.7 56.27,42.54 56.06,42.37 55.87,42.18 55.69,41.97 55.52,41.75 55.38,41.52 55.26,41.27 55.16,41.02 55.08,40.76 55.02,40.49 54.97,40.22 54.96,39.95 54.96,39.67 54.99,39.4 55.04,39.13 55.11,38.87 55.21,38.61 55.32,38.36 55.45,38.13 55.61,37.9 55.77,37.68 55.96,37.48 56.16,37.3 56.38,37.13 56.61,36.98 56.86,36.86 57.11,36.75 57.36,36.66 57.63,36.59 57.9,36.55 "
      gorn="0.2.0.0.0.4.0.0.0.22.0.0.0.0"
      fill="#e5e4e4"
      id="Button_00000051358096181670616460000002857729349492436897_"
      transform="matrix(10.416667,0,0,10.416667,448.12935,149.57479)"
    />
    <rect
      x="1030.1085"
      gorn="0.2.0.0.0.4.0.0.0.22.0.0.0.1"
      fill="#a7a5a6"
      width="49.583336"
      height="19.062502"
      id="rect7543"
      y="620.40814"
      stroke-width="10.4167"
    />
    <rect
      x="1030.1085"
      gorn="0.2.0.0.0.4.0.0.0.22.0.0.0.2"
      fill="#a7a5a6"
      width="49.583336"
      height="19.062502"
      id="rect7545"
      y="494.2623"
      stroke-width="10.4167"
    />
    <path
      d="m 1014.3794,626.76231 h 81.25 V 509.15814 h -81.25 z m 69.0625,-51.66667 -0.9375,2.1875 -1.1458,2.08334 -1.25,2.08333 -3.125,3.75 -1.6667,1.66667 -1.875,1.5625 -1.9792,1.35416 -2.0833,1.25 -2.0833,1.14584 -2.2917,0.9375 -2.2917,0.625 -2.2916,0.41666 -2.2917,0.3125 -2.3958,0.10417 -2.3959,-0.10417 -2.3958,-0.3125 -2.2917,-0.41666 -2.2916,-0.72917 -2.1875,-0.9375 -2.1875,-1.14583 -2.0834,-1.25 -1.875,-1.35417 -1.875,-1.5625 -1.6666,-1.66667 -1.6667,-1.875 -1.4583,-1.875 -1.25,-2.08333 -1.1459,-2.08333 -0.9375,-2.1875 -0.7291,-2.29167 -0.4167,-2.29167 -0.4167,-2.39583 -0.1041,-2.39583 v -2.29167 l 0.3125,-2.5 0.4166,-2.39583 0.5209,-2.1875 0.9375,-2.29167 1.0416,-2.1875 1.1459,-1.97917 1.4583,-2.08333 1.4583,-1.875 1.6667,-1.77083 1.7708,-1.5625 1.875,-1.5625 2.0834,-1.25 2.0833,-1.14584 2.1875,-0.9375 2.2917,-0.83333 2.2916,-0.52083 2.2917,-0.41667 2.3958,-0.20833 h 2.3959 l 2.2916,0.20833 2.3959,0.41667 2.2916,0.52083 2.2917,0.83333 2.0833,0.9375 2.1875,1.14584 1.9792,1.25 1.9792,1.5625 1.7708,1.5625 1.6667,1.77083 1.4583,1.875 1.3542,2.08333 1.25,1.97917 1.0416,2.1875 0.7292,2.29167 0.625,2.1875 0.4167,2.39583 0.2083,2.5 0.1042,2.29167 -0.2084,2.39583 -0.3125,2.39583 -0.5208,2.29167 z"
      gorn="0.2.0.0.0.4.0.0.0.22.0.0.0.3"
      fill="#d3d2d2"
      id="Button_00000113320742954851095120000006802133257735095454_"
      stroke-width="10.4167"
    />
    <polygon
      points="40.1,25.71 40.37,25.71 40.64,25.73 40.91,25.78 41.18,25.84 41.44,25.93 41.69,26.04 41.93,26.17 42.16,26.31 42.38,26.48 42.58,26.67 42.77,26.86 42.94,27.08 43.09,27.31 43.22,27.55 43.34,27.8 43.43,28.05 43.5,28.31 43.55,28.59 43.58,28.86 43.59,29.13 43.57,29.4 43.53,29.68 43.47,29.94 43.39,30.2 43.28,30.46 43.16,30.7 43.02,30.94 42.85,31.15 42.67,31.36 42.48,31.55 42.27,31.73 42.05,31.89 41.81,32.03 41.56,32.14 41.31,32.24 41.04,32.32 40.78,32.37 40.5,32.41 40.23,32.42 39.96,32.41 39.69,32.37 39.42,32.32 39.16,32.24 38.9,32.14 38.65,32.03 38.42,31.89 38.2,31.73 37.99,31.55 37.79,31.36 37.61,31.15 37.45,30.94 37.3,30.7 37.18,30.46 37.08,30.2 37,29.94 36.94,29.68 36.89,29.4 36.88,29.13 36.88,28.86 36.91,28.59 36.97,28.31 37.03,28.05 37.13,27.8 37.24,27.55 37.37,27.31 37.53,27.08 37.69,26.86 37.88,26.67 38.08,26.48 38.3,26.31 38.53,26.17 38.78,26.04 39.03,25.93 39.28,25.84 39.55,25.78 39.82,25.73 "
      gorn="0.2.0.0.0.4.0.0.0.23.0.0.0.0"
      fill="#e5e4e4"
      id="Button_00000160906876192539561360000013519521810963281848_"
      transform="matrix(10.416667,0,0,10.416667,448.12935,149.57479)"
    />
    <rect
      x="841.77527"
      gorn="0.2.0.0.0.4.0.0.0.23.0.0.0.1"
      fill="#a7a5a6"
      width="49.583336"
      height="19.062502"
      id="rect7550"
      y="507.69986"
      stroke-width="10.4167"
    />
    <rect
      x="841.77527"
      gorn="0.2.0.0.0.4.0.0.0.23.0.0.0.2"
      fill="#a7a5a6"
      width="49.583336"
      height="19.062502"
      id="rect7552"
      y="381.55399"
      stroke-width="10.4167"
    />
    <path
      d="m 826.04603,514.05397 h 81.25001 v -117.5 h -81.25001 z m 69.06251,-51.66666 -0.9375,2.1875 -1.14584,2.08333 -1.25,2.08333 -3.125,3.75 -1.66666,1.66667 -1.875,1.5625 -1.97917,1.35417 -2.08333,1.25 -2.08334,1.14583 -2.29166,0.9375 -2.29167,0.72917 -2.29167,0.41666 -2.29166,0.3125 -2.39584,0.10417 -2.60416,-0.10417 -2.39584,-0.3125 -2.29166,-0.41666 -2.29167,-0.72917 -2.1875,-0.9375 -2.1875,-1.14583 -2.08333,-1.25 -1.875,-1.35417 -1.875,-1.5625 -1.66667,-1.66667 -1.66667,-1.875 -1.45833,-1.875 -1.25,-2.08333 -1.14584,-2.08333 -0.9375,-2.1875 -0.72916,-2.29167 -0.41667,-2.29167 -0.41667,-2.39583 -0.10416,-2.39583 v -2.29167 l 0.3125,-2.5 0.41666,-2.39584 0.52084,-2.1875 0.9375,-2.29166 1.04166,-2.1875 1.14584,-1.97917 1.45833,-2.08333 1.45833,-1.875 1.66667,-1.77084 1.77084,-1.5625 1.875,-1.5625 2.08333,-1.25 1.875,-1.45833 2.1875,-0.9375 2.29167,-0.83333 2.29166,-0.52084 2.29167,-0.41666 2.39583,-0.20834 h 2.39584 l 2.29166,0.20834 2.39584,0.41666 2.29166,0.52084 2.29167,0.83333 2.08333,0.9375 2.1875,1.14583 1.97917,1.25 1.97917,1.5625 1.77083,1.5625 1.66667,1.77084 1.45833,1.875 1.35417,2.08333 1.25,1.97917 1.04166,2.1875 0.72917,2.29166 0.625,2.1875 0.41667,2.39584 0.20833,2.5 0.10417,2.29167 -0.20834,2.39583 -0.3125,2.39583 -0.52083,2.29167 z"
      gorn="0.2.0.0.0.4.0.0.0.23.0.0.0.3"
      fill="#d3d2d2"
      id="Button_00000015355519840663217630000015725081487666944157_"
      stroke-width="10.4167"
    />
    <polygon
      points="85.64,13.76 85.91,13.76 86.18,13.79 86.45,13.83 86.72,13.9 86.98,13.99 87.23,14.1 87.47,14.22 87.7,14.37 87.92,14.54 88.12,14.72 88.31,14.92 88.48,15.14 88.63,15.36 88.77,15.6 88.88,15.85 88.97,16.11 89.04,16.37 89.09,16.64 89.12,16.91 89.13,17.19 89.11,17.46 89.07,17.73 89.01,18 88.93,18.26 88.82,18.51 88.7,18.76 88.56,18.99 88.39,19.21 88.21,19.42 88.02,19.61 87.81,19.78 87.59,19.94 87.35,20.08 87.1,20.19 86.85,20.3 86.58,20.37 86.32,20.43 86.04,20.46 85.77,20.47 85.5,20.46 85.23,20.43 84.96,20.37 84.7,20.3 84.44,20.19 84.19,20.08 83.96,19.94 83.74,19.78 83.53,19.61 83.33,19.42 83.15,19.21 82.99,18.99 82.84,18.76 82.72,18.51 82.62,18.26 82.54,18 82.48,17.73 82.44,17.46 82.42,17.19 82.42,16.91 82.45,16.64 82.51,16.37 82.57,16.11 82.67,15.85 82.78,15.6 82.91,15.36 83.07,15.14 83.24,14.92 83.42,14.72 83.62,14.54 83.84,14.37 84.07,14.22 84.32,14.1 84.57,13.99 84.82,13.9 85.09,13.83 85.36,13.79 "
      gorn="0.2.0.0.0.4.0.0.0.24.0.0.0.0"
      fill="#e5e4e4"
      id="Button_00000003065050541735278520000006101015267682247602_"
      transform="matrix(10.416667,0,0,10.416667,448.12935,149.57479)"
    />
    <rect
      x="1316.1503"
      gorn="0.2.0.0.0.4.0.0.0.24.0.0.0.1"
      fill="#a7a5a6"
      width="49.583336"
      height="19.062502"
      id="rect7557"
      y="383.32483"
      stroke-width="10.4167"
    />
    <rect
      x="1316.1503"
      gorn="0.2.0.0.0.4.0.0.0.24.0.0.0.2"
      fill="#a7a5a6"
      width="49.583336"
      height="19.062502"
      id="rect7559"
      y="257.17896"
      stroke-width="10.4167"
    />
    <path
      d="m 1300.4211,389.67897 h 81.25 V 272.0748 h -81.25 z m 69.0625,-51.66667 -0.9375,2.1875 -1.1459,2.08333 -1.25,2.08334 -3.125,3.75 -1.6666,1.66666 -1.875,1.5625 -1.9792,1.35417 -2.0833,1.25 -2.0834,1.14583 -2.2916,0.9375 -2.2917,0.72917 -2.2917,0.41667 -2.2916,0.3125 -2.3959,0.10416 -2.3958,-0.10416 -2.3958,-0.3125 -2.2917,-0.41667 -2.2917,-0.72917 -2.1875,-0.9375 -2.1875,-1.14583 -2.0833,-1.25 -1.875,-1.35417 -1.875,-1.5625 -1.6667,-1.66666 -1.6666,-1.875 -1.4584,-1.875 -1.25,-2.08334 -1.1458,-2.08333 -0.9375,-2.1875 -0.7292,-2.29167 -0.4166,-2.29166 -0.4167,-2.39584 -0.1042,-2.39583 v -2.29167 l 0.3125,-2.5 v -2.60416 l 0.5209,-2.1875 0.9375,-2.29167 1.0416,-2.1875 1.1459,-1.97917 1.4583,-2.08333 1.4583,-1.875 1.6667,-1.77083 1.7708,-1.5625 1.875,-1.5625 2.0834,-1.25 2.0833,-1.14584 2.1875,-0.9375 2.2917,-0.83333 2.2916,-0.52083 2.2917,-0.41667 2.3958,-0.20833 h 2.3959 l 2.2916,0.20833 2.3959,0.41667 2.2916,0.52083 2.2917,0.83333 2.0833,0.9375 2.1875,1.14584 1.9792,1.25 1.9792,1.5625 1.7708,1.5625 1.6667,1.77083 1.4583,1.875 1.3542,2.08333 1.25,1.97917 1.0416,2.1875 0.7292,2.29167 0.625,2.1875 0.4167,2.39583 0.2083,2.5 0.1042,2.29167 -0.2084,2.39583 -0.3125,2.39583 -0.5208,2.29167 z"
      gorn="0.2.0.0.0.4.0.0.0.24.0.0.0.3"
      fill="#d3d2d2"
      id="Button_00000158009702739574897930000006508653051517457851_"
      stroke-width="10.4167"
    />
    <circle
      connectorname="15.0"
      cy="100"
      r="27.500002"
      gorn="0.2.0.0.0.3.0"
      fill="none"
      stroke="#9a916c"
      stroke-width="20"
      id="connector0pin"
      cx="1600"
      stroke-opacity="1"
    />
    <circle
      connectorname="14.0"
      cy="100"
      r="27.500002"
      gorn="0.2.0.0.0.3.1"
      fill="none"
      stroke="#9a916c"
      stroke-width="20"
      cx="1500.0001"
      id="connector1pin"
      stroke-opacity="1"
    />
    <circle
      connectorname="13.0"
      cy="100"
      r="27.500002"
      gorn="0.2.0.0.0.3.2"
      fill="none"
      stroke="#9a916c"
      stroke-width="20"
      cx="1400.0001"
      id="connector2pin"
      stroke-opacity="1"
    />
    <circle
      connectorname="12.0"
      cy="100"
      r="27.500002"
      gorn="0.2.0.0.0.3.3"
      fill="none"
      stroke="#9a916c"
      stroke-width="20"
      cx="1300"
      id="connector3pin"
      stroke-opacity="1"
    />
    <circle
      connectorname="11.0"
      cy="100"
      r="27.500002"
      gorn="0.2.0.0.0.3.4"
      fill="none"
      stroke="#9a916c"
      stroke-width="20"
      cx="1200.0001"
      id="connector4pin"
      stroke-opacity="1"
    />
    <circle
      connectorname="10.0"
      cy="100"
      r="27.500002"
      gorn="0.2.0.0.0.3.5"
      fill="none"
      stroke="#9a916c"
      stroke-width="20"
      cx="1100"
      id="connector5pin"
      stroke-opacity="1"
    />
    <circle
      connectorname="9.0"
      cy="100"
      r="27.500002"
      gorn="0.2.0.0.0.3.6"
      fill="none"
      stroke="#9a916c"
      stroke-width="20"
      cx="1000.0001"
      id="connector6pin"
      stroke-opacity="1"
    />
    <circle
      connectorname="8.0"
      cy="100"
      r="27.500002"
      gorn="0.2.0.0.0.3.7"
      fill="none"
      stroke="#9a916c"
      stroke-width="20"
      cx="900.00006"
      id="connector7pin"
      stroke-opacity="1"
    />
    <circle
      connectorname="7.0"
      cy="100"
      r="27.500002"
      gorn="0.2.0.0.0.3.8"
      fill="none"
      stroke="#9a916c"
      stroke-width="20"
      cx="800"
      id="connector8pin"
      stroke-opacity="1"
    />
    <circle
      connectorname="6.0"
      cy="100"
      r="27.500002"
      gorn="0.2.0.0.0.3.9"
      fill="none"
      stroke="#9a916c"
      stroke-width="20"
      cx="700.00006"
      id="connector9pin"
      stroke-opacity="1"
    />
    <circle
      connectorname="5.0"
      cy="100"
      r="27.500002"
      gorn="0.2.0.0.0.3.10"
      fill="none"
      stroke="#9a916c"
      stroke-width="20"
      cx="600.00006"
      id="connector10pin"
      stroke-opacity="1"
    />
    <circle
      connectorname="4.0"
      cy="100"
      r="27.500002"
      gorn="0.2.0.0.0.3.11"
      fill="none"
      stroke="#9a916c"
      stroke-width="20"
      cx="500.00003"
      id="connector11pin"
      stroke-opacity="1"
    />
    <circle
      connectorname="3.0"
      cy="100"
      r="27.500002"
      gorn="0.2.0.0.0.3.12"
      fill="none"
      stroke="#9a916c"
      stroke-width="20"
      cx="400"
      id="connector12pin"
      stroke-opacity="1"
    />
    <circle
      connectorname="2.0"
      cy="100"
      r="27.500002"
      gorn="0.2.0.0.0.3.13"
      fill="none"
      stroke="#9a916c"
      stroke-width="20"
      cx="300.00003"
      id="connector13pin"
      stroke-opacity="1"
    />
    <circle
      connectorname="1.0"
      cy="100"
      r="27.500002"
      gorn="0.2.0.0.0.3.14"
      fill="none"
      stroke="#9a916c"
      stroke-width="20"
      cx="200"
      id="connector14pin"
      stroke-opacity="1"
    />
    <circle
      connectorname="0.0"
      cy="100"
      r="27.500002"
      gorn="0.2.0.0.0.3.15"
      fill="none"
      stroke="#9a916c"
      stroke-width="20"
      cx="100"
      id="connector15pin"
      stroke-opacity="1"
    />
    <circle
      connectorname="0.7"
      cy="800"
      r="27.500002"
      gorn="0.2.0.0.0.3.16"
      fill="none"
      stroke="#9a916c"
      stroke-width="20"
      cx="100"
      id="connector16pin"
      stroke-opacity="1"
    />
    <circle
      connectorname="1.7"
      cy="800"
      r="27.500002"
      gorn="0.2.0.0.0.3.17"
      fill="none"
      stroke="#9a916c"
      stroke-width="20"
      cx="200"
      id="connector17pin"
      stroke-opacity="1"
    />
    <circle
      connectorname="2.7"
      cy="800"
      r="27.500002"
      gorn="0.2.0.0.0.3.18"
      fill="none"
      stroke="#9a916c"
      stroke-width="20"
      cx="300.00003"
      id="connector18pin"
      stroke-opacity="1"
    />
    <circle
      connectorname="3.7"
      cy="800"
      r="27.500002"
      gorn="0.2.0.0.0.3.19"
      fill="none"
      stroke="#9a916c"
      stroke-width="20"
      cx="400"
      id="connector19pin"
      stroke-opacity="1"
    />
    <circle
      connectorname="4.7"
      cy="800"
      r="27.500002"
      gorn="0.2.0.0.0.3.20"
      fill="none"
      stroke="#9a916c"
      stroke-width="20"
      cx="500.00003"
      id="connector20pin"
      stroke-opacity="1"
    />
    <circle
      connectorname="5.7"
      cy="800"
      r="27.500002"
      gorn="0.2.0.0.0.3.21"
      fill="none"
      stroke="#9a916c"
      stroke-width="20"
      cx="600.00006"
      id="connector21pin"
      stroke-opacity="1"
    />
    <circle
      connectorname="6.7"
      cy="800"
      r="27.500002"
      gorn="0.2.0.0.0.3.22"
      fill="none"
      stroke="#9a916c"
      stroke-width="20"
      cx="700.00006"
      id="connector22pin"
      stroke-opacity="1"
    />
    <circle
      connectorname="7.7"
      cy="800"
      r="27.500002"
      gorn="0.2.0.0.0.3.23"
      fill="none"
      stroke="#9a916c"
      stroke-width="20"
      cx="800"
      id="connector23pin"
      stroke-opacity="1"
    />
    <circle
      connectorname="8.7"
      cy="800"
      r="27.500002"
      gorn="0.2.0.0.0.3.24"
      fill="none"
      stroke="#9a916c"
      stroke-width="20"
      cx="900.00006"
      id="connector24pin"
      stroke-opacity="1"
    />
    <circle
      connectorname="9.7"
      cy="800"
      r="27.500002"
      gorn="0.2.0.0.0.3.25"
      fill="none"
      stroke="#9a916c"
      stroke-width="20"
      cx="1000.0001"
      id="connector25pin"
      stroke-opacity="1"
    />
    <circle
      connectorname="10.7"
      cy="800"
      r="27.500002"
      gorn="0.2.0.0.0.3.26"
      fill="none"
      stroke="#9a916c"
      stroke-width="20"
      cx="1100"
      id="connector26pin"
      stroke-opacity="1"
    />
    <circle
      connectorname="11.7"
      cy="800"
      r="27.500002"
      gorn="0.2.0.0.0.3.27"
      fill="none"
      stroke="#9a916c"
      stroke-width="20"
      cx="1200.0001"
      id="connector27pin"
      stroke-opacity="1"
    />
    <circle
      connectorname="12.7"
      cy="800"
      r="27.500002"
      gorn="0.2.0.0.0.3.28"
      fill="none"
      stroke="#9a916c"
      stroke-width="20"
      cx="1300"
      id="connector28pin"
      stroke-opacity="1"
    />
    <circle
      connectorname="13.7"
      cy="800"
      r="27.500002"
      gorn="0.2.0.0.0.3.29"
      fill="none"
      stroke="#9a916c"
      stroke-width="20"
      cx="1400.0001"
      id="connector29pin"
      stroke-opacity="1"
    />
    <circle
      connectorname="14.7"
      cy="800"
      r="27.500002"
      gorn="0.2.0.0.0.3.30"
      fill="none"
      stroke="#9a916c"
      stroke-width="20"
      cx="1500.0001"
      id="connector30pin"
      stroke-opacity="1"
    />
    <circle
      connectorname="15.7"
      cy="800"
      r="27.500002"
      gorn="0.2.0.0.0.3.31"
      fill="none"
      stroke="#9a916c"
      stroke-width="20"
      cx="1600"
      id="connector31pin"
      stroke-opacity="1"
    />
  </g>
</svg>
