<?xml version='1.0' encoding='UTF-8' standalone='no'?>
<!-- Created with Fritzing (https://fritzing.org/) -->
  <svg
  xmlns="http://www.w3.org/2000/svg"
  xmlns:svg="http://www.w3.org/2000/svg"
  x="0in"
  gorn="0"
  height="0.90196139in"
  width="1.7019622in"
  viewBox="0 0 1701.9622 901.96139"
  id="svg6069"
  y="0in"
  version="1.2">
  <desc
    id="desc2">
    <referenceFile>HmIP-MOD-OC8_9174525ffffa7433faeff00146cf4557_20_pcb.svg</referenceFile>
  </desc>
  <defs
    id="defs6073"
  />
  <g
    id="silkscreen">
    <path
      d="M 5,5 H 1696.9623 V 896.96141 H 5 Z"
      gorn="0.2.32.0.0"
      stroke-opacity="1"
      fill="none"
      stroke="#000000"
      stroke-width="10"
      id="PCBBoarder"
      display="inline"
    />
  </g>
  <g
    id="copper1">
    <g
      id="copper0">
      <rect
        x="1572"
        gorn="0.3.0.0.0.0"
        fill="none"
        stroke="#f7bd13"
        stroke-width="20"
        width="58"
        height="58"
        id="rectanglePin0"
        y="72"
        display="inline"
      />
      <circle
        connectorname="15.0"
        cy="100.9865"
        r="29"
        gorn="0.3.0.1.0.0"
        fill="none"
        stroke="#f7bd13"
        stroke-width="20"
        id="connector0pin"
        cx="1600.9882"
        stroke-opacity="1"
      />
      <circle
        connectorname="14.0"
        cy="100.9865"
        r="29"
        gorn="0.3.0.2.0.0"
        fill="none"
        stroke="#f7bd13"
        stroke-width="20"
        cx="1500.9882"
        id="connector1pin"
        stroke-opacity="1"
      />
      <circle
        connectorname="13.0"
        cy="100.9865"
        r="29"
        gorn="0.3.0.3.0.0"
        fill="none"
        stroke="#f7bd13"
        stroke-width="20"
        cx="1400.988"
        id="connector2pin"
        stroke-opacity="1"
      />
      <circle
        connectorname="12.0"
        cy="100.9865"
        r="29"
        gorn="0.3.0.4.0.0"
        fill="none"
        stroke="#f7bd13"
        stroke-width="20"
        cx="1300.9879"
        id="connector3pin"
        stroke-opacity="1"
      />
      <circle
        connectorname="11.0"
        cy="100.9865"
        r="29"
        gorn="0.3.0.5.0.0"
        fill="none"
        stroke="#f7bd13"
        stroke-width="20"
        cx="1200.9878"
        id="connector4pin"
        stroke-opacity="1"
      />
      <circle
        connectorname="10.0"
        cy="100.9865"
        r="29"
        gorn="0.3.0.6.0.0"
        fill="none"
        stroke="#f7bd13"
        stroke-width="20"
        cx="1100.9877"
        id="connector5pin"
        stroke-opacity="1"
      />
      <circle
        connectorname="9.0"
        cy="100.9865"
        r="29"
        gorn="0.3.0.7.0.0"
        fill="none"
        stroke="#f7bd13"
        stroke-width="20"
        cx="1000.9875"
        id="connector6pin"
        stroke-opacity="1"
      />
      <circle
        connectorname="8.0"
        cy="100.9865"
        r="29"
        gorn="0.3.0.8.0.0"
        fill="none"
        stroke="#f7bd13"
        stroke-width="20"
        cx="900.98743"
        id="connector7pin"
        stroke-opacity="1"
      />
      <circle
        connectorname="7.0"
        cy="100.9865"
        r="29"
        gorn="0.3.0.9.0.0"
        fill="none"
        stroke="#f7bd13"
        stroke-width="20"
        cx="800.98724"
        id="connector8pin"
        stroke-opacity="1"
      />
      <circle
        connectorname="6.0"
        cy="100.9865"
        r="29"
        gorn="0.3.0.10.0.0"
        fill="none"
        stroke="#f7bd13"
        stroke-width="20"
        cx="700.98718"
        id="connector9pin"
        stroke-opacity="1"
      />
      <circle
        connectorname="5.0"
        cy="100.9865"
        r="29"
        gorn="0.3.0.11.0.0"
        fill="none"
        stroke="#f7bd13"
        stroke-width="20"
        cx="600.98706"
        id="connector10pin"
        stroke-opacity="1"
      />
      <circle
        connectorname="4.0"
        cy="100.9865"
        r="29"
        gorn="0.3.0.12.0.0"
        fill="none"
        stroke="#f7bd13"
        stroke-width="20"
        cx="500.98694"
        id="connector11pin"
        stroke-opacity="1"
      />
      <circle
        connectorname="3.0"
        cy="100.9865"
        r="29"
        gorn="0.3.0.13.0.0"
        fill="none"
        stroke="#f7bd13"
        stroke-width="20"
        cx="400.98682"
        id="connector12pin"
        stroke-opacity="1"
      />
      <circle
        connectorname="2.0"
        cy="100.9865"
        r="29"
        gorn="0.3.0.14.0.0"
        fill="none"
        stroke="#f7bd13"
        stroke-width="20"
        cx="300.98672"
        id="connector13pin"
        stroke-opacity="1"
      />
      <circle
        connectorname="1.0"
        cy="100.9865"
        r="29"
        gorn="0.3.0.15.0.0"
        fill="none"
        stroke="#f7bd13"
        stroke-width="20"
        cx="200.9866"
        id="connector14pin"
        stroke-opacity="1"
      />
      <circle
        connectorname="0.0"
        cy="100.9865"
        r="29"
        gorn="0.3.0.16.0.0"
        fill="none"
        stroke="#f7bd13"
        stroke-width="20"
        cx="100.9865"
        id="connector15pin"
        stroke-opacity="1"
      />
      <circle
        connectorname="0.7"
        cy="800.98724"
        r="29"
        gorn="0.3.0.17.0.0"
        fill="none"
        stroke="#f7bd13"
        stroke-width="20"
        cx="100.9865"
        id="connector16pin"
        stroke-opacity="1"
      />
      <circle
        connectorname="1.7"
        cy="800.98724"
        r="29"
        gorn="0.3.0.18.0.0"
        fill="none"
        stroke="#f7bd13"
        stroke-width="20"
        cx="200.9866"
        id="connector17pin"
        stroke-opacity="1"
      />
      <circle
        connectorname="2.7"
        cy="800.98724"
        r="29"
        gorn="0.3.0.19.0.0"
        fill="none"
        stroke="#f7bd13"
        stroke-width="20"
        cx="300.98672"
        id="connector18pin"
        stroke-opacity="1"
      />
      <circle
        connectorname="3.7"
        cy="800.98724"
        r="29"
        gorn="0.3.0.20.0.0"
        fill="none"
        stroke="#f7bd13"
        stroke-width="20"
        cx="400.98682"
        id="connector19pin"
        stroke-opacity="1"
      />
      <circle
        connectorname="4.7"
        cy="800.98724"
        r="29"
        gorn="0.3.0.21.0.0"
        fill="none"
        stroke="#f7bd13"
        stroke-width="20"
        cx="500.98694"
        id="connector20pin"
        stroke-opacity="1"
      />
      <circle
        connectorname="5.7"
        cy="800.98724"
        r="29"
        gorn="0.3.0.22.0.0"
        fill="none"
        stroke="#f7bd13"
        stroke-width="20"
        cx="600.98706"
        id="connector21pin"
        stroke-opacity="1"
      />
      <circle
        connectorname="6.7"
        cy="800.98724"
        r="29"
        gorn="0.3.0.23.0.0"
        fill="none"
        stroke="#f7bd13"
        stroke-width="20"
        cx="700.98718"
        id="connector22pin"
        stroke-opacity="1"
      />
      <circle
        connectorname="7.7"
        cy="800.98724"
        r="29"
        gorn="0.3.0.24.0.0"
        fill="none"
        stroke="#f7bd13"
        stroke-width="20"
        cx="800.98724"
        id="connector23pin"
        stroke-opacity="1"
      />
      <circle
        connectorname="8.7"
        cy="800.98724"
        r="29"
        gorn="0.3.0.25.0.0"
        fill="none"
        stroke="#f7bd13"
        stroke-width="20"
        cx="900.98743"
        id="connector24pin"
        stroke-opacity="1"
      />
      <circle
        connectorname="9.7"
        cy="800.98724"
        r="29"
        gorn="0.3.0.26.0.0"
        fill="none"
        stroke="#f7bd13"
        stroke-width="20"
        cx="1000.9875"
        id="connector25pin"
        stroke-opacity="1"
      />
      <circle
        connectorname="10.7"
        cy="800.98724"
        r="29"
        gorn="0.3.0.27.0.0"
        fill="none"
        stroke="#f7bd13"
        stroke-width="20"
        cx="1100.9877"
        id="connector26pin"
        stroke-opacity="1"
      />
      <circle
        connectorname="11.7"
        cy="800.98724"
        r="29"
        gorn="0.3.0.28.0.0"
        fill="none"
        stroke="#f7bd13"
        stroke-width="20"
        cx="1200.9878"
        id="connector27pin"
        stroke-opacity="1"
      />
      <circle
        connectorname="12.7"
        cy="800.98724"
        r="29"
        gorn="0.3.0.29.0.0"
        fill="none"
        stroke="#f7bd13"
        stroke-width="20"
        cx="1300.9879"
        id="connector28pin"
        stroke-opacity="1"
      />
      <circle
        connectorname="13.7"
        cy="800.98724"
        r="29"
        gorn="0.3.0.30.0.0"
        fill="none"
        stroke="#f7bd13"
        stroke-width="20"
        cx="1400.988"
        id="connector29pin"
        stroke-opacity="1"
      />
      <circle
        connectorname="14.7"
        cy="800.98724"
        r="29"
        gorn="0.3.0.31.0.0"
        fill="none"
        stroke="#f7bd13"
        stroke-width="20"
        cx="1500.9882"
        id="connector30pin"
        stroke-opacity="1"
      />
      <circle
        connectorname="15.7"
        cy="800.98724"
        r="29"
        gorn="0.3.0.32.0.0"
        fill="none"
        stroke="#f7bd13"
        stroke-width="20"
        cx="1600.9882"
        id="connector31pin"
        stroke-opacity="1"
      />
    </g>
  </g>
</svg>
