<?xml version='1.0' encoding='UTF-8' standalone='no'?>
<svg
  xmlns:dc="http://purl.org/dc/elements/1.1/"
  xmlns:cc="http://creativecommons.org/ns#"
  xmlns:rdf="http://www.w3.org/1999/02/22-rdf-syntax-ns#"
  xmlns:svg="http://www.w3.org/2000/svg"
  xmlns="http://www.w3.org/2000/svg"
  id="svg2"
  y="0in"
  version="1.2"
  height="80.37677mm"
  width="114.55076mm"
  x="0in"
  viewBox="0 0 4509.8722 3164.4396">
  <g
    id="breadboard">
    <line
      y1="2815.8857"
      y2="2905.8857"
      x2="4504.8721"
      x1="4299.7329"
      id="line4616"
      stroke-linejoin="round"
      stroke-linecap="round"
      stroke-width="9.7222"
      stroke="#800000"
      fill="#808000"
    />
    <line
      y1="2795.8857"
      y2="2705.8857"
      x2="4504.8721"
      x1="4299.7329"
      id="line17"
      stroke-linejoin="round"
      stroke-linecap="round"
      stroke-width="9.7222"
      stroke="#0000ff"
      fill="none"
    />
    <line
      y1="2805.8857"
      y2="2805.8857"
      x2="4504.8721"
      x1="4299.7329"
      id="line17-4"
      stroke-linejoin="round"
      stroke-linecap="round"
      stroke-width="9.7222"
      stroke="#000000"
      fill="none"
    />
    <ellipse
      id="ellipse4585"
      cx="436.31424"
      cy="1941.9692"
      rx="436.31424"
      ry="525.85858"
      transform="matrix(0.98377331,0.17941592,0,1,0,0)"
      fill="#000000"
      stroke="none"
      stroke-width="0"
    />
    <ellipse
      id="path4583"
      cx="1717.2037"
      cy="1500.4165"
      rx="365.38104"
      ry="215.81129"
      fill="#000000"
      stroke="none"
      stroke-width="0"
    />
    <ellipse
      id="ellipse4587"
      cx="1600.3376"
      cy="518.82257"
      rx="248.37584"
      ry="457.25894"
      transform="matrix(0.99937652,-0.03530686,0.39359842,0.91928248,0,0)"
      fill="#000000"
      stroke="none"
      stroke-width="0"
    />
    <ellipse
      id="ellipse4589"
      cx="1720.1393"
      cy="2948.6282"
      rx="355.59583"
      ry="215.81129"
      fill="#000000"
      stroke="none"
      stroke-width="0"
    />
    <rect
      id="rect4591"
      width="875.3913"
      height="93.938057"
      x="2211.6951"
      y="541.42188"
      transform="matrix(0.90319084,0.42923921,0,1,0,0)"
      fill="#000000"
      stroke="none"
      stroke-width="0"
    />
    <rect
      id="rect4593"
      width="917.33356"
      height="93.938057"
      x="724.85828"
      y="2192.7178"
      transform="matrix(0.88749608,-0.46081526,0,1,0,0)"
      fill="#000000"
      stroke="none"
      stroke-width="0"
    />
    <ellipse
      id="ellipse4595"
      cx="3662.5266"
      cy="2101.1636"
      rx="416.26413"
      ry="509.35129"
      transform="matrix(1,0,-0.2459025,0.96929457,0,0)"
      fill="#000000"
      stroke="none"
      stroke-width="0"
    />
    <rect
      id="rect4597"
      width="775.44836"
      height="194.66023"
      x="2105.5996"
      y="3860.0605"
      transform="matrix(-0.03441485,-0.99940763,0.46612301,0.88471992,0,0)"
      fill="#000000"
      stroke="none"
      stroke-width="0"
    />
    <rect
      id="rect4599"
      width="712.36359"
      height="1440.3837"
      x="1363.5007"
      y="1529.9088"
      fill="#000000"
      stroke="none"
      stroke-width="0"
    />
    <rect
      id="rect4601"
      width="2285.8262"
      height="70.453552"
      x="2014.8723"
      y="2775.8857"
      fill="#000000"
      stroke="none"
      stroke-width="0"
    />
    <rect
      id="connector0pin"
      width="10.00001"
      height="10"
      x="4499.8721"
      y="2900.6772"
      fill="none"
      stroke="none"
      stroke-width="0"
    />
    <rect
      id="connector1pin"
      width="10.00001"
      height="10"
      x="4499.8721"
      y="2800.8857"
      fill="none"
      stroke="none"
      stroke-width="0"
    />
    <rect
      id="connector2pin"
      width="10.00001"
      height="10"
      x="4499.8721"
      y="2700.8857"
      fill="none"
      stroke="none"
      stroke-width="0"
    />
  </g>
  <metadata
    id="metadata24">
    <rdf:RDF>
      <cc:Work
        rdf:about="">
        <dc:format>image/svg+xml</dc:format>
        <dc:type
          rdf:resource="http://purl.org/dc/dcmitype/StillImage"
        />
        <dc:title/>
      </cc:Work>
    </rdf:RDF>
  </metadata>
  <defs
    id="defs22">
    <clipPath
      clipPathUnits="userSpaceOnUse"
      id="clipPath365">
      <path
        d="M 7.92,35.04 H 271.96 V 564.12 H 7.92 Z"
        clip-rule="evenodd"
        id="path363"
      />
    </clipPath>
    <clipPath
      clipPathUnits="userSpaceOnUse"
      id="clipPath373">
      <path
        d="M 7.92,35.04 H 271.96 V 564.12 H 7.92 Z"
        clip-rule="evenodd"
        id="path371"
      />
    </clipPath>
    <clipPath
      clipPathUnits="userSpaceOnUse"
      id="clipPath381">
      <path
        d="M 7.92,35.04 H 271.96 V 564.12 H 7.92 Z"
        clip-rule="evenodd"
        id="path379"
      />
    </clipPath>
    <clipPath
      clipPathUnits="userSpaceOnUse"
      id="clipPath393">
      <path
        d="M 7.92,35.04 H 271.96 V 564.12 H 7.92 Z"
        clip-rule="evenodd"
        id="path391"
      />
    </clipPath>
    <clipPath
      clipPathUnits="userSpaceOnUse"
      id="clipPath401">
      <path
        d="M 7.92,35.04 H 271.96 V 564.12 H 7.92 Z"
        clip-rule="evenodd"
        id="path399"
      />
    </clipPath>
    <clipPath
      clipPathUnits="userSpaceOnUse"
      id="clipPath409">
      <path
        d="M 7.92,35.04 H 271.96 V 564.12 H 7.92 Z"
        clip-rule="evenodd"
        id="path407"
      />
    </clipPath>
    <clipPath
      clipPathUnits="userSpaceOnUse"
      id="clipPath421">
      <path
        d="M 7.92,35.04 H 271.96 V 564.12 H 7.92 Z"
        clip-rule="evenodd"
        id="path419"
      />
    </clipPath>
    <clipPath
      clipPathUnits="userSpaceOnUse"
      id="clipPath433">
      <path
        d="M 7.92,35.04 H 271.96 V 564.12 H 7.92 Z"
        clip-rule="evenodd"
        id="path431"
      />
    </clipPath>
    <clipPath
      clipPathUnits="userSpaceOnUse"
      id="clipPath445">
      <path
        d="M 7.92,35.04 H 271.96 V 564.12 H 7.92 Z"
        clip-rule="evenodd"
        id="path443"
      />
    </clipPath>
    <clipPath
      clipPathUnits="userSpaceOnUse"
      id="clipPath457">
      <path
        d="M 7.92,35.04 H 271.96 V 564.12 H 7.92 Z"
        clip-rule="evenodd"
        id="path455"
      />
    </clipPath>
    <clipPath
      clipPathUnits="userSpaceOnUse"
      id="clipPath465">
      <path
        d="M 7.92,35.04 H 271.96 V 564.12 H 7.92 Z"
        clip-rule="evenodd"
        id="path463"
      />
    </clipPath>
    <clipPath
      clipPathUnits="userSpaceOnUse"
      id="clipPath473">
      <path
        d="M 7.92,35.04 H 271.96 V 564.12 H 7.92 Z"
        clip-rule="evenodd"
        id="path471"
      />
    </clipPath>
    <clipPath
      clipPathUnits="userSpaceOnUse"
      id="clipPath481">
      <path
        d="M 7.92,35.04 H 271.96 V 564.12 H 7.92 Z"
        clip-rule="evenodd"
        id="path479"
      />
    </clipPath>
    <clipPath
      clipPathUnits="userSpaceOnUse"
      id="clipPath489">
      <path
        d="M 7.92,35.04 H 271.96 V 564.12 H 7.92 Z"
        clip-rule="evenodd"
        id="path487"
      />
    </clipPath>
    <clipPath
      clipPathUnits="userSpaceOnUse"
      id="clipPath497">
      <path
        d="M 7.92,35.04 H 271.96 V 564.12 H 7.92 Z"
        clip-rule="evenodd"
        id="path495"
      />
    </clipPath>
    <clipPath
      clipPathUnits="userSpaceOnUse"
      id="clipPath505">
      <path
        d="M 7.92,35.04 H 271.96 V 564.12 H 7.92 Z"
        clip-rule="evenodd"
        id="path503"
      />
    </clipPath>
    <clipPath
      clipPathUnits="userSpaceOnUse"
      id="clipPath517">
      <path
        d="M 7.92,35.04 H 271.96 V 564.12 H 7.92 Z"
        clip-rule="evenodd"
        id="path515"
      />
    </clipPath>
    <clipPath
      clipPathUnits="userSpaceOnUse"
      id="clipPath529">
      <path
        d="M 7.92,35.04 H 271.96 V 564.12 H 7.92 Z"
        clip-rule="evenodd"
        id="path527"
      />
    </clipPath>
    <clipPath
      clipPathUnits="userSpaceOnUse"
      id="clipPath537">
      <path
        d="M 7.92,35.04 H 271.96 V 564.12 H 7.92 Z"
        clip-rule="evenodd"
        id="path535"
      />
    </clipPath>
    <clipPath
      clipPathUnits="userSpaceOnUse"
      id="clipPath545">
      <path
        d="M 7.92,35.04 H 271.96 V 564.12 H 7.92 Z"
        clip-rule="evenodd"
        id="path543"
      />
    </clipPath>
    <clipPath
      clipPathUnits="userSpaceOnUse"
      id="clipPath553">
      <path
        d="M 7.92,35.04 H 271.96 V 564.12 H 7.92 Z"
        clip-rule="evenodd"
        id="path551"
      />
    </clipPath>
    <clipPath
      clipPathUnits="userSpaceOnUse"
      id="clipPath561">
      <path
        d="M 7.92,35.04 H 271.96 V 564.12 H 7.92 Z"
        clip-rule="evenodd"
        id="path559"
      />
    </clipPath>
    <clipPath
      clipPathUnits="userSpaceOnUse"
      id="clipPath569">
      <path
        d="M 7.92,35.04 H 271.96 V 564.12 H 7.92 Z"
        clip-rule="evenodd"
        id="path567"
      />
    </clipPath>
    <clipPath
      clipPathUnits="userSpaceOnUse"
      id="clipPath579">
      <path
        d="M 7.92,35.04 H 271.96 V 564.12 H 7.92 Z"
        clip-rule="evenodd"
        id="path577"
      />
    </clipPath>
    <clipPath
      clipPathUnits="userSpaceOnUse"
      id="clipPath589">
      <path
        d="M 7.92,35.04 H 271.96 V 564.12 H 7.92 Z"
        clip-rule="evenodd"
        id="path587"
      />
    </clipPath>
    <clipPath
      clipPathUnits="userSpaceOnUse"
      id="clipPath599">
      <path
        d="M 7.92,35.04 H 271.96 V 564.12 H 7.92 Z"
        clip-rule="evenodd"
        id="path597"
      />
    </clipPath>
    <clipPath
      clipPathUnits="userSpaceOnUse"
      id="clipPath609">
      <path
        d="M 7.92,35.04 H 271.96 V 564.12 H 7.92 Z"
        clip-rule="evenodd"
        id="path607"
      />
    </clipPath>
    <clipPath
      clipPathUnits="userSpaceOnUse"
      id="clipPath619">
      <path
        d="M 7.92,35.04 H 271.96 V 564.12 H 7.92 Z"
        clip-rule="evenodd"
        id="path617"
      />
    </clipPath>
    <clipPath
      clipPathUnits="userSpaceOnUse"
      id="clipPath631">
      <path
        d="M 7.92,35.04 H 271.96 V 564.12 H 7.92 Z"
        clip-rule="evenodd"
        id="path629"
      />
    </clipPath>
    <clipPath
      clipPathUnits="userSpaceOnUse"
      id="clipPath639">
      <path
        d="M 289.01,35.04 H 553.15 V 564.12 H 289.01 Z"
        clip-rule="evenodd"
        id="path637"
      />
    </clipPath>
    <clipPath
      clipPathUnits="userSpaceOnUse"
      id="clipPath647">
      <path
        d="M 289.01,35.04 H 553.16 V 564.12 H 289.01 Z"
        clip-rule="evenodd"
        id="path645"
      />
    </clipPath>
    <clipPath
      clipPathUnits="userSpaceOnUse"
      id="clipPath659">
      <path
        d="M 289.01,35.04 H 553.16 V 564.12 H 289.01 Z"
        clip-rule="evenodd"
        id="path657"
      />
    </clipPath>
    <clipPath
      clipPathUnits="userSpaceOnUse"
      id="clipPath671">
      <path
        d="M 289.01,35.04 H 553.16 V 564.12 H 289.01 Z"
        clip-rule="evenodd"
        id="path669"
      />
    </clipPath>
    <clipPath
      clipPathUnits="userSpaceOnUse"
      id="clipPath679">
      <path
        d="M 289.01,35.04 H 553.16 V 564.12 H 289.01 Z"
        clip-rule="evenodd"
        id="path677"
      />
    </clipPath>
    <clipPath
      clipPathUnits="userSpaceOnUse"
      id="clipPath691">
      <path
        d="M 289.01,35.04 H 553.16 V 564.12 H 289.01 Z"
        clip-rule="evenodd"
        id="path689"
      />
    </clipPath>
    <clipPath
      clipPathUnits="userSpaceOnUse"
      id="clipPath703">
      <path
        d="M 289.01,35.04 H 553.16 V 564.12 H 289.01 Z"
        clip-rule="evenodd"
        id="path701"
      />
    </clipPath>
    <clipPath
      clipPathUnits="userSpaceOnUse"
      id="clipPath711">
      <path
        d="M 289.01,35.04 H 553.16 V 564.12 H 289.01 Z"
        clip-rule="evenodd"
        id="path709"
      />
    </clipPath>
    <clipPath
      clipPathUnits="userSpaceOnUse"
      id="clipPath719">
      <path
        d="M 289.01,35.04 H 553.16 V 564.12 H 289.01 Z"
        clip-rule="evenodd"
        id="path717"
      />
    </clipPath>
    <clipPath
      clipPathUnits="userSpaceOnUse"
      id="clipPath727">
      <path
        d="M 289.01,35.04 H 553.16 V 564.12 H 289.01 Z"
        clip-rule="evenodd"
        id="path725"
      />
    </clipPath>
    <clipPath
      clipPathUnits="userSpaceOnUse"
      id="clipPath735">
      <path
        d="M 289.01,35.04 H 553.16 V 564.12 H 289.01 Z"
        clip-rule="evenodd"
        id="path733"
      />
    </clipPath>
    <clipPath
      clipPathUnits="userSpaceOnUse"
      id="clipPath743">
      <path
        d="M 289.01,35.04 H 553.16 V 564.12 H 289.01 Z"
        clip-rule="evenodd"
        id="path741"
      />
    </clipPath>
    <clipPath
      clipPathUnits="userSpaceOnUse"
      id="clipPath751">
      <path
        d="M 289.01,35.04 H 553.16 V 564.12 H 289.01 Z"
        clip-rule="evenodd"
        id="path749"
      />
    </clipPath>
    <clipPath
      clipPathUnits="userSpaceOnUse"
      id="clipPath759">
      <path
        d="M 289.01,35.04 H 553.16 V 564.12 H 289.01 Z"
        clip-rule="evenodd"
        id="path757"
      />
    </clipPath>
    <clipPath
      clipPathUnits="userSpaceOnUse"
      id="clipPath767">
      <path
        d="M 289.01,35.04 H 553.16 V 564.12 H 289.01 Z"
        clip-rule="evenodd"
        id="path765"
      />
    </clipPath>
    <clipPath
      clipPathUnits="userSpaceOnUse"
      id="clipPath779">
      <path
        d="M 289.01,35.04 H 553.16 V 564.12 H 289.01 Z"
        clip-rule="evenodd"
        id="path777"
      />
    </clipPath>
    <clipPath
      clipPathUnits="userSpaceOnUse"
      id="clipPath791">
      <path
        d="M 289.01,35.04 H 553.16 V 564.12 H 289.01 Z"
        clip-rule="evenodd"
        id="path789"
      />
    </clipPath>
    <clipPath
      clipPathUnits="userSpaceOnUse"
      id="clipPath799">
      <path
        d="M 289.01,35.04 H 553.16 V 564.12 H 289.01 Z"
        clip-rule="evenodd"
        id="path797"
      />
    </clipPath>
    <clipPath
      clipPathUnits="userSpaceOnUse"
      id="clipPath811">
      <path
        d="M 289.01,35.04 H 553.16 V 564.12 H 289.01 Z"
        clip-rule="evenodd"
        id="path809"
      />
    </clipPath>
    <clipPath
      clipPathUnits="userSpaceOnUse"
      id="clipPath823">
      <path
        d="M 289.01,35.04 H 553.16 V 564.12 H 289.01 Z"
        clip-rule="evenodd"
        id="path821"
      />
    </clipPath>
    <clipPath
      clipPathUnits="userSpaceOnUse"
      id="clipPath835">
      <path
        d="M 289.01,35.04 H 553.16 V 564.12 H 289.01 Z"
        clip-rule="evenodd"
        id="path833"
      />
    </clipPath>
    <clipPath
      clipPathUnits="userSpaceOnUse"
      id="clipPath843">
      <path
        d="M 289.01,35.04 H 553.16 V 564.12 H 289.01 Z"
        clip-rule="evenodd"
        id="path841"
      />
    </clipPath>
    <clipPath
      clipPathUnits="userSpaceOnUse"
      id="clipPath855">
      <path
        d="M 289.01,35.04 H 553.16 V 564.12 H 289.01 Z"
        clip-rule="evenodd"
        id="path853"
      />
    </clipPath>
    <clipPath
      clipPathUnits="userSpaceOnUse"
      id="clipPath867">
      <path
        d="M 289.01,35.04 H 553.16 V 564.12 H 289.01 Z"
        clip-rule="evenodd"
        id="path865"
      />
    </clipPath>
    <clipPath
      clipPathUnits="userSpaceOnUse"
      id="clipPath875">
      <path
        d="M 289.01,35.04 H 553.16 V 564.12 H 289.01 Z"
        clip-rule="evenodd"
        id="path873"
      />
    </clipPath>
    <clipPath
      clipPathUnits="userSpaceOnUse"
      id="clipPath887">
      <path
        d="M 289.01,35.04 H 553.16 V 564.12 H 289.01 Z"
        clip-rule="evenodd"
        id="path885"
      />
    </clipPath>
    <clipPath
      clipPathUnits="userSpaceOnUse"
      id="clipPath895">
      <path
        d="M 289.01,35.04 H 553.16 V 564.12 H 289.01 Z"
        clip-rule="evenodd"
        id="path893"
      />
    </clipPath>
    <clipPath
      clipPathUnits="userSpaceOnUse"
      id="clipPath907">
      <path
        d="M 289.01,35.04 H 553.16 V 564.12 H 289.01 Z"
        clip-rule="evenodd"
        id="path905"
      />
    </clipPath>
    <clipPath
      clipPathUnits="userSpaceOnUse"
      id="clipPath919">
      <path
        d="M 289.01,35.04 H 553.16 V 564.12 H 289.01 Z"
        clip-rule="evenodd"
        id="path917"
      />
    </clipPath>
    <clipPath
      clipPathUnits="userSpaceOnUse"
      id="clipPath931">
      <path
        d="M 289.01,35.04 H 553.16 V 564.12 H 289.01 Z"
        clip-rule="evenodd"
        id="path929"
      />
    </clipPath>
    <clipPath
      clipPathUnits="userSpaceOnUse"
      id="clipPath939">
      <path
        d="M 289.01,35.04 H 553.16 V 564.12 H 289.01 Z"
        clip-rule="evenodd"
        id="path937"
      />
    </clipPath>
    <clipPath
      clipPathUnits="userSpaceOnUse"
      id="clipPath951">
      <path
        d="M 289.01,35.04 H 553.16 V 564.12 H 289.01 Z"
        clip-rule="evenodd"
        id="path949"
      />
    </clipPath>
    <clipPath
      clipPathUnits="userSpaceOnUse"
      id="clipPath959">
      <path
        d="M 289.01,35.04 H 553.16 V 564.12 H 289.01 Z"
        clip-rule="evenodd"
        id="path957"
      />
    </clipPath>
    <clipPath
      clipPathUnits="userSpaceOnUse"
      id="clipPath971">
      <path
        d="M 289.01,35.04 H 553.16 V 564.12 H 289.01 Z"
        clip-rule="evenodd"
        id="path969"
      />
    </clipPath>
    <clipPath
      clipPathUnits="userSpaceOnUse"
      id="clipPath979">
      <path
        d="M 289.01,35.04 H 553.16 V 564.12 H 289.01 Z"
        clip-rule="evenodd"
        id="path977"
      />
    </clipPath>
    <clipPath
      clipPathUnits="userSpaceOnUse"
      id="clipPath991">
      <path
        d="M 289.01,35.04 H 553.16 V 564.12 H 289.01 Z"
        clip-rule="evenodd"
        id="path989"
      />
    </clipPath>
    <clipPath
      clipPathUnits="userSpaceOnUse"
      id="clipPath999">
      <path
        d="M 289.01,35.04 H 553.16 V 564.12 H 289.01 Z"
        clip-rule="evenodd"
        id="path997"
      />
    </clipPath>
    <clipPath
      clipPathUnits="userSpaceOnUse"
      id="clipPath1011">
      <path
        d="M 289.01,35.04 H 553.16 V 564.12 H 289.01 Z"
        clip-rule="evenodd"
        id="path1009"
      />
    </clipPath>
    <clipPath
      clipPathUnits="userSpaceOnUse"
      id="clipPath1019">
      <path
        d="M 289.01,35.04 H 553.16 V 564.12 H 289.01 Z"
        clip-rule="evenodd"
        id="path1017"
      />
    </clipPath>
    <clipPath
      clipPathUnits="userSpaceOnUse"
      id="clipPath1031">
      <path
        d="M 289.01,35.04 H 553.16 V 564.12 H 289.01 Z"
        clip-rule="evenodd"
        id="path1029"
      />
    </clipPath>
    <clipPath
      clipPathUnits="userSpaceOnUse"
      id="clipPath1039">
      <path
        d="M 289.01,35.04 H 553.16 V 564.12 H 289.01 Z"
        clip-rule="evenodd"
        id="path1037"
      />
    </clipPath>
    <clipPath
      clipPathUnits="userSpaceOnUse"
      id="clipPath1051">
      <path
        d="M 289.01,35.04 H 553.16 V 564.12 H 289.01 Z"
        clip-rule="evenodd"
        id="path1049"
      />
    </clipPath>
    <clipPath
      clipPathUnits="userSpaceOnUse"
      id="clipPath1059">
      <path
        d="M 289.01,35.04 H 553.16 V 564.12 H 289.01 Z"
        clip-rule="evenodd"
        id="path1057"
      />
    </clipPath>
    <clipPath
      clipPathUnits="userSpaceOnUse"
      id="clipPath1071">
      <path
        d="M 289.01,35.04 H 553.16 V 564.12 H 289.01 Z"
        clip-rule="evenodd"
        id="path1069"
      />
    </clipPath>
    <clipPath
      clipPathUnits="userSpaceOnUse"
      id="clipPath1083">
      <path
        d="M 289.01,35.04 H 553.16 V 564.12 H 289.01 Z"
        clip-rule="evenodd"
        id="path1081"
      />
    </clipPath>
    <clipPath
      clipPathUnits="userSpaceOnUse"
      id="clipPath1091">
      <path
        d="M 289.01,35.04 H 553.16 V 564.12 H 289.01 Z"
        clip-rule="evenodd"
        id="path1089"
      />
    </clipPath>
    <clipPath
      clipPathUnits="userSpaceOnUse"
      id="clipPath1103">
      <path
        d="M 289.01,35.04 H 553.16 V 564.12 H 289.01 Z"
        clip-rule="evenodd"
        id="path1101"
      />
    </clipPath>
    <clipPath
      clipPathUnits="userSpaceOnUse"
      id="clipPath1111">
      <path
        d="M 289.01,35.04 H 553.16 V 564.12 H 289.01 Z"
        clip-rule="evenodd"
        id="path1109"
      />
    </clipPath>
    <clipPath
      clipPathUnits="userSpaceOnUse"
      id="clipPath1123">
      <path
        d="M 289.01,35.04 H 553.16 V 564.12 H 289.01 Z"
        clip-rule="evenodd"
        id="path1121"
      />
    </clipPath>
    <clipPath
      clipPathUnits="userSpaceOnUse"
      id="clipPath1131">
      <path
        d="M 289.01,35.04 H 553.16 V 564.12 H 289.01 Z"
        clip-rule="evenodd"
        id="path1129"
      />
    </clipPath>
    <clipPath
      clipPathUnits="userSpaceOnUse"
      id="clipPath1143">
      <path
        d="M 289.01,35.04 H 553.16 V 564.12 H 289.01 Z"
        clip-rule="evenodd"
        id="path1141"
      />
    </clipPath>
    <clipPath
      clipPathUnits="userSpaceOnUse"
      id="clipPath1155">
      <path
        d="M 289.01,35.04 H 553.16 V 564.12 H 289.01 Z"
        clip-rule="evenodd"
        id="path1153"
      />
    </clipPath>
    <clipPath
      clipPathUnits="userSpaceOnUse"
      id="clipPath1163">
      <path
        d="M 289.01,35.04 H 553.16 V 564.12 H 289.01 Z"
        clip-rule="evenodd"
        id="path1161"
      />
    </clipPath>
    <clipPath
      clipPathUnits="userSpaceOnUse"
      id="clipPath1175">
      <path
        d="M 289.01,35.04 H 553.16 V 564.12 H 289.01 Z"
        clip-rule="evenodd"
        id="path1173"
      />
    </clipPath>
    <clipPath
      clipPathUnits="userSpaceOnUse"
      id="clipPath1187">
      <path
        d="M 289.01,35.04 H 553.16 V 564.12 H 289.01 Z"
        clip-rule="evenodd"
        id="path1185"
      />
    </clipPath>
    <clipPath
      clipPathUnits="userSpaceOnUse"
      id="clipPath1199">
      <path
        d="M 289.01,35.04 H 553.16 V 564.12 H 289.01 Z"
        clip-rule="evenodd"
        id="path1197"
      />
    </clipPath>
    <clipPath
      clipPathUnits="userSpaceOnUse"
      id="clipPath1211">
      <path
        d="M 289.01,35.04 H 553.16 V 564.12 H 289.01 Z"
        clip-rule="evenodd"
        id="path1209"
      />
    </clipPath>
    <clipPath
      clipPathUnits="userSpaceOnUse"
      id="clipPath1223">
      <path
        d="M 289.01,35.04 H 553.16 V 564.12 H 289.01 Z"
        clip-rule="evenodd"
        id="path1221"
      />
    </clipPath>
    <clipPath
      clipPathUnits="userSpaceOnUse"
      id="clipPath1235">
      <path
        d="M 289.01,35.04 H 553.16 V 564.12 H 289.01 Z"
        clip-rule="evenodd"
        id="path1233"
      />
    </clipPath>
    <clipPath
      clipPathUnits="userSpaceOnUse"
      id="clipPath1247">
      <path
        d="M 289.01,35.04 H 553.16 V 564.12 H 289.01 Z"
        clip-rule="evenodd"
        id="path1245"
      />
    </clipPath>
    <clipPath
      clipPathUnits="userSpaceOnUse"
      id="clipPath1259">
      <path
        d="M 289.01,35.04 H 553.16 V 564.12 H 289.01 Z"
        clip-rule="evenodd"
        id="path1257"
      />
    </clipPath>
    <clipPath
      clipPathUnits="userSpaceOnUse"
      id="clipPath1271">
      <path
        d="M 289.01,35.04 H 553.16 V 564.12 H 289.01 Z"
        clip-rule="evenodd"
        id="path1269"
      />
    </clipPath>
    <clipPath
      clipPathUnits="userSpaceOnUse"
      id="clipPath1283">
      <path
        d="M 289.01,35.04 H 553.16 V 564.12 H 289.01 Z"
        clip-rule="evenodd"
        id="path1281"
      />
    </clipPath>
    <clipPath
      clipPathUnits="userSpaceOnUse"
      id="clipPath1295">
      <path
        d="M 289.01,35.04 H 553.16 V 564.12 H 289.01 Z"
        clip-rule="evenodd"
        id="path1293"
      />
    </clipPath>
    <clipPath
      clipPathUnits="userSpaceOnUse"
      id="clipPath1307">
      <path
        d="M 289.01,35.04 H 553.16 V 564.12 H 289.01 Z"
        clip-rule="evenodd"
        id="path1305"
      />
    </clipPath>
    <clipPath
      clipPathUnits="userSpaceOnUse"
      id="clipPath1315">
      <path
        d="M 289.01,35.04 H 553.16 V 564.12 H 289.01 Z"
        clip-rule="evenodd"
        id="path1313"
      />
    </clipPath>
    <clipPath
      clipPathUnits="userSpaceOnUse"
      id="clipPath1327">
      <path
        d="M 289.01,35.04 H 553.16 V 564.12 H 289.01 Z"
        clip-rule="evenodd"
        id="path1325"
      />
    </clipPath>
    <clipPath
      clipPathUnits="userSpaceOnUse"
      id="clipPath1339">
      <path
        d="M 289.01,35.04 H 553.16 V 564.12 H 289.01 Z"
        clip-rule="evenodd"
        id="path1337"
      />
    </clipPath>
    <clipPath
      clipPathUnits="userSpaceOnUse"
      id="clipPath1351">
      <path
        d="M 289.01,35.04 H 553.16 V 564.12 H 289.01 Z"
        clip-rule="evenodd"
        id="path1349"
      />
    </clipPath>
    <clipPath
      clipPathUnits="userSpaceOnUse"
      id="clipPath1363">
      <path
        d="M 289.01,35.04 H 553.16 V 564.12 H 289.01 Z"
        clip-rule="evenodd"
        id="path1361"
      />
    </clipPath>
    <clipPath
      clipPathUnits="userSpaceOnUse"
      id="clipPath1375">
      <path
        d="M 289.01,35.04 H 553.16 V 564.12 H 289.01 Z"
        clip-rule="evenodd"
        id="path1373"
      />
    </clipPath>
    <clipPath
      clipPathUnits="userSpaceOnUse"
      id="clipPath1387">
      <path
        d="M 289.01,35.04 H 553.16 V 564.12 H 289.01 Z"
        clip-rule="evenodd"
        id="path1385"
      />
    </clipPath>
    <clipPath
      clipPathUnits="userSpaceOnUse"
      id="clipPath1399">
      <path
        d="M 289.01,35.04 H 553.16 V 564.12 H 289.01 Z"
        clip-rule="evenodd"
        id="path1397"
      />
    </clipPath>
    <clipPath
      clipPathUnits="userSpaceOnUse"
      id="clipPath1407">
      <path
        d="M 289.01,35.04 H 553.16 V 564.12 H 289.01 Z"
        clip-rule="evenodd"
        id="path1405"
      />
    </clipPath>
    <clipPath
      clipPathUnits="userSpaceOnUse"
      id="clipPath1415">
      <path
        d="M 289.01,35.04 H 553.16 V 564.12 H 289.01 Z"
        clip-rule="evenodd"
        id="path1413"
      />
    </clipPath>
    <clipPath
      clipPathUnits="userSpaceOnUse"
      id="clipPath1423">
      <path
        d="M 570.1,35.04 H 834.12 V 564.12 H 570.1 Z"
        clip-rule="evenodd"
        id="path1421"
      />
    </clipPath>
    <clipPath
      clipPathUnits="userSpaceOnUse"
      id="clipPath1435">
      <path
        d="M 570.1,35.04 H 834.12 V 564.12 H 570.1 Z"
        clip-rule="evenodd"
        id="path1433"
      />
    </clipPath>
    <clipPath
      clipPathUnits="userSpaceOnUse"
      id="clipPath1447">
      <path
        d="M 570.1,35.04 H 834.12 V 564.12 H 570.1 Z"
        clip-rule="evenodd"
        id="path1445"
      />
    </clipPath>
    <clipPath
      clipPathUnits="userSpaceOnUse"
      id="clipPath1455">
      <path
        d="M 570.09,35.04 H 834.12 V 564.12 H 570.09 Z"
        clip-rule="evenodd"
        id="path1453"
      />
    </clipPath>
    <clipPath
      clipPathUnits="userSpaceOnUse"
      id="clipPath1467">
      <path
        d="M 570.09,35.04 H 834.12 V 564.12 H 570.09 Z"
        clip-rule="evenodd"
        id="path1465"
      />
    </clipPath>
    <clipPath
      clipPathUnits="userSpaceOnUse"
      id="clipPath1475">
      <path
        d="M 570.09,35.04 H 834.12 V 564.12 H 570.09 Z"
        clip-rule="evenodd"
        id="path1473"
      />
    </clipPath>
    <clipPath
      clipPathUnits="userSpaceOnUse"
      id="clipPath1487">
      <path
        d="M 570.09,35.04 H 834.12 V 564.12 H 570.09 Z"
        clip-rule="evenodd"
        id="path1485"
      />
    </clipPath>
    <clipPath
      clipPathUnits="userSpaceOnUse"
      id="clipPath1499">
      <path
        d="M 570.09,35.04 H 834.12 V 564.12 H 570.09 Z"
        clip-rule="evenodd"
        id="path1497"
      />
    </clipPath>
    <clipPath
      clipPathUnits="userSpaceOnUse"
      id="clipPath1507">
      <path
        d="M 570.09,35.04 H 834.12 V 564.12 H 570.09 Z"
        clip-rule="evenodd"
        id="path1505"
      />
    </clipPath>
    <clipPath
      clipPathUnits="userSpaceOnUse"
      id="clipPath1519">
      <path
        d="M 570.09,35.04 H 834.12 V 564.12 H 570.09 Z"
        clip-rule="evenodd"
        id="path1517"
      />
    </clipPath>
    <clipPath
      clipPathUnits="userSpaceOnUse"
      id="clipPath1531">
      <path
        d="M 570.09,35.04 H 834.12 V 564.12 H 570.09 Z"
        clip-rule="evenodd"
        id="path1529"
      />
    </clipPath>
    <clipPath
      clipPathUnits="userSpaceOnUse"
      id="clipPath1543">
      <path
        d="M 570.09,35.04 H 834.12 V 564.12 H 570.09 Z"
        clip-rule="evenodd"
        id="path1541"
      />
    </clipPath>
    <clipPath
      clipPathUnits="userSpaceOnUse"
      id="clipPath1555">
      <path
        d="M 570.09,35.04 H 834.12 V 564.12 H 570.09 Z"
        clip-rule="evenodd"
        id="path1553"
      />
    </clipPath>
    <clipPath
      clipPathUnits="userSpaceOnUse"
      id="clipPath1563">
      <path
        d="M 570.09,35.04 H 834.12 V 564.12 H 570.09 Z"
        clip-rule="evenodd"
        id="path1561"
      />
    </clipPath>
    <clipPath
      clipPathUnits="userSpaceOnUse"
      id="clipPath1575">
      <path
        d="M 570.09,35.04 H 834.12 V 564.12 H 570.09 Z"
        clip-rule="evenodd"
        id="path1573"
      />
    </clipPath>
    <clipPath
      clipPathUnits="userSpaceOnUse"
      id="clipPath1583">
      <path
        d="M 570.09,35.04 H 834.12 V 564.12 H 570.09 Z"
        clip-rule="evenodd"
        id="path1581"
      />
    </clipPath>
    <clipPath
      clipPathUnits="userSpaceOnUse"
      id="clipPath1595">
      <path
        d="M 570.09,35.04 H 834.12 V 564.12 H 570.09 Z"
        clip-rule="evenodd"
        id="path1593"
      />
    </clipPath>
    <clipPath
      clipPathUnits="userSpaceOnUse"
      id="clipPath1603">
      <path
        d="M 570.09,35.04 H 834.12 V 564.12 H 570.09 Z"
        clip-rule="evenodd"
        id="path1601"
      />
    </clipPath>
    <clipPath
      clipPathUnits="userSpaceOnUse"
      id="clipPath1615">
      <path
        d="M 570.09,35.04 H 834.12 V 564.12 H 570.09 Z"
        clip-rule="evenodd"
        id="path1613"
      />
    </clipPath>
    <clipPath
      clipPathUnits="userSpaceOnUse"
      id="clipPath1623">
      <path
        d="M 570.09,35.04 H 834.12 V 564.12 H 570.09 Z"
        clip-rule="evenodd"
        id="path1621"
      />
    </clipPath>
    <clipPath
      clipPathUnits="userSpaceOnUse"
      id="clipPath1635">
      <path
        d="M 570.09,35.04 H 834.12 V 564.12 H 570.09 Z"
        clip-rule="evenodd"
        id="path1633"
      />
    </clipPath>
    <clipPath
      clipPathUnits="userSpaceOnUse"
      id="clipPath1647">
      <path
        d="M 570.09,35.04 H 834.12 V 564.12 H 570.09 Z"
        clip-rule="evenodd"
        id="path1645"
      />
    </clipPath>
    <clipPath
      clipPathUnits="userSpaceOnUse"
      id="clipPath1655">
      <path
        d="M 570.09,35.04 H 834.12 V 564.12 H 570.09 Z"
        clip-rule="evenodd"
        id="path1653"
      />
    </clipPath>
    <clipPath
      clipPathUnits="userSpaceOnUse"
      id="clipPath1667">
      <path
        d="M 570.09,35.04 H 834.12 V 564.12 H 570.09 Z"
        clip-rule="evenodd"
        id="path1665"
      />
    </clipPath>
    <clipPath
      clipPathUnits="userSpaceOnUse"
      id="clipPath1679">
      <path
        d="M 570.09,35.04 H 834.12 V 564.12 H 570.09 Z"
        clip-rule="evenodd"
        id="path1677"
      />
    </clipPath>
    <clipPath
      clipPathUnits="userSpaceOnUse"
      id="clipPath1691">
      <path
        d="M 570.09,35.04 H 834.12 V 564.12 H 570.09 Z"
        clip-rule="evenodd"
        id="path1689"
      />
    </clipPath>
    <clipPath
      clipPathUnits="userSpaceOnUse"
      id="clipPath1699">
      <path
        d="M 570.09,35.04 H 834.12 V 564.12 H 570.09 Z"
        clip-rule="evenodd"
        id="path1697"
      />
    </clipPath>
    <clipPath
      clipPathUnits="userSpaceOnUse"
      id="clipPath1711">
      <path
        d="M 570.09,35.04 H 834.12 V 564.12 H 570.09 Z"
        clip-rule="evenodd"
        id="path1709"
      />
    </clipPath>
    <clipPath
      clipPathUnits="userSpaceOnUse"
      id="clipPath1723">
      <path
        d="M 570.09,35.04 H 834.12 V 564.12 H 570.09 Z"
        clip-rule="evenodd"
        id="path1721"
      />
    </clipPath>
    <clipPath
      clipPathUnits="userSpaceOnUse"
      id="clipPath1731">
      <path
        d="M 570.09,35.04 H 834.12 V 564.12 H 570.09 Z"
        clip-rule="evenodd"
        id="path1729"
      />
    </clipPath>
    <clipPath
      clipPathUnits="userSpaceOnUse"
      id="clipPath1743">
      <path
        d="M 570.09,35.04 H 834.12 V 564.12 H 570.09 Z"
        clip-rule="evenodd"
        id="path1741"
      />
    </clipPath>
    <clipPath
      clipPathUnits="userSpaceOnUse"
      id="clipPath1751">
      <path
        d="M 570.09,35.04 H 834.12 V 564.12 H 570.09 Z"
        clip-rule="evenodd"
        id="path1749"
      />
    </clipPath>
    <clipPath
      clipPathUnits="userSpaceOnUse"
      id="clipPath1763">
      <path
        d="M 570.09,35.04 H 834.12 V 564.12 H 570.09 Z"
        clip-rule="evenodd"
        id="path1761"
      />
    </clipPath>
    <clipPath
      clipPathUnits="userSpaceOnUse"
      id="clipPath1771">
      <path
        d="M 570.09,35.04 H 834.12 V 564.12 H 570.09 Z"
        clip-rule="evenodd"
        id="path1769"
      />
    </clipPath>
    <clipPath
      clipPathUnits="userSpaceOnUse"
      id="clipPath1783">
      <path
        d="M 570.09,35.04 H 834.12 V 564.12 H 570.09 Z"
        clip-rule="evenodd"
        id="path1781"
      />
    </clipPath>
    <clipPath
      clipPathUnits="userSpaceOnUse"
      id="clipPath1795">
      <path
        d="M 570.09,35.04 H 834.12 V 564.12 H 570.09 Z"
        clip-rule="evenodd"
        id="path1793"
      />
    </clipPath>
    <clipPath
      clipPathUnits="userSpaceOnUse"
      id="clipPath1803">
      <path
        d="M 570.09,35.04 H 834.12 V 564.12 H 570.09 Z"
        clip-rule="evenodd"
        id="path1801"
      />
    </clipPath>
    <clipPath
      clipPathUnits="userSpaceOnUse"
      id="clipPath1815">
      <path
        d="M 570.09,35.04 H 834.12 V 564.12 H 570.09 Z"
        clip-rule="evenodd"
        id="path1813"
      />
    </clipPath>
    <clipPath
      clipPathUnits="userSpaceOnUse"
      id="clipPath1827">
      <path
        d="M 570.09,35.04 H 834.12 V 564.12 H 570.09 Z"
        clip-rule="evenodd"
        id="path1825"
      />
    </clipPath>
    <clipPath
      clipPathUnits="userSpaceOnUse"
      id="clipPath1839">
      <path
        d="M 570.09,35.04 H 834.12 V 564.12 H 570.09 Z"
        clip-rule="evenodd"
        id="path1837"
      />
    </clipPath>
    <clipPath
      clipPathUnits="userSpaceOnUse"
      id="clipPath1851">
      <path
        d="M 570.09,35.04 H 834.12 V 564.12 H 570.09 Z"
        clip-rule="evenodd"
        id="path1849"
      />
    </clipPath>
    <clipPath
      clipPathUnits="userSpaceOnUse"
      id="clipPath1863">
      <path
        d="M 570.09,35.04 H 834.12 V 564.12 H 570.09 Z"
        clip-rule="evenodd"
        id="path1861"
      />
    </clipPath>
    <clipPath
      clipPathUnits="userSpaceOnUse"
      id="clipPath1875">
      <path
        d="M 570.09,35.04 H 834.12 V 564.12 H 570.09 Z"
        clip-rule="evenodd"
        id="path1873"
      />
    </clipPath>
    <clipPath
      clipPathUnits="userSpaceOnUse"
      id="clipPath1887">
      <path
        d="M 570.09,35.04 H 834.12 V 564.12 H 570.09 Z"
        clip-rule="evenodd"
        id="path1885"
      />
    </clipPath>
    <clipPath
      clipPathUnits="userSpaceOnUse"
      id="clipPath1895">
      <path
        d="M 570.09,35.04 H 834.12 V 564.12 H 570.09 Z"
        clip-rule="evenodd"
        id="path1893"
      />
    </clipPath>
    <clipPath
      clipPathUnits="userSpaceOnUse"
      id="clipPath1907">
      <path
        d="M 570.09,35.04 H 834.12 V 564.12 H 570.09 Z"
        clip-rule="evenodd"
        id="path1905"
      />
    </clipPath>
    <clipPath
      clipPathUnits="userSpaceOnUse"
      id="clipPath1915">
      <path
        d="M 570.09,35.04 H 834.12 V 564.12 H 570.09 Z"
        clip-rule="evenodd"
        id="path1913"
      />
    </clipPath>
    <clipPath
      clipPathUnits="userSpaceOnUse"
      id="clipPath1927">
      <path
        d="M 570.09,35.04 H 834.12 V 564.12 H 570.09 Z"
        clip-rule="evenodd"
        id="path1925"
      />
    </clipPath>
    <clipPath
      clipPathUnits="userSpaceOnUse"
      id="clipPath1935">
      <path
        d="M 570.09,35.04 H 834.12 V 564.12 H 570.09 Z"
        clip-rule="evenodd"
        id="path1933"
      />
    </clipPath>
    <clipPath
      clipPathUnits="userSpaceOnUse"
      id="clipPath1947">
      <path
        d="M 570.09,35.04 H 834.12 V 564.12 H 570.09 Z"
        clip-rule="evenodd"
        id="path1945"
      />
    </clipPath>
    <clipPath
      clipPathUnits="userSpaceOnUse"
      id="clipPath1955">
      <path
        d="M 570.09,35.04 H 834.12 V 564.12 H 570.09 Z"
        clip-rule="evenodd"
        id="path1953"
      />
    </clipPath>
    <clipPath
      clipPathUnits="userSpaceOnUse"
      id="clipPath1967">
      <path
        d="M 570.09,35.04 H 834.12 V 564.12 H 570.09 Z"
        clip-rule="evenodd"
        id="path1965"
      />
    </clipPath>
    <clipPath
      clipPathUnits="userSpaceOnUse"
      id="clipPath1979">
      <path
        d="M 570.09,35.04 H 834.12 V 564.12 H 570.09 Z"
        clip-rule="evenodd"
        id="path1977"
      />
    </clipPath>
    <clipPath
      clipPathUnits="userSpaceOnUse"
      id="clipPath1987">
      <path
        d="M 570.09,35.04 H 834.12 V 564.12 H 570.09 Z"
        clip-rule="evenodd"
        id="path1985"
      />
    </clipPath>
    <clipPath
      clipPathUnits="userSpaceOnUse"
      id="clipPath1999">
      <path
        d="M 570.09,35.04 H 834.12 V 564.12 H 570.09 Z"
        clip-rule="evenodd"
        id="path1997"
      />
    </clipPath>
    <clipPath
      clipPathUnits="userSpaceOnUse"
      id="clipPath2011">
      <path
        d="M 570.09,35.04 H 834.12 V 564.12 H 570.09 Z"
        clip-rule="evenodd"
        id="path2009"
      />
    </clipPath>
    <clipPath
      clipPathUnits="userSpaceOnUse"
      id="clipPath2019">
      <path
        d="M 570.09,35.04 H 834.12 V 564.12 H 570.09 Z"
        clip-rule="evenodd"
        id="path2017"
      />
    </clipPath>
    <clipPath
      clipPathUnits="userSpaceOnUse"
      id="clipPath2031">
      <path
        d="M 570.09,35.04 H 834.12 V 564.12 H 570.09 Z"
        clip-rule="evenodd"
        id="path2029"
      />
    </clipPath>
    <clipPath
      clipPathUnits="userSpaceOnUse"
      id="clipPath2043">
      <path
        d="M 570.09,35.04 H 834.12 V 564.12 H 570.09 Z"
        clip-rule="evenodd"
        id="path2041"
      />
    </clipPath>
    <clipPath
      clipPathUnits="userSpaceOnUse"
      id="clipPath2051">
      <path
        d="M 570.09,35.04 H 834.12 V 564.12 H 570.09 Z"
        clip-rule="evenodd"
        id="path2049"
      />
    </clipPath>
    <clipPath
      clipPathUnits="userSpaceOnUse"
      id="clipPath2063">
      <path
        d="M 570.09,35.04 H 834.12 V 564.12 H 570.09 Z"
        clip-rule="evenodd"
        id="path2061"
      />
    </clipPath>
    <clipPath
      clipPathUnits="userSpaceOnUse"
      id="clipPath2075">
      <path
        d="M 570.09,35.04 H 834.12 V 564.12 H 570.09 Z"
        clip-rule="evenodd"
        id="path2073"
      />
    </clipPath>
    <clipPath
      clipPathUnits="userSpaceOnUse"
      id="clipPath2087">
      <path
        d="M 570.09,35.04 H 834.12 V 564.12 H 570.09 Z"
        clip-rule="evenodd"
        id="path2085"
      />
    </clipPath>
    <clipPath
      clipPathUnits="userSpaceOnUse"
      id="clipPath2095">
      <path
        d="M 570.09,35.04 H 834.12 V 564.12 H 570.09 Z"
        clip-rule="evenodd"
        id="path2093"
      />
    </clipPath>
    <clipPath
      clipPathUnits="userSpaceOnUse"
      id="clipPath2107">
      <path
        d="M 570.09,35.04 H 834.12 V 564.12 H 570.09 Z"
        clip-rule="evenodd"
        id="path2105"
      />
    </clipPath>
    <clipPath
      clipPathUnits="userSpaceOnUse"
      id="clipPath2119">
      <path
        d="M 570.09,35.04 H 834.12 V 564.12 H 570.09 Z"
        clip-rule="evenodd"
        id="path2117"
      />
    </clipPath>
    <clipPath
      clipPathUnits="userSpaceOnUse"
      id="clipPath2131">
      <path
        d="M 570.09,35.04 H 834.12 V 564.12 H 570.09 Z"
        clip-rule="evenodd"
        id="path2129"
      />
    </clipPath>
    <clipPath
      clipPathUnits="userSpaceOnUse"
      id="clipPath2143">
      <path
        d="M 570.09,35.04 H 834.12 V 564.12 H 570.09 Z"
        clip-rule="evenodd"
        id="path2141"
      />
    </clipPath>
    <clipPath
      clipPathUnits="userSpaceOnUse"
      id="clipPath2155">
      <path
        d="M 570.09,35.04 H 834.12 V 564.12 H 570.09 Z"
        clip-rule="evenodd"
        id="path2153"
      />
    </clipPath>
    <clipPath
      clipPathUnits="userSpaceOnUse"
      id="clipPath2167">
      <path
        d="M 570.09,35.04 H 834.12 V 564.12 H 570.09 Z"
        clip-rule="evenodd"
        id="path2165"
      />
    </clipPath>
    <clipPath
      clipPathUnits="userSpaceOnUse"
      id="clipPath2179">
      <path
        d="M 570.09,35.04 H 834.12 V 564.12 H 570.09 Z"
        clip-rule="evenodd"
        id="path2177"
      />
    </clipPath>
    <clipPath
      clipPathUnits="userSpaceOnUse"
      id="clipPath2187">
      <path
        d="M 570.09,35.04 H 834.12 V 564.12 H 570.09 Z"
        clip-rule="evenodd"
        id="path2185"
      />
    </clipPath>
    <clipPath
      clipPathUnits="userSpaceOnUse"
      id="clipPath2199">
      <path
        d="M 570.09,35.04 H 834.12 V 564.12 H 570.09 Z"
        clip-rule="evenodd"
        id="path2197"
      />
    </clipPath>
    <clipPath
      clipPathUnits="userSpaceOnUse"
      id="clipPath2207">
      <path
        d="M 570.09,35.04 H 834.12 V 564.12 H 570.09 Z"
        clip-rule="evenodd"
        id="path2205"
      />
    </clipPath>
    <clipPath
      clipPathUnits="userSpaceOnUse"
      id="clipPath2219">
      <path
        d="M 570.09,35.04 H 834.12 V 564.12 H 570.09 Z"
        clip-rule="evenodd"
        id="path2217"
      />
    </clipPath>
    <clipPath
      clipPathUnits="userSpaceOnUse"
      id="clipPath2227">
      <path
        d="M 570.09,35.04 H 834.12 V 564.12 H 570.09 Z"
        clip-rule="evenodd"
        id="path2225"
      />
    </clipPath>
    <clipPath
      clipPathUnits="userSpaceOnUse"
      id="clipPath2239">
      <path
        d="M 570.09,35.04 H 834.12 V 564.12 H 570.09 Z"
        clip-rule="evenodd"
        id="path2237"
      />
    </clipPath>
    <clipPath
      clipPathUnits="userSpaceOnUse"
      id="clipPath2247">
      <path
        d="M 570.09,35.04 H 834.12 V 564.12 H 570.09 Z"
        clip-rule="evenodd"
        id="path2245"
      />
    </clipPath>
    <clipPath
      clipPathUnits="userSpaceOnUse"
      id="clipPath2259">
      <path
        d="M 570.09,35.04 H 834.12 V 564.12 H 570.09 Z"
        clip-rule="evenodd"
        id="path2257"
      />
    </clipPath>
    <clipPath
      clipPathUnits="userSpaceOnUse"
      id="clipPath2271">
      <path
        d="M 570.09,35.04 H 834.12 V 564.12 H 570.09 Z"
        clip-rule="evenodd"
        id="path2269"
      />
    </clipPath>
    <clipPath
      clipPathUnits="userSpaceOnUse"
      id="clipPath2279">
      <path
        d="M 570.09,35.04 H 834.12 V 564.12 H 570.09 Z"
        clip-rule="evenodd"
        id="path2277"
      />
    </clipPath>
    <clipPath
      clipPathUnits="userSpaceOnUse"
      id="clipPath2291">
      <path
        d="M 570.09,35.04 H 834.12 V 564.12 H 570.09 Z"
        clip-rule="evenodd"
        id="path2289"
      />
    </clipPath>
    <clipPath
      clipPathUnits="userSpaceOnUse"
      id="clipPath2303">
      <path
        d="M 570.09,35.04 H 834.12 V 564.12 H 570.09 Z"
        clip-rule="evenodd"
        id="path2301"
      />
    </clipPath>
    <clipPath
      clipPathUnits="userSpaceOnUse"
      id="clipPath2315">
      <path
        d="M 570.09,35.04 H 834.12 V 564.12 H 570.09 Z"
        clip-rule="evenodd"
        id="path2313"
      />
    </clipPath>
    <clipPath
      clipPathUnits="userSpaceOnUse"
      id="clipPath2327">
      <path
        d="M 570.09,35.04 H 834.12 V 564.12 H 570.09 Z"
        clip-rule="evenodd"
        id="path2325"
      />
    </clipPath>
    <clipPath
      clipPathUnits="userSpaceOnUse"
      id="clipPath2335">
      <path
        d="M 570.09,35.04 H 834.12 V 564.12 H 570.09 Z"
        clip-rule="evenodd"
        id="path2333"
      />
    </clipPath>
    <clipPath
      clipPathUnits="userSpaceOnUse"
      id="clipPath2347">
      <path
        d="M 570.09,35.04 H 834.12 V 564.12 H 570.09 Z"
        clip-rule="evenodd"
        id="path2345"
      />
    </clipPath>
    <clipPath
      clipPathUnits="userSpaceOnUse"
      id="clipPath2359">
      <path
        d="M 570.09,35.04 H 834.12 V 564.12 H 570.09 Z"
        clip-rule="evenodd"
        id="path2357"
      />
    </clipPath>
    <clipPath
      clipPathUnits="userSpaceOnUse"
      id="clipPath2367">
      <path
        d="M 570.09,35.04 H 834.12 V 564.12 H 570.09 Z"
        clip-rule="evenodd"
        id="path2365"
      />
    </clipPath>
    <clipPath
      clipPathUnits="userSpaceOnUse"
      id="clipPath2379">
      <path
        d="M 570.09,35.04 H 834.12 V 564.12 H 570.09 Z"
        clip-rule="evenodd"
        id="path2377"
      />
    </clipPath>
    <clipPath
      clipPathUnits="userSpaceOnUse"
      id="clipPath2387">
      <path
        d="M 570.09,35.04 H 834.12 V 564.12 H 570.09 Z"
        clip-rule="evenodd"
        id="path2385"
      />
    </clipPath>
    <clipPath
      clipPathUnits="userSpaceOnUse"
      id="clipPath2399">
      <path
        d="M 570.09,35.04 H 834.12 V 564.12 H 570.09 Z"
        clip-rule="evenodd"
        id="path2397"
      />
    </clipPath>
    <clipPath
      clipPathUnits="userSpaceOnUse"
      id="clipPath2411">
      <path
        d="M 570.09,35.04 H 834.12 V 564.12 H 570.09 Z"
        clip-rule="evenodd"
        id="path2409"
      />
    </clipPath>
    <clipPath
      clipPathUnits="userSpaceOnUse"
      id="clipPath2421">
      <path
        d="M 570.09,35.04 H 834.12 V 564.12 H 570.09 Z"
        clip-rule="evenodd"
        id="path2419"
      />
    </clipPath>
    <clipPath
      clipPathUnits="userSpaceOnUse"
      id="clipPath2433">
      <path
        d="M 570.09,35.04 H 834.12 V 564.12 H 570.09 Z"
        clip-rule="evenodd"
        id="path2431"
      />
    </clipPath>
    <clipPath
      clipPathUnits="userSpaceOnUse"
      id="clipPath2441">
      <path
        d="M 570.09,35.04 H 834.12 V 564.12 H 570.09 Z"
        clip-rule="evenodd"
        id="path2439"
      />
    </clipPath>
    <clipPath
      clipPathUnits="userSpaceOnUse"
      id="clipPath2453">
      <path
        d="M 570.09,35.04 H 834.12 V 564.12 H 570.09 Z"
        clip-rule="evenodd"
        id="path2451"
      />
    </clipPath>
    <clipPath
      clipPathUnits="userSpaceOnUse"
      id="clipPath2465">
      <path
        d="M 570.09,35.04 H 834.12 V 564.12 H 570.09 Z"
        clip-rule="evenodd"
        id="path2463"
      />
    </clipPath>
    <clipPath
      clipPathUnits="userSpaceOnUse"
      id="clipPath2473">
      <path
        d="M 570.09,35.04 H 834.12 V 564.12 H 570.09 Z"
        clip-rule="evenodd"
        id="path2471"
      />
    </clipPath>
    <clipPath
      clipPathUnits="userSpaceOnUse"
      id="clipPath2485">
      <path
        d="M 570.09,35.04 H 834.12 V 564.12 H 570.09 Z"
        clip-rule="evenodd"
        id="path2483"
      />
    </clipPath>
    <clipPath
      clipPathUnits="userSpaceOnUse"
      id="clipPath2497">
      <path
        d="M 570.09,35.04 H 834.12 V 564.12 H 570.09 Z"
        clip-rule="evenodd"
        id="path2495"
      />
    </clipPath>
    <clipPath
      clipPathUnits="userSpaceOnUse"
      id="clipPath2509">
      <path
        d="M 570.09,35.04 H 834.12 V 564.12 H 570.09 Z"
        clip-rule="evenodd"
        id="path2507"
      />
    </clipPath>
    <clipPath
      clipPathUnits="userSpaceOnUse"
      id="clipPath2517">
      <path
        d="M 570.09,35.04 H 834.12 V 564.12 H 570.09 Z"
        clip-rule="evenodd"
        id="path2515"
      />
    </clipPath>
    <clipPath
      clipPathUnits="userSpaceOnUse"
      id="clipPath2529">
      <path
        d="M 570.09,35.04 H 834.12 V 564.12 H 570.09 Z"
        clip-rule="evenodd"
        id="path2527"
      />
    </clipPath>
    <clipPath
      clipPathUnits="userSpaceOnUse"
      id="clipPath2541">
      <path
        d="M 570.09,35.04 H 834.12 V 564.12 H 570.09 Z"
        clip-rule="evenodd"
        id="path2539"
      />
    </clipPath>
    <clipPath
      clipPathUnits="userSpaceOnUse"
      id="clipPath2553">
      <path
        d="M 570.09,35.04 H 834.12 V 564.12 H 570.09 Z"
        clip-rule="evenodd"
        id="path2551"
      />
    </clipPath>
    <clipPath
      clipPathUnits="userSpaceOnUse"
      id="clipPath2565">
      <path
        d="M 570.09,35.04 H 834.12 V 564.12 H 570.09 Z"
        clip-rule="evenodd"
        id="path2563"
      />
    </clipPath>
    <clipPath
      clipPathUnits="userSpaceOnUse"
      id="clipPath2573">
      <path
        d="M 570.09,35.04 H 834.12 V 564.12 H 570.09 Z"
        clip-rule="evenodd"
        id="path2571"
      />
    </clipPath>
    <clipPath
      clipPathUnits="userSpaceOnUse"
      id="clipPath2585">
      <path
        d="M 570.09,35.04 H 834.12 V 564.12 H 570.09 Z"
        clip-rule="evenodd"
        id="path2583"
      />
    </clipPath>
    <clipPath
      clipPathUnits="userSpaceOnUse"
      id="clipPath2597">
      <path
        d="M 570.09,35.04 H 834.12 V 564.12 H 570.09 Z"
        clip-rule="evenodd"
        id="path2595"
      />
    </clipPath>
    <clipPath
      clipPathUnits="userSpaceOnUse"
      id="clipPath2609">
      <path
        d="M 570.09,35.04 H 834.12 V 564.12 H 570.09 Z"
        clip-rule="evenodd"
        id="path2607"
      />
    </clipPath>
    <clipPath
      clipPathUnits="userSpaceOnUse"
      id="clipPath2621">
      <path
        d="M 570.09,35.04 H 834.12 V 564.12 H 570.09 Z"
        clip-rule="evenodd"
        id="path2619"
      />
    </clipPath>
    <clipPath
      clipPathUnits="userSpaceOnUse"
      id="clipPath2633">
      <path
        d="M 570.09,35.04 H 834.12 V 564.12 H 570.09 Z"
        clip-rule="evenodd"
        id="path2631"
      />
    </clipPath>
    <clipPath
      clipPathUnits="userSpaceOnUse"
      id="clipPath2645">
      <path
        d="M 570.09,35.04 H 834.12 V 564.12 H 570.09 Z"
        clip-rule="evenodd"
        id="path2643"
      />
    </clipPath>
    <clipPath
      clipPathUnits="userSpaceOnUse"
      id="clipPath2653">
      <path
        d="M 570.09,35.04 H 834.12 V 564.12 H 570.09 Z"
        clip-rule="evenodd"
        id="path2651"
      />
    </clipPath>
    <clipPath
      clipPathUnits="userSpaceOnUse"
      id="clipPath2665">
      <path
        d="M 570.09,35.04 H 834.12 V 564.12 H 570.09 Z"
        clip-rule="evenodd"
        id="path2663"
      />
    </clipPath>
    <clipPath
      clipPathUnits="userSpaceOnUse"
      id="clipPath2673">
      <path
        d="M 570.09,35.04 H 834.12 V 564.12 H 570.09 Z"
        clip-rule="evenodd"
        id="path2671"
      />
    </clipPath>
    <clipPath
      clipPathUnits="userSpaceOnUse"
      id="clipPath2685">
      <path
        d="M 570.09,35.04 H 834.12 V 564.12 H 570.09 Z"
        clip-rule="evenodd"
        id="path2683"
      />
    </clipPath>
    <clipPath
      clipPathUnits="userSpaceOnUse"
      id="clipPath2697">
      <path
        d="M 570.09,35.04 H 834.12 V 564.12 H 570.09 Z"
        clip-rule="evenodd"
        id="path2695"
      />
    </clipPath>
    <clipPath
      clipPathUnits="userSpaceOnUse"
      id="clipPath2709">
      <path
        d="M 570.09,35.04 H 834.12 V 564.12 H 570.09 Z"
        clip-rule="evenodd"
        id="path2707"
      />
    </clipPath>
    <clipPath
      clipPathUnits="userSpaceOnUse"
      id="clipPath2721">
      <path
        d="M 570.09,35.04 H 834.12 V 564.12 H 570.09 Z"
        clip-rule="evenodd"
        id="path2719"
      />
    </clipPath>
    <clipPath
      clipPathUnits="userSpaceOnUse"
      id="clipPath2733">
      <path
        d="M 570.09,35.04 H 834.12 V 564.12 H 570.09 Z"
        clip-rule="evenodd"
        id="path2731"
      />
    </clipPath>
    <clipPath
      clipPathUnits="userSpaceOnUse"
      id="clipPath2741">
      <path
        d="M 570.09,35.04 H 834.12 V 564.12 H 570.09 Z"
        clip-rule="evenodd"
        id="path2739"
      />
    </clipPath>
    <clipPath
      clipPathUnits="userSpaceOnUse"
      id="clipPath2749">
      <path
        d="M 570.09,35.04 H 834.12 V 564.12 H 570.09 Z"
        clip-rule="evenodd"
        id="path2747"
      />
    </clipPath>
    <clipPath
      clipPathUnits="userSpaceOnUse"
      id="clipPath2761">
      <path
        d="M 570.09,35.04 H 834.12 V 564.12 H 570.09 Z"
        clip-rule="evenodd"
        id="path2759"
      />
    </clipPath>
    <clipPath
      clipPathUnits="userSpaceOnUse"
      id="clipPath2769">
      <path
        d="M 570.09,35.04 H 834.12 V 564.12 H 570.09 Z"
        clip-rule="evenodd"
        id="path2767"
      />
    </clipPath>
    <clipPath
      clipPathUnits="userSpaceOnUse"
      id="clipPath2781">
      <path
        d="M 570.09,35.04 H 834.12 V 564.12 H 570.09 Z"
        clip-rule="evenodd"
        id="path2779"
      />
    </clipPath>
    <clipPath
      clipPathUnits="userSpaceOnUse"
      id="clipPath2793">
      <path
        d="M 570.09,35.04 H 834.12 V 564.12 H 570.09 Z"
        clip-rule="evenodd"
        id="path2791"
      />
    </clipPath>
    <clipPath
      clipPathUnits="userSpaceOnUse"
      id="clipPath2801">
      <path
        d="M 570.09,35.04 H 834.12 V 564.12 H 570.09 Z"
        clip-rule="evenodd"
        id="path2799"
      />
    </clipPath>
    <clipPath
      clipPathUnits="userSpaceOnUse"
      id="clipPath2813">
      <path
        d="M 570.09,35.04 H 834.12 V 564.12 H 570.09 Z"
        clip-rule="evenodd"
        id="path2811"
      />
    </clipPath>
    <clipPath
      clipPathUnits="userSpaceOnUse"
      id="clipPath2821">
      <path
        d="M 570.09,35.04 H 834.12 V 564.12 H 570.09 Z"
        clip-rule="evenodd"
        id="path2819"
      />
    </clipPath>
    <clipPath
      clipPathUnits="userSpaceOnUse"
      id="clipPath2833">
      <path
        d="M 570.09,35.04 H 834.12 V 564.12 H 570.09 Z"
        clip-rule="evenodd"
        id="path2831"
      />
    </clipPath>
    <clipPath
      clipPathUnits="userSpaceOnUse"
      id="clipPath2845">
      <path
        d="M 570.09,35.04 H 834.12 V 564.12 H 570.09 Z"
        clip-rule="evenodd"
        id="path2843"
      />
    </clipPath>
    <clipPath
      clipPathUnits="userSpaceOnUse"
      id="clipPath2857">
      <path
        d="M 570.09,35.04 H 834.12 V 564.12 H 570.09 Z"
        clip-rule="evenodd"
        id="path2855"
      />
    </clipPath>
    <clipPath
      clipPathUnits="userSpaceOnUse"
      id="clipPath2869">
      <path
        d="M 570.09,35.04 H 834.12 V 564.12 H 570.09 Z"
        clip-rule="evenodd"
        id="path2867"
      />
    </clipPath>
    <clipPath
      clipPathUnits="userSpaceOnUse"
      id="clipPath2881">
      <path
        d="M 570.09,35.04 H 834.12 V 564.12 H 570.09 Z"
        clip-rule="evenodd"
        id="path2879"
      />
    </clipPath>
    <clipPath
      clipPathUnits="userSpaceOnUse"
      id="clipPath2893">
      <path
        d="M 570.09,35.04 H 834.12 V 564.12 H 570.09 Z"
        clip-rule="evenodd"
        id="path2891"
      />
    </clipPath>
    <clipPath
      clipPathUnits="userSpaceOnUse"
      id="clipPath2905">
      <path
        d="M 570.09,35.04 H 834.12 V 564.12 H 570.09 Z"
        clip-rule="evenodd"
        id="path2903"
      />
    </clipPath>
    <clipPath
      clipPathUnits="userSpaceOnUse"
      id="clipPath2917">
      <path
        d="M 570.09,35.04 H 834.12 V 564.12 H 570.09 Z"
        clip-rule="evenodd"
        id="path2915"
      />
    </clipPath>
    <clipPath
      clipPathUnits="userSpaceOnUse"
      id="clipPath2925">
      <path
        d="M 570.09,35.04 H 834.12 V 564.12 H 570.09 Z"
        clip-rule="evenodd"
        id="path2923"
      />
    </clipPath>
    <clipPath
      clipPathUnits="userSpaceOnUse"
      id="clipPath2937">
      <path
        d="M 570.09,35.04 H 834.12 V 564.12 H 570.09 Z"
        clip-rule="evenodd"
        id="path2935"
      />
    </clipPath>
    <clipPath
      clipPathUnits="userSpaceOnUse"
      id="clipPath2949">
      <path
        d="M 570.09,35.04 H 834.12 V 564.12 H 570.09 Z"
        clip-rule="evenodd"
        id="path2947"
      />
    </clipPath>
    <clipPath
      clipPathUnits="userSpaceOnUse"
      id="clipPath2957">
      <path
        d="M 570.09,35.04 H 834.12 V 564.12 H 570.09 Z"
        clip-rule="evenodd"
        id="path2955"
      />
    </clipPath>
    <clipPath
      clipPathUnits="userSpaceOnUse"
      id="clipPath2969">
      <path
        d="M 570.09,35.04 H 834.12 V 564.12 H 570.09 Z"
        clip-rule="evenodd"
        id="path2967"
      />
    </clipPath>
    <clipPath
      clipPathUnits="userSpaceOnUse"
      id="clipPath2981">
      <path
        d="M 570.09,35.04 H 834.12 V 564.12 H 570.09 Z"
        clip-rule="evenodd"
        id="path2979"
      />
    </clipPath>
    <clipPath
      clipPathUnits="userSpaceOnUse"
      id="clipPath2993">
      <path
        d="M 570.09,35.04 H 834.12 V 564.12 H 570.09 Z"
        clip-rule="evenodd"
        id="path2991"
      />
    </clipPath>
    <clipPath
      clipPathUnits="userSpaceOnUse"
      id="clipPath3001">
      <path
        d="M 570.09,35.04 H 834.12 V 564.12 H 570.09 Z"
        clip-rule="evenodd"
        id="path2999"
      />
    </clipPath>
    <clipPath
      clipPathUnits="userSpaceOnUse"
      id="clipPath3013">
      <path
        d="M 570.09,35.04 H 834.12 V 564.12 H 570.09 Z"
        clip-rule="evenodd"
        id="path3011"
      />
    </clipPath>
    <clipPath
      clipPathUnits="userSpaceOnUse"
      id="clipPath3021">
      <path
        d="M 570.09,35.04 H 834.12 V 564.12 H 570.09 Z"
        clip-rule="evenodd"
        id="path3019"
      />
    </clipPath>
    <clipPath
      clipPathUnits="userSpaceOnUse"
      id="clipPath3033">
      <path
        d="M 570.09,35.04 H 834.12 V 564.12 H 570.09 Z"
        clip-rule="evenodd"
        id="path3031"
      />
    </clipPath>
    <clipPath
      clipPathUnits="userSpaceOnUse"
      id="clipPath3045">
      <path
        d="M 570.09,35.04 H 834.12 V 564.12 H 570.09 Z"
        clip-rule="evenodd"
        id="path3043"
      />
    </clipPath>
    <clipPath
      clipPathUnits="userSpaceOnUse"
      id="clipPath3053">
      <path
        d="M 570.09,35.04 H 834.12 V 564.12 H 570.09 Z"
        clip-rule="evenodd"
        id="path3051"
      />
    </clipPath>
    <clipPath
      clipPathUnits="userSpaceOnUse"
      id="clipPath3065">
      <path
        d="M 570.09,35.04 H 834.12 V 564.12 H 570.09 Z"
        clip-rule="evenodd"
        id="path3063"
      />
    </clipPath>
    <clipPath
      clipPathUnits="userSpaceOnUse"
      id="clipPath3077">
      <path
        d="M 570.09,35.04 H 834.12 V 564.12 H 570.09 Z"
        clip-rule="evenodd"
        id="path3075"
      />
    </clipPath>
    <clipPath
      clipPathUnits="userSpaceOnUse"
      id="clipPath3089">
      <path
        d="M 570.09,35.04 H 834.12 V 564.12 H 570.09 Z"
        clip-rule="evenodd"
        id="path3087"
      />
    </clipPath>
    <clipPath
      clipPathUnits="userSpaceOnUse"
      id="clipPath3101">
      <path
        d="M 570.09,35.04 H 834.12 V 564.12 H 570.09 Z"
        clip-rule="evenodd"
        id="path3099"
      />
    </clipPath>
    <clipPath
      clipPathUnits="userSpaceOnUse"
      id="clipPath3111">
      <path
        d="m 291.41,547.92 h 261.27 v 16.44 H 291.41 Z"
        clip-rule="evenodd"
        id="path3109"
      />
    </clipPath>
    <clipPath
      clipPathUnits="userSpaceOnUse"
      id="clipPath3123">
      <path
        d="m 291.41,547.92 h 261.27 v 16.44 H 291.41 Z"
        clip-rule="evenodd"
        id="path3121"
      />
    </clipPath>
    <clipPath
      clipPathUnits="userSpaceOnUse"
      id="clipPath3135">
      <path
        d="m 291.41,547.92 h 261.27 v 16.44 H 291.41 Z"
        clip-rule="evenodd"
        id="path3133"
      />
    </clipPath>
    <clipPath
      clipPathUnits="userSpaceOnUse"
      id="clipPath3147">
      <path
        d="m 291.41,547.92 h 261.27 v 16.44 H 291.41 Z"
        clip-rule="evenodd"
        id="path3145"
      />
    </clipPath>
    <clipPath
      clipPathUnits="userSpaceOnUse"
      id="clipPath3159">
      <path
        d="m 291.41,547.92 h 261.27 v 16.44 H 291.41 Z"
        clip-rule="evenodd"
        id="path3157"
      />
    </clipPath>
  </defs>
  <desc
    id="desc4">
    <referenceFile>adafruit-Anemometer_1_breadboard.svg</referenceFile>
  </desc>
</svg>
