<?xml version='1.0' encoding='UTF-8' standalone='no'?>
<!-- Created with Fritzing (http://www.fritzing.org/) -->
  <svg
  xmlns="http://www.w3.org/2000/svg"
  xmlns:svg="http://www.w3.org/2000/svg"
  xmlns:rdf="http://www.w3.org/1999/02/22-rdf-syntax-ns#"
  xmlns:cc="http://creativecommons.org/ns#"
  xmlns:dc="http://purl.org/dc/elements/1.1/"
  x="0in"
  version="1.2"
  gorn="0"
  viewBox="0 0 1484.7575 1597.1555"
  height="1.5971556in"
  width="1.4847574in"
  y="0in"
  id="svg53">
  <desc
    id="desc2">
    <referenceFile>Waveshare_1.28inch_Round_240x240_LCD_42207efa01759c8a990cb2f292acf4b1_1_breadboard.svg</referenceFile>
  </desc>
  <metadata
    id="metadata59">
    <rdf:RDF>
      <cc:Work
        rdf:about="">
        <dc:format>image/svg+xml</dc:format>
        <dc:type
          rdf:resource="http://purl.org/dc/dcmitype/StillImage"
        />
      </cc:Work>
    </rdf:RDF>
  </metadata>
  <defs
    id="defs57"
  />
  <g
    id="breadboard">
    <path
      id="path183"
      d="m 741.04041,30.501611 c 351.26929,-3.36047 718.74039,283.932479 716.19089,721.109349 -16.479,236.30971 -93.6429,472.84554 -395.1785,644.06114 l -54.7255,182.2019 H 458.78532 L 425.76566,1390.5021 C 257.94904,1353.4366 22.096734,1047.8458 26.630641,751.61096 18.225872,402.90365 315.96697,28.573566 741.04041,30.501611 Z"
      stroke="none"
      stroke-width="0"
    />
    <circle
      id="path225"
      cx="740.51227"
      cy="737.79529"
      r="660"
      fill="#666666"
      stroke="none"
      stroke-width="0"
    />
    <path
      id="circle361"
      d="M 1365.5036,949.89385 A 660,660 0 0 1 744.06401,1397.7857 660,660 0 0 1 117.83986,956.60815"
      fill="#ffffff"
      stroke="none"
      stroke-width="0"
    />
    <path
      id="rect39"
      d="M 741.55501,15.029543 C 1098.709,11.626173 1472.3359,302.58668 1469.7439,745.34449 1452.989,984.67093 1374.532,1224.2264 1067.9451,1397.6279 l -55.6421,184.5276 H 454.57143 L 420.9986,1392.3917 C 250.37064,1354.8531 10.567208,1045.3613 15.177068,745.34449 6.6314983,392.18565 309.36052,13.076883 741.55501,15.029543 Z"
      fill="none"
      stroke="#0055d4"
      stroke-width="30"
    />
    <text
      fill="#ffffff"
      font-family="OCRA"
      id="text3685"
      font-size="200"
      y="543.50085"
      x="365.25601">15:32</text>
    <text
      fill="#ffffff"
      font-family="OCRA"
      id="text555"
      font-size="120"
      y="779.74017"
      x="337.70026">02.12 Tue</text>
    <rect
      id="rect3430"
      width="58"
      height="58"
      x="362.00043"
      y="136"
      fill="none"
      stroke="#f7bd13"
      stroke-width="20"
    />
    <circle
      fill="none"
      stroke-width="20"
      stroke="#f7bd13"
      cy="391.22427"
      cx="-164.77757"
      id="connector0pin"
      r="29"
      transform="rotate(-90)"
    />
    <circle
      fill="none"
      stroke-width="20"
      stroke="#f7bd13"
      cy="491.22415"
      cx="-164.77757"
      id="connector1pin"
      r="29"
      transform="rotate(-90)"
    />
    <circle
      fill="none"
      stroke-width="20"
      stroke="#f7bd13"
      cy="591.22424"
      cx="-164.77757"
      id="connector2pin"
      r="29"
      transform="rotate(-90)"
    />
    <circle
      fill="none"
      stroke-width="20"
      stroke="#f7bd13"
      cy="691.22534"
      cx="-164.77757"
      id="connector3pin"
      r="29"
      transform="rotate(-90)"
    />
    <circle
      fill="none"
      stroke-width="20"
      stroke="#f7bd13"
      cy="791.22516"
      cx="-164.77757"
      id="connector4pin"
      r="29"
      transform="rotate(-90)"
    />
    <circle
      fill="none"
      stroke-width="20"
      stroke="#f7bd13"
      cy="891.22375"
      cx="-164.77757"
      id="connector5pin"
      r="29"
      transform="rotate(-90)"
    />
    <circle
      fill="none"
      stroke-width="20"
      stroke="#f7bd13"
      cy="991.22363"
      cx="-164.77757"
      id="connector6pin"
      r="29"
      transform="rotate(-90)"
    />
    <circle
      fill="none"
      stroke-width="20"
      stroke="#f7bd13"
      cy="1091.2236"
      cx="-164.77757"
      id="connector7pin"
      r="29"
      transform="rotate(-90)"
    />
  </g>
</svg>
