<?xml version='1.0' encoding='UTF-8' standalone='no'?>
<!-- Created with Fritzing (https://fritzing.org/) -->
<svg xmlns="http://www.w3.org/2000/svg" x="0in" viewBox="0 0 4.7345912 6.6046764" gorn="0" id="svg31" height="0.091731533in" y="0in"  version="1.2" width="0.065758236in">
    <desc >
        <referenceFile >breadboard.svg</referenceFile>
    </desc>
    <defs id="defs35" />
    <rect x="1.5170696" gorn="0.2" fill="none" id="connector0pin" stroke-width="0.36534" height="1.0132509" y="2.7127919"  width="0.68059844"/>
    <rect x="2.6200051" gorn="0.3" fill="none" id="connector1pin" stroke-width="0.36534" height="1.0123128" y="2.755949"  width="0.61458731"/>
    <rect x="1.1200037" gorn="0.4" fill="none" id="connector1terminal" stroke-width="0.36534" height="1.0123128" y="2.755949"  width="0.61458731"/>
    <rect x="1.5170696" gorn="0.5" fill="none" id="connector0terminal" stroke-width="0.36534" height="1.0132509" y="2.7127919"  width="0.61430269"/>
    <ellipse cx="2.3782511" gorn="0.6" cy="3.3023384" fill="#ff0000" id="circle16" stroke-width="0.55932" rx="2.3550613" fill-opacity="1"  ry="3.3023384"/>
    <g  transform="translate(-0.58100372,-2.324)">
        <g >
            <polygon display="none" gorn="0.7.0.0" fill="#bca061" id="polygon18"  points="5.225,11.6 13.027,5.394 11.884,3.67 3.729,8.833 "/>
        </g>
    </g>
</svg>
