<?xml version='1.0' encoding='UTF-8' standalone='no'?>
<svg
  xmlns:dc="http://purl.org/dc/elements/1.1/"
  xmlns:cc="http://creativecommons.org/ns#"
  xmlns:rdf="http://www.w3.org/1999/02/22-rdf-syntax-ns#"
  xmlns:svg="http://www.w3.org/2000/svg"
  xmlns="http://www.w3.org/2000/svg"
  x="0in"
  viewBox="0 0 586.61433 797.40172"
  id="svg94"
  width="0.58661431in"
  height="0.79740173in"
  version="1.2"
  y="0in">
  <desc
    id="desc2">
    <referenceFile>E22-900M22S_1_pcb.svg</referenceFile>
  </desc>
  <metadata
    id="metadata100">
    <rdf:RDF>
      <cc:Work
        rdf:about="">
        <dc:format>image/svg+xml</dc:format>
        <dc:type
          rdf:resource="http://purl.org/dc/dcmitype/StillImage"
        />
        <dc:title/>
      </cc:Work>
    </rdf:RDF>
  </metadata>
  <defs
    id="defs98"
  />
  <g
    id="silkscreen">
    <rect
      id="rect201"
      width="551.18127"
      height="787.40179"
      x="22.011776"
      y="5"
      fill="none"
      stroke="#000000"
      stroke-width="10"
    />
  </g>
  <g
    id="copper1">
    <path
      d="m 527.55921,768.77977 v -31.49608 h 59.05513 v 31.49608 z"
      id="connector0pad"
      fill="#febf10"
      stroke="none"
      stroke-width="0"
    />
    <path
      d="m 527.55921,718.77975 v -31.49608 h 59.05513 v 31.49608 z"
      id="connector1pad"
      fill="#febf10"
      stroke="none"
      stroke-width="0"
    />
    <path
      d="m 527.55921,668.77974 v -31.49608 h 59.05513 v 31.49608 z"
      id="connector2pad"
      fill="#febf10"
      stroke="none"
      stroke-width="0"
    />
    <path
      d="m 527.55921,449.48831 v -31.49607 h 59.05512 v 31.49607 z"
      id="connector3pad"
      fill="#febf10"
      stroke="none"
      stroke-width="0"
    />
    <path
      d="m 527.55921,399.4883 v -31.49608 h 59.05511 v 31.49608 z"
      id="connector4pad"
      fill="#febf10"
      stroke="none"
      stroke-width="0"
    />
    <path
      d="m 527.55921,349.48828 v -31.49607 h 59.05512 v 31.49607 z"
      id="connector5pad"
      fill="#febf10"
      stroke="none"
      stroke-width="0"
    />
    <path
      d="m 527.55921,299.48826 v -31.49607 h 59.05512 v 31.49607 z"
      id="connector6pad"
      fill="#febf10"
      stroke="none"
      stroke-width="0"
    />
    <path
      d="m 527.55921,249.48825 v -31.49607 h 59.05512 v 31.49607 z"
      id="connector7pad"
      fill="#febf10"
      stroke="none"
      stroke-width="0"
    />
    <path
      d="m 527.55921,199.48823 v -31.49607 h 59.05512 v 31.49607 z"
      id="connector8pad"
      fill="#febf10"
      stroke="none"
      stroke-width="0"
    />
    <path
      d="m 527.55921,149.48822 v -31.49607 h 59.05511 v 31.49607 z"
      id="connector9pad"
      fill="#febf10"
      stroke="none"
      stroke-width="0"
    />
    <path
      d="M 527.55921,99.488198 V 67.99213 h 59.05511 v 31.496068 z"
      id="connector10pad"
      fill="#febf10"
      stroke="none"
      stroke-width="0"
    />
    <path
      d="M 0,99.4882 V 67.99213 H 59.05513 V 99.4882 Z"
      id="connector11pad"
      fill="#febf10"
      stroke="none"
      stroke-width="0"
    />
    <path
      d="m 0,149.48822 v -31.49607 h 59.05513 v 31.49607 z"
      id="connector12pad"
      fill="#febf10"
      stroke="none"
      stroke-width="0"
    />
    <path
      d="m 0,199.48823 v -31.49607 h 59.05514 v 31.49607 z"
      id="connector13pad"
      fill="#febf10"
      stroke="none"
      stroke-width="0"
    />
    <path
      d="m 0,249.48825 v -31.49607 h 59.05514 v 31.49607 z"
      id="connector14pad"
      fill="#febf10"
      stroke="none"
      stroke-width="0"
    />
    <path
      d="m 0,299.48826 v -31.49607 h 59.05514 v 31.49607 z"
      id="connector15pad"
      fill="#febf10"
      stroke="none"
      stroke-width="0"
    />
    <path
      d="m 0,349.48828 v -31.49607 h 59.05514 v 31.49607 z"
      id="connector16pad"
      fill="#febf10"
      stroke="none"
      stroke-width="0"
    />
    <path
      d="M 0,399.4883 V 367.99222 H 59.05513 V 399.4883 Z"
      id="connector17pad"
      fill="#febf10"
      stroke="none"
      stroke-width="0"
    />
    <path
      d="m 0,449.48831 v -31.49607 h 59.05514 v 31.49607 z"
      id="connector18pad"
      fill="#febf10"
      stroke="none"
      stroke-width="0"
    />
    <path
      d="m 0,668.77974 v -31.49608 h 59.05513 v 31.49608 z"
      id="connector19pad"
      fill="#febf10"
      stroke="none"
      stroke-width="0"
    />
    <path
      d="m 0,718.77975 v -31.49608 h 59.05513 v 31.49608 z"
      id="connector20pad"
      fill="#febf10"
      stroke="none"
      stroke-width="0"
    />
    <path
      d="m 0,768.77977 v -31.49608 h 59.05513 v 31.49608 z"
      id="connector21pad"
      fill="#febf10"
      stroke="none"
      stroke-width="0"
    />
  </g>
</svg>
