<?xml version='1.0' encoding='UTF-8' standalone='no'?>
<svg
  xmlns="http://www.w3.org/2000/svg"
  xmlns:svg="http://www.w3.org/2000/svg"
  xmlns:rdf="http://www.w3.org/1999/02/22-rdf-syntax-ns#"
  xmlns:cc="http://creativecommons.org/ns#"
  xmlns:dc="http://purl.org/dc/elements/1.1/"
  shape-rendering="crispEdges"
  viewBox="0 0 1670.3224 706.70729"
  x="0in"
  width="1.6703224in"
  height="0.7067073in"
  version="1.2"
  y="0in"
  id="svg2">
  <metadata
    id="metadata27">
    <rdf:RDF>
      <cc:Work
        rdf:about="">
        <dc:format>image/svg+xml</dc:format>
        <dc:type
          rdf:resource="http://purl.org/dc/dcmitype/StillImage"
        />
      </cc:Work>
    </rdf:RDF>
  </metadata>
  <defs
    id="defs25"
  />
  <desc
    id="desc4">
    <referenceFile>battery-capcity-indicator-module-1s-8s_1_pcb.svg</referenceFile>
  </desc>
  <g
    id="silkscreen">
    <path
      id="rect763"
      d="M 214.68503,5 H 1435.1575 v 99.90622 l 137.5278,1.87711 v 170.95588 l 92.6371,1.26397 v 196.85038 l -92.6371,5.92459 V 623.4943 h -137.5278 v 78.21298 H 214.68503 l 0.13504,-78.21298 H 77.820068 L 77.504547,477.02365 v 0 L 5,475.85356 V 279.00318 l 72.504547,-2.2704 V 106.78333 L 213.4848,106.5829 Z"
      fill="none"
      stroke="#000000"
      stroke-width="10"
    />
    <circle
      id="circle1285"
      cx="172.20471"
      cy="374.50439"
      r="39.370075"
      fill="#000000"
      stroke="none"
      stroke-width="0"
    />
    <circle
      id="circle1283"
      cx="1483.243"
      cy="374.50439"
      r="39.370075"
      fill="#000000"
      stroke="none"
      stroke-width="0"
    />
  </g>
  <g
    id="copper1">
    <g
      id="copper0">
      <circle
        id="connector0pin"
        cx="1472.8732"
        cy="475.79517"
        r="29"
        fill="none"
        stroke="#F7BD13"
        stroke-width="20"
      />
      <circle
        id="connector1pin"
        cx="1472.8732"
        cy="575.49512"
        r="29"
        fill="none"
        stroke="#F7BD13"
        stroke-width="20"
      />
    </g>
  </g>
</svg>
