<?xml version='1.0' encoding='UTF-8' standalone='no'?>
<svg xmlns="http://www.w3.org/2000/svg" gorn="0"  version="1.1" id="svg1089" height="70.764847" width="87.362244">
    <desc  id="desc733">
        <referenceFile >hm-trp2.svg</referenceFile>
    </desc>
    <metadata  id="metadata1095">
        <rdf:RDF xmlns:rdf="http://www.w3.org/1999/02/22-rdf-syntax-ns#">
            <cc:Work xmlns:cc="http://creativecommons.org/ns#" rdf:about="" xmlns:rdf="http://www.w3.org/1999/02/22-rdf-syntax-ns#">
                <dc:format xmlns:dc="http://purl.org/dc/elements/1.1/">image/svg+xml</dc:format>
                <dc:type xmlns:dc="http://purl.org/dc/elements/1.1/" rdf:resource="http://purl.org/dc/dcmitype/StillImage" xmlns:rdf="http://www.w3.org/1999/02/22-rdf-syntax-ns#"/>
            </cc:Work>
        </rdf:RDF>
    </metadata>
    <defs  id="defs1093"/>
    <!-- Created with SVG-edit - https://github.com/SVG-Edit/svgedit-->
    <g  transform="scale(0.88854055,1.125441)">
        <g >
            <g >
                <g >
                    <g >
                        <g >
                            <g >
                                <g >
                                    <g >
                                        <g >
                                            <text fill="#000000" gorn="0.3.0.0.0.0.0.0.0.0.0.0"  xmlns:xml="http://www.w3.org/XML/1998/namespace" stroke-width="0" id="svg_11" font-family="Droid Sans" font-size="6.28469" y="34.03199" stroke="#000000" text-anchor="middle" x="49.87291" xml:space="preserve">HM-TRP</text>
                                        </g>
                                    </g>
                                </g>
                            </g>
                        </g>
                    </g>
                </g>
            </g>
        </g>
    </g>
    <g  transform="scale(0.88854054,1.125441)">
        <g >
            <g >
                <g >
                    <g >
                        <g >
                            <g >
                                <g >
                                    <g >
                                        <g >
                                            <text fill="#000000" gorn="0.4.0.0.0.0.0.0.0.0.0.0"  xmlns:xml="http://www.w3.org/XML/1998/namespace" stroke-width="0" id="svg_12" font-family="Droid Sans" font-size="4.71352" y="17.417854" stroke="#000000" text-anchor="middle" x="77.259933" xml:space="preserve">ANT</text>
                                        </g>
                                    </g>
                                </g>
                            </g>
                        </g>
                    </g>
                </g>
            </g>
        </g>
    </g>
    <g  transform="scale(0.88854054,1.125441)">
        <g >
            <g >
                <g >
                    <g >
                        <g >
                            <g >
                                <g >
                                    <g >
                                        <g >
                                            <text fill="#000000" gorn="0.5.0.0.0.0.0.0.0.0.0.0"  xmlns:xml="http://www.w3.org/XML/1998/namespace" stroke-width="0" id="svg_13" font-family="Droid Sans" font-size="4.71352" y="23.803787" stroke="#000000" text-anchor="middle" x="78.109253" xml:space="preserve">GND</text>
                                        </g>
                                    </g>
                                </g>
                            </g>
                        </g>
                    </g>
                </g>
            </g>
        </g>
    </g>
    <g  transform="scale(0.88854054,1.125441)">
        <g >
            <g >
                <g >
                    <g >
                        <g >
                            <g >
                                <g >
                                    <g >
                                        <g >
                                            <text fill="#000000" gorn="0.6.0.0.0.0.0.0.0.0.0.0"  xmlns:xml="http://www.w3.org/XML/1998/namespace" stroke-width="0" id="svg_14" font-family="Droid Sans" font-size="4.71352" y="18.110962" stroke="#000000" text-anchor="middle" x="20.303373" xml:space="preserve">VCC</text>
                                        </g>
                                    </g>
                                </g>
                            </g>
                        </g>
                    </g>
                </g>
            </g>
        </g>
    </g>
    <g  transform="scale(0.88854054,1.125441)">
        <g >
            <g >
                <g >
                    <g >
                        <g >
                            <g >
                                <g >
                                    <g >
                                        <g >
                                            <text fill="#000000" gorn="0.7.0.0.0.0.0.0.0.0.0.0"  xmlns:xml="http://www.w3.org/XML/1998/namespace" stroke-width="0" id="svg_15" font-family="Droid Sans" font-size="4.71352" y="23.275679" stroke="#000000" text-anchor="middle" x="20.239647" xml:space="preserve">DTX</text>
                                        </g>
                                    </g>
                                </g>
                            </g>
                        </g>
                    </g>
                </g>
            </g>
        </g>
    </g>
    <g  transform="scale(0.88854054,1.125441)">
        <g >
            <g >
                <g >
                    <g >
                        <g >
                            <g >
                                <g >
                                    <g >
                                        <g >
                                            <text fill="#000000" gorn="0.8.0.0.0.0.0.0.0.0.0.0"  xmlns:xml="http://www.w3.org/XML/1998/namespace" stroke-width="0" id="svg_16" font-family="Droid Sans" font-size="4.71352" y="28.867266" stroke="#000000" text-anchor="middle" x="20.97147" xml:space="preserve">GND</text>
                                        </g>
                                    </g>
                                </g>
                            </g>
                        </g>
                    </g>
                </g>
            </g>
        </g>
    </g>
    <g  transform="scale(0.88854054,1.125441)">
        <g >
            <g >
                <g >
                    <g >
                        <g >
                            <g >
                                <g >
                                    <g >
                                        <g >
                                            <text fill="#000000" gorn="0.9.0.0.0.0.0.0.0.0.0.0"  xmlns:xml="http://www.w3.org/XML/1998/namespace" stroke-width="0" id="svg_17" font-family="Droid Sans" font-size="4.71352" y="34.293846" stroke="#000000" text-anchor="middle" x="20.437782" xml:space="preserve">DRX</text>
                                        </g>
                                    </g>
                                </g>
                            </g>
                        </g>
                    </g>
                </g>
            </g>
        </g>
    </g>
    <g  transform="scale(0.88854054,1.125441)">
        <g >
            <g >
                <g >
                    <g >
                        <g >
                            <g >
                                <g >
                                    <g >
                                        <g >
                                            <text fill="#000000" gorn="0.10.0.0.0.0.0.0.0.0.0.0"  xmlns:xml="http://www.w3.org/XML/1998/namespace" stroke-width="0" id="svg_18" font-family="Droid Sans" font-size="4.71352" y="39.674194" stroke="#000000" text-anchor="middle" x="24.926283" xml:space="preserve">CONFIG</text>
                                        </g>
                                    </g>
                                </g>
                            </g>
                        </g>
                    </g>
                </g>
            </g>
        </g>
    </g>
    <g  transform="scale(0.88854055,1.125441)">
        <g >
            <g >
                <g >
                    <g >
                        <g >
                            <g >
                                <g >
                                    <g >
                                        <g >
                                            <text fill="#000000" gorn="0.11.0.0.0.0.0.0.0.0.0.0"  xmlns:xml="http://www.w3.org/XML/1998/namespace" stroke-width="0" id="svg_19" font-family="Droid Sans" font-size="4.71352" y="45.367016" stroke="#000000" text-anchor="middle" x="24.835674" xml:space="preserve">ENABLE</text>
                                        </g>
                                    </g>
                                </g>
                            </g>
                        </g>
                    </g>
                </g>
            </g>
        </g>
    </g>
    <g  transform="scale(0.88854054,1.125441)">
        <g >
            <g >
                <g >
                    <g >
                        <g >
                            <g >
                                <g >
                                    <g >
                                        <g >
                                            <text fill="#000000" gorn="0.12.0.0.0.0.0.0.0.0.0.0"  xmlns:xml="http://www.w3.org/XML/1998/namespace" stroke-width="0" id="svg_20" font-family="Droid Sans" font-size="4.71352" y="50.962978" stroke="#000000" text-anchor="middle" x="22.082642" xml:space="preserve">TEST</text>
                                        </g>
                                    </g>
                                </g>
                            </g>
                        </g>
                    </g>
                </g>
            </g>
        </g>
    </g>
    <rect fill="#000000" gorn="0.13"  stroke-width="1.14552" id="svg_21" fill-opacity="0" y="11.860556" stroke="#000000" height="49.934696" width="65.292397" x="10.566909"/>
    <line x2="11.466036" x1="-3.7725158" fill="none" gorn="0.14"  stroke-linecap="round" class="pin" stroke-width="0.790454" id="connector15pin" y1="55.494984" y2="55.494984" stroke="#787878"/>
    <line x2="10.944062" x1="-4.2944889" fill="none" gorn="0.15"  stroke-linecap="round" class="pin" stroke-width="0.790454" id="connector13pin" y1="49.194866" y2="49.194866" stroke="#787878"/>
    <line x2="11.361643" x1="-3.87691" fill="none" gorn="0.16"  stroke-linecap="round" class="pin" stroke-width="0.790454" id="connector12pin" y1="42.775871" y2="42.775871" stroke="#787878"/>
    <line x2="11.466036" x1="-3.7725158" fill="none" gorn="0.17"  stroke-linecap="round" class="pin" stroke-width="0.790454" id="connector11pin" y1="36.594624" y2="36.594624" stroke="#787878"/>
    <line x2="11.466037" x1="-3.7725158" fill="none" gorn="0.18"  stroke-linecap="round" class="pin" stroke-width="0.790454" id="connector10erminal" y1="30.948296" y2="30.948296" stroke="#787878"/>
    <line x2="11.257247" x1="-3.9813044" fill="none" gorn="0.19"  stroke-linecap="round" class="pin" stroke-width="0.790454" id="connector9pin" y1="24.707611" y2="24.707611" stroke="#787878"/>
    <line x2="11.257247" x1="-3.9813044" fill="none" gorn="0.20"  stroke-linecap="round" class="pin" stroke-width="0.790454" id="connector8pin" y1="18.526361" y2="18.526361" stroke="#787878"/>
    <line x2="90.597092" x1="75.358551" fill="none" gorn="0.21"  stroke-linecap="round" class="pin" stroke-width="0.790454" id="connector7pin" y1="18.169752" y2="18.169752" stroke="#787878"/>
    <line x2="90.805885" x1="75.567329" fill="none" gorn="0.22"  stroke-linecap="round" class="pin" stroke-width="0.790454" id="connector6pin" y1="23.847111" y2="23.847111" stroke="#787878"/>
</svg>
