<?xml version='1.0' encoding='UTF-8'?>
<svg xmlns="http://www.w3.org/2000/svg"  viewBox="0 0 140 240" baseProfile="tiny" height="0.24in" width="0.14in" version="1.2">
    <desc >
        <referenceFile >nsjumper_2_100mil_pcb.svg</referenceFile>
    </desc>
    <desc >Fritzing footprint SVG</desc>
    <g  gorn="0.2" id="silkscreen">
        <line  x1="20" y2="220" stroke-width="10" x2="20" stroke="white" y1="20"/>
        <line  x1="20" y2="220" stroke-width="10" x2="120" stroke="white" y1="220"/>
        <line  x1="120" y2="20" stroke-width="10" x2="120" stroke="white" y1="220"/>
        <line  x1="120" y2="20" stroke-width="10" x2="20" stroke="white" y1="20"/>
        <line  x1="20" y2="20" stroke-width="5" x2="55" stroke="white" y1="55"/>
        <!-- 120 -->
    </g>
    <g  gorn="0.3" id="copper1">
        <g  gorn="0.3.0" id="copper0">
            <circle cy="70"  cx="70" fill="none" stroke-width="20" stroke="rgb(255, 191, 0)" r="29" gorn="0.3.0.0" id="connector2pad"/>
            <circle cy="170"  cx="70" fill="none" stroke-width="20" stroke="rgb(255, 191, 0)" r="29" gorn="0.3.0.1" id="connector3pad"/>
        </g>
    </g>
</svg>
