<?xml version='1.0' encoding='UTF-8' standalone='no'?>
<!-- Generator: Adobe Illustrator 15.0.0, SVG Export Plug-In . SVG Version: 6.00 Build 0)  -->
<svg xmlns="http://www.w3.org/2000/svg" width="0.902778in" x="0px" version="1.1" y="0px" gorn="0"  viewBox="0 0 65 130" height="1.80556in" xmlns:xml="http://www.w3.org/XML/1998/namespace" enable-background="new 0 0 65 130" id="Layer_1" xml:space="preserve">
    <desc >
        <referenceFile >LuaNode32_ESP32_Schema.svg</referenceFile>
    </desc>
    <metadata  id="metadata133">
        <rdf:RDF xmlns:rdf="http://www.w3.org/1999/02/22-rdf-syntax-ns#">
            <cc:Work xmlns:rdf="http://www.w3.org/1999/02/22-rdf-syntax-ns#" xmlns:cc="http://creativecommons.org/ns#" rdf:about="">
                <dc:format xmlns:dc="http://purl.org/dc/elements/1.1/">image/svg+xml</dc:format>
                <dc:type xmlns:rdf="http://www.w3.org/1999/02/22-rdf-syntax-ns#" rdf:resource="http://purl.org/dc/dcmitype/StillImage" xmlns:dc="http://purl.org/dc/elements/1.1/"/>
                <dc:title xmlns:dc="http://purl.org/dc/elements/1.1/"/>
            </cc:Work>
        </rdf:RDF>
    </metadata>
    <defs  id="defs131"/>
    <g gorn="0.3"  style="font-style:normal;font-variant:normal;font-weight:normal;font-stretch:normal;font-size:3.5px;font-family:DroidSans;-inkscape-font-specification:'DroidSans, Normal';font-variant-ligatures:normal;font-variant-caps:normal;font-variant-numeric:normal;font-feature-settings:normal;text-align:end;writing-mode:lr-tb;text-anchor:end;fill:#231f20" id="text2" font-size="3.5">
        <text x="55.907959" y="16.316401" gorn="0.3.0"  id="tspan7780">D23</text>
    </g>
    <g gorn="0.4"  style="font-style:normal;font-variant:normal;font-weight:normal;font-stretch:normal;font-size:3.5px;font-family:DroidSans;-inkscape-font-specification:'DroidSans, Normal';font-variant-ligatures:normal;font-variant-caps:normal;font-variant-numeric:normal;font-feature-settings:normal;text-align:end;writing-mode:lr-tb;text-anchor:end;fill:#231f20" id="text4" font-size="3.5">
        <text x="55.907959" y="23.507799" gorn="0.4.0"  id="tspan7778">D22</text>
    </g>
    <g gorn="0.5"  style="font-style:normal;font-variant:normal;font-weight:normal;font-stretch:normal;font-size:3.5px;font-family:DroidSans;-inkscape-font-specification:'DroidSans, Normal';font-variant-ligatures:normal;font-variant-caps:normal;font-variant-numeric:normal;font-feature-settings:normal;text-align:end;writing-mode:lr-tb;text-anchor:end;fill:#231f20" id="text6" font-size="3.5">
        <text x="55.625977" y="30.6992" gorn="0.5.0"  id="tspan7776">TX0</text>
    </g>
    <g gorn="0.6"  style="font-style:normal;font-variant:normal;font-weight:normal;font-stretch:normal;font-size:3.5px;font-family:DroidSans;-inkscape-font-specification:'DroidSans, Normal';font-variant-ligatures:normal;font-variant-caps:normal;font-variant-numeric:normal;font-feature-settings:normal;text-align:end;writing-mode:lr-tb;text-anchor:end;fill:#231f20" id="text8" font-size="3.5">
        <text x="55.566162" y="37.890598" gorn="0.6.0"  id="tspan7774">RX0</text>
    </g>
    <g gorn="0.7"  style="font-style:normal;font-variant:normal;font-weight:normal;font-stretch:normal;font-size:3.5px;font-family:DroidSans;-inkscape-font-specification:'DroidSans, Normal';font-variant-ligatures:normal;font-variant-caps:normal;font-variant-numeric:normal;font-feature-settings:normal;text-align:end;writing-mode:lr-tb;text-anchor:end;fill:#231f20" id="text10" font-size="3.5">
        <text x="55.907959" y="45.0811" gorn="0.7.0"  id="tspan7772">D21</text>
    </g>
    <g gorn="0.8"  style="font-style:normal;font-variant:normal;font-weight:normal;font-stretch:normal;font-size:3.5px;font-family:DroidSans;-inkscape-font-specification:'DroidSans, Normal';font-variant-ligatures:normal;font-variant-caps:normal;font-variant-numeric:normal;font-feature-settings:normal;text-align:end;writing-mode:lr-tb;text-anchor:end;fill:#231f20" id="text12" font-size="3.5">
        <text x="55.907959" y="52.272499" gorn="0.8.0"  id="tspan7770">D19</text>
    </g>
    <g gorn="0.9"  style="font-style:normal;font-variant:normal;font-weight:normal;font-stretch:normal;font-size:3.5px;font-family:DroidSans;-inkscape-font-specification:'DroidSans, Normal';font-variant-ligatures:normal;font-variant-caps:normal;font-variant-numeric:normal;font-feature-settings:normal;text-align:end;writing-mode:lr-tb;text-anchor:end;fill:#231f20" id="text14" font-size="3.5">
        <text x="55.907959" y="59.462898" gorn="0.9.0"  id="tspan7768">D18</text>
    </g>
    <text x="53.980225" y="66.654297" gorn="0.10"  style="font-style:normal;font-variant:normal;font-weight:normal;font-stretch:normal;font-size:3.5px;font-family:DroidSans;-inkscape-font-specification:'DroidSans, Normal';font-variant-ligatures:normal;font-variant-caps:normal;font-variant-numeric:normal;font-feature-settings:normal;text-align:end;writing-mode:lr-tb;text-anchor:end;fill:#231f20" id="text16" font-size="3.5">D5</text>
    <g gorn="0.11"  style="font-style:normal;font-variant:normal;font-weight:normal;font-stretch:normal;font-size:3.5px;font-family:DroidSans;-inkscape-font-specification:'DroidSans, Normal';font-variant-ligatures:normal;font-variant-caps:normal;font-variant-numeric:normal;font-feature-settings:normal;text-align:end;writing-mode:lr-tb;text-anchor:end;fill:#231f20" id="text18" font-size="3.5">
        <text x="55.625977" y="73.845703" gorn="0.11.0"  id="tspan7766">TX2</text>
    </g>
    <g gorn="0.12"  style="font-style:normal;font-variant:normal;font-weight:normal;font-stretch:normal;font-size:3.5px;font-family:DroidSans;-inkscape-font-specification:'DroidSans, Normal';font-variant-ligatures:normal;font-variant-caps:normal;font-variant-numeric:normal;font-feature-settings:normal;text-align:end;writing-mode:lr-tb;text-anchor:end;fill:#231f20" id="text20" font-size="3.5">
        <text x="55.566162" y="81.035202" gorn="0.12.0"  id="tspan7764">RX2</text>
    </g>
    <g gorn="0.13"  style="font-style:normal;font-variant:normal;font-weight:normal;font-stretch:normal;font-size:3.5px;font-family:DroidSans;-inkscape-font-specification:'DroidSans, Normal';font-variant-ligatures:normal;font-variant-caps:normal;font-variant-numeric:normal;font-feature-settings:normal;text-align:end;writing-mode:lr-tb;text-anchor:end;fill:#231f20" id="text22" font-size="3.5">
        <text x="53.980225" y="88.226601" gorn="0.13.0"  id="tspan7762">D4</text>
    </g>
    <g gorn="0.14"  style="font-style:normal;font-variant:normal;font-weight:normal;font-stretch:normal;font-size:3.5px;font-family:DroidSans;-inkscape-font-specification:'DroidSans, Normal';font-variant-ligatures:normal;font-variant-caps:normal;font-variant-numeric:normal;font-feature-settings:normal;text-align:end;writing-mode:lr-tb;text-anchor:end;fill:#231f20" id="text24" font-size="3.5">
        <text x="53.980225" y="95.417999" gorn="0.14.0"  id="tspan7760">D2</text>
    </g>
    <g gorn="0.15"  style="font-style:normal;font-variant:normal;font-weight:normal;font-stretch:normal;font-size:3.5px;font-family:DroidSans;-inkscape-font-specification:'DroidSans, Normal';font-variant-ligatures:normal;font-variant-caps:normal;font-variant-numeric:normal;font-feature-settings:normal;text-align:end;writing-mode:lr-tb;text-anchor:end;fill:#231f20" id="text26" font-size="3.5">
        <text x="55.907959" y="102.6094" gorn="0.15.0"  id="tspan7758">D15</text>
    </g>
    <text x="57.141846" y="109.7988" gorn="0.16"  style="font-style:normal;font-variant:normal;font-weight:normal;font-stretch:normal;font-size:3.5px;font-family:DroidSans;-inkscape-font-specification:'DroidSans, Normal';font-variant-ligatures:normal;font-variant-caps:normal;font-variant-numeric:normal;font-feature-settings:normal;text-align:end;writing-mode:lr-tb;text-anchor:end;fill:#231f20" id="text28" font-size="3.5">GND</text>
    <text x="55.70459" y="116.9902" gorn="0.17"  style="font-style:normal;font-variant:normal;font-weight:normal;font-stretch:normal;font-size:3.5px;font-family:DroidSans;-inkscape-font-specification:'DroidSans, Normal';font-variant-ligatures:normal;font-variant-caps:normal;font-variant-numeric:normal;font-feature-settings:normal;text-align:end;writing-mode:lr-tb;text-anchor:end;fill:#231f20" id="text30" font-size="3.5">3V3</text>
    <text x="9.2734003" y="116.9902" gorn="0.18"  style="font-size:3.5px;font-family:DroidSans;fill:#231f20" id="text32" font-size="3.5">Vin</text>
    <text x="9.2725" y="109.9199" gorn="0.19"  style="font-size:3.5px;font-family:DroidSans;fill:#231f20" id="text34" font-size="3.5">GND</text>
    <g gorn="0.20"  style="font-style:normal;font-variant:normal;font-weight:normal;font-stretch:normal;font-size:3.5px;font-family:DroidSans;-inkscape-font-specification:'DroidSans, Normal';font-variant-ligatures:normal;font-variant-caps:normal;font-variant-numeric:normal;font-feature-settings:normal;text-align:start;writing-mode:lr-tb;text-anchor:start;fill:#231f20" id="text36" font-size="3.5">
        <text x="9.2725" y="102.7266" gorn="0.20.0"  id="tspan7756">D13</text>
    </g>
    <g gorn="0.21"  style="font-style:normal;font-variant:normal;font-weight:normal;font-stretch:normal;font-size:3.5px;font-family:DroidSans;-inkscape-font-specification:'DroidSans, Normal';font-variant-ligatures:normal;font-variant-caps:normal;font-variant-numeric:normal;font-feature-settings:normal;text-align:start;writing-mode:lr-tb;text-anchor:start;fill:#231f20" id="text38" font-size="3.5">
        <text x="9.2725" y="95.533203" gorn="0.21.0"  id="tspan7754">D12</text>
    </g>
    <g gorn="0.22"  style="font-style:normal;font-variant:normal;font-weight:normal;font-stretch:normal;font-size:3.5px;font-family:DroidSans;-inkscape-font-specification:'DroidSans, Normal';font-variant-ligatures:normal;font-variant-caps:normal;font-variant-numeric:normal;font-feature-settings:normal;text-align:start;writing-mode:lr-tb;text-anchor:start;fill:#231f20" id="text40" font-size="3.5">
        <text x="9.2725" y="88.338898" gorn="0.22.0"  id="tspan7752">D14</text>
    </g>
    <g gorn="0.23"  style="font-style:normal;font-variant:normal;font-weight:normal;font-stretch:normal;font-size:3.5px;font-family:DroidSans;-inkscape-font-specification:'DroidSans, Normal';font-variant-ligatures:normal;font-variant-caps:normal;font-variant-numeric:normal;font-feature-settings:normal;text-align:start;writing-mode:lr-tb;text-anchor:start;fill:#231f20" id="text42" font-size="3.5">
        <text x="9.2725" y="81.144501" gorn="0.23.0"  id="tspan7750">D27</text>
    </g>
    <g gorn="0.24"  style="font-style:normal;font-variant:normal;font-weight:normal;font-stretch:normal;font-size:3.5px;font-family:DroidSans;-inkscape-font-specification:'DroidSans, Normal';font-variant-ligatures:normal;font-variant-caps:normal;font-variant-numeric:normal;font-feature-settings:normal;text-align:start;writing-mode:lr-tb;text-anchor:start;fill:#231f20" id="text44" font-size="3.5">
        <text x="9.2725" y="73.952103" gorn="0.24.0"  id="tspan7748">D26</text>
    </g>
    <g gorn="0.25"  style="font-style:normal;font-variant:normal;font-weight:normal;font-stretch:normal;font-size:3.5px;font-family:DroidSans;-inkscape-font-specification:'DroidSans, Normal';font-variant-ligatures:normal;font-variant-caps:normal;font-variant-numeric:normal;font-feature-settings:normal;text-align:start;writing-mode:lr-tb;text-anchor:start;fill:#231f20" id="text46" font-size="3.5">
        <text x="9.2725" y="66.757797" gorn="0.25.0"  id="tspan7746">D25</text>
    </g>
    <g gorn="0.26"  style="font-style:normal;font-variant:normal;font-weight:normal;font-stretch:normal;font-size:3.5px;font-family:DroidSans;-inkscape-font-specification:'DroidSans, Normal';font-variant-ligatures:normal;font-variant-caps:normal;font-variant-numeric:normal;font-feature-settings:normal;text-align:start;writing-mode:lr-tb;text-anchor:start;fill:#231f20" id="text48" font-size="3.5">
        <text x="9.2725" y="59.5625" gorn="0.26.0"  id="tspan7744">D33</text>
    </g>
    <g gorn="0.27"  style="font-style:normal;font-variant:normal;font-weight:normal;font-stretch:normal;font-size:3.5px;font-family:DroidSans;-inkscape-font-specification:'DroidSans, Normal';font-variant-ligatures:normal;font-variant-caps:normal;font-variant-numeric:normal;font-feature-settings:normal;text-align:start;writing-mode:lr-tb;text-anchor:start;fill:#231f20" id="text50" font-size="3.5">
        <text x="9.2725" y="52.369099" gorn="0.27.0"  id="tspan7742">D32</text>
    </g>
    <g gorn="0.28"  style="font-style:normal;font-variant:normal;font-weight:normal;font-stretch:normal;font-size:3.5px;font-family:DroidSans;-inkscape-font-specification:'DroidSans, Normal';font-variant-ligatures:normal;font-variant-caps:normal;font-variant-numeric:normal;font-feature-settings:normal;text-align:start;writing-mode:lr-tb;text-anchor:start;fill:#231f20" id="text52" font-size="3.5">
        <text x="9.2725" y="45.1758" gorn="0.28.0"  id="tspan7740">D35</text>
    </g>
    <g gorn="0.29"  style="font-style:normal;font-variant:normal;font-weight:normal;font-stretch:normal;font-size:3.5px;font-family:DroidSans;-inkscape-font-specification:'DroidSans, Normal';font-variant-ligatures:normal;font-variant-caps:normal;font-variant-numeric:normal;font-feature-settings:normal;text-align:start;writing-mode:lr-tb;text-anchor:start;fill:#231f20" id="text54" font-size="3.5">
        <text x="9.2725" y="37.982399" gorn="0.29.0"  id="tspan7738">D34</text>
    </g>
    <g gorn="0.30"  style="font-style:normal;font-variant:normal;font-weight:normal;font-stretch:normal;font-size:3.5px;font-family:DroidSans;-inkscape-font-specification:'DroidSans, Normal';font-variant-ligatures:normal;font-variant-caps:normal;font-variant-numeric:normal;font-feature-settings:normal;text-align:start;writing-mode:lr-tb;text-anchor:start;fill:#231f20" id="text56" font-size="3.5">
        <text x="9.2725" y="30.7871" gorn="0.30.0"  id="tspan7736">VN</text>
    </g>
    <g gorn="0.31"  style="font-style:normal;font-variant:normal;font-weight:normal;font-stretch:normal;font-size:3.5px;font-family:DroidSans;-inkscape-font-specification:'DroidSans, Normal';font-variant-ligatures:normal;font-variant-caps:normal;font-variant-numeric:normal;font-feature-settings:normal;text-align:start;writing-mode:lr-tb;text-anchor:start;fill:#231f20" id="text58" font-size="3.5">
        <text x="9.2725" y="23.5938" gorn="0.31.0"  id="tspan7734">VP</text>
    </g>
    <g gorn="0.32"  style="font-style:normal;font-variant:normal;font-weight:normal;font-stretch:normal;font-size:3.5px;font-family:DroidSans;-inkscape-font-specification:'DroidSans, Normal';font-variant-ligatures:normal;font-variant-caps:normal;font-variant-numeric:normal;font-feature-settings:normal;text-align:start;writing-mode:lr-tb;text-anchor:start;fill:#231f20" id="text60" font-size="3.5">
        <text x="9.2734003" y="16.316401" gorn="0.32.0"  id="tspan7732">EN</text>
    </g>
    <rect width="50.400002" x="7.2719998" y="7.2010002" fill="none" gorn="0.33"  height="116.2" stroke="#231f20" style="stroke-miterlimit:10" id="rect62" stroke-width="0.69999999" stroke-miterlimit="10"/>
    <line fill="none" gorn="0.34"  stroke="#231f20" style="stroke-miterlimit:10" id="line64" y1="15.386" stroke-width="1" y2="15.401" x1="0.001" x2="7.2719998" stroke-miterlimit="10"/>
    <line fill="none" gorn="0.35"  stroke="#231f20" style="stroke-miterlimit:10" id="line66" y1="22.601" stroke-width="1" y2="22.617001" x1="0.001" x2="7.2719998" stroke-miterlimit="10"/>
    <line fill="none" gorn="0.36"  stroke="#231f20" style="stroke-miterlimit:10" id="line68" y1="29.801001" stroke-width="1" y2="29.816999" x1="0.001" x2="7.2719998" stroke-miterlimit="10"/>
    <line fill="none" gorn="0.37"  stroke="#231f20" style="stroke-miterlimit:10" id="line70" y1="36.970001" stroke-width="1" y2="36.986" x1="0.001" x2="7.2719998" stroke-miterlimit="10"/>
    <line fill="none" gorn="0.38"  stroke="#231f20" style="stroke-miterlimit:10" id="line72" y1="44.186001" stroke-width="1" y2="44.202" x1="0.001" x2="7.2719998" stroke-miterlimit="10"/>
    <line fill="none" gorn="0.39"  stroke="#231f20" style="stroke-miterlimit:10" id="line74" y1="51.386002" stroke-width="1" y2="51.401001" x1="0.001" x2="7.2719998" stroke-miterlimit="10"/>
    <line fill="none" gorn="0.40"  stroke="#231f20" style="stroke-miterlimit:10" id="line76" y1="58.585999" stroke-width="1" y2="58.602001" x1="0.001" x2="7.2719998" stroke-miterlimit="10"/>
    <line fill="none" gorn="0.41"  stroke="#231f20" style="stroke-miterlimit:10" id="line78" y1="65.803001" stroke-width="1" y2="65.817001" x1="0.001" x2="7.2719998" stroke-miterlimit="10"/>
    <line fill="none" gorn="0.42"  stroke="#231f20" style="stroke-miterlimit:10" id="line80" y1="73.001999" stroke-width="1" y2="73.018997" x1="0.001" x2="7.2719998" stroke-miterlimit="10"/>
    <line fill="none" gorn="0.43"  stroke="#231f20" style="stroke-miterlimit:10" id="line82" y1="80.171997" stroke-width="1" y2="80.186996" x1="0.001" x2="7.2719998" stroke-miterlimit="10"/>
    <line fill="none" gorn="0.44"  stroke="#231f20" style="stroke-miterlimit:10" id="line84" y1="87.388" stroke-width="1" y2="87.402" x1="0.001" x2="7.2719998" stroke-miterlimit="10"/>
    <line fill="none" gorn="0.45"  stroke="#231f20" style="stroke-miterlimit:10" id="line86" y1="94.587997" stroke-width="1" y2="94.602997" x1="0.001" x2="7.2719998" stroke-miterlimit="10"/>
    <line fill="none" gorn="0.46"  stroke="#231f20" style="stroke-miterlimit:10" id="line88" y1="101.856" stroke-width="1" y2="101.873" x1="0.001" x2="7.2719998" stroke-miterlimit="10"/>
    <line fill="none" gorn="0.47"  stroke="#231f20" style="stroke-miterlimit:10" id="line90" y1="109.072" stroke-width="1" y2="109.088" x1="0.001" x2="7.2719998" stroke-miterlimit="10"/>
    <line fill="none" gorn="0.48"  stroke="#231f20" style="stroke-miterlimit:10" id="line92" y1="116.272" stroke-width="1" y2="116.289" x1="0.001" x2="7.2719998" stroke-miterlimit="10"/>
    <line fill="none" gorn="0.49"  stroke="#231f20" style="stroke-miterlimit:10" id="line94" y1="15.439" stroke-width="1" y2="15.455" x1="57.602001" x2="64.872002" stroke-miterlimit="10"/>
    <line fill="none" gorn="0.50"  stroke="#231f20" style="stroke-miterlimit:10" id="line96" y1="22.655001" stroke-width="1" y2="22.671" x1="57.602001" x2="64.873001" stroke-miterlimit="10"/>
    <line fill="none" gorn="0.51"  stroke="#231f20" style="stroke-miterlimit:10" id="line98" y1="29.855" stroke-width="1" y2="29.871" x1="57.602001" x2="64.873001" stroke-miterlimit="10"/>
    <line fill="none" gorn="0.52"  stroke="#231f20" style="stroke-miterlimit:10" id="line100" y1="37.023998" stroke-width="1" y2="37.039001" x1="57.602001" x2="64.872002" stroke-miterlimit="10"/>
    <line fill="none" gorn="0.53"  stroke="#231f20" style="stroke-miterlimit:10" id="line102" y1="44.240002" stroke-width="1" y2="44.255001" x1="57.602001" x2="64.873001" stroke-miterlimit="10"/>
    <line fill="none" gorn="0.54"  stroke="#231f20" style="stroke-miterlimit:10" id="line104" y1="51.438999" stroke-width="1" y2="51.455002" x1="57.602001" x2="64.873001" stroke-miterlimit="10"/>
    <line fill="none" gorn="0.55"  stroke="#231f20" style="stroke-miterlimit:10" id="line106" y1="58.639999" stroke-width="1" y2="58.655998" x1="57.602001" x2="64.872002" stroke-miterlimit="10"/>
    <line fill="none" gorn="0.56"  stroke="#231f20" style="stroke-miterlimit:10" id="line108" y1="65.855003" stroke-width="1" y2="65.871002" x1="57.602001" x2="64.873001" stroke-miterlimit="10"/>
    <line fill="none" gorn="0.57"  stroke="#231f20" style="stroke-miterlimit:10" id="line110" y1="73.056999" stroke-width="1" y2="73.070999" x1="57.602001" x2="64.873001" stroke-miterlimit="10"/>
    <line fill="none" gorn="0.58"  stroke="#231f20" style="stroke-miterlimit:10" id="line112" y1="80.225998" stroke-width="1" y2="80.239998" x1="57.602001" x2="64.872002" stroke-miterlimit="10"/>
    <line fill="none" gorn="0.59"  stroke="#231f20" style="stroke-miterlimit:10" id="line114" y1="87.440002" stroke-width="1" y2="87.457001" x1="57.602001" x2="64.873001" stroke-miterlimit="10"/>
    <line fill="none" gorn="0.60"  stroke="#231f20" style="stroke-miterlimit:10" id="line116" y1="94.641998" stroke-width="1" y2="94.655998" x1="57.602001" x2="64.873001" stroke-miterlimit="10"/>
    <line fill="none" gorn="0.61"  stroke="#231f20" style="stroke-miterlimit:10" id="line118" y1="101.91" stroke-width="1" y2="101.927" x1="57.602001" x2="64.872002" stroke-miterlimit="10"/>
    <line fill="none" gorn="0.62"  stroke="#231f20" style="stroke-miterlimit:10" id="line120" y1="109.127" stroke-width="1" y2="109.143" x1="57.602001" x2="64.873001" stroke-miterlimit="10"/>
    <line fill="none" gorn="0.63"  stroke="#231f20" style="stroke-miterlimit:10" id="line122" y1="116.326" stroke-width="1" y2="116.343" x1="57.602001" x2="64.873001" stroke-miterlimit="10"/>
    <g gorn="0.64"  style="font-style:normal;font-variant:normal;font-weight:normal;font-stretch:normal;font-size:4.25px;font-family:DroidSans;-inkscape-font-specification:'DroidSans, Normal';font-variant-ligatures:normal;font-variant-caps:normal;font-variant-numeric:normal;font-feature-settings:normal;text-align:center;writing-mode:lr-tb;text-anchor:middle" id="text124" font-size="4.25">
        <text x="32.294601" y="59.83194" gorn="0.64.0"  id="tspan7728">LuaNode32</text>
        <text x="32.294601" y="65.14444" gorn="0.64.1"  id="tspan7730">ESP32</text>
    </g>
    <line fill="none" gorn="0.65"  stroke="#231f20" style="stroke-miterlimit:10" id="connector0pin" y1="15.369827" stroke-width="0.32474488" y2="15.384832" x1="0.0052564703" x2="0.77180481" stroke-miterlimit="10"/>
    <line fill="none" gorn="0.66"  stroke="#231f20" style="stroke-miterlimit:10" id="connector1pin" y1="22.587141" stroke-width="0.32474488" y2="22.603146" x1="0.0052564703" x2="0.77180481" stroke-miterlimit="10"/>
    <line fill="none" gorn="0.67"  stroke="#231f20" style="stroke-miterlimit:10" id="connector2pin" y1="29.78945" stroke-width="0.32474488" y2="29.805452" x1="0.0052564703" x2="0.77180481" stroke-miterlimit="10"/>
    <line fill="none" gorn="0.68"  stroke="#231f20" style="stroke-miterlimit:10" id="connector3pin" y1="36.960747" stroke-width="0.32474488" y2="36.976753" x1="0.0052564703" x2="0.77180481" stroke-miterlimit="10"/>
    <line fill="none" gorn="0.69"  stroke="#231f20" style="stroke-miterlimit:10" id="connector4pin" y1="44.179062" stroke-width="0.32474488" y2="44.195065" x1="0.0052564703" x2="0.77180481" stroke-miterlimit="10"/>
    <line fill="none" gorn="0.70"  stroke="#231f20" style="stroke-miterlimit:10" id="connector5pin" y1="51.381371" stroke-width="0.32474488" y2="51.396374" x1="0.0052564703" x2="0.77180481" stroke-miterlimit="10"/>
    <line fill="none" gorn="0.71"  stroke="#231f20" style="stroke-miterlimit:10" id="connector6pin" y1="58.583675" stroke-width="0.32474488" y2="58.599682" x1="0.0052564703" x2="0.77180481" stroke-miterlimit="10"/>
    <line fill="none" gorn="0.72"  stroke="#231f20" style="stroke-miterlimit:10" id="connector7pin" y1="65.802994" stroke-width="0.32474488" y2="65.816994" x1="0.0052564703" x2="0.77180481" stroke-miterlimit="10"/>
    <line fill="none" gorn="0.73"  stroke="#231f20" style="stroke-miterlimit:10" id="connector8pin" y1="73.004295" stroke-width="0.32474488" y2="73.021301" x1="0.0052564703" x2="0.77180481" stroke-miterlimit="10"/>
    <line fill="none" gorn="0.74"  stroke="#231f20" style="stroke-miterlimit:10" id="connector9pin" y1="80.17659" stroke-width="0.32474488" y2="80.191597" x1="0.0052564703" x2="0.77180481" stroke-miterlimit="10"/>
    <line fill="none" gorn="0.75"  stroke="#231f20" style="stroke-miterlimit:10" id="connector10pin" y1="87.394905" stroke-width="0.32474488" y2="87.408913" x1="0.0052564703" x2="0.77180481" stroke-miterlimit="10"/>
    <line fill="none" gorn="0.76"  stroke="#231f20" style="stroke-miterlimit:10" id="connector11pin" y1="94.597214" stroke-width="0.32474488" y2="94.612221" x1="0.0052564703" x2="0.77180481" stroke-miterlimit="10"/>
    <line fill="none" gorn="0.77"  stroke="#231f20" style="stroke-miterlimit:10" id="connector12pin" y1="101.86755" stroke-width="0.32474488" y2="101.88455" x1="0.0052564703" x2="0.77180481" stroke-miterlimit="10"/>
    <line fill="none" gorn="0.78"  stroke="#231f20" style="stroke-miterlimit:10" id="connector13pin" y1="109.08585" stroke-width="0.32474488" y2="109.10186" x1="0.0052564703" x2="0.77180481" stroke-miterlimit="10"/>
    <line fill="none" gorn="0.79"  stroke="#231f20" style="stroke-miterlimit:10" id="connector14pin" y1="116.28817" stroke-width="0.32474488" y2="116.30518" x1="0.0052564703" x2="0.77180481" stroke-miterlimit="10"/>
    <line fill="none" gorn="0.80"  stroke="#231f20" style="stroke-miterlimit:10" id="connector42pin" y1="15.423588" stroke-width="0.35662282" y2="15.439592" x1="63.944031" x2="64.868347" stroke-miterlimit="10"/>
    <line fill="none" gorn="0.81"  stroke="#231f20" style="stroke-miterlimit:10" id="connector41pin" y1="22.641792" stroke-width="0.35662282" y2="22.657797" x1="63.944031" x2="64.868469" stroke-miterlimit="10"/>
    <line fill="none" gorn="0.82"  stroke="#231f20" style="stroke-miterlimit:10" id="connector40pin" y1="29.84399" stroke-width="0.35662282" y2="29.859997" x1="63.944031" x2="64.868469" stroke-miterlimit="10"/>
    <line fill="none" gorn="0.83"  stroke="#231f20" style="stroke-miterlimit:10" id="connector39pin" y1="37.015179" stroke-width="0.35662282" y2="37.03019" x1="63.944031" x2="64.868347" stroke-miterlimit="10"/>
    <line fill="none" gorn="0.84"  stroke="#231f20" style="stroke-miterlimit:10" id="connector38pin" y1="44.233387" stroke-width="0.35662282" y2="44.24839" x1="63.944031" x2="64.868469" stroke-miterlimit="10"/>
    <line fill="none" gorn="0.85"  stroke="#231f20" style="stroke-miterlimit:10" id="connector37pin" y1="51.434586" stroke-width="0.35662282" y2="51.450592" x1="63.944031" x2="64.868469" stroke-miterlimit="10"/>
    <line fill="none" gorn="0.86"  stroke="#231f20" style="stroke-miterlimit:10" id="connector36pin" y1="58.637783" stroke-width="0.35662282" y2="58.65379" x1="63.944031" x2="64.868347" stroke-miterlimit="10"/>
    <line fill="none" gorn="0.87"  stroke="#231f20" style="stroke-miterlimit:10" id="connector35pin" y1="65.854996" stroke-width="0.35662282" y2="65.870995" x1="63.944031" x2="64.868469" stroke-miterlimit="10"/>
    <line fill="none" gorn="0.88"  stroke="#231f20" style="stroke-miterlimit:10" id="connector34pin" y1="73.059189" stroke-width="0.35662282" y2="73.073189" x1="63.944031" x2="64.868469" stroke-miterlimit="10"/>
    <line fill="none" gorn="0.89"  stroke="#231f20" style="stroke-miterlimit:10" id="connector33pin" y1="80.230377" stroke-width="0.35662282" y2="80.244385" x1="63.944031" x2="64.868347" stroke-miterlimit="10"/>
    <line fill="none" gorn="0.90"  stroke="#231f20" style="stroke-miterlimit:10" id="connector19pin" y1="87.446587" stroke-width="0.35662282" y2="87.463585" x1="63.944031" x2="64.868469" stroke-miterlimit="10"/>
    <line fill="none" gorn="0.91"  stroke="#231f20" style="stroke-miterlimit:10" id="connector18pin" y1="94.65078" stroke-width="0.35662282" y2="94.664787" x1="63.944031" x2="64.868469" stroke-miterlimit="10"/>
    <line fill="none" gorn="0.92"  stroke="#231f20" style="stroke-miterlimit:10" id="connector17pin" y1="101.92101" stroke-width="0.35662282" y2="101.93801" x1="63.944031" x2="64.868347" stroke-miterlimit="10"/>
    <line fill="none" gorn="0.93"  stroke="#231f20" style="stroke-miterlimit:10" id="connector16pin" y1="109.14021" stroke-width="0.35662282" y2="109.15621" x1="63.944031" x2="64.868469" stroke-miterlimit="10"/>
    <line fill="none" gorn="0.94"  stroke="#231f20" style="stroke-miterlimit:10" id="connector15pin" y1="116.3414" stroke-width="0.35662282" y2="116.35841" x1="63.944031" x2="64.868469" stroke-miterlimit="10"/>
</svg>
